Time(longsecs),Time(UTC),Supply Voltage(mV),Temperature(&deg;C),NMX Bus Current(mA),Sensor Current(mA),Serial Port Current(mA),Controller Current(mA),Digitizer Current(mA),
1571493618,2019-10-19 14:00:18.806,16687,2.8217224E1,0,8,0,56,37,
1571493678,2019-10-19 14:01:18.806,16687,2.8479736E1,0,9,0,33,41,
1571493738,2019-10-19 14:02:18.806,16687,2.8351196E1,0,8,0,41,37,
1571493798,2019-10-19 14:03:18.808,16687,2.8363068E1,0,8,0,40,41,
1571493858,2019-10-19 14:04:18.806,16687,2.8372803E1,0,9,0,33,39,
1571493918,2019-10-19 14:05:18.806,16701,2.8132965E1,0,9,0,36,42,
1571493978,2019-10-19 14:06:18.806,16674,2.8148102E1,0,13,0,39,37,
1571494038,2019-10-19 14:07:18.806,16687,2.832959E1,0,10,0,38,35,
1571494098,2019-10-19 14:08:18.809,16687,2.834903E1,3,10,0,35,38,
1571494158,2019-10-19 14:09:18.806,16687,2.8364136E1,0,6,0,33,37,
1571494218,2019-10-19 14:10:18.806,16687,2.8182678E1,0,8,0,39,37,
1571494278,2019-10-19 14:11:18.806,16674,2.8137299E1,0,8,0,39,36,
1571494338,2019-10-19 14:12:18.806,16687,2.820642E1,0,3,0,41,36,
1571494398,2019-10-19 14:13:18.809,16674,2.8256134E1,0,6,0,33,36,
1571494458,2019-10-19 14:14:18.806,16659,2.8115692E1,0,9,0,33,36,
1571494518,2019-10-19 14:15:18.807,16646,2.8068176E1,0,9,0,47,35,
1571494578,2019-10-19 14:16:18.809,16674,2.782727E1,0,11,0,45,42,
1571494638,2019-10-19 14:17:18.806,16687,2.799472E1,0,9,0,38,36,
1571494698,2019-10-19 14:18:18.823,16687,2.8193481E1,0,9,0,33,37,
1571494758,2019-10-19 14:19:18.806,16687,2.7870483E1,0,8,0,33,34,
1571494818,2019-10-19 14:20:18.806,16701,2.8051971E1,0,7,0,38,41,
1571494878,2019-10-19 14:21:18.806,16687,2.7800262E1,0,6,0,38,37,
1571494938,2019-10-19 14:22:18.806,16687,2.7964478E1,0,9,0,38,36,
1571494998,2019-10-19 14:23:18.806,16674,2.7912628E1,0,6,0,36,36,
1571495058,2019-10-19 14:24:18.806,16674,2.7804596E1,0,8,0,34,35,
1571495118,2019-10-19 14:25:18.806,16674,2.784671E1,0,11,0,39,35,
1571495178,2019-10-19 14:26:18.806,16674,2.7764618E1,0,7,0,33,38,
1571495238,2019-10-19 14:27:18.806,16674,2.775058E1,0,9,0,38,36,
1571495298,2019-10-19 14:28:18.806,16687,2.7611237E1,0,12,0,33,36,
1571495358,2019-10-19 14:29:18.806,16674,2.767389E1,0,6,0,38,35,
1571495418,2019-10-19 14:30:18.807,16674,2.7659851E1,0,6,0,40,35,
1571495478,2019-10-19 14:31:18.807,16659,2.7888855E1,0,6,0,36,37,
1571495538,2019-10-19 14:32:18.806,16687,2.7569092E1,0,7,0,38,38,
1571495598,2019-10-19 14:33:18.835,16659,2.7457855E1,0,8,0,34,38,
1571495658,2019-10-19 14:34:18.806,16659,2.7437317E1,0,7,0,33,36,
1571495718,2019-10-19 14:35:18.806,16632,2.7477295E1,0,7,0,33,38,
1571495778,2019-10-19 14:36:18.806,16646,2.7425446E1,0,8,0,38,36,
1571495838,2019-10-19 14:37:18.836,16674,2.7344421E1,0,9,0,38,36,
1571495898,2019-10-19 14:38:18.806,16674,2.7279602E1,0,8,0,33,36,
1571495958,2019-10-19 14:39:18.806,16687,2.7407074E1,0,8,0,33,35,
1571496018,2019-10-19 14:40:18.806,16687,2.689505E1,0,4,0,39,36,
1571496078,2019-10-19 14:41:18.806,16727,2.7335785E1,0,3,0,33,35,
1571496138,2019-10-19 14:42:18.806,16741,2.7154297E1,0,9,0,38,36,
1571496198,2019-10-19 14:43:18.806,16755,2.7054932E1,0,4,0,33,34,
1571496258,2019-10-19 14:44:18.806,16755,2.6859406E1,0,6,0,33,39,
1571496318,2019-10-19 14:45:18.807,16755,2.704953E1,0,6,0,36,35,
1571496378,2019-10-19 14:46:18.806,16741,2.6883148E1,0,8,0,38,36,
1571496438,2019-10-19 14:47:18.806,16714,2.6858307E1,0,9,0,46,39,
1571496498,2019-10-19 14:48:18.806,16714,2.6929596E1,0,9,0,34,35,
1571496558,2019-10-19 14:49:18.806,16701,2.6806458E1,0,12,0,33,35,
1571496618,2019-10-19 14:50:18.809,16701,2.6607697E1,0,6,0,47,40,
1571496678,2019-10-19 14:51:18.807,16687,2.6653076E1,0,7,0,43,36,
1571496738,2019-10-19 14:52:18.807,16646,2.6582855E1,0,6,0,49,39,
1571496798,2019-10-19 14:53:18.812,16674,2.6426239E1,0,8,0,42,37,
1571496858,2019-10-19 14:54:18.806,16674,2.6576385E1,0,11,0,39,37,
1571496918,2019-10-19 14:55:18.806,16674,2.6413269E1,0,5,0,38,36,
1571496978,2019-10-19 14:56:18.806,16674,2.6816193E1,0,9,0,38,39,
1571497038,2019-10-19 14:57:18.806,16674,2.6368988E1,0,9,0,39,37,
1571497098,2019-10-19 14:58:18.806,16674,2.6282562E1,0,8,0,33,38,
1571497158,2019-10-19 14:59:18.808,16674,2.6208008E1,0,2,0,33,34,
