Time(longsecs),Time(UTC),External SOH Voltage 1(V),External SOH Voltage 2(V),External SOH Voltage 3(V),External SOH Voltage 4(V),Sensor SOH Voltage 1(V),Sensor SOH Voltage 2(V),Sensor SOH Voltage 3(V),
1571450418,2019-10-19 02:00:18.807,-9.78303E-3,1.3902187E-3,-2.8541088E-3,-2.4290085E-3,2.2942257E-1,2.3289299E-1,2.3218918E-1,
1571450478,2019-10-19 02:01:18.806,-8.099079E-3,2.7880669E-3,-1.2629032E-3,-8.3589554E-4,2.3391533E-1,2.3573494E-1,2.3488712E-1,
1571450538,2019-10-19 02:02:18.806,-1.1850357E-2,-1.2469292E-3,-5.277157E-3,-4.63295E-3,2.189312E-1,2.230711E-1,2.2226524E-1,
1571450598,2019-10-19 02:03:18.806,-9.616613E-3,1.5289783E-3,-3.1437874E-3,-2.5582314E-3,2.298994E-1,2.3233604E-1,2.3122883E-1,
1571450658,2019-10-19 02:04:18.806,-7.6913834E-3,2.9973984E-3,-7.972717E-4,-7.469654E-4,2.3538113E-1,2.3776531E-1,2.366209E-1,
1571450718,2019-10-19 02:05:18.806,-1.1818647E-2,-1.052618E-3,-5.206108E-3,-4.892111E-3,2.2327328E-1,2.2618866E-1,2.2527027E-1,
1571450778,2019-10-19 02:06:18.806,-7.6687336E-3,2.957821E-3,-1.057148E-3,-6.325245E-4,2.3834515E-1,2.3980904E-1,2.390356E-1,
1571450838,2019-10-19 02:07:18.806,-9.60207E-3,1.2426376E-3,-3.1511784E-3,-2.6624203E-3,2.2965431E-1,2.3275757E-1,2.3118591E-1,
1571450898,2019-10-19 02:08:18.806,-1.0111332E-2,1.1024475E-3,-3.4298897E-3,-3.1843185E-3,2.2691154E-1,2.2973728E-1,2.2892761E-1,
1571450958,2019-10-19 02:09:18.806,-1.0197401E-2,7.3218346E-4,-3.5090446E-3,-2.7627945E-3,2.351284E-1,2.3792362E-1,2.3723221E-1,
1571451018,2019-10-19 02:10:18.806,-1.1960268E-2,-1.2772083E-3,-5.3031445E-3,-4.97365E-3,2.2273064E-1,2.2626877E-1,2.2546291E-1,
1571451078,2019-10-19 02:11:18.806,-1.2010336E-2,-1.430273E-3,-5.494356E-3,-4.9545765E-3,2.2304916E-1,2.2579765E-1,2.2456932E-1,
1571451138,2019-10-19 02:12:18.806,-1.0058403E-2,5.865097E-4,-4.20022E-3,-2.8691292E-3,2.2844124E-1,2.3150158E-1,2.3155689E-1,
1571451198,2019-10-19 02:13:18.809,-9.733677E-3,1.2245178E-3,-3.2444E-3,-2.245903E-3,2.296524E-1,2.3252106E-1,2.3213863E-1,
1571451258,2019-10-19 02:14:18.806,-1.038909E-2,5.738735E-4,-3.2830238E-3,-2.3670197E-3,2.296524E-1,2.3180294E-1,2.3043537E-1,
1571451318,2019-10-19 02:15:18.808,-1.018548E-2,4.1246414E-4,-3.5734177E-3,-3.557682E-3,2.307682E-1,2.3381329E-1,2.3360157E-1,
1571451378,2019-10-19 02:16:18.806,-1.2162685E-2,-1.4016628E-3,-5.012512E-3,-4.856348E-3,2.2447205E-1,2.2614288E-1,2.2527027E-1,
1571451438,2019-10-19 02:17:18.806,-7.774353E-3,3.1261444E-3,-1.0147095E-3,-7.202625E-4,2.4157715E-1,2.438221E-1,2.4163246E-1,
1571451498,2019-10-19 02:18:18.809,-9.496689E-3,1.5113354E-3,-2.8264523E-3,-2.4051666E-3,2.3180771E-1,2.3471451E-1,2.3317909E-1,
1571451558,2019-10-19 02:19:18.806,-1.2201309E-2,-1.054287E-3,-5.52845E-3,-4.762411E-3,2.2284317E-1,2.2602654E-1,2.251625E-1,
1571451618,2019-10-19 02:20:18.806,-1.1964798E-2,-1.083374E-3,-5.2013397E-3,-4.9710274E-3,2.2488976E-1,2.2779751E-1,2.2859287E-1,
1571451678,2019-10-19 02:21:18.806,-1.0360241E-2,6.0629845E-4,-3.8003922E-3,-3.1487942E-3,2.306242E-1,2.3305225E-1,2.3211956E-1,
1571451738,2019-10-19 02:22:18.809,-7.873535E-3,3.0725002E-3,-1.1427402E-3,-4.7302246E-4,2.4099159E-1,2.4446106E-1,2.4400139E-1,
1571451798,2019-10-19 02:23:18.806,-1.2037277E-2,-1.2688637E-3,-5.086899E-3,-4.8770905E-3,2.2306252E-1,2.2689533E-1,2.247982E-1,
1571451858,2019-10-19 02:24:18.806,-7.63011E-3,2.9594898E-3,-7.0667267E-4,-2.9921532E-4,2.3806953E-1,2.4030876E-1,2.3928833E-1,
1571451918,2019-10-19 02:25:18.806,-9.656906E-3,1.0704994E-3,-2.7422905E-3,-2.3450851E-3,2.281084E-1,2.3051071E-1,2.2987175E-1,
1571451978,2019-10-19 02:26:18.806,-9.912014E-3,6.489754E-4,-3.485918E-3,-2.8867722E-3,2.314539E-1,2.3380852E-1,2.3250484E-1,
1571452038,2019-10-19 02:27:18.806,-7.941008E-3,3.0510426E-3,-1.894474E-3,3.4809113E-5,2.3526764E-1,2.3727989E-1,2.377367E-1,
1571452098,2019-10-19 02:28:18.806,-7.7786446E-3,3.1325817E-3,-9.801388E-4,-2.8324127E-4,2.3606777E-1,2.3901558E-1,2.3719597E-1,
1571452158,2019-10-19 02:29:18.806,-7.5469017E-3,3.1023026E-3,-8.7594986E-4,-7.1907043E-4,2.3357296E-1,2.3605919E-1,2.3599052E-1,
1571452218,2019-10-19 02:30:18.806,-9.669304E-3,1.2311935E-3,-2.696991E-3,-2.105236E-3,2.2808075E-1,2.3185825E-1,2.2984505E-1,
1571452278,2019-10-19 02:31:18.806,-8.120298E-3,3.182888E-3,-1.3613701E-3,-1.0848045E-4,2.3561668E-1,2.3843002E-1,2.3622227E-1,
1571452338,2019-10-19 02:32:18.809,-9.566069E-3,1.226902E-3,-3.6861897E-3,-2.184391E-3,2.3657131E-1,2.3834991E-1,2.3821354E-1,
1571452398,2019-10-19 02:33:18.806,-1.0129929E-2,5.617142E-4,-3.7760735E-3,-3.2393932E-3,2.3106098E-1,2.3379612E-1,2.328291E-1,
1571452458,2019-10-19 02:34:18.806,-9.367466E-3,1.21665E-3,-2.7899742E-3,-2.2871494E-3,2.2941494E-1,2.3259258E-1,2.328825E-1,
1571452518,2019-10-19 02:35:18.806,-1.1881113E-2,-9.98497E-4,-5.5344105E-3,-4.953146E-3,2.298727E-1,2.3203754E-1,2.3142052E-1,
1571452578,2019-10-19 02:36:18.806,-7.90143E-3,2.7456284E-3,-1.339674E-3,-5.9247017E-4,2.3404789E-1,2.3662281E-1,2.3462677E-1,
1571452638,2019-10-19 02:37:18.806,-7.7364445E-3,3.3915043E-3,-9.109974E-4,-2.1004677E-4,2.3291683E-1,2.363472E-1,2.3779011E-1,
1571452698,2019-10-19 02:38:18.806,-9.53126E-3,1.3103485E-3,-2.6504993E-3,-2.7256012E-3,2.2748184E-1,2.3014355E-1,2.2914314E-1,
1571452758,2019-10-19 02:39:18.807,-9.727955E-3,1.3067722E-3,-2.8386116E-3,-2.054453E-3,2.3020744E-1,2.3285103E-1,2.3460388E-1,
1571452818,2019-10-19 02:40:18.807,-1.070261E-2,5.3596497E-4,-3.8199425E-3,-2.7770996E-3,2.2943401E-1,2.3130035E-1,2.2993755E-1,
1571452878,2019-10-19 02:41:18.811,-1.1808395E-2,-7.4744225E-4,-5.5794716E-3,-4.659176E-3,2.2319603E-1,2.2639751E-1,2.27314E-1,
1571452938,2019-10-19 02:42:18.806,-8.113384E-3,3.0345917E-3,-1.2950897E-3,-5.719662E-4,2.3616219E-1,2.382412E-1,2.3749828E-1,
1571452998,2019-10-19 02:43:18.806,-1.0220528E-2,7.402897E-4,-3.8974285E-3,-3.0462742E-3,2.2716808E-1,2.3002625E-1,2.2863102E-1,
1571453058,2019-10-19 02:44:18.806,-1.0217667E-2,5.455017E-4,-3.5619736E-3,-2.6583672E-3,2.3091125E-1,2.3336792E-1,2.3145103E-1,
1571453118,2019-10-19 02:45:18.806,-1.20129585E-2,-1.0840893E-3,-5.502939E-3,-4.7540665E-3,2.2365665E-1,2.2658157E-1,2.2522068E-1,
1571453178,2019-10-19 02:46:18.806,-1.0366917E-2,3.8456917E-4,-3.6494732E-3,-3.1850338E-3,2.3137188E-1,2.3364353E-1,2.3292828E-1,
1571453238,2019-10-19 02:47:18.806,-1.1973619E-2,-1.2893677E-3,-5.252838E-3,-4.7283173E-3,2.21838E-1,2.2543049E-1,2.2285652E-1,
1571453298,2019-10-19 02:48:18.806,-1.0010719E-2,1.0507107E-3,-3.450632E-3,-2.559185E-3,2.3104954E-1,2.3428535E-1,2.3298359E-1,
1571453358,2019-10-19 02:49:18.806,-1.2166023E-2,-1.4271736E-3,-5.358219E-3,-5.126238E-3,2.2438908E-1,2.2802353E-1,2.2713184E-1,
1571453418,2019-10-19 02:50:18.806,-1.1872292E-2,-1.1005402E-3,-5.2940845E-3,-4.658699E-3,2.2132683E-1,2.2404099E-1,2.2371101E-1,
1571453478,2019-10-19 02:51:18.806,-1.1651754E-2,-7.469654E-4,-5.2244663E-3,-4.625559E-3,2.2386932E-1,2.2681236E-1,2.2649097E-1,
1571453538,2019-10-19 02:52:18.806,-9.669542E-3,1.5099049E-3,-2.9246807E-3,-2.4106503E-3,2.2969055E-1,2.3295593E-1,2.321701E-1,
1571453598,2019-10-19 02:53:18.806,-1.2010336E-2,-1.0340214E-3,-5.333185E-3,-4.455805E-3,2.2239017E-1,2.2631264E-1,2.2562218E-1,
1571453658,2019-10-19 02:54:18.806,-9.771347E-3,1.5375614E-3,-2.8464794E-3,-2.0208359E-3,2.3201466E-1,2.3561287E-1,2.3416519E-1,
1571453718,2019-10-19 02:55:18.806,-9.730101E-3,1.4414787E-3,-2.5098324E-3,-2.2039413E-3,2.3197365E-1,2.3499489E-1,2.3552799E-1,
1571453778,2019-10-19 02:56:18.806,-1.02472305E-2,6.00338E-4,-3.5841465E-3,-3.113985E-3,2.2826481E-1,2.3216057E-1,2.3072433E-1,
1571453838,2019-10-19 02:57:18.806,-9.341717E-3,1.5587807E-3,-2.5129318E-3,-2.28858E-3,2.321415E-1,2.3511505E-1,2.3366833E-1,
1571453898,2019-10-19 02:58:18.806,-1.0341406E-2,6.1678886E-4,-3.059864E-3,-2.8090477E-3,2.3075676E-1,2.3334122E-1,2.3351765E-1,
1571453958,2019-10-19 02:59:18.816,-1.0243177E-2,9.6154213E-4,-3.6170483E-3,-2.74086E-3,2.314825E-1,2.338314E-1,2.3219204E-1,
