Time(longsecs),Time(UTC),Supply Voltage(mV),Temperature(&deg;C),NMX Bus Current(mA),Sensor Current(mA),Serial Port Current(mA),Controller Current(mA),Digitizer Current(mA),
1571461218,2019-10-19 05:00:18.806,16087,1.8135498E1,0,6,0,40,37,
1571461278,2019-10-19 05:01:18.806,16087,1.7809265E1,0,9,0,39,39,
1571461338,2019-10-19 05:02:18.806,16087,1.8176544E1,0,7,0,36,34,
1571461398,2019-10-19 05:03:18.806,16087,1.7990753E1,0,11,2,40,35,
1571461458,2019-10-19 05:04:18.806,16087,1.802533E1,0,8,0,34,37,
1571461518,2019-10-19 05:05:18.807,16087,1.817981E1,0,11,0,40,34,
1571461578,2019-10-19 05:06:18.806,16087,1.7976715E1,0,11,0,40,34,
1571461638,2019-10-19 05:07:18.806,16087,1.8229492E1,0,7,0,40,37,
1571461698,2019-10-19 05:08:18.806,16087,1.8000488E1,0,8,0,35,39,
1571461758,2019-10-19 05:09:18.836,16087,1.8100952E1,0,11,0,34,36,
1571461818,2019-10-19 05:10:18.806,16073,1.7944305E1,0,4,0,39,37,
1571461878,2019-10-19 05:11:18.807,16060,1.800589E1,0,12,0,42,40,
1571461938,2019-10-19 05:12:18.807,16073,1.7962677E1,0,6,0,49,36,
1571461998,2019-10-19 05:13:18.806,16087,1.8029633E1,0,8,0,35,36,
1571462058,2019-10-19 05:14:18.813,16087,1.8062042E1,0,8,0,33,42,
1571462118,2019-10-19 05:15:18.806,16087,1.8075012E1,0,6,0,39,34,
1571462178,2019-10-19 05:16:18.806,16087,1.8071777E1,0,9,0,38,39,
1571462238,2019-10-19 05:17:18.806,16060,1.8026398E1,0,4,0,40,37,
1571462298,2019-10-19 05:18:18.806,16087,1.7797394E1,1,10,0,35,39,
1571462358,2019-10-19 05:19:18.807,16087,1.808258E1,0,6,0,35,36,
1571462418,2019-10-19 05:20:18.806,16073,1.7936737E1,0,9,0,39,40,
1571462478,2019-10-19 05:21:18.809,16060,1.8062042E1,0,9,0,41,37,
1571462538,2019-10-19 05:22:18.807,16073,1.801883E1,0,12,0,38,39,
1571462598,2019-10-19 05:23:18.806,16087,1.7791992E1,0,8,0,34,40,
1571462658,2019-10-19 05:24:18.806,16073,1.790866E1,0,7,0,34,37,
1571462718,2019-10-19 05:25:18.806,16060,1.8131195E1,0,4,0,41,36,
1571462778,2019-10-19 05:26:18.806,16100,1.7978882E1,0,13,0,38,37,
1571462838,2019-10-19 05:27:18.806,16073,1.8067444E1,0,10,0,36,33,
1571462898,2019-10-19 05:28:18.806,16073,1.8033966E1,0,8,0,35,40,
1571462958,2019-10-19 05:29:18.806,16087,1.7837372E1,0,9,0,34,38,
1571463018,2019-10-19 05:30:18.806,16073,1.7809265E1,0,6,0,40,40,
1571463078,2019-10-19 05:31:18.806,16073,1.8081482E1,0,6,0,40,37,
1571463138,2019-10-19 05:32:18.806,16073,1.8023163E1,0,7,0,35,37,
1571463198,2019-10-19 05:33:18.806,16087,1.7937836E1,0,3,0,35,38,
1571463258,2019-10-19 05:34:18.806,16073,1.8065277E1,0,7,0,34,37,
1571463318,2019-10-19 05:35:18.806,16073,1.8094452E1,0,6,0,40,37,
1571463378,2019-10-19 05:36:18.806,16073,1.7897858E1,0,11,0,39,37,
1571463438,2019-10-19 05:37:18.806,16073,1.7884888E1,0,7,0,43,38,
1571463498,2019-10-19 05:38:18.806,16073,1.7958344E1,0,7,0,35,36,
1571463558,2019-10-19 05:39:18.806,16087,1.7995087E1,0,11,0,35,36,
1571463618,2019-10-19 05:40:18.806,16073,1.773581E1,0,7,0,40,39,
1571463678,2019-10-19 05:41:18.806,16073,1.774878E1,0,9,0,40,35,
1571463738,2019-10-19 05:42:18.806,16073,1.7827637E1,0,5,0,40,38,
1571463798,2019-10-19 05:43:18.806,16073,1.8110657E1,0,11,0,35,40,
1571463858,2019-10-19 05:44:18.809,16073,1.780603E1,0,7,0,42,37,
1571463918,2019-10-19 05:45:18.807,16073,1.7770386E1,0,9,0,38,36,
1571463978,2019-10-19 05:46:18.806,16060,1.75997E1,0,7,0,45,39,
1571464038,2019-10-19 05:47:18.806,16073,1.7807129E1,0,9,0,40,36,
1571464098,2019-10-19 05:48:18.806,16073,1.799939E1,0,5,0,35,35,
1571464158,2019-10-19 05:49:18.806,16073,1.7907593E1,0,5,0,35,38,
1571464218,2019-10-19 05:50:18.808,16073,1.7790924E1,0,8,0,39,40,
1571464278,2019-10-19 05:51:18.806,16100,1.7810364E1,0,9,0,40,36,
1571464338,2019-10-19 05:52:18.809,16073,1.7935669E1,0,5,1,40,36,
1571464398,2019-10-19 05:53:18.806,16060,1.7876251E1,0,7,0,35,34,
1571464458,2019-10-19 05:54:18.806,16073,1.762024E1,0,7,0,36,39,
1571464518,2019-10-19 05:55:18.806,16073,1.7804962E1,0,9,0,40,39,
1571464578,2019-10-19 05:56:18.806,16073,1.7830872E1,0,7,0,39,39,
1571464638,2019-10-19 05:57:18.809,16087,1.7768219E1,0,7,0,39,36,
1571464698,2019-10-19 05:58:18.806,16060,1.7647247E1,0,4,0,35,37,
1571464758,2019-10-19 05:59:18.806,16087,1.7747711E1,0,2,0,38,35,
