Time(longsecs),Time(UTC),Supply Voltage(mV),Temperature(&deg;C),NMX Bus Current(mA),Sensor Current(mA),Serial Port Current(mA),Controller Current(mA),Digitizer Current(mA),
1569931226,2019-10-01 12:00:26.438,15722,3.2047577E1,0,9,0,63,38,
1569931286,2019-10-01 12:01:26.438,15736,3.218869E1,0,8,0,63,39,
1569931346,2019-10-01 12:02:26.438,15722,3.2039032E1,0,10,0,63,41,
1569931406,2019-10-01 12:03:26.438,15764,3.222824E1,0,10,0,62,43,
1569931466,2019-10-01 12:04:26.438,15804,3.2312683E1,0,9,0,62,35,
1569931526,2019-10-01 12:05:26.438,15791,3.2346893E1,0,8,0,63,38,
1569931586,2019-10-01 12:06:26.438,15791,3.236081E1,0,4,0,62,38,
1569931646,2019-10-01 12:07:26.438,15777,3.2444183E1,0,11,0,64,41,
1569931706,2019-10-01 12:08:26.438,15791,3.2396088E1,0,12,0,64,38,
1569931766,2019-10-01 12:09:26.438,15804,3.2489105E1,0,11,0,63,38,
1569931826,2019-10-01 12:10:26.438,15872,3.243457E1,0,12,0,62,38,
1569931886,2019-10-01 12:11:26.486,15885,3.2202576E1,0,12,0,65,43,
1569931946,2019-10-01 12:12:26.439,15994,3.2387543E1,0,11,0,59,45,
1569932006,2019-10-01 12:13:26.439,15898,3.2370422E1,0,12,0,58,40,
1569932066,2019-10-01 12:14:26.438,16048,3.2637695E1,0,13,0,60,34,
1569932126,2019-10-01 12:15:26.439,16170,3.2752075E1,0,13,0,60,39,
1569932186,2019-10-01 12:16:26.438,16360,3.251581E1,0,10,0,56,36,
1569932246,2019-10-01 12:17:26.438,16454,3.2900665E1,0,6,0,59,33,
1569932306,2019-10-01 12:18:26.438,16454,3.2687927E1,0,6,0,60,37,
1569932366,2019-10-01 12:19:26.438,16225,3.2557526E1,0,10,0,62,36,
1569932426,2019-10-01 12:20:26.438,16305,3.2581024E1,0,13,0,63,36,
1569932486,2019-10-01 12:21:26.438,15818,3.2924194E1,0,13,0,63,38,
1569932546,2019-10-01 12:22:26.438,16197,3.2962677E1,0,9,0,61,34,
1569932606,2019-10-01 12:23:26.438,16319,3.296695E1,0,8,0,61,33,
1569932666,2019-10-01 12:24:26.439,16332,3.3066376E1,0,7,0,64,34,
1569932726,2019-10-01 12:25:26.438,16183,3.313907E1,0,11,0,62,38,
1569932786,2019-10-01 12:26:26.438,16089,3.3003296E1,0,13,0,63,38,
1569932846,2019-10-01 12:27:26.438,16197,3.3278046E1,0,11,0,62,42,
1569932906,2019-10-01 12:28:26.438,16252,3.3188263E1,0,10,0,61,38,
1569932966,2019-10-01 12:29:26.438,16441,3.3360382E1,0,12,0,61,36,
1569933026,2019-10-01 12:30:26.439,16428,3.3557068E1,0,11,0,73,38,
1569933086,2019-10-01 12:31:26.439,16414,3.343094E1,0,4,0,68,38,
1569933146,2019-10-01 12:32:26.438,16454,3.3278046E1,0,7,0,60,36,
1569933206,2019-10-01 12:33:26.438,16156,3.3546387E1,0,9,0,61,37,
1569933266,2019-10-01 12:34:26.441,16075,3.3640472E1,0,9,52,61,37,
1569933326,2019-10-01 12:35:26.447,16278,3.383719E1,0,4,0,60,36,
1569933386,2019-10-01 12:36:26.438,16441,3.3915222E1,0,11,0,59,35,
1569933446,2019-10-01 12:37:26.477,16170,3.400287E1,0,13,0,62,39,
1569933506,2019-10-01 12:38:26.438,16441,3.3935516E1,0,10,0,61,37,
1569933566,2019-10-01 12:39:26.438,16454,3.435675E1,0,11,0,61,37,
1569933626,2019-10-01 12:40:26.439,16454,3.450107E1,0,9,0,57,37,
1569933686,2019-10-01 12:41:26.439,16332,3.4330017E1,0,13,0,61,36,
1569933746,2019-10-01 12:42:26.477,16441,3.4742676E1,0,10,41,59,37,
1569933806,2019-10-01 12:43:26.438,16441,3.4646454E1,0,11,0,61,40,
1569933866,2019-10-01 12:44:26.438,16441,3.4766174E1,0,9,0,59,39,
1569933926,2019-10-01 12:45:26.438,16387,3.495862E1,0,9,0,61,40,
1569933986,2019-10-01 12:46:26.438,16441,3.487738E1,0,9,0,63,36,
1569934046,2019-10-01 12:47:26.438,16414,3.5246185E1,0,10,0,60,36,
1569934106,2019-10-01 12:48:26.438,16116,3.488806E1,0,10,0,61,41,
1569934166,2019-10-01 12:49:26.438,16062,3.547284E1,0,11,0,62,36,
1569934226,2019-10-01 12:50:26.438,15994,3.532852E1,0,11,0,62,40,
1569934286,2019-10-01 12:51:26.438,16062,3.5756134E1,0,12,0,63,40,
1569934346,2019-10-01 12:52:26.439,16062,3.584381E1,0,9,0,71,36,
1569934406,2019-10-01 12:53:26.439,16075,3.586624E1,0,11,0,71,39,
1569934466,2019-10-01 12:54:26.444,16116,3.589084E1,0,13,0,70,37,
1569934526,2019-10-01 12:55:26.438,16156,3.5982788E1,0,5,0,61,37,
1569934586,2019-10-01 12:56:26.438,16183,3.6286377E1,0,12,0,60,36,
1569934646,2019-10-01 12:57:26.438,16170,3.6041565E1,0,9,0,61,37,
1569934706,2019-10-01 12:58:26.438,16401,3.6231873E1,0,11,0,59,40,
1569934766,2019-10-01 12:59:26.438,16238,3.6168793E1,0,9,0,58,33,
