Time(longsecs),Time(UTC),Supply Voltage(mV),Temperature(&deg;C),NMX Bus Current(mA),Sensor Current(mA),Serial Port Current(mA),Controller Current(mA),Digitizer Current(mA),
1569895226,2019-10-01 02:00:26.438,15560,2.3811523E1,0,10,0,63,40,
1569895286,2019-10-01 02:01:26.438,15560,2.3887451E1,0,9,0,66,37,
1569895346,2019-10-01 02:02:26.438,15560,2.3833984E1,0,11,0,64,39,
1569895406,2019-10-01 02:03:26.438,15560,2.408841E1,0,5,0,58,38,
1569895466,2019-10-01 02:04:26.438,15560,2.3918427E1,0,14,0,63,40,
1569895526,2019-10-01 02:05:26.438,15560,2.3919525E1,0,8,0,63,38,
1569895586,2019-10-01 02:06:26.438,15546,2.3975098E1,0,9,0,64,38,
1569895646,2019-10-01 02:07:26.440,15533,2.3929138E1,0,7,0,54,38,
1569895706,2019-10-01 02:08:26.438,15546,2.4014648E1,0,10,13,54,37,
1569895766,2019-10-01 02:09:26.438,15546,2.3872467E1,0,8,0,63,41,
1569895826,2019-10-01 02:10:26.440,15546,2.3959076E1,0,10,0,63,38,
1569895886,2019-10-01 02:11:26.448,15546,2.3853241E1,0,2,0,73,39,
1569895946,2019-10-01 02:12:26.439,15546,2.3837189E1,0,11,0,63,40,
1569896006,2019-10-01 02:13:26.471,15546,2.38992E1,0,10,4,54,38,
1569896066,2019-10-01 02:14:26.441,15533,2.3969757E1,0,11,0,64,41,
1569896126,2019-10-01 02:15:26.438,15546,2.3735626E1,0,9,0,63,38,
1569896186,2019-10-01 02:16:26.438,15546,2.4049927E1,0,8,0,64,40,
1569896246,2019-10-01 02:17:26.438,15546,2.3746338E1,0,11,0,56,43,
1569896306,2019-10-01 02:18:26.438,15546,2.3894928E1,0,11,0,54,40,
1569896366,2019-10-01 02:19:26.438,15546,2.3885315E1,0,10,0,61,43,
1569896426,2019-10-01 02:20:26.438,15533,2.3887451E1,0,6,0,61,35,
1569896486,2019-10-01 02:21:26.441,15533,2.3829712E1,0,10,0,61,37,
1569896546,2019-10-01 02:22:26.438,15546,2.3978302E1,0,11,0,54,38,
1569896606,2019-10-01 02:23:26.438,15533,2.3802979E1,0,11,0,63,39,
1569896666,2019-10-01 02:24:26.438,15533,2.3902405E1,0,17,0,63,43,
1569896726,2019-10-01 02:25:26.470,15533,2.3915222E1,0,17,0,66,40,
1569896786,2019-10-01 02:26:26.438,15533,2.4009308E1,0,10,0,65,38,
1569896846,2019-10-01 02:27:26.438,15533,2.3898132E1,0,9,0,54,41,
1569896906,2019-10-01 02:28:26.457,15533,2.3874603E1,0,10,0,54,42,
1569896966,2019-10-01 02:29:26.438,15520,2.3838257E1,0,11,0,63,40,
1569897026,2019-10-01 02:30:26.438,15533,2.4053131E1,0,13,0,63,38,
1569897086,2019-10-01 02:31:26.439,15533,2.3742035E1,0,8,0,63,38,
1569897146,2019-10-01 02:32:26.438,15533,2.3769836E1,0,11,0,56,37,
1569897206,2019-10-01 02:33:26.438,15520,2.3961212E1,0,9,0,54,38,
1569897266,2019-10-01 02:34:26.438,15520,2.3821167E1,0,10,0,63,39,
1569897326,2019-10-01 02:35:26.438,15506,2.3878876E1,0,9,0,63,40,
1569897386,2019-10-01 02:36:26.438,15533,2.3858582E1,0,12,0,64,42,
1569897446,2019-10-01 02:37:26.440,15533,2.3780548E1,0,4,0,54,38,
1569897506,2019-10-01 02:38:26.472,15520,2.3795502E1,0,11,0,54,37,
1569897566,2019-10-01 02:39:26.438,15520,2.4063843E1,0,15,0,66,38,
1569897626,2019-10-01 02:40:26.440,15533,2.3869263E1,0,10,0,63,37,
1569897686,2019-10-01 02:41:26.439,15520,2.3964417E1,0,10,0,63,39,
1569897746,2019-10-01 02:42:26.438,15546,2.3757019E1,0,11,0,54,40,
1569897806,2019-10-01 02:43:26.438,15520,2.3775177E1,0,13,0,54,41,
1569897866,2019-10-01 02:44:26.438,15506,2.401892E1,0,6,0,63,37,
1569897926,2019-10-01 02:45:26.438,15520,2.3795502E1,0,8,0,64,40,
1569897986,2019-10-01 02:46:26.439,15506,2.3777313E1,0,12,0,61,37,
1569898046,2019-10-01 02:47:26.438,15520,2.3763428E1,0,4,0,63,40,
1569898106,2019-10-01 02:48:26.438,15493,2.4094849E1,0,6,0,57,39,
1569898166,2019-10-01 02:49:26.438,15506,2.364798E1,0,11,0,68,43,
1569898226,2019-10-01 02:50:26.438,15520,2.3869263E1,0,11,0,63,41,
1569898286,2019-10-01 02:51:26.438,15506,2.3812592E1,0,10,42,63,41,
1569898346,2019-10-01 02:52:26.438,15520,2.3902405E1,0,11,0,62,36,
1569898406,2019-10-01 02:53:26.438,15506,2.3975098E1,0,11,0,54,38,
1569898466,2019-10-01 02:54:26.438,15533,2.3944092E1,5,9,0,61,33,
1569898526,2019-10-01 02:55:26.441,15506,2.384787E1,0,6,0,63,40,
1569898586,2019-10-01 02:56:26.438,15506,2.3783752E1,0,9,0,63,37,
1569898646,2019-10-01 02:57:26.438,15506,2.3739899E1,0,11,0,54,39,
1569898706,2019-10-01 02:58:26.438,15506,2.3681122E1,0,11,0,63,38,
1569898766,2019-10-01 02:59:26.464,15506,2.3952637E1,0,9,0,63,41,
