Time(longsecs),Time(UTC),Earth Location,GPS Receiver Status,GPS Satellites Used,GPS PDOP,GPS TDOP,Timing Status,Timing Phase Lock,Timing Uncertainty(ns),DAC Count,Timing Error(ns),GPS Last Update Time,
1569902426,2019-10-01 04:00:26.438,47.638774N 0.549061E 180m,Off,7,1.9402205,0.9799911,Time OK,Free running,48900,8602,0,2019-10-01 03:10:23.000000000,
1569902486,2019-10-01 04:01:26.438,47.638774N 0.549061E 180m,Off,7,1.9402205,0.9799911,Time OK,Free running,50100,8602,0,2019-10-01 03:10:23.000000000,
1569902546,2019-10-01 04:02:26.438,47.638774N 0.549061E 180m,No GPS time,7,1.9402205,0.9799911,Time OK,Free running,50900,8602,0,2019-10-01 03:10:23.000000000,
1569902606,2019-10-01 04:03:26.439,47.638774N 0.549061E 180m,Doing fixes,8,1.9841803,1.035825,Time OK,Coarse lock,100,8810,-104,2019-10-01 04:03:22.000000000,
1569902666,2019-10-01 04:04:26.439,47.638774N 0.549061E 180m,Doing fixes,8,1.9722321,1.0289551,Time OK,Fine lock,100,8612,0,2019-10-01 04:04:22.000000000,
1569902726,2019-10-01 04:05:26.438,47.638774N 0.549061E 180m,Off,8,1.9682045,1.0266213,Time OK,Free running,600,8612,0,2019-10-01 04:04:42.000000000,
1569902786,2019-10-01 04:06:26.438,47.638774N 0.549061E 180m,Off,8,1.9682045,1.0266213,Time OK,Free running,1600,8612,0,2019-10-01 04:04:42.000000000,
1569902846,2019-10-01 04:07:26.438,47.638774N 0.549061E 180m,Off,8,1.9682045,1.0266213,Time OK,Free running,2600,8612,0,2019-10-01 04:04:42.000000000,
1569902906,2019-10-01 04:08:26.440,47.638774N 0.549061E 180m,Off,8,1.9682045,1.0266213,Time OK,Free running,3700,8612,0,2019-10-01 04:04:42.000000000,
1569902966,2019-10-01 04:09:26.440,47.638774N 0.549061E 180m,Off,8,1.9682045,1.0266213,Time OK,Free running,5000,8612,0,2019-10-01 04:04:42.000000000,
1569903026,2019-10-01 04:10:26.468,47.638774N 0.549061E 180m,Off,8,1.9682045,1.0266213,Time OK,Free running,6100,8612,0,2019-10-01 04:04:42.000000000,
1569903086,2019-10-01 04:11:26.438,47.638774N 0.549061E 180m,Off,8,1.9682045,1.0266213,Time OK,Free running,7200,8612,0,2019-10-01 04:04:42.000000000,
1569903146,2019-10-01 04:12:26.442,47.638774N 0.549061E 180m,Off,8,1.9682045,1.0266213,Time OK,Free running,8600,8612,0,2019-10-01 04:04:42.000000000,
1569903206,2019-10-01 04:13:26.438,47.638774N 0.549061E 180m,Off,8,1.9682045,1.0266213,Time OK,Free running,10000,8612,0,2019-10-01 04:04:42.000000000,
1569903266,2019-10-01 04:14:26.438,47.638774N 0.549061E 180m,Off,8,1.9682045,1.0266213,Time OK,Free running,11100,8612,0,2019-10-01 04:04:42.000000000,
1569903326,2019-10-01 04:15:26.438,47.638774N 0.549061E 180m,Off,8,1.9682045,1.0266213,Time OK,Free running,12200,8612,0,2019-10-01 04:04:42.000000000,
1569903386,2019-10-01 04:16:26.438,47.638774N 0.549061E 180m,Off,8,1.9682045,1.0266213,Time OK,Free running,13400,8612,0,2019-10-01 04:04:42.000000000,
1569903446,2019-10-01 04:17:26.438,47.638774N 0.549061E 180m,Off,8,1.9682045,1.0266213,Time OK,Free running,14500,8612,0,2019-10-01 04:04:42.000000000,
1569903506,2019-10-01 04:18:26.438,47.638774N 0.549061E 180m,Off,8,1.9682045,1.0266213,Time OK,Free running,15600,8612,0,2019-10-01 04:04:42.000000000,
1569903566,2019-10-01 04:19:26.438,47.638774N 0.549061E 180m,Off,8,1.9682045,1.0266213,Time OK,Free running,16700,8612,0,2019-10-01 04:04:42.000000000,
1569903626,2019-10-01 04:20:26.441,47.638774N 0.549061E 180m,Off,8,1.9682045,1.0266213,Time OK,Free running,17800,8612,0,2019-10-01 04:04:42.000000000,
1569903686,2019-10-01 04:21:26.439,47.638774N 0.549061E 180m,Off,8,1.9682045,1.0266213,Time OK,Free running,18800,8612,0,2019-10-01 04:04:42.000000000,
1569903746,2019-10-01 04:22:26.438,47.638774N 0.549061E 180m,Off,8,1.9682045,1.0266213,Time OK,Free running,19800,8612,0,2019-10-01 04:04:42.000000000,
1569903806,2019-10-01 04:23:26.438,47.638774N 0.549061E 180m,Off,8,1.9682045,1.0266213,Time OK,Free running,20600,8612,0,2019-10-01 04:04:42.000000000,
1569903866,2019-10-01 04:24:26.439,47.638774N 0.549061E 180m,Off,8,1.9682045,1.0266213,Time OK,Free running,21700,8612,0,2019-10-01 04:04:42.000000000,
1569903926,2019-10-01 04:25:26.440,47.638774N 0.549061E 180m,Off,8,1.9682045,1.0266213,Time OK,Free running,23100,8612,0,2019-10-01 04:04:42.000000000,
1569903986,2019-10-01 04:26:26.438,47.638774N 0.549061E 180m,Off,8,1.9682045,1.0266213,Time OK,Free running,24300,8612,0,2019-10-01 04:04:42.000000000,
1569904046,2019-10-01 04:27:26.438,47.638774N 0.549061E 180m,Off,8,1.9682045,1.0266213,Time OK,Free running,25600,8612,0,2019-10-01 04:04:42.000000000,
1569904106,2019-10-01 04:28:26.440,47.638774N 0.549061E 180m,Off,8,1.9682045,1.0266213,Time OK,Free running,26900,8612,0,2019-10-01 04:04:42.000000000,
1569904166,2019-10-01 04:29:26.441,47.638774N 0.549061E 180m,Off,8,1.9682045,1.0266213,Time OK,Free running,28100,8612,0,2019-10-01 04:04:42.000000000,
1569904226,2019-10-01 04:30:26.440,47.638774N 0.549061E 180m,Off,8,1.9682045,1.0266213,Time OK,Free running,29400,8612,0,2019-10-01 04:04:42.000000000,
1569904286,2019-10-01 04:31:26.438,47.638774N 0.549061E 180m,Off,8,1.9682045,1.0266213,Time OK,Free running,30500,8612,0,2019-10-01 04:04:42.000000000,
1569904346,2019-10-01 04:32:26.440,47.638774N 0.549061E 180m,Off,8,1.9682045,1.0266213,Time OK,Free running,31400,8612,0,2019-10-01 04:04:42.000000000,
1569904406,2019-10-01 04:33:26.438,47.638774N 0.549061E 180m,Off,8,1.9682045,1.0266213,Time OK,Free running,32600,8612,0,2019-10-01 04:04:42.000000000,
1569904466,2019-10-01 04:34:26.438,47.638774N 0.549061E 180m,Off,8,1.9682045,1.0266213,Time OK,Free running,33900,8612,0,2019-10-01 04:04:42.000000000,
1569904526,2019-10-01 04:35:26.438,47.638774N 0.549061E 180m,Off,8,1.9682045,1.0266213,Time OK,Free running,35000,8612,0,2019-10-01 04:04:42.000000000,
1569904586,2019-10-01 04:36:26.440,47.638774N 0.549061E 180m,Off,8,1.9682045,1.0266213,Time OK,Free running,36100,8612,0,2019-10-01 04:04:42.000000000,
1569904646,2019-10-01 04:37:26.438,47.638774N 0.549061E 180m,Off,8,1.9682045,1.0266213,Time OK,Free running,37200,8612,0,2019-10-01 04:04:42.000000000,
1569904706,2019-10-01 04:38:26.438,47.638774N 0.549061E 180m,Off,8,1.9682045,1.0266213,Time OK,Free running,38300,8612,0,2019-10-01 04:04:42.000000000,
1569904766,2019-10-01 04:39:26.440,47.638774N 0.549061E 180m,Off,8,1.9682045,1.0266213,Time OK,Free running,39600,8612,0,2019-10-01 04:04:42.000000000,
1569904826,2019-10-01 04:40:26.438,47.638774N 0.549061E 180m,Off,8,1.9682045,1.0266213,Time OK,Free running,40900,8612,0,2019-10-01 04:04:42.000000000,
1569904886,2019-10-01 04:41:26.438,47.638774N 0.549061E 180m,Off,8,1.9682045,1.0266213,Time OK,Free running,42400,8612,0,2019-10-01 04:04:42.000000000,
1569904946,2019-10-01 04:42:26.440,47.638774N 0.549061E 180m,Off,8,1.9682045,1.0266213,Time OK,Free running,44000,8612,0,2019-10-01 04:04:42.000000000,
1569905006,2019-10-01 04:43:26.439,47.638774N 0.549061E 180m,Off,8,1.9682045,1.0266213,Time OK,Free running,45100,8612,0,2019-10-01 04:04:42.000000000,
1569905066,2019-10-01 04:44:26.438,47.638774N 0.549061E 180m,Off,8,1.9682045,1.0266213,Time OK,Free running,46000,8612,0,2019-10-01 04:04:42.000000000,
1569905126,2019-10-01 04:45:26.440,47.638774N 0.549061E 180m,Off,8,1.9682045,1.0266213,Time OK,Free running,47400,8612,0,2019-10-01 04:04:42.000000000,
1569905186,2019-10-01 04:46:26.438,47.638774N 0.549061E 180m,Off,8,1.9682045,1.0266213,Time OK,Free running,48800,8612,0,2019-10-01 04:04:42.000000000,
1569905246,2019-10-01 04:47:26.438,47.638774N 0.549061E 180m,Off,8,1.9682045,1.0266213,Time OK,Free running,50100,8612,0,2019-10-01 04:04:42.000000000,
1569905306,2019-10-01 04:48:26.439,47.638774N 0.549061E 180m,Doing fixes,7,1.8569254,0.96695507,Time OK,Coarse lock,100,8942,-1979,2019-10-01 04:48:23.000000000,
1569905366,2019-10-01 04:49:26.439,47.638774N 0.549061E 180m,Doing fixes,7,1.850499,0.96229887,Time OK,Fine lock,100,8623,-104,2019-10-01 04:49:23.000000000,
1569905426,2019-10-01 04:50:26.438,47.638774N 0.549061E 180m,Off,7,1.8458431,0.95884115,Time OK,Free running,300,8627,0,2019-10-01 04:50:03.000000000,
1569905486,2019-10-01 04:51:26.453,47.638774N 0.549061E 180m,Off,7,1.8458431,0.95884115,Time OK,Free running,1400,8627,0,2019-10-01 04:50:03.000000000,
1569905546,2019-10-01 04:52:26.439,47.638774N 0.549061E 180m,Off,7,1.8458431,0.95884115,Time OK,Free running,2300,8627,0,2019-10-01 04:50:03.000000000,
1569905606,2019-10-01 04:53:26.438,47.638774N 0.549061E 180m,Off,7,1.8458431,0.95884115,Time OK,Free running,3300,8627,0,2019-10-01 04:50:03.000000000,
1569905666,2019-10-01 04:54:26.439,47.638774N 0.549061E 180m,Off,7,1.8458431,0.95884115,Time OK,Free running,4500,8627,0,2019-10-01 04:50:03.000000000,
1569905726,2019-10-01 04:55:26.438,47.638774N 0.549061E 180m,Off,7,1.8458431,0.95884115,Time OK,Free running,5500,8627,0,2019-10-01 04:50:03.000000000,
1569905786,2019-10-01 04:56:26.438,47.638774N 0.549061E 180m,Off,7,1.8458431,0.95884115,Time OK,Free running,6500,8627,0,2019-10-01 04:50:03.000000000,
1569905846,2019-10-01 04:57:26.438,47.638774N 0.549061E 180m,Off,7,1.8458431,0.95884115,Time OK,Free running,7900,8627,0,2019-10-01 04:50:03.000000000,
1569905906,2019-10-01 04:58:26.438,47.638774N 0.549061E 180m,Off,7,1.8458431,0.95884115,Time OK,Free running,9300,8627,0,2019-10-01 04:50:03.000000000,
1569905966,2019-10-01 04:59:26.441,47.638774N 0.549061E 180m,Off,7,1.8458431,0.95884115,Time OK,Free running,10400,8627,0,2019-10-01 04:50:03.000000000,
