Time(longsecs),Time(UTC),GPS Satellite Acquisition Flag 1,GPS Satellite Acquisition Flag 2,GPS Satellite Acquisition Flag 3,GPS Satellite Acquisition Flag 4,GPS Satellite Acquisition Flag 5,GPS Satellite Acquisition Flag 6,GPS Satellite Acquisition Flag 7,GPS Satellite Acquisition Flag 8,GPS Satellite Acquisition Flag 9,GPS Satellite Acquisition Flag 10,GPS Satellite Acquisition Flag 11,GPS Satellite Acquisition Flag 12,GPS Satellite Azimuth 1(Degrees),GPS Satellite Azimuth 2(Degrees),GPS Satellite Azimuth 3(Degrees),GPS Satellite Azimuth 4(Degrees),GPS Satellite Azimuth 5(Degrees),GPS Satellite Azimuth 6(Degrees),GPS Satellite Azimuth 7(Degrees),GPS Satellite Azimuth 8(Degrees),GPS Satellite Azimuth 9(Degrees),GPS Satellite Azimuth 10(Degrees),GPS Satellite Azimuth 11(Degrees),GPS Satellite Azimuth 12(Degrees),GPS Satellite Elevation 1(Degrees),GPS Satellite Elevation 2(Degrees),GPS Satellite Elevation 3(Degrees),GPS Satellite Elevation 4(Degrees),GPS Satellite Elevation 5(Degrees),GPS Satellite Elevation 6(Degrees),GPS Satellite Elevation 7(Degrees),GPS Satellite Elevation 8(Degrees),GPS Satellite Elevation 9(Degrees),GPS Satellite Elevation 10(Degrees),GPS Satellite Elevation 11(Degrees),GPS Satellite Elevation 12(Degrees),GPS Satellite PRN 1,GPS Satellite PRN 2,GPS Satellite PRN 3,GPS Satellite PRN 4,GPS Satellite PRN 5,GPS Satellite PRN 6,GPS Satellite PRN 7,GPS Satellite PRN 8,GPS Satellite PRN 9,GPS Satellite PRN 10,GPS Satellite PRN 11,GPS Satellite PRN 12,GPS Satellite Signal Level 1(AMU),GPS Satellite Signal Level 2(AMU),GPS Satellite Signal Level 3(AMU),GPS Satellite Signal Level 4(AMU),GPS Satellite Signal Level 5(AMU),GPS Satellite Signal Level 6(AMU),GPS Satellite Signal Level 7(AMU),GPS Satellite Signal Level 8(AMU),GPS Satellite Signal Level 9(AMU),GPS Satellite Signal Level 10(AMU),GPS Satellite Signal Level 11(AMU),GPS Satellite Signal Level 12(AMU),
1571270418,2019-10-17 00:00:18.806,Acquired,Not acquired,Not acquired,Acquired,Acquired,Acquired,Acquired,Acquired,Acquired,Not acquired,Acquired,,3.58010624E2,3.18853216E2,3.6275948E1,4.6865812E1,1.1886242399999999E2,2.50401648E2,3.01634368E2,1.16613568E2,7.806795199999999E1,2.58132272E2,1.72859424E2,,8.658412799999999E1,1.666599E1,1.3060552999999999E1,2.7890197999999998E1,6.3136792E1,4.3393724E1,3.7385968E1,9.074387999999999E0,1.3978705E1,7.136438999999999E0,9.238534E0,,12,14,17,19,24,25,32,2,6,10,15,,6,0,1,2,7,14,3,1,2,0,2,,
1571270478,2019-10-17 00:01:18.806,Acquired,Not acquired,Not acquired,Acquired,Acquired,Acquired,Acquired,Acquired,Acquired,Not acquired,Acquired,,3.58010624E2,3.18853216E2,3.6275948E1,4.6865812E1,1.1886242399999999E2,2.50401648E2,3.01634368E2,1.16613568E2,7.806795199999999E1,2.58132272E2,1.72859424E2,,8.658412799999999E1,1.666599E1,1.3060552999999999E1,2.7890197999999998E1,6.3136792E1,4.3393724E1,3.7385968E1,9.074387999999999E0,1.3978705E1,7.136438999999999E0,9.238534E0,,12,14,17,19,24,25,32,2,6,10,15,,6,0,1,2,7,14,3,1,2,0,2,,
1571270538,2019-10-17 00:02:18.806,Acquired,Not acquired,Not acquired,Acquired,Acquired,Acquired,Acquired,Acquired,Acquired,Not acquired,Acquired,,3.58010624E2,3.18853216E2,3.6275948E1,4.6865812E1,1.1886242399999999E2,2.50401648E2,3.01634368E2,1.16613568E2,7.806795199999999E1,2.58132272E2,1.72859424E2,,8.658412799999999E1,1.666599E1,1.3060552999999999E1,2.7890197999999998E1,6.3136792E1,4.3393724E1,3.7385968E1,9.074387999999999E0,1.3978705E1,7.136438999999999E0,9.238534E0,,12,14,17,19,24,25,32,2,6,10,15,,6,0,1,2,7,14,3,1,2,0,2,,
1571270598,2019-10-17 00:03:18.806,Acquired,Not acquired,Not acquired,Acquired,Acquired,Acquired,Acquired,Acquired,Acquired,Not acquired,Acquired,,3.58010624E2,3.18853216E2,3.6275948E1,4.6865812E1,1.1886242399999999E2,2.50401648E2,3.01634368E2,1.16613568E2,7.806795199999999E1,2.58132272E2,1.72859424E2,,8.658412799999999E1,1.666599E1,1.3060552999999999E1,2.7890197999999998E1,6.3136792E1,4.3393724E1,3.7385968E1,9.074387999999999E0,1.3978705E1,7.136438999999999E0,9.238534E0,,12,14,17,19,24,25,32,2,6,10,15,,6,0,1,2,7,14,3,1,2,0,2,,
1571270658,2019-10-17 00:04:18.806,Acquired,Not acquired,Not acquired,Acquired,Acquired,Acquired,Acquired,Acquired,Acquired,Not acquired,Acquired,,3.58010624E2,3.18853216E2,3.6275948E1,4.6865812E1,1.1886242399999999E2,2.50401648E2,3.01634368E2,1.16613568E2,7.806795199999999E1,2.58132272E2,1.72859424E2,,8.658412799999999E1,1.666599E1,1.3060552999999999E1,2.7890197999999998E1,6.3136792E1,4.3393724E1,3.7385968E1,9.074387999999999E0,1.3978705E1,7.136438999999999E0,9.238534E0,,12,14,17,19,24,25,32,2,6,10,15,,6,0,1,2,7,14,3,1,2,0,2,,
1571270718,2019-10-17 00:05:18.806,Acquired,Not acquired,Not acquired,Acquired,Acquired,Acquired,Acquired,Acquired,Acquired,Not acquired,Acquired,,3.58010624E2,3.18853216E2,3.6275948E1,4.6865812E1,1.1886242399999999E2,2.50401648E2,3.01634368E2,1.16613568E2,7.806795199999999E1,2.58132272E2,1.72859424E2,,8.658412799999999E1,1.666599E1,1.3060552999999999E1,2.7890197999999998E1,6.3136792E1,4.3393724E1,3.7385968E1,9.074387999999999E0,1.3978705E1,7.136438999999999E0,9.238534E0,,12,14,17,19,24,25,32,2,6,10,15,,6,0,1,2,7,14,3,1,2,0,2,,
1571270778,2019-10-17 00:06:18.807,Acquired,Not acquired,Not acquired,Acquired,Acquired,Acquired,Acquired,Acquired,Acquired,Not acquired,Acquired,,3.58010624E2,3.18853216E2,3.6275948E1,4.6865812E1,1.1886242399999999E2,2.50401648E2,3.01634368E2,1.16613568E2,7.806795199999999E1,2.58132272E2,1.72859424E2,,8.658412799999999E1,1.666599E1,1.3060552999999999E1,2.7890197999999998E1,6.3136792E1,4.3393724E1,3.7385968E1,9.074387999999999E0,1.3978705E1,7.136438999999999E0,9.238534E0,,12,14,17,19,24,25,32,2,6,10,15,,6,0,1,2,7,14,3,1,2,0,2,,
1571270838,2019-10-17 00:07:18.806,Acquired,Not acquired,Not acquired,Acquired,Acquired,Acquired,Acquired,Acquired,Acquired,Not acquired,Acquired,,3.58010624E2,3.18853216E2,3.6275948E1,4.6865812E1,1.1886242399999999E2,2.50401648E2,3.01634368E2,1.16613568E2,7.806795199999999E1,2.58132272E2,1.72859424E2,,8.658412799999999E1,1.666599E1,1.3060552999999999E1,2.7890197999999998E1,6.3136792E1,4.3393724E1,3.7385968E1,9.074387999999999E0,1.3978705E1,7.136438999999999E0,9.238534E0,,12,14,17,19,24,25,32,2,6,10,15,,6,0,1,2,7,14,3,1,2,0,2,,
1571270898,2019-10-17 00:08:18.806,Acquired,Not acquired,Not acquired,Acquired,Acquired,Acquired,Acquired,Acquired,Acquired,Not acquired,Acquired,,3.58010624E2,3.18853216E2,3.6275948E1,4.6865812E1,1.1886242399999999E2,2.50401648E2,3.01634368E2,1.16613568E2,7.806795199999999E1,2.58132272E2,1.72859424E2,,8.658412799999999E1,1.666599E1,1.3060552999999999E1,2.7890197999999998E1,6.3136792E1,4.3393724E1,3.7385968E1,9.074387999999999E0,1.3978705E1,7.136438999999999E0,9.238534E0,,12,14,17,19,24,25,32,2,6,10,15,,6,0,1,2,7,14,3,1,2,0,2,,
1571270958,2019-10-17 00:09:18.806,Acquired,Not acquired,Not acquired,Acquired,Acquired,Acquired,Acquired,Acquired,Acquired,Not acquired,Acquired,,3.58010624E2,3.18853216E2,3.6275948E1,4.6865812E1,1.1886242399999999E2,2.50401648E2,3.01634368E2,1.16613568E2,7.806795199999999E1,2.58132272E2,1.72859424E2,,8.658412799999999E1,1.666599E1,1.3060552999999999E1,2.7890197999999998E1,6.3136792E1,4.3393724E1,3.7385968E1,9.074387999999999E0,1.3978705E1,7.136438999999999E0,9.238534E0,,12,14,17,19,24,25,32,2,6,10,15,,6,0,1,2,7,14,3,1,2,0,2,,
1571271018,2019-10-17 00:10:18.806,Acquired,Not acquired,Not acquired,Acquired,Acquired,Acquired,Acquired,Acquired,Acquired,Not acquired,Acquired,,3.58010624E2,3.18853216E2,3.6275948E1,4.6865812E1,1.1886242399999999E2,2.50401648E2,3.01634368E2,1.16613568E2,7.806795199999999E1,2.58132272E2,1.72859424E2,,8.658412799999999E1,1.666599E1,1.3060552999999999E1,2.7890197999999998E1,6.3136792E1,4.3393724E1,3.7385968E1,9.074387999999999E0,1.3978705E1,7.136438999999999E0,9.238534E0,,12,14,17,19,24,25,32,2,6,10,15,,6,0,1,2,7,14,3,1,2,0,2,,
1571271078,2019-10-17 00:11:18.808,Acquired,Not acquired,Not acquired,Acquired,Acquired,Acquired,Acquired,Acquired,Acquired,Not acquired,Acquired,,3.58010624E2,3.18853216E2,3.6275948E1,4.6865812E1,1.1886242399999999E2,2.50401648E2,3.01634368E2,1.16613568E2,7.806795199999999E1,2.58132272E2,1.72859424E2,,8.658412799999999E1,1.666599E1,1.3060552999999999E1,2.7890197999999998E1,6.3136792E1,4.3393724E1,3.7385968E1,9.074387999999999E0,1.3978705E1,7.136438999999999E0,9.238534E0,,12,14,17,19,24,25,32,2,6,10,15,,6,0,1,2,7,14,3,1,2,0,2,,
1571271138,2019-10-17 00:12:18.809,Acquired,Not acquired,Not acquired,Acquired,Acquired,Acquired,Acquired,Acquired,Acquired,Not acquired,Acquired,,3.58010624E2,3.18853216E2,3.6275948E1,4.6865812E1,1.1886242399999999E2,2.50401648E2,3.01634368E2,1.16613568E2,7.806795199999999E1,2.58132272E2,1.72859424E2,,8.658412799999999E1,1.666599E1,1.3060552999999999E1,2.7890197999999998E1,6.3136792E1,4.3393724E1,3.7385968E1,9.074387999999999E0,1.3978705E1,7.136438999999999E0,9.238534E0,,12,14,17,19,24,25,32,2,6,10,15,,6,0,1,2,7,14,3,1,2,0,2,,
1571271198,2019-10-17 00:13:18.806,Acquired,Not acquired,Not acquired,Acquired,Acquired,Acquired,Acquired,Acquired,Acquired,Not acquired,Acquired,,3.58010624E2,3.18853216E2,3.6275948E1,4.6865812E1,1.1886242399999999E2,2.50401648E2,3.01634368E2,1.16613568E2,7.806795199999999E1,2.58132272E2,1.72859424E2,,8.658412799999999E1,1.666599E1,1.3060552999999999E1,2.7890197999999998E1,6.3136792E1,4.3393724E1,3.7385968E1,9.074387999999999E0,1.3978705E1,7.136438999999999E0,9.238534E0,,12,14,17,19,24,25,32,2,6,10,15,,6,0,1,2,7,14,3,1,2,0,2,,
1571271258,2019-10-17 00:14:18.807,Acquired,Not acquired,Not acquired,Acquired,Acquired,Acquired,Acquired,Acquired,Acquired,Not acquired,Acquired,,3.58010624E2,3.18853216E2,3.6275948E1,4.6865812E1,1.1886242399999999E2,2.50401648E2,3.01634368E2,1.16613568E2,7.806795199999999E1,2.58132272E2,1.72859424E2,,8.658412799999999E1,1.666599E1,1.3060552999999999E1,2.7890197999999998E1,6.3136792E1,4.3393724E1,3.7385968E1,9.074387999999999E0,1.3978705E1,7.136438999999999E0,9.238534E0,,12,14,17,19,24,25,32,2,6,10,15,,6,0,1,2,7,14,3,1,2,0,2,,
1571271318,2019-10-17 00:15:18.806,Acquired,Not acquired,Not acquired,Acquired,Acquired,Acquired,Acquired,Acquired,Acquired,Not acquired,Acquired,,3.58010624E2,3.18853216E2,3.6275948E1,4.6865812E1,1.1886242399999999E2,2.50401648E2,3.01634368E2,1.16613568E2,7.806795199999999E1,2.58132272E2,1.72859424E2,,8.658412799999999E1,1.666599E1,1.3060552999999999E1,2.7890197999999998E1,6.3136792E1,4.3393724E1,3.7385968E1,9.074387999999999E0,1.3978705E1,7.136438999999999E0,9.238534E0,,12,14,17,19,24,25,32,2,6,10,15,,6,0,1,2,7,14,3,1,2,0,2,,
1571271378,2019-10-17 00:16:18.809,Acquired,Not acquired,Not acquired,Acquired,Acquired,Acquired,Acquired,Acquired,Acquired,Not acquired,Acquired,,3.58010624E2,3.18853216E2,3.6275948E1,4.6865812E1,1.1886242399999999E2,2.50401648E2,3.01634368E2,1.16613568E2,7.806795199999999E1,2.58132272E2,1.72859424E2,,8.658412799999999E1,1.666599E1,1.3060552999999999E1,2.7890197999999998E1,6.3136792E1,4.3393724E1,3.7385968E1,9.074387999999999E0,1.3978705E1,7.136438999999999E0,9.238534E0,,12,14,17,19,24,25,32,2,6,10,15,,6,0,1,2,7,14,3,1,2,0,2,,
1571271438,2019-10-17 00:17:18.807,Acquired,Not acquired,Not acquired,Acquired,Acquired,Acquired,Acquired,Acquired,Acquired,Not acquired,Acquired,,3.58010624E2,3.18853216E2,3.6275948E1,4.6865812E1,1.1886242399999999E2,2.50401648E2,3.01634368E2,1.16613568E2,7.806795199999999E1,2.58132272E2,1.72859424E2,,8.658412799999999E1,1.666599E1,1.3060552999999999E1,2.7890197999999998E1,6.3136792E1,4.3393724E1,3.7385968E1,9.074387999999999E0,1.3978705E1,7.136438999999999E0,9.238534E0,,12,14,17,19,24,25,32,2,6,10,15,,6,0,1,2,7,14,3,1,2,0,2,,
1571271498,2019-10-17 00:18:18.806,Acquired,Not acquired,Not acquired,Acquired,Acquired,Acquired,Acquired,Acquired,Acquired,Not acquired,Acquired,,3.58010624E2,3.18853216E2,3.6275948E1,4.6865812E1,1.1886242399999999E2,2.50401648E2,3.01634368E2,1.16613568E2,7.806795199999999E1,2.58132272E2,1.72859424E2,,8.658412799999999E1,1.666599E1,1.3060552999999999E1,2.7890197999999998E1,6.3136792E1,4.3393724E1,3.7385968E1,9.074387999999999E0,1.3978705E1,7.136438999999999E0,9.238534E0,,12,14,17,19,24,25,32,2,6,10,15,,6,0,1,2,7,14,3,1,2,0,2,,
1571271558,2019-10-17 00:19:18.806,Acquired,Not acquired,Not acquired,Acquired,Acquired,Acquired,Acquired,Acquired,Acquired,Not acquired,Acquired,,3.58010624E2,3.18853216E2,3.6275948E1,4.6865812E1,1.1886242399999999E2,2.50401648E2,3.01634368E2,1.16613568E2,7.806795199999999E1,2.58132272E2,1.72859424E2,,8.658412799999999E1,1.666599E1,1.3060552999999999E1,2.7890197999999998E1,6.3136792E1,4.3393724E1,3.7385968E1,9.074387999999999E0,1.3978705E1,7.136438999999999E0,9.238534E0,,12,14,17,19,24,25,32,2,6,10,15,,6,0,1,2,7,14,3,1,2,0,2,,
1571271618,2019-10-17 00:20:18.806,Acquired,Not acquired,Not acquired,Acquired,Acquired,Acquired,Acquired,Acquired,Acquired,Not acquired,Acquired,,3.58010624E2,3.18853216E2,3.6275948E1,4.6865812E1,1.1886242399999999E2,2.50401648E2,3.01634368E2,1.16613568E2,7.806795199999999E1,2.58132272E2,1.72859424E2,,8.658412799999999E1,1.666599E1,1.3060552999999999E1,2.7890197999999998E1,6.3136792E1,4.3393724E1,3.7385968E1,9.074387999999999E0,1.3978705E1,7.136438999999999E0,9.238534E0,,12,14,17,19,24,25,32,2,6,10,15,,6,0,1,2,7,14,3,1,2,0,2,,
1571271678,2019-10-17 00:21:18.806,Acquired,Not acquired,Not acquired,Acquired,Acquired,Acquired,Acquired,Acquired,Acquired,Not acquired,Acquired,,3.58010624E2,3.18853216E2,3.6275948E1,4.6865812E1,1.1886242399999999E2,2.50401648E2,3.01634368E2,1.16613568E2,7.806795199999999E1,2.58132272E2,1.72859424E2,,8.658412799999999E1,1.666599E1,1.3060552999999999E1,2.7890197999999998E1,6.3136792E1,4.3393724E1,3.7385968E1,9.074387999999999E0,1.3978705E1,7.136438999999999E0,9.238534E0,,12,14,17,19,24,25,32,2,6,10,15,,6,0,1,2,7,14,3,1,2,0,2,,
1571271738,2019-10-17 00:22:18.807,Acquired,Not acquired,Not acquired,Acquired,Acquired,Acquired,Acquired,Acquired,Acquired,Not acquired,Acquired,,3.58010624E2,3.18853216E2,3.6275948E1,4.6865812E1,1.1886242399999999E2,2.50401648E2,3.01634368E2,1.16613568E2,7.806795199999999E1,2.58132272E2,1.72859424E2,,8.658412799999999E1,1.666599E1,1.3060552999999999E1,2.7890197999999998E1,6.3136792E1,4.3393724E1,3.7385968E1,9.074387999999999E0,1.3978705E1,7.136438999999999E0,9.238534E0,,12,14,17,19,24,25,32,2,6,10,15,,6,0,1,2,7,14,3,1,2,0,2,,
1571271798,2019-10-17 00:23:18.807,Acquired,Not acquired,Not acquired,Acquired,Acquired,Acquired,Acquired,Acquired,Acquired,Not acquired,Acquired,,3.58010624E2,3.18853216E2,3.6275948E1,4.6865812E1,1.1886242399999999E2,2.50401648E2,3.01634368E2,1.16613568E2,7.806795199999999E1,2.58132272E2,1.72859424E2,,8.658412799999999E1,1.666599E1,1.3060552999999999E1,2.7890197999999998E1,6.3136792E1,4.3393724E1,3.7385968E1,9.074387999999999E0,1.3978705E1,7.136438999999999E0,9.238534E0,,12,14,17,19,24,25,32,2,6,10,15,,6,0,1,2,7,14,3,1,2,0,2,,
1571271858,2019-10-17 00:24:18.807,Not acquired,Not acquired,Acquired,Not acquired,Acquired,Acquired,Acquired,Acquired,Not acquired,Not acquired,,,1.0170755199999999E2,5.8856744E1,5.6225708E1,3.07646368E2,1.31473904E2,2.69140896E2,1.93948272E2,2.76736672E2,3.8247299999999996E1,3.01885856E2,,,2.277922E1,1.9841694E1,6.670214399999999E1,3.0750816E1,4.29302E1,6.2522363999999996E1,2.4276937999999998E1,4.3923367999999996E1,1.1478309999999999E1,1.2410578E1,,,2,6,12,14,24,25,29,32,19,31,,,0,0,5,0,15,8,15,14,0,0,,,
1571271918,2019-10-17 00:25:18.807,Acquired,Acquired,Acquired,Acquired,Acquired,Acquired,Acquired,Acquired,Acquired,,,,7.7833648E1,3.682866E1,7.3708928E1,2.8183583999999996E2,1.41373264E2,3.38234016E2,1.97195056E2,3.0510064E2,2.46253888E2,,,,3.2339771999999996E1,1.5401155999999999E1,4.4079595999999995E1,3.7823808E1,2.0180342E1,8.104751999999999E1,4.9992432E1,3.397456E1,3.5242884E1,,,,2,6,12,14,24,25,29,31,32,,,,5,2,4,4,3,1,16,3,12,,,,
1571271978,2019-10-17 00:26:18.806,Acquired,Acquired,Acquired,Acquired,Acquired,Acquired,Acquired,Acquired,Acquired,,,,7.732336E1,3.6469871999999995E1,7.401670399999999E1,2.8126124799999997E2,1.4152464E2,3.41308384E2,1.97253264E2,3.05067072E2,2.45791168E2,,,,3.2403909999999996E1,1.5200641999999998E1,4.3668195999999995E1,3.7806092E1,1.975844E1,8.116835999999999E1,5.0504936E1,3.4401584E1,3.4942896E1,,,,2,6,12,14,24,25,29,31,32,,,,7,2,11,5,5,7,16,5,13,,,,
1571272038,2019-10-17 00:27:18.806,Acquired,Acquired,Acquired,Acquired,Acquired,Acquired,Acquired,Acquired,Acquired,,,,7.732336E1,3.6469871999999995E1,7.401670399999999E1,2.8126124799999997E2,1.4152464E2,3.41308384E2,1.97253264E2,3.05067072E2,2.45791168E2,,,,3.2403909999999996E1,1.5200641999999998E1,4.3668195999999995E1,3.7806092E1,1.975844E1,8.116835999999999E1,5.0504936E1,3.4401584E1,3.4942896E1,,,,2,6,12,14,24,25,29,31,32,,,,7,2,11,5,5,7,16,5,13,,,,
1571272098,2019-10-17 00:28:18.806,Acquired,Acquired,Acquired,Acquired,Acquired,Acquired,Acquired,Acquired,Acquired,,,,7.732336E1,3.6469871999999995E1,7.401670399999999E1,2.8126124799999997E2,1.4152464E2,3.41308384E2,1.97253264E2,3.05067072E2,2.45791168E2,,,,3.2403909999999996E1,1.5200641999999998E1,4.3668195999999995E1,3.7806092E1,1.975844E1,8.116835999999999E1,5.0504936E1,3.4401584E1,3.4942896E1,,,,2,6,12,14,24,25,29,31,32,,,,7,2,11,5,5,7,16,5,13,,,,
1571272158,2019-10-17 00:29:18.806,Acquired,Acquired,Acquired,Acquired,Acquired,Acquired,Acquired,Acquired,Acquired,,,,7.732336E1,3.6469871999999995E1,7.401670399999999E1,2.8126124799999997E2,1.4152464E2,3.41308384E2,1.97253264E2,3.05067072E2,2.45791168E2,,,,3.2403909999999996E1,1.5200641999999998E1,4.3668195999999995E1,3.7806092E1,1.975844E1,8.116835999999999E1,5.0504936E1,3.4401584E1,3.4942896E1,,,,2,6,12,14,24,25,29,31,32,,,,7,2,11,5,5,7,16,5,13,,,,
1571272218,2019-10-17 00:30:18.806,Acquired,Acquired,Acquired,Acquired,Acquired,Acquired,Acquired,Acquired,Acquired,,,,7.732336E1,3.6469871999999995E1,7.401670399999999E1,2.8126124799999997E2,1.4152464E2,3.41308384E2,1.97253264E2,3.05067072E2,2.45791168E2,,,,3.2403909999999996E1,1.5200641999999998E1,4.3668195999999995E1,3.7806092E1,1.975844E1,8.116835999999999E1,5.0504936E1,3.4401584E1,3.4942896E1,,,,2,6,12,14,24,25,29,31,32,,,,7,2,11,5,5,7,16,5,13,,,,
1571272278,2019-10-17 00:31:18.806,Acquired,Acquired,Acquired,Acquired,Acquired,Acquired,Acquired,Acquired,Acquired,,,,7.732336E1,3.6469871999999995E1,7.401670399999999E1,2.8126124799999997E2,1.4152464E2,3.41308384E2,1.97253264E2,3.05067072E2,2.45791168E2,,,,3.2403909999999996E1,1.5200641999999998E1,4.3668195999999995E1,3.7806092E1,1.975844E1,8.116835999999999E1,5.0504936E1,3.4401584E1,3.4942896E1,,,,2,6,12,14,24,25,29,31,32,,,,7,2,11,5,5,7,16,5,13,,,,
1571272338,2019-10-17 00:32:18.806,Acquired,Acquired,Acquired,Acquired,Acquired,Acquired,Acquired,Acquired,Acquired,,,,7.732336E1,3.6469871999999995E1,7.401670399999999E1,2.8126124799999997E2,1.4152464E2,3.41308384E2,1.97253264E2,3.05067072E2,2.45791168E2,,,,3.2403909999999996E1,1.5200641999999998E1,4.3668195999999995E1,3.7806092E1,1.975844E1,8.116835999999999E1,5.0504936E1,3.4401584E1,3.4942896E1,,,,2,6,12,14,24,25,29,31,32,,,,7,2,11,5,5,7,16,5,13,,,,
1571272398,2019-10-17 00:33:18.806,Acquired,Acquired,Acquired,Acquired,Acquired,Acquired,Acquired,Acquired,Acquired,,,,7.732336E1,3.6469871999999995E1,7.401670399999999E1,2.8126124799999997E2,1.4152464E2,3.41308384E2,1.97253264E2,3.05067072E2,2.45791168E2,,,,3.2403909999999996E1,1.5200641999999998E1,4.3668195999999995E1,3.7806092E1,1.975844E1,8.116835999999999E1,5.0504936E1,3.4401584E1,3.4942896E1,,,,2,6,12,14,24,25,29,31,32,,,,7,2,11,5,5,7,16,5,13,,,,
1571272458,2019-10-17 00:34:18.806,Acquired,Acquired,Acquired,Acquired,Acquired,Acquired,Acquired,Acquired,Acquired,,,,7.732336E1,3.6469871999999995E1,7.401670399999999E1,2.8126124799999997E2,1.4152464E2,3.41308384E2,1.97253264E2,3.05067072E2,2.45791168E2,,,,3.2403909999999996E1,1.5200641999999998E1,4.3668195999999995E1,3.7806092E1,1.975844E1,8.116835999999999E1,5.0504936E1,3.4401584E1,3.4942896E1,,,,2,6,12,14,24,25,29,31,32,,,,7,2,11,5,5,7,16,5,13,,,,
1571272518,2019-10-17 00:35:18.806,Acquired,Acquired,Acquired,Acquired,Acquired,Acquired,Acquired,Acquired,Acquired,,,,7.732336E1,3.6469871999999995E1,7.401670399999999E1,2.8126124799999997E2,1.4152464E2,3.41308384E2,1.97253264E2,3.05067072E2,2.45791168E2,,,,3.2403909999999996E1,1.5200641999999998E1,4.3668195999999995E1,3.7806092E1,1.975844E1,8.116835999999999E1,5.0504936E1,3.4401584E1,3.4942896E1,,,,2,6,12,14,24,25,29,31,32,,,,7,2,11,5,5,7,16,5,13,,,,
1571272578,2019-10-17 00:36:18.806,Acquired,Acquired,Acquired,Acquired,Acquired,Acquired,Acquired,Acquired,Acquired,,,,7.732336E1,3.6469871999999995E1,7.401670399999999E1,2.8126124799999997E2,1.4152464E2,3.41308384E2,1.97253264E2,3.05067072E2,2.45791168E2,,,,3.2403909999999996E1,1.5200641999999998E1,4.3668195999999995E1,3.7806092E1,1.975844E1,8.116835999999999E1,5.0504936E1,3.4401584E1,3.4942896E1,,,,2,6,12,14,24,25,29,31,32,,,,7,2,11,5,5,7,16,5,13,,,,
1571272638,2019-10-17 00:37:18.806,Acquired,Acquired,Acquired,Acquired,Acquired,Acquired,Acquired,Acquired,Acquired,,,,7.732336E1,3.6469871999999995E1,7.401670399999999E1,2.8126124799999997E2,1.4152464E2,3.41308384E2,1.97253264E2,3.05067072E2,2.45791168E2,,,,3.2403909999999996E1,1.5200641999999998E1,4.3668195999999995E1,3.7806092E1,1.975844E1,8.116835999999999E1,5.0504936E1,3.4401584E1,3.4942896E1,,,,2,6,12,14,24,25,29,31,32,,,,7,2,11,5,5,7,16,5,13,,,,
1571272698,2019-10-17 00:38:18.814,Acquired,Acquired,Acquired,Acquired,Acquired,Acquired,Acquired,Acquired,Acquired,,,,7.732336E1,3.6469871999999995E1,7.401670399999999E1,2.8126124799999997E2,1.4152464E2,3.41308384E2,1.97253264E2,3.05067072E2,2.45791168E2,,,,3.2403909999999996E1,1.5200641999999998E1,4.3668195999999995E1,3.7806092E1,1.975844E1,8.116835999999999E1,5.0504936E1,3.4401584E1,3.4942896E1,,,,2,6,12,14,24,25,29,31,32,,,,7,2,11,5,5,7,16,5,13,,,,
1571272758,2019-10-17 00:39:18.806,Acquired,Acquired,Acquired,Acquired,Acquired,Acquired,Acquired,Acquired,Acquired,,,,7.732336E1,3.6469871999999995E1,7.401670399999999E1,2.8126124799999997E2,1.4152464E2,3.41308384E2,1.97253264E2,3.05067072E2,2.45791168E2,,,,3.2403909999999996E1,1.5200641999999998E1,4.3668195999999995E1,3.7806092E1,1.975844E1,8.116835999999999E1,5.0504936E1,3.4401584E1,3.4942896E1,,,,2,6,12,14,24,25,29,31,32,,,,7,2,11,5,5,7,16,5,13,,,,
1571272818,2019-10-17 00:40:18.806,Acquired,Acquired,Acquired,Acquired,Acquired,Acquired,Acquired,Acquired,Acquired,,,,7.732336E1,3.6469871999999995E1,7.401670399999999E1,2.8126124799999997E2,1.4152464E2,3.41308384E2,1.97253264E2,3.05067072E2,2.45791168E2,,,,3.2403909999999996E1,1.5200641999999998E1,4.3668195999999995E1,3.7806092E1,1.975844E1,8.116835999999999E1,5.0504936E1,3.4401584E1,3.4942896E1,,,,2,6,12,14,24,25,29,31,32,,,,7,2,11,5,5,7,16,5,13,,,,
1571272878,2019-10-17 00:41:18.806,Acquired,Acquired,Acquired,Acquired,Acquired,Acquired,Acquired,Acquired,Acquired,,,,7.732336E1,3.6469871999999995E1,7.401670399999999E1,2.8126124799999997E2,1.4152464E2,3.41308384E2,1.97253264E2,3.05067072E2,2.45791168E2,,,,3.2403909999999996E1,1.5200641999999998E1,4.3668195999999995E1,3.7806092E1,1.975844E1,8.116835999999999E1,5.0504936E1,3.4401584E1,3.4942896E1,,,,2,6,12,14,24,25,29,31,32,,,,7,2,11,5,5,7,16,5,13,,,,
1571272938,2019-10-17 00:42:18.806,Acquired,Acquired,Acquired,Acquired,Acquired,Acquired,Acquired,Acquired,Acquired,,,,7.732336E1,3.6469871999999995E1,7.401670399999999E1,2.8126124799999997E2,1.4152464E2,3.41308384E2,1.97253264E2,3.05067072E2,2.45791168E2,,,,3.2403909999999996E1,1.5200641999999998E1,4.3668195999999995E1,3.7806092E1,1.975844E1,8.116835999999999E1,5.0504936E1,3.4401584E1,3.4942896E1,,,,2,6,12,14,24,25,29,31,32,,,,7,2,11,5,5,7,16,5,13,,,,
1571272998,2019-10-17 00:43:18.806,Acquired,Acquired,Acquired,Acquired,Acquired,Acquired,Acquired,Acquired,Acquired,,,,7.732336E1,3.6469871999999995E1,7.401670399999999E1,2.8126124799999997E2,1.4152464E2,3.41308384E2,1.97253264E2,3.05067072E2,2.45791168E2,,,,3.2403909999999996E1,1.5200641999999998E1,4.3668195999999995E1,3.7806092E1,1.975844E1,8.116835999999999E1,5.0504936E1,3.4401584E1,3.4942896E1,,,,2,6,12,14,24,25,29,31,32,,,,7,2,11,5,5,7,16,5,13,,,,
1571273058,2019-10-17 00:44:18.806,Acquired,Acquired,Acquired,Acquired,Acquired,Acquired,Acquired,Acquired,Acquired,,,,7.732336E1,3.6469871999999995E1,7.401670399999999E1,2.8126124799999997E2,1.4152464E2,3.41308384E2,1.97253264E2,3.05067072E2,2.45791168E2,,,,3.2403909999999996E1,1.5200641999999998E1,4.3668195999999995E1,3.7806092E1,1.975844E1,8.116835999999999E1,5.0504936E1,3.4401584E1,3.4942896E1,,,,2,6,12,14,24,25,29,31,32,,,,7,2,11,5,5,7,16,5,13,,,,
1571273118,2019-10-17 00:45:18.806,Acquired,Acquired,Acquired,Acquired,Acquired,Acquired,Acquired,Acquired,Acquired,,,,7.732336E1,3.6469871999999995E1,7.401670399999999E1,2.8126124799999997E2,1.4152464E2,3.41308384E2,1.97253264E2,3.05067072E2,2.45791168E2,,,,3.2403909999999996E1,1.5200641999999998E1,4.3668195999999995E1,3.7806092E1,1.975844E1,8.116835999999999E1,5.0504936E1,3.4401584E1,3.4942896E1,,,,2,6,12,14,24,25,29,31,32,,,,7,2,11,5,5,7,16,5,13,,,,
1571273178,2019-10-17 00:46:18.806,Acquired,Acquired,Acquired,Acquired,Acquired,Acquired,Acquired,Acquired,Acquired,,,,7.732336E1,3.6469871999999995E1,7.401670399999999E1,2.8126124799999997E2,1.4152464E2,3.41308384E2,1.97253264E2,3.05067072E2,2.45791168E2,,,,3.2403909999999996E1,1.5200641999999998E1,4.3668195999999995E1,3.7806092E1,1.975844E1,8.116835999999999E1,5.0504936E1,3.4401584E1,3.4942896E1,,,,2,6,12,14,24,25,29,31,32,,,,7,2,11,5,5,7,16,5,13,,,,
1571273238,2019-10-17 00:47:18.806,Acquired,Acquired,Acquired,Acquired,Acquired,Acquired,Acquired,Acquired,Acquired,,,,7.732336E1,3.6469871999999995E1,7.401670399999999E1,2.8126124799999997E2,1.4152464E2,3.41308384E2,1.97253264E2,3.05067072E2,2.45791168E2,,,,3.2403909999999996E1,1.5200641999999998E1,4.3668195999999995E1,3.7806092E1,1.975844E1,8.116835999999999E1,5.0504936E1,3.4401584E1,3.4942896E1,,,,2,6,12,14,24,25,29,31,32,,,,7,2,11,5,5,7,16,5,13,,,,
1571273298,2019-10-17 00:48:18.806,Acquired,Acquired,Acquired,Acquired,Acquired,Acquired,Acquired,Acquired,Acquired,,,,7.732336E1,3.6469871999999995E1,7.401670399999999E1,2.8126124799999997E2,1.4152464E2,3.41308384E2,1.97253264E2,3.05067072E2,2.45791168E2,,,,3.2403909999999996E1,1.5200641999999998E1,4.3668195999999995E1,3.7806092E1,1.975844E1,8.116835999999999E1,5.0504936E1,3.4401584E1,3.4942896E1,,,,2,6,12,14,24,25,29,31,32,,,,7,2,11,5,5,7,16,5,13,,,,
1571273358,2019-10-17 00:49:18.806,Acquired,Acquired,Acquired,Acquired,Acquired,Acquired,Acquired,Acquired,Acquired,,,,7.732336E1,3.6469871999999995E1,7.401670399999999E1,2.8126124799999997E2,1.4152464E2,3.41308384E2,1.97253264E2,3.05067072E2,2.45791168E2,,,,3.2403909999999996E1,1.5200641999999998E1,4.3668195999999995E1,3.7806092E1,1.975844E1,8.116835999999999E1,5.0504936E1,3.4401584E1,3.4942896E1,,,,2,6,12,14,24,25,29,31,32,,,,7,2,11,5,5,7,16,5,13,,,,
1571273418,2019-10-17 00:50:18.806,Acquired,Acquired,Acquired,Acquired,Acquired,Acquired,Acquired,Acquired,Acquired,,,,7.732336E1,3.6469871999999995E1,7.401670399999999E1,2.8126124799999997E2,1.4152464E2,3.41308384E2,1.97253264E2,3.05067072E2,2.45791168E2,,,,3.2403909999999996E1,1.5200641999999998E1,4.3668195999999995E1,3.7806092E1,1.975844E1,8.116835999999999E1,5.0504936E1,3.4401584E1,3.4942896E1,,,,2,6,12,14,24,25,29,31,32,,,,7,2,11,5,5,7,16,5,13,,,,
1571273478,2019-10-17 00:51:18.806,Acquired,Acquired,Acquired,Acquired,Acquired,Acquired,Acquired,Acquired,Acquired,,,,7.732336E1,3.6469871999999995E1,7.401670399999999E1,2.8126124799999997E2,1.4152464E2,3.41308384E2,1.97253264E2,3.05067072E2,2.45791168E2,,,,3.2403909999999996E1,1.5200641999999998E1,4.3668195999999995E1,3.7806092E1,1.975844E1,8.116835999999999E1,5.0504936E1,3.4401584E1,3.4942896E1,,,,2,6,12,14,24,25,29,31,32,,,,7,2,11,5,5,7,16,5,13,,,,
1571273538,2019-10-17 00:52:18.807,Acquired,Acquired,Acquired,Acquired,Acquired,Acquired,Acquired,Acquired,Acquired,,,,7.732336E1,3.6469871999999995E1,7.401670399999999E1,2.8126124799999997E2,1.4152464E2,3.41308384E2,1.97253264E2,3.05067072E2,2.45791168E2,,,,3.2403909999999996E1,1.5200641999999998E1,4.3668195999999995E1,3.7806092E1,1.975844E1,8.116835999999999E1,5.0504936E1,3.4401584E1,3.4942896E1,,,,2,6,12,14,24,25,29,31,32,,,,7,2,11,5,5,7,16,5,13,,,,
1571273598,2019-10-17 00:53:18.806,Acquired,Acquired,Acquired,Acquired,Acquired,Acquired,Acquired,Acquired,Acquired,,,,7.732336E1,3.6469871999999995E1,7.401670399999999E1,2.8126124799999997E2,1.4152464E2,3.41308384E2,1.97253264E2,3.05067072E2,2.45791168E2,,,,3.2403909999999996E1,1.5200641999999998E1,4.3668195999999995E1,3.7806092E1,1.975844E1,8.116835999999999E1,5.0504936E1,3.4401584E1,3.4942896E1,,,,2,6,12,14,24,25,29,31,32,,,,7,2,11,5,5,7,16,5,13,,,,
1571273658,2019-10-17 00:54:18.806,Acquired,Acquired,Acquired,Acquired,Acquired,Acquired,Acquired,Acquired,Acquired,,,,7.732336E1,3.6469871999999995E1,7.401670399999999E1,2.8126124799999997E2,1.4152464E2,3.41308384E2,1.97253264E2,3.05067072E2,2.45791168E2,,,,3.2403909999999996E1,1.5200641999999998E1,4.3668195999999995E1,3.7806092E1,1.975844E1,8.116835999999999E1,5.0504936E1,3.4401584E1,3.4942896E1,,,,2,6,12,14,24,25,29,31,32,,,,7,2,11,5,5,7,16,5,13,,,,
1571273718,2019-10-17 00:55:18.806,Acquired,Acquired,Acquired,Acquired,Acquired,Acquired,Acquired,Acquired,Acquired,,,,7.732336E1,3.6469871999999995E1,7.401670399999999E1,2.8126124799999997E2,1.4152464E2,3.41308384E2,1.97253264E2,3.05067072E2,2.45791168E2,,,,3.2403909999999996E1,1.5200641999999998E1,4.3668195999999995E1,3.7806092E1,1.975844E1,8.116835999999999E1,5.0504936E1,3.4401584E1,3.4942896E1,,,,2,6,12,14,24,25,29,31,32,,,,7,2,11,5,5,7,16,5,13,,,,
1571273778,2019-10-17 00:56:18.809,Acquired,Acquired,Acquired,Acquired,Acquired,Acquired,Acquired,Acquired,Acquired,,,,7.732336E1,3.6469871999999995E1,7.401670399999999E1,2.8126124799999997E2,1.4152464E2,3.41308384E2,1.97253264E2,3.05067072E2,2.45791168E2,,,,3.2403909999999996E1,1.5200641999999998E1,4.3668195999999995E1,3.7806092E1,1.975844E1,8.116835999999999E1,5.0504936E1,3.4401584E1,3.4942896E1,,,,2,6,12,14,24,25,29,31,32,,,,7,2,11,5,5,7,16,5,13,,,,
1571273838,2019-10-17 00:57:18.806,Acquired,Acquired,Acquired,Acquired,Acquired,Acquired,Acquired,Acquired,Acquired,,,,7.732336E1,3.6469871999999995E1,7.401670399999999E1,2.8126124799999997E2,1.4152464E2,3.41308384E2,1.97253264E2,3.05067072E2,2.45791168E2,,,,3.2403909999999996E1,1.5200641999999998E1,4.3668195999999995E1,3.7806092E1,1.975844E1,8.116835999999999E1,5.0504936E1,3.4401584E1,3.4942896E1,,,,2,6,12,14,24,25,29,31,32,,,,7,2,11,5,5,7,16,5,13,,,,
1571273898,2019-10-17 00:58:18.806,Acquired,Acquired,Acquired,Acquired,Acquired,Acquired,Acquired,Acquired,Acquired,,,,7.732336E1,3.6469871999999995E1,7.401670399999999E1,2.8126124799999997E2,1.4152464E2,3.41308384E2,1.97253264E2,3.05067072E2,2.45791168E2,,,,3.2403909999999996E1,1.5200641999999998E1,4.3668195999999995E1,3.7806092E1,1.975844E1,8.116835999999999E1,5.0504936E1,3.4401584E1,3.4942896E1,,,,2,6,12,14,24,25,29,31,32,,,,7,2,11,5,5,7,16,5,13,,,,
1571273958,2019-10-17 00:59:18.808,Acquired,Acquired,Acquired,Acquired,Acquired,Acquired,Acquired,Acquired,Acquired,,,,7.732336E1,3.6469871999999995E1,7.401670399999999E1,2.8126124799999997E2,1.4152464E2,3.41308384E2,1.97253264E2,3.05067072E2,2.45791168E2,,,,3.2403909999999996E1,1.5200641999999998E1,4.3668195999999995E1,3.7806092E1,1.975844E1,8.116835999999999E1,5.0504936E1,3.4401584E1,3.4942896E1,,,,2,6,12,14,24,25,29,31,32,,,,7,2,11,5,5,7,16,5,13,,,,
