Time(longsecs),Time(UTC),External SOH Voltage 1(V),External SOH Voltage 2(V),External SOH Voltage 3(V),External SOH Voltage 4(V),Sensor SOH Voltage 1(V),Sensor SOH Voltage 2(V),Sensor SOH Voltage 3(V),
1571317218,2019-10-17 13:00:18.806,-1.177907E-2,-9.543896E-4,-5.3789616E-3,-4.491091E-3,2.2918892E-1,2.3273659E-1,2.3100758E-1,
1571317278,2019-10-17 13:01:18.806,-1.0209084E-2,4.0102005E-4,-3.5002232E-3,-3.1719208E-3,2.3113537E-1,2.3433685E-1,2.3398685E-1,
1571317338,2019-10-17 13:02:18.806,-9.294033E-3,1.2998581E-3,-2.8941631E-3,-2.100706E-3,2.3591518E-1,2.3947334E-1,2.372694E-1,
1571317398,2019-10-17 13:03:18.806,-1.1829615E-2,-9.889603E-4,-5.4855347E-3,-4.8208237E-3,2.290926E-1,2.3253536E-1,2.2950363E-1,
1571317458,2019-10-17 13:04:18.806,-9.629011E-3,5.171299E-4,-3.831625E-3,-2.932787E-3,2.3116207E-1,2.3429203E-1,2.3194695E-1,
1571317518,2019-10-17 13:05:18.806,-7.238865E-3,3.513813E-3,-8.9144707E-4,-3.9625168E-4,2.4218082E-1,2.4739552E-1,2.4335384E-1,
1571317578,2019-10-17 13:06:18.806,-1.1973619E-2,-1.0700226E-3,-5.6505203E-3,-4.698038E-3,2.319603E-1,2.3428822E-1,2.3311234E-1,
1571317638,2019-10-17 13:07:18.806,-1.0461569E-2,8.406639E-4,-3.5922527E-3,-3.1015873E-3,2.3082733E-1,2.3405933E-1,2.3229504E-1,
1571317698,2019-10-17 13:08:18.806,-9.349346E-3,1.4173985E-3,-3.158331E-3,-2.4898052E-3,2.3613358E-1,2.3985481E-1,2.3676872E-1,
1571317758,2019-10-17 13:09:18.806,-9.387255E-3,1.240015E-3,-3.334999E-3,-2.3357868E-3,2.3954964E-1,2.430172E-1,2.4115944E-1,
1571317818,2019-10-17 13:10:18.806,-9.50861E-3,8.869171E-4,-3.763914E-3,-2.7787685E-3,2.3603725E-1,2.3783016E-1,2.367773E-1,
1571317878,2019-10-17 13:11:18.806,-1.1936665E-2,-8.4257126E-4,-5.1977634E-3,-4.7442913E-3,2.3011589E-1,2.3217773E-1,2.3118114E-1,
1571317938,2019-10-17 13:12:18.807,-1.1533976E-2,-7.376671E-4,-5.1720142E-3,-4.732609E-3,2.306261E-1,2.3379803E-1,2.3122597E-1,
1571317998,2019-10-17 13:13:18.807,-1.14815235E-2,-7.70092E-4,-5.3470135E-3,-4.4829845E-3,2.2984982E-1,2.3304749E-1,2.3124504E-1,
1571318058,2019-10-17 13:14:18.806,-1.0317326E-2,8.4257126E-4,-3.887415E-3,-3.1671524E-3,2.3540306E-1,2.3841667E-1,2.3697472E-1,
1571318118,2019-10-17 13:15:18.806,-7.63011E-3,3.1397343E-3,-1.2423992E-3,-8.211136E-4,2.4148369E-1,2.4367619E-1,2.4370384E-1,
1571318178,2019-10-17 13:16:18.809,-7.5006485E-3,3.4840107E-3,-9.109974E-4,-4.556179E-4,2.3824883E-1,2.4290562E-1,2.3984718E-1,
1571318238,2019-10-17 13:17:18.806,-1.1974812E-2,-1.190424E-3,-5.4461956E-3,-4.8844814E-3,2.2983646E-1,2.3290634E-1,2.3084831E-1,
1571318298,2019-10-17 13:18:18.806,-7.540226E-3,3.0021667E-3,-1.4848709E-3,-6.752014E-4,2.3756695E-1,2.4001694E-1,2.3979473E-1,
1571318358,2019-10-17 13:19:18.808,-9.818554E-3,9.176731E-4,-3.3607483E-3,-2.826929E-3,2.364111E-1,2.3999882E-1,2.3777866E-1,
1571318418,2019-10-17 13:20:18.806,-1.2114763E-2,-1.01614E-3,-5.3288937E-3,-4.7187805E-3,2.2932625E-1,2.33181E-1,2.3087692E-1,
1571318478,2019-10-17 13:21:18.806,-9.567976E-3,1.5478134E-3,-3.129959E-3,-2.62928E-3,2.3566532E-1,2.378273E-1,2.3775005E-1,
1571318538,2019-10-17 13:22:18.806,-1.1882305E-2,-1.1565685E-3,-5.1698685E-3,-4.6782494E-3,2.2573757E-1,2.2778606E-1,2.2636795E-1,
1571318598,2019-10-17 13:23:18.806,-7.6053143E-3,3.308773E-3,-1.4016628E-3,-8.263588E-4,2.3734856E-1,2.3982334E-1,2.3853207E-1,
1571318658,2019-10-17 13:24:18.809,-1.0264635E-2,8.3208084E-4,-3.4108162E-3,-2.781868E-3,2.359438E-1,2.373848E-1,2.3662853E-1,
1571318718,2019-10-17 13:25:18.806,-9.923458E-3,7.843971E-4,-3.4694672E-3,-2.988577E-3,2.3527813E-1,2.3742867E-1,2.3623562E-1,
1571318778,2019-10-17 13:26:18.806,-9.216309E-3,1.4050007E-3,-2.9394627E-3,-2.1429062E-3,2.3234653E-1,2.3542881E-1,2.3277378E-1,
1571318838,2019-10-17 13:27:18.836,-1.1762142E-2,-9.186268E-4,-5.532503E-3,-4.7237873E-3,2.2962666E-1,2.3201561E-1,2.3230553E-1,
1571318898,2019-10-17 13:28:18.806,-7.5526237E-3,3.0345917E-3,-1.1863708E-3,-2.69413E-4,2.4129963E-1,2.4374866E-1,2.435646E-1,
1571318958,2019-10-17 13:29:18.806,-9.231091E-3,1.8701553E-3,-2.6729107E-3,-1.790762E-3,2.3271942E-1,2.3491478E-1,2.3386383E-1,
1571319018,2019-10-17 13:30:18.806,-9.215832E-3,1.4333725E-3,-2.9625893E-3,-2.2614002E-3,2.3174858E-1,2.3526382E-1,2.3356438E-1,
1571319078,2019-10-17 13:31:18.806,-9.172201E-3,1.5082359E-3,-3.0822754E-3,-2.4015903E-3,2.3622036E-1,2.4018192E-1,2.3898506E-1,
1571319138,2019-10-17 13:32:18.806,-9.333372E-3,1.3933182E-3,-3.263235E-3,-2.7229786E-3,2.3640633E-1,2.3842525E-1,2.3581886E-1,
1571319198,2019-10-17 13:33:18.806,-1.208353E-2,-8.673668E-4,-5.3043365E-3,-4.763365E-3,2.3195744E-1,2.3473835E-1,2.3326397E-1,
1571319258,2019-10-17 13:34:18.806,-1.0160685E-2,8.6569786E-4,-3.529787E-3,-3.0226707E-3,2.3428154E-1,2.3609734E-1,2.3539352E-1,
1571319318,2019-10-17 13:35:18.806,-1.2014151E-2,-7.801056E-4,-5.3322315E-3,-4.844904E-3,2.2622108E-1,2.2828484E-1,2.2634315E-1,
1571319378,2019-10-17 13:36:18.806,-1.1770964E-2,-8.8763237E-4,-5.3150654E-3,-4.6670437E-3,2.2472286E-1,2.280178E-1,2.2543049E-1,
1571319438,2019-10-17 13:37:18.806,-9.990215E-3,9.665489E-4,-3.2572746E-3,-3.0128956E-3,2.3550129E-1,2.383585E-1,2.3668098E-1,
1571319498,2019-10-17 13:38:18.806,-9.253025E-3,1.4564991E-3,-2.8288364E-3,-2.1133423E-3,2.3185539E-1,2.3500538E-1,2.3367214E-1,
1571319558,2019-10-17 13:39:18.806,-9.912014E-3,9.0026855E-4,-3.5009384E-3,-3.0977726E-3,2.355547E-1,2.3794937E-1,2.3714447E-1,
1571319618,2019-10-17 13:40:18.807,-9.157181E-3,1.7933846E-3,-2.9153824E-3,-2.0794868E-3,2.3320007E-1,2.368269E-1,2.3529339E-1,
1571319678,2019-10-17 13:41:18.839,-1.1498928E-2,-9.827614E-4,-5.416155E-3,-4.5945644E-3,2.2967625E-1,2.3291206E-1,2.3138618E-1,
1571319738,2019-10-17 13:42:18.807,-9.476423E-3,1.3251305E-3,-2.9697418E-3,-2.3727417E-3,2.324562E-1,2.344265E-1,2.3326397E-1,
1571319798,2019-10-17 13:43:18.807,-1.0088205E-2,1.0085106E-3,-3.5812855E-3,-2.735138E-3,2.3126698E-1,2.3223782E-1,2.312355E-1,
1571319858,2019-10-17 13:44:18.806,-1.1714697E-2,-9.889603E-4,-5.4781437E-3,-4.827738E-3,2.2958851E-1,2.3355293E-1,2.3136616E-1,
1571319918,2019-10-17 13:45:18.806,-1.1872292E-2,-9.3984604E-4,-5.333662E-3,-4.843235E-3,2.2563076E-1,2.2805977E-1,2.2677803E-1,
1571319978,2019-10-17 13:46:18.806,-7.659912E-3,3.297329E-3,-1.0304451E-3,-9.560585E-5,2.3633194E-1,2.3851776E-1,2.3783875E-1,
1571320038,2019-10-17 13:47:18.806,-9.557724E-3,1.237154E-3,-2.8421879E-3,-2.3522377E-3,2.358141E-1,2.3837662E-1,2.3770237E-1,
1571320098,2019-10-17 13:48:18.806,-1.0074139E-2,5.340576E-4,-3.525734E-3,-2.7177334E-3,2.2862053E-1,2.322712E-1,2.2970963E-1,
1571320158,2019-10-17 13:49:18.806,-9.281874E-3,1.5618801E-3,-3.015995E-3,-2.2211075E-3,2.3648262E-1,2.38945E-1,2.3800087E-1,
1571320218,2019-10-17 13:50:18.806,-9.746075E-3,1.5156269E-3,-3.0829906E-3,-2.5088787E-3,2.3182106E-1,2.3440933E-1,2.3476315E-1,
1571320278,2019-10-17 13:51:18.806,-9.779692E-3,9.624958E-4,-3.868103E-3,-2.7577877E-3,2.3760796E-1,2.4053192E-1,2.380228E-1,
1571320338,2019-10-17 13:52:18.825,-9.652138E-3,1.0259151E-3,-3.443718E-3,-3.021717E-3,2.3192406E-1,2.3346996E-1,2.3363495E-1,
1571320398,2019-10-17 13:53:18.840,-1.1845827E-2,-1.0716915E-3,-5.223274E-3,-4.9037933E-3,2.2343826E-1,2.2688484E-1,2.2522545E-1,
1571320458,2019-10-17 13:54:18.806,-9.62472E-3,1.5780926E-3,-3.0727386E-3,-2.7692318E-3,2.319355E-1,2.3428154E-1,2.336483E-1,
1571320518,2019-10-17 13:55:18.806,-1.0146141E-2,7.67231E-4,-3.508091E-3,-2.6855469E-3,2.3120308E-1,2.33387E-1,2.3156166E-1,
1571320578,2019-10-17 13:56:18.806,-7.568598E-3,3.2446384E-3,-1.3577938E-3,-2.8443336E-4,2.4161339E-1,2.4431133E-1,2.4198437E-1,
1571320638,2019-10-17 13:57:18.806,-9.0715885E-3,1.3246536E-3,-2.865076E-3,-2.58708E-3,2.3204517E-1,2.347765E-1,2.3388863E-1,
1571320698,2019-10-17 13:58:18.806,-1.1875868E-2,-1.0643005E-3,-5.3498745E-3,-5.008936E-3,2.2553921E-1,2.2855759E-1,2.2799397E-1,
1571320758,2019-10-17 13:59:18.806,-1.1789322E-2,-1.0330677E-3,-5.580187E-3,-4.699707E-3,2.2253227E-1,2.261324E-1,2.2469997E-1,
