Time(longsecs),Time(UTC),Supply Voltage(mV),Temperature(&deg;C),NMX Bus Current(mA),Sensor Current(mA),Serial Port Current(mA),Controller Current(mA),Digitizer Current(mA),
1571353218,2019-10-17 23:00:18.839,15814,2.0277588E1,0,8,0,40,40,
1571353278,2019-10-17 23:01:18.806,15787,2.027652E1,0,13,0,41,38,
1571353338,2019-10-17 23:02:18.812,15760,2.0170654E1,0,5,0,43,36,
1571353398,2019-10-17 23:03:18.806,15719,2.0171722E1,0,5,0,44,42,
1571353458,2019-10-17 23:04:18.809,15760,2.0127441E1,0,7,0,35,36,
1571353518,2019-10-17 23:05:18.806,15760,2.0245178E1,0,6,0,40,37,
1571353578,2019-10-17 23:06:18.807,15760,2.0221405E1,0,7,0,74,38,
1571353638,2019-10-17 23:07:18.807,15760,2.0169556E1,0,9,0,48,36,
1571353698,2019-10-17 23:08:18.807,15760,1.9882233E1,0,7,0,43,42,
1571353758,2019-10-17 23:09:18.806,15760,2.0220337E1,0,7,0,35,37,
1571353818,2019-10-17 23:10:18.806,15733,2.0080994E1,0,2,0,40,36,
1571353878,2019-10-17 23:11:18.806,15773,2.0139313E1,0,8,0,40,36,
1571353938,2019-10-17 23:12:18.807,15787,2.0100433E1,0,17,0,38,40,
1571353998,2019-10-17 23:13:18.806,15760,2.0138245E1,0,7,0,35,38,
1571354058,2019-10-17 23:14:18.806,15760,1.9988098E1,0,6,0,35,44,
1571354118,2019-10-17 23:15:18.806,15760,2.012204E1,0,10,0,40,38,
1571354178,2019-10-17 23:16:18.809,15760,2.0196564E1,0,8,0,41,39,
1571354238,2019-10-17 23:17:18.806,15746,2.0279755E1,0,9,1,40,38,
1571354298,2019-10-17 23:18:18.806,15787,2.0053986E1,0,7,0,35,41,
1571354358,2019-10-17 23:19:18.806,15760,2.0126373E1,0,8,0,35,36,
1571354418,2019-10-17 23:20:18.806,15746,1.9994568E1,0,12,0,63,37,
1571354478,2019-10-17 23:21:18.806,15746,2.004535E1,0,8,0,61,39,
1571354538,2019-10-17 23:22:18.806,15801,2.0221405E1,0,8,0,41,39,
1571354598,2019-10-17 23:23:18.806,15773,1.9989166E1,0,6,0,35,36,
1571354658,2019-10-17 23:24:18.806,15760,2.0047516E1,0,8,0,35,37,
1571354718,2019-10-17 23:25:18.806,15746,2.0106903E1,0,9,0,40,38,
1571354778,2019-10-17 23:26:18.806,15760,2.0157684E1,0,7,0,40,42,
1571354838,2019-10-17 23:27:18.806,15746,2.0073425E1,0,7,0,40,40,
1571354898,2019-10-17 23:28:18.806,15773,1.9939484E1,0,13,0,35,41,
1571354958,2019-10-17 23:29:18.806,15760,1.9979462E1,0,7,66,41,38,
1571355018,2019-10-17 23:30:18.806,15746,1.9990265E1,0,4,0,35,39,
1571355078,2019-10-17 23:31:18.809,15760,1.9963257E1,0,7,0,40,43,
1571355138,2019-10-17 23:32:18.806,15746,2.0069122E1,0,8,0,69,39,
1571355198,2019-10-17 23:33:18.806,15746,2.0129608E1,0,7,0,45,38,
1571355258,2019-10-17 23:34:18.806,15746,2.001941E1,0,8,0,64,39,
1571355318,2019-10-17 23:35:18.806,15746,2.005722E1,0,8,0,38,38,
1571355378,2019-10-17 23:36:18.806,15760,2.0164154E1,0,6,0,41,36,
1571355438,2019-10-17 23:37:18.809,15760,1.9951355E1,0,11,0,40,34,
1571355498,2019-10-17 23:38:18.806,15760,2.0003204E1,0,6,0,42,39,
1571355558,2019-10-17 23:39:18.806,15760,1.9856293E1,0,8,0,35,37,
1571355618,2019-10-17 23:40:18.806,15746,1.985199E1,0,13,0,48,39,
1571355678,2019-10-17 23:41:18.806,15746,2.0029144E1,0,7,0,70,38,
1571355738,2019-10-17 23:42:18.806,15746,2.0065857E1,0,9,0,47,38,
1571355798,2019-10-17 23:43:18.806,15760,1.9991333E1,0,4,0,35,34,
1571355858,2019-10-17 23:44:18.806,15760,1.98833E1,0,7,0,35,36,
1571355918,2019-10-17 23:45:18.806,15746,1.9837952E1,0,7,0,64,37,
1571355978,2019-10-17 23:46:18.806,15746,1.9949188E1,0,10,0,61,38,
1571356038,2019-10-17 23:47:18.806,15760,1.9949188E1,0,7,0,40,41,
1571356098,2019-10-17 23:48:18.806,15760,1.9925446E1,0,7,0,38,38,
1571356158,2019-10-17 23:49:18.806,15760,1.9929749E1,0,7,0,35,38,
1571356218,2019-10-17 23:50:18.806,15746,1.9988098E1,0,6,0,41,38,
1571356278,2019-10-17 23:51:18.806,15746,2.0029144E1,0,5,30,45,38,
1571356338,2019-10-17 23:52:18.806,15746,1.993515E1,0,9,0,63,38,
1571356398,2019-10-17 23:53:18.806,15760,1.9670502E1,0,6,0,35,42,
1571356458,2019-10-17 23:54:18.806,15760,2.0068024E1,0,6,0,35,37,
1571356518,2019-10-17 23:55:18.807,15746,1.9809845E1,0,7,0,65,37,
1571356578,2019-10-17 23:56:18.806,15760,1.9803375E1,0,6,0,38,36,
1571356638,2019-10-17 23:57:18.807,15746,1.9878998E1,0,9,0,60,38,
1571356698,2019-10-17 23:58:18.806,15746,1.9833618E1,0,13,0,53,38,
1571356758,2019-10-17 23:59:18.807,15760,1.9843353E1,0,9,0,36,38,
