Time(longsecs),Time(UTC),GPS Satellite Acquisition Flag 1,GPS Satellite Acquisition Flag 2,GPS Satellite Acquisition Flag 3,GPS Satellite Acquisition Flag 4,GPS Satellite Acquisition Flag 5,GPS Satellite Acquisition Flag 6,GPS Satellite Acquisition Flag 7,GPS Satellite Acquisition Flag 8,GPS Satellite Acquisition Flag 9,GPS Satellite Acquisition Flag 10,GPS Satellite Acquisition Flag 11,GPS Satellite Acquisition Flag 12,GPS Satellite Azimuth 1(Degrees),GPS Satellite Azimuth 2(Degrees),GPS Satellite Azimuth 3(Degrees),GPS Satellite Azimuth 4(Degrees),GPS Satellite Azimuth 5(Degrees),GPS Satellite Azimuth 6(Degrees),GPS Satellite Azimuth 7(Degrees),GPS Satellite Azimuth 8(Degrees),GPS Satellite Azimuth 9(Degrees),GPS Satellite Azimuth 10(Degrees),GPS Satellite Azimuth 11(Degrees),GPS Satellite Azimuth 12(Degrees),GPS Satellite Elevation 1(Degrees),GPS Satellite Elevation 2(Degrees),GPS Satellite Elevation 3(Degrees),GPS Satellite Elevation 4(Degrees),GPS Satellite Elevation 5(Degrees),GPS Satellite Elevation 6(Degrees),GPS Satellite Elevation 7(Degrees),GPS Satellite Elevation 8(Degrees),GPS Satellite Elevation 9(Degrees),GPS Satellite Elevation 10(Degrees),GPS Satellite Elevation 11(Degrees),GPS Satellite Elevation 12(Degrees),GPS Satellite PRN 1,GPS Satellite PRN 2,GPS Satellite PRN 3,GPS Satellite PRN 4,GPS Satellite PRN 5,GPS Satellite PRN 6,GPS Satellite PRN 7,GPS Satellite PRN 8,GPS Satellite PRN 9,GPS Satellite PRN 10,GPS Satellite PRN 11,GPS Satellite PRN 12,GPS Satellite Signal Level 1(AMU),GPS Satellite Signal Level 2(AMU),GPS Satellite Signal Level 3(AMU),GPS Satellite Signal Level 4(AMU),GPS Satellite Signal Level 5(AMU),GPS Satellite Signal Level 6(AMU),GPS Satellite Signal Level 7(AMU),GPS Satellite Signal Level 8(AMU),GPS Satellite Signal Level 9(AMU),GPS Satellite Signal Level 10(AMU),GPS Satellite Signal Level 11(AMU),GPS Satellite Signal Level 12(AMU),
1569934811,2019-10-01 13:00:11.767,Acquired,Acquired,Not acquired,Acquired,Acquired,Acquired,Acquired,Acquired,Acquired,Acquired,Acquired,Acquired,1.27542448E2,3.212088E1,3.04217536E2,2.02454128E2,1.56673168E2,4.2921127999999996E1,2.74056192E2,1.29626704E2,2.97276832E2,7.231246399999999E1,1.8112519999999998E2,6.1439572E1,4.691556E1,8.0572864E1,1.9245867999999998E1,2.0574502E1,3.0429398E1,1.7176658E1,4.763698E1,2.150443E1,3.9935967999999995E1,5.9985823999999994E1,5.2041224E1,1.9119979999999998E1,1,3,6,9,11,14,17,18,19,22,23,31,9,15,0,12,9,2,13,1,4,13,7,3,
1569934871,2019-10-01 13:01:11.769,Acquired,Acquired,Acquired,Acquired,Acquired,Acquired,Not acquired,Acquired,Acquired,Acquired,Acquired,Not acquired,1.3287708E2,5.579112E1,3.05847168E2,2.04154608E2,1.5776936E2,2.606356E2,1.3351515999999998E2,2.85508416E2,7.7738176E1,1.77133328E2,5.2529779999999995E1,4.1502956E1,3.8056836E1,7.274499999999999E1,2.7320114E1,2.9610386E1,2.1424637999999998E1,4.575734E1,1.3464628999999999E1,4.2712936E1,5.1755767999999996E1,6.1436471999999995E1,1.9210134E1,9.746822E0,1,3,6,9,11,17,18,19,22,23,31,14,11,14,1,15,6,15,0,6,7,15,1,0,
1569934931,2019-10-01 13:02:11.805,Acquired,Acquired,Acquired,Acquired,Acquired,Acquired,Not acquired,Acquired,Acquired,Acquired,Acquired,Not acquired,1.3287708E2,5.579112E1,3.05847168E2,2.04154608E2,1.5776936E2,2.606356E2,1.3351515999999998E2,2.85508416E2,7.7738176E1,1.77133328E2,5.2529779999999995E1,4.1502956E1,3.8056836E1,7.274499999999999E1,2.7320114E1,2.9610386E1,2.1424637999999998E1,4.575734E1,1.3464628999999999E1,4.2712936E1,5.1755767999999996E1,6.1436471999999995E1,1.9210134E1,9.746822E0,1,3,6,9,11,17,18,19,22,23,31,14,11,14,1,15,6,15,0,6,7,15,1,0,
1569934991,2019-10-01 13:03:11.767,Acquired,Acquired,Acquired,Acquired,Acquired,Acquired,Not acquired,Acquired,Acquired,Acquired,Acquired,Not acquired,1.3287708E2,5.579112E1,3.05847168E2,2.04154608E2,1.5776936E2,2.606356E2,1.3351515999999998E2,2.85508416E2,7.7738176E1,1.77133328E2,5.2529779999999995E1,4.1502956E1,3.8056836E1,7.274499999999999E1,2.7320114E1,2.9610386E1,2.1424637999999998E1,4.575734E1,1.3464628999999999E1,4.2712936E1,5.1755767999999996E1,6.1436471999999995E1,1.9210134E1,9.746822E0,1,3,6,9,11,17,18,19,22,23,31,14,11,14,1,15,6,15,0,6,7,15,1,0,
1569935051,2019-10-01 13:04:11.784,Acquired,Acquired,Acquired,Acquired,Acquired,Acquired,Not acquired,Acquired,Acquired,Acquired,Acquired,Not acquired,1.3287708E2,5.579112E1,3.05847168E2,2.04154608E2,1.5776936E2,2.606356E2,1.3351515999999998E2,2.85508416E2,7.7738176E1,1.77133328E2,5.2529779999999995E1,4.1502956E1,3.8056836E1,7.274499999999999E1,2.7320114E1,2.9610386E1,2.1424637999999998E1,4.575734E1,1.3464628999999999E1,4.2712936E1,5.1755767999999996E1,6.1436471999999995E1,1.9210134E1,9.746822E0,1,3,6,9,11,17,18,19,22,23,31,14,11,14,1,15,6,15,0,6,7,15,1,0,
1569935111,2019-10-01 13:05:11.767,Acquired,Acquired,Acquired,Acquired,Acquired,Acquired,Not acquired,Acquired,Acquired,Acquired,Acquired,Not acquired,1.3287708E2,5.579112E1,3.05847168E2,2.04154608E2,1.5776936E2,2.606356E2,1.3351515999999998E2,2.85508416E2,7.7738176E1,1.77133328E2,5.2529779999999995E1,4.1502956E1,3.8056836E1,7.274499999999999E1,2.7320114E1,2.9610386E1,2.1424637999999998E1,4.575734E1,1.3464628999999999E1,4.2712936E1,5.1755767999999996E1,6.1436471999999995E1,1.9210134E1,9.746822E0,1,3,6,9,11,17,18,19,22,23,31,14,11,14,1,15,6,15,0,6,7,15,1,0,
1569935171,2019-10-01 13:06:11.769,Acquired,Acquired,Acquired,Acquired,Acquired,Acquired,Not acquired,Acquired,Acquired,Acquired,Acquired,Not acquired,1.3287708E2,5.579112E1,3.05847168E2,2.04154608E2,1.5776936E2,2.606356E2,1.3351515999999998E2,2.85508416E2,7.7738176E1,1.77133328E2,5.2529779999999995E1,4.1502956E1,3.8056836E1,7.274499999999999E1,2.7320114E1,2.9610386E1,2.1424637999999998E1,4.575734E1,1.3464628999999999E1,4.2712936E1,5.1755767999999996E1,6.1436471999999995E1,1.9210134E1,9.746822E0,1,3,6,9,11,17,18,19,22,23,31,14,11,14,1,15,6,15,0,6,7,15,1,0,
1569935231,2019-10-01 13:07:11.769,Acquired,Acquired,Acquired,Acquired,Acquired,Acquired,Not acquired,Acquired,Acquired,Acquired,Acquired,Not acquired,1.3287708E2,5.579112E1,3.05847168E2,2.04154608E2,1.5776936E2,2.606356E2,1.3351515999999998E2,2.85508416E2,7.7738176E1,1.77133328E2,5.2529779999999995E1,4.1502956E1,3.8056836E1,7.274499999999999E1,2.7320114E1,2.9610386E1,2.1424637999999998E1,4.575734E1,1.3464628999999999E1,4.2712936E1,5.1755767999999996E1,6.1436471999999995E1,1.9210134E1,9.746822E0,1,3,6,9,11,17,18,19,22,23,31,14,11,14,1,15,6,15,0,6,7,15,1,0,
1569935291,2019-10-01 13:08:11.767,Acquired,Acquired,Acquired,Acquired,Acquired,Acquired,Not acquired,Acquired,Acquired,Acquired,Acquired,Not acquired,1.3287708E2,5.579112E1,3.05847168E2,2.04154608E2,1.5776936E2,2.606356E2,1.3351515999999998E2,2.85508416E2,7.7738176E1,1.77133328E2,5.2529779999999995E1,4.1502956E1,3.8056836E1,7.274499999999999E1,2.7320114E1,2.9610386E1,2.1424637999999998E1,4.575734E1,1.3464628999999999E1,4.2712936E1,5.1755767999999996E1,6.1436471999999995E1,1.9210134E1,9.746822E0,1,3,6,9,11,17,18,19,22,23,31,14,11,14,1,15,6,15,0,6,7,15,1,0,
1569935351,2019-10-01 13:09:11.767,Acquired,Acquired,Acquired,Acquired,Acquired,Acquired,Not acquired,Acquired,Acquired,Acquired,Acquired,Not acquired,1.3287708E2,5.579112E1,3.05847168E2,2.04154608E2,1.5776936E2,2.606356E2,1.3351515999999998E2,2.85508416E2,7.7738176E1,1.77133328E2,5.2529779999999995E1,4.1502956E1,3.8056836E1,7.274499999999999E1,2.7320114E1,2.9610386E1,2.1424637999999998E1,4.575734E1,1.3464628999999999E1,4.2712936E1,5.1755767999999996E1,6.1436471999999995E1,1.9210134E1,9.746822E0,1,3,6,9,11,17,18,19,22,23,31,14,11,14,1,15,6,15,0,6,7,15,1,0,
1569935411,2019-10-01 13:10:11.767,Acquired,Acquired,Acquired,Acquired,Acquired,Acquired,Not acquired,Acquired,Acquired,Acquired,Acquired,Not acquired,1.3287708E2,5.579112E1,3.05847168E2,2.04154608E2,1.5776936E2,2.606356E2,1.3351515999999998E2,2.85508416E2,7.7738176E1,1.77133328E2,5.2529779999999995E1,4.1502956E1,3.8056836E1,7.274499999999999E1,2.7320114E1,2.9610386E1,2.1424637999999998E1,4.575734E1,1.3464628999999999E1,4.2712936E1,5.1755767999999996E1,6.1436471999999995E1,1.9210134E1,9.746822E0,1,3,6,9,11,17,18,19,22,23,31,14,11,14,1,15,6,15,0,6,7,15,1,0,
1569935471,2019-10-01 13:11:11.767,Acquired,Acquired,Acquired,Acquired,Acquired,Acquired,Not acquired,Acquired,Acquired,Acquired,Acquired,Not acquired,1.3287708E2,5.579112E1,3.05847168E2,2.04154608E2,1.5776936E2,2.606356E2,1.3351515999999998E2,2.85508416E2,7.7738176E1,1.77133328E2,5.2529779999999995E1,4.1502956E1,3.8056836E1,7.274499999999999E1,2.7320114E1,2.9610386E1,2.1424637999999998E1,4.575734E1,1.3464628999999999E1,4.2712936E1,5.1755767999999996E1,6.1436471999999995E1,1.9210134E1,9.746822E0,1,3,6,9,11,17,18,19,22,23,31,14,11,14,1,15,6,15,0,6,7,15,1,0,
1569935531,2019-10-01 13:12:11.767,Acquired,Acquired,Acquired,Acquired,Acquired,Acquired,Not acquired,Acquired,Acquired,Acquired,Acquired,Not acquired,1.3287708E2,5.579112E1,3.05847168E2,2.04154608E2,1.5776936E2,2.606356E2,1.3351515999999998E2,2.85508416E2,7.7738176E1,1.77133328E2,5.2529779999999995E1,4.1502956E1,3.8056836E1,7.274499999999999E1,2.7320114E1,2.9610386E1,2.1424637999999998E1,4.575734E1,1.3464628999999999E1,4.2712936E1,5.1755767999999996E1,6.1436471999999995E1,1.9210134E1,9.746822E0,1,3,6,9,11,17,18,19,22,23,31,14,11,14,1,15,6,15,0,6,7,15,1,0,
1569935591,2019-10-01 13:13:11.767,Acquired,Acquired,Acquired,Acquired,Acquired,Acquired,Not acquired,Acquired,Acquired,Acquired,Acquired,Not acquired,1.3287708E2,5.579112E1,3.05847168E2,2.04154608E2,1.5776936E2,2.606356E2,1.3351515999999998E2,2.85508416E2,7.7738176E1,1.77133328E2,5.2529779999999995E1,4.1502956E1,3.8056836E1,7.274499999999999E1,2.7320114E1,2.9610386E1,2.1424637999999998E1,4.575734E1,1.3464628999999999E1,4.2712936E1,5.1755767999999996E1,6.1436471999999995E1,1.9210134E1,9.746822E0,1,3,6,9,11,17,18,19,22,23,31,14,11,14,1,15,6,15,0,6,7,15,1,0,
1569935651,2019-10-01 13:14:11.767,Acquired,Acquired,Acquired,Acquired,Acquired,Acquired,Not acquired,Acquired,Acquired,Acquired,Acquired,Not acquired,1.3287708E2,5.579112E1,3.05847168E2,2.04154608E2,1.5776936E2,2.606356E2,1.3351515999999998E2,2.85508416E2,7.7738176E1,1.77133328E2,5.2529779999999995E1,4.1502956E1,3.8056836E1,7.274499999999999E1,2.7320114E1,2.9610386E1,2.1424637999999998E1,4.575734E1,1.3464628999999999E1,4.2712936E1,5.1755767999999996E1,6.1436471999999995E1,1.9210134E1,9.746822E0,1,3,6,9,11,17,18,19,22,23,31,14,11,14,1,15,6,15,0,6,7,15,1,0,
1569935711,2019-10-01 13:15:11.767,Acquired,Acquired,Acquired,Acquired,Acquired,Acquired,Not acquired,Acquired,Acquired,Acquired,Acquired,Not acquired,1.3287708E2,5.579112E1,3.05847168E2,2.04154608E2,1.5776936E2,2.606356E2,1.3351515999999998E2,2.85508416E2,7.7738176E1,1.77133328E2,5.2529779999999995E1,4.1502956E1,3.8056836E1,7.274499999999999E1,2.7320114E1,2.9610386E1,2.1424637999999998E1,4.575734E1,1.3464628999999999E1,4.2712936E1,5.1755767999999996E1,6.1436471999999995E1,1.9210134E1,9.746822E0,1,3,6,9,11,17,18,19,22,23,31,14,11,14,1,15,6,15,0,6,7,15,1,0,
1569935771,2019-10-01 13:16:11.767,Acquired,Acquired,Acquired,Acquired,Acquired,Acquired,Not acquired,Acquired,Acquired,Acquired,Acquired,Not acquired,1.3287708E2,5.579112E1,3.05847168E2,2.04154608E2,1.5776936E2,2.606356E2,1.3351515999999998E2,2.85508416E2,7.7738176E1,1.77133328E2,5.2529779999999995E1,4.1502956E1,3.8056836E1,7.274499999999999E1,2.7320114E1,2.9610386E1,2.1424637999999998E1,4.575734E1,1.3464628999999999E1,4.2712936E1,5.1755767999999996E1,6.1436471999999995E1,1.9210134E1,9.746822E0,1,3,6,9,11,17,18,19,22,23,31,14,11,14,1,15,6,15,0,6,7,15,1,0,
1569935831,2019-10-01 13:17:11.767,Acquired,Acquired,Acquired,Acquired,Acquired,Acquired,Not acquired,Acquired,Acquired,Acquired,Acquired,Not acquired,1.3287708E2,5.579112E1,3.05847168E2,2.04154608E2,1.5776936E2,2.606356E2,1.3351515999999998E2,2.85508416E2,7.7738176E1,1.77133328E2,5.2529779999999995E1,4.1502956E1,3.8056836E1,7.274499999999999E1,2.7320114E1,2.9610386E1,2.1424637999999998E1,4.575734E1,1.3464628999999999E1,4.2712936E1,5.1755767999999996E1,6.1436471999999995E1,1.9210134E1,9.746822E0,1,3,6,9,11,17,18,19,22,23,31,14,11,14,1,15,6,15,0,6,7,15,1,0,
1569935891,2019-10-01 13:18:11.767,Acquired,Acquired,Acquired,Acquired,Acquired,Acquired,Not acquired,Acquired,Acquired,Acquired,Acquired,Not acquired,1.3287708E2,5.579112E1,3.05847168E2,2.04154608E2,1.5776936E2,2.606356E2,1.3351515999999998E2,2.85508416E2,7.7738176E1,1.77133328E2,5.2529779999999995E1,4.1502956E1,3.8056836E1,7.274499999999999E1,2.7320114E1,2.9610386E1,2.1424637999999998E1,4.575734E1,1.3464628999999999E1,4.2712936E1,5.1755767999999996E1,6.1436471999999995E1,1.9210134E1,9.746822E0,1,3,6,9,11,17,18,19,22,23,31,14,11,14,1,15,6,15,0,6,7,15,1,0,
1569935951,2019-10-01 13:19:11.767,Acquired,Acquired,Acquired,Acquired,Acquired,Acquired,Not acquired,Acquired,Acquired,Acquired,Acquired,Not acquired,1.3287708E2,5.579112E1,3.05847168E2,2.04154608E2,1.5776936E2,2.606356E2,1.3351515999999998E2,2.85508416E2,7.7738176E1,1.77133328E2,5.2529779999999995E1,4.1502956E1,3.8056836E1,7.274499999999999E1,2.7320114E1,2.9610386E1,2.1424637999999998E1,4.575734E1,1.3464628999999999E1,4.2712936E1,5.1755767999999996E1,6.1436471999999995E1,1.9210134E1,9.746822E0,1,3,6,9,11,17,18,19,22,23,31,14,11,14,1,15,6,15,0,6,7,15,1,0,
1569936011,2019-10-01 13:20:11.767,Acquired,Acquired,Acquired,Acquired,Acquired,Acquired,Not acquired,Acquired,Acquired,Acquired,Acquired,Not acquired,1.33123896E2,5.6545908E1,3.0589446399999997E2,2.04251296E2,1.57818288E2,2.5998956799999996E2,1.33697168E2,2.8486470399999996E2,7.8011392E1,1.76824816E2,5.2086164E1,4.1466792E1,3.7610788E1,7.2327736E1,2.7736812E1,3.0077612E1,2.0978441999999998E1,4.5587964E1,1.3062477999999999E1,4.2781487999999996E1,5.1344727999999996E1,6.1903772E1,1.9165746E1,9.366862E0,1,3,6,9,11,17,18,19,22,23,31,14,9,14,2,15,8,15,2,9,3,15,2,2,
1569936071,2019-10-01 13:21:11.767,Acquired,Acquired,Acquired,Acquired,Acquired,Acquired,Acquired,Acquired,Acquired,Acquired,Not acquired,,1.373764E2,6.769982399999999E1,3.06151552E2,2.06218688E2,2.4893599999999998E2,2.725616E2,8.3088152E1,1.67436784E2,4.4115843999999996E1,1.58571168E2,1.36825136E2,,2.9345361999999998E1,6.4460308E1,3.5654696E1,3.89615E1,4.1317288E1,4.2681452E1,4.37661E1,7.023113599999999E1,1.7482936E1,1.2833397999999999E1,5.646819E0,,1,3,6,9,17,19,22,23,31,11,18,,3,10,4,16,14,6,4,14,2,2,0,,
1569936131,2019-10-01 13:22:11.769,Acquired,Acquired,Acquired,Acquired,Acquired,Acquired,Acquired,Acquired,Acquired,Acquired,Not acquired,,1.373764E2,6.769982399999999E1,3.06151552E2,2.06218688E2,2.4893599999999998E2,2.725616E2,8.3088152E1,1.67436784E2,4.4115843999999996E1,1.58571168E2,1.36825136E2,,2.9345361999999998E1,6.4460308E1,3.5654696E1,3.89615E1,4.1317288E1,4.2681452E1,4.37661E1,7.023113599999999E1,1.7482936E1,1.2833397999999999E1,5.646819E0,,1,3,6,9,17,19,22,23,31,11,18,,3,10,4,16,14,6,4,14,2,2,0,,
1569936191,2019-10-01 13:23:11.767,Acquired,Acquired,Acquired,Acquired,Acquired,Acquired,Acquired,Acquired,Acquired,Acquired,Not acquired,,1.373764E2,6.769982399999999E1,3.06151552E2,2.06218688E2,2.4893599999999998E2,2.725616E2,8.3088152E1,1.67436784E2,4.4115843999999996E1,1.58571168E2,1.36825136E2,,2.9345361999999998E1,6.4460308E1,3.5654696E1,3.89615E1,4.1317288E1,4.2681452E1,4.37661E1,7.023113599999999E1,1.7482936E1,1.2833397999999999E1,5.646819E0,,1,3,6,9,17,19,22,23,31,11,18,,3,10,4,16,14,6,4,14,2,2,0,,
1569936251,2019-10-01 13:24:11.767,Acquired,Acquired,Acquired,Acquired,Acquired,Acquired,Acquired,Acquired,Acquired,Acquired,Not acquired,,1.373764E2,6.769982399999999E1,3.06151552E2,2.06218688E2,2.4893599999999998E2,2.725616E2,8.3088152E1,1.67436784E2,4.4115843999999996E1,1.58571168E2,1.36825136E2,,2.9345361999999998E1,6.4460308E1,3.5654696E1,3.89615E1,4.1317288E1,4.2681452E1,4.37661E1,7.023113599999999E1,1.7482936E1,1.2833397999999999E1,5.646819E0,,1,3,6,9,17,19,22,23,31,11,18,,3,10,4,16,14,6,4,14,2,2,0,,
1569936311,2019-10-01 13:25:11.767,Acquired,Acquired,Acquired,Acquired,Acquired,Acquired,Acquired,Acquired,Acquired,Acquired,Not acquired,,1.373764E2,6.769982399999999E1,3.06151552E2,2.06218688E2,2.4893599999999998E2,2.725616E2,8.3088152E1,1.67436784E2,4.4115843999999996E1,1.58571168E2,1.36825136E2,,2.9345361999999998E1,6.4460308E1,3.5654696E1,3.89615E1,4.1317288E1,4.2681452E1,4.37661E1,7.023113599999999E1,1.7482936E1,1.2833397999999999E1,5.646819E0,,1,3,6,9,17,19,22,23,31,11,18,,3,10,4,16,14,6,4,14,2,2,0,,
1569936371,2019-10-01 13:26:11.767,Acquired,Acquired,Acquired,Acquired,Acquired,Acquired,Acquired,Acquired,Acquired,Acquired,Not acquired,,1.373764E2,6.769982399999999E1,3.06151552E2,2.06218688E2,2.4893599999999998E2,2.725616E2,8.3088152E1,1.67436784E2,4.4115843999999996E1,1.58571168E2,1.36825136E2,,2.9345361999999998E1,6.4460308E1,3.5654696E1,3.89615E1,4.1317288E1,4.2681452E1,4.37661E1,7.023113599999999E1,1.7482936E1,1.2833397999999999E1,5.646819E0,,1,3,6,9,17,19,22,23,31,11,18,,3,10,4,16,14,6,4,14,2,2,0,,
1569936431,2019-10-01 13:27:11.767,Acquired,Acquired,Acquired,Acquired,Acquired,Acquired,Acquired,Acquired,Acquired,Acquired,Not acquired,,1.373764E2,6.769982399999999E1,3.06151552E2,2.06218688E2,2.4893599999999998E2,2.725616E2,8.3088152E1,1.67436784E2,4.4115843999999996E1,1.58571168E2,1.36825136E2,,2.9345361999999998E1,6.4460308E1,3.5654696E1,3.89615E1,4.1317288E1,4.2681452E1,4.37661E1,7.023113599999999E1,1.7482936E1,1.2833397999999999E1,5.646819E0,,1,3,6,9,17,19,22,23,31,11,18,,3,10,4,16,14,6,4,14,2,2,0,,
1569936491,2019-10-01 13:28:11.767,Acquired,Acquired,Acquired,Acquired,Acquired,Acquired,Acquired,Acquired,Acquired,Acquired,Not acquired,,1.373764E2,6.769982399999999E1,3.06151552E2,2.06218688E2,2.4893599999999998E2,2.725616E2,8.3088152E1,1.67436784E2,4.4115843999999996E1,1.58571168E2,1.36825136E2,,2.9345361999999998E1,6.4460308E1,3.5654696E1,3.89615E1,4.1317288E1,4.2681452E1,4.37661E1,7.023113599999999E1,1.7482936E1,1.2833397999999999E1,5.646819E0,,1,3,6,9,17,19,22,23,31,11,18,,3,10,4,16,14,6,4,14,2,2,0,,
1569936551,2019-10-01 13:29:11.799,Acquired,Acquired,Acquired,Acquired,Acquired,Acquired,Acquired,Acquired,Acquired,Acquired,Not acquired,,1.373764E2,6.769982399999999E1,3.06151552E2,2.06218688E2,2.4893599999999998E2,2.725616E2,8.3088152E1,1.67436784E2,4.4115843999999996E1,1.58571168E2,1.36825136E2,,2.9345361999999998E1,6.4460308E1,3.5654696E1,3.89615E1,4.1317288E1,4.2681452E1,4.37661E1,7.023113599999999E1,1.7482936E1,1.2833397999999999E1,5.646819E0,,1,3,6,9,17,19,22,23,31,11,18,,3,10,4,16,14,6,4,14,2,2,0,,
1569936611,2019-10-01 13:30:11.767,Acquired,Acquired,Acquired,Acquired,Acquired,Acquired,Acquired,Acquired,Acquired,Acquired,Not acquired,,1.373764E2,6.769982399999999E1,3.06151552E2,2.06218688E2,2.4893599999999998E2,2.725616E2,8.3088152E1,1.67436784E2,4.4115843999999996E1,1.58571168E2,1.36825136E2,,2.9345361999999998E1,6.4460308E1,3.5654696E1,3.89615E1,4.1317288E1,4.2681452E1,4.37661E1,7.023113599999999E1,1.7482936E1,1.2833397999999999E1,5.646819E0,,1,3,6,9,17,19,22,23,31,11,18,,3,10,4,16,14,6,4,14,2,2,0,,
1569936671,2019-10-01 13:31:11.767,Acquired,Acquired,Acquired,Acquired,Acquired,Acquired,Acquired,Acquired,Acquired,Acquired,Not acquired,,1.373764E2,6.769982399999999E1,3.06151552E2,2.06218688E2,2.4893599999999998E2,2.725616E2,8.3088152E1,1.67436784E2,4.4115843999999996E1,1.58571168E2,1.36825136E2,,2.9345361999999998E1,6.4460308E1,3.5654696E1,3.89615E1,4.1317288E1,4.2681452E1,4.37661E1,7.023113599999999E1,1.7482936E1,1.2833397999999999E1,5.646819E0,,1,3,6,9,17,19,22,23,31,11,18,,3,10,4,16,14,6,4,14,2,2,0,,
1569936731,2019-10-01 13:32:11.767,Acquired,Acquired,Acquired,Acquired,Acquired,Acquired,Acquired,Acquired,Acquired,Acquired,Not acquired,,1.373764E2,6.769982399999999E1,3.06151552E2,2.06218688E2,2.4893599999999998E2,2.725616E2,8.3088152E1,1.67436784E2,4.4115843999999996E1,1.58571168E2,1.36825136E2,,2.9345361999999998E1,6.4460308E1,3.5654696E1,3.89615E1,4.1317288E1,4.2681452E1,4.37661E1,7.023113599999999E1,1.7482936E1,1.2833397999999999E1,5.646819E0,,1,3,6,9,17,19,22,23,31,11,18,,3,10,4,16,14,6,4,14,2,2,0,,
1569936791,2019-10-01 13:33:11.767,Acquired,Acquired,Acquired,Acquired,Acquired,Acquired,Acquired,Acquired,Acquired,Acquired,Not acquired,,1.373764E2,6.769982399999999E1,3.06151552E2,2.06218688E2,2.4893599999999998E2,2.725616E2,8.3088152E1,1.67436784E2,4.4115843999999996E1,1.58571168E2,1.36825136E2,,2.9345361999999998E1,6.4460308E1,3.5654696E1,3.89615E1,4.1317288E1,4.2681452E1,4.37661E1,7.023113599999999E1,1.7482936E1,1.2833397999999999E1,5.646819E0,,1,3,6,9,17,19,22,23,31,11,18,,3,10,4,16,14,6,4,14,2,2,0,,
1569936851,2019-10-01 13:34:11.767,Acquired,Acquired,Acquired,Acquired,Acquired,Acquired,Acquired,Acquired,Acquired,Acquired,Not acquired,,1.373764E2,6.769982399999999E1,3.06151552E2,2.06218688E2,2.4893599999999998E2,2.725616E2,8.3088152E1,1.67436784E2,4.4115843999999996E1,1.58571168E2,1.36825136E2,,2.9345361999999998E1,6.4460308E1,3.5654696E1,3.89615E1,4.1317288E1,4.2681452E1,4.37661E1,7.023113599999999E1,1.7482936E1,1.2833397999999999E1,5.646819E0,,1,3,6,9,17,19,22,23,31,11,18,,3,10,4,16,14,6,4,14,2,2,0,,
1569936911,2019-10-01 13:35:11.767,Acquired,Acquired,Acquired,Acquired,Acquired,Acquired,Acquired,Acquired,Acquired,Acquired,Not acquired,,1.373764E2,6.769982399999999E1,3.06151552E2,2.06218688E2,2.4893599999999998E2,2.725616E2,8.3088152E1,1.67436784E2,4.4115843999999996E1,1.58571168E2,1.36825136E2,,2.9345361999999998E1,6.4460308E1,3.5654696E1,3.89615E1,4.1317288E1,4.2681452E1,4.37661E1,7.023113599999999E1,1.7482936E1,1.2833397999999999E1,5.646819E0,,1,3,6,9,17,19,22,23,31,11,18,,3,10,4,16,14,6,4,14,2,2,0,,
1569936971,2019-10-01 13:36:11.767,Acquired,Acquired,Acquired,Acquired,Acquired,Acquired,Acquired,Acquired,Acquired,Acquired,Not acquired,,1.373764E2,6.769982399999999E1,3.06151552E2,2.06218688E2,2.4893599999999998E2,2.725616E2,8.3088152E1,1.67436784E2,4.4115843999999996E1,1.58571168E2,1.36825136E2,,2.9345361999999998E1,6.4460308E1,3.5654696E1,3.89615E1,4.1317288E1,4.2681452E1,4.37661E1,7.023113599999999E1,1.7482936E1,1.2833397999999999E1,5.646819E0,,1,3,6,9,17,19,22,23,31,11,18,,3,10,4,16,14,6,4,14,2,2,0,,
1569937031,2019-10-01 13:37:11.767,Acquired,Acquired,Acquired,Acquired,Acquired,Acquired,Acquired,Acquired,Acquired,Acquired,Not acquired,,1.373764E2,6.769982399999999E1,3.06151552E2,2.06218688E2,2.4893599999999998E2,2.725616E2,8.3088152E1,1.67436784E2,4.4115843999999996E1,1.58571168E2,1.36825136E2,,2.9345361999999998E1,6.4460308E1,3.5654696E1,3.89615E1,4.1317288E1,4.2681452E1,4.37661E1,7.023113599999999E1,1.7482936E1,1.2833397999999999E1,5.646819E0,,1,3,6,9,17,19,22,23,31,11,18,,3,10,4,16,14,6,4,14,2,2,0,,
1569937091,2019-10-01 13:38:11.767,Acquired,Acquired,Acquired,Acquired,Acquired,Acquired,Acquired,Acquired,Acquired,Acquired,Not acquired,,1.373764E2,6.769982399999999E1,3.06151552E2,2.06218688E2,2.4893599999999998E2,2.725616E2,8.3088152E1,1.67436784E2,4.4115843999999996E1,1.58571168E2,1.36825136E2,,2.9345361999999998E1,6.4460308E1,3.5654696E1,3.89615E1,4.1317288E1,4.2681452E1,4.37661E1,7.023113599999999E1,1.7482936E1,1.2833397999999999E1,5.646819E0,,1,3,6,9,17,19,22,23,31,11,18,,3,10,4,16,14,6,4,14,2,2,0,,
1569937151,2019-10-01 13:39:11.767,Acquired,Acquired,Acquired,Acquired,Acquired,Acquired,Acquired,Acquired,Acquired,Acquired,Not acquired,,1.373764E2,6.769982399999999E1,3.06151552E2,2.06218688E2,2.4893599999999998E2,2.725616E2,8.3088152E1,1.67436784E2,4.4115843999999996E1,1.58571168E2,1.36825136E2,,2.9345361999999998E1,6.4460308E1,3.5654696E1,3.89615E1,4.1317288E1,4.2681452E1,4.37661E1,7.023113599999999E1,1.7482936E1,1.2833397999999999E1,5.646819E0,,1,3,6,9,17,19,22,23,31,11,18,,3,10,4,16,14,6,4,14,2,2,0,,
1569937211,2019-10-01 13:40:11.767,Acquired,Acquired,Acquired,Acquired,Acquired,Acquired,Acquired,Acquired,Acquired,Acquired,Not acquired,,1.373764E2,6.769982399999999E1,3.06151552E2,2.06218688E2,2.4893599999999998E2,2.725616E2,8.3088152E1,1.67436784E2,4.4115843999999996E1,1.58571168E2,1.36825136E2,,2.9345361999999998E1,6.4460308E1,3.5654696E1,3.89615E1,4.1317288E1,4.2681452E1,4.37661E1,7.023113599999999E1,1.7482936E1,1.2833397999999999E1,5.646819E0,,1,3,6,9,17,19,22,23,31,11,18,,3,10,4,16,14,6,4,14,2,2,0,,
1569937271,2019-10-01 13:41:11.767,Acquired,Acquired,Acquired,Acquired,Acquired,Acquired,Acquired,Acquired,Acquired,Acquired,Not acquired,,1.373764E2,6.769982399999999E1,3.06151552E2,2.06218688E2,2.4893599999999998E2,2.725616E2,8.3088152E1,1.67436784E2,4.4115843999999996E1,1.58571168E2,1.36825136E2,,2.9345361999999998E1,6.4460308E1,3.5654696E1,3.89615E1,4.1317288E1,4.2681452E1,4.37661E1,7.023113599999999E1,1.7482936E1,1.2833397999999999E1,5.646819E0,,1,3,6,9,17,19,22,23,31,11,18,,3,10,4,16,14,6,4,14,2,2,0,,
1569937331,2019-10-01 13:42:11.767,Acquired,Acquired,Acquired,Acquired,Acquired,Acquired,Acquired,Acquired,Acquired,Acquired,Not acquired,,1.373764E2,6.769982399999999E1,3.06151552E2,2.06218688E2,2.4893599999999998E2,2.725616E2,8.3088152E1,1.67436784E2,4.4115843999999996E1,1.58571168E2,1.36825136E2,,2.9345361999999998E1,6.4460308E1,3.5654696E1,3.89615E1,4.1317288E1,4.2681452E1,4.37661E1,7.023113599999999E1,1.7482936E1,1.2833397999999999E1,5.646819E0,,1,3,6,9,17,19,22,23,31,11,18,,3,10,4,16,14,6,4,14,2,2,0,,
1569937391,2019-10-01 13:43:11.767,Acquired,Acquired,Acquired,Acquired,Acquired,Acquired,Acquired,Acquired,Acquired,Acquired,Not acquired,,1.373764E2,6.769982399999999E1,3.06151552E2,2.06218688E2,2.4893599999999998E2,2.725616E2,8.3088152E1,1.67436784E2,4.4115843999999996E1,1.58571168E2,1.36825136E2,,2.9345361999999998E1,6.4460308E1,3.5654696E1,3.89615E1,4.1317288E1,4.2681452E1,4.37661E1,7.023113599999999E1,1.7482936E1,1.2833397999999999E1,5.646819E0,,1,3,6,9,17,19,22,23,31,11,18,,3,10,4,16,14,6,4,14,2,2,0,,
1569937451,2019-10-01 13:44:11.767,Acquired,Acquired,Acquired,Acquired,Acquired,Acquired,Acquired,Acquired,Acquired,Acquired,Not acquired,,1.373764E2,6.769982399999999E1,3.06151552E2,2.06218688E2,2.4893599999999998E2,2.725616E2,8.3088152E1,1.67436784E2,4.4115843999999996E1,1.58571168E2,1.36825136E2,,2.9345361999999998E1,6.4460308E1,3.5654696E1,3.89615E1,4.1317288E1,4.2681452E1,4.37661E1,7.023113599999999E1,1.7482936E1,1.2833397999999999E1,5.646819E0,,1,3,6,9,17,19,22,23,31,11,18,,3,10,4,16,14,6,4,14,2,2,0,,
1569937511,2019-10-01 13:45:11.767,Acquired,Acquired,Acquired,Acquired,Acquired,Acquired,Acquired,Acquired,Acquired,Acquired,Not acquired,,1.373764E2,6.769982399999999E1,3.06151552E2,2.06218688E2,2.4893599999999998E2,2.725616E2,8.3088152E1,1.67436784E2,4.4115843999999996E1,1.58571168E2,1.36825136E2,,2.9345361999999998E1,6.4460308E1,3.5654696E1,3.89615E1,4.1317288E1,4.2681452E1,4.37661E1,7.023113599999999E1,1.7482936E1,1.2833397999999999E1,5.646819E0,,1,3,6,9,17,19,22,23,31,11,18,,3,10,4,16,14,6,4,14,2,2,0,,
1569937571,2019-10-01 13:46:11.767,Acquired,Acquired,Acquired,Acquired,Acquired,Acquired,Acquired,Acquired,Acquired,Acquired,Not acquired,,1.373764E2,6.769982399999999E1,3.06151552E2,2.06218688E2,2.4893599999999998E2,2.725616E2,8.3088152E1,1.67436784E2,4.4115843999999996E1,1.58571168E2,1.36825136E2,,2.9345361999999998E1,6.4460308E1,3.5654696E1,3.89615E1,4.1317288E1,4.2681452E1,4.37661E1,7.023113599999999E1,1.7482936E1,1.2833397999999999E1,5.646819E0,,1,3,6,9,17,19,22,23,31,11,18,,3,10,4,16,14,6,4,14,2,2,0,,
1569937631,2019-10-01 13:47:11.767,Acquired,Acquired,Acquired,Acquired,Acquired,Acquired,Acquired,Acquired,Acquired,Acquired,Not acquired,,1.373764E2,6.769982399999999E1,3.06151552E2,2.06218688E2,2.4893599999999998E2,2.725616E2,8.3088152E1,1.67436784E2,4.4115843999999996E1,1.58571168E2,1.36825136E2,,2.9345361999999998E1,6.4460308E1,3.5654696E1,3.89615E1,4.1317288E1,4.2681452E1,4.37661E1,7.023113599999999E1,1.7482936E1,1.2833397999999999E1,5.646819E0,,1,3,6,9,17,19,22,23,31,11,18,,3,10,4,16,14,6,4,14,2,2,0,,
1569937691,2019-10-01 13:48:11.767,Acquired,Acquired,Acquired,Acquired,Acquired,Acquired,Acquired,Acquired,Acquired,Acquired,Not acquired,,1.373764E2,6.769982399999999E1,3.06151552E2,2.06218688E2,2.4893599999999998E2,2.725616E2,8.3088152E1,1.67436784E2,4.4115843999999996E1,1.58571168E2,1.36825136E2,,2.9345361999999998E1,6.4460308E1,3.5654696E1,3.89615E1,4.1317288E1,4.2681452E1,4.37661E1,7.023113599999999E1,1.7482936E1,1.2833397999999999E1,5.646819E0,,1,3,6,9,17,19,22,23,31,11,18,,3,10,4,16,14,6,4,14,2,2,0,,
1569937751,2019-10-01 13:49:11.767,Acquired,Acquired,Acquired,Acquired,Acquired,Acquired,Acquired,Acquired,Acquired,Acquired,Not acquired,,1.373764E2,6.769982399999999E1,3.06151552E2,2.06218688E2,2.4893599999999998E2,2.725616E2,8.3088152E1,1.67436784E2,4.4115843999999996E1,1.58571168E2,1.36825136E2,,2.9345361999999998E1,6.4460308E1,3.5654696E1,3.89615E1,4.1317288E1,4.2681452E1,4.37661E1,7.023113599999999E1,1.7482936E1,1.2833397999999999E1,5.646819E0,,1,3,6,9,17,19,22,23,31,11,18,,3,10,4,16,14,6,4,14,2,2,0,,
1569937811,2019-10-01 13:50:11.767,Acquired,Acquired,Acquired,Acquired,Acquired,Acquired,Acquired,Acquired,Acquired,Acquired,Not acquired,,1.373764E2,6.769982399999999E1,3.06151552E2,2.06218688E2,2.4893599999999998E2,2.725616E2,8.3088152E1,1.67436784E2,4.4115843999999996E1,1.58571168E2,1.36825136E2,,2.9345361999999998E1,6.4460308E1,3.5654696E1,3.89615E1,4.1317288E1,4.2681452E1,4.37661E1,7.023113599999999E1,1.7482936E1,1.2833397999999999E1,5.646819E0,,1,3,6,9,17,19,22,23,31,11,18,,3,10,4,16,14,6,4,14,2,2,0,,
1569937871,2019-10-01 13:51:11.767,Acquired,Acquired,Acquired,Acquired,Acquired,Acquired,Acquired,Acquired,Acquired,Acquired,Not acquired,,1.373764E2,6.769982399999999E1,3.06151552E2,2.06218688E2,2.4893599999999998E2,2.725616E2,8.3088152E1,1.67436784E2,4.4115843999999996E1,1.58571168E2,1.36825136E2,,2.9345361999999998E1,6.4460308E1,3.5654696E1,3.89615E1,4.1317288E1,4.2681452E1,4.37661E1,7.023113599999999E1,1.7482936E1,1.2833397999999999E1,5.646819E0,,1,3,6,9,17,19,22,23,31,11,18,,3,10,4,16,14,6,4,14,2,2,0,,
1569937931,2019-10-01 13:52:11.767,Acquired,Acquired,Acquired,Acquired,Acquired,Acquired,Acquired,Acquired,Acquired,Acquired,Not acquired,,1.373764E2,6.769982399999999E1,3.06151552E2,2.06218688E2,2.4893599999999998E2,2.725616E2,8.3088152E1,1.67436784E2,4.4115843999999996E1,1.58571168E2,1.36825136E2,,2.9345361999999998E1,6.4460308E1,3.5654696E1,3.89615E1,4.1317288E1,4.2681452E1,4.37661E1,7.023113599999999E1,1.7482936E1,1.2833397999999999E1,5.646819E0,,1,3,6,9,17,19,22,23,31,11,18,,3,10,4,16,14,6,4,14,2,2,0,,
1569937991,2019-10-01 13:53:11.767,Acquired,Acquired,Acquired,,Acquired,Acquired,Acquired,Acquired,Not acquired,Acquired,Not acquired,,1.3758163199999998E2,6.8182216E1,3.0612239999999997E2,,2.48414832E2,2.7191939199999996E2,8.3352896E1,1.66674432E2,4.371942E1,1.58601248E2,1.36974592E2,,2.89162E1,6.4047476E1,3.6074408E1,,4.1042623999999996E1,4.2604271999999995E1,4.3374275999999995E1,7.063399199999999E1,1.735176E1,1.2416822999999999E1,5.263476E0,,1,3,6,,17,19,22,23,31,11,18,,5,13,6,,15,3,7,13,1,2,0,,
1569938051,2019-10-01 13:54:11.767,Not acquired,Not acquired,Not acquired,Not acquired,Not acquired,Not acquired,Not acquired,Not acquired,Not acquired,Not acquired,,,1.43309424E2,8.1225912E1,3.018488E2,2.1012959999999998E2,2.34658448E2,2.5323844799999998E2,9.1740616E1,1.1503383199999999E2,0.0E0,0.0E0,,,1.5413568999999999E1,5.0951332E1,4.9474224E1,5.4921403999999995E1,3.0458754E1,3.683372E1,3.1069758E1,7.803527199999999E1,9.079856999999999E0,1.1190832E1,,,1,3,6,9,17,19,22,23,2,31,,,0,0,0,0,0,0,0,0,0,0,,,
1569938111,2019-10-01 13:55:11.792,Acquired,Acquired,Acquired,Acquired,Acquired,Acquired,Acquired,Acquired,,Not acquired,,,1.434692E2,8.1599936E1,3.01566336E2,2.10256496E2,2.3429502399999998E2,2.5271416E2,9.2008888E1,1.12727768E2,,3.2241068E1,,,1.498195E1,5.0530359999999995E1,4.9898548E1,5.5434172E1,3.0073701999999997E1,3.6556447999999996E1,3.0678082E1,7.7981E1,,1.0927565999999999E1,,,1,3,6,9,17,19,22,23,,31,,,3,2,9,15,15,13,2,13,,1,,,
1569938171,2019-10-01 13:56:11.780,Acquired,Acquired,Acquired,Acquired,Acquired,Acquired,Acquired,Acquired,,Not acquired,,,1.434692E2,8.1599936E1,3.01566336E2,2.10256496E2,2.3429502399999998E2,2.5271416E2,9.2008888E1,1.12727768E2,,3.2241068E1,,,1.498195E1,5.0530359999999995E1,4.9898548E1,5.5434172E1,3.0073701999999997E1,3.6556447999999996E1,3.0678082E1,7.7981E1,,1.0927565999999999E1,,,1,3,6,9,17,19,22,23,,31,,,3,2,9,15,15,13,2,13,,1,,,
1569938231,2019-10-01 13:57:11.767,Acquired,Acquired,Acquired,Acquired,Acquired,Acquired,Acquired,Acquired,,Not acquired,,,1.434692E2,8.1599936E1,3.01566336E2,2.10256496E2,2.3429502399999998E2,2.5271416E2,9.2008888E1,1.12727768E2,,3.2241068E1,,,1.498195E1,5.0530359999999995E1,4.9898548E1,5.5434172E1,3.0073701999999997E1,3.6556447999999996E1,3.0678082E1,7.7981E1,,1.0927565999999999E1,,,1,3,6,9,17,19,22,23,,31,,,3,2,9,15,15,13,2,13,,1,,,
1569938291,2019-10-01 13:58:11.767,Acquired,Acquired,Acquired,Acquired,Acquired,Acquired,Acquired,Acquired,,Not acquired,,,1.434692E2,8.1599936E1,3.01566336E2,2.10256496E2,2.3429502399999998E2,2.5271416E2,9.2008888E1,1.12727768E2,,3.2241068E1,,,1.498195E1,5.0530359999999995E1,4.9898548E1,5.5434172E1,3.0073701999999997E1,3.6556447999999996E1,3.0678082E1,7.7981E1,,1.0927565999999999E1,,,1,3,6,9,17,19,22,23,,31,,,3,2,9,15,15,13,2,13,,1,,,
1569938351,2019-10-01 13:59:11.767,Acquired,Acquired,Acquired,Acquired,Acquired,Acquired,Acquired,Acquired,,Not acquired,,,1.434692E2,8.1599936E1,3.01566336E2,2.10256496E2,2.3429502399999998E2,2.5271416E2,9.2008888E1,1.12727768E2,,3.2241068E1,,,1.498195E1,5.0530359999999995E1,4.9898548E1,5.5434172E1,3.0073701999999997E1,3.6556447999999996E1,3.0678082E1,7.7981E1,,1.0927565999999999E1,,,1,3,6,9,17,19,22,23,,31,,,3,2,9,15,15,13,2,13,,1,,,
