Time(longsecs),Time(UTC),Earth Location,GPS Receiver Status,GPS Satellites Used,GPS PDOP,GPS TDOP,Timing Status,Timing Phase Lock,Timing Uncertainty(ns),DAC Count,Timing Error(ns),GPS Last Update Time,
1569963611,2019-10-01 21:00:11.773,47.65109N 0.578029E 193m,Off,5,3.0842612,1.8297635,Time OK,Free running,5800,8657,0,2019-10-01 20:55:35.000000000,
1569963671,2019-10-01 21:01:11.767,47.65109N 0.578029E 193m,Off,5,3.0842612,1.8297635,Time OK,Free running,7000,8657,0,2019-10-01 20:55:35.000000000,
1569963731,2019-10-01 21:02:11.767,47.65109N 0.578029E 193m,Off,5,3.0842612,1.8297635,Time OK,Free running,8300,8657,0,2019-10-01 20:55:35.000000000,
1569963791,2019-10-01 21:03:11.767,47.65109N 0.578029E 193m,Off,5,3.0842612,1.8297635,Time OK,Free running,9900,8657,0,2019-10-01 20:55:35.000000000,
1569963851,2019-10-01 21:04:11.805,47.65109N 0.578029E 193m,Off,5,3.0842612,1.8297635,Time OK,Free running,11200,8657,0,2019-10-01 20:55:35.000000000,
1569963911,2019-10-01 21:05:11.767,47.65109N 0.578029E 193m,Off,5,3.0842612,1.8297635,Time OK,Free running,12600,8657,0,2019-10-01 20:55:35.000000000,
1569963971,2019-10-01 21:06:11.767,47.65109N 0.578029E 193m,Off,5,3.0842612,1.8297635,Time OK,Free running,13900,8657,0,2019-10-01 20:55:35.000000000,
1569964031,2019-10-01 21:07:11.767,47.65109N 0.578029E 193m,Off,5,3.0842612,1.8297635,Time OK,Free running,14900,8657,0,2019-10-01 20:55:35.000000000,
1569964091,2019-10-01 21:08:11.767,47.65109N 0.578029E 193m,Off,5,3.0842612,1.8297635,Time OK,Free running,16200,8657,0,2019-10-01 20:55:35.000000000,
1569964151,2019-10-01 21:09:11.799,47.65109N 0.578029E 193m,Off,5,3.0842612,1.8297635,Time OK,Free running,17900,8657,0,2019-10-01 20:55:35.000000000,
1569964211,2019-10-01 21:10:11.767,47.65109N 0.578029E 193m,Off,5,3.0842612,1.8297635,Time OK,Free running,19300,8657,0,2019-10-01 20:55:35.000000000,
1569964271,2019-10-01 21:11:11.767,47.65109N 0.578029E 193m,Off,5,3.0842612,1.8297635,Time OK,Free running,20900,8657,0,2019-10-01 20:55:35.000000000,
1569964331,2019-10-01 21:12:11.767,47.65109N 0.578029E 193m,Off,5,3.0842612,1.8297635,Time OK,Free running,22600,8657,0,2019-10-01 20:55:35.000000000,
1569964391,2019-10-01 21:13:11.777,47.65109N 0.578029E 193m,Off,5,3.0842612,1.8297635,Time OK,Free running,24000,8657,0,2019-10-01 20:55:35.000000000,
1569964451,2019-10-01 21:14:11.767,47.65109N 0.578029E 193m,Off,5,3.0842612,1.8297635,Time OK,Free running,25700,8657,0,2019-10-01 20:55:35.000000000,
1569964511,2019-10-01 21:15:11.767,47.65109N 0.578029E 193m,Off,5,3.0842612,1.8297635,Time OK,Free running,27500,8657,0,2019-10-01 20:55:35.000000000,
1569964571,2019-10-01 21:16:11.767,47.65109N 0.578029E 193m,Off,5,3.0842612,1.8297635,Time OK,Free running,29200,8657,0,2019-10-01 20:55:35.000000000,
1569964631,2019-10-01 21:17:11.796,47.65109N 0.578029E 193m,Off,5,3.0842612,1.8297635,Time OK,Free running,31000,8657,0,2019-10-01 20:55:35.000000000,
1569964691,2019-10-01 21:18:11.767,47.65109N 0.578029E 193m,Off,5,3.0842612,1.8297635,Time OK,Free running,32800,8657,0,2019-10-01 20:55:35.000000000,
1569964751,2019-10-01 21:19:11.767,47.65109N 0.578029E 193m,Off,5,3.0842612,1.8297635,Time OK,Free running,34400,8657,0,2019-10-01 20:55:35.000000000,
1569964811,2019-10-01 21:20:11.767,47.65109N 0.578029E 193m,Off,5,3.0842612,1.8297635,Time OK,Free running,36200,8657,0,2019-10-01 20:55:35.000000000,
1569964871,2019-10-01 21:21:11.767,47.65109N 0.578029E 193m,Off,5,3.0842612,1.8297635,Time OK,Free running,38400,8657,0,2019-10-01 20:55:35.000000000,
1569964931,2019-10-01 21:22:11.767,47.65109N 0.578029E 193m,Off,5,3.0842612,1.8297635,Time OK,Free running,40500,8657,0,2019-10-01 20:55:35.000000000,
1569964991,2019-10-01 21:23:11.767,47.65109N 0.578029E 193m,Off,5,3.0842612,1.8297635,Time OK,Free running,42500,8657,0,2019-10-01 20:55:35.000000000,
1569965051,2019-10-01 21:24:11.767,47.65109N 0.578029E 193m,Off,5,3.0842612,1.8297635,Time OK,Free running,44400,8657,0,2019-10-01 20:55:35.000000000,
1569965111,2019-10-01 21:25:11.767,47.65109N 0.578029E 193m,Off,5,3.0842612,1.8297635,Time OK,Free running,46100,8657,0,2019-10-01 20:55:35.000000000,
1569965171,2019-10-01 21:26:11.767,47.65109N 0.578029E 193m,Off,5,3.0842612,1.8297635,Time OK,Free running,47900,8657,0,2019-10-01 20:55:35.000000000,
1569965231,2019-10-01 21:27:11.767,47.65109N 0.578029E 193m,Off,5,3.0842612,1.8297635,Time OK,Free running,49900,8657,0,2019-10-01 20:55:35.000000000,
1569965291,2019-10-01 21:28:11.767,47.65109N 0.578029E 193m,Off,5,3.0842612,1.8297635,Time OK,Free running,51800,8657,0,2019-10-01 20:55:35.000000000,
1569965351,2019-10-01 21:29:11.767,47.65109N 0.578029E 193m,Doing fixes,5,2.7158358,1.6490831,Time OK,Coarse lock,100,9333,-11354,2019-10-01 21:29:10.000000000,
1569965411,2019-10-01 21:30:11.767,47.65109N 0.578029E 193m,Doing fixes,6,2.6599,1.6251081,Time OK,Fine lock,100,8629,104,2019-10-01 21:30:10.000000000,
1569965471,2019-10-01 21:31:11.767,47.65109N 0.578029E 193m,Doing fixes,7,2.3157291,1.3134423,Time OK,Fine lock,100,8646,0,2019-10-01 21:31:10.000000000,
1569965531,2019-10-01 21:32:11.769,47.65109N 0.578029E 193m,Off,5,3.2891138,2.2043688,Time OK,Free running,100,8644,0,2019-10-01 21:32:05.000000000,
1569965591,2019-10-01 21:33:11.767,47.65109N 0.578029E 193m,Off,5,3.2891138,2.2043688,Time OK,Free running,900,8644,0,2019-10-01 21:32:05.000000000,
1569965651,2019-10-01 21:34:11.769,47.65109N 0.578029E 193m,Off,5,3.2891138,2.2043688,Time OK,Free running,1800,8644,0,2019-10-01 21:32:05.000000000,
1569965711,2019-10-01 21:35:11.767,47.65109N 0.578029E 193m,Off,5,3.2891138,2.2043688,Time OK,Free running,2900,8644,0,2019-10-01 21:32:05.000000000,
1569965771,2019-10-01 21:36:11.767,47.65109N 0.578029E 193m,Off,5,3.2891138,2.2043688,Time OK,Free running,3800,8644,0,2019-10-01 21:32:05.000000000,
1569965831,2019-10-01 21:37:11.767,47.65109N 0.578029E 193m,Off,5,3.2891138,2.2043688,Time OK,Free running,5100,8644,0,2019-10-01 21:32:05.000000000,
1569965891,2019-10-01 21:38:11.767,47.65109N 0.578029E 193m,Off,5,3.2891138,2.2043688,Time OK,Free running,6200,8644,0,2019-10-01 21:32:05.000000000,
1569965951,2019-10-01 21:39:11.767,47.65109N 0.578029E 193m,Off,5,3.2891138,2.2043688,Time OK,Free running,7000,8644,0,2019-10-01 21:32:05.000000000,
1569966011,2019-10-01 21:40:11.767,47.65109N 0.578029E 193m,Off,5,3.2891138,2.2043688,Time OK,Free running,8100,8644,0,2019-10-01 21:32:05.000000000,
1569966071,2019-10-01 21:41:11.767,47.65109N 0.578029E 193m,Off,5,3.2891138,2.2043688,Time OK,Free running,8900,8644,0,2019-10-01 21:32:05.000000000,
1569966131,2019-10-01 21:42:11.771,47.65109N 0.578029E 193m,Off,5,3.2891138,2.2043688,Time OK,Free running,9900,8644,0,2019-10-01 21:32:05.000000000,
1569966191,2019-10-01 21:43:11.767,47.65109N 0.578029E 193m,Off,5,3.2891138,2.2043688,Time OK,Free running,11000,8644,0,2019-10-01 21:32:05.000000000,
1569966251,2019-10-01 21:44:11.767,47.65109N 0.578029E 193m,Off,5,3.2891138,2.2043688,Time OK,Free running,11800,8644,0,2019-10-01 21:32:05.000000000,
1569966311,2019-10-01 21:45:11.767,47.65109N 0.578029E 193m,Off,5,3.2891138,2.2043688,Time OK,Free running,12600,8644,0,2019-10-01 21:32:05.000000000,
1569966371,2019-10-01 21:46:11.769,47.65109N 0.578029E 193m,Off,5,3.2891138,2.2043688,Time OK,Free running,13500,8644,0,2019-10-01 21:32:05.000000000,
1569966431,2019-10-01 21:47:11.771,47.65109N 0.578029E 193m,Off,5,3.2891138,2.2043688,Time OK,Free running,14400,8644,0,2019-10-01 21:32:05.000000000,
1569966491,2019-10-01 21:48:11.769,47.65109N 0.578029E 193m,Off,5,3.2891138,2.2043688,Time OK,Free running,15200,8644,0,2019-10-01 21:32:05.000000000,
1569966551,2019-10-01 21:49:11.769,47.65109N 0.578029E 193m,Off,5,3.2891138,2.2043688,Time OK,Free running,16300,8644,0,2019-10-01 21:32:05.000000000,
1569966611,2019-10-01 21:50:11.767,47.65109N 0.578029E 193m,Off,5,3.2891138,2.2043688,Time OK,Free running,17200,8644,0,2019-10-01 21:32:05.000000000,
1569966671,2019-10-01 21:51:11.767,47.65109N 0.578029E 193m,Off,5,3.2891138,2.2043688,Time OK,Free running,18100,8644,0,2019-10-01 21:32:05.000000000,
1569966731,2019-10-01 21:52:11.767,47.65109N 0.578029E 193m,Off,5,3.2891138,2.2043688,Time OK,Free running,19500,8644,0,2019-10-01 21:32:05.000000000,
1569966791,2019-10-01 21:53:11.767,47.65109N 0.578029E 193m,Off,5,3.2891138,2.2043688,Time OK,Free running,20700,8644,0,2019-10-01 21:32:05.000000000,
1569966851,2019-10-01 21:54:11.767,47.65109N 0.578029E 193m,Off,5,3.2891138,2.2043688,Time OK,Free running,21800,8644,0,2019-10-01 21:32:05.000000000,
1569966911,2019-10-01 21:55:11.767,47.65109N 0.578029E 193m,Off,5,3.2891138,2.2043688,Time OK,Free running,22800,8644,0,2019-10-01 21:32:05.000000000,
1569966971,2019-10-01 21:56:11.767,47.65109N 0.578029E 193m,Off,5,3.2891138,2.2043688,Time OK,Free running,23800,8644,0,2019-10-01 21:32:05.000000000,
1569967031,2019-10-01 21:57:11.769,47.65109N 0.578029E 193m,Off,5,3.2891138,2.2043688,Time OK,Free running,24900,8644,0,2019-10-01 21:32:05.000000000,
1569967091,2019-10-01 21:58:11.767,47.65109N 0.578029E 193m,Off,5,3.2891138,2.2043688,Time OK,Free running,26000,8644,0,2019-10-01 21:32:05.000000000,
1569967151,2019-10-01 21:59:11.767,47.65109N 0.578029E 193m,Off,5,3.2891138,2.2043688,Time OK,Free running,27000,8644,0,2019-10-01 21:32:05.000000000,
