Time(longsecs),Time(UTC),Earth Location,GPS Receiver Status,GPS Satellites Used,GPS PDOP,GPS TDOP,Timing Status,Timing Phase Lock,Timing Uncertainty(ns),DAC Count,Timing Error(ns),GPS Last Update Time,
1569934811,2019-10-01 13:00:11.767,47.65111N 0.578037E 180m,Doing fixes,8,3.2272484,2.2752268,Time OK,Fine lock,100,9036,0,2019-10-01 13:00:10.000000000,
1569934871,2019-10-01 13:01:11.769,47.65111N 0.578037E 180m,Off,8,3.215203,2.2652647,Time OK,Free running,400,9033,0,2019-10-01 13:00:45.000000000,
1569934931,2019-10-01 13:02:11.805,47.65111N 0.578037E 180m,Off,8,3.215203,2.2652647,Time OK,Free running,1200,9033,0,2019-10-01 13:00:45.000000000,
1569934991,2019-10-01 13:03:11.767,47.65111N 0.578037E 180m,Off,8,3.215203,2.2652647,Time OK,Free running,2700,9033,0,2019-10-01 13:00:45.000000000,
1569935051,2019-10-01 13:04:11.784,47.65111N 0.578037E 180m,Off,8,3.215203,2.2652647,Time OK,Free running,4700,9033,0,2019-10-01 13:00:45.000000000,
1569935111,2019-10-01 13:05:11.767,47.65111N 0.578037E 180m,Off,8,3.215203,2.2652647,Time OK,Free running,6800,9033,0,2019-10-01 13:00:45.000000000,
1569935171,2019-10-01 13:06:11.769,47.65111N 0.578037E 180m,Off,8,3.215203,2.2652647,Time OK,Free running,9100,9033,0,2019-10-01 13:00:45.000000000,
1569935231,2019-10-01 13:07:11.769,47.65111N 0.578037E 180m,Off,8,3.215203,2.2652647,Time OK,Free running,11300,9033,0,2019-10-01 13:00:45.000000000,
1569935291,2019-10-01 13:08:11.767,47.65111N 0.578037E 180m,Off,8,3.215203,2.2652647,Time OK,Free running,13500,9033,0,2019-10-01 13:00:45.000000000,
1569935351,2019-10-01 13:09:11.767,47.65111N 0.578037E 180m,Off,8,3.215203,2.2652647,Time OK,Free running,16300,9033,0,2019-10-01 13:00:45.000000000,
1569935411,2019-10-01 13:10:11.767,47.65111N 0.578037E 180m,Off,8,3.215203,2.2652647,Time OK,Free running,19500,9033,0,2019-10-01 13:00:45.000000000,
1569935471,2019-10-01 13:11:11.767,47.65111N 0.578037E 180m,Off,8,3.215203,2.2652647,Time OK,Free running,22800,9033,0,2019-10-01 13:00:45.000000000,
1569935531,2019-10-01 13:12:11.767,47.65111N 0.578037E 180m,Off,8,3.215203,2.2652647,Time OK,Free running,26400,9033,0,2019-10-01 13:00:45.000000000,
1569935591,2019-10-01 13:13:11.767,47.65111N 0.578037E 180m,Off,8,3.215203,2.2652647,Time OK,Free running,30200,9033,0,2019-10-01 13:00:45.000000000,
1569935651,2019-10-01 13:14:11.767,47.65111N 0.578037E 180m,Off,8,3.215203,2.2652647,Time OK,Free running,34200,9033,0,2019-10-01 13:00:45.000000000,
1569935711,2019-10-01 13:15:11.767,47.65111N 0.578037E 180m,Off,8,3.215203,2.2652647,Time OK,Free running,38300,9033,0,2019-10-01 13:00:45.000000000,
1569935771,2019-10-01 13:16:11.767,47.65111N 0.578037E 180m,Off,8,3.215203,2.2652647,Time OK,Free running,42600,9033,0,2019-10-01 13:00:45.000000000,
1569935831,2019-10-01 13:17:11.767,47.65111N 0.578037E 180m,Off,8,3.215203,2.2652647,Time OK,Free running,47100,9033,0,2019-10-01 13:00:45.000000000,
1569935891,2019-10-01 13:18:11.767,47.65111N 0.578037E 180m,Off,8,3.215203,2.2652647,Time OK,Free running,51900,9033,0,2019-10-01 13:00:45.000000000,
1569935951,2019-10-01 13:19:11.767,47.65111N 0.578037E 180m,Doing fixes,7,3.8564649,2.7213645,Time OK,Coarse lock,100,10734,-23958,2019-10-01 13:19:10.000000000,
1569936011,2019-10-01 13:20:11.767,47.65111N 0.578037E 180m,Doing fixes,7,2.8374312,1.8803953,Time OK,Coarse lock,100,9087,104,2019-10-01 13:20:10.000000000,
1569936071,2019-10-01 13:21:11.767,47.65111N 0.578037E 180m,Off,7,2.9680912,2.0092301,Time OK,Free running,100,9091,0,2019-10-01 13:21:05.000000000,
1569936131,2019-10-01 13:22:11.769,47.65111N 0.578037E 180m,Off,7,2.9680912,2.0092301,Time OK,Free running,1100,9091,0,2019-10-01 13:21:05.000000000,
1569936191,2019-10-01 13:23:11.767,47.65111N 0.578037E 180m,Off,7,2.9680912,2.0092301,Time OK,Free running,2400,9091,0,2019-10-01 13:21:05.000000000,
1569936251,2019-10-01 13:24:11.767,47.65111N 0.578037E 180m,Off,7,2.9680912,2.0092301,Time OK,Free running,3700,9091,0,2019-10-01 13:21:05.000000000,
1569936311,2019-10-01 13:25:11.767,47.65111N 0.578037E 180m,Off,7,2.9680912,2.0092301,Time OK,Free running,5200,9091,0,2019-10-01 13:21:05.000000000,
1569936371,2019-10-01 13:26:11.767,47.65111N 0.578037E 180m,Off,7,2.9680912,2.0092301,Time OK,Free running,6900,9091,0,2019-10-01 13:21:05.000000000,
1569936431,2019-10-01 13:27:11.767,47.65111N 0.578037E 180m,Off,7,2.9680912,2.0092301,Time OK,Free running,8500,9091,0,2019-10-01 13:21:05.000000000,
1569936491,2019-10-01 13:28:11.767,47.65111N 0.578037E 180m,Off,7,2.9680912,2.0092301,Time OK,Free running,9800,9091,0,2019-10-01 13:21:05.000000000,
1569936551,2019-10-01 13:29:11.799,47.65111N 0.578037E 180m,Off,7,2.9680912,2.0092301,Time OK,Free running,11400,9091,0,2019-10-01 13:21:05.000000000,
1569936611,2019-10-01 13:30:11.767,47.65111N 0.578037E 180m,Off,7,2.9680912,2.0092301,Time OK,Free running,13000,9091,0,2019-10-01 13:21:05.000000000,
1569936671,2019-10-01 13:31:11.767,47.65111N 0.578037E 180m,Off,7,2.9680912,2.0092301,Time OK,Free running,14700,9091,0,2019-10-01 13:21:05.000000000,
1569936731,2019-10-01 13:32:11.767,47.65111N 0.578037E 180m,Off,7,2.9680912,2.0092301,Time OK,Free running,16800,9091,0,2019-10-01 13:21:05.000000000,
1569936791,2019-10-01 13:33:11.767,47.65111N 0.578037E 180m,Off,7,2.9680912,2.0092301,Time OK,Free running,18700,9091,0,2019-10-01 13:21:05.000000000,
1569936851,2019-10-01 13:34:11.767,47.65111N 0.578037E 180m,Off,7,2.9680912,2.0092301,Time OK,Free running,20500,9091,0,2019-10-01 13:21:05.000000000,
1569936911,2019-10-01 13:35:11.767,47.65111N 0.578037E 180m,Off,7,2.9680912,2.0092301,Time OK,Free running,22700,9091,0,2019-10-01 13:21:05.000000000,
1569936971,2019-10-01 13:36:11.767,47.65111N 0.578037E 180m,Off,7,2.9680912,2.0092301,Time OK,Free running,24500,9091,0,2019-10-01 13:21:05.000000000,
1569937031,2019-10-01 13:37:11.767,47.65111N 0.578037E 180m,Off,7,2.9680912,2.0092301,Time OK,Free running,26300,9091,0,2019-10-01 13:21:05.000000000,
1569937091,2019-10-01 13:38:11.767,47.65111N 0.578037E 180m,Off,7,2.9680912,2.0092301,Time OK,Free running,28300,9091,0,2019-10-01 13:21:05.000000000,
1569937151,2019-10-01 13:39:11.767,47.65111N 0.578037E 180m,Off,7,2.9680912,2.0092301,Time OK,Free running,30100,9091,0,2019-10-01 13:21:05.000000000,
1569937211,2019-10-01 13:40:11.767,47.65111N 0.578037E 180m,Off,7,2.9680912,2.0092301,Time OK,Free running,31900,9091,0,2019-10-01 13:21:05.000000000,
1569937271,2019-10-01 13:41:11.767,47.65111N 0.578037E 180m,Off,7,2.9680912,2.0092301,Time OK,Free running,33600,9091,0,2019-10-01 13:21:05.000000000,
1569937331,2019-10-01 13:42:11.767,47.65111N 0.578037E 180m,Off,7,2.9680912,2.0092301,Time OK,Free running,35400,9091,0,2019-10-01 13:21:05.000000000,
1569937391,2019-10-01 13:43:11.767,47.65111N 0.578037E 180m,Off,7,2.9680912,2.0092301,Time OK,Free running,37200,9091,0,2019-10-01 13:21:05.000000000,
1569937451,2019-10-01 13:44:11.767,47.65111N 0.578037E 180m,Off,7,2.9680912,2.0092301,Time OK,Free running,39000,9091,0,2019-10-01 13:21:05.000000000,
1569937511,2019-10-01 13:45:11.767,47.65111N 0.578037E 180m,Off,7,2.9680912,2.0092301,Time OK,Free running,40800,9091,0,2019-10-01 13:21:05.000000000,
1569937571,2019-10-01 13:46:11.767,47.65111N 0.578037E 180m,Off,7,2.9680912,2.0092301,Time OK,Free running,42600,9091,0,2019-10-01 13:21:05.000000000,
1569937631,2019-10-01 13:47:11.767,47.65111N 0.578037E 180m,Off,7,2.9680912,2.0092301,Time OK,Free running,44500,9091,0,2019-10-01 13:21:05.000000000,
1569937691,2019-10-01 13:48:11.767,47.65111N 0.578037E 180m,Off,7,2.9680912,2.0092301,Time OK,Free running,46100,9091,0,2019-10-01 13:21:05.000000000,
1569937751,2019-10-01 13:49:11.767,47.65111N 0.578037E 180m,Off,7,2.9680912,2.0092301,Time OK,Free running,47500,9091,0,2019-10-01 13:21:05.000000000,
1569937811,2019-10-01 13:50:11.767,47.65111N 0.578037E 180m,Off,7,2.9680912,2.0092301,Time OK,Free running,49000,9091,0,2019-10-01 13:21:05.000000000,
1569937871,2019-10-01 13:51:11.767,47.65111N 0.578037E 180m,Off,7,2.9680912,2.0092301,Time OK,Free running,50600,9091,0,2019-10-01 13:21:05.000000000,
1569937931,2019-10-01 13:52:11.767,47.65111N 0.578037E 180m,No GPS time,0,0.0,0.0,Time OK,Free running,52000,9091,0,2019-10-01 13:52:10.000000000,
1569937991,2019-10-01 13:53:11.767,47.65111N 0.578037E 180m,Doing fixes,6,2.9698608,1.9528404,Time OK,Fine lock,100,9106,0,2019-10-01 13:53:10.000000000,
1569938051,2019-10-01 13:54:11.767,47.65111N 0.578037E 180m,Doing fixes,7,2.7844498,1.8201991,Time OK,Fine lock,100,9087,0,2019-10-01 13:54:10.000000000,
1569938111,2019-10-01 13:55:11.792,47.65111N 0.578037E 180m,Off,6,3.9185538,2.799952,Time OK,Free running,700,9086,0,2019-10-01 13:54:25.000000000,
1569938171,2019-10-01 13:56:11.780,47.65111N 0.578037E 180m,Off,6,3.9185538,2.799952,Time OK,Free running,1700,9086,0,2019-10-01 13:54:25.000000000,
1569938231,2019-10-01 13:57:11.767,47.65111N 0.578037E 180m,Off,6,3.9185538,2.799952,Time OK,Free running,2800,9086,0,2019-10-01 13:54:25.000000000,
1569938291,2019-10-01 13:58:11.767,47.65111N 0.578037E 180m,Off,6,3.9185538,2.799952,Time OK,Free running,3900,9086,0,2019-10-01 13:54:25.000000000,
1569938351,2019-10-01 13:59:11.767,47.65111N 0.578037E 180m,Off,6,3.9185538,2.799952,Time OK,Free running,5200,9086,0,2019-10-01 13:54:25.000000000,
