Time(longsecs),Time(UTC),External SOH Voltage 1(V),External SOH Voltage 2(V),External SOH Voltage 3(V),External SOH Voltage 4(V),Sensor SOH Voltage 1(V),Sensor SOH Voltage 2(V),Sensor SOH Voltage 3(V),
1569927611,2019-10-01 11:00:11.800,-6.072521E-3,-8.659363E-4,-4.3046474E-3,1.2893677E-3,1.7080688E-1,1.732645E-1,1.6779709E-1,
1569927671,2019-10-01 11:01:11.767,-4.079342E-3,1.3597012E-3,-2.389431E-3,3.8995743E-3,1.7492676E-1,1.8032265E-1,1.7798328E-1,
1569927731,2019-10-01 11:02:11.767,-6.0937405E-3,-2.0775795E-3,-4.6412945E-3,1.4760494E-3,1.7264366E-1,1.6988564E-1,1.6614532E-1,
1569927791,2019-10-01 11:03:11.767,-2.108574E-3,3.844738E-3,7.390976E-6,5.3224564E-3,1.822834E-1,1.8606853E-1,1.8402195E-1,
1569927851,2019-10-01 11:04:11.767,-5.8865547E-3,-1.7912388E-3,-4.333496E-3,2.2554398E-4,1.671381E-1,1.6479206E-1,1.6657066E-1,
1569927911,2019-10-01 11:05:11.767,-2.0666122E-3,3.1712055E-3,-8.146763E-4,5.466461E-3,1.8276691E-1,1.8037224E-1,1.7840481E-1,
1569927971,2019-10-01 11:06:11.767,-1.7745495E-3,3.503561E-3,-2.2959709E-4,5.282879E-3,1.8432617E-1,1.8686485E-1,1.8565083E-1,
1569928031,2019-10-01 11:07:11.767,-1.7178059E-3,2.8626919E-3,-2.1910667E-4,5.229473E-3,1.8397236E-1,1.8811607E-1,1.8370628E-1,
1569928091,2019-10-01 11:08:11.767,-2.054453E-3,3.199339E-3,-5.853176E-4,5.6681633E-3,1.7809677E-1,1.8619156E-1,1.8534851E-1,
1569928151,2019-10-01 11:09:11.767,-1.7142296E-3,2.9530525E-3,-2.5510788E-5,5.609274E-3,1.8413734E-1,1.819706E-1,1.7695427E-1,
1569928211,2019-10-01 11:10:11.767,-3.8790703E-3,1.0356903E-3,-1.6691685E-3,3.5316944E-3,1.7774773E-1,1.7533875E-1,1.7384338E-1,
1569928271,2019-10-01 11:11:11.767,-6.6354275E-3,-1.595974E-3,-4.0848255E-3,7.622242E-4,1.6714478E-1,1.7349815E-1,1.7286873E-1,
1569928331,2019-10-01 11:12:11.767,-3.7498474E-3,1.1026859E-3,-2.3281574E-3,3.92437E-3,1.7655563E-1,1.7610836E-1,1.689682E-1,
1569928391,2019-10-01 11:13:11.767,-3.919363E-3,1.1935234E-3,-1.8253326E-3,3.493309E-3,1.739006E-1,1.7664242E-1,1.7420673E-1,
1569928451,2019-10-01 11:14:11.767,-2.260685E-3,3.14641E-3,-7.557869E-5,4.855156E-3,1.7830944E-1,1.8694305E-1,1.7998886E-1,
1569928511,2019-10-01 11:15:11.799,-6.4635277E-3,-9.880066E-4,-3.962755E-3,1.3408661E-3,1.6760635E-1,1.697197E-1,1.6636753E-1,
1569928571,2019-10-01 11:16:11.767,-4.527569E-3,9.622574E-4,-2.4011135E-3,2.8660297E-3,1.7366123E-1,1.7403793E-1,1.7068195E-1,
1569928631,2019-10-01 11:17:11.767,-1.9302368E-3,3.0915737E-3,-4.1747093E-4,5.2862167E-3,1.7907143E-1,1.881609E-1,1.8427944E-1,
1569928691,2019-10-01 11:18:11.767,-4.014015E-3,5.0616264E-4,-2.5515556E-3,3.1268597E-3,1.7778778E-1,1.7875195E-1,1.7529583E-1,
1569928751,2019-10-01 11:19:11.767,-3.7324429E-3,1.0523796E-3,-1.8444061E-3,3.6096573E-3,1.7396069E-1,1.7865658E-1,1.7723083E-1,
1569928811,2019-10-01 11:20:11.767,-6.4356327E-3,-1.5249252E-3,-3.7646294E-3,1.2190342E-3,1.7158222E-1,1.7307377E-1,1.6893291E-1,
1569928871,2019-10-01 11:21:11.767,-4.1644573E-3,9.918213E-4,-2.2845268E-3,3.4015179E-3,1.7786026E-1,1.7959213E-1,1.7965889E-1,
1569928931,2019-10-01 11:22:11.767,-6.508589E-3,-1.5201569E-3,-4.4617653E-3,6.6018105E-4,1.6948509E-1,1.6796398E-1,1.6053295E-1,
1569928991,2019-10-01 11:23:11.767,-4.512787E-3,8.8739395E-4,-2.3605824E-3,2.7740002E-3,1.7616653E-1,1.7471027E-1,1.7330074E-1,
1569929051,2019-10-01 11:24:11.767,-3.717661E-3,1.2741089E-3,-2.2547245E-3,2.9070377E-3,1.7671967E-1,1.7407417E-1,1.6857052E-1,
1569929111,2019-10-01 11:25:11.767,-4.5876503E-3,5.891323E-4,-2.8362274E-3,2.7513504E-3,1.7673302E-1,1.804018E-1,1.7739391E-1,
1569929171,2019-10-01 11:26:11.769,-1.7604828E-3,3.518343E-3,-5.595684E-4,5.638361E-3,1.7728901E-1,1.810894E-1,1.7790985E-1,
1569929231,2019-10-01 11:27:11.767,-4.5564175E-3,8.406639E-4,-2.4461746E-3,2.891302E-3,1.7848301E-1,1.744852E-1,1.7153072E-1,
1569929291,2019-10-01 11:28:11.767,-4.233837E-3,3.3164024E-4,-2.5894642E-3,3.022194E-3,1.7664623E-1,1.7930412E-1,1.73172E-1,
1569929351,2019-10-01 11:29:11.767,-5.872488E-3,-6.9642067E-4,-4.006624E-3,1.2841225E-3,1.6693306E-1,1.7371368E-1,1.6792297E-1,
1569929411,2019-10-01 11:30:11.767,-6.0977936E-3,-1.4896393E-3,-4.4071674E-3,1.232624E-3,1.6974068E-1,1.6792297E-1,1.6556835E-1,
1569929471,2019-10-01 11:31:11.767,-4.142523E-3,1.0313988E-3,-2.315998E-3,3.489256E-3,1.7528152E-1,1.8304443E-1,1.8111706E-1,
1569929531,2019-10-01 11:32:11.767,-3.948927E-3,1.1150837E-3,-2.200842E-3,3.5688877E-3,1.7678452E-1,1.7616367E-1,1.7208767E-1,
1569929591,2019-10-01 11:33:11.767,-3.8249493E-3,7.367134E-4,-2.552271E-3,3.582716E-3,1.7238426E-1,1.7948055E-1,1.780386E-1,
1569929651,2019-10-01 11:34:11.767,-4.21381E-3,6.747246E-5,-2.8421879E-3,3.2389164E-3,1.7830276E-1,1.739006E-1,1.6185379E-1,
1569929711,2019-10-01 11:35:11.802,-4.7032833E-3,2.4604797E-4,-3.0248165E-3,2.6426315E-3,1.7558384E-1,1.7867088E-1,1.7592716E-1,
1569929771,2019-10-01 11:36:11.767,-4.6858788E-3,4.4035912E-4,-2.4542809E-3,3.1003952E-3,1.7980766E-1,1.791048E-1,1.7560482E-1,
1569929831,2019-10-01 11:37:11.767,-3.8790703E-3,1.4674664E-3,-1.7924309E-3,3.653288E-3,1.7382622E-1,1.797638E-1,1.7879677E-1,
1569929891,2019-10-01 11:38:11.768,-4.7061443E-3,5.9580803E-4,-2.6361942E-3,2.990961E-3,1.7107582E-1,1.7592907E-1,1.6972637E-1,
1569929951,2019-10-01 11:39:11.767,-3.525734E-3,8.559227E-4,-2.2690296E-3,3.3392906E-3,1.7772865E-1,1.7537308E-1,1.8077374E-1,
1569930011,2019-10-01 11:40:11.799,-4.54998E-3,2.310276E-4,-2.3224354E-3,3.0741692E-3,1.7655563E-1,1.780796E-1,1.7512798E-1,
1569930071,2019-10-01 11:41:11.767,-1.7874241E-3,2.9129982E-3,1.5616417E-4,5.744934E-3,1.8435287E-1,1.8299866E-1,1.756773E-1,
1569930131,2019-10-01 11:42:11.767,-6.3467026E-3,-1.5070438E-3,-4.405737E-3,6.23703E-4,1.7054558E-1,1.7533016E-1,1.696415E-1,
1569930191,2019-10-01 11:43:11.767,-3.5386086E-3,1.3654232E-3,-2.3918152E-3,3.4706593E-3,1.738348E-1,1.8005753E-1,1.7207432E-1,
1569930251,2019-10-01 11:44:11.767,-1.9786358E-3,2.7012825E-3,-1.7118454E-4,5.4996014E-3,1.8406582E-1,1.8599892E-1,1.8203926E-1,
1569930311,2019-10-01 11:45:11.767,-6.54459E-3,-1.6052723E-3,-4.589319E-3,1.1594296E-3,1.6491508E-1,1.6910553E-1,1.6614819E-1,
1569930371,2019-10-01 11:46:11.791,-6.1454773E-3,-1.2054443E-3,-4.527569E-3,1.3818741E-3,1.7126465E-1,1.7335129E-1,1.7004585E-1,
1569930431,2019-10-01 11:47:11.767,-3.5619736E-3,1.1639595E-3,-1.8262863E-3,3.5779476E-3,1.7830753E-1,1.8217468E-1,1.7812443E-1,
1569930491,2019-10-01 11:48:11.767,-4.569769E-3,3.8599968E-4,-2.6657581E-3,3.2930374E-3,1.7129707E-1,1.799097E-1,1.7520428E-1,
1569930551,2019-10-01 11:49:11.769,-4.2436123E-3,5.7530403E-4,-2.4163723E-3,3.2007694E-3,1.7756462E-1,1.7880821E-1,1.7714119E-1,
1569930611,2019-10-01 11:50:11.767,-4.0197372E-3,1.2512207E-3,-2.1352768E-3,3.1325817E-3,1.6906261E-1,1.7563629E-1,1.6758728E-1,
1569930671,2019-10-01 11:51:11.767,-4.162073E-3,9.918213E-4,-2.57802E-3,3.0386448E-3,1.7782688E-1,1.7935085E-1,1.7484951E-1,
1569930731,2019-10-01 11:52:11.767,-4.274845E-3,6.773472E-4,-2.64287E-3,2.6650429E-3,1.7059422E-1,1.7453384E-1,1.7190456E-1,
1569930791,2019-10-01 11:53:11.767,-4.0454865E-3,-6.604195E-5,-2.48003E-3,3.0171871E-3,1.7210388E-1,1.7450142E-1,1.7166138E-1,
1569930851,2019-10-01 11:54:11.768,-4.631996E-3,5.8817863E-4,-2.8903484E-3,2.3424625E-3,1.724577E-1,1.7440319E-1,1.690197E-1,
1569930911,2019-10-01 11:55:11.767,-3.736496E-3,1.5559196E-3,-2.2511482E-3,3.781557E-3,1.7292881E-1,1.810646E-1,1.7845345E-1,
1569930971,2019-10-01 11:56:11.769,-6.4549446E-3,-1.2490749E-3,-4.401684E-3,1.2454987E-3,1.7148972E-1,1.718216E-1,1.7024612E-1,
1569931031,2019-10-01 11:57:11.767,-3.623724E-3,9.44376E-4,-2.0692348E-3,3.436327E-3,1.7327976E-1,1.7549801E-1,1.7422009E-1,
1569931091,2019-10-01 11:58:11.767,-4.46105E-3,5.300045E-4,-2.4445057E-3,2.7759075E-3,1.726923E-1,1.7885113E-1,1.7577267E-1,
1569931151,2019-10-01 11:59:11.767,-2.0551682E-3,3.0546188E-3,-2.5963783E-4,5.2444935E-3,1.7811203E-1,1.8543625E-1,1.785202E-1,
