Time(longsecs),Time(UTC),GPS Satellite Acquisition Flag 1,GPS Satellite Acquisition Flag 2,GPS Satellite Acquisition Flag 3,GPS Satellite Acquisition Flag 4,GPS Satellite Acquisition Flag 5,GPS Satellite Acquisition Flag 6,GPS Satellite Acquisition Flag 7,GPS Satellite Acquisition Flag 8,GPS Satellite Acquisition Flag 9,GPS Satellite Acquisition Flag 10,GPS Satellite Acquisition Flag 11,GPS Satellite Acquisition Flag 12,GPS Satellite Azimuth 1(Degrees),GPS Satellite Azimuth 2(Degrees),GPS Satellite Azimuth 3(Degrees),GPS Satellite Azimuth 4(Degrees),GPS Satellite Azimuth 5(Degrees),GPS Satellite Azimuth 6(Degrees),GPS Satellite Azimuth 7(Degrees),GPS Satellite Azimuth 8(Degrees),GPS Satellite Azimuth 9(Degrees),GPS Satellite Azimuth 10(Degrees),GPS Satellite Azimuth 11(Degrees),GPS Satellite Azimuth 12(Degrees),GPS Satellite Elevation 1(Degrees),GPS Satellite Elevation 2(Degrees),GPS Satellite Elevation 3(Degrees),GPS Satellite Elevation 4(Degrees),GPS Satellite Elevation 5(Degrees),GPS Satellite Elevation 6(Degrees),GPS Satellite Elevation 7(Degrees),GPS Satellite Elevation 8(Degrees),GPS Satellite Elevation 9(Degrees),GPS Satellite Elevation 10(Degrees),GPS Satellite Elevation 11(Degrees),GPS Satellite Elevation 12(Degrees),GPS Satellite PRN 1,GPS Satellite PRN 2,GPS Satellite PRN 3,GPS Satellite PRN 4,GPS Satellite PRN 5,GPS Satellite PRN 6,GPS Satellite PRN 7,GPS Satellite PRN 8,GPS Satellite PRN 9,GPS Satellite PRN 10,GPS Satellite PRN 11,GPS Satellite PRN 12,GPS Satellite Signal Level 1(AMU),GPS Satellite Signal Level 2(AMU),GPS Satellite Signal Level 3(AMU),GPS Satellite Signal Level 4(AMU),GPS Satellite Signal Level 5(AMU),GPS Satellite Signal Level 6(AMU),GPS Satellite Signal Level 7(AMU),GPS Satellite Signal Level 8(AMU),GPS Satellite Signal Level 9(AMU),GPS Satellite Signal Level 10(AMU),GPS Satellite Signal Level 11(AMU),GPS Satellite Signal Level 12(AMU),
1569938411,2019-10-01 14:00:11.767,Acquired,Acquired,Acquired,Acquired,Acquired,Acquired,Acquired,Acquired,,Not acquired,,,1.434692E2,8.1599936E1,3.01566336E2,2.10256496E2,2.3429502399999998E2,2.5271416E2,9.2008888E1,1.12727768E2,,3.2241068E1,,,1.498195E1,5.0530359999999995E1,4.9898548E1,5.5434172E1,3.0073701999999997E1,3.6556447999999996E1,3.0678082E1,7.7981E1,,1.0927565999999999E1,,,1,3,6,9,17,19,22,23,,31,,,3,2,9,15,15,13,2,13,,1,,,
1569938471,2019-10-01 14:01:11.769,Acquired,Acquired,Acquired,Acquired,Acquired,Acquired,Acquired,Acquired,,Not acquired,,,1.434692E2,8.1599936E1,3.01566336E2,2.10256496E2,2.3429502399999998E2,2.5271416E2,9.2008888E1,1.12727768E2,,3.2241068E1,,,1.498195E1,5.0530359999999995E1,4.9898548E1,5.5434172E1,3.0073701999999997E1,3.6556447999999996E1,3.0678082E1,7.7981E1,,1.0927565999999999E1,,,1,3,6,9,17,19,22,23,,31,,,3,2,9,15,15,13,2,13,,1,,,
1569938531,2019-10-01 14:02:11.767,Acquired,Acquired,Acquired,Acquired,Acquired,Acquired,Acquired,Acquired,,Not acquired,,,1.434692E2,8.1599936E1,3.01566336E2,2.10256496E2,2.3429502399999998E2,2.5271416E2,9.2008888E1,1.12727768E2,,3.2241068E1,,,1.498195E1,5.0530359999999995E1,4.9898548E1,5.5434172E1,3.0073701999999997E1,3.6556447999999996E1,3.0678082E1,7.7981E1,,1.0927565999999999E1,,,1,3,6,9,17,19,22,23,,31,,,3,2,9,15,15,13,2,13,,1,,,
1569938591,2019-10-01 14:03:11.796,Acquired,Acquired,Acquired,Acquired,Acquired,Acquired,Acquired,Acquired,,Not acquired,,,1.434692E2,8.1599936E1,3.01566336E2,2.10256496E2,2.3429502399999998E2,2.5271416E2,9.2008888E1,1.12727768E2,,3.2241068E1,,,1.498195E1,5.0530359999999995E1,4.9898548E1,5.5434172E1,3.0073701999999997E1,3.6556447999999996E1,3.0678082E1,7.7981E1,,1.0927565999999999E1,,,1,3,6,9,17,19,22,23,,31,,,3,2,9,15,15,13,2,13,,1,,,
1569938651,2019-10-01 14:04:11.767,Acquired,Acquired,Acquired,Acquired,Acquired,Acquired,Acquired,Acquired,,Not acquired,,,1.434692E2,8.1599936E1,3.01566336E2,2.10256496E2,2.3429502399999998E2,2.5271416E2,9.2008888E1,1.12727768E2,,3.2241068E1,,,1.498195E1,5.0530359999999995E1,4.9898548E1,5.5434172E1,3.0073701999999997E1,3.6556447999999996E1,3.0678082E1,7.7981E1,,1.0927565999999999E1,,,1,3,6,9,17,19,22,23,,31,,,3,2,9,15,15,13,2,13,,1,,,
1569938711,2019-10-01 14:05:11.767,Acquired,Acquired,Acquired,Acquired,Acquired,Acquired,Acquired,Acquired,,Not acquired,,,1.434692E2,8.1599936E1,3.01566336E2,2.10256496E2,2.3429502399999998E2,2.5271416E2,9.2008888E1,1.12727768E2,,3.2241068E1,,,1.498195E1,5.0530359999999995E1,4.9898548E1,5.5434172E1,3.0073701999999997E1,3.6556447999999996E1,3.0678082E1,7.7981E1,,1.0927565999999999E1,,,1,3,6,9,17,19,22,23,,31,,,3,2,9,15,15,13,2,13,,1,,,
1569938771,2019-10-01 14:06:11.767,Acquired,Acquired,Acquired,Acquired,Acquired,Acquired,Acquired,Acquired,,Not acquired,,,1.434692E2,8.1599936E1,3.01566336E2,2.10256496E2,2.3429502399999998E2,2.5271416E2,9.2008888E1,1.12727768E2,,3.2241068E1,,,1.498195E1,5.0530359999999995E1,4.9898548E1,5.5434172E1,3.0073701999999997E1,3.6556447999999996E1,3.0678082E1,7.7981E1,,1.0927565999999999E1,,,1,3,6,9,17,19,22,23,,31,,,3,2,9,15,15,13,2,13,,1,,,
1569938831,2019-10-01 14:07:11.769,Acquired,Acquired,Acquired,Acquired,Acquired,Acquired,Acquired,Acquired,,Not acquired,,,1.434692E2,8.1599936E1,3.01566336E2,2.10256496E2,2.3429502399999998E2,2.5271416E2,9.2008888E1,1.12727768E2,,3.2241068E1,,,1.498195E1,5.0530359999999995E1,4.9898548E1,5.5434172E1,3.0073701999999997E1,3.6556447999999996E1,3.0678082E1,7.7981E1,,1.0927565999999999E1,,,1,3,6,9,17,19,22,23,,31,,,3,2,9,15,15,13,2,13,,1,,,
1569938891,2019-10-01 14:08:11.767,Acquired,Acquired,Acquired,Acquired,Acquired,Acquired,Acquired,Acquired,,Not acquired,,,1.434692E2,8.1599936E1,3.01566336E2,2.10256496E2,2.3429502399999998E2,2.5271416E2,9.2008888E1,1.12727768E2,,3.2241068E1,,,1.498195E1,5.0530359999999995E1,4.9898548E1,5.5434172E1,3.0073701999999997E1,3.6556447999999996E1,3.0678082E1,7.7981E1,,1.0927565999999999E1,,,1,3,6,9,17,19,22,23,,31,,,3,2,9,15,15,13,2,13,,1,,,
1569938951,2019-10-01 14:09:11.769,Acquired,Acquired,Acquired,Acquired,Acquired,Acquired,Acquired,Acquired,,Not acquired,,,1.434692E2,8.1599936E1,3.01566336E2,2.10256496E2,2.3429502399999998E2,2.5271416E2,9.2008888E1,1.12727768E2,,3.2241068E1,,,1.498195E1,5.0530359999999995E1,4.9898548E1,5.5434172E1,3.0073701999999997E1,3.6556447999999996E1,3.0678082E1,7.7981E1,,1.0927565999999999E1,,,1,3,6,9,17,19,22,23,,31,,,3,2,9,15,15,13,2,13,,1,,,
1569939011,2019-10-01 14:10:11.767,Acquired,Acquired,Acquired,Acquired,Acquired,Acquired,Acquired,Acquired,,Not acquired,,,1.434692E2,8.1599936E1,3.01566336E2,2.10256496E2,2.3429502399999998E2,2.5271416E2,9.2008888E1,1.12727768E2,,3.2241068E1,,,1.498195E1,5.0530359999999995E1,4.9898548E1,5.5434172E1,3.0073701999999997E1,3.6556447999999996E1,3.0678082E1,7.7981E1,,1.0927565999999999E1,,,1,3,6,9,17,19,22,23,,31,,,3,2,9,15,15,13,2,13,,1,,,
1569939071,2019-10-01 14:11:11.767,Acquired,Acquired,Acquired,Acquired,Acquired,Acquired,Acquired,Acquired,,Not acquired,,,1.434692E2,8.1599936E1,3.01566336E2,2.10256496E2,2.3429502399999998E2,2.5271416E2,9.2008888E1,1.12727768E2,,3.2241068E1,,,1.498195E1,5.0530359999999995E1,4.9898548E1,5.5434172E1,3.0073701999999997E1,3.6556447999999996E1,3.0678082E1,7.7981E1,,1.0927565999999999E1,,,1,3,6,9,17,19,22,23,,31,,,3,2,9,15,15,13,2,13,,1,,,
1569939131,2019-10-01 14:12:11.769,Acquired,Acquired,Acquired,Acquired,Acquired,Acquired,Acquired,Acquired,,Not acquired,,,1.434692E2,8.1599936E1,3.01566336E2,2.10256496E2,2.3429502399999998E2,2.5271416E2,9.2008888E1,1.12727768E2,,3.2241068E1,,,1.498195E1,5.0530359999999995E1,4.9898548E1,5.5434172E1,3.0073701999999997E1,3.6556447999999996E1,3.0678082E1,7.7981E1,,1.0927565999999999E1,,,1,3,6,9,17,19,22,23,,31,,,3,2,9,15,15,13,2,13,,1,,,
1569939191,2019-10-01 14:13:11.767,Acquired,Acquired,Acquired,Acquired,Acquired,Acquired,Acquired,Acquired,,Not acquired,,,1.434692E2,8.1599936E1,3.01566336E2,2.10256496E2,2.3429502399999998E2,2.5271416E2,9.2008888E1,1.12727768E2,,3.2241068E1,,,1.498195E1,5.0530359999999995E1,4.9898548E1,5.5434172E1,3.0073701999999997E1,3.6556447999999996E1,3.0678082E1,7.7981E1,,1.0927565999999999E1,,,1,3,6,9,17,19,22,23,,31,,,3,2,9,15,15,13,2,13,,1,,,
1569939251,2019-10-01 14:14:11.767,Acquired,Acquired,Acquired,Acquired,Acquired,Acquired,Acquired,Acquired,,Not acquired,,,1.434692E2,8.1599936E1,3.01566336E2,2.10256496E2,2.3429502399999998E2,2.5271416E2,9.2008888E1,1.12727768E2,,3.2241068E1,,,1.498195E1,5.0530359999999995E1,4.9898548E1,5.5434172E1,3.0073701999999997E1,3.6556447999999996E1,3.0678082E1,7.7981E1,,1.0927565999999999E1,,,1,3,6,9,17,19,22,23,,31,,,3,2,9,15,15,13,2,13,,1,,,
1569939311,2019-10-01 14:15:11.800,Acquired,Acquired,Acquired,Acquired,Acquired,Acquired,Acquired,Acquired,,Not acquired,,,1.434692E2,8.1599936E1,3.01566336E2,2.10256496E2,2.3429502399999998E2,2.5271416E2,9.2008888E1,1.12727768E2,,3.2241068E1,,,1.498195E1,5.0530359999999995E1,4.9898548E1,5.5434172E1,3.0073701999999997E1,3.6556447999999996E1,3.0678082E1,7.7981E1,,1.0927565999999999E1,,,1,3,6,9,17,19,22,23,,31,,,3,2,9,15,15,13,2,13,,1,,,
1569939371,2019-10-01 14:16:11.767,Acquired,Acquired,Acquired,Acquired,Acquired,Acquired,Acquired,Acquired,,Not acquired,,,1.434692E2,8.1599936E1,3.01566336E2,2.10256496E2,2.3429502399999998E2,2.5271416E2,9.2008888E1,1.12727768E2,,3.2241068E1,,,1.498195E1,5.0530359999999995E1,4.9898548E1,5.5434172E1,3.0073701999999997E1,3.6556447999999996E1,3.0678082E1,7.7981E1,,1.0927565999999999E1,,,1,3,6,9,17,19,22,23,,31,,,3,2,9,15,15,13,2,13,,1,,,
1569939431,2019-10-01 14:17:11.769,Acquired,Acquired,Acquired,Acquired,Acquired,Acquired,Acquired,Acquired,,Not acquired,,,1.434692E2,8.1599936E1,3.01566336E2,2.10256496E2,2.3429502399999998E2,2.5271416E2,9.2008888E1,1.12727768E2,,3.2241068E1,,,1.498195E1,5.0530359999999995E1,4.9898548E1,5.5434172E1,3.0073701999999997E1,3.6556447999999996E1,3.0678082E1,7.7981E1,,1.0927565999999999E1,,,1,3,6,9,17,19,22,23,,31,,,3,2,9,15,15,13,2,13,,1,,,
1569939491,2019-10-01 14:18:11.767,Acquired,Acquired,Acquired,Acquired,Acquired,Acquired,Acquired,Acquired,,Not acquired,,,1.434692E2,8.1599936E1,3.01566336E2,2.10256496E2,2.3429502399999998E2,2.5271416E2,9.2008888E1,1.12727768E2,,3.2241068E1,,,1.498195E1,5.0530359999999995E1,4.9898548E1,5.5434172E1,3.0073701999999997E1,3.6556447999999996E1,3.0678082E1,7.7981E1,,1.0927565999999999E1,,,1,3,6,9,17,19,22,23,,31,,,3,2,9,15,15,13,2,13,,1,,,
1569939551,2019-10-01 14:19:11.767,Acquired,Acquired,Acquired,Acquired,Acquired,Acquired,Acquired,Acquired,,Not acquired,,,1.434692E2,8.1599936E1,3.01566336E2,2.10256496E2,2.3429502399999998E2,2.5271416E2,9.2008888E1,1.12727768E2,,3.2241068E1,,,1.498195E1,5.0530359999999995E1,4.9898548E1,5.5434172E1,3.0073701999999997E1,3.6556447999999996E1,3.0678082E1,7.7981E1,,1.0927565999999999E1,,,1,3,6,9,17,19,22,23,,31,,,3,2,9,15,15,13,2,13,,1,,,
1569939611,2019-10-01 14:20:11.767,Acquired,Acquired,Acquired,Acquired,Acquired,Acquired,Acquired,Acquired,,Not acquired,,,1.434692E2,8.1599936E1,3.01566336E2,2.10256496E2,2.3429502399999998E2,2.5271416E2,9.2008888E1,1.12727768E2,,3.2241068E1,,,1.498195E1,5.0530359999999995E1,4.9898548E1,5.5434172E1,3.0073701999999997E1,3.6556447999999996E1,3.0678082E1,7.7981E1,,1.0927565999999999E1,,,1,3,6,9,17,19,22,23,,31,,,3,2,9,15,15,13,2,13,,1,,,
1569939671,2019-10-01 14:21:11.767,Acquired,Acquired,Acquired,Acquired,Acquired,Acquired,Acquired,Acquired,,Not acquired,,,1.434692E2,8.1599936E1,3.01566336E2,2.10256496E2,2.3429502399999998E2,2.5271416E2,9.2008888E1,1.12727768E2,,3.2241068E1,,,1.498195E1,5.0530359999999995E1,4.9898548E1,5.5434172E1,3.0073701999999997E1,3.6556447999999996E1,3.0678082E1,7.7981E1,,1.0927565999999999E1,,,1,3,6,9,17,19,22,23,,31,,,3,2,9,15,15,13,2,13,,1,,,
1569939731,2019-10-01 14:22:11.767,Acquired,Acquired,Acquired,Acquired,Acquired,Acquired,Acquired,Acquired,,Not acquired,,,1.434692E2,8.1599936E1,3.01566336E2,2.10256496E2,2.3429502399999998E2,2.5271416E2,9.2008888E1,1.12727768E2,,3.2241068E1,,,1.498195E1,5.0530359999999995E1,4.9898548E1,5.5434172E1,3.0073701999999997E1,3.6556447999999996E1,3.0678082E1,7.7981E1,,1.0927565999999999E1,,,1,3,6,9,17,19,22,23,,31,,,3,2,9,15,15,13,2,13,,1,,,
1569939791,2019-10-01 14:23:11.767,Acquired,Acquired,Acquired,Acquired,Acquired,,,Acquired,Not acquired,Not acquired,,,1.43619328E2,8.1953136E1,3.01287008E2,2.10377072E2,2.33953328E2,,,1.10556056E2,3.14727936E2,3.19514E1,,,1.457315E1,5.0131243999999995E1,5.0300112E1,5.5922031999999994E1,2.9705697999999998E1,,,7.7908512E1,9.838379E0,1.0681092999999999E1,,,1,3,6,9,17,,,23,2,31,,,4,10,10,15,9,,,15,0,1,,,
1569939851,2019-10-01 14:24:11.767,Acquired,Acquired,Acquired,Acquired,Acquired,Acquired,Acquired,Acquired,Acquired,,,,3.1384672E2,9.1283712E1,2.8772384E2,2.13346704E2,2.2562899199999998E2,2.40313248E2,9.9337688E1,7.214481599999999E1,1.68632624E2,,,,2.0155379999999997E1,3.902574E1,6.0489208E1,6.9802008E1,1.8939692E1,2.7434131999999998E1,1.9938032E1,7.0154456E1,1.2769010999999999E1,,,,2,3,6,9,17,19,22,23,7,,,,2,12,12,15,8,7,2,12,4,,,,
1569939911,2019-10-01 14:25:11.767,Acquired,Acquired,Acquired,Acquired,Acquired,Acquired,Acquired,Acquired,Acquired,,,,3.1384672E2,9.1283712E1,2.8772384E2,2.13346704E2,2.2562899199999998E2,2.40313248E2,9.9337688E1,7.214481599999999E1,1.68632624E2,,,,2.0155379999999997E1,3.902574E1,6.0489208E1,6.9802008E1,1.8939692E1,2.7434131999999998E1,1.9938032E1,7.0154456E1,1.2769010999999999E1,,,,2,3,6,9,17,19,22,23,7,,,,2,12,12,15,8,7,2,12,4,,,,
1569939971,2019-10-01 14:26:11.778,Acquired,Acquired,Acquired,Acquired,Acquired,Acquired,Acquired,Acquired,Acquired,,,,3.1384672E2,9.1283712E1,2.8772384E2,2.13346704E2,2.2562899199999998E2,2.40313248E2,9.9337688E1,7.214481599999999E1,1.68632624E2,,,,2.0155379999999997E1,3.902574E1,6.0489208E1,6.9802008E1,1.8939692E1,2.7434131999999998E1,1.9938032E1,7.0154456E1,1.2769010999999999E1,,,,2,3,6,9,17,19,22,23,7,,,,2,12,12,15,8,7,2,12,4,,,,
1569940031,2019-10-01 14:27:11.767,Acquired,Acquired,Acquired,Acquired,Acquired,Acquired,Acquired,Acquired,Acquired,,,,3.1384672E2,9.1283712E1,2.8772384E2,2.13346704E2,2.2562899199999998E2,2.40313248E2,9.9337688E1,7.214481599999999E1,1.68632624E2,,,,2.0155379999999997E1,3.902574E1,6.0489208E1,6.9802008E1,1.8939692E1,2.7434131999999998E1,1.9938032E1,7.0154456E1,1.2769010999999999E1,,,,2,3,6,9,17,19,22,23,7,,,,2,12,12,15,8,7,2,12,4,,,,
1569940091,2019-10-01 14:28:11.767,Acquired,Acquired,Acquired,Acquired,Acquired,Acquired,Acquired,Acquired,Acquired,,,,3.1384672E2,9.1283712E1,2.8772384E2,2.13346704E2,2.2562899199999998E2,2.40313248E2,9.9337688E1,7.214481599999999E1,1.68632624E2,,,,2.0155379999999997E1,3.902574E1,6.0489208E1,6.9802008E1,1.8939692E1,2.7434131999999998E1,1.9938032E1,7.0154456E1,1.2769010999999999E1,,,,2,3,6,9,17,19,22,23,7,,,,2,12,12,15,8,7,2,12,4,,,,
1569940151,2019-10-01 14:29:11.767,Acquired,Acquired,Acquired,Acquired,Acquired,Acquired,Acquired,Acquired,Acquired,,,,3.1384672E2,9.1283712E1,2.8772384E2,2.13346704E2,2.2562899199999998E2,2.40313248E2,9.9337688E1,7.214481599999999E1,1.68632624E2,,,,2.0155379999999997E1,3.902574E1,6.0489208E1,6.9802008E1,1.8939692E1,2.7434131999999998E1,1.9938032E1,7.0154456E1,1.2769010999999999E1,,,,2,3,6,9,17,19,22,23,7,,,,2,12,12,15,8,7,2,12,4,,,,
1569940211,2019-10-01 14:30:11.788,Acquired,Acquired,Acquired,Acquired,Acquired,Acquired,Acquired,Acquired,Acquired,,,,3.1384672E2,9.1283712E1,2.8772384E2,2.13346704E2,2.2562899199999998E2,2.40313248E2,9.9337688E1,7.214481599999999E1,1.68632624E2,,,,2.0155379999999997E1,3.902574E1,6.0489208E1,6.9802008E1,1.8939692E1,2.7434131999999998E1,1.9938032E1,7.0154456E1,1.2769010999999999E1,,,,2,3,6,9,17,19,22,23,7,,,,2,12,12,15,8,7,2,12,4,,,,
1569940271,2019-10-01 14:31:11.767,Acquired,Acquired,Acquired,Acquired,Acquired,Acquired,Acquired,Acquired,Acquired,,,,3.1384672E2,9.1283712E1,2.8772384E2,2.13346704E2,2.2562899199999998E2,2.40313248E2,9.9337688E1,7.214481599999999E1,1.68632624E2,,,,2.0155379999999997E1,3.902574E1,6.0489208E1,6.9802008E1,1.8939692E1,2.7434131999999998E1,1.9938032E1,7.0154456E1,1.2769010999999999E1,,,,2,3,6,9,17,19,22,23,7,,,,2,12,12,15,8,7,2,12,4,,,,
1569940331,2019-10-01 14:32:11.767,Acquired,Acquired,Acquired,Acquired,Acquired,Acquired,Acquired,Acquired,Acquired,,,,3.1384672E2,9.1283712E1,2.8772384E2,2.13346704E2,2.2562899199999998E2,2.40313248E2,9.9337688E1,7.214481599999999E1,1.68632624E2,,,,2.0155379999999997E1,3.902574E1,6.0489208E1,6.9802008E1,1.8939692E1,2.7434131999999998E1,1.9938032E1,7.0154456E1,1.2769010999999999E1,,,,2,3,6,9,17,19,22,23,7,,,,2,12,12,15,8,7,2,12,4,,,,
1569940391,2019-10-01 14:33:11.767,Acquired,Acquired,Acquired,Acquired,Acquired,Acquired,Acquired,Acquired,Acquired,,,,3.1384672E2,9.1283712E1,2.8772384E2,2.13346704E2,2.2562899199999998E2,2.40313248E2,9.9337688E1,7.214481599999999E1,1.68632624E2,,,,2.0155379999999997E1,3.902574E1,6.0489208E1,6.9802008E1,1.8939692E1,2.7434131999999998E1,1.9938032E1,7.0154456E1,1.2769010999999999E1,,,,2,3,6,9,17,19,22,23,7,,,,2,12,12,15,8,7,2,12,4,,,,
1569940451,2019-10-01 14:34:11.768,Acquired,Acquired,Acquired,Acquired,Acquired,Acquired,Acquired,Acquired,Acquired,,,,3.1384672E2,9.1283712E1,2.8772384E2,2.13346704E2,2.2562899199999998E2,2.40313248E2,9.9337688E1,7.214481599999999E1,1.68632624E2,,,,2.0155379999999997E1,3.902574E1,6.0489208E1,6.9802008E1,1.8939692E1,2.7434131999999998E1,1.9938032E1,7.0154456E1,1.2769010999999999E1,,,,2,3,6,9,17,19,22,23,7,,,,2,12,12,15,8,7,2,12,4,,,,
1569940511,2019-10-01 14:35:11.767,Acquired,Acquired,Acquired,Acquired,Acquired,Acquired,Acquired,Acquired,Acquired,,,,3.1384672E2,9.1283712E1,2.8772384E2,2.13346704E2,2.2562899199999998E2,2.40313248E2,9.9337688E1,7.214481599999999E1,1.68632624E2,,,,2.0155379999999997E1,3.902574E1,6.0489208E1,6.9802008E1,1.8939692E1,2.7434131999999998E1,1.9938032E1,7.0154456E1,1.2769010999999999E1,,,,2,3,6,9,17,19,22,23,7,,,,2,12,12,15,8,7,2,12,4,,,,
1569940571,2019-10-01 14:36:11.799,Acquired,Acquired,Acquired,Acquired,Acquired,Acquired,Acquired,Acquired,Acquired,,,,3.1384672E2,9.1283712E1,2.8772384E2,2.13346704E2,2.2562899199999998E2,2.40313248E2,9.9337688E1,7.214481599999999E1,1.68632624E2,,,,2.0155379999999997E1,3.902574E1,6.0489208E1,6.9802008E1,1.8939692E1,2.7434131999999998E1,1.9938032E1,7.0154456E1,1.2769010999999999E1,,,,2,3,6,9,17,19,22,23,7,,,,2,12,12,15,8,7,2,12,4,,,,
1569940631,2019-10-01 14:37:11.781,Acquired,Acquired,Acquired,Acquired,Acquired,Acquired,Acquired,Acquired,Acquired,,,,3.1384672E2,9.1283712E1,2.8772384E2,2.13346704E2,2.2562899199999998E2,2.40313248E2,9.9337688E1,7.214481599999999E1,1.68632624E2,,,,2.0155379999999997E1,3.902574E1,6.0489208E1,6.9802008E1,1.8939692E1,2.7434131999999998E1,1.9938032E1,7.0154456E1,1.2769010999999999E1,,,,2,3,6,9,17,19,22,23,7,,,,2,12,12,15,8,7,2,12,4,,,,
1569940691,2019-10-01 14:38:11.796,Acquired,Acquired,Acquired,Acquired,Acquired,Acquired,Acquired,Acquired,Acquired,,,,3.1384672E2,9.1283712E1,2.8772384E2,2.13346704E2,2.2562899199999998E2,2.40313248E2,9.9337688E1,7.214481599999999E1,1.68632624E2,,,,2.0155379999999997E1,3.902574E1,6.0489208E1,6.9802008E1,1.8939692E1,2.7434131999999998E1,1.9938032E1,7.0154456E1,1.2769010999999999E1,,,,2,3,6,9,17,19,22,23,7,,,,2,12,12,15,8,7,2,12,4,,,,
1569940751,2019-10-01 14:39:11.767,Acquired,Acquired,Acquired,Acquired,Acquired,Acquired,Acquired,Acquired,Acquired,,,,3.1384672E2,9.1283712E1,2.8772384E2,2.13346704E2,2.2562899199999998E2,2.40313248E2,9.9337688E1,7.214481599999999E1,1.68632624E2,,,,2.0155379999999997E1,3.902574E1,6.0489208E1,6.9802008E1,1.8939692E1,2.7434131999999998E1,1.9938032E1,7.0154456E1,1.2769010999999999E1,,,,2,3,6,9,17,19,22,23,7,,,,2,12,12,15,8,7,2,12,4,,,,
1569940811,2019-10-01 14:40:11.767,Acquired,Acquired,Acquired,Acquired,Acquired,Acquired,Acquired,Acquired,Acquired,,,,3.1384672E2,9.1283712E1,2.8772384E2,2.13346704E2,2.2562899199999998E2,2.40313248E2,9.9337688E1,7.214481599999999E1,1.68632624E2,,,,2.0155379999999997E1,3.902574E1,6.0489208E1,6.9802008E1,1.8939692E1,2.7434131999999998E1,1.9938032E1,7.0154456E1,1.2769010999999999E1,,,,2,3,6,9,17,19,22,23,7,,,,2,12,12,15,8,7,2,12,4,,,,
1569940871,2019-10-01 14:41:11.767,Acquired,Acquired,Acquired,Acquired,Acquired,Acquired,Acquired,Acquired,Acquired,,,,3.1384672E2,9.1283712E1,2.8772384E2,2.13346704E2,2.2562899199999998E2,2.40313248E2,9.9337688E1,7.214481599999999E1,1.68632624E2,,,,2.0155379999999997E1,3.902574E1,6.0489208E1,6.9802008E1,1.8939692E1,2.7434131999999998E1,1.9938032E1,7.0154456E1,1.2769010999999999E1,,,,2,3,6,9,17,19,22,23,7,,,,2,12,12,15,8,7,2,12,4,,,,
1569940931,2019-10-01 14:42:11.767,Acquired,Acquired,Acquired,Acquired,Acquired,Acquired,Acquired,Acquired,Acquired,,,,3.1384672E2,9.1283712E1,2.8772384E2,2.13346704E2,2.2562899199999998E2,2.40313248E2,9.9337688E1,7.214481599999999E1,1.68632624E2,,,,2.0155379999999997E1,3.902574E1,6.0489208E1,6.9802008E1,1.8939692E1,2.7434131999999998E1,1.9938032E1,7.0154456E1,1.2769010999999999E1,,,,2,3,6,9,17,19,22,23,7,,,,2,12,12,15,8,7,2,12,4,,,,
1569940991,2019-10-01 14:43:11.767,Acquired,Acquired,Acquired,Acquired,Acquired,Acquired,Acquired,Acquired,Acquired,,,,3.1384672E2,9.1283712E1,2.8772384E2,2.13346704E2,2.2562899199999998E2,2.40313248E2,9.9337688E1,7.214481599999999E1,1.68632624E2,,,,2.0155379999999997E1,3.902574E1,6.0489208E1,6.9802008E1,1.8939692E1,2.7434131999999998E1,1.9938032E1,7.0154456E1,1.2769010999999999E1,,,,2,3,6,9,17,19,22,23,7,,,,2,12,12,15,8,7,2,12,4,,,,
1569941051,2019-10-01 14:44:11.767,Acquired,Acquired,Acquired,Acquired,Acquired,Acquired,Acquired,Acquired,Acquired,,,,3.1384672E2,9.1283712E1,2.8772384E2,2.13346704E2,2.2562899199999998E2,2.40313248E2,9.9337688E1,7.214481599999999E1,1.68632624E2,,,,2.0155379999999997E1,3.902574E1,6.0489208E1,6.9802008E1,1.8939692E1,2.7434131999999998E1,1.9938032E1,7.0154456E1,1.2769010999999999E1,,,,2,3,6,9,17,19,22,23,7,,,,2,12,12,15,8,7,2,12,4,,,,
1569941111,2019-10-01 14:45:11.767,Acquired,Acquired,Acquired,Acquired,Acquired,Acquired,Acquired,Acquired,Acquired,,,,3.1384672E2,9.1283712E1,2.8772384E2,2.13346704E2,2.2562899199999998E2,2.40313248E2,9.9337688E1,7.214481599999999E1,1.68632624E2,,,,2.0155379999999997E1,3.902574E1,6.0489208E1,6.9802008E1,1.8939692E1,2.7434131999999998E1,1.9938032E1,7.0154456E1,1.2769010999999999E1,,,,2,3,6,9,17,19,22,23,7,,,,2,12,12,15,8,7,2,12,4,,,,
1569941171,2019-10-01 14:46:11.767,Acquired,Acquired,Acquired,Acquired,Acquired,Acquired,Acquired,Acquired,Acquired,,,,3.1384672E2,9.1283712E1,2.8772384E2,2.13346704E2,2.2562899199999998E2,2.40313248E2,9.9337688E1,7.214481599999999E1,1.68632624E2,,,,2.0155379999999997E1,3.902574E1,6.0489208E1,6.9802008E1,1.8939692E1,2.7434131999999998E1,1.9938032E1,7.0154456E1,1.2769010999999999E1,,,,2,3,6,9,17,19,22,23,7,,,,2,12,12,15,8,7,2,12,4,,,,
1569941231,2019-10-01 14:47:11.767,Acquired,Acquired,Acquired,Acquired,Acquired,Acquired,Acquired,Acquired,Acquired,,,,3.1384672E2,9.1283712E1,2.8772384E2,2.13346704E2,2.2562899199999998E2,2.40313248E2,9.9337688E1,7.214481599999999E1,1.68632624E2,,,,2.0155379999999997E1,3.902574E1,6.0489208E1,6.9802008E1,1.8939692E1,2.7434131999999998E1,1.9938032E1,7.0154456E1,1.2769010999999999E1,,,,2,3,6,9,17,19,22,23,7,,,,2,12,12,15,8,7,2,12,4,,,,
1569941291,2019-10-01 14:48:11.767,Acquired,Acquired,Acquired,Acquired,Acquired,Acquired,Acquired,Acquired,Acquired,,,,3.1384672E2,9.1283712E1,2.8772384E2,2.13346704E2,2.2562899199999998E2,2.40313248E2,9.9337688E1,7.214481599999999E1,1.68632624E2,,,,2.0155379999999997E1,3.902574E1,6.0489208E1,6.9802008E1,1.8939692E1,2.7434131999999998E1,1.9938032E1,7.0154456E1,1.2769010999999999E1,,,,2,3,6,9,17,19,22,23,7,,,,2,12,12,15,8,7,2,12,4,,,,
1569941351,2019-10-01 14:49:11.767,Acquired,Acquired,Acquired,Acquired,Acquired,Acquired,Acquired,Acquired,Acquired,,,,3.13764352E2,9.1590616E1,2.87006624E2,2.13414096E2,2.253748E2,2.39962064E2,9.957852E1,7.152581599999999E1,1.68519104E2,,,,2.0510237999999998E1,3.8644348E1,6.078046E1,7.028752E1,1.855832E1,2.7093017999999997E1,1.958175E1,6.9773096E1,1.3170891E1,,,,2,3,6,9,17,19,22,23,7,,,,1,15,10,15,7,12,1,10,1,,,,
1569941411,2019-10-01 14:50:11.808,Acquired,Acquired,Acquired,,Acquired,Acquired,Acquired,Not acquired,Not acquired,,,,3.10322976E2,9.910201599999999E1,2.6251736E2,,2.1040936E2,2.32074784E2,6.3353828E1,2.19344864E2,1.05565208E2,,,,2.9424809999999997E1,2.9027597999999998E1,6.538715599999999E1,,8.260057599999999E1,1.8038676E1,5.9367124E1,8.899657E0,1.058131E1,,,,2,3,6,,9,19,23,17,22,,,,2,3,16,,15,1,12,2,0,,,,
1569941471,2019-10-01 14:51:11.805,Acquired,Acquired,Acquired,,Acquired,Acquired,Acquired,Not acquired,Not acquired,,,,3.10322976E2,9.910201599999999E1,2.6251736E2,,2.1040936E2,2.32074784E2,6.3353828E1,2.19344864E2,1.05565208E2,,,,2.9424809999999997E1,2.9027597999999998E1,6.538715599999999E1,,8.260057599999999E1,1.8038676E1,5.9367124E1,8.899657E0,1.058131E1,,,,2,3,6,,9,19,23,17,22,,,,2,3,16,,15,1,12,2,0,,,,
1569941531,2019-10-01 14:52:11.767,Acquired,Acquired,Acquired,,Acquired,Acquired,Acquired,Not acquired,Not acquired,,,,3.10322976E2,9.910201599999999E1,2.6251736E2,,2.1040936E2,2.32074784E2,6.3353828E1,2.19344864E2,1.05565208E2,,,,2.9424809999999997E1,2.9027597999999998E1,6.538715599999999E1,,8.260057599999999E1,1.8038676E1,5.9367124E1,8.899657E0,1.058131E1,,,,2,3,6,,9,19,23,17,22,,,,2,3,16,,15,1,12,2,0,,,,
1569941591,2019-10-01 14:53:11.767,Acquired,Acquired,Acquired,,Acquired,Acquired,Acquired,Not acquired,Not acquired,,,,3.10322976E2,9.910201599999999E1,2.6251736E2,,2.1040936E2,2.32074784E2,6.3353828E1,2.19344864E2,1.05565208E2,,,,2.9424809999999997E1,2.9027597999999998E1,6.538715599999999E1,,8.260057599999999E1,1.8038676E1,5.9367124E1,8.899657E0,1.058131E1,,,,2,3,6,,9,19,23,17,22,,,,2,3,16,,15,1,12,2,0,,,,
1569941651,2019-10-01 14:54:11.767,Acquired,Acquired,Acquired,,Acquired,Acquired,Acquired,Not acquired,Not acquired,,,,3.10322976E2,9.910201599999999E1,2.6251736E2,,2.1040936E2,2.32074784E2,6.3353828E1,2.19344864E2,1.05565208E2,,,,2.9424809999999997E1,2.9027597999999998E1,6.538715599999999E1,,8.260057599999999E1,1.8038676E1,5.9367124E1,8.899657E0,1.058131E1,,,,2,3,6,,9,19,23,17,22,,,,2,3,16,,15,1,12,2,0,,,,
1569941711,2019-10-01 14:55:11.767,Acquired,Acquired,Acquired,,Acquired,Acquired,Acquired,Not acquired,Not acquired,,,,3.10322976E2,9.910201599999999E1,2.6251736E2,,2.1040936E2,2.32074784E2,6.3353828E1,2.19344864E2,1.05565208E2,,,,2.9424809999999997E1,2.9027597999999998E1,6.538715599999999E1,,8.260057599999999E1,1.8038676E1,5.9367124E1,8.899657E0,1.058131E1,,,,2,3,6,,9,19,23,17,22,,,,2,3,16,,15,1,12,2,0,,,,
1569941771,2019-10-01 14:56:11.767,Acquired,Acquired,Acquired,,Acquired,Acquired,Acquired,Not acquired,Not acquired,,,,3.10322976E2,9.910201599999999E1,2.6251736E2,,2.1040936E2,2.32074784E2,6.3353828E1,2.19344864E2,1.05565208E2,,,,2.9424809999999997E1,2.9027597999999998E1,6.538715599999999E1,,8.260057599999999E1,1.8038676E1,5.9367124E1,8.899657E0,1.058131E1,,,,2,3,6,,9,19,23,17,22,,,,2,3,16,,15,1,12,2,0,,,,
1569941831,2019-10-01 14:57:11.767,Acquired,Acquired,Acquired,,Acquired,Acquired,Acquired,Not acquired,Not acquired,,,,3.10322976E2,9.910201599999999E1,2.6251736E2,,2.1040936E2,2.32074784E2,6.3353828E1,2.19344864E2,1.05565208E2,,,,2.9424809999999997E1,2.9027597999999998E1,6.538715599999999E1,,8.260057599999999E1,1.8038676E1,5.9367124E1,8.899657E0,1.058131E1,,,,2,3,6,,9,19,23,17,22,,,,2,3,16,,15,1,12,2,0,,,,
1569941891,2019-10-01 14:58:11.767,Acquired,Acquired,Acquired,,Acquired,Acquired,Acquired,Not acquired,Not acquired,,,,3.10322976E2,9.910201599999999E1,2.6251736E2,,2.1040936E2,2.32074784E2,6.3353828E1,2.19344864E2,1.05565208E2,,,,2.9424809999999997E1,2.9027597999999998E1,6.538715599999999E1,,8.260057599999999E1,1.8038676E1,5.9367124E1,8.899657E0,1.058131E1,,,,2,3,6,,9,19,23,17,22,,,,2,3,16,,15,1,12,2,0,,,,
1569941951,2019-10-01 14:59:11.767,Acquired,Acquired,Acquired,,Acquired,Acquired,Acquired,Not acquired,Not acquired,,,,3.10322976E2,9.910201599999999E1,2.6251736E2,,2.1040936E2,2.32074784E2,6.3353828E1,2.19344864E2,1.05565208E2,,,,2.9424809999999997E1,2.9027597999999998E1,6.538715599999999E1,,8.260057599999999E1,1.8038676E1,5.9367124E1,8.899657E0,1.058131E1,,,,2,3,6,,9,19,23,17,22,,,,2,3,16,,15,1,12,2,0,,,,
