Time(longsecs),Time(UTC),External SOH Voltage 1(V),External SOH Voltage 2(V),External SOH Voltage 3(V),External SOH Voltage 4(V),Sensor SOH Voltage 1(V),Sensor SOH Voltage 2(V),Sensor SOH Voltage 3(V),
1571583630,2019-10-20 15:00:30.925,-2.1138191E-3,-1.234293E-3,7.039547E-3,5.3858757E-4,4.6499443E-1,4.650612E-1,4.6292973E-1,
1571583690,2019-10-20 15:01:30.925,-6.7892075E-3,-5.8016777E-3,2.575159E-3,-3.7198067E-3,4.5598507E-1,4.5663834E-1,4.5478725E-1,
1571583750,2019-10-20 15:02:30.925,-6.697893E-3,-5.8176517E-3,2.6445389E-3,-4.051447E-3,4.6247673E-1,4.6281815E-1,4.5915794E-1,
1571583810,2019-10-20 15:03:30.925,-4.213333E-3,-3.1986237E-3,5.1722527E-3,-1.5802383E-3,4.651451E-1,4.643793E-1,4.6333027E-1,
1571583870,2019-10-20 15:04:30.925,-6.5221786E-3,-5.8033466E-3,2.7153492E-3,-4.527092E-3,4.5468712E-1,4.552517E-1,4.5297623E-1,
1571583930,2019-10-20 15:05:30.925,-2.2318363E-3,-9.717941E-4,7.026911E-3,9.639263E-4,4.6821213E-1,4.6749306E-1,4.6560574E-1,
1571583990,2019-10-20 15:06:30.925,-4.72188E-3,-3.6728382E-3,4.3256283E-3,-2.071619E-3,4.629755E-1,4.6162796E-1,4.593115E-1,
1571584050,2019-10-20 15:07:30.925,-5.237341E-3,-3.9827824E-3,4.4624805E-3,-1.9536018E-3,4.6012306E-1,4.6052456E-1,4.573059E-1,
1571584110,2019-10-20 15:08:30.925,-2.3264885E-3,-1.8811226E-3,6.8092346E-3,5.276203E-4,4.6915245E-1,4.6934986E-1,4.6646404E-1,
1571584170,2019-10-20 15:09:30.925,-6.6018105E-3,-5.5024624E-3,3.0024052E-3,-4.2238235E-3,4.564867E-1,4.559307E-1,4.5451355E-1,
1571584230,2019-10-20 15:10:30.925,-4.301548E-3,-2.9716492E-3,4.900694E-3,-1.2776852E-3,4.6483803E-1,4.6316814E-1,4.6103764E-1,
1571584290,2019-10-20 15:11:30.925,-4.8348904E-3,-4.142761E-3,4.6975613E-3,-2.122879E-3,4.584856E-1,4.5878696E-1,4.55719E-1,
1571584350,2019-10-20 15:12:30.925,-2.4137497E-3,-1.5335083E-3,7.1525574E-3,5.226135E-4,4.701624E-1,4.7026062E-1,4.6750546E-1,
1571584410,2019-10-20 15:13:30.958,-2.69866E-3,-1.3554096E-3,6.599903E-3,3.6001205E-4,4.7579193E-1,4.7542858E-1,4.7301483E-1,
1571584470,2019-10-20 15:14:30.957,-3.942251E-3,-3.068924E-3,5.1059723E-3,-1.7700195E-3,4.667263E-1,4.6575356E-1,4.6192455E-1,
1571584530,2019-10-20 15:15:30.925,-2.2218227E-3,-1.4576912E-3,6.8085194E-3,2.6226044E-5,4.6787643E-1,4.6708584E-1,4.6484852E-1,
1571584590,2019-10-20 15:16:30.925,-5.109787E-3,-3.9794445E-3,4.172325E-3,-2.0062923E-3,4.641304E-1,4.6472073E-1,4.6162128E-1,
1571584650,2019-10-20 15:17:30.925,-6.850958E-3,-5.4614544E-3,2.6862621E-3,-3.7708282E-3,4.5667744E-1,4.579792E-1,4.5300674E-1,
1571584710,2019-10-20 15:18:30.925,-4.2312145E-3,-2.9640198E-3,5.1677227E-3,-2.0487309E-3,4.5942402E-1,4.586239E-1,4.5743656E-1,
1571584770,2019-10-20 15:19:30.925,-4.94051E-3,-3.8204193E-3,4.5411587E-3,-2.135992E-3,4.619131E-1,4.6071243E-1,4.5756435E-1,
1571584830,2019-10-20 15:20:30.925,-4.216194E-3,-3.2339096E-3,5.2444935E-3,-1.3928413E-3,4.6341705E-1,4.6300983E-1,4.6048927E-1,
1571584890,2019-10-20 15:21:30.957,-3.8824081E-3,-3.2429695E-3,5.10931E-3,-1.3473034E-3,4.6417713E-1,4.6357346E-1,4.6182537E-1,
1571584950,2019-10-20 15:22:30.925,-4.6761036E-3,-3.6640167E-3,4.396677E-3,-1.9652843E-3,4.6049118E-1,4.598446E-1,4.5832062E-1,
1571585010,2019-10-20 15:23:30.925,-2.1986961E-3,-1.3003349E-3,6.8542957E-3,5.636215E-4,4.7041512E-1,4.6995258E-1,4.6649456E-1,
1571585070,2019-10-20 15:24:30.925,-4.206419E-3,-3.1342506E-3,5.4159164E-3,-1.5618801E-3,4.6880913E-1,4.6946526E-1,4.6590805E-1,
1571585130,2019-10-20 15:25:30.925,-2.33078E-3,-1.3933182E-3,6.906271E-3,3.900528E-4,4.709425E-1,4.7085094E-1,4.687271E-1,
1571585190,2019-10-20 15:26:30.925,-4.2197704E-3,-3.1909943E-3,5.4705143E-3,-1.3277531E-3,4.6112633E-1,4.617548E-1,4.5851517E-1,
1571585250,2019-10-20 15:27:30.925,-2.150774E-3,-1.352787E-3,6.66523E-3,6.072521E-4,4.6486568E-1,4.6561432E-1,4.6285343E-1,
1571585310,2019-10-20 15:28:30.925,-2.0635128E-3,-1.440525E-3,7.1558952E-3,4.0388107E-4,4.6965408E-1,4.686613E-1,4.679308E-1,
1571585370,2019-10-20 15:29:30.925,-2.108574E-3,-1.7006397E-3,7.2431564E-3,6.246567E-4,4.701252E-1,4.6984673E-1,4.6789837E-1,
1571585430,2019-10-20 15:30:30.965,-4.8606396E-3,-3.8437843E-3,4.7290325E-3,-1.7170906E-3,4.6260262E-1,4.6187687E-1,4.6073627E-1,
1571585490,2019-10-20 15:31:30.926,-4.2033195E-3,-2.93684E-3,4.9011707E-3,-1.683712E-3,4.6344185E-1,4.641199E-1,4.603529E-1,
1571585550,2019-10-20 15:32:30.925,-4.1003227E-3,-3.2179356E-3,5.204439E-3,-1.2028217E-3,4.6662045E-1,4.6503925E-1,4.6307564E-1,
1571585610,2019-10-20 15:33:30.925,-2.092123E-3,-1.4190674E-3,7.048607E-3,4.851818E-4,4.6695995E-1,4.6783543E-1,4.6388817E-1,
1571585670,2019-10-20 15:34:30.925,-2.2892952E-3,-1.4801025E-3,6.7448616E-3,3.6859512E-4,4.6967316E-1,4.6797752E-1,4.674158E-1,
1571585730,2019-10-20 15:35:30.925,-2.2587776E-3,-1.4801025E-3,6.844759E-3,2.9706955E-4,4.7080708E-1,4.7154522E-1,4.687128E-1,
1571585790,2019-10-20 15:36:30.925,-4.367113E-3,-3.319025E-3,5.099058E-3,-1.3854504E-3,4.6401787E-1,4.6378708E-1,4.612322E-1,
1571585850,2019-10-20 15:37:30.925,-4.856348E-3,-4.1344166E-3,4.4510365E-3,-2.2346973E-3,4.6094608E-1,4.608717E-1,4.585905E-1,
1571585910,2019-10-20 15:38:30.925,-4.843235E-3,-3.462553E-3,4.5809746E-3,-2.2587776E-3,4.652195E-1,4.6499443E-1,4.62821E-1,
1571585970,2019-10-20 15:39:30.925,-6.4475536E-3,-5.8453083E-3,2.8760433E-3,-4.294634E-3,4.5431423E-1,4.5364285E-1,4.517069E-1,
1571586030,2019-10-20 15:40:30.930,-3.9634705E-3,-3.3464432E-3,5.1727295E-3,-1.2252331E-3,4.654789E-1,4.6609592E-1,4.6379185E-1,
1571586090,2019-10-20 15:41:30.925,-4.7945976E-3,-3.7686825E-3,4.3399334E-3,-2.2392273E-3,4.6594715E-1,4.6437073E-1,4.629383E-1,
1571586150,2019-10-20 15:42:30.925,-4.9710274E-3,-3.840208E-3,4.29368E-3,-1.8959045E-3,4.6055222E-1,4.6035004E-1,4.577589E-1,
1571586210,2019-10-20 15:43:30.927,-4.867792E-3,-3.8981438E-3,4.5797825E-3,-2.2268295E-3,4.6167946E-1,4.6075058E-1,4.579239E-1,
1571586270,2019-10-20 15:44:30.925,-1.9710064E-3,-1.5897751E-3,6.9918633E-3,5.3858757E-4,4.657402E-1,4.6603298E-1,4.6213245E-1,
1571586330,2019-10-20 15:45:30.926,-2.323389E-3,-1.5757084E-3,6.951332E-3,4.2033195E-4,4.7075653E-1,4.7043514E-1,4.6858406E-1,
1571586390,2019-10-20 15:46:30.925,-6.7486763E-3,-5.3749084E-3,2.870798E-3,-3.5924911E-3,4.5990372E-1,4.588585E-1,4.55616E-1,
1571586450,2019-10-20 15:47:30.925,-3.9975643E-3,-3.0663013E-3,5.346775E-3,-1.1796951E-3,4.656E-1,4.6464348E-1,4.6321392E-1,
1571586510,2019-10-20 15:48:30.927,-6.545782E-3,-5.6369305E-3,2.5982857E-3,-4.0590763E-3,4.5520592E-1,4.5401E-1,4.5297337E-1,
1571586570,2019-10-20 15:49:30.925,-4.196644E-3,-3.0591488E-3,4.787445E-3,-1.7704964E-3,4.6331406E-1,4.6262264E-1,4.6088886E-1,
1571586630,2019-10-20 15:50:30.925,-6.746292E-3,-5.8677197E-3,2.5041103E-3,-4.0225983E-3,4.5842838E-1,4.584465E-1,4.5659256E-1,
1571586690,2019-10-20 15:51:30.925,-2.1722317E-3,-1.5487671E-3,6.977558E-3,6.041527E-4,4.7024822E-1,4.6892548E-1,4.680195E-1,
1571586750,2019-10-20 15:52:30.925,-4.646063E-3,-3.7710667E-3,4.6150684E-3,-1.7809868E-3,4.624319E-1,4.6152115E-1,4.6025276E-1,
1571586810,2019-10-20 15:53:30.925,-4.7152042E-3,-3.792286E-3,4.4574738E-3,-2.316475E-3,4.692688E-1,4.68462E-1,4.668255E-1,
1571586870,2019-10-20 15:54:30.925,-2.5236607E-3,-1.4255047E-3,6.898403E-3,1.15156174E-4,4.6927738E-1,4.6754646E-1,4.6646404E-1,
1571586930,2019-10-20 15:55:30.927,-1.843214E-3,-1.0411739E-3,6.751299E-3,6.928444E-4,4.667759E-1,4.6543598E-1,4.6307373E-1,
1571586990,2019-10-20 15:56:30.926,-3.707409E-3,-2.9420853E-3,5.259514E-3,-1.3272762E-3,4.6439838E-1,4.6332932E-1,4.6042347E-1,
1571587050,2019-10-20 15:57:30.925,-2.555132E-3,-1.5792847E-3,7.142067E-3,2.1839142E-4,4.7705555E-1,4.7541428E-1,4.741602E-1,
1571587110,2019-10-20 15:58:30.927,-4.090786E-3,-3.1311512E-3,4.873991E-3,-1.1467934E-3,4.6534443E-1,4.6460438E-1,4.632616E-1,
1571587170,2019-10-20 15:59:30.954,-4.859209E-3,-3.8576126E-3,4.553318E-3,-1.9667149E-3,4.6042633E-1,4.5937157E-1,4.5850563E-1,
