Time(longsecs),Time(UTC),GPS Satellite Acquisition Flag 1,GPS Satellite Acquisition Flag 2,GPS Satellite Acquisition Flag 3,GPS Satellite Acquisition Flag 4,GPS Satellite Acquisition Flag 5,GPS Satellite Acquisition Flag 6,GPS Satellite Acquisition Flag 7,GPS Satellite Acquisition Flag 8,GPS Satellite Acquisition Flag 9,GPS Satellite Acquisition Flag 10,GPS Satellite Acquisition Flag 11,GPS Satellite Acquisition Flag 12,GPS Satellite Azimuth 1(Degrees),GPS Satellite Azimuth 2(Degrees),GPS Satellite Azimuth 3(Degrees),GPS Satellite Azimuth 4(Degrees),GPS Satellite Azimuth 5(Degrees),GPS Satellite Azimuth 6(Degrees),GPS Satellite Azimuth 7(Degrees),GPS Satellite Azimuth 8(Degrees),GPS Satellite Azimuth 9(Degrees),GPS Satellite Azimuth 10(Degrees),GPS Satellite Azimuth 11(Degrees),GPS Satellite Azimuth 12(Degrees),GPS Satellite Elevation 1(Degrees),GPS Satellite Elevation 2(Degrees),GPS Satellite Elevation 3(Degrees),GPS Satellite Elevation 4(Degrees),GPS Satellite Elevation 5(Degrees),GPS Satellite Elevation 6(Degrees),GPS Satellite Elevation 7(Degrees),GPS Satellite Elevation 8(Degrees),GPS Satellite Elevation 9(Degrees),GPS Satellite Elevation 10(Degrees),GPS Satellite Elevation 11(Degrees),GPS Satellite Elevation 12(Degrees),GPS Satellite PRN 1,GPS Satellite PRN 2,GPS Satellite PRN 3,GPS Satellite PRN 4,GPS Satellite PRN 5,GPS Satellite PRN 6,GPS Satellite PRN 7,GPS Satellite PRN 8,GPS Satellite PRN 9,GPS Satellite PRN 10,GPS Satellite PRN 11,GPS Satellite PRN 12,GPS Satellite Signal Level 1(AMU),GPS Satellite Signal Level 2(AMU),GPS Satellite Signal Level 3(AMU),GPS Satellite Signal Level 4(AMU),GPS Satellite Signal Level 5(AMU),GPS Satellite Signal Level 6(AMU),GPS Satellite Signal Level 7(AMU),GPS Satellite Signal Level 8(AMU),GPS Satellite Signal Level 9(AMU),GPS Satellite Signal Level 10(AMU),GPS Satellite Signal Level 11(AMU),GPS Satellite Signal Level 12(AMU),
1571385602,2019-10-18 08:00:02.472,Acquired,Acquired,Acquired,Acquired,Not acquired,Acquired,Acquired,Acquired,Acquired,Not acquired,,,2.6977216E2,1.97769824E2,5.4977475999999996E1,2.8599062399999997E2,1.29584136E2,2.1219700799999998E2,1.3674732799999998E2,3.23101856E2,1.06100768E2,4.9399968E1,,,3.8128735999999996E1,8.2680984E1,3.9707808E1,4.4276075999999996E1,1.4382033999999999E1,2.322702E1,4.6220192E1,1.6657408999999998E1,2.595813E1,1.2320915E1,,,1,8,10,11,14,22,27,28,32,20,,,4,10,3,8,2,2,2,8,2,0,,,
1571385662,2019-10-18 08:01:02.473,Acquired,Acquired,Acquired,Acquired,Not acquired,Acquired,Acquired,Acquired,Acquired,Not acquired,,,2.6977216E2,1.97769824E2,5.4977475999999996E1,2.8599062399999997E2,1.29584136E2,2.1219700799999998E2,1.3674732799999998E2,3.23101856E2,1.06100768E2,4.9399968E1,,,3.8128735999999996E1,8.2680984E1,3.9707808E1,4.4276075999999996E1,1.4382033999999999E1,2.322702E1,4.6220192E1,1.6657408999999998E1,2.595813E1,1.2320915E1,,,1,8,10,11,14,22,27,28,32,20,,,4,10,3,8,2,2,2,8,2,0,,,
1571385722,2019-10-18 08:02:02.472,Acquired,Acquired,Acquired,Acquired,Not acquired,Acquired,Acquired,Acquired,Acquired,Not acquired,,,2.6977216E2,1.97769824E2,5.4977475999999996E1,2.8599062399999997E2,1.29584136E2,2.1219700799999998E2,1.3674732799999998E2,3.23101856E2,1.06100768E2,4.9399968E1,,,3.8128735999999996E1,8.2680984E1,3.9707808E1,4.4276075999999996E1,1.4382033999999999E1,2.322702E1,4.6220192E1,1.6657408999999998E1,2.595813E1,1.2320915E1,,,1,8,10,11,14,22,27,28,32,20,,,4,10,3,8,2,2,2,8,2,0,,,
1571385782,2019-10-18 08:03:02.472,Acquired,Acquired,Acquired,Acquired,Not acquired,Acquired,Acquired,Acquired,Acquired,Not acquired,,,2.6977216E2,1.97769824E2,5.4977475999999996E1,2.8599062399999997E2,1.29584136E2,2.1219700799999998E2,1.3674732799999998E2,3.23101856E2,1.06100768E2,4.9399968E1,,,3.8128735999999996E1,8.2680984E1,3.9707808E1,4.4276075999999996E1,1.4382033999999999E1,2.322702E1,4.6220192E1,1.6657408999999998E1,2.595813E1,1.2320915E1,,,1,8,10,11,14,22,27,28,32,20,,,4,10,3,8,2,2,2,8,2,0,,,
1571385842,2019-10-18 08:04:02.472,Acquired,Acquired,Acquired,Acquired,Not acquired,Acquired,Acquired,Acquired,Acquired,Not acquired,,,2.6977216E2,1.97769824E2,5.4977475999999996E1,2.8599062399999997E2,1.29584136E2,2.1219700799999998E2,1.3674732799999998E2,3.23101856E2,1.06100768E2,4.9399968E1,,,3.8128735999999996E1,8.2680984E1,3.9707808E1,4.4276075999999996E1,1.4382033999999999E1,2.322702E1,4.6220192E1,1.6657408999999998E1,2.595813E1,1.2320915E1,,,1,8,10,11,14,22,27,28,32,20,,,4,10,3,8,2,2,2,8,2,0,,,
1571385902,2019-10-18 08:05:02.472,Acquired,Acquired,Acquired,Acquired,Not acquired,Acquired,Acquired,Acquired,Acquired,Not acquired,,,2.6977216E2,1.97769824E2,5.4977475999999996E1,2.8599062399999997E2,1.29584136E2,2.1219700799999998E2,1.3674732799999998E2,3.23101856E2,1.06100768E2,4.9399968E1,,,3.8128735999999996E1,8.2680984E1,3.9707808E1,4.4276075999999996E1,1.4382033999999999E1,2.322702E1,4.6220192E1,1.6657408999999998E1,2.595813E1,1.2320915E1,,,1,8,10,11,14,22,27,28,32,20,,,4,10,3,8,2,2,2,8,2,0,,,
1571385962,2019-10-18 08:06:02.472,Acquired,Acquired,Acquired,Acquired,Not acquired,Acquired,Acquired,Acquired,Acquired,Not acquired,,,2.6977216E2,1.97769824E2,5.4977475999999996E1,2.8599062399999997E2,1.29584136E2,2.1219700799999998E2,1.3674732799999998E2,3.23101856E2,1.06100768E2,4.9399968E1,,,3.8128735999999996E1,8.2680984E1,3.9707808E1,4.4276075999999996E1,1.4382033999999999E1,2.322702E1,4.6220192E1,1.6657408999999998E1,2.595813E1,1.2320915E1,,,1,8,10,11,14,22,27,28,32,20,,,4,10,3,8,2,2,2,8,2,0,,,
1571386022,2019-10-18 08:07:02.472,Acquired,Acquired,Acquired,Acquired,Not acquired,Acquired,Acquired,Acquired,Acquired,Not acquired,,,2.6977216E2,1.97769824E2,5.4977475999999996E1,2.8599062399999997E2,1.29584136E2,2.1219700799999998E2,1.3674732799999998E2,3.23101856E2,1.06100768E2,4.9399968E1,,,3.8128735999999996E1,8.2680984E1,3.9707808E1,4.4276075999999996E1,1.4382033999999999E1,2.322702E1,4.6220192E1,1.6657408999999998E1,2.595813E1,1.2320915E1,,,1,8,10,11,14,22,27,28,32,20,,,4,10,3,8,2,2,2,8,2,0,,,
1571386082,2019-10-18 08:08:02.472,Acquired,Acquired,Acquired,Acquired,Not acquired,Acquired,Acquired,Acquired,Acquired,Not acquired,,,2.6977216E2,1.97769824E2,5.4977475999999996E1,2.8599062399999997E2,1.29584136E2,2.1219700799999998E2,1.3674732799999998E2,3.23101856E2,1.06100768E2,4.9399968E1,,,3.8128735999999996E1,8.2680984E1,3.9707808E1,4.4276075999999996E1,1.4382033999999999E1,2.322702E1,4.6220192E1,1.6657408999999998E1,2.595813E1,1.2320915E1,,,1,8,10,11,14,22,27,28,32,20,,,4,10,3,8,2,2,2,8,2,0,,,
1571386142,2019-10-18 08:09:02.472,Acquired,Acquired,Acquired,Acquired,Not acquired,Acquired,Acquired,Acquired,Acquired,Not acquired,,,2.6977216E2,1.97769824E2,5.4977475999999996E1,2.8599062399999997E2,1.29584136E2,2.1219700799999998E2,1.3674732799999998E2,3.23101856E2,1.06100768E2,4.9399968E1,,,3.8128735999999996E1,8.2680984E1,3.9707808E1,4.4276075999999996E1,1.4382033999999999E1,2.322702E1,4.6220192E1,1.6657408999999998E1,2.595813E1,1.2320915E1,,,1,8,10,11,14,22,27,28,32,20,,,4,10,3,8,2,2,2,8,2,0,,,
1571386202,2019-10-18 08:10:02.472,Acquired,Acquired,Acquired,Acquired,Not acquired,Acquired,Acquired,Acquired,Acquired,Not acquired,,,2.6977216E2,1.97769824E2,5.4977475999999996E1,2.8599062399999997E2,1.29584136E2,2.1219700799999998E2,1.3674732799999998E2,3.23101856E2,1.06100768E2,4.9399968E1,,,3.8128735999999996E1,8.2680984E1,3.9707808E1,4.4276075999999996E1,1.4382033999999999E1,2.322702E1,4.6220192E1,1.6657408999999998E1,2.595813E1,1.2320915E1,,,1,8,10,11,14,22,27,28,32,20,,,4,10,3,8,2,2,2,8,2,0,,,
1571386262,2019-10-18 08:11:02.472,Acquired,Acquired,Acquired,Acquired,Not acquired,Acquired,Acquired,Acquired,Acquired,Not acquired,,,2.6977216E2,1.97769824E2,5.4977475999999996E1,2.8599062399999997E2,1.29584136E2,2.1219700799999998E2,1.3674732799999998E2,3.23101856E2,1.06100768E2,4.9399968E1,,,3.8128735999999996E1,8.2680984E1,3.9707808E1,4.4276075999999996E1,1.4382033999999999E1,2.322702E1,4.6220192E1,1.6657408999999998E1,2.595813E1,1.2320915E1,,,1,8,10,11,14,22,27,28,32,20,,,4,10,3,8,2,2,2,8,2,0,,,
1571386322,2019-10-18 08:12:02.472,Acquired,Acquired,Acquired,Acquired,Not acquired,Acquired,Acquired,Acquired,Acquired,Not acquired,,,2.6977216E2,1.97769824E2,5.4977475999999996E1,2.8599062399999997E2,1.29584136E2,2.1219700799999998E2,1.3674732799999998E2,3.23101856E2,1.06100768E2,4.9399968E1,,,3.8128735999999996E1,8.2680984E1,3.9707808E1,4.4276075999999996E1,1.4382033999999999E1,2.322702E1,4.6220192E1,1.6657408999999998E1,2.595813E1,1.2320915E1,,,1,8,10,11,14,22,27,28,32,20,,,4,10,3,8,2,2,2,8,2,0,,,
1571386382,2019-10-18 08:13:02.472,Acquired,Acquired,Acquired,Acquired,Not acquired,Acquired,Acquired,Acquired,Acquired,Not acquired,,,2.6977216E2,1.97769824E2,5.4977475999999996E1,2.8599062399999997E2,1.29584136E2,2.1219700799999998E2,1.3674732799999998E2,3.23101856E2,1.06100768E2,4.9399968E1,,,3.8128735999999996E1,8.2680984E1,3.9707808E1,4.4276075999999996E1,1.4382033999999999E1,2.322702E1,4.6220192E1,1.6657408999999998E1,2.595813E1,1.2320915E1,,,1,8,10,11,14,22,27,28,32,20,,,4,10,3,8,2,2,2,8,2,0,,,
1571386442,2019-10-18 08:14:02.472,Acquired,Acquired,Acquired,Acquired,Not acquired,Acquired,Acquired,Acquired,Acquired,Not acquired,,,2.6977216E2,1.97769824E2,5.4977475999999996E1,2.8599062399999997E2,1.29584136E2,2.1219700799999998E2,1.3674732799999998E2,3.23101856E2,1.06100768E2,4.9399968E1,,,3.8128735999999996E1,8.2680984E1,3.9707808E1,4.4276075999999996E1,1.4382033999999999E1,2.322702E1,4.6220192E1,1.6657408999999998E1,2.595813E1,1.2320915E1,,,1,8,10,11,14,22,27,28,32,20,,,4,10,3,8,2,2,2,8,2,0,,,
1571386502,2019-10-18 08:15:02.472,Acquired,Acquired,Acquired,Acquired,Not acquired,Acquired,Acquired,Acquired,Acquired,Not acquired,,,2.6977216E2,1.97769824E2,5.4977475999999996E1,2.8599062399999997E2,1.29584136E2,2.1219700799999998E2,1.3674732799999998E2,3.23101856E2,1.06100768E2,4.9399968E1,,,3.8128735999999996E1,8.2680984E1,3.9707808E1,4.4276075999999996E1,1.4382033999999999E1,2.322702E1,4.6220192E1,1.6657408999999998E1,2.595813E1,1.2320915E1,,,1,8,10,11,14,22,27,28,32,20,,,4,10,3,8,2,2,2,8,2,0,,,
1571386562,2019-10-18 08:16:02.472,Acquired,Acquired,Acquired,Acquired,Not acquired,Acquired,Acquired,Acquired,Acquired,Not acquired,,,2.6977216E2,1.97769824E2,5.4977475999999996E1,2.8599062399999997E2,1.29584136E2,2.1219700799999998E2,1.3674732799999998E2,3.23101856E2,1.06100768E2,4.9399968E1,,,3.8128735999999996E1,8.2680984E1,3.9707808E1,4.4276075999999996E1,1.4382033999999999E1,2.322702E1,4.6220192E1,1.6657408999999998E1,2.595813E1,1.2320915E1,,,1,8,10,11,14,22,27,28,32,20,,,4,10,3,8,2,2,2,8,2,0,,,
1571386622,2019-10-18 08:17:02.472,Acquired,Acquired,Acquired,Acquired,Not acquired,Acquired,Acquired,Acquired,Acquired,Not acquired,,,2.6977216E2,1.97769824E2,5.4977475999999996E1,2.8599062399999997E2,1.29584136E2,2.1219700799999998E2,1.3674732799999998E2,3.23101856E2,1.06100768E2,4.9399968E1,,,3.8128735999999996E1,8.2680984E1,3.9707808E1,4.4276075999999996E1,1.4382033999999999E1,2.322702E1,4.6220192E1,1.6657408999999998E1,2.595813E1,1.2320915E1,,,1,8,10,11,14,22,27,28,32,20,,,4,10,3,8,2,2,2,8,2,0,,,
1571386682,2019-10-18 08:18:02.473,Acquired,Acquired,Acquired,Acquired,Not acquired,Acquired,Acquired,Acquired,Acquired,Not acquired,,,2.6977216E2,1.97769824E2,5.4977475999999996E1,2.8599062399999997E2,1.29584136E2,2.1219700799999998E2,1.3674732799999998E2,3.23101856E2,1.06100768E2,4.9399968E1,,,3.8128735999999996E1,8.2680984E1,3.9707808E1,4.4276075999999996E1,1.4382033999999999E1,2.322702E1,4.6220192E1,1.6657408999999998E1,2.595813E1,1.2320915E1,,,1,8,10,11,14,22,27,28,32,20,,,4,10,3,8,2,2,2,8,2,0,,,
1571386742,2019-10-18 08:19:02.473,Acquired,Acquired,Acquired,Acquired,Not acquired,Acquired,Acquired,Acquired,Acquired,Not acquired,,,2.6977216E2,1.97769824E2,5.4977475999999996E1,2.8599062399999997E2,1.29584136E2,2.1219700799999998E2,1.3674732799999998E2,3.23101856E2,1.06100768E2,4.9399968E1,,,3.8128735999999996E1,8.2680984E1,3.9707808E1,4.4276075999999996E1,1.4382033999999999E1,2.322702E1,4.6220192E1,1.6657408999999998E1,2.595813E1,1.2320915E1,,,1,8,10,11,14,22,27,28,32,20,,,4,10,3,8,2,2,2,8,2,0,,,
1571386802,2019-10-18 08:20:02.473,Acquired,Acquired,Acquired,Acquired,Not acquired,Acquired,Acquired,Acquired,Acquired,Not acquired,,,2.6977216E2,1.97769824E2,5.4977475999999996E1,2.8599062399999997E2,1.29584136E2,2.1219700799999998E2,1.3674732799999998E2,3.23101856E2,1.06100768E2,4.9399968E1,,,3.8128735999999996E1,8.2680984E1,3.9707808E1,4.4276075999999996E1,1.4382033999999999E1,2.322702E1,4.6220192E1,1.6657408999999998E1,2.595813E1,1.2320915E1,,,1,8,10,11,14,22,27,28,32,20,,,4,10,3,8,2,2,2,8,2,0,,,
1571386862,2019-10-18 08:21:02.472,Acquired,Acquired,Acquired,Acquired,Not acquired,Acquired,Acquired,Acquired,Acquired,Not acquired,,,2.6977216E2,1.97769824E2,5.4977475999999996E1,2.8599062399999997E2,1.29584136E2,2.1219700799999998E2,1.3674732799999998E2,3.23101856E2,1.06100768E2,4.9399968E1,,,3.8128735999999996E1,8.2680984E1,3.9707808E1,4.4276075999999996E1,1.4382033999999999E1,2.322702E1,4.6220192E1,1.6657408999999998E1,2.595813E1,1.2320915E1,,,1,8,10,11,14,22,27,28,32,20,,,4,10,3,8,2,2,2,8,2,0,,,
1571386922,2019-10-18 08:22:02.476,Acquired,Acquired,Acquired,Acquired,Not acquired,Acquired,Acquired,Acquired,Acquired,Not acquired,,,2.6977216E2,1.97769824E2,5.4977475999999996E1,2.8599062399999997E2,1.29584136E2,2.1219700799999998E2,1.3674732799999998E2,3.23101856E2,1.06100768E2,4.9399968E1,,,3.8128735999999996E1,8.2680984E1,3.9707808E1,4.4276075999999996E1,1.4382033999999999E1,2.322702E1,4.6220192E1,1.6657408999999998E1,2.595813E1,1.2320915E1,,,1,8,10,11,14,22,27,28,32,20,,,4,10,3,8,2,2,2,8,2,0,,,
1571386982,2019-10-18 08:23:02.473,Acquired,Acquired,Acquired,Acquired,Not acquired,Acquired,Acquired,Acquired,Acquired,Not acquired,,,2.6977216E2,1.97769824E2,5.4977475999999996E1,2.8599062399999997E2,1.29584136E2,2.1219700799999998E2,1.3674732799999998E2,3.23101856E2,1.06100768E2,4.9399968E1,,,3.8128735999999996E1,8.2680984E1,3.9707808E1,4.4276075999999996E1,1.4382033999999999E1,2.322702E1,4.6220192E1,1.6657408999999998E1,2.595813E1,1.2320915E1,,,1,8,10,11,14,22,27,28,32,20,,,4,10,3,8,2,2,2,8,2,0,,,
1571387042,2019-10-18 08:24:02.511,Acquired,Acquired,Acquired,Acquired,Not acquired,Acquired,Acquired,Acquired,Acquired,Not acquired,,,2.6977216E2,1.97769824E2,5.4977475999999996E1,2.8599062399999997E2,1.29584136E2,2.1219700799999998E2,1.3674732799999998E2,3.23101856E2,1.06100768E2,4.9399968E1,,,3.8128735999999996E1,8.2680984E1,3.9707808E1,4.4276075999999996E1,1.4382033999999999E1,2.322702E1,4.6220192E1,1.6657408999999998E1,2.595813E1,1.2320915E1,,,1,8,10,11,14,22,27,28,32,20,,,4,10,3,8,2,2,2,8,2,0,,,
1571387102,2019-10-18 08:25:02.475,Acquired,Acquired,Acquired,Acquired,Not acquired,Acquired,Acquired,Acquired,Acquired,Not acquired,,,2.6977216E2,1.97769824E2,5.4977475999999996E1,2.8599062399999997E2,1.29584136E2,2.1219700799999998E2,1.3674732799999998E2,3.23101856E2,1.06100768E2,4.9399968E1,,,3.8128735999999996E1,8.2680984E1,3.9707808E1,4.4276075999999996E1,1.4382033999999999E1,2.322702E1,4.6220192E1,1.6657408999999998E1,2.595813E1,1.2320915E1,,,1,8,10,11,14,22,27,28,32,20,,,4,10,3,8,2,2,2,8,2,0,,,
1571387162,2019-10-18 08:26:02.472,Acquired,Acquired,Acquired,Acquired,Not acquired,Acquired,Acquired,Acquired,Acquired,Not acquired,,,2.6977216E2,1.97769824E2,5.4977475999999996E1,2.8599062399999997E2,1.29584136E2,2.1219700799999998E2,1.3674732799999998E2,3.23101856E2,1.06100768E2,4.9399968E1,,,3.8128735999999996E1,8.2680984E1,3.9707808E1,4.4276075999999996E1,1.4382033999999999E1,2.322702E1,4.6220192E1,1.6657408999999998E1,2.595813E1,1.2320915E1,,,1,8,10,11,14,22,27,28,32,20,,,4,10,3,8,2,2,2,8,2,0,,,
1571387222,2019-10-18 08:27:02.472,Acquired,Acquired,Acquired,Acquired,Not acquired,Acquired,Acquired,Acquired,Acquired,Not acquired,,,2.6977216E2,1.97769824E2,5.4977475999999996E1,2.8599062399999997E2,1.29584136E2,2.1219700799999998E2,1.3674732799999998E2,3.23101856E2,1.06100768E2,4.9399968E1,,,3.8128735999999996E1,8.2680984E1,3.9707808E1,4.4276075999999996E1,1.4382033999999999E1,2.322702E1,4.6220192E1,1.6657408999999998E1,2.595813E1,1.2320915E1,,,1,8,10,11,14,22,27,28,32,20,,,4,10,3,8,2,2,2,8,2,0,,,
1571387282,2019-10-18 08:28:02.472,Acquired,Acquired,Acquired,Acquired,Not acquired,Acquired,Acquired,Acquired,Acquired,Not acquired,,,2.6977216E2,1.97769824E2,5.4977475999999996E1,2.8599062399999997E2,1.29584136E2,2.1219700799999998E2,1.3674732799999998E2,3.23101856E2,1.06100768E2,4.9399968E1,,,3.8128735999999996E1,8.2680984E1,3.9707808E1,4.4276075999999996E1,1.4382033999999999E1,2.322702E1,4.6220192E1,1.6657408999999998E1,2.595813E1,1.2320915E1,,,1,8,10,11,14,22,27,28,32,20,,,4,10,3,8,2,2,2,8,2,0,,,
1571387342,2019-10-18 08:29:02.505,Acquired,Acquired,Acquired,Acquired,Not acquired,Acquired,Acquired,Acquired,Acquired,Not acquired,,,2.6977216E2,1.97769824E2,5.4977475999999996E1,2.8599062399999997E2,1.29584136E2,2.1219700799999998E2,1.3674732799999998E2,3.23101856E2,1.06100768E2,4.9399968E1,,,3.8128735999999996E1,8.2680984E1,3.9707808E1,4.4276075999999996E1,1.4382033999999999E1,2.322702E1,4.6220192E1,1.6657408999999998E1,2.595813E1,1.2320915E1,,,1,8,10,11,14,22,27,28,32,20,,,4,10,3,8,2,2,2,8,2,0,,,
1571387402,2019-10-18 08:30:02.472,Acquired,Acquired,Acquired,Acquired,Not acquired,Acquired,Acquired,Acquired,Acquired,Not acquired,,,2.6977216E2,1.97769824E2,5.4977475999999996E1,2.8599062399999997E2,1.29584136E2,2.1219700799999998E2,1.3674732799999998E2,3.23101856E2,1.06100768E2,4.9399968E1,,,3.8128735999999996E1,8.2680984E1,3.9707808E1,4.4276075999999996E1,1.4382033999999999E1,2.322702E1,4.6220192E1,1.6657408999999998E1,2.595813E1,1.2320915E1,,,1,8,10,11,14,22,27,28,32,20,,,4,10,3,8,2,2,2,8,2,0,,,
1571387462,2019-10-18 08:31:02.472,Acquired,Acquired,Acquired,Acquired,Not acquired,Acquired,Acquired,Acquired,Acquired,Not acquired,,,2.6977216E2,1.97769824E2,5.4977475999999996E1,2.8599062399999997E2,1.29584136E2,2.1219700799999998E2,1.3674732799999998E2,3.23101856E2,1.06100768E2,4.9399968E1,,,3.8128735999999996E1,8.2680984E1,3.9707808E1,4.4276075999999996E1,1.4382033999999999E1,2.322702E1,4.6220192E1,1.6657408999999998E1,2.595813E1,1.2320915E1,,,1,8,10,11,14,22,27,28,32,20,,,4,10,3,8,2,2,2,8,2,0,,,
1571387522,2019-10-18 08:32:02.473,Acquired,Acquired,Acquired,Acquired,Not acquired,Acquired,Acquired,Acquired,Acquired,Not acquired,,,2.6977216E2,1.97769824E2,5.4977475999999996E1,2.8599062399999997E2,1.29584136E2,2.1219700799999998E2,1.3674732799999998E2,3.23101856E2,1.06100768E2,4.9399968E1,,,3.8128735999999996E1,8.2680984E1,3.9707808E1,4.4276075999999996E1,1.4382033999999999E1,2.322702E1,4.6220192E1,1.6657408999999998E1,2.595813E1,1.2320915E1,,,1,8,10,11,14,22,27,28,32,20,,,4,10,3,8,2,2,2,8,2,0,,,
1571387582,2019-10-18 08:33:02.472,Acquired,Acquired,Acquired,Acquired,Not acquired,Acquired,Acquired,Acquired,Acquired,Not acquired,,,2.6977216E2,1.97769824E2,5.4977475999999996E1,2.8599062399999997E2,1.29584136E2,2.1219700799999998E2,1.3674732799999998E2,3.23101856E2,1.06100768E2,4.9399968E1,,,3.8128735999999996E1,8.2680984E1,3.9707808E1,4.4276075999999996E1,1.4382033999999999E1,2.322702E1,4.6220192E1,1.6657408999999998E1,2.595813E1,1.2320915E1,,,1,8,10,11,14,22,27,28,32,20,,,4,10,3,8,2,2,2,8,2,0,,,
1571387642,2019-10-18 08:34:02.473,Acquired,Acquired,Acquired,Acquired,Not acquired,Acquired,Acquired,Acquired,Acquired,Not acquired,,,2.6977216E2,1.97769824E2,5.4977475999999996E1,2.8599062399999997E2,1.29584136E2,2.1219700799999998E2,1.3674732799999998E2,3.23101856E2,1.06100768E2,4.9399968E1,,,3.8128735999999996E1,8.2680984E1,3.9707808E1,4.4276075999999996E1,1.4382033999999999E1,2.322702E1,4.6220192E1,1.6657408999999998E1,2.595813E1,1.2320915E1,,,1,8,10,11,14,22,27,28,32,20,,,4,10,3,8,2,2,2,8,2,0,,,
1571387702,2019-10-18 08:35:02.472,Acquired,Acquired,Acquired,Acquired,Not acquired,Acquired,Acquired,Acquired,Acquired,Not acquired,,,2.6977216E2,1.97769824E2,5.4977475999999996E1,2.8599062399999997E2,1.29584136E2,2.1219700799999998E2,1.3674732799999998E2,3.23101856E2,1.06100768E2,4.9399968E1,,,3.8128735999999996E1,8.2680984E1,3.9707808E1,4.4276075999999996E1,1.4382033999999999E1,2.322702E1,4.6220192E1,1.6657408999999998E1,2.595813E1,1.2320915E1,,,1,8,10,11,14,22,27,28,32,20,,,4,10,3,8,2,2,2,8,2,0,,,
1571387762,2019-10-18 08:36:02.510,Acquired,Acquired,Acquired,Acquired,Not acquired,Acquired,Acquired,Acquired,Acquired,Not acquired,,,2.6977216E2,1.97769824E2,5.4977475999999996E1,2.8599062399999997E2,1.29584136E2,2.1219700799999998E2,1.3674732799999998E2,3.23101856E2,1.06100768E2,4.9399968E1,,,3.8128735999999996E1,8.2680984E1,3.9707808E1,4.4276075999999996E1,1.4382033999999999E1,2.322702E1,4.6220192E1,1.6657408999999998E1,2.595813E1,1.2320915E1,,,1,8,10,11,14,22,27,28,32,20,,,4,10,3,8,2,2,2,8,2,0,,,
1571387822,2019-10-18 08:37:02.475,Acquired,Acquired,Acquired,Acquired,Not acquired,Acquired,Acquired,Acquired,Acquired,Not acquired,,,2.6977216E2,1.97769824E2,5.4977475999999996E1,2.8599062399999997E2,1.29584136E2,2.1219700799999998E2,1.3674732799999998E2,3.23101856E2,1.06100768E2,4.9399968E1,,,3.8128735999999996E1,8.2680984E1,3.9707808E1,4.4276075999999996E1,1.4382033999999999E1,2.322702E1,4.6220192E1,1.6657408999999998E1,2.595813E1,1.2320915E1,,,1,8,10,11,14,22,27,28,32,20,,,4,10,3,8,2,2,2,8,2,0,,,
1571387882,2019-10-18 08:38:02.472,Acquired,Acquired,Acquired,Acquired,Not acquired,Acquired,Acquired,Acquired,Acquired,Not acquired,,,2.6977216E2,1.97769824E2,5.4977475999999996E1,2.8599062399999997E2,1.29584136E2,2.1219700799999998E2,1.3674732799999998E2,3.23101856E2,1.06100768E2,4.9399968E1,,,3.8128735999999996E1,8.2680984E1,3.9707808E1,4.4276075999999996E1,1.4382033999999999E1,2.322702E1,4.6220192E1,1.6657408999999998E1,2.595813E1,1.2320915E1,,,1,8,10,11,14,22,27,28,32,20,,,4,10,3,8,2,2,2,8,2,0,,,
1571387942,2019-10-18 08:39:02.472,Acquired,Acquired,Acquired,Acquired,Not acquired,Acquired,Acquired,Acquired,Acquired,Not acquired,,,2.6977216E2,1.97769824E2,5.4977475999999996E1,2.8599062399999997E2,1.29584136E2,2.1219700799999998E2,1.3674732799999998E2,3.23101856E2,1.06100768E2,4.9399968E1,,,3.8128735999999996E1,8.2680984E1,3.9707808E1,4.4276075999999996E1,1.4382033999999999E1,2.322702E1,4.6220192E1,1.6657408999999998E1,2.595813E1,1.2320915E1,,,1,8,10,11,14,22,27,28,32,20,,,4,10,3,8,2,2,2,8,2,0,,,
1571388002,2019-10-18 08:40:02.475,Acquired,Acquired,Acquired,Acquired,Not acquired,Acquired,Acquired,Acquired,Acquired,Not acquired,,,2.6977216E2,1.97769824E2,5.4977475999999996E1,2.8599062399999997E2,1.29584136E2,2.1219700799999998E2,1.3674732799999998E2,3.23101856E2,1.06100768E2,4.9399968E1,,,3.8128735999999996E1,8.2680984E1,3.9707808E1,4.4276075999999996E1,1.4382033999999999E1,2.322702E1,4.6220192E1,1.6657408999999998E1,2.595813E1,1.2320915E1,,,1,8,10,11,14,22,27,28,32,20,,,4,10,3,8,2,2,2,8,2,0,,,
1571388062,2019-10-18 08:41:02.472,Acquired,Acquired,Acquired,Acquired,Not acquired,Acquired,Acquired,Acquired,Acquired,Not acquired,,,2.6977216E2,1.97769824E2,5.4977475999999996E1,2.8599062399999997E2,1.29584136E2,2.1219700799999998E2,1.3674732799999998E2,3.23101856E2,1.06100768E2,4.9399968E1,,,3.8128735999999996E1,8.2680984E1,3.9707808E1,4.4276075999999996E1,1.4382033999999999E1,2.322702E1,4.6220192E1,1.6657408999999998E1,2.595813E1,1.2320915E1,,,1,8,10,11,14,22,27,28,32,20,,,4,10,3,8,2,2,2,8,2,0,,,
1571388122,2019-10-18 08:42:02.475,Acquired,Acquired,Acquired,Acquired,Not acquired,Acquired,Acquired,Acquired,Acquired,Not acquired,,,2.6977216E2,1.97769824E2,5.4977475999999996E1,2.8599062399999997E2,1.29584136E2,2.1219700799999998E2,1.3674732799999998E2,3.23101856E2,1.06100768E2,4.9399968E1,,,3.8128735999999996E1,8.2680984E1,3.9707808E1,4.4276075999999996E1,1.4382033999999999E1,2.322702E1,4.6220192E1,1.6657408999999998E1,2.595813E1,1.2320915E1,,,1,8,10,11,14,22,27,28,32,20,,,4,10,3,8,2,2,2,8,2,0,,,
1571388182,2019-10-18 08:43:02.473,Acquired,Acquired,Acquired,Acquired,Not acquired,Acquired,Acquired,Acquired,Acquired,Not acquired,,,2.6977216E2,1.97769824E2,5.4977475999999996E1,2.8599062399999997E2,1.29584136E2,2.1219700799999998E2,1.3674732799999998E2,3.23101856E2,1.06100768E2,4.9399968E1,,,3.8128735999999996E1,8.2680984E1,3.9707808E1,4.4276075999999996E1,1.4382033999999999E1,2.322702E1,4.6220192E1,1.6657408999999998E1,2.595813E1,1.2320915E1,,,1,8,10,11,14,22,27,28,32,20,,,4,10,3,8,2,2,2,8,2,0,,,
1571388242,2019-10-18 08:44:02.472,Acquired,Acquired,Acquired,Acquired,Not acquired,Acquired,Acquired,Acquired,Acquired,Not acquired,,,2.6977216E2,1.97769824E2,5.4977475999999996E1,2.8599062399999997E2,1.29584136E2,2.1219700799999998E2,1.3674732799999998E2,3.23101856E2,1.06100768E2,4.9399968E1,,,3.8128735999999996E1,8.2680984E1,3.9707808E1,4.4276075999999996E1,1.4382033999999999E1,2.322702E1,4.6220192E1,1.6657408999999998E1,2.595813E1,1.2320915E1,,,1,8,10,11,14,22,27,28,32,20,,,4,10,3,8,2,2,2,8,2,0,,,
1571388302,2019-10-18 08:45:02.473,Acquired,Acquired,Acquired,Acquired,Not acquired,Acquired,Acquired,Acquired,Acquired,Not acquired,,,2.6977216E2,1.97769824E2,5.4977475999999996E1,2.8599062399999997E2,1.29584136E2,2.1219700799999998E2,1.3674732799999998E2,3.23101856E2,1.06100768E2,4.9399968E1,,,3.8128735999999996E1,8.2680984E1,3.9707808E1,4.4276075999999996E1,1.4382033999999999E1,2.322702E1,4.6220192E1,1.6657408999999998E1,2.595813E1,1.2320915E1,,,1,8,10,11,14,22,27,28,32,20,,,4,10,3,8,2,2,2,8,2,0,,,
1571388362,2019-10-18 08:46:02.473,Acquired,Acquired,Acquired,Acquired,Not acquired,Acquired,Acquired,Acquired,Acquired,Not acquired,,,2.7009824E2,1.94977152E2,5.4766639999999995E1,2.8617587199999997E2,1.2930799199999998E2,2.1231511999999998E2,1.3699763199999998E2,3.22844128E2,1.0568924E2,4.9412136E1,,,3.8525796E1,8.2355088E1,3.9319564E1,4.4722007999999995E1,1.4750905E1,2.3680153999999998E1,4.574646E1,1.6952486E1,2.6244358E1,1.1920501999999999E1,,,1,8,10,11,14,22,27,28,32,20,,,8,11,2,11,2,1,6,9,1,0,,,
1571388422,2019-10-18 08:47:02.472,Acquired,Acquired,,,Acquired,Acquired,Acquired,Acquired,Acquired,Acquired,,,2.87523936E2,2.2020961599999998E2,,,2.91106176E2,1.1403937599999999E2,2.19049216E2,1.46256912E2,3.06645376E2,8.309427199999999E1,,,5.7740772E1,2.2244532E1,,,6.582506E1,3.0819339999999997E1,4.4973555999999995E1,2.4646815999999998E1,2.6952237999999998E1,3.5277332E1,,,1,3,,,11,14,22,27,28,32,,,6,2,,,9,3,1,1,6,3,,,
1571388482,2019-10-18 08:48:02.472,Acquired,Acquired,,,Acquired,Acquired,Acquired,Acquired,Acquired,Acquired,,,2.87523936E2,2.2020961599999998E2,,,2.91106176E2,1.1403937599999999E2,2.19049216E2,1.46256912E2,3.06645376E2,8.309427199999999E1,,,5.7740772E1,2.2244532E1,,,6.582506E1,3.0819339999999997E1,4.4973555999999995E1,2.4646815999999998E1,2.6952237999999998E1,3.5277332E1,,,1,3,,,11,14,22,27,28,32,,,6,2,,,9,3,1,1,6,3,,,
1571388542,2019-10-18 08:49:02.472,Acquired,Acquired,,,Acquired,Acquired,Acquired,Acquired,Acquired,Acquired,,,2.87523936E2,2.2020961599999998E2,,,2.91106176E2,1.1403937599999999E2,2.19049216E2,1.46256912E2,3.06645376E2,8.309427199999999E1,,,5.7740772E1,2.2244532E1,,,6.582506E1,3.0819339999999997E1,4.4973555999999995E1,2.4646815999999998E1,2.6952237999999998E1,3.5277332E1,,,1,3,,,11,14,22,27,28,32,,,6,2,,,9,3,1,1,6,3,,,
1571388602,2019-10-18 08:50:02.475,Acquired,Acquired,,,Acquired,Acquired,Acquired,Acquired,Acquired,Acquired,,,2.87523936E2,2.2020961599999998E2,,,2.91106176E2,1.1403937599999999E2,2.19049216E2,1.46256912E2,3.06645376E2,8.309427199999999E1,,,5.7740772E1,2.2244532E1,,,6.582506E1,3.0819339999999997E1,4.4973555999999995E1,2.4646815999999998E1,2.6952237999999998E1,3.5277332E1,,,1,3,,,11,14,22,27,28,32,,,6,2,,,9,3,1,1,6,3,,,
1571388662,2019-10-18 08:51:02.472,Acquired,Acquired,,,Acquired,Acquired,Acquired,Acquired,Acquired,Acquired,,,2.87523936E2,2.2020961599999998E2,,,2.91106176E2,1.1403937599999999E2,2.19049216E2,1.46256912E2,3.06645376E2,8.309427199999999E1,,,5.7740772E1,2.2244532E1,,,6.582506E1,3.0819339999999997E1,4.4973555999999995E1,2.4646815999999998E1,2.6952237999999998E1,3.5277332E1,,,1,3,,,11,14,22,27,28,32,,,6,2,,,9,3,1,1,6,3,,,
1571388722,2019-10-18 08:52:02.472,Acquired,Acquired,,,Acquired,Acquired,Acquired,Acquired,Acquired,Acquired,,,2.87523936E2,2.2020961599999998E2,,,2.91106176E2,1.1403937599999999E2,2.19049216E2,1.46256912E2,3.06645376E2,8.309427199999999E1,,,5.7740772E1,2.2244532E1,,,6.582506E1,3.0819339999999997E1,4.4973555999999995E1,2.4646815999999998E1,2.6952237999999998E1,3.5277332E1,,,1,3,,,11,14,22,27,28,32,,,6,2,,,9,3,1,1,6,3,,,
1571388782,2019-10-18 08:53:02.472,Acquired,Acquired,,,Acquired,Acquired,Acquired,Acquired,Acquired,Acquired,,,2.87523936E2,2.2020961599999998E2,,,2.91106176E2,1.1403937599999999E2,2.19049216E2,1.46256912E2,3.06645376E2,8.309427199999999E1,,,5.7740772E1,2.2244532E1,,,6.582506E1,3.0819339999999997E1,4.4973555999999995E1,2.4646815999999998E1,2.6952237999999998E1,3.5277332E1,,,1,3,,,11,14,22,27,28,32,,,6,2,,,9,3,1,1,6,3,,,
1571388842,2019-10-18 08:54:02.473,Acquired,Acquired,,,Acquired,Acquired,Acquired,Acquired,Acquired,Acquired,,,2.87523936E2,2.2020961599999998E2,,,2.91106176E2,1.1403937599999999E2,2.19049216E2,1.46256912E2,3.06645376E2,8.309427199999999E1,,,5.7740772E1,2.2244532E1,,,6.582506E1,3.0819339999999997E1,4.4973555999999995E1,2.4646815999999998E1,2.6952237999999998E1,3.5277332E1,,,1,3,,,11,14,22,27,28,32,,,6,2,,,9,3,1,1,6,3,,,
1571388902,2019-10-18 08:55:02.505,Acquired,Acquired,,,Acquired,Acquired,Acquired,Acquired,Acquired,Acquired,,,2.87523936E2,2.2020961599999998E2,,,2.91106176E2,1.1403937599999999E2,2.19049216E2,1.46256912E2,3.06645376E2,8.309427199999999E1,,,5.7740772E1,2.2244532E1,,,6.582506E1,3.0819339999999997E1,4.4973555999999995E1,2.4646815999999998E1,2.6952237999999998E1,3.5277332E1,,,1,3,,,11,14,22,27,28,32,,,6,2,,,9,3,1,1,6,3,,,
1571388962,2019-10-18 08:56:02.472,Acquired,Acquired,,,Acquired,Acquired,Acquired,Acquired,Acquired,Acquired,,,2.87523936E2,2.2020961599999998E2,,,2.91106176E2,1.1403937599999999E2,2.19049216E2,1.46256912E2,3.06645376E2,8.309427199999999E1,,,5.7740772E1,2.2244532E1,,,6.582506E1,3.0819339999999997E1,4.4973555999999995E1,2.4646815999999998E1,2.6952237999999998E1,3.5277332E1,,,1,3,,,11,14,22,27,28,32,,,6,2,,,9,3,1,1,6,3,,,
1571389022,2019-10-18 08:57:02.472,Acquired,Acquired,,,Acquired,Acquired,Acquired,Acquired,Acquired,Acquired,,,2.87523936E2,2.2020961599999998E2,,,2.91106176E2,1.1403937599999999E2,2.19049216E2,1.46256912E2,3.06645376E2,8.309427199999999E1,,,5.7740772E1,2.2244532E1,,,6.582506E1,3.0819339999999997E1,4.4973555999999995E1,2.4646815999999998E1,2.6952237999999998E1,3.5277332E1,,,1,3,,,11,14,22,27,28,32,,,6,2,,,9,3,1,1,6,3,,,
1571389082,2019-10-18 08:58:02.472,Acquired,Acquired,,,Acquired,Acquired,Acquired,Acquired,Acquired,Acquired,,,2.87523936E2,2.2020961599999998E2,,,2.91106176E2,1.1403937599999999E2,2.19049216E2,1.46256912E2,3.06645376E2,8.309427199999999E1,,,5.7740772E1,2.2244532E1,,,6.582506E1,3.0819339999999997E1,4.4973555999999995E1,2.4646815999999998E1,2.6952237999999998E1,3.5277332E1,,,1,3,,,11,14,22,27,28,32,,,6,2,,,9,3,1,1,6,3,,,
1571389142,2019-10-18 08:59:02.472,Acquired,Acquired,,,Acquired,Acquired,Acquired,Acquired,Acquired,Acquired,,,2.87523936E2,2.2020961599999998E2,,,2.91106176E2,1.1403937599999999E2,2.19049216E2,1.46256912E2,3.06645376E2,8.309427199999999E1,,,5.7740772E1,2.2244532E1,,,6.582506E1,3.0819339999999997E1,4.4973555999999995E1,2.4646815999999998E1,2.6952237999999998E1,3.5277332E1,,,1,3,,,11,14,22,27,28,32,,,6,2,,,9,3,1,1,6,3,,,
