Time(longsecs),Time(UTC),Earth Location,GPS Receiver Status,GPS Satellites Used,GPS PDOP,GPS TDOP,Timing Status,Timing Phase Lock,Timing Uncertainty(ns),DAC Count,Timing Error(ns),GPS Last Update Time,
1571396402,2019-10-18 11:00:02.472,47.652094N 0.543198E 178m,Off,7,2.8899443,1.9812636,Time OK,Free running,7300,9035,0,2019-10-18 10:53:19.000000000,
1571396462,2019-10-18 11:01:02.473,47.652094N 0.543198E 178m,Off,7,2.8899443,1.9812636,Time OK,Free running,8400,9035,0,2019-10-18 10:53:19.000000000,
1571396522,2019-10-18 11:02:02.472,47.652094N 0.543198E 178m,Off,7,2.8899443,1.9812636,Time OK,Free running,9600,9035,0,2019-10-18 10:53:19.000000000,
1571396582,2019-10-18 11:03:02.472,47.652094N 0.543198E 178m,Off,7,2.8899443,1.9812636,Time OK,Free running,11000,9035,0,2019-10-18 10:53:19.000000000,
1571396642,2019-10-18 11:04:02.472,47.652094N 0.543198E 178m,Off,7,2.8899443,1.9812636,Time OK,Free running,12600,9035,0,2019-10-18 10:53:19.000000000,
1571396702,2019-10-18 11:05:02.475,47.652094N 0.543198E 178m,Off,7,2.8899443,1.9812636,Time OK,Free running,14100,9035,0,2019-10-18 10:53:19.000000000,
1571396762,2019-10-18 11:06:02.472,47.652094N 0.543198E 178m,Off,7,2.8899443,1.9812636,Time OK,Free running,15500,9035,0,2019-10-18 10:53:19.000000000,
1571396822,2019-10-18 11:07:02.477,47.652094N 0.543198E 178m,Off,7,2.8899443,1.9812636,Time OK,Free running,16900,9035,0,2019-10-18 10:53:19.000000000,
1571396882,2019-10-18 11:08:02.472,47.652094N 0.543198E 178m,Off,7,2.8899443,1.9812636,Time OK,Free running,18300,9035,0,2019-10-18 10:53:19.000000000,
1571396942,2019-10-18 11:09:02.472,47.652094N 0.543198E 178m,Off,7,2.8899443,1.9812636,Time OK,Free running,19600,9035,0,2019-10-18 10:53:19.000000000,
1571397002,2019-10-18 11:10:02.472,47.652094N 0.543198E 178m,Off,7,2.8899443,1.9812636,Time OK,Free running,21200,9035,0,2019-10-18 10:53:19.000000000,
1571397062,2019-10-18 11:11:02.472,47.652094N 0.543198E 178m,Off,7,2.8899443,1.9812636,Time OK,Free running,22900,9035,0,2019-10-18 10:53:19.000000000,
1571397122,2019-10-18 11:12:02.472,47.652094N 0.543198E 178m,Off,7,2.8899443,1.9812636,Time OK,Free running,24600,9035,0,2019-10-18 10:53:19.000000000,
1571397182,2019-10-18 11:13:02.472,47.652094N 0.543198E 178m,Off,7,2.8899443,1.9812636,Time OK,Free running,26400,9035,0,2019-10-18 10:53:19.000000000,
1571397242,2019-10-18 11:14:02.473,47.652094N 0.543198E 178m,Off,7,2.8899443,1.9812636,Time OK,Free running,28600,9035,0,2019-10-18 10:53:19.000000000,
1571397302,2019-10-18 11:15:02.472,47.652094N 0.543198E 178m,Off,7,2.8899443,1.9812636,Time OK,Free running,30700,9035,0,2019-10-18 10:53:19.000000000,
1571397362,2019-10-18 11:16:02.473,47.652094N 0.543198E 178m,Off,7,2.8899443,1.9812636,Time OK,Free running,32800,9035,0,2019-10-18 10:53:19.000000000,
1571397422,2019-10-18 11:17:02.475,47.652094N 0.543198E 178m,Off,7,2.8899443,1.9812636,Time OK,Free running,35200,9035,0,2019-10-18 10:53:19.000000000,
1571397482,2019-10-18 11:18:02.472,47.652094N 0.543198E 178m,Off,7,2.8899443,1.9812636,Time OK,Free running,37300,9035,0,2019-10-18 10:53:19.000000000,
1571397542,2019-10-18 11:19:02.472,47.652094N 0.543198E 178m,Off,7,2.8899443,1.9812636,Time OK,Free running,39600,9035,0,2019-10-18 10:53:19.000000000,
1571397602,2019-10-18 11:20:02.472,47.652094N 0.543198E 178m,Off,7,2.8899443,1.9812636,Time OK,Free running,41900,9035,0,2019-10-18 10:53:19.000000000,
1571397662,2019-10-18 11:21:02.472,47.652094N 0.543198E 178m,Off,7,2.8899443,1.9812636,Time OK,Free running,44100,9035,0,2019-10-18 10:53:19.000000000,
1571397722,2019-10-18 11:22:02.472,47.652094N 0.543198E 178m,Off,7,2.8899443,1.9812636,Time OK,Free running,46600,9035,0,2019-10-18 10:53:19.000000000,
1571397782,2019-10-18 11:23:02.510,47.652094N 0.543198E 178m,Off,7,2.8899443,1.9812636,Time OK,Free running,49400,9035,0,2019-10-18 10:53:19.000000000,
1571397842,2019-10-18 11:24:02.472,47.652094N 0.543198E 178m,Off,7,2.8899443,1.9812636,Time OK,Free running,51900,9035,0,2019-10-18 10:53:19.000000000,
1571397902,2019-10-18 11:25:02.475,47.652094N 0.543198E 178m,Doing fixes,8,2.5898376,1.6795902,Time OK,Coarse lock,100,10721,-21562,2019-10-18 11:24:59.000000000,
1571397962,2019-10-18 11:26:02.473,47.652094N 0.543198E 178m,Doing fixes,6,3.494129,1.9982988,Time OK,Coarse lock,100,9064,104,2019-10-18 11:25:59.000000000,
1571398022,2019-10-18 11:27:02.472,47.652094N 0.543198E 178m,Off,7,2.7698803,1.7954925,Time OK,Free running,300,9077,0,2019-10-18 11:26:39.000000000,
1571398082,2019-10-18 11:28:02.493,47.652094N 0.543198E 178m,Off,7,2.7698803,1.7954925,Time OK,Free running,1200,9077,0,2019-10-18 11:26:39.000000000,
1571398142,2019-10-18 11:29:02.472,47.652094N 0.543198E 178m,Off,7,2.7698803,1.7954925,Time OK,Free running,2100,9077,0,2019-10-18 11:26:39.000000000,
1571398202,2019-10-18 11:30:02.472,47.652094N 0.543198E 178m,Off,7,2.7698803,1.7954925,Time OK,Free running,3300,9077,0,2019-10-18 11:26:39.000000000,
1571398262,2019-10-18 11:31:02.472,47.652094N 0.543198E 178m,Off,7,2.7698803,1.7954925,Time OK,Free running,4700,9077,0,2019-10-18 11:26:39.000000000,
1571398322,2019-10-18 11:32:02.473,47.652094N 0.543198E 178m,Off,7,2.7698803,1.7954925,Time OK,Free running,6000,9077,0,2019-10-18 11:26:39.000000000,
1571398382,2019-10-18 11:33:02.475,47.652094N 0.543198E 178m,Off,7,2.7698803,1.7954925,Time OK,Free running,7400,9077,0,2019-10-18 11:26:39.000000000,
1571398442,2019-10-18 11:34:02.472,47.652094N 0.543198E 178m,Off,7,2.7698803,1.7954925,Time OK,Free running,9000,9077,0,2019-10-18 11:26:39.000000000,
1571398502,2019-10-18 11:35:02.472,47.652094N 0.543198E 178m,Off,7,2.7698803,1.7954925,Time OK,Free running,10600,9077,0,2019-10-18 11:26:39.000000000,
1571398562,2019-10-18 11:36:02.472,47.652094N 0.543198E 178m,Off,7,2.7698803,1.7954925,Time OK,Free running,12200,9077,0,2019-10-18 11:26:39.000000000,
1571398622,2019-10-18 11:37:02.475,47.652094N 0.543198E 178m,Off,7,2.7698803,1.7954925,Time OK,Free running,13900,9077,0,2019-10-18 11:26:39.000000000,
1571398682,2019-10-18 11:38:02.472,47.652094N 0.543198E 178m,Off,7,2.7698803,1.7954925,Time OK,Free running,15400,9077,0,2019-10-18 11:26:39.000000000,
1571398742,2019-10-18 11:39:02.472,47.652094N 0.543198E 178m,Off,7,2.7698803,1.7954925,Time OK,Free running,16900,9077,0,2019-10-18 11:26:39.000000000,
1571398802,2019-10-18 11:40:02.472,47.652094N 0.543198E 178m,Off,7,2.7698803,1.7954925,Time OK,Free running,18800,9077,0,2019-10-18 11:26:39.000000000,
1571398862,2019-10-18 11:41:02.472,47.652094N 0.543198E 178m,Off,7,2.7698803,1.7954925,Time OK,Free running,21000,9077,0,2019-10-18 11:26:39.000000000,
1571398922,2019-10-18 11:42:02.472,47.652094N 0.543198E 178m,Off,7,2.7698803,1.7954925,Time OK,Free running,23200,9077,0,2019-10-18 11:26:39.000000000,
1571398982,2019-10-18 11:43:02.488,47.652094N 0.543198E 178m,Off,7,2.7698803,1.7954925,Time OK,Free running,25100,9077,0,2019-10-18 11:26:39.000000000,
1571399042,2019-10-18 11:44:02.473,47.652094N 0.543198E 178m,Off,7,2.7698803,1.7954925,Time OK,Free running,26700,9077,0,2019-10-18 11:26:39.000000000,
1571399102,2019-10-18 11:45:02.472,47.652094N 0.543198E 178m,Off,7,2.7698803,1.7954925,Time OK,Free running,28600,9077,0,2019-10-18 11:26:39.000000000,
1571399162,2019-10-18 11:46:02.472,47.652094N 0.543198E 178m,Off,7,2.7698803,1.7954925,Time OK,Free running,30800,9077,0,2019-10-18 11:26:39.000000000,
1571399222,2019-10-18 11:47:02.472,47.652094N 0.543198E 178m,Off,7,2.7698803,1.7954925,Time OK,Free running,32600,9077,0,2019-10-18 11:26:39.000000000,
1571399282,2019-10-18 11:48:02.491,47.652094N 0.543198E 178m,Off,7,2.7698803,1.7954925,Time OK,Free running,34600,9077,0,2019-10-18 11:26:39.000000000,
1571399342,2019-10-18 11:49:02.472,47.652094N 0.543198E 178m,Off,7,2.7698803,1.7954925,Time OK,Free running,37000,9077,0,2019-10-18 11:26:39.000000000,
1571399402,2019-10-18 11:50:02.472,47.652094N 0.543198E 178m,Off,7,2.7698803,1.7954925,Time OK,Free running,39400,9077,0,2019-10-18 11:26:39.000000000,
1571399462,2019-10-18 11:51:02.472,47.652094N 0.543198E 178m,Off,7,2.7698803,1.7954925,Time OK,Free running,41600,9077,0,2019-10-18 11:26:39.000000000,
1571399522,2019-10-18 11:52:02.472,47.652094N 0.543198E 178m,Off,7,2.7698803,1.7954925,Time OK,Free running,43800,9077,0,2019-10-18 11:26:39.000000000,
1571399582,2019-10-18 11:53:02.472,47.652094N 0.543198E 178m,Off,7,2.7698803,1.7954925,Time OK,Free running,46000,9077,0,2019-10-18 11:26:39.000000000,
1571399642,2019-10-18 11:54:02.489,47.652094N 0.543198E 178m,Off,7,2.7698803,1.7954925,Time OK,Free running,48400,9077,0,2019-10-18 11:26:39.000000000,
1571399702,2019-10-18 11:55:02.472,47.652094N 0.543198E 178m,Off,7,2.7698803,1.7954925,Time OK,Free running,50800,9077,0,2019-10-18 11:26:39.000000000,
1571399762,2019-10-18 11:56:02.473,47.652094N 0.543198E 178m,Doing fixes,7,2.5643053,1.6592283,Time OK,Free running,53500,9077,0,2019-10-18 11:55:59.000000000,
1571399822,2019-10-18 11:57:02.473,47.652094N 0.543198E 178m,Doing fixes,6,3.5695875,2.3592403,Time OK,Fine lock,100,9128,104,2019-10-18 11:56:59.000000000,
1571399882,2019-10-18 11:58:02.473,47.652094N 0.543198E 178m,Doing fixes,7,3.5083077,2.3103178,Time OK,Fine lock,100,9114,0,2019-10-18 11:57:59.000000000,
1571399942,2019-10-18 11:59:02.473,47.652094N 0.543198E 178m,Doing fixes,7,3.5027168,2.0817413,Time OK,Fine lock,100,9129,-104,2019-10-18 11:58:59.000000000,
