Time(longsecs),Time(UTC),Supply Voltage(mV),Temperature(&deg;C),NMX Bus Current(mA),Sensor Current(mA),Serial Port Current(mA),Controller Current(mA),Digitizer Current(mA),
1570773622,2019-10-11 06:00:22.352,16366,1.9212769E1,0,9,0,47,35,
1570773682,2019-10-11 06:01:22.352,16339,1.9174408E1,0,9,0,46,34,
1570773742,2019-10-11 06:02:22.352,16353,1.9048676E1,0,6,0,56,35,
1570773802,2019-10-11 06:03:22.362,16353,1.8904846E1,0,6,0,55,35,
1570773862,2019-10-11 06:04:22.352,16353,1.9118988E1,0,10,0,56,37,
1570773922,2019-10-11 06:05:22.352,16366,1.920636E1,0,11,0,47,35,
1570773982,2019-10-11 06:06:22.352,16366,1.9283081E1,44,14,0,47,35,
1570774042,2019-10-11 06:07:22.352,16353,1.8969818E1,0,11,0,54,33,
1570774102,2019-10-11 06:08:22.390,16353,1.9094482E1,0,8,0,55,41,
1570774162,2019-10-11 06:09:22.352,16353,1.9279907E1,0,12,0,64,36,
1570774222,2019-10-11 06:10:22.352,16380,1.9252197E1,0,6,0,56,37,
1570774282,2019-10-11 06:11:22.352,16353,1.9269226E1,0,13,0,56,35,
1570774342,2019-10-11 06:12:22.352,16353,1.9113678E1,0,14,0,55,33,
1570774402,2019-10-11 06:13:22.352,16353,1.9219147E1,0,6,0,55,39,
1570774462,2019-10-11 06:14:22.352,16353,1.9304413E1,0,6,0,47,35,
1570774522,2019-10-11 06:15:22.352,16353,1.922876E1,0,8,0,47,36,
1570774582,2019-10-11 06:16:22.352,16366,1.9181854E1,0,9,0,56,38,
1570774642,2019-10-11 06:17:22.352,16353,1.9066803E1,0,8,0,56,35,
1570774702,2019-10-11 06:18:22.353,16353,1.9130737E1,0,9,0,54,39,
1570774762,2019-10-11 06:19:22.352,16366,1.9312927E1,0,9,0,47,34,
1570774822,2019-10-11 06:20:22.352,16366,1.9214905E1,0,5,0,52,36,
1570774882,2019-10-11 06:21:22.352,16366,1.9164825E1,0,9,0,47,33,
1570774942,2019-10-11 06:22:22.352,16366,1.9052948E1,0,13,0,52,36,
1570775002,2019-10-11 06:23:22.352,16353,1.9231934E1,0,8,0,55,37,
1570775062,2019-10-11 06:24:22.352,16366,1.9114746E1,0,8,0,47,36,
1570775122,2019-10-11 06:25:22.383,16366,1.9226624E1,0,11,0,47,39,
1570775182,2019-10-11 06:26:22.352,16366,1.9099823E1,0,9,0,47,38,
1570775242,2019-10-11 06:27:22.354,16366,1.9263916E1,0,6,29,55,40,
1570775302,2019-10-11 06:28:22.352,16488,1.910727E1,0,10,0,55,39,
1570775362,2019-10-11 06:29:22.387,16353,1.9099823E1,0,9,0,56,40,
1570775422,2019-10-11 06:30:22.352,16366,1.9003937E1,0,14,0,47,34,
1570775482,2019-10-11 06:31:22.352,16366,1.9285217E1,0,5,0,48,37,
1570775542,2019-10-11 06:32:22.352,16366,1.8993286E1,0,9,0,55,40,
1570775602,2019-10-11 06:33:22.352,16353,1.9160553E1,0,8,1,56,37,
1570775662,2019-10-11 06:34:22.352,16218,1.9098755E1,0,13,0,50,36,
1570775722,2019-10-11 06:35:22.352,16380,1.9133911E1,0,2,0,51,38,
1570775782,2019-10-11 06:36:22.352,16366,1.9185059E1,0,9,0,47,33,
1570775842,2019-10-11 06:37:22.352,16366,1.9349152E1,0,9,0,56,36,
1570775902,2019-10-11 06:38:22.352,16380,1.9191467E1,0,7,0,56,38,
1570775962,2019-10-11 06:39:22.352,16353,1.9233002E1,0,9,0,55,36,
1570776022,2019-10-11 06:40:22.352,16366,1.9139252E1,0,12,0,49,36,
1570776082,2019-10-11 06:41:22.354,16366,1.9390717E1,0,11,0,47,36,
1570776142,2019-10-11 06:42:22.390,16366,1.9213837E1,0,9,0,56,37,
1570776202,2019-10-11 06:43:22.352,16353,1.9213837E1,0,13,0,56,35,
1570776262,2019-10-11 06:44:22.352,16353,1.9264984E1,0,11,0,54,36,
1570776322,2019-10-11 06:45:22.352,16366,1.9253265E1,0,9,0,44,35,
1570776382,2019-10-11 06:46:22.352,16366,1.9264984E1,0,2,0,47,34,
1570776442,2019-10-11 06:47:22.352,16353,1.920636E1,0,7,0,56,38,
1570776502,2019-10-11 06:48:22.390,16353,1.9313995E1,0,10,0,56,42,
1570776562,2019-10-11 06:49:22.352,16366,1.9130737E1,0,9,0,55,38,
1570776622,2019-10-11 06:50:22.352,16366,1.922876E1,0,7,0,46,40,
1570776682,2019-10-11 06:51:22.352,16366,1.9233002E1,0,9,0,48,40,
1570776742,2019-10-11 06:52:22.352,16366,1.919571E1,0,6,0,53,37,
1570776802,2019-10-11 06:53:22.352,16353,1.9324646E1,0,8,0,56,37,
1570776862,2019-10-11 06:54:22.352,16353,1.9462097E1,0,9,0,51,36,
1570776922,2019-10-11 06:55:22.354,16380,1.9128601E1,0,9,0,47,34,
1570776982,2019-10-11 06:56:22.368,16366,1.9035889E1,0,4,0,47,36,
1570777042,2019-10-11 06:57:22.352,16353,1.9138184E1,22,9,0,53,39,
1570777102,2019-10-11 06:58:22.352,16475,1.8893127E1,0,6,0,56,38,
1570777162,2019-10-11 06:59:22.352,16366,1.9328918E1,0,8,0,49,38,
