Time(longsecs),Time(UTC),Earth Location,GPS Receiver Status,GPS Satellites Used,GPS PDOP,GPS TDOP,Timing Status,Timing Phase Lock,Timing Uncertainty(ns),DAC Count,Timing Error(ns),GPS Last Update Time,
1570780822,2019-10-11 08:00:22.393,47.644998N 0.586905E 187m,Off,5,3.2745154,1.6897304,Time OK,Free running,11500,8900,0,2019-10-11 07:48:49.000000000,
1570780882,2019-10-11 08:01:22.352,47.644998N 0.586905E 187m,Off,5,3.2745154,1.6897304,Time OK,Free running,12400,8900,0,2019-10-11 07:48:49.000000000,
1570780942,2019-10-11 08:02:22.385,47.644998N 0.586905E 187m,Off,5,3.2745154,1.6897304,Time OK,Free running,13200,8900,0,2019-10-11 07:48:49.000000000,
1570781002,2019-10-11 08:03:22.352,47.644998N 0.586905E 187m,Off,5,3.2745154,1.6897304,Time OK,Free running,14000,8900,0,2019-10-11 07:48:49.000000000,
1570781062,2019-10-11 08:04:22.352,47.644998N 0.586905E 187m,Off,5,3.2745154,1.6897304,Time OK,Free running,15000,8900,0,2019-10-11 07:48:49.000000000,
1570781122,2019-10-11 08:05:22.352,47.644998N 0.586905E 187m,Off,5,3.2745154,1.6897304,Time OK,Free running,15900,8900,0,2019-10-11 07:48:49.000000000,
1570781182,2019-10-11 08:06:22.352,47.644998N 0.586905E 187m,Off,5,3.2745154,1.6897304,Time OK,Free running,17000,8900,0,2019-10-11 07:48:49.000000000,
1570781242,2019-10-11 08:07:22.384,47.644998N 0.586905E 187m,Off,5,3.2745154,1.6897304,Time OK,Free running,18200,8900,0,2019-10-11 07:48:49.000000000,
1570781302,2019-10-11 08:08:22.355,47.644998N 0.586905E 187m,Off,5,3.2745154,1.6897304,Time OK,Free running,19100,8900,0,2019-10-11 07:48:49.000000000,
1570781362,2019-10-11 08:09:22.352,47.644998N 0.586905E 187m,Off,5,3.2745154,1.6897304,Time OK,Free running,20100,8900,0,2019-10-11 07:48:49.000000000,
1570781422,2019-10-11 08:10:22.352,47.644998N 0.586905E 187m,Off,5,3.2745154,1.6897304,Time OK,Free running,21300,8900,0,2019-10-11 07:48:49.000000000,
1570781482,2019-10-11 08:11:22.352,47.644998N 0.586905E 187m,Off,5,3.2745154,1.6897304,Time OK,Free running,22400,8900,0,2019-10-11 07:48:49.000000000,
1570781542,2019-10-11 08:12:22.352,47.644998N 0.586905E 187m,Off,5,3.2745154,1.6897304,Time OK,Free running,23700,8900,0,2019-10-11 07:48:49.000000000,
1570781602,2019-10-11 08:13:22.352,47.644998N 0.586905E 187m,Off,5,3.2745154,1.6897304,Time OK,Free running,25100,8900,0,2019-10-11 07:48:49.000000000,
1570781662,2019-10-11 08:14:22.352,47.644998N 0.586905E 187m,Off,5,3.2745154,1.6897304,Time OK,Free running,26300,8900,0,2019-10-11 07:48:49.000000000,
1570781722,2019-10-11 08:15:22.352,47.644998N 0.586905E 187m,Off,5,3.2745154,1.6897304,Time OK,Free running,27500,8900,0,2019-10-11 07:48:49.000000000,
1570781782,2019-10-11 08:16:22.352,47.644998N 0.586905E 187m,Off,5,3.2745154,1.6897304,Time OK,Free running,28900,8900,0,2019-10-11 07:48:49.000000000,
1570781842,2019-10-11 08:17:22.352,47.644998N 0.586905E 187m,Off,5,3.2745154,1.6897304,Time OK,Free running,30400,8900,0,2019-10-11 07:48:49.000000000,
1570781902,2019-10-11 08:18:22.354,47.644998N 0.586905E 187m,Off,5,3.2745154,1.6897304,Time OK,Free running,32100,8900,0,2019-10-11 07:48:49.000000000,
1570781962,2019-10-11 08:19:22.352,47.644998N 0.586905E 187m,Off,5,3.2745154,1.6897304,Time OK,Free running,33600,8900,0,2019-10-11 07:48:49.000000000,
1570782022,2019-10-11 08:20:22.352,47.644998N 0.586905E 187m,Off,5,3.2745154,1.6897304,Time OK,Free running,34700,8900,0,2019-10-11 07:48:49.000000000,
1570782082,2019-10-11 08:21:22.352,47.644998N 0.586905E 187m,Off,5,3.2745154,1.6897304,Time OK,Free running,35900,8900,0,2019-10-11 07:48:49.000000000,
1570782142,2019-10-11 08:22:22.352,47.644998N 0.586905E 187m,Off,5,3.2745154,1.6897304,Time OK,Free running,37400,8900,0,2019-10-11 07:48:49.000000000,
1570782202,2019-10-11 08:23:22.352,47.644998N 0.586905E 187m,Off,5,3.2745154,1.6897304,Time OK,Free running,38900,8900,0,2019-10-11 07:48:49.000000000,
1570782262,2019-10-11 08:24:22.352,47.644998N 0.586905E 187m,Off,5,3.2745154,1.6897304,Time OK,Free running,40100,8900,0,2019-10-11 07:48:49.000000000,
1570782322,2019-10-11 08:25:22.352,47.644998N 0.586905E 187m,Off,5,3.2745154,1.6897304,Time OK,Free running,41300,8900,0,2019-10-11 07:48:49.000000000,
1570782382,2019-10-11 08:26:22.388,47.644998N 0.586905E 187m,Off,5,3.2745154,1.6897304,Time OK,Free running,42500,8900,0,2019-10-11 07:48:49.000000000,
1570782442,2019-10-11 08:27:22.352,47.644998N 0.586905E 187m,Off,5,3.2745154,1.6897304,Time OK,Free running,43900,8900,0,2019-10-11 07:48:49.000000000,
1570782502,2019-10-11 08:28:22.352,47.644998N 0.586905E 187m,Off,5,3.2745154,1.6897304,Time OK,Free running,45600,8900,0,2019-10-11 07:48:49.000000000,
1570782562,2019-10-11 08:29:22.352,47.644998N 0.586905E 187m,Off,5,3.2745154,1.6897304,Time OK,Free running,47300,8900,0,2019-10-11 07:48:49.000000000,
1570782622,2019-10-11 08:30:22.352,47.644998N 0.586905E 187m,Off,5,3.2745154,1.6897304,Time OK,Free running,48800,8900,0,2019-10-11 07:48:49.000000000,
1570782682,2019-10-11 08:31:22.352,47.644998N 0.586905E 187m,Off,5,3.2745154,1.6897304,Time OK,Free running,50500,8900,0,2019-10-11 07:48:49.000000000,
1570782742,2019-10-11 08:32:22.352,47.644998N 0.586905E 187m,Doing fixes,4,4.0081,2.6775587,Time OK,Coarse lock,100,9640,-8020,2019-10-11 08:32:19.000000000,
1570782802,2019-10-11 08:33:22.399,47.644998N 0.586905E 187m,Doing fixes,5,2.9569361,1.9061953,Time OK,Fine lock,100,8912,0,2019-10-11 08:33:19.000000000,
1570782862,2019-10-11 08:34:22.352,47.644998N 0.586905E 187m,Doing fixes,5,3.1590488,2.0572805,Time OK,Fine lock,100,8914,0,2019-10-11 08:34:19.000000000,
1570782922,2019-10-11 08:35:22.352,47.644998N 0.586905E 187m,Off,6,2.7884989,1.7598917,Time OK,Free running,100,8917,0,2019-10-11 08:35:19.000000000,
1570782982,2019-10-11 08:36:22.352,47.644998N 0.586905E 187m,Off,6,2.7884989,1.7598917,Time OK,Free running,1100,8917,0,2019-10-11 08:35:19.000000000,
1570783042,2019-10-11 08:37:22.352,47.644998N 0.586905E 187m,Off,6,2.7884989,1.7598917,Time OK,Free running,2000,8917,0,2019-10-11 08:35:19.000000000,
1570783102,2019-10-11 08:38:22.355,47.644998N 0.586905E 187m,Off,6,2.7884989,1.7598917,Time OK,Free running,2900,8917,0,2019-10-11 08:35:19.000000000,
1570783162,2019-10-11 08:39:22.352,47.644998N 0.586905E 187m,Off,6,2.7884989,1.7598917,Time OK,Free running,3900,8917,0,2019-10-11 08:35:19.000000000,
1570783222,2019-10-11 08:40:22.352,47.644998N 0.586905E 187m,Off,6,2.7884989,1.7598917,Time OK,Free running,5000,8917,0,2019-10-11 08:35:19.000000000,
1570783282,2019-10-11 08:41:22.352,47.644998N 0.586905E 187m,Off,6,2.7884989,1.7598917,Time OK,Free running,6300,8917,0,2019-10-11 08:35:19.000000000,
1570783342,2019-10-11 08:42:22.352,47.644998N 0.586905E 187m,Off,6,2.7884989,1.7598917,Time OK,Free running,7400,8917,0,2019-10-11 08:35:19.000000000,
1570783402,2019-10-11 08:43:22.352,47.644998N 0.586905E 187m,Off,6,2.7884989,1.7598917,Time OK,Free running,8500,8917,0,2019-10-11 08:35:19.000000000,
1570783462,2019-10-11 08:44:22.385,47.644998N 0.586905E 187m,Off,6,2.7884989,1.7598917,Time OK,Free running,10000,8917,0,2019-10-11 08:35:19.000000000,
1570783522,2019-10-11 08:45:22.354,47.644998N 0.586905E 187m,Off,6,2.7884989,1.7598917,Time OK,Free running,11200,8917,0,2019-10-11 08:35:19.000000000,
1570783582,2019-10-11 08:46:22.352,47.644998N 0.586905E 187m,Off,6,2.7884989,1.7598917,Time OK,Free running,12300,8917,0,2019-10-11 08:35:19.000000000,
1570783642,2019-10-11 08:47:22.352,47.644998N 0.586905E 187m,Off,6,2.7884989,1.7598917,Time OK,Free running,13700,8917,0,2019-10-11 08:35:19.000000000,
1570783702,2019-10-11 08:48:22.364,47.644998N 0.586905E 187m,Off,6,2.7884989,1.7598917,Time OK,Free running,15000,8917,0,2019-10-11 08:35:19.000000000,
1570783762,2019-10-11 08:49:22.386,47.644998N 0.586905E 187m,Off,6,2.7884989,1.7598917,Time OK,Free running,16400,8917,0,2019-10-11 08:35:19.000000000,
1570783822,2019-10-11 08:50:22.352,47.644998N 0.586905E 187m,Off,6,2.7884989,1.7598917,Time OK,Free running,17600,8917,0,2019-10-11 08:35:19.000000000,
1570783882,2019-10-11 08:51:22.352,47.644998N 0.586905E 187m,Off,6,2.7884989,1.7598917,Time OK,Free running,18700,8917,0,2019-10-11 08:35:19.000000000,
1570783942,2019-10-11 08:52:22.353,47.644998N 0.586905E 187m,Off,6,2.7884989,1.7598917,Time OK,Free running,19900,8917,0,2019-10-11 08:35:19.000000000,
1570784002,2019-10-11 08:53:22.354,47.644998N 0.586905E 187m,Off,6,2.7884989,1.7598917,Time OK,Free running,21200,8917,0,2019-10-11 08:35:19.000000000,
1570784062,2019-10-11 08:54:22.352,47.644998N 0.586905E 187m,Off,6,2.7884989,1.7598917,Time OK,Free running,22800,8917,0,2019-10-11 08:35:19.000000000,
1570784122,2019-10-11 08:55:22.352,47.644998N 0.586905E 187m,Off,6,2.7884989,1.7598917,Time OK,Free running,24100,8917,0,2019-10-11 08:35:19.000000000,
1570784182,2019-10-11 08:56:22.352,47.644998N 0.586905E 187m,Off,6,2.7884989,1.7598917,Time OK,Free running,25300,8917,0,2019-10-11 08:35:19.000000000,
1570784242,2019-10-11 08:57:22.352,47.644998N 0.586905E 187m,Off,6,2.7884989,1.7598917,Time OK,Free running,26600,8917,0,2019-10-11 08:35:19.000000000,
1570784302,2019-10-11 08:58:22.352,47.644998N 0.586905E 187m,Off,6,2.7884989,1.7598917,Time OK,Free running,28000,8917,0,2019-10-11 08:35:19.000000000,
1570784362,2019-10-11 08:59:22.352,47.644998N 0.586905E 187m,Off,6,2.7884989,1.7598917,Time OK,Free running,29700,8917,0,2019-10-11 08:35:19.000000000,
