Time(longsecs),Time(UTC),External SOH Voltage 1(V),External SOH Voltage 2(V),External SOH Voltage 3(V),External SOH Voltage 4(V),Sensor SOH Voltage 1(V),Sensor SOH Voltage 2(V),Sensor SOH Voltage 3(V),
1570525226,2019-10-08 09:00:26.438,-6.7391396E-3,-5.6107044E-3,2.7370453E-3,-4.187584E-3,4.2725277E-1,4.266081E-1,4.2347527E-1,
1570525286,2019-10-08 09:01:26.438,-4.590988E-3,-3.8974285E-3,4.359007E-3,-2.2499561E-3,4.3205738E-1,4.3204403E-1,4.3063736E-1,
1570525346,2019-10-08 09:02:26.440,-4.4665337E-3,-3.6177635E-3,4.8778057E-3,-1.4607906E-3,4.3122864E-1,4.307499E-1,4.2848396E-1,
1570525406,2019-10-08 09:03:26.438,-4.869461E-3,-3.7355423E-3,4.29368E-3,-2.1739006E-3,4.2877102E-1,4.2831612E-1,4.256773E-1,
1570525466,2019-10-08 09:04:26.471,-4.450798E-3,-3.987074E-3,4.515648E-3,2.617836E-4,4.3519497E-1,4.346056E-1,4.323635E-1,
1570525526,2019-10-08 09:05:26.438,-4.875183E-3,-3.8809776E-3,4.568577E-3,-2.320528E-3,4.2948723E-1,4.275427E-1,4.2596054E-1,
1570525586,2019-10-08 09:06:26.438,-4.2364597E-3,-3.2382011E-3,5.0239563E-3,-1.7015934E-3,4.3157196E-1,4.314909E-1,4.2990494E-1,
1570525646,2019-10-08 09:07:26.438,-6.2716007E-3,-5.605221E-3,2.9633045E-3,-4.1851997E-3,4.3369484E-1,4.3228626E-1,4.307766E-1,
1570525706,2019-10-08 09:08:26.440,-4.983902E-3,-3.6959648E-3,4.4448376E-3,-2.4943352E-3,4.3067837E-1,4.299097E-1,4.284544E-1,
1570525766,2019-10-08 09:09:26.438,-4.958153E-3,-3.8983822E-3,4.970312E-3,-2.2716522E-3,4.3193626E-1,4.312086E-1,4.2800426E-1,
1570525826,2019-10-08 09:10:26.438,-4.3275356E-3,-3.4413338E-3,4.7762394E-3,-1.2907982E-3,4.321127E-1,4.314537E-1,4.3020535E-1,
1570525886,2019-10-08 09:11:26.438,-6.7822933E-3,-6.2491894E-3,2.5348663E-3,-4.2283535E-3,4.2748928E-1,4.269247E-1,4.2410564E-1,
1570525946,2019-10-08 09:12:26.438,-2.3813248E-3,-1.4822483E-3,6.8204403E-3,1.039505E-4,4.3821144E-1,4.3727112E-1,4.3586922E-1,
1570526006,2019-10-08 09:13:26.438,-2.0024776E-3,-1.4250278E-3,7.013321E-3,4.7922134E-4,4.3767166E-1,4.3751335E-1,4.3578625E-1,
1570526066,2019-10-08 09:14:26.438,-4.958868E-3,-3.8685799E-3,4.5001507E-3,-1.916647E-3,4.332075E-1,4.3369865E-1,4.2858315E-1,
1570526126,2019-10-08 09:15:26.438,-6.4735413E-3,-6.0031414E-3,2.6876926E-3,-4.4124126E-3,4.2759895E-1,4.2637825E-1,4.2517662E-1,
1570526186,2019-10-08 09:16:26.471,-6.7532063E-3,-6.080866E-3,2.6686192E-3,-3.5569668E-3,4.2598057E-1,4.2465878E-1,4.2234993E-1,
1570526246,2019-10-08 09:17:26.438,-2.4161339E-3,-1.2805462E-3,6.669998E-3,1.8167496E-4,4.398899E-1,4.3824673E-1,4.3736935E-1,
1570526306,2019-10-08 09:18:26.438,-4.7199726E-3,-4.213333E-3,4.150152E-3,-1.954794E-3,4.3909836E-1,4.3862343E-1,4.355688E-1,
1570526366,2019-10-08 09:19:26.438,-3.906727E-3,-3.222704E-3,4.796028E-3,-1.4309883E-3,4.3227768E-1,4.3181515E-1,4.2983723E-1,
1570526426,2019-10-08 09:20:26.438,-2.12121E-3,-1.3046265E-3,7.45821E-3,3.8456917E-4,4.3742657E-1,4.373827E-1,4.3390846E-1,
1570526486,2019-10-08 09:21:26.438,-6.4651966E-3,-5.8956146E-3,2.7065277E-3,-3.6821365E-3,4.269266E-1,4.2788982E-1,4.2526245E-1,
1570526546,2019-10-08 09:22:26.438,-6.5214634E-3,-6.002426E-3,2.63834E-3,-3.6680698E-3,4.274311E-1,4.256811E-1,4.2493153E-1,
1570526606,2019-10-08 09:23:26.438,-2.6211739E-3,-1.6133785E-3,6.779909E-3,6.186962E-4,4.3941975E-1,4.3884945E-1,4.3657207E-1,
1570526666,2019-10-08 09:24:26.438,-4.384756E-3,-3.0677319E-3,4.9324036E-3,-1.0690689E-3,4.3235397E-1,4.31139E-1,4.286766E-1,
1570526726,2019-10-08 09:25:26.438,-6.4423084E-3,-5.949974E-3,2.462387E-3,-4.248619E-3,4.2732906E-1,4.2652035E-1,4.245882E-1,
1570526786,2019-10-08 09:26:26.438,-4.8327446E-3,-4.0254593E-3,4.860401E-3,-1.6906261E-3,4.3195343E-1,4.2927074E-1,4.283352E-1,
1570526846,2019-10-08 09:27:26.438,-7.181406E-3,-5.7706833E-3,2.768755E-3,-4.0171146E-3,4.2308235E-1,4.2249107E-1,4.222145E-1,
1570526906,2019-10-08 09:28:26.438,-6.8085194E-3,-5.872965E-3,2.407074E-3,-4.154682E-3,4.2495728E-1,4.2443848E-1,4.2105865E-1,
1570526966,2019-10-08 09:29:26.439,-1.9936562E-3,-1.019001E-3,7.0769787E-3,3.912449E-4,4.4272423E-1,4.4151878E-1,4.3909168E-1,
1570527026,2019-10-08 09:30:26.438,-4.6834946E-3,-3.9567947E-3,4.1589737E-3,-2.3167133E-3,4.3379688E-1,4.3267155E-1,4.2998695E-1,
1570527086,2019-10-08 09:31:26.438,-6.6137314E-3,-5.4621696E-3,2.4619102E-3,-3.998041E-3,4.2689705E-1,4.2590427E-1,4.2400932E-1,
1570527146,2019-10-08 09:32:26.439,-4.9521923E-3,-3.6177635E-3,4.4186115E-3,-2.015829E-3,4.314518E-1,4.3101978E-1,4.2848587E-1,
1570527206,2019-10-08 09:33:26.438,-2.5057793E-3,-1.044035E-3,6.7694187E-3,6.0248375E-4,4.4196224E-1,4.410076E-1,4.383993E-1,
1570527266,2019-10-08 09:34:26.438,-7.0757866E-3,-5.670786E-3,2.8660297E-3,-4.1251183E-3,4.2747784E-1,4.26445E-1,4.231844E-1,
1570527326,2019-10-08 09:35:26.438,-2.4735928E-3,-1.2578964E-3,6.7403316E-3,6.363392E-4,4.419403E-1,4.414072E-1,4.3863487E-1,
1570527386,2019-10-08 09:36:26.438,-4.0056705E-3,-3.1456947E-3,5.106926E-3,-1.5776157E-3,4.2941284E-1,4.289751E-1,4.2741966E-1,
1570527446,2019-10-08 09:37:26.438,-6.822586E-3,-6.0358047E-3,2.966404E-3,-4.371166E-3,4.2486286E-1,4.2411804E-1,4.2266273E-1,
1570527506,2019-10-08 09:38:26.468,-4.9567223E-3,-4.0638447E-3,4.440069E-3,-2.2742748E-3,4.2582893E-1,4.258423E-1,4.231949E-1,
1570527566,2019-10-08 09:39:26.438,-6.924629E-3,-5.621195E-3,2.5646687E-3,-3.8568974E-3,4.232092E-1,4.2390823E-1,4.2234516E-1,
1570527626,2019-10-08 09:40:26.439,-4.7569275E-3,-4.093647E-3,4.6186447E-3,-1.4762878E-3,4.3572903E-1,4.342947E-1,4.315815E-1,
1570527686,2019-10-08 09:41:26.438,-2.2408962E-3,-1.5375614E-3,6.9863796E-3,2.8705597E-4,4.3973255E-1,4.396162E-1,4.3769455E-1,
1570527746,2019-10-08 09:42:26.438,-2.2895336E-3,-9.329319E-4,6.694317E-3,6.887913E-4,4.3911362E-1,4.374237E-1,4.3510723E-1,
1570527806,2019-10-08 09:43:26.439,-6.80542E-3,-5.9070587E-3,2.5632381E-3,-3.8826466E-3,4.2508316E-1,4.2399025E-1,4.2179203E-1,
1570527866,2019-10-08 09:44:26.439,-4.4703484E-3,-3.502369E-3,5.500555E-3,-1.7721653E-3,4.3183994E-1,4.3186188E-1,4.2887592E-1,
1570527926,2019-10-08 09:45:26.438,-6.777048E-3,-5.3682327E-3,2.9990673E-3,-3.9098263E-3,4.2801952E-1,4.2848587E-1,4.2684364E-1,
1570527986,2019-10-08 09:46:26.438,-4.7638416E-3,-3.8263798E-3,4.317045E-3,-2.3491383E-3,4.330759E-1,4.3289375E-1,4.3055725E-1,
1570528046,2019-10-08 09:47:26.439,-2.1443367E-3,-1.5275478E-3,7.1160793E-3,-3.194809E-5,4.369774E-1,4.3725586E-1,4.336815E-1,
1570528106,2019-10-08 09:48:26.439,-5.217552E-3,-4.0962696E-3,4.3985844E-3,-2.1197796E-3,4.331112E-1,4.319315E-1,4.3001747E-1,
1570528166,2019-10-08 09:49:26.438,-6.512165E-3,-6.030798E-3,2.4366379E-3,-3.857851E-3,4.2270756E-1,4.2271805E-1,4.2121696E-1,
1570528226,2019-10-08 09:50:26.438,-4.385948E-3,-3.1790733E-3,4.6641827E-3,-1.3904572E-3,4.3416214E-1,4.337635E-1,4.2982388E-1,
1570528286,2019-10-08 09:51:26.438,-5.101919E-3,-3.994465E-3,4.659891E-3,-2.2819042E-3,4.3534565E-1,4.3472195E-1,4.3070412E-1,
1570528346,2019-10-08 09:52:26.438,-4.408598E-3,-3.3836365E-3,4.8952103E-3,-1.2760162E-3,4.3204784E-1,4.3119335E-1,4.2814636E-1,
1570528406,2019-10-08 09:53:26.438,-2.796173E-3,-1.2900829E-3,7.0183277E-3,5.917549E-4,4.389515E-1,4.3957043E-1,4.3705177E-1,
1570528466,2019-10-08 09:54:26.438,-6.7169666E-3,-5.898714E-3,2.6011467E-3,-3.6263466E-3,4.249649E-1,4.2546082E-1,4.2248535E-1,
1570528526,2019-10-08 09:55:26.438,-4.729271E-3,-3.7755966E-3,4.5433044E-3,-2.0570755E-3,4.3361282E-1,4.3295193E-1,4.3139076E-1,
1570528586,2019-10-08 09:56:26.438,-4.566431E-3,-3.2401085E-3,5.450964E-3,-1.6224384E-3,4.314003E-1,4.3152046E-1,4.2867184E-1,
1570528646,2019-10-08 09:57:26.438,-6.5271854E-3,-5.66864E-3,2.9702187E-3,-4.0056705E-3,4.2724895E-1,4.2817497E-1,4.2583752E-1,
1570528706,2019-10-08 09:58:26.438,-2.477169E-3,-1.8122196E-3,7.1983337E-3,6.318092E-5,4.3742943E-1,4.3820572E-1,4.336176E-1,
1570528766,2019-10-08 09:59:26.439,-6.1995983E-3,-5.3520203E-3,2.3005009E-3,-4.02689E-3,4.2878246E-1,4.2796707E-1,4.2450523E-1,
