Time(longsecs),Time(UTC),Supply Voltage(mV),Temperature(&deg;C),NMX Bus Current(mA),Sensor Current(mA),Serial Port Current(mA),Controller Current(mA),Digitizer Current(mA),
1571176830,2019-10-15 22:00:30.925,15913,1.9508575E1,0,9,0,64,36,
1571176890,2019-10-15 22:01:30.925,15898,1.9980042E1,0,6,0,59,38,
1571176950,2019-10-15 22:02:30.927,15953,1.9674286E1,0,12,0,61,35,
1571177010,2019-10-15 22:03:30.925,15953,1.9708496E1,0,4,0,52,35,
1571177070,2019-10-15 22:04:30.925,15953,1.9564148E1,0,13,0,52,38,
1571177130,2019-10-15 22:05:30.925,15940,1.9628296E1,0,9,0,60,37,
1571177190,2019-10-15 22:06:30.925,15940,1.9799347E1,0,11,0,60,38,
1571177250,2019-10-15 22:07:30.925,15940,1.9600525E1,0,10,0,52,36,
1571177310,2019-10-15 22:08:30.925,15940,1.9770477E1,0,9,0,52,39,
1571177370,2019-10-15 22:09:30.925,15926,1.972879E1,0,10,0,52,36,
1571177430,2019-10-15 22:10:30.925,15967,1.9625092E1,0,9,0,60,38,
1571177490,2019-10-15 22:11:30.925,15940,1.9705292E1,0,9,0,61,38,
1571177550,2019-10-15 22:12:30.925,15940,1.9575928E1,0,10,0,52,37,
1571177610,2019-10-15 22:13:30.925,15926,1.9708496E1,0,9,0,52,38,
1571177670,2019-10-15 22:14:30.925,15940,1.9639008E1,0,9,0,61,37,
1571177730,2019-10-15 22:15:30.925,15926,1.9627228E1,0,8,0,68,40,
1571177790,2019-10-15 22:16:30.925,15940,1.9604797E1,0,8,0,60,41,
1571177850,2019-10-15 22:17:30.925,15940,1.93172E1,0,11,0,60,39,
1571177910,2019-10-15 22:18:30.927,15940,1.9800415E1,0,10,0,52,43,
1571177970,2019-10-15 22:19:30.925,15940,1.9412354E1,0,10,0,52,35,
1571178030,2019-10-15 22:20:30.925,15940,1.9388824E1,0,9,0,60,35,
1571178090,2019-10-15 22:21:30.925,15940,1.9446564E1,0,9,0,61,38,
1571178150,2019-10-15 22:22:30.925,15940,1.9521393E1,0,10,0,52,39,
1571178210,2019-10-15 22:23:30.954,15940,1.9553467E1,0,12,0,50,41,
1571178270,2019-10-15 22:24:30.925,15940,1.9310791E1,0,6,0,52,36,
1571178330,2019-10-15 22:25:30.925,15953,1.9435883E1,0,9,0,57,36,
1571178390,2019-10-15 22:26:30.925,15926,1.9447632E1,0,19,0,62,36,
1571178450,2019-10-15 22:27:30.925,15926,1.9369598E1,0,9,0,60,41,
1571178510,2019-10-15 22:28:30.925,15926,1.9681763E1,0,11,0,61,40,
1571178570,2019-10-15 22:29:30.925,15940,1.9287262E1,0,9,0,52,40,
1571178630,2019-10-15 22:30:30.925,15940,1.9308655E1,0,10,0,60,38,
1571178690,2019-10-15 22:31:30.925,15926,1.936319E1,0,8,0,60,41,
1571178750,2019-10-15 22:32:30.927,15926,1.9335388E1,0,10,0,51,36,
1571178810,2019-10-15 22:33:30.925,15926,1.96315E1,0,11,0,61,38,
1571178870,2019-10-15 22:34:30.925,15940,1.9355682E1,0,9,0,52,39,
1571178930,2019-10-15 22:35:30.925,15926,1.928833E1,0,4,0,60,39,
1571178990,2019-10-15 22:36:30.925,15926,1.9319336E1,0,10,0,60,41,
1571179050,2019-10-15 22:37:30.925,15940,1.9364258E1,0,10,0,50,41,
1571179110,2019-10-15 22:38:30.927,15940,1.9304382E1,0,9,0,50,38,
1571179170,2019-10-15 22:39:30.925,15926,1.9415558E1,0,8,0,61,35,
1571179230,2019-10-15 22:40:30.925,15926,1.945404E1,0,9,0,59,36,
1571179290,2019-10-15 22:41:30.925,15926,1.9432678E1,0,11,0,59,39,
1571179350,2019-10-15 22:42:30.925,15926,1.930545E1,0,8,0,59,39,
1571179410,2019-10-15 22:43:30.927,15940,1.9345001E1,0,12,0,52,40,
1571179470,2019-10-15 22:44:30.925,15940,1.941983E1,0,10,0,52,36,
1571179530,2019-10-15 22:45:30.957,15926,1.9481842E1,0,13,0,61,37,
1571179590,2019-10-15 22:46:30.925,15926,1.9400604E1,0,16,0,60,39,
1571179650,2019-10-15 22:47:30.954,15926,1.9184631E1,0,8,0,52,36,
1571179710,2019-10-15 22:48:30.925,15926,1.9503235E1,0,9,0,51,35,
1571179770,2019-10-15 22:49:30.925,15940,1.9184631E1,0,2,0,52,36,
1571179830,2019-10-15 22:50:30.925,15913,1.920816E1,0,11,0,61,37,
1571179890,2019-10-15 22:51:30.925,15926,1.9395264E1,0,9,0,57,41,
1571179950,2019-10-15 22:52:30.925,15926,1.9257355E1,0,11,0,51,37,
1571180010,2019-10-15 22:53:30.925,15926,1.902536E1,0,7,0,52,34,
1571180070,2019-10-15 22:54:30.925,15926,1.9259491E1,0,10,0,52,38,
1571180130,2019-10-15 22:55:30.925,15926,1.9195343E1,0,9,0,59,37,
1571180190,2019-10-15 22:56:30.925,15913,1.9313995E1,0,8,0,69,40,
1571180250,2019-10-15 22:57:30.925,15953,1.907666E1,0,9,0,69,40,
1571180310,2019-10-15 22:58:30.927,15926,1.9354614E1,0,9,0,52,38,
1571180370,2019-10-15 22:59:30.928,15926,1.9424103E1,0,10,0,51,37,
