Time(longsecs),Time(UTC),Earth Location,GPS Receiver Status,GPS Satellites Used,GPS PDOP,GPS TDOP,Timing Status,Timing Phase Lock,Timing Uncertainty(ns),DAC Count,Timing Error(ns),GPS Last Update Time,
1571144430,2019-10-15 13:00:30.924,47.63871N 0.549104E 175m,Off,8,2.1370914,1.1560371,Time OK,Free running,7500,8709,0,2019-10-15 12:56:19.000000000,
1571144490,2019-10-15 13:01:30.924,47.63871N 0.549104E 175m,Off,8,2.1370914,1.1560371,Time OK,Free running,10300,8709,0,2019-10-15 12:56:19.000000000,
1571144550,2019-10-15 13:02:30.925,47.63871N 0.549104E 175m,Off,8,2.1370914,1.1560371,Time OK,Free running,13400,8709,0,2019-10-15 12:56:19.000000000,
1571144610,2019-10-15 13:03:30.924,47.63871N 0.549104E 175m,Off,8,2.1370914,1.1560371,Time OK,Free running,16900,8709,0,2019-10-15 12:56:19.000000000,
1571144670,2019-10-15 13:04:30.924,47.63871N 0.549104E 175m,Off,8,2.1370914,1.1560371,Time OK,Free running,20600,8709,0,2019-10-15 12:56:19.000000000,
1571144730,2019-10-15 13:05:30.924,47.63871N 0.549104E 175m,Off,8,2.1370914,1.1560371,Time OK,Free running,24000,8709,0,2019-10-15 12:56:19.000000000,
1571144790,2019-10-15 13:06:30.934,47.63871N 0.549104E 175m,Off,8,2.1370914,1.1560371,Time OK,Free running,27300,8709,0,2019-10-15 12:56:19.000000000,
1571144850,2019-10-15 13:07:30.924,47.63871N 0.549104E 175m,Off,8,2.1370914,1.1560371,Time OK,Free running,30900,8709,0,2019-10-15 12:56:19.000000000,
1571144910,2019-10-15 13:08:30.924,47.63871N 0.549104E 175m,Off,8,2.1370914,1.1560371,Time OK,Free running,34400,8709,0,2019-10-15 12:56:19.000000000,
1571144970,2019-10-15 13:09:30.924,47.63871N 0.549104E 175m,Off,8,2.1370914,1.1560371,Time OK,Free running,37900,8709,0,2019-10-15 12:56:19.000000000,
1571145030,2019-10-15 13:10:30.926,47.63871N 0.549104E 175m,Off,8,2.1370914,1.1560371,Time OK,Free running,41600,8709,0,2019-10-15 12:56:19.000000000,
1571145090,2019-10-15 13:11:30.924,47.63871N 0.549104E 175m,Off,8,2.1370914,1.1560371,Time OK,Free running,45200,8709,0,2019-10-15 12:56:19.000000000,
1571145150,2019-10-15 13:12:30.924,47.63871N 0.549104E 175m,Off,8,2.1370914,1.1560371,Time OK,Free running,48800,8709,0,2019-10-15 12:56:19.000000000,
1571145210,2019-10-15 13:13:30.924,47.63871N 0.549104E 175m,Off,8,2.1370914,1.1560371,Time OK,Free running,52800,8709,0,2019-10-15 12:56:19.000000000,
1571145270,2019-10-15 13:14:30.925,47.63871N 0.549104E 175m,No GPS time,0,0.0,0.0,Time OK,Free running,56700,8709,0,2019-10-15 13:14:27.000000000,
1571145330,2019-10-15 13:15:30.925,47.63871N 0.549104E 175m,Doing fixes,10,1.3426868,0.64376366,Time OK,Coarse lock,100,8731,-104,2019-10-15 13:15:27.000000000,
1571145390,2019-10-15 13:16:30.925,47.63871N 0.549104E 175m,Doing fixes,10,1.3416294,0.64246243,Time OK,Fine lock,100,8677,0,2019-10-15 13:16:27.000000000,
1571145450,2019-10-15 13:17:30.924,47.63871N 0.549104E 175m,Off,10,1.3414577,0.6422594,Time OK,Free running,800,8677,0,2019-10-15 13:16:37.000000000,
1571145510,2019-10-15 13:18:30.924,47.63871N 0.549104E 175m,Off,10,1.3414577,0.6422594,Time OK,Free running,1600,8677,0,2019-10-15 13:16:37.000000000,
1571145570,2019-10-15 13:19:30.925,47.63871N 0.549104E 175m,Off,10,1.3414577,0.6422594,Time OK,Free running,2600,8677,0,2019-10-15 13:16:37.000000000,
1571145630,2019-10-15 13:20:30.934,47.63871N 0.549104E 175m,Off,10,1.3414577,0.6422594,Time OK,Free running,3500,8677,0,2019-10-15 13:16:37.000000000,
1571145690,2019-10-15 13:21:30.924,47.63871N 0.549104E 175m,Off,10,1.3414577,0.6422594,Time OK,Free running,4400,8677,0,2019-10-15 13:16:37.000000000,
1571145750,2019-10-15 13:22:30.924,47.63871N 0.549104E 175m,Off,10,1.3414577,0.6422594,Time OK,Free running,5200,8677,0,2019-10-15 13:16:37.000000000,
1571145810,2019-10-15 13:23:30.925,47.63871N 0.549104E 175m,Off,10,1.3414577,0.6422594,Time OK,Free running,6200,8677,0,2019-10-15 13:16:37.000000000,
1571145870,2019-10-15 13:24:30.924,47.63871N 0.549104E 175m,Off,10,1.3414577,0.6422594,Time OK,Free running,7300,8677,0,2019-10-15 13:16:37.000000000,
1571145930,2019-10-15 13:25:30.924,47.63871N 0.549104E 175m,Off,10,1.3414577,0.6422594,Time OK,Free running,8200,8677,0,2019-10-15 13:16:37.000000000,
1571145990,2019-10-15 13:26:30.950,47.63871N 0.549104E 175m,Off,10,1.3414577,0.6422594,Time OK,Free running,9200,8677,0,2019-10-15 13:16:37.000000000,
1571146050,2019-10-15 13:27:30.924,47.63871N 0.549104E 175m,Off,10,1.3414577,0.6422594,Time OK,Free running,10100,8677,0,2019-10-15 13:16:37.000000000,
1571146110,2019-10-15 13:28:30.924,47.63871N 0.549104E 175m,Off,10,1.3414577,0.6422594,Time OK,Free running,11300,8677,0,2019-10-15 13:16:37.000000000,
1571146170,2019-10-15 13:29:30.925,47.63871N 0.549104E 175m,Off,10,1.3414577,0.6422594,Time OK,Free running,12600,8677,0,2019-10-15 13:16:37.000000000,
1571146230,2019-10-15 13:30:30.928,47.63871N 0.549104E 175m,Off,10,1.3414577,0.6422594,Time OK,Free running,14000,8677,0,2019-10-15 13:16:37.000000000,
1571146290,2019-10-15 13:31:30.924,47.63871N 0.549104E 175m,Off,10,1.3414577,0.6422594,Time OK,Free running,15400,8677,0,2019-10-15 13:16:37.000000000,
1571146350,2019-10-15 13:32:30.924,47.63871N 0.549104E 175m,Off,10,1.3414577,0.6422594,Time OK,Free running,16900,8677,0,2019-10-15 13:16:37.000000000,
1571146410,2019-10-15 13:33:30.924,47.63871N 0.549104E 175m,Off,10,1.3414577,0.6422594,Time OK,Free running,18400,8677,0,2019-10-15 13:16:37.000000000,
1571146470,2019-10-15 13:34:30.924,47.63871N 0.549104E 175m,Off,10,1.3414577,0.6422594,Time OK,Free running,19900,8677,0,2019-10-15 13:16:37.000000000,
1571146530,2019-10-15 13:35:30.924,47.63871N 0.549104E 175m,Off,10,1.3414577,0.6422594,Time OK,Free running,21500,8677,0,2019-10-15 13:16:37.000000000,
1571146590,2019-10-15 13:36:30.924,47.63871N 0.549104E 175m,Off,10,1.3414577,0.6422594,Time OK,Free running,23200,8677,0,2019-10-15 13:16:37.000000000,
1571146650,2019-10-15 13:37:30.924,47.63871N 0.549104E 175m,Off,10,1.3414577,0.6422594,Time OK,Free running,25000,8677,0,2019-10-15 13:16:37.000000000,
1571146710,2019-10-15 13:38:30.926,47.63871N 0.549104E 175m,Off,10,1.3414577,0.6422594,Time OK,Free running,26700,8677,0,2019-10-15 13:16:37.000000000,
1571146770,2019-10-15 13:39:30.931,47.63871N 0.549104E 175m,Off,10,1.3414577,0.6422594,Time OK,Free running,28400,8677,0,2019-10-15 13:16:37.000000000,
1571146830,2019-10-15 13:40:30.924,47.63871N 0.549104E 175m,Off,10,1.3414577,0.6422594,Time OK,Free running,30500,8677,0,2019-10-15 13:16:37.000000000,
1571146890,2019-10-15 13:41:30.924,47.63871N 0.549104E 175m,Off,10,1.3414577,0.6422594,Time OK,Free running,33000,8677,0,2019-10-15 13:16:37.000000000,
1571146950,2019-10-15 13:42:30.924,47.63871N 0.549104E 175m,Off,10,1.3414577,0.6422594,Time OK,Free running,35300,8677,0,2019-10-15 13:16:37.000000000,
1571147010,2019-10-15 13:43:30.924,47.63871N 0.549104E 175m,Off,10,1.3414577,0.6422594,Time OK,Free running,37600,8677,0,2019-10-15 13:16:37.000000000,
1571147070,2019-10-15 13:44:30.926,47.63871N 0.549104E 175m,Off,10,1.3414577,0.6422594,Time OK,Free running,40300,8677,0,2019-10-15 13:16:37.000000000,
1571147130,2019-10-15 13:45:30.926,47.63871N 0.549104E 175m,Off,10,1.3414577,0.6422594,Time OK,Free running,42800,8677,0,2019-10-15 13:16:37.000000000,
1571147190,2019-10-15 13:46:30.924,47.63871N 0.549104E 175m,Off,10,1.3414577,0.6422594,Time OK,Free running,45100,8677,0,2019-10-15 13:16:37.000000000,
1571147250,2019-10-15 13:47:30.924,47.63871N 0.549104E 175m,Off,10,1.3414577,0.6422594,Time OK,Free running,47800,8677,0,2019-10-15 13:16:37.000000000,
1571147310,2019-10-15 13:48:30.924,47.63871N 0.549104E 175m,Off,10,1.3414577,0.6422594,Time OK,Free running,50700,8677,0,2019-10-15 13:16:37.000000000,
1571147370,2019-10-15 13:49:30.925,47.63871N 0.549104E 175m,Doing fixes,8,1.9502949,1.1257975,Time OK,Coarse lock,100,9246,-833,2019-10-15 13:49:28.000000000,
1571147430,2019-10-15 13:50:30.924,47.63871N 0.549104E 175m,Doing fixes,8,1.9506571,1.1247332,Time OK,Fine lock,100,8748,0,2019-10-15 13:50:28.000000000,
1571147490,2019-10-15 13:51:30.925,47.63871N 0.549104E 175m,Doing fixes,8,1.9506495,1.123327,Time OK,Fine lock,100,8755,0,2019-10-15 13:51:28.000000000,
1571147550,2019-10-15 13:52:30.924,47.63871N 0.549104E 175m,Off,9,1.4155184,0.6742411,Time OK,Free running,300,8755,0,2019-10-15 13:52:08.000000000,
1571147610,2019-10-15 13:53:30.924,47.63871N 0.549104E 175m,Off,9,1.4155184,0.6742411,Time OK,Free running,1300,8755,0,2019-10-15 13:52:08.000000000,
1571147670,2019-10-15 13:54:30.924,47.63871N 0.549104E 175m,Off,9,1.4155184,0.6742411,Time OK,Free running,2300,8755,0,2019-10-15 13:52:08.000000000,
1571147730,2019-10-15 13:55:30.924,47.63871N 0.549104E 175m,Off,9,1.4155184,0.6742411,Time OK,Free running,3400,8755,0,2019-10-15 13:52:08.000000000,
1571147790,2019-10-15 13:56:30.924,47.63871N 0.549104E 175m,Off,9,1.4155184,0.6742411,Time OK,Free running,4600,8755,0,2019-10-15 13:52:08.000000000,
1571147850,2019-10-15 13:57:30.924,47.63871N 0.549104E 175m,Off,9,1.4155184,0.6742411,Time OK,Free running,5800,8755,0,2019-10-15 13:52:08.000000000,
1571147910,2019-10-15 13:58:30.924,47.63871N 0.549104E 175m,Off,9,1.4155184,0.6742411,Time OK,Free running,7000,8755,0,2019-10-15 13:52:08.000000000,
1571147970,2019-10-15 13:59:30.924,47.63871N 0.549104E 175m,Off,9,1.4155184,0.6742411,Time OK,Free running,8200,8755,0,2019-10-15 13:52:08.000000000,
