Time(longsecs),Time(UTC),Earth Location,GPS Receiver Status,GPS Satellites Used,GPS PDOP,GPS TDOP,Timing Status,Timing Phase Lock,Timing Uncertainty(ns),DAC Count,Timing Error(ns),GPS Last Update Time,
1571965230,2019-10-25 01:00:30.926,47.638754N 0.549064E 174m,Off,8,1.9439106,0.98893005,Time OK,Free running,50100,9092,0,2019-10-25 00:25:38.000000000,
1571965290,2019-10-25 01:01:30.926,47.638754N 0.549064E 174m,Doing fixes,9,1.5900956,0.76995295,Time OK,Coarse lock,100,9185,-208,2019-10-25 01:01:28.000000000,
1571965350,2019-10-25 01:02:30.926,47.638754N 0.549064E 174m,Doing fixes,9,1.5860237,0.76713985,Time OK,Fine lock,100,9106,-104,2019-10-25 01:02:28.000000000,
1571965410,2019-10-25 01:03:30.926,47.638754N 0.549064E 174m,Off,9,1.583989,0.7657333,Time OK,Free running,500,9102,0,2019-10-25 01:02:58.000000000,
1571965470,2019-10-25 01:04:30.926,47.638754N 0.549064E 174m,Off,9,1.583989,0.7657333,Time OK,Free running,1300,9102,0,2019-10-25 01:02:58.000000000,
1571965530,2019-10-25 01:05:30.926,47.638754N 0.549064E 174m,Off,9,1.583989,0.7657333,Time OK,Free running,2200,9102,0,2019-10-25 01:02:58.000000000,
1571965590,2019-10-25 01:06:30.958,47.638754N 0.549064E 174m,Off,9,1.583989,0.7657333,Time OK,Free running,3200,9102,0,2019-10-25 01:02:58.000000000,
1571965650,2019-10-25 01:07:30.926,47.638754N 0.549064E 174m,Off,9,1.583989,0.7657333,Time OK,Free running,4000,9102,0,2019-10-25 01:02:58.000000000,
1571965710,2019-10-25 01:08:30.965,47.638754N 0.549064E 174m,Off,9,1.583989,0.7657333,Time OK,Free running,5000,9102,0,2019-10-25 01:02:58.000000000,
1571965770,2019-10-25 01:09:30.926,47.638754N 0.549064E 174m,Off,9,1.583989,0.7657333,Time OK,Free running,5900,9102,0,2019-10-25 01:02:58.000000000,
1571965830,2019-10-25 01:10:30.926,47.638754N 0.549064E 174m,Off,9,1.583989,0.7657333,Time OK,Free running,6800,9102,0,2019-10-25 01:02:58.000000000,
1571965890,2019-10-25 01:11:30.926,47.638754N 0.549064E 174m,Off,9,1.583989,0.7657333,Time OK,Free running,7600,9102,0,2019-10-25 01:02:58.000000000,
1571965950,2019-10-25 01:12:30.926,47.638754N 0.549064E 174m,Off,9,1.583989,0.7657333,Time OK,Free running,8600,9102,0,2019-10-25 01:02:58.000000000,
1571966010,2019-10-25 01:13:30.926,47.638754N 0.549064E 174m,Off,9,1.583989,0.7657333,Time OK,Free running,9700,9102,0,2019-10-25 01:02:58.000000000,
1571966070,2019-10-25 01:14:30.926,47.638754N 0.549064E 174m,Off,9,1.583989,0.7657333,Time OK,Free running,10700,9102,0,2019-10-25 01:02:58.000000000,
1571966130,2019-10-25 01:15:30.926,47.638754N 0.549064E 174m,Off,9,1.583989,0.7657333,Time OK,Free running,11700,9102,0,2019-10-25 01:02:58.000000000,
1571966190,2019-10-25 01:16:30.927,47.638754N 0.549064E 174m,Off,9,1.583989,0.7657333,Time OK,Free running,12700,9102,0,2019-10-25 01:02:58.000000000,
1571966250,2019-10-25 01:17:30.961,47.638754N 0.549064E 174m,Off,9,1.583989,0.7657333,Time OK,Free running,13700,9102,0,2019-10-25 01:02:58.000000000,
1571966310,2019-10-25 01:18:30.926,47.638754N 0.549064E 174m,Off,9,1.583989,0.7657333,Time OK,Free running,14600,9102,0,2019-10-25 01:02:58.000000000,
1571966370,2019-10-25 01:19:30.926,47.638754N 0.549064E 174m,Off,9,1.583989,0.7657333,Time OK,Free running,15600,9102,0,2019-10-25 01:02:58.000000000,
1571966430,2019-10-25 01:20:30.926,47.638754N 0.549064E 174m,Off,9,1.583989,0.7657333,Time OK,Free running,16800,9102,0,2019-10-25 01:02:58.000000000,
1571966490,2019-10-25 01:21:30.926,47.638754N 0.549064E 174m,Off,9,1.583989,0.7657333,Time OK,Free running,18100,9102,0,2019-10-25 01:02:58.000000000,
1571966550,2019-10-25 01:22:30.927,47.638754N 0.549064E 174m,Off,9,1.583989,0.7657333,Time OK,Free running,19400,9102,0,2019-10-25 01:02:58.000000000,
1571966610,2019-10-25 01:23:30.926,47.638754N 0.549064E 174m,Off,9,1.583989,0.7657333,Time OK,Free running,20600,9102,0,2019-10-25 01:02:58.000000000,
1571966670,2019-10-25 01:24:30.928,47.638754N 0.549064E 174m,Off,9,1.583989,0.7657333,Time OK,Free running,21800,9102,0,2019-10-25 01:02:58.000000000,
1571966730,2019-10-25 01:25:30.926,47.638754N 0.549064E 174m,Off,9,1.583989,0.7657333,Time OK,Free running,23000,9102,0,2019-10-25 01:02:58.000000000,
1571966790,2019-10-25 01:26:30.927,47.638754N 0.549064E 174m,Off,9,1.583989,0.7657333,Time OK,Free running,24400,9102,0,2019-10-25 01:02:58.000000000,
1571966850,2019-10-25 01:27:30.926,47.638754N 0.549064E 174m,Off,9,1.583989,0.7657333,Time OK,Free running,26100,9102,0,2019-10-25 01:02:58.000000000,
1571966910,2019-10-25 01:28:30.926,47.638754N 0.549064E 174m,Off,9,1.583989,0.7657333,Time OK,Free running,27500,9102,0,2019-10-25 01:02:58.000000000,
1571966970,2019-10-25 01:29:30.926,47.638754N 0.549064E 174m,Off,9,1.583989,0.7657333,Time OK,Free running,28900,9102,0,2019-10-25 01:02:58.000000000,
1571967030,2019-10-25 01:30:30.926,47.638754N 0.549064E 174m,Off,9,1.583989,0.7657333,Time OK,Free running,30500,9102,0,2019-10-25 01:02:58.000000000,
1571967090,2019-10-25 01:31:30.926,47.638754N 0.549064E 174m,Off,9,1.583989,0.7657333,Time OK,Free running,32000,9102,0,2019-10-25 01:02:58.000000000,
1571967150,2019-10-25 01:32:30.926,47.638754N 0.549064E 174m,Off,9,1.583989,0.7657333,Time OK,Free running,33600,9102,0,2019-10-25 01:02:58.000000000,
1571967210,2019-10-25 01:33:30.926,47.638754N 0.549064E 174m,Off,9,1.583989,0.7657333,Time OK,Free running,35300,9102,0,2019-10-25 01:02:58.000000000,
1571967270,2019-10-25 01:34:30.959,47.638754N 0.549064E 174m,Off,9,1.583989,0.7657333,Time OK,Free running,37000,9102,0,2019-10-25 01:02:58.000000000,
1571967330,2019-10-25 01:35:30.926,47.638754N 0.549064E 174m,Off,9,1.583989,0.7657333,Time OK,Free running,38800,9102,0,2019-10-25 01:02:58.000000000,
1571967390,2019-10-25 01:36:30.929,47.638754N 0.549064E 174m,Off,9,1.583989,0.7657333,Time OK,Free running,40600,9102,0,2019-10-25 01:02:58.000000000,
1571967450,2019-10-25 01:37:30.964,47.638754N 0.549064E 174m,Off,9,1.583989,0.7657333,Time OK,Free running,42300,9102,0,2019-10-25 01:02:58.000000000,
1571967510,2019-10-25 01:38:30.926,47.638754N 0.549064E 174m,Off,9,1.583989,0.7657333,Time OK,Free running,44300,9102,0,2019-10-25 01:02:58.000000000,
1571967570,2019-10-25 01:39:30.926,47.638754N 0.549064E 174m,Off,9,1.583989,0.7657333,Time OK,Free running,46300,9102,0,2019-10-25 01:02:58.000000000,
1571967630,2019-10-25 01:40:30.926,47.638754N 0.549064E 174m,Off,9,1.583989,0.7657333,Time OK,Free running,48000,9102,0,2019-10-25 01:02:58.000000000,
1571967690,2019-10-25 01:41:30.928,47.638754N 0.549064E 174m,Off,9,1.583989,0.7657333,Time OK,Free running,49800,9102,0,2019-10-25 01:02:58.000000000,
1571967750,2019-10-25 01:42:30.938,47.638754N 0.549064E 174m,Off,9,1.583989,0.7657333,Time OK,Free running,51700,9102,0,2019-10-25 01:02:58.000000000,
1571967810,2019-10-25 01:43:30.959,47.638754N 0.549064E 174m,Doing fixes,6,2.2338183,1.3074658,Time OK,Coarse lock,100,8916,8020,2019-10-25 01:43:28.000000000,
1571967870,2019-10-25 01:44:30.926,47.638754N 0.549064E 174m,Doing fixes,8,1.809015,0.93859303,Time OK,Fine lock,100,9099,-104,2019-10-25 01:44:28.000000000,
1571967930,2019-10-25 01:45:30.927,47.638754N 0.549064E 174m,Doing fixes,9,1.6789526,0.8249784,Time OK,Fine lock,100,9089,0,2019-10-25 01:45:28.000000000,
1571967990,2019-10-25 01:46:30.926,47.638754N 0.549064E 174m,Off,8,1.7636203,0.8852044,Time OK,Free running,100,9093,0,2019-10-25 01:46:28.000000000,
1571968050,2019-10-25 01:47:30.926,47.638754N 0.549064E 174m,Off,8,1.7636203,0.8852044,Time OK,Free running,1000,9093,0,2019-10-25 01:46:28.000000000,
1571968110,2019-10-25 01:48:30.926,47.638754N 0.549064E 174m,Off,8,1.7636203,0.8852044,Time OK,Free running,2000,9093,0,2019-10-25 01:46:28.000000000,
1571968170,2019-10-25 01:49:30.926,47.638754N 0.549064E 174m,Off,8,1.7636203,0.8852044,Time OK,Free running,3000,9093,0,2019-10-25 01:46:28.000000000,
1571968230,2019-10-25 01:50:30.926,47.638754N 0.549064E 174m,Off,8,1.7636203,0.8852044,Time OK,Free running,4100,9093,0,2019-10-25 01:46:28.000000000,
1571968290,2019-10-25 01:51:30.926,47.638754N 0.549064E 174m,Off,8,1.7636203,0.8852044,Time OK,Free running,5200,9093,0,2019-10-25 01:46:28.000000000,
1571968350,2019-10-25 01:52:30.926,47.638754N 0.549064E 174m,Off,8,1.7636203,0.8852044,Time OK,Free running,6500,9093,0,2019-10-25 01:46:28.000000000,
1571968410,2019-10-25 01:53:30.926,47.638754N 0.549064E 174m,Off,8,1.7636203,0.8852044,Time OK,Free running,7600,9093,0,2019-10-25 01:46:28.000000000,
1571968470,2019-10-25 01:54:30.926,47.638754N 0.549064E 174m,Off,8,1.7636203,0.8852044,Time OK,Free running,8800,9093,0,2019-10-25 01:46:28.000000000,
1571968530,2019-10-25 01:55:30.926,47.638754N 0.549064E 174m,Off,8,1.7636203,0.8852044,Time OK,Free running,9800,9093,0,2019-10-25 01:46:28.000000000,
1571968590,2019-10-25 01:56:30.926,47.638754N 0.549064E 174m,Off,8,1.7636203,0.8852044,Time OK,Free running,11000,9093,0,2019-10-25 01:46:28.000000000,
1571968650,2019-10-25 01:57:30.926,47.638754N 0.549064E 174m,Off,8,1.7636203,0.8852044,Time OK,Free running,12200,9093,0,2019-10-25 01:46:28.000000000,
1571968710,2019-10-25 01:58:30.926,47.638754N 0.549064E 174m,Off,8,1.7636203,0.8852044,Time OK,Free running,13300,9093,0,2019-10-25 01:46:28.000000000,
1571968770,2019-10-25 01:59:30.926,47.638754N 0.549064E 174m,Off,8,1.7636203,0.8852044,Time OK,Free running,14500,9093,0,2019-10-25 01:46:28.000000000,
