Time(longsecs),Time(UTC),External SOH Voltage 1(V),External SOH Voltage 2(V),External SOH Voltage 3(V),External SOH Voltage 4(V),Sensor SOH Voltage 1(V),Sensor SOH Voltage 2(V),Sensor SOH Voltage 3(V),
1571475638,2019-10-19 09:00:38.646,-8.6545944E-5,2.1488667E-3,-1.9550323E-4,9.203672E-3,4.231844E-1,4.3051434E-1,4.2924595E-1,
1571475698,2019-10-19 09:01:38.646,-2.855301E-3,-1.3301373E-3,-3.0167103E-3,6.6030025E-3,4.1689873E-1,4.2305088E-1,4.1985607E-1,
1571475758,2019-10-19 09:02:38.648,-2.3818016E-4,1.3189316E-3,-4.15802E-4,9.016991E-3,4.2303562E-1,4.294119E-1,4.2832565E-1,
1571475818,2019-10-19 09:03:38.646,-2.895832E-3,-6.620884E-4,-2.8259754E-3,6.401539E-3,4.1526031E-1,4.211502E-1,4.191103E-1,
1571475878,2019-10-19 09:04:38.646,-5.0604343E-3,-3.1123161E-3,-5.248308E-3,3.9954185E-3,4.103794E-1,4.1660023E-1,4.1444874E-1,
1571475938,2019-10-19 09:05:38.646,3.6239624E-5,2.213955E-3,-2.052784E-4,9.403467E-3,4.2337418E-1,4.296837E-1,4.2790413E-1,
1571475998,2019-10-19 09:06:38.646,-4.79722E-3,-2.452135E-3,-5.1631927E-3,4.3518543E-3,4.089775E-1,4.1498184E-1,4.1282463E-1,
1571476058,2019-10-19 09:07:38.646,-2.619505E-3,-1.9938946E-3,-3.1206608E-3,6.0749054E-3,4.1642952E-1,4.217043E-1,4.201393E-1,
1571476118,2019-10-19 09:08:38.648,-2.0611286E-3,-3.6287308E-4,-2.5115013E-3,7.0385933E-3,4.1735554E-1,4.2387676E-1,4.2148304E-1,
1571476178,2019-10-19 09:09:38.646,3.0517578E-5,1.5313625E-3,-8.08239E-5,9.15575E-3,4.2407036E-1,4.2981815E-1,4.2836094E-1,
1571476238,2019-10-19 09:10:38.656,-2.4752617E-3,-9.520054E-4,-2.9799938E-3,6.7853928E-3,4.1543674E-1,4.2120743E-1,4.1918755E-1,
1571476298,2019-10-19 09:11:38.646,-1.9910336E-3,9.5677376E-4,-2.3739338E-3,7.245302E-3,4.1693497E-1,4.2385006E-1,4.2204952E-1,
1571476358,2019-10-19 09:12:38.646,1.8072128E-4,1.073122E-3,-4.9090385E-4,9.279728E-3,4.2377472E-1,4.3001747E-1,4.2852592E-1,
1571476418,2019-10-19 09:13:38.646,-2.1708012E-3,-6.4229965E-4,-2.4149418E-3,7.229805E-3,4.1545963E-1,4.2190742E-1,4.2033195E-1,
1571476478,2019-10-19 09:14:38.646,-4.9500465E-3,-1.9927025E-3,-5.129814E-3,4.5695305E-3,4.1040897E-1,4.1672134E-1,4.1512012E-1,
1571476538,2019-10-19 09:15:38.646,-3.5953522E-4,1.5506744E-3,-6.401539E-4,9.305954E-3,4.239483E-1,4.301796E-1,4.2752552E-1,
1571476598,2019-10-19 09:16:38.646,7.939339E-5,2.1915436E-3,-2.3555756E-4,9.195328E-3,4.1972733E-1,4.2533302E-1,4.2458725E-1,
1571476658,2019-10-19 09:17:38.648,-1.9445419E-3,-1.1341572E-3,-2.5241375E-3,7.1840286E-3,4.1508198E-1,4.2184544E-1,4.1958046E-1,
1571476718,2019-10-19 09:18:38.678,-2.2978783E-3,-3.212452E-3,-5.1229E-3,4.5204163E-3,4.1038132E-1,4.1657066E-1,4.1504574E-1,
1571476778,2019-10-19 09:19:38.646,-4.778862E-3,-2.9132366E-3,-5.1083565E-3,4.2774677E-3,4.1444874E-1,4.2029285E-1,4.1896534E-1,
1571476838,2019-10-19 09:20:38.646,-4.5957565E-3,-2.9222965E-3,-4.9607754E-3,4.1413307E-3,4.0875435E-1,4.1488552E-1,4.1281605E-1,
1571476898,2019-10-19 09:21:38.646,-4.7659874E-3,-2.7911663E-3,-5.08523E-3,4.361868E-3,4.10285E-1,4.161253E-1,4.1504097E-1,
1571476958,2019-10-19 09:22:38.663,-2.0399094E-3,-3.4856796E-4,-2.4580956E-3,7.0443153E-3,4.1820908E-1,4.2420483E-1,4.2166328E-1,
1571477018,2019-10-19 09:23:38.646,1.513958E-4,1.1410713E-3,-4.1890144E-4,9.117365E-3,4.2184925E-1,4.2863274E-1,4.2682457E-1,
1571477078,2019-10-19 09:24:38.648,-1.001358E-5,1.2779236E-3,-4.9829483E-4,9.200335E-3,4.2312336E-1,4.2904854E-1,4.2757797E-1,
1571477138,2019-10-19 09:25:38.646,-4.9607754E-3,-2.4683475E-3,-4.9250126E-3,4.322529E-3,4.101677E-1,4.1595936E-1,4.1534615E-1,
1571477198,2019-10-19 09:26:38.646,-5.9366226E-5,1.6009808E-3,-4.451275E-4,9.439707E-3,4.2155457E-1,4.2787075E-1,4.2584038E-1,
1571477258,2019-10-19 09:27:38.646,-2.0754337E-3,-2.38657E-4,-2.5525093E-3,7.126093E-3,4.177704E-1,4.241085E-1,4.2259216E-1,
1571477318,2019-10-19 09:28:38.646,1.7166138E-4,1.2979507E-3,-4.8303604E-4,9.120941E-3,4.2382526E-1,4.2981339E-1,4.2835808E-1,
1571477378,2019-10-19 09:29:38.648,8.606911E-5,1.7018318E-3,-3.5238266E-4,9.4463825E-3,4.2459106E-1,4.2998695E-1,4.2806816E-1,
1571477438,2019-10-19 09:30:38.646,-1.0704994E-4,1.4586449E-3,-2.1362305E-4,9.227753E-3,4.2378616E-1,4.3021488E-1,4.2827034E-1,
1571477498,2019-10-19 09:31:38.646,-2.7284622E-3,-5.555153E-4,-3.1790733E-3,6.517172E-3,4.163618E-1,4.2290878E-1,4.203682E-1,
1571477558,2019-10-19 09:32:38.646,1.2135506E-4,1.6474724E-3,-4.899502E-4,9.154081E-3,4.239273E-1,4.2976093E-1,4.286728E-1,
1571477618,2019-10-19 09:33:38.646,3.142357E-4,1.2106895E-3,-5.056858E-4,9.281158E-3,4.2402554E-1,4.3012142E-1,4.2878342E-1,
1571477678,2019-10-19 09:34:38.684,-1.1207819E-2,-2.9599667E-3,-4.997492E-3,4.3427944E-3,4.1108894E-1,4.1629314E-1,4.1534042E-1,
1571477738,2019-10-19 09:35:38.646,-4.6818256E-3,-3.2761097E-3,-5.0008297E-3,4.4145584E-3,4.1057873E-1,4.1614628E-1,4.1510963E-1,
1571477798,2019-10-19 09:36:38.646,-4.7137737E-3,-2.8235912E-3,-4.8205853E-3,4.1365623E-3,4.0868187E-1,4.1527462E-1,4.12179E-1,
1571477858,2019-10-19 09:37:38.646,-5.003214E-3,-2.8383732E-3,-5.014658E-3,4.281521E-3,4.1420078E-1,4.2022514E-1,4.1795444E-1,
1571477918,2019-10-19 09:38:38.646,6.4611435E-5,2.200842E-3,-3.092289E-4,9.078264E-3,4.2391777E-1,4.3026447E-1,4.2802715E-1,
1571477978,2019-10-19 09:39:38.679,-1.2907982E-3,1.4491081E-3,-5.1522255E-4,9.149313E-3,4.2143917E-1,4.279499E-1,4.2604637E-1,
1571478038,2019-10-19 09:40:38.646,-2.1288395E-3,-2.6464462E-4,-2.4547577E-3,6.9186687E-3,4.1760254E-1,4.2420197E-1,4.2148876E-1,
1571478098,2019-10-19 09:41:38.647,-4.500389E-3,-2.8722286E-3,-5.088806E-3,4.4567585E-3,4.099903E-1,4.1611385E-1,4.147215E-1,
1571478158,2019-10-19 09:42:38.647,-2.2294521E-3,-3.926754E-4,-2.462864E-3,7.411003E-3,4.1741848E-1,4.2481518E-1,4.2205238E-1,
1571478218,2019-10-19 09:43:38.646,-2.200842E-3,-5.466938E-4,-2.4957657E-3,7.2398186E-3,4.155302E-1,4.2191792E-1,4.200983E-1,
1571478278,2019-10-19 09:44:38.646,-4.9300194E-3,-1.7948151E-3,-5.2871704E-3,4.5456886E-3,4.0903282E-1,4.158392E-1,4.1408253E-1,
1571478338,2019-10-19 09:45:38.646,-2.067089E-3,1.5330315E-4,-2.3524761E-3,6.8593025E-3,4.1592026E-1,4.2203808E-1,4.2005157E-1,
1571478398,2019-10-19 09:46:38.646,-1.0442734E-4,2.2351742E-3,-4.453659E-4,9.137869E-3,4.2408657E-1,4.3000317E-1,4.2748547E-1,
1571478458,2019-10-19 09:47:38.646,-2.1669865E-3,-2.4175644E-4,-2.4454594E-3,7.139683E-3,4.2158413E-1,4.273672E-1,4.2547035E-1,
1571478518,2019-10-19 09:48:38.646,-2.0256042E-3,1.2917519E-3,-2.1224022E-3,7.348776E-3,4.174652E-1,4.2306137E-1,4.221592E-1,
1571478578,2019-10-19 09:49:38.646,-4.896164E-3,-3.2026768E-3,-5.199671E-3,4.5087337E-3,4.0808392E-1,4.1420364E-1,4.1252518E-1,
1571478638,2019-10-19 09:50:38.648,-2.8424263E-3,-4.3654442E-4,-2.9394627E-3,6.3414574E-3,4.1396236E-1,4.204073E-1,4.1884422E-1,
1571478698,2019-10-19 09:51:38.646,-5.0661564E-3,-2.7525425E-3,-4.8000813E-3,4.2209625E-3,4.07897E-1,4.1366768E-1,4.1235256E-1,
1571478758,2019-10-19 09:52:38.646,-2.6700497E-3,1.8310547E-3,-3.1483173E-3,6.719351E-3,4.1636944E-1,4.2235565E-1,4.2029095E-1,
1571478818,2019-10-19 09:53:38.646,-4.993677E-3,-3.8247108E-3,-4.8663616E-3,4.2128563E-3,4.1078377E-1,4.1619587E-1,4.1431046E-1,
1571478878,2019-10-19 09:54:38.646,2.951622E-4,-7.3480606E-4,-3.092289E-4,9.307861E-3,4.2150497E-1,4.2825603E-1,4.26404E-1,
1571478938,2019-10-19 09:55:38.646,-4.994154E-3,-3.386736E-3,-5.008936E-3,4.2595863E-3,4.1048527E-1,4.158821E-1,4.1503525E-1,
1571478998,2019-10-19 09:56:38.648,-4.9290657E-3,-3.0937195E-3,-5.0115585E-3,4.6486855E-3,4.1036034E-1,4.161911E-1,4.1496468E-1,
1571479058,2019-10-19 09:57:38.646,-4.863739E-5,1.7485619E-3,-3.578663E-4,9.184599E-3,4.2315006E-1,4.292097E-1,4.2825317E-1,
1571479118,2019-10-19 09:58:38.646,9.346008E-5,8.6545944E-4,-4.7135353E-4,9.088516E-3,4.1966438E-1,4.2555618E-1,4.2403698E-1,
1571479178,2019-10-19 09:59:38.646,-4.88472E-3,-2.5289059E-3,-5.1443577E-3,4.287958E-3,4.0892315E-1,4.1415787E-1,4.1279888E-1,
