Time(longsecs),Time(UTC),Supply Voltage(mV),Temperature(&deg;C),NMX Bus Current(mA),Sensor Current(mA),Serial Port Current(mA),Controller Current(mA),Digitizer Current(mA),
1571454002,2019-10-19 03:00:02.472,12468,1.632312E1,0,18,0,61,57,
1571454062,2019-10-19 03:01:02.472,12495,1.6322083E1,0,11,0,61,53,
1571454122,2019-10-19 03:02:02.475,12454,1.6227661E1,0,15,0,51,58,
1571454182,2019-10-19 03:03:02.477,12428,1.639737E1,0,13,0,61,50,
1571454242,2019-10-19 03:04:02.472,12468,1.6183136E1,0,13,0,51,54,
1571454302,2019-10-19 03:05:02.472,12441,1.6247833E1,0,12,0,61,54,
1571454362,2019-10-19 03:06:02.472,12481,1.6116302E1,0,6,0,62,54,
1571454422,2019-10-19 03:07:02.472,12441,1.6216003E1,0,11,0,50,59,
1571454482,2019-10-19 03:08:02.475,12481,1.633374E1,0,11,0,51,54,
1571454542,2019-10-19 03:09:02.472,12468,1.6242523E1,0,7,0,59,56,
1571454602,2019-10-19 03:10:02.475,12468,1.6203278E1,0,9,0,60,53,
1571454662,2019-10-19 03:11:02.472,12481,1.6270111E1,0,18,0,51,57,
1571454722,2019-10-19 03:12:02.473,12454,1.6231903E1,0,9,0,57,57,
1571454782,2019-10-19 03:13:02.509,12441,1.6398438E1,0,13,0,60,58,
1571454842,2019-10-19 03:14:02.472,12495,1.6045227E1,0,12,0,59,53,
1571454902,2019-10-19 03:15:02.472,12468,1.6395264E1,0,13,0,60,54,
1571454962,2019-10-19 03:16:02.475,12441,1.6187378E1,0,14,0,51,56,
1571455022,2019-10-19 03:17:02.472,12468,1.6209625E1,0,11,0,51,53,
1571455082,2019-10-19 03:18:02.472,12468,1.6318878E1,0,11,0,59,55,
1571455142,2019-10-19 03:19:02.472,12468,1.6247833E1,0,13,0,61,51,
1571455202,2019-10-19 03:20:02.472,12428,1.6156616E1,0,6,0,60,55,
1571455262,2019-10-19 03:21:02.472,12428,1.621814E1,0,14,0,51,55,
1571455322,2019-10-19 03:22:02.505,12468,1.6279633E1,0,11,0,51,53,
1571455382,2019-10-19 03:23:02.472,12468,1.6063263E1,0,3,0,54,57,
1571455442,2019-10-19 03:24:02.473,12441,1.6172516E1,0,9,0,54,57,
1571455502,2019-10-19 03:25:02.472,12468,1.6259491E1,0,9,0,61,52,
1571455562,2019-10-19 03:26:02.472,12441,1.6297668E1,0,13,0,51,55,
1571455622,2019-10-19 03:27:02.473,12468,1.6082367E1,0,12,0,73,55,
1571455682,2019-10-19 03:28:02.473,12441,1.6208588E1,0,7,0,71,55,
1571455742,2019-10-19 03:29:02.473,12441,1.6364502E1,0,13,0,67,53,
1571455802,2019-10-19 03:30:02.509,12454,1.6277527E1,0,13,0,59,56,
1571455862,2019-10-19 03:31:02.475,12481,1.6244629E1,0,11,0,51,51,
1571455922,2019-10-19 03:32:02.472,12468,1.6047363E1,0,4,0,51,55,
1571455982,2019-10-19 03:33:02.475,12481,1.6173584E1,0,12,0,64,57,
1571456042,2019-10-19 03:34:02.472,12428,1.6201141E1,0,11,0,60,52,
1571456102,2019-10-19 03:35:02.472,12481,1.6131165E1,0,9,0,60,53,
1571456162,2019-10-19 03:36:02.472,12468,1.6109924E1,0,10,0,51,58,
1571456222,2019-10-19 03:37:02.474,12468,1.6069641E1,0,10,0,51,55,
1571456282,2019-10-19 03:38:02.472,12481,1.6002808E1,0,12,0,61,62,
1571456342,2019-10-19 03:39:02.472,12454,1.6292358E1,0,11,0,60,55,
1571456402,2019-10-19 03:40:02.472,12454,1.6156616E1,0,15,0,60,52,
1571456462,2019-10-19 03:41:02.472,12441,1.614389E1,0,11,0,51,53,
1571456522,2019-10-19 03:42:02.472,12468,1.6238281E1,0,14,0,54,59,
1571456582,2019-10-19 03:43:02.473,12441,1.623935E1,0,11,0,57,57,
1571456642,2019-10-19 03:44:02.472,12481,1.6259491E1,0,11,0,59,53,
1571456702,2019-10-19 03:45:02.472,12441,1.6109924E1,0,13,0,62,53,
1571456762,2019-10-19 03:46:02.472,12495,1.598584E1,0,12,0,52,56,
1571456822,2019-10-19 03:47:02.472,12441,1.6337982E1,0,6,0,52,51,
1571456882,2019-10-19 03:48:02.472,12481,1.6174652E1,0,12,0,60,59,
1571456942,2019-10-19 03:49:02.472,12468,1.601236E1,0,13,0,60,52,
1571457002,2019-10-19 03:50:02.472,12468,1.6157654E1,0,0,0,59,58,
1571457062,2019-10-19 03:51:02.473,12495,1.6224487E1,0,13,0,59,52,
1571457122,2019-10-19 03:52:02.472,12441,1.6283875E1,0,12,0,51,55,
1571457182,2019-10-19 03:53:02.472,12441,1.594873E1,0,12,0,52,60,
1571457242,2019-10-19 03:54:02.472,12468,1.617041E1,0,11,0,59,59,
1571457302,2019-10-19 03:55:02.472,12428,1.6014465E1,0,9,0,59,54,
1571457362,2019-10-19 03:56:02.472,12481,1.6059021E1,0,13,0,51,56,
1571457422,2019-10-19 03:57:02.472,12468,1.6219177E1,0,11,0,61,54,
1571457482,2019-10-19 03:58:02.472,12468,1.61969E1,0,17,0,59,58,
1571457542,2019-10-19 03:59:02.472,12468,1.5912659E1,0,11,0,54,54,
