Time(longsecs),Time(UTC),External SOH Voltage 1(V),External SOH Voltage 2(V),External SOH Voltage 3(V),External SOH Voltage 4(V),Sensor SOH Voltage 1(V),Sensor SOH Voltage 2(V),Sensor SOH Voltage 3(V),
1571515238,2019-10-19 20:00:38.646,4.386902E-5,2.1643639E-3,-3.0303E-4,9.318352E-3,4.2002392E-1,4.256363E-1,4.2358875E-1,
1571515298,2019-10-19 20:01:38.646,-1.9145012E-3,2.6845932E-4,-2.1796227E-3,7.4322224E-3,4.1759205E-1,4.241352E-1,4.2122746E-1,
1571515358,2019-10-19 20:02:38.646,2.336502E-5,1.7864704E-3,-4.117489E-4,9.3586445E-3,4.2255688E-1,4.2860508E-1,4.2624664E-1,
1571515418,2019-10-19 20:03:38.646,-2.6359558E-3,-1.5079975E-3,-3.2653809E-3,6.443739E-3,4.1204643E-1,4.1860676E-1,4.1696644E-1,
1571515478,2019-10-19 20:04:38.646,-4.839182E-3,-3.1878948E-3,-4.798889E-3,4.4624805E-3,4.0823555E-1,4.142952E-1,4.1194248E-1,
1571515538,2019-10-19 20:05:38.647,-1.9218922E-3,-4.1341782E-4,-2.418518E-3,7.029295E-3,4.1514874E-1,4.219141E-1,4.2029285E-1,
1571515598,2019-10-19 20:06:38.646,-1.3184547E-4,1.1236668E-3,-6.084442E-4,9.20105E-3,4.2437553E-1,4.2981815E-1,4.2795563E-1,
1571515658,2019-10-19 20:07:38.646,-2.6419163E-3,-7.686615E-4,-3.0608177E-3,6.4940453E-3,4.124012E-1,4.1877937E-1,4.17305E-1,
1571515718,2019-10-19 20:08:38.646,-3.0755997E-4,2.3517609E-3,-2.0360947E-4,9.129524E-3,4.1996098E-1,4.2574596E-1,4.242382E-1,
1571515778,2019-10-19 20:09:38.646,-1.9798279E-3,2.4724007E-4,-2.3481846E-3,6.910801E-3,4.168806E-1,4.2337322E-1,4.217806E-1,
1571515838,2019-10-19 20:10:38.646,-2.7673244E-3,-7.894039E-4,-3.2298565E-3,6.3033104E-3,4.1467476E-1,4.2036343E-1,4.1896152E-1,
1571515898,2019-10-19 20:11:38.646,-1.6665459E-4,1.3973713E-3,-6.7067146E-4,9.06539E-3,4.176798E-1,4.241085E-1,4.2263508E-1,
1571515958,2019-10-19 20:12:38.646,2.9087067E-5,1.1672974E-3,-4.4226646E-4,9.120941E-3,4.2172146E-1,4.2862797E-1,4.2669868E-1,
1571516018,2019-10-19 20:13:38.646,-2.7623177E-3,-1.2776852E-3,-3.0732155E-3,6.592989E-3,4.1480446E-1,4.2034054E-1,4.1872883E-1,
1571516078,2019-10-19 20:14:38.646,-2.0184517E-3,7.43866E-5,-2.376318E-3,7.258892E-3,4.1570663E-1,4.216528E-1,4.2117786E-1,
1571516138,2019-10-19 20:15:38.646,-1.9686222E-3,-6.558895E-4,-2.5188923E-3,7.0722103E-3,4.1687298E-1,4.2387962E-1,4.222784E-1,
1571516198,2019-10-19 20:16:38.646,1.642704E-4,1.7523766E-3,-3.1256676E-4,9.278774E-3,4.233923E-1,4.301548E-1,4.2793941E-1,
1571516258,2019-10-19 20:17:38.646,-1.21593475E-5,1.1558533E-3,-4.2200089E-4,9.195566E-3,4.2193604E-1,4.276867E-1,4.2567158E-1,
1571516318,2019-10-19 20:18:38.646,-2.2799969E-3,-1.0921955E-3,-2.4819374E-3,7.0466995E-3,4.132738E-1,4.1957664E-1,4.179058E-1,
1571516378,2019-10-19 20:19:38.646,-2.6226044E-5,1.6431808E-3,-1.8167496E-4,9.213448E-3,4.201784E-1,4.2630672E-1,4.247141E-1,
1571516438,2019-10-19 20:20:38.646,-2.5761127E-3,-8.609295E-4,-3.0128956E-3,6.620884E-3,4.1482067E-1,4.202528E-1,4.1881943E-1,
1571516498,2019-10-19 20:21:38.646,-2.070427E-3,-1.5640259E-4,-2.2704601E-3,7.0540905E-3,4.115095E-1,4.173956E-1,4.165516E-1,
1571516558,2019-10-19 20:22:38.646,-4.909992E-3,-3.2949448E-3,-4.922867E-3,4.471779E-3,4.065838E-1,4.1238022E-1,4.110422E-1,
1571516618,2019-10-19 20:23:38.646,-2.8152466E-3,-1.8703938E-3,-3.106594E-3,6.243229E-3,4.1480637E-1,4.206543E-1,4.1903687E-1,
1571516678,2019-10-19 20:24:38.647,-4.8880577E-3,-3.232479E-3,-5.1014423E-3,4.0962696E-3,4.0811634E-1,4.138794E-1,4.140501E-1,
1571516738,2019-10-19 20:25:38.647,-4.819393E-3,-2.9072762E-3,-4.983902E-3,4.237175E-3,4.0794563E-1,4.1378498E-1,4.125309E-1,
1571516798,2019-10-19 20:26:38.656,-1.1444092E-5,1.5664101E-3,-2.746582E-4,9.163618E-3,4.2358875E-1,4.2956257E-1,4.2846966E-1,
1571516858,2019-10-19 20:27:38.646,-4.878521E-3,-2.264738E-3,-4.774332E-3,4.2481422E-3,4.0849018E-1,4.141779E-1,4.1317177E-1,
1571516918,2019-10-19 20:28:38.646,-2.7427673E-3,-3.178835E-3,-2.956152E-3,6.517172E-3,4.1069508E-1,4.1646385E-1,4.147005E-1,
1571516978,2019-10-19 20:29:38.646,-4.8000813E-3,-5.6107044E-3,-5.1555634E-3,4.319668E-3,4.0759182E-1,4.1483402E-1,4.125061E-1,
1571517038,2019-10-19 20:30:38.646,-2.1555424E-3,-1.8484592E-3,-2.308607E-3,7.4322224E-3,4.1502857E-1,4.2128468E-1,4.1989803E-1,
1571517098,2019-10-19 20:31:38.646,-2.858162E-3,-2.7945042E-3,-3.0825138E-3,6.509781E-3,4.1486168E-1,4.2090797E-1,4.1932297E-1,
1571517158,2019-10-19 20:32:38.646,-5.0070286E-3,-2.5877953E-3,-4.8913956E-3,4.333496E-3,4.0818024E-1,4.146328E-1,4.1229916E-1,
1571517218,2019-10-19 20:33:38.646,-4.968405E-3,-3.481865E-3,-5.1543713E-3,4.2943954E-3,4.1041756E-1,4.1620827E-1,4.144125E-1,
1571517278,2019-10-19 20:34:38.646,-2.0554066E-3,-1.8210411E-3,-2.3846626E-3,7.1234703E-3,4.1582394E-1,4.2191696E-1,4.2022514E-1,
1571517338,2019-10-19 20:35:38.646,-2.5398731E-3,-3.0443668E-3,-3.1573772E-3,6.2687397E-3,4.1431046E-1,4.2021465E-1,4.18643E-1,
1571517398,2019-10-19 20:36:38.646,-4.934311E-3,-3.5376549E-3,-5.008459E-3,4.3320656E-3,4.0805912E-1,4.1421986E-1,4.1251278E-1,
1571517458,2019-10-19 20:37:38.646,-2.730608E-3,-2.5906563E-3,-3.241539E-3,6.4918995E-3,4.166336E-1,4.2276287E-1,4.2031097E-1,
1571517518,2019-10-19 20:38:38.646,-2.7720928E-3,-1.1000633E-3,-2.8340816E-3,6.6137314E-3,4.169178E-1,4.2313194E-1,4.2086124E-1,
1571517578,2019-10-19 20:39:38.646,-2.8028488E-3,-4.2200089E-4,-3.098011E-3,6.4940453E-3,4.1393375E-1,4.2131424E-1,4.1845512E-1,
1571517638,2019-10-19 20:40:38.646,-2.4051666E-3,-2.579689E-4,-2.8119087E-3,6.5221786E-3,4.1333485E-1,4.1889477E-1,4.16893E-1,
1571517698,2019-10-19 20:41:38.646,-2.6197433E-3,-1.8336773E-3,-2.6419163E-3,6.394148E-3,4.1488552E-1,4.2050362E-1,4.194765E-1,
1571517758,2019-10-19 20:42:38.679,-6.918907E-4,-9.3102455E-4,-3.011465E-3,6.275654E-3,4.1559505E-1,4.2106915E-1,4.1997814E-1,
1571517818,2019-10-19 20:43:38.646,-1.97649E-3,1.2276173E-3,-2.4192333E-3,7.2562695E-3,4.1576195E-1,4.218111E-1,4.2036533E-1,
1571517878,2019-10-19 20:44:38.646,-5.067587E-3,-3.6201477E-3,-5.014658E-3,4.0740967E-3,4.0839958E-1,4.1477108E-1,4.122429E-1,
1571517938,2019-10-19 20:45:38.646,-4.947901E-3,-3.7403107E-3,-5.008936E-3,4.361868E-3,4.0744877E-1,4.1422272E-1,4.1202068E-1,
1571517998,2019-10-19 20:46:38.646,8.511543E-5,3.321886E-3,-3.4093857E-4,9.1667175E-3,4.2112064E-1,4.2756844E-1,4.27166E-1,
1571518058,2019-10-19 20:47:38.646,-2.7525425E-3,-1.2404919E-3,-3.0229092E-3,6.644964E-3,4.154024E-1,4.2153072E-1,4.190197E-1,
1571518118,2019-10-19 20:48:38.646,2.632141E-4,2.1882057E-3,-4.2819977E-4,9.542704E-3,4.213543E-1,4.2804337E-1,4.2684937E-1,
1571518178,2019-10-19 20:49:38.647,-2.038002E-3,-2.4335384E-3,-2.401352E-3,7.3256493E-3,4.1805077E-1,4.241476E-1,4.218874E-1,
1571518238,2019-10-19 20:50:38.646,-1.995325E-3,1.3017654E-3,-2.4876595E-3,7.3986053E-3,4.1367626E-1,4.1958714E-1,4.1826534E-1,
1571518298,2019-10-19 20:51:38.646,-2.7079582E-3,-1.3427734E-3,-3.1244755E-3,6.79183E-3,4.1321278E-1,4.1945267E-1,4.17284E-1,
1571518358,2019-10-19 20:52:38.646,3.9815903E-5,1.9614697E-3,-1.7809868E-4,9.236574E-3,4.2184067E-1,4.2840958E-1,4.261589E-1,
1571518418,2019-10-19 20:53:38.646,-4.868984E-3,-2.4952888E-3,-5.049467E-3,4.327297E-3,4.0628052E-1,4.128828E-1,4.1081047E-1,
1571518478,2019-10-19 20:54:38.646,-2.3841858E-5,9.083748E-4,-2.8777122E-4,9.169102E-3,4.2035198E-1,4.2552853E-1,4.238329E-1,
1571518538,2019-10-19 20:55:38.646,-4.892826E-3,-9.1552734E-5,-5.124569E-3,4.163027E-3,4.0834522E-1,4.139862E-1,4.1294575E-1,
1571518598,2019-10-19 20:56:38.678,-6.088972E-3,-1.1384487E-3,-2.8903484E-3,6.5248013E-3,4.1451454E-1,4.210558E-1,4.1947842E-1,
1571518658,2019-10-19 20:57:38.646,-2.7325153E-3,-1.758337E-3,-2.9599667E-3,6.394148E-3,4.1475868E-1,4.210539E-1,4.1923714E-1,
1571518718,2019-10-19 20:58:38.646,-2.626419E-3,-1.0216236E-3,-3.00169E-3,6.6976547E-3,4.1633034E-1,4.2245674E-1,4.210043E-1,
1571518778,2019-10-19 20:59:38.646,-1.3184547E-4,8.049011E-4,-4.990101E-4,9.288788E-3,4.236269E-1,4.292307E-1,4.2775726E-1,
