Time(longsecs),Time(UTC),Earth Location,GPS Receiver Status,GPS Satellites Used,GPS PDOP,GPS TDOP,Timing Status,Timing Phase Lock,Timing Uncertainty(ns),DAC Count,Timing Error(ns),GPS Last Update Time,
1571526038,2019-10-19 23:00:38.646,47.651966N 0.543288E 130m,Off,6,3.5210516,2.300608,Time OK,Free running,2400,8998,0,2019-10-19 22:58:05.000000000,
1571526098,2019-10-19 23:01:38.646,47.651966N 0.543288E 130m,Off,6,3.5210516,2.300608,Time OK,Free running,3400,8998,0,2019-10-19 22:58:05.000000000,
1571526158,2019-10-19 23:02:38.646,47.651966N 0.543288E 130m,Off,6,3.5210516,2.300608,Time OK,Free running,4500,8998,0,2019-10-19 22:58:05.000000000,
1571526218,2019-10-19 23:03:38.647,47.651966N 0.543288E 130m,Off,6,3.5210516,2.300608,Time OK,Free running,5900,8998,0,2019-10-19 22:58:05.000000000,
1571526278,2019-10-19 23:04:38.646,47.651966N 0.543288E 130m,Off,6,3.5210516,2.300608,Time OK,Free running,7200,8998,0,2019-10-19 22:58:05.000000000,
1571526338,2019-10-19 23:05:38.646,47.651966N 0.543288E 130m,Off,6,3.5210516,2.300608,Time OK,Free running,8200,8998,0,2019-10-19 22:58:05.000000000,
1571526398,2019-10-19 23:06:38.646,47.651966N 0.543288E 130m,Off,6,3.5210516,2.300608,Time OK,Free running,9200,8998,0,2019-10-19 22:58:05.000000000,
1571526458,2019-10-19 23:07:38.647,47.651966N 0.543288E 130m,Off,6,3.5210516,2.300608,Time OK,Free running,10300,8998,0,2019-10-19 22:58:05.000000000,
1571526518,2019-10-19 23:08:38.647,47.651966N 0.543288E 130m,Off,6,3.5210516,2.300608,Time OK,Free running,11100,8998,0,2019-10-19 22:58:05.000000000,
1571526578,2019-10-19 23:09:38.646,47.651966N 0.543288E 130m,Off,6,3.5210516,2.300608,Time OK,Free running,12000,8998,0,2019-10-19 22:58:05.000000000,
1571526638,2019-10-19 23:10:38.656,47.651966N 0.543288E 130m,Off,6,3.5210516,2.300608,Time OK,Free running,13100,8998,0,2019-10-19 22:58:05.000000000,
1571526698,2019-10-19 23:11:38.646,47.651966N 0.543288E 130m,Off,6,3.5210516,2.300608,Time OK,Free running,14200,8998,0,2019-10-19 22:58:05.000000000,
1571526758,2019-10-19 23:12:38.646,47.651966N 0.543288E 130m,Off,6,3.5210516,2.300608,Time OK,Free running,15000,8998,0,2019-10-19 22:58:05.000000000,
1571526818,2019-10-19 23:13:38.648,47.651966N 0.543288E 130m,Off,6,3.5210516,2.300608,Time OK,Free running,15900,8998,0,2019-10-19 22:58:05.000000000,
1571526878,2019-10-19 23:14:38.649,47.651966N 0.543288E 130m,Off,6,3.5210516,2.300608,Time OK,Free running,16900,8998,0,2019-10-19 22:58:05.000000000,
1571526938,2019-10-19 23:15:38.646,47.651966N 0.543288E 130m,Off,6,3.5210516,2.300608,Time OK,Free running,17800,8998,0,2019-10-19 22:58:05.000000000,
1571526998,2019-10-19 23:16:38.646,47.651966N 0.543288E 130m,Off,6,3.5210516,2.300608,Time OK,Free running,19000,8998,0,2019-10-19 22:58:05.000000000,
1571527058,2019-10-19 23:17:38.646,47.651966N 0.543288E 130m,Off,6,3.5210516,2.300608,Time OK,Free running,20100,8998,0,2019-10-19 22:58:05.000000000,
1571527118,2019-10-19 23:18:38.656,47.651966N 0.543288E 130m,Off,6,3.5210516,2.300608,Time OK,Free running,20900,8998,0,2019-10-19 22:58:05.000000000,
1571527178,2019-10-19 23:19:38.646,47.651966N 0.543288E 130m,Off,6,3.5210516,2.300608,Time OK,Free running,21900,8998,0,2019-10-19 22:58:05.000000000,
1571527238,2019-10-19 23:20:38.646,47.651966N 0.543288E 130m,Off,6,3.5210516,2.300608,Time OK,Free running,23000,8998,0,2019-10-19 22:58:05.000000000,
1571527298,2019-10-19 23:21:38.646,47.651966N 0.543288E 130m,Off,6,3.5210516,2.300608,Time OK,Free running,24300,8998,0,2019-10-19 22:58:05.000000000,
1571527358,2019-10-19 23:22:38.646,47.651966N 0.543288E 130m,Off,6,3.5210516,2.300608,Time OK,Free running,25200,8998,0,2019-10-19 22:58:05.000000000,
1571527418,2019-10-19 23:23:38.646,47.651966N 0.543288E 130m,Off,6,3.5210516,2.300608,Time OK,Free running,26100,8998,0,2019-10-19 22:58:05.000000000,
1571527478,2019-10-19 23:24:38.646,47.651966N 0.543288E 130m,Off,6,3.5210516,2.300608,Time OK,Free running,27400,8998,0,2019-10-19 22:58:05.000000000,
1571527538,2019-10-19 23:25:38.646,47.651966N 0.543288E 130m,Off,6,3.5210516,2.300608,Time OK,Free running,28700,8998,0,2019-10-19 22:58:05.000000000,
1571527598,2019-10-19 23:26:38.646,47.651966N 0.543288E 130m,Off,6,3.5210516,2.300608,Time OK,Free running,29700,8998,0,2019-10-19 22:58:05.000000000,
1571527658,2019-10-19 23:27:38.646,47.651966N 0.543288E 130m,Off,6,3.5210516,2.300608,Time OK,Free running,30800,8998,0,2019-10-19 22:58:05.000000000,
1571527718,2019-10-19 23:28:38.646,47.651966N 0.543288E 130m,Off,6,3.5210516,2.300608,Time OK,Free running,32100,8998,0,2019-10-19 22:58:05.000000000,
1571527778,2019-10-19 23:29:38.646,47.651966N 0.543288E 130m,Off,6,3.5210516,2.300608,Time OK,Free running,32900,8998,0,2019-10-19 22:58:05.000000000,
1571527838,2019-10-19 23:30:38.646,47.651966N 0.543288E 130m,Off,6,3.5210516,2.300608,Time OK,Free running,33800,8998,0,2019-10-19 22:58:05.000000000,
1571527898,2019-10-19 23:31:38.646,47.651966N 0.543288E 130m,Off,6,3.5210516,2.300608,Time OK,Free running,35000,8998,0,2019-10-19 22:58:05.000000000,
1571527958,2019-10-19 23:32:38.646,47.651966N 0.543288E 130m,Off,6,3.5210516,2.300608,Time OK,Free running,35900,8998,0,2019-10-19 22:58:05.000000000,
1571528018,2019-10-19 23:33:38.647,47.651966N 0.543288E 130m,Off,6,3.5210516,2.300608,Time OK,Free running,36800,8998,0,2019-10-19 22:58:05.000000000,
1571528078,2019-10-19 23:34:38.646,47.651966N 0.543288E 130m,Off,6,3.5210516,2.300608,Time OK,Free running,38200,8998,0,2019-10-19 22:58:05.000000000,
1571528138,2019-10-19 23:35:38.646,47.651966N 0.543288E 130m,Off,6,3.5210516,2.300608,Time OK,Free running,39800,8998,0,2019-10-19 22:58:05.000000000,
1571528198,2019-10-19 23:36:38.679,47.651966N 0.543288E 130m,Off,6,3.5210516,2.300608,Time OK,Free running,41300,8998,0,2019-10-19 22:58:05.000000000,
1571528258,2019-10-19 23:37:38.646,47.651966N 0.543288E 130m,Off,6,3.5210516,2.300608,Time OK,Free running,42500,8998,0,2019-10-19 22:58:05.000000000,
1571528318,2019-10-19 23:38:38.646,47.651966N 0.543288E 130m,Off,6,3.5210516,2.300608,Time OK,Free running,43400,8998,0,2019-10-19 22:58:05.000000000,
1571528378,2019-10-19 23:39:38.646,47.651966N 0.543288E 130m,Off,6,3.5210516,2.300608,Time OK,Free running,44500,8998,0,2019-10-19 22:58:05.000000000,
1571528438,2019-10-19 23:40:38.646,47.651966N 0.543288E 130m,Off,6,3.5210516,2.300608,Time OK,Free running,45700,8998,0,2019-10-19 22:58:05.000000000,
1571528498,2019-10-19 23:41:38.646,47.651966N 0.543288E 130m,Off,6,3.5210516,2.300608,Time OK,Free running,46700,8998,0,2019-10-19 22:58:05.000000000,
1571528558,2019-10-19 23:42:38.646,47.651966N 0.543288E 130m,Off,6,3.5210516,2.300608,Time OK,Free running,47600,8998,0,2019-10-19 22:58:05.000000000,
1571528618,2019-10-19 23:43:38.646,47.651966N 0.543288E 130m,Off,6,3.5210516,2.300608,Time OK,Free running,48500,8998,0,2019-10-19 22:58:05.000000000,
1571528678,2019-10-19 23:44:38.646,47.651966N 0.543288E 130m,Off,6,3.5210516,2.300608,Time OK,Free running,49400,8998,0,2019-10-19 22:58:05.000000000,
1571528738,2019-10-19 23:45:38.646,47.651966N 0.543288E 130m,Off,6,3.5210516,2.300608,Time OK,Free running,50400,8998,0,2019-10-19 22:58:05.000000000,
1571528798,2019-10-19 23:46:38.647,47.651966N 0.543288E 130m,Doing fixes,4,5.5722713,3.833123,Time OK,Free running,51700,8998,0,2019-10-19 23:46:35.000000000,
1571528858,2019-10-19 23:47:38.647,47.651966N 0.543288E 130m,Doing fixes,6,3.2697387,2.255943,Time OK,Fine lock,100,8993,104,2019-10-19 23:47:35.000000000,
1571528918,2019-10-19 23:48:38.646,47.651966N 0.543288E 130m,Off,6,3.2954977,2.2763875,Time OK,Free running,200,8996,0,2019-10-19 23:48:25.000000000,
1571528978,2019-10-19 23:49:38.648,47.651966N 0.543288E 130m,Off,6,3.2954977,2.2763875,Time OK,Free running,1300,8996,0,2019-10-19 23:48:25.000000000,
1571529038,2019-10-19 23:50:38.646,47.651966N 0.543288E 130m,Off,6,3.2954977,2.2763875,Time OK,Free running,2600,8996,0,2019-10-19 23:48:25.000000000,
1571529098,2019-10-19 23:51:38.646,47.651966N 0.543288E 130m,Off,6,3.2954977,2.2763875,Time OK,Free running,3600,8996,0,2019-10-19 23:48:25.000000000,
1571529158,2019-10-19 23:52:38.646,47.651966N 0.543288E 130m,Off,6,3.2954977,2.2763875,Time OK,Free running,4700,8996,0,2019-10-19 23:48:25.000000000,
1571529218,2019-10-19 23:53:38.646,47.651966N 0.543288E 130m,Off,6,3.2954977,2.2763875,Time OK,Free running,5900,8996,0,2019-10-19 23:48:25.000000000,
1571529278,2019-10-19 23:54:38.646,47.651966N 0.543288E 130m,Off,6,3.2954977,2.2763875,Time OK,Free running,6900,8996,0,2019-10-19 23:48:25.000000000,
1571529338,2019-10-19 23:55:38.646,47.651966N 0.543288E 130m,Off,6,3.2954977,2.2763875,Time OK,Free running,8000,8996,0,2019-10-19 23:48:25.000000000,
1571529398,2019-10-19 23:56:38.646,47.651966N 0.543288E 130m,Off,6,3.2954977,2.2763875,Time OK,Free running,9100,8996,0,2019-10-19 23:48:25.000000000,
1571529458,2019-10-19 23:57:38.646,47.651966N 0.543288E 130m,Off,6,3.2954977,2.2763875,Time OK,Free running,10100,8996,0,2019-10-19 23:48:25.000000000,
1571529518,2019-10-19 23:58:38.683,47.651966N 0.543288E 130m,Off,6,3.2954977,2.2763875,Time OK,Free running,11200,8996,0,2019-10-19 23:48:25.000000000,
1571529578,2019-10-19 23:59:38.646,47.651966N 0.543288E 130m,Off,6,3.2954977,2.2763875,Time OK,Free running,12300,8996,0,2019-10-19 23:48:25.000000000,
