Time(longsecs),Time(UTC),Supply Voltage(mV),Temperature(&deg;C),NMX Bus Current(mA),Sensor Current(mA),Serial Port Current(mA),Controller Current(mA),Digitizer Current(mA),
1569931249,2019-10-01 12:00:49.910,13961,2.3675629E1,0,11,0,76,53,
1569931309,2019-10-01 12:01:49.912,13947,2.3760498E1,0,9,0,75,54,
1569931369,2019-10-01 12:02:49.910,13961,2.3565338E1,0,10,0,82,50,
1569931429,2019-10-01 12:03:49.910,14001,2.3634277E1,0,9,0,77,50,
1569931489,2019-10-01 12:04:49.910,14001,2.3767914E1,0,9,0,76,51,
1569931549,2019-10-01 12:05:49.910,14001,2.3947174E1,0,12,0,78,52,
1569931609,2019-10-01 12:06:49.910,14015,2.3746704E1,0,7,0,77,50,
1569931669,2019-10-01 12:07:49.942,13974,2.3964142E1,0,11,0,77,51,
1569931729,2019-10-01 12:08:49.945,13988,2.3946106E1,0,11,0,75,50,
1569931789,2019-10-01 12:09:49.910,14001,2.4220825E1,0,13,0,75,50,
1569931849,2019-10-01 12:10:49.910,13988,2.415506E1,0,11,0,75,50,
1569931909,2019-10-01 12:11:49.910,14001,2.4050049E1,0,13,0,76,51,
1569931969,2019-10-01 12:12:49.910,13988,2.4043701E1,0,14,0,77,50,
1569932029,2019-10-01 12:13:49.910,13988,2.4035217E1,0,6,0,75,51,
1569932089,2019-10-01 12:14:49.910,14001,2.3899445E1,0,18,0,77,52,
1569932149,2019-10-01 12:15:49.910,14015,2.4148682E1,0,11,0,74,48,
1569932209,2019-10-01 12:16:49.921,13988,2.4089294E1,0,11,0,110,54,
1569932269,2019-10-01 12:17:49.910,14070,2.4153992E1,0,11,0,107,50,
1569932329,2019-10-01 12:18:49.910,14137,2.4337494E1,0,11,0,73,54,
1569932389,2019-10-01 12:19:49.910,14110,2.419217E1,0,11,0,75,51,
1569932449,2019-10-01 12:20:49.910,14070,2.440326E1,0,6,0,77,51,
1569932509,2019-10-01 12:21:49.910,14137,2.4469025E1,0,11,0,76,50,
1569932569,2019-10-01 12:22:49.910,14164,2.4268555E1,0,13,0,75,50,
1569932629,2019-10-01 12:23:49.910,14137,2.4124298E1,0,6,0,75,51,
1569932689,2019-10-01 12:24:49.910,14123,2.4383087E1,0,11,0,54,50,
1569934049,2019-10-01 12:47:29.734,14599,2.2696655E1,0,9,0,70,54,
1569934110,2019-10-01 12:48:30.609,14639,2.267862E1,0,11,0,77,57,
1569934170,2019-10-01 12:49:30.610,14571,2.2663757E1,0,11,0,75,52,
1569934230,2019-10-01 12:50:30.642,14557,2.2782562E1,0,6,0,87,51,
1569934290,2019-10-01 12:51:30.609,14585,2.3011658E1,0,16,0,74,52,
1569934350,2019-10-01 12:52:30.609,14585,2.2974548E1,0,7,0,98,46,
1569934410,2019-10-01 12:53:30.609,14599,2.3040314E1,0,9,0,74,50,
1569934470,2019-10-01 12:54:30.609,14585,2.3164398E1,0,10,0,71,48,
1569934530,2019-10-01 12:55:30.609,14571,2.3165466E1,0,11,0,75,48,
1569934590,2019-10-01 12:56:30.609,14571,2.310608E1,0,10,0,72,48,
1569934650,2019-10-01 12:57:30.609,14571,2.321106E1,0,15,0,66,48,
1569934710,2019-10-01 12:58:30.609,14571,2.3207886E1,0,9,0,73,50,
1569934770,2019-10-01 12:59:30.609,14571,2.332669E1,0,10,0,62,48,
