Time(longsecs),Time(UTC),Earth Location,GPS Receiver Status,GPS Satellites Used,GPS PDOP,GPS TDOP,Timing Status,Timing Phase Lock,Timing Uncertainty(ns),DAC Count,Timing Error(ns),GPS Last Update Time,
1570035611,2019-10-02 17:00:11.767,47.651118N 0.578033E 182m,Off,6,2.718089,1.7381065,Time OK,Free running,700,8890,0,2019-10-02 16:59:25.000000000,
1570035671,2019-10-02 17:01:11.767,47.651118N 0.578033E 182m,Off,6,2.718089,1.7381065,Time OK,Free running,1500,8890,0,2019-10-02 16:59:25.000000000,
1570035731,2019-10-02 17:02:11.767,47.651118N 0.578033E 182m,Off,6,2.718089,1.7381065,Time OK,Free running,2300,8890,0,2019-10-02 16:59:25.000000000,
1570035791,2019-10-02 17:03:11.767,47.651118N 0.578033E 182m,Off,6,2.718089,1.7381065,Time OK,Free running,3400,8890,0,2019-10-02 16:59:25.000000000,
1570035851,2019-10-02 17:04:11.767,47.651118N 0.578033E 182m,Off,6,2.718089,1.7381065,Time OK,Free running,4500,8890,0,2019-10-02 16:59:25.000000000,
1570035911,2019-10-02 17:05:11.767,47.651118N 0.578033E 182m,Off,6,2.718089,1.7381065,Time OK,Free running,5800,8890,0,2019-10-02 16:59:25.000000000,
1570035971,2019-10-02 17:06:11.767,47.651118N 0.578033E 182m,Off,6,2.718089,1.7381065,Time OK,Free running,7400,8890,0,2019-10-02 16:59:25.000000000,
1570036031,2019-10-02 17:07:11.805,47.651118N 0.578033E 182m,Off,6,2.718089,1.7381065,Time OK,Free running,9200,8890,0,2019-10-02 16:59:25.000000000,
1570036091,2019-10-02 17:08:11.767,47.651118N 0.578033E 182m,Off,6,2.718089,1.7381065,Time OK,Free running,11000,8890,0,2019-10-02 16:59:25.000000000,
1570036151,2019-10-02 17:09:11.767,47.651118N 0.578033E 182m,Off,6,2.718089,1.7381065,Time OK,Free running,12800,8890,0,2019-10-02 16:59:25.000000000,
1570036211,2019-10-02 17:10:11.767,47.651118N 0.578033E 182m,Off,6,2.718089,1.7381065,Time OK,Free running,14600,8890,0,2019-10-02 16:59:25.000000000,
1570036271,2019-10-02 17:11:11.767,47.651118N 0.578033E 182m,Off,6,2.718089,1.7381065,Time OK,Free running,16700,8890,0,2019-10-02 16:59:25.000000000,
1570036331,2019-10-02 17:12:11.767,47.651118N 0.578033E 182m,Off,6,2.718089,1.7381065,Time OK,Free running,19000,8890,0,2019-10-02 16:59:25.000000000,
1570036391,2019-10-02 17:13:11.767,47.651118N 0.578033E 182m,Off,6,2.718089,1.7381065,Time OK,Free running,21400,8890,0,2019-10-02 16:59:25.000000000,
1570036451,2019-10-02 17:14:11.767,47.651118N 0.578033E 182m,Off,6,2.718089,1.7381065,Time OK,Free running,24100,8890,0,2019-10-02 16:59:25.000000000,
1570036511,2019-10-02 17:15:11.767,47.651118N 0.578033E 182m,Off,6,2.718089,1.7381065,Time OK,Free running,27100,8890,0,2019-10-02 16:59:25.000000000,
1570036571,2019-10-02 17:16:11.767,47.651118N 0.578033E 182m,Off,6,2.718089,1.7381065,Time OK,Free running,30000,8890,0,2019-10-02 16:59:25.000000000,
1570036631,2019-10-02 17:17:11.767,47.651118N 0.578033E 182m,Off,6,2.718089,1.7381065,Time OK,Free running,33000,8890,0,2019-10-02 16:59:25.000000000,
1570036691,2019-10-02 17:18:11.781,47.651118N 0.578033E 182m,Off,6,2.718089,1.7381065,Time OK,Free running,36300,8890,0,2019-10-02 16:59:25.000000000,
1570036751,2019-10-02 17:19:11.767,47.651118N 0.578033E 182m,Off,6,2.718089,1.7381065,Time OK,Free running,39700,8890,0,2019-10-02 16:59:25.000000000,
1570036811,2019-10-02 17:20:11.767,47.651118N 0.578033E 182m,Off,6,2.718089,1.7381065,Time OK,Free running,43100,8890,0,2019-10-02 16:59:25.000000000,
1570036871,2019-10-02 17:21:11.767,47.651118N 0.578033E 182m,Off,6,2.718089,1.7381065,Time OK,Free running,46500,8890,0,2019-10-02 16:59:25.000000000,
1570036931,2019-10-02 17:22:11.767,47.651118N 0.578033E 182m,Off,6,2.718089,1.7381065,Time OK,Free running,49800,8890,0,2019-10-02 16:59:25.000000000,
1570036991,2019-10-02 17:23:11.767,47.651118N 0.578033E 182m,Off,6,2.718089,1.7381065,Time OK,Free running,53500,8890,0,2019-10-02 16:59:25.000000000,
1570037051,2019-10-02 17:24:11.767,47.651118N 0.578033E 182m,Doing fixes,5,3.0391307,1.7431144,Time OK,Coarse lock,100,8314,3854,2019-10-02 17:24:10.000000000,
1570037111,2019-10-02 17:25:11.767,47.651118N 0.578033E 182m,Doing fixes,5,3.0444005,1.7329094,Time OK,Fine lock,100,8837,0,2019-10-02 17:25:10.000000000,
1570037171,2019-10-02 17:26:11.767,47.651118N 0.578033E 182m,Off,6,2.6828578,1.4299555,Time OK,Free running,400,8827,0,2019-10-02 17:25:45.000000000,
1570037231,2019-10-02 17:27:11.767,47.651118N 0.578033E 182m,Off,6,2.6828578,1.4299555,Time OK,Free running,1200,8827,0,2019-10-02 17:25:45.000000000,
1570037291,2019-10-02 17:28:11.767,47.651118N 0.578033E 182m,Off,6,2.6828578,1.4299555,Time OK,Free running,2300,8827,0,2019-10-02 17:25:45.000000000,
1570037351,2019-10-02 17:29:11.767,47.651118N 0.578033E 182m,Off,6,2.6828578,1.4299555,Time OK,Free running,3200,8827,0,2019-10-02 17:25:45.000000000,
1570037411,2019-10-02 17:30:11.767,47.651118N 0.578033E 182m,Off,6,2.6828578,1.4299555,Time OK,Free running,4000,8827,0,2019-10-02 17:25:45.000000000,
1570037471,2019-10-02 17:31:11.767,47.651118N 0.578033E 182m,Off,6,2.6828578,1.4299555,Time OK,Free running,5100,8827,0,2019-10-02 17:25:45.000000000,
1570037531,2019-10-02 17:32:11.767,47.651118N 0.578033E 182m,Off,6,2.6828578,1.4299555,Time OK,Free running,6400,8827,0,2019-10-02 17:25:45.000000000,
1570037591,2019-10-02 17:33:11.767,47.651118N 0.578033E 182m,Off,6,2.6828578,1.4299555,Time OK,Free running,7600,8827,0,2019-10-02 17:25:45.000000000,
1570037651,2019-10-02 17:34:11.767,47.651118N 0.578033E 182m,Off,6,2.6828578,1.4299555,Time OK,Free running,9100,8827,0,2019-10-02 17:25:45.000000000,
1570037711,2019-10-02 17:35:11.767,47.651118N 0.578033E 182m,Off,6,2.6828578,1.4299555,Time OK,Free running,11000,8827,0,2019-10-02 17:25:45.000000000,
1570037771,2019-10-02 17:36:11.767,47.651118N 0.578033E 182m,Off,6,2.6828578,1.4299555,Time OK,Free running,12800,8827,0,2019-10-02 17:25:45.000000000,
1570037831,2019-10-02 17:37:11.767,47.651118N 0.578033E 182m,Off,6,2.6828578,1.4299555,Time OK,Free running,14600,8827,0,2019-10-02 17:25:45.000000000,
1570037891,2019-10-02 17:38:11.767,47.651118N 0.578033E 182m,Off,6,2.6828578,1.4299555,Time OK,Free running,16500,8827,0,2019-10-02 17:25:45.000000000,
1570037951,2019-10-02 17:39:11.767,47.651118N 0.578033E 182m,Off,6,2.6828578,1.4299555,Time OK,Free running,18700,8827,0,2019-10-02 17:25:45.000000000,
1570038011,2019-10-02 17:40:11.767,47.651118N 0.578033E 182m,Off,6,2.6828578,1.4299555,Time OK,Free running,21200,8827,0,2019-10-02 17:25:45.000000000,
1570038071,2019-10-02 17:41:11.767,47.651118N 0.578033E 182m,Off,6,2.6828578,1.4299555,Time OK,Free running,23600,8827,0,2019-10-02 17:25:45.000000000,
1570038131,2019-10-02 17:42:11.767,47.651118N 0.578033E 182m,Off,6,2.6828578,1.4299555,Time OK,Free running,26100,8827,0,2019-10-02 17:25:45.000000000,
1570038191,2019-10-02 17:43:11.801,47.651118N 0.578033E 182m,Off,6,2.6828578,1.4299555,Time OK,Free running,29100,8827,0,2019-10-02 17:25:45.000000000,
1570038251,2019-10-02 17:44:11.767,47.651118N 0.578033E 182m,Off,6,2.6828578,1.4299555,Time OK,Free running,32200,8827,0,2019-10-02 17:25:45.000000000,
1570038311,2019-10-02 17:45:11.767,47.651118N 0.578033E 182m,Off,6,2.6828578,1.4299555,Time OK,Free running,35100,8827,0,2019-10-02 17:25:45.000000000,
1570038371,2019-10-02 17:46:11.796,47.651118N 0.578033E 182m,Off,6,2.6828578,1.4299555,Time OK,Free running,37900,8827,0,2019-10-02 17:25:45.000000000,
1570038431,2019-10-02 17:47:11.767,47.651118N 0.578033E 182m,Off,6,2.6828578,1.4299555,Time OK,Free running,40600,8827,0,2019-10-02 17:25:45.000000000,
1570038491,2019-10-02 17:48:11.767,47.651118N 0.578033E 182m,Off,6,2.6828578,1.4299555,Time OK,Free running,43500,8827,0,2019-10-02 17:25:45.000000000,
1570038551,2019-10-02 17:49:11.767,47.651118N 0.578033E 182m,Off,6,2.6828578,1.4299555,Time OK,Free running,46800,8827,0,2019-10-02 17:25:45.000000000,
1570038611,2019-10-02 17:50:11.769,47.651118N 0.578033E 182m,Off,6,2.6828578,1.4299555,Time OK,Free running,50400,8827,0,2019-10-02 17:25:45.000000000,
1570038671,2019-10-02 17:51:11.767,47.651118N 0.578033E 182m,Doing fixes,6,2.7442884,1.3349962,Time OK,Free running,54200,8827,0,2019-10-02 17:51:10.000000000,
1570038731,2019-10-02 17:52:11.767,47.651118N 0.578033E 182m,Doing fixes,5,3.2068856,2.0168931,Time OK,Fine lock,100,8764,-312,2019-10-02 17:52:10.000000000,
1570038791,2019-10-02 17:53:11.767,47.651118N 0.578033E 182m,Doing fixes,5,3.3497703,2.0138817,Time OK,Fine lock,100,8757,104,2019-10-02 17:53:10.000000000,
1570038851,2019-10-02 17:54:11.767,47.651118N 0.578033E 182m,Doing fixes,6,2.7568917,1.331614,Time OK,Fine lock,100,8755,104,2019-10-02 17:54:10.000000000,
1570038911,2019-10-02 17:55:11.767,47.651118N 0.578033E 182m,Doing fixes,5,3.305023,1.9555663,Time OK,Fine lock,100,8766,0,2019-10-02 17:55:10.000000000,
1570038971,2019-10-02 17:56:11.767,47.651118N 0.578033E 182m,Off,6,2.994954,1.8691437,Time OK,Free running,700,8765,0,2019-10-02 17:55:25.000000000,
1570039031,2019-10-02 17:57:11.767,47.651118N 0.578033E 182m,Off,6,2.994954,1.8691437,Time OK,Free running,1600,8765,0,2019-10-02 17:55:25.000000000,
1570039091,2019-10-02 17:58:11.767,47.651118N 0.578033E 182m,Off,6,2.994954,1.8691437,Time OK,Free running,2400,8765,0,2019-10-02 17:55:25.000000000,
1570039151,2019-10-02 17:59:11.767,47.651118N 0.578033E 182m,Off,6,2.994954,1.8691437,Time OK,Free running,3400,8765,0,2019-10-02 17:55:25.000000000,
