Time(longsecs),Time(UTC),Supply Voltage(mV),Temperature(&deg;C),NMX Bus Current(mA),Sensor Current(mA),Serial Port Current(mA),Controller Current(mA),Digitizer Current(mA),
1570014011,2019-10-02 11:00:11.767,15028,2.7363892E1,0,10,0,65,46,
1570014071,2019-10-02 11:01:11.767,15043,2.740033E1,0,8,0,66,46,
1570014131,2019-10-02 11:02:11.780,15056,2.7468872E1,0,5,0,67,45,
1570014191,2019-10-02 11:03:11.767,15098,2.7688477E1,0,5,0,75,45,
1570014251,2019-10-02 11:04:11.767,15153,2.7724915E1,0,9,0,65,45,
1570014311,2019-10-02 11:05:11.767,15262,2.7447449E1,0,13,0,66,43,
1570014371,2019-10-02 11:06:11.767,15221,2.7758118E1,0,15,0,65,44,
1570014431,2019-10-02 11:07:11.767,15262,2.7770966E1,0,13,0,62,44,
1570014491,2019-10-02 11:08:11.767,15880,2.7779541E1,0,10,0,61,40,
1570014551,2019-10-02 11:09:11.767,15317,2.7676697E1,0,11,0,62,45,
1570014611,2019-10-02 11:10:11.767,15385,2.79906E1,0,10,0,64,42,
1570014671,2019-10-02 11:11:11.773,15262,2.8028076E1,0,10,0,67,43,
1570014731,2019-10-02 11:12:11.767,15304,2.7836334E1,0,6,0,65,45,
1570014791,2019-10-02 11:13:11.767,16045,2.7872742E1,0,11,0,55,43,
1570014851,2019-10-02 11:14:11.767,16566,2.8050568E1,0,9,0,60,43,
1570014911,2019-10-02 11:15:11.767,16483,2.7689575E1,29,9,0,50,40,
1570014971,2019-10-02 11:16:11.769,16457,2.7983093E1,0,13,0,57,39,
1570015031,2019-10-02 11:17:11.767,16429,2.8047363E1,0,10,0,63,42,
1570015091,2019-10-02 11:18:11.767,16511,2.8169495E1,0,9,0,60,40,
1570015151,2019-10-02 11:19:11.769,16457,2.8023804E1,0,5,0,59,40,
1570015211,2019-10-02 11:20:11.767,16429,2.8157715E1,0,9,0,62,37,
1570015271,2019-10-02 11:21:11.769,16457,2.7896301E1,0,11,0,58,40,
1570015331,2019-10-02 11:22:11.767,16470,2.8035583E1,38,9,0,58,40,
1570015391,2019-10-02 11:23:11.767,16402,2.82359E1,0,4,0,61,43,
1570015451,2019-10-02 11:24:11.767,16402,2.8303406E1,0,13,0,60,41,
1570015511,2019-10-02 11:25:11.767,16387,2.8383728E1,0,13,0,60,40,
1570015571,2019-10-02 11:26:11.768,15564,2.8298035E1,0,9,0,62,46,
1570015631,2019-10-02 11:27:11.767,16141,2.8526215E1,0,9,0,62,43,
1570015691,2019-10-02 11:28:11.768,15400,2.8495148E1,0,10,0,72,45,
1570015751,2019-10-02 11:29:11.802,15427,2.858191E1,0,12,0,74,43,
1570015811,2019-10-02 11:30:11.767,15482,2.8819733E1,0,6,0,74,44,
1570015871,2019-10-02 11:31:11.767,15564,2.8880798E1,0,9,0,61,41,
1570015931,2019-10-02 11:32:11.767,15372,2.8843323E1,0,9,0,65,42,
1570015991,2019-10-02 11:33:11.767,15317,2.888617E1,0,11,0,61,47,
1570016051,2019-10-02 11:34:11.767,15358,2.9005066E1,0,9,0,62,46,
1570016111,2019-10-02 11:35:11.767,15249,2.9149689E1,0,11,0,65,42,
1570016171,2019-10-02 11:36:11.767,15249,2.9130402E1,0,13,0,70,43,
1570016231,2019-10-02 11:37:11.767,15207,2.9282532E1,0,13,0,68,46,
1570016291,2019-10-02 11:38:11.767,15221,2.9306091E1,0,7,0,65,48,
1570016351,2019-10-02 11:39:11.767,15207,2.9256805E1,0,10,0,64,44,
1570016411,2019-10-02 11:40:11.767,15221,2.9311462E1,0,13,0,68,45,
1570016471,2019-10-02 11:41:11.767,15249,2.9642487E1,0,9,0,65,42,
1570016531,2019-10-02 11:42:11.767,15304,2.9428223E1,0,4,0,68,46,
1570016591,2019-10-02 11:43:11.767,16580,2.9607117E1,0,9,0,60,46,
1570016651,2019-10-02 11:44:11.767,16058,2.9668182E1,0,10,0,62,44,
1570016711,2019-10-02 11:45:11.767,16553,2.9957428E1,0,9,0,58,42,
1570016771,2019-10-02 11:46:11.767,16360,2.9974579E1,0,11,0,60,41,
1570016831,2019-10-02 11:47:11.799,15674,2.9718536E1,0,13,0,63,42,
1570016891,2019-10-02 11:48:11.767,15716,2.9765656E1,0,10,0,64,44,
1570016951,2019-10-02 11:49:11.767,16429,3.0021698E1,0,9,0,62,40,
1570017011,2019-10-02 11:50:11.767,16017,3.01781E1,0,11,0,62,42,
1570017071,2019-10-02 11:51:11.769,16538,3.000241E1,0,9,0,60,40,
1570017131,2019-10-02 11:52:11.767,16553,3.0110626E1,0,7,0,60,39,
1570017191,2019-10-02 11:53:11.767,16553,3.0138458E1,0,9,0,60,41,
1570017251,2019-10-02 11:54:11.767,16538,3.0264893E1,0,9,9,60,40,
1570017311,2019-10-02 11:55:11.767,16525,3.0207031E1,0,10,0,67,41,
1570017371,2019-10-02 11:56:11.767,16511,3.0375214E1,0,12,0,91,43,
1570017431,2019-10-02 11:57:11.767,16498,3.0518768E1,0,6,0,87,40,
1570017491,2019-10-02 11:58:11.767,16538,3.0530548E1,0,11,0,57,40,
1570017551,2019-10-02 11:59:11.767,16498,3.0549835E1,0,8,0,59,43,
