Time(longsecs),Time(UTC),Supply Voltage(mV),Temperature(&deg;C),NMX Bus Current(mA),Sensor Current(mA),Serial Port Current(mA),Controller Current(mA),Digitizer Current(mA),
1572242411,2019-10-28 06:00:11.767,16319,1.2369446E1,0,11,0,38,41,
1572242471,2019-10-28 06:01:11.767,16319,1.2507629E1,0,14,0,38,39,
1572242531,2019-10-28 06:02:11.772,16319,1.2457275E1,0,9,0,37,37,
1572242591,2019-10-28 06:03:11.768,16319,1.2446564E1,0,9,0,42,39,
1572242651,2019-10-28 06:04:11.767,16319,1.2371582E1,0,13,0,39,38,
1572242711,2019-10-28 06:05:11.781,16319,1.2568695E1,0,8,0,38,39,
1572242771,2019-10-28 06:06:11.767,16319,1.2517273E1,0,9,0,38,37,
1572242831,2019-10-28 06:07:11.767,16319,1.2542969E1,0,8,0,40,42,
1572242891,2019-10-28 06:08:11.777,16319,1.2315857E1,0,11,0,37,42,
1572242951,2019-10-28 06:09:11.767,16319,1.243158E1,0,0,0,37,42,
1572243011,2019-10-28 06:10:11.767,16319,1.2278381E1,0,11,0,33,39,
1572243071,2019-10-28 06:11:11.767,16319,1.25269165E1,0,4,0,38,39,
1572243131,2019-10-28 06:12:11.767,16319,1.2485138E1,0,12,0,38,39,
1572243191,2019-10-28 06:13:11.768,16319,1.2439056E1,0,11,0,36,43,
1572243251,2019-10-28 06:14:11.769,16319,1.2201233E1,0,11,0,33,40,
1572243311,2019-10-28 06:15:11.767,16319,1.2209808E1,0,8,0,32,38,
1572243371,2019-10-28 06:16:11.767,16319,1.2295502E1,0,10,0,35,38,
1572243431,2019-10-28 06:17:11.767,16319,1.2364075E1,0,7,0,38,37,
1572243491,2019-10-28 06:18:11.767,16305,1.2279449E1,0,8,0,35,37,
1572243551,2019-10-28 06:19:11.767,16319,1.2365143E1,0,6,0,33,37,
1572243611,2019-10-28 06:20:11.767,16305,1.2328735E1,0,9,0,39,38,
1572243671,2019-10-28 06:21:11.769,16319,1.2381226E1,0,8,0,40,40,
1572243731,2019-10-28 06:22:11.767,16319,1.2503326E1,0,16,0,38,38,
1572243791,2019-10-28 06:23:11.767,16319,1.2265533E1,0,9,0,38,38,
1572243851,2019-10-28 06:24:11.767,16277,1.2285858E1,0,13,0,33,41,
1572243911,2019-10-28 06:25:11.767,16347,1.2347992E1,0,7,0,33,36,
1572243971,2019-10-28 06:26:11.767,16319,1.23255005E1,0,9,0,38,39,
1572244031,2019-10-28 06:27:11.767,16360,1.2435852E1,0,10,0,33,39,
1572244091,2019-10-28 06:28:11.767,16319,1.2282654E1,0,10,0,38,37,
1572244151,2019-10-28 06:29:11.767,16319,1.23758545E1,0,9,0,33,41,
1572244211,2019-10-28 06:30:11.767,16292,1.2406921E1,0,10,0,33,37,
1572244271,2019-10-28 06:31:11.799,16305,1.216803E1,0,8,0,36,39,
1572244331,2019-10-28 06:32:11.767,16347,1.20373535E1,0,12,0,38,40,
1572244391,2019-10-28 06:33:11.767,16277,1.2119812E1,0,4,0,36,41,
1572244451,2019-10-28 06:34:11.767,16347,1.2250519E1,0,2,0,35,37,
1572244511,2019-10-28 06:35:11.767,16292,1.210376E1,0,0,0,37,35,
1572244571,2019-10-28 06:36:11.767,16319,1.2128387E1,0,11,0,36,37,
1572244631,2019-10-28 06:37:11.767,16305,1.206842E1,0,9,0,39,41,
1572244691,2019-10-28 06:38:11.767,16319,1.2373718E1,0,4,0,38,40,
1572244751,2019-10-28 06:39:11.767,16292,1.23255005E1,0,10,0,33,39,
1572244811,2019-10-28 06:40:11.767,16332,1.2095184E1,0,6,0,33,42,
1572244871,2019-10-28 06:41:11.767,16264,1.2170166E1,0,8,0,38,38,
1572244931,2019-10-28 06:42:11.767,16305,1.2001984E1,0,16,0,37,43,
1572244991,2019-10-28 06:43:11.767,16332,1.2127319E1,0,11,0,38,38,
1572245051,2019-10-28 06:44:11.767,16347,1.2173401E1,0,11,0,33,38,
1572245111,2019-10-28 06:45:11.767,16305,1.1958069E1,0,7,0,41,40,
1572245171,2019-10-28 06:46:11.767,16332,1.2036255E1,0,9,0,47,36,
1572245231,2019-10-28 06:47:11.767,16305,1.2072693E1,0,10,0,41,38,
1572245291,2019-10-28 06:48:11.767,16347,1.1843445E1,0,6,0,38,39,
1572245351,2019-10-28 06:49:11.769,16332,1.1839142E1,0,9,0,33,36,
1572245411,2019-10-28 06:50:11.767,16319,1.1973053E1,0,3,0,34,39,
1572245471,2019-10-28 06:51:11.767,16319,1.2046967E1,0,10,0,36,38,
1572245531,2019-10-28 06:52:11.767,16332,1.187558E1,0,9,0,39,38,
1572245591,2019-10-28 06:53:11.793,16319,1.193985E1,0,15,0,38,37,
1572245651,2019-10-28 06:54:11.768,16319,1.2120911E1,0,10,0,38,38,
1572245711,2019-10-28 06:55:11.770,16360,1.2009491E1,0,8,0,33,36,
1572245771,2019-10-28 06:56:11.767,16360,1.2089844E1,0,7,0,38,39,
1572245831,2019-10-28 06:57:11.767,16332,1.2133759E1,0,9,0,33,44,
1572245891,2019-10-28 06:58:11.767,16347,1.199234E1,0,13,0,38,38,
1572245951,2019-10-28 06:59:11.767,16319,1.2058777E1,0,8,0,38,41,
