Time(longsecs),Time(UTC),Earth Location,GPS Receiver Status,GPS Satellites Used,GPS PDOP,GPS TDOP,Timing Status,Timing Phase Lock,Timing Uncertainty(ns),DAC Count,Timing Error(ns),GPS Last Update Time,
1572260411,2019-10-28 11:00:11.768,47.651162N 0.578024E 175m,Off,8,3.4724116,2.4798803,Time OK,Free running,400,8498,0,2019-10-28 10:59:46.000000000,
1572260471,2019-10-28 11:01:11.767,47.651162N 0.578024E 175m,Off,8,3.4724116,2.4798803,Time OK,Free running,1400,8498,0,2019-10-28 10:59:46.000000000,
1572260531,2019-10-28 11:02:11.767,47.651162N 0.578024E 175m,Off,8,3.4724116,2.4798803,Time OK,Free running,3100,8498,0,2019-10-28 10:59:46.000000000,
1572260591,2019-10-28 11:03:11.767,47.651162N 0.578024E 175m,Off,8,3.4724116,2.4798803,Time OK,Free running,5300,8498,0,2019-10-28 10:59:46.000000000,
1572260651,2019-10-28 11:04:11.768,47.651162N 0.578024E 175m,Off,8,3.4724116,2.4798803,Time OK,Free running,7300,8498,0,2019-10-28 10:59:46.000000000,
1572260711,2019-10-28 11:05:11.801,47.651162N 0.578024E 175m,Off,8,3.4724116,2.4798803,Time OK,Free running,9300,8498,0,2019-10-28 10:59:46.000000000,
1572260771,2019-10-28 11:06:11.767,47.651162N 0.578024E 175m,Off,8,3.4724116,2.4798803,Time OK,Free running,11400,8498,0,2019-10-28 10:59:46.000000000,
1572260831,2019-10-28 11:07:11.767,47.651162N 0.578024E 175m,Off,8,3.4724116,2.4798803,Time OK,Free running,13700,8498,0,2019-10-28 10:59:46.000000000,
1572260891,2019-10-28 11:08:11.769,47.651162N 0.578024E 175m,Off,8,3.4724116,2.4798803,Time OK,Free running,16400,8498,0,2019-10-28 10:59:46.000000000,
1572260951,2019-10-28 11:09:11.768,47.651162N 0.578024E 175m,Off,8,3.4724116,2.4798803,Time OK,Free running,19300,8498,0,2019-10-28 10:59:46.000000000,
1572261011,2019-10-28 11:10:11.768,47.651162N 0.578024E 175m,Off,8,3.4724116,2.4798803,Time OK,Free running,22300,8498,0,2019-10-28 10:59:46.000000000,
1572261071,2019-10-28 11:11:11.767,47.651162N 0.578024E 175m,Off,8,3.4724116,2.4798803,Time OK,Free running,25400,8498,0,2019-10-28 10:59:46.000000000,
1572261131,2019-10-28 11:12:11.769,47.651162N 0.578024E 175m,Off,8,3.4724116,2.4798803,Time OK,Free running,28700,8498,0,2019-10-28 10:59:46.000000000,
1572261191,2019-10-28 11:13:11.767,47.651162N 0.578024E 175m,Off,8,3.4724116,2.4798803,Time OK,Free running,32200,8498,0,2019-10-28 10:59:46.000000000,
1572261251,2019-10-28 11:14:11.817,47.651162N 0.578024E 175m,Off,8,3.4724116,2.4798803,Time OK,Free running,36000,8498,0,2019-10-28 10:59:46.000000000,
1572261311,2019-10-28 11:15:11.767,47.651162N 0.578024E 175m,Off,8,3.4724116,2.4798803,Time OK,Free running,39800,8498,0,2019-10-28 10:59:46.000000000,
1572261371,2019-10-28 11:16:11.817,47.651162N 0.578024E 175m,Off,8,3.4724116,2.4798803,Time OK,Free running,43700,8498,0,2019-10-28 10:59:46.000000000,
1572261431,2019-10-28 11:17:11.769,47.651162N 0.578024E 175m,Off,8,3.4724116,2.4798803,Time OK,Free running,48000,8498,0,2019-10-28 10:59:46.000000000,
1572261491,2019-10-28 11:18:11.799,47.651162N 0.578024E 175m,Off,8,3.4724116,2.4798803,Time OK,Free running,52400,8498,0,2019-10-28 10:59:46.000000000,
1572261551,2019-10-28 11:19:11.767,47.651162N 0.578024E 175m,Doing fixes,9,1.8864876,1.0577146,Time OK,Coarse lock,100,9371,-22812,2019-10-28 11:19:11.000000000,
1572261611,2019-10-28 11:20:11.810,47.651162N 0.578024E 175m,Doing fixes,10,1.8020965,1.0438651,Time OK,Fine lock,100,8531,208,2019-10-28 11:20:11.000000000,
1572261671,2019-10-28 11:21:11.767,47.651162N 0.578024E 175m,Doing fixes,9,1.9354132,1.1608331,Time OK,Fine lock,100,8549,0,2019-10-28 11:21:11.000000000,
1572261731,2019-10-28 11:22:11.767,47.651162N 0.578024E 175m,Doing fixes,7,3.5442028,2.5219493,Time OK,Fine lock,100,8550,0,2019-10-28 11:22:11.000000000,
1572261791,2019-10-28 11:23:11.778,47.651162N 0.578024E 175m,Off,7,3.5411885,2.5191164,Time OK,Free running,800,8550,0,2019-10-28 11:22:16.000000000,
1572261851,2019-10-28 11:24:11.767,47.651162N 0.578024E 175m,Off,7,3.5411885,2.5191164,Time OK,Free running,1600,8550,0,2019-10-28 11:22:16.000000000,
1572261911,2019-10-28 11:25:11.767,47.651162N 0.578024E 175m,Off,7,3.5411885,2.5191164,Time OK,Free running,2500,8550,0,2019-10-28 11:22:16.000000000,
1572261971,2019-10-28 11:26:11.767,47.651162N 0.578024E 175m,Off,7,3.5411885,2.5191164,Time OK,Free running,3700,8550,0,2019-10-28 11:22:16.000000000,
1572262031,2019-10-28 11:27:11.767,47.651162N 0.578024E 175m,Off,7,3.5411885,2.5191164,Time OK,Free running,5200,8550,0,2019-10-28 11:22:16.000000000,
1572262091,2019-10-28 11:28:11.767,47.651162N 0.578024E 175m,Off,7,3.5411885,2.5191164,Time OK,Free running,6600,8550,0,2019-10-28 11:22:16.000000000,
1572262151,2019-10-28 11:29:11.767,47.651162N 0.578024E 175m,Off,7,3.5411885,2.5191164,Time OK,Free running,8100,8550,0,2019-10-28 11:22:16.000000000,
1572262211,2019-10-28 11:30:11.767,47.651162N 0.578024E 175m,Off,7,3.5411885,2.5191164,Time OK,Free running,10100,8550,0,2019-10-28 11:22:16.000000000,
1572262271,2019-10-28 11:31:11.767,47.651162N 0.578024E 175m,Off,7,3.5411885,2.5191164,Time OK,Free running,12200,8550,0,2019-10-28 11:22:16.000000000,
1572262331,2019-10-28 11:32:11.767,47.651162N 0.578024E 175m,Off,7,3.5411885,2.5191164,Time OK,Free running,14100,8550,0,2019-10-28 11:22:16.000000000,
1572262391,2019-10-28 11:33:11.767,47.651162N 0.578024E 175m,Off,7,3.5411885,2.5191164,Time OK,Free running,16100,8550,0,2019-10-28 11:22:16.000000000,
1572262451,2019-10-28 11:34:11.767,47.651162N 0.578024E 175m,Off,7,3.5411885,2.5191164,Time OK,Free running,18500,8550,0,2019-10-28 11:22:16.000000000,
1572262511,2019-10-28 11:35:11.767,47.651162N 0.578024E 175m,Off,7,3.5411885,2.5191164,Time OK,Free running,21300,8550,0,2019-10-28 11:22:16.000000000,
1572262571,2019-10-28 11:36:11.767,47.651162N 0.578024E 175m,Off,7,3.5411885,2.5191164,Time OK,Free running,23900,8550,0,2019-10-28 11:22:16.000000000,
1572262631,2019-10-28 11:37:11.767,47.651162N 0.578024E 175m,Off,7,3.5411885,2.5191164,Time OK,Free running,26700,8550,0,2019-10-28 11:22:16.000000000,
1572262691,2019-10-28 11:38:11.767,47.651162N 0.578024E 175m,Off,7,3.5411885,2.5191164,Time OK,Free running,30100,8550,0,2019-10-28 11:22:16.000000000,
1572262751,2019-10-28 11:39:11.767,47.651162N 0.578024E 175m,Off,7,3.5411885,2.5191164,Time OK,Free running,33500,8550,0,2019-10-28 11:22:16.000000000,
1572262811,2019-10-28 11:40:11.767,47.651162N 0.578024E 175m,Off,7,3.5411885,2.5191164,Time OK,Free running,36900,8550,0,2019-10-28 11:22:16.000000000,
1572262871,2019-10-28 11:41:11.787,47.651162N 0.578024E 175m,Off,7,3.5411885,2.5191164,Time OK,Free running,40600,8550,0,2019-10-28 11:22:16.000000000,
1572262931,2019-10-28 11:42:11.796,47.651162N 0.578024E 175m,Off,7,3.5411885,2.5191164,Time OK,Free running,44400,8550,0,2019-10-28 11:22:16.000000000,
1572262991,2019-10-28 11:43:11.767,47.651162N 0.578024E 175m,Off,7,3.5411885,2.5191164,Time OK,Free running,48200,8550,0,2019-10-28 11:22:16.000000000,
1572263051,2019-10-28 11:44:11.767,47.651162N 0.578024E 175m,Off,7,3.5411885,2.5191164,Time OK,Free running,52400,8550,0,2019-10-28 11:22:16.000000000,
1572263111,2019-10-28 11:45:11.767,47.651162N 0.578024E 175m,Doing fixes,7,3.4467323,2.3326192,Time OK,Coarse lock,100,8876,-1250,2019-10-28 11:45:11.000000000,
1572263171,2019-10-28 11:46:11.770,47.651162N 0.578024E 175m,Doing fixes,7,3.4000924,2.291688,Time OK,Fine lock,100,8620,-104,2019-10-28 11:46:11.000000000,
1572263231,2019-10-28 11:47:11.767,47.651162N 0.578024E 175m,Off,7,3.377615,2.2719092,Time OK,Free running,500,8618,0,2019-10-28 11:46:36.000000000,
1572263291,2019-10-28 11:48:11.767,47.651162N 0.578024E 175m,Off,7,3.377615,2.2719092,Time OK,Free running,1600,8618,0,2019-10-28 11:46:36.000000000,
1572263351,2019-10-28 11:49:11.767,47.651162N 0.578024E 175m,Off,7,3.377615,2.2719092,Time OK,Free running,3000,8618,0,2019-10-28 11:46:36.000000000,
1572263411,2019-10-28 11:50:11.767,47.651162N 0.578024E 175m,Off,7,3.377615,2.2719092,Time OK,Free running,4000,8618,0,2019-10-28 11:46:36.000000000,
1572263471,2019-10-28 11:51:11.767,47.651162N 0.578024E 175m,Off,7,3.377615,2.2719092,Time OK,Free running,5100,8618,0,2019-10-28 11:46:36.000000000,
1572263531,2019-10-28 11:52:11.767,47.651162N 0.578024E 175m,Off,7,3.377615,2.2719092,Time OK,Free running,6700,8618,0,2019-10-28 11:46:36.000000000,
1572263591,2019-10-28 11:53:11.767,47.651162N 0.578024E 175m,Off,7,3.377615,2.2719092,Time OK,Free running,8400,8618,0,2019-10-28 11:46:36.000000000,
1572263651,2019-10-28 11:54:11.767,47.651162N 0.578024E 175m,Off,7,3.377615,2.2719092,Time OK,Free running,10500,8618,0,2019-10-28 11:46:36.000000000,
1572263711,2019-10-28 11:55:11.799,47.651162N 0.578024E 175m,Off,7,3.377615,2.2719092,Time OK,Free running,12700,8618,0,2019-10-28 11:46:36.000000000,
1572263771,2019-10-28 11:56:11.799,47.651162N 0.578024E 175m,Off,7,3.377615,2.2719092,Time OK,Free running,14800,8618,0,2019-10-28 11:46:36.000000000,
1572263831,2019-10-28 11:57:11.775,47.651162N 0.578024E 175m,Off,7,3.377615,2.2719092,Time OK,Free running,17100,8618,0,2019-10-28 11:46:36.000000000,
1572263891,2019-10-28 11:58:11.767,47.651162N 0.578024E 175m,Off,7,3.377615,2.2719092,Time OK,Free running,19600,8618,0,2019-10-28 11:46:36.000000000,
1572263951,2019-10-28 11:59:11.767,47.651162N 0.578024E 175m,Off,7,3.377615,2.2719092,Time OK,Free running,22100,8618,0,2019-10-28 11:46:36.000000000,
