Time(longsecs),Time(UTC),Supply Voltage(mV),Temperature(&deg;C),NMX Bus Current(mA),Sensor Current(mA),Serial Port Current(mA),Controller Current(mA),Digitizer Current(mA),
1569920425,2019-10-01 09:00:25.267,13961,2.8438965E1,0,9,0,66,44,
1569920485,2019-10-01 09:01:25.267,14055,2.833136E1,0,9,0,66,41,
1569920545,2019-10-01 09:02:25.267,14015,2.8509308E1,0,10,0,56,45,
1569920605,2019-10-01 09:03:25.280,14015,2.8429382E1,0,3,0,56,46,
1569920665,2019-10-01 09:04:25.267,14028,2.846988E1,0,12,0,65,50,
1569920725,2019-10-01 09:05:25.267,14001,2.8528473E1,0,9,0,65,44,
1569920785,2019-10-01 09:06:25.267,14001,2.8603058E1,0,6,0,56,46,
1569920845,2019-10-01 09:07:25.267,14015,2.856363E1,0,3,0,56,43,
1569920905,2019-10-01 09:08:25.267,14001,2.8604126E1,0,11,0,56,46,
1569920965,2019-10-01 09:09:25.269,13988,2.8526337E1,0,11,0,66,44,
1569921025,2019-10-01 09:10:25.267,13974,2.861905E1,0,9,0,65,44,
1569921085,2019-10-01 09:11:25.267,13988,2.8435791E1,0,9,0,57,41,
1569921145,2019-10-01 09:12:25.269,13988,2.8444305E1,0,8,0,56,47,
1569921205,2019-10-01 09:13:25.267,14001,2.8626495E1,0,8,0,56,42,
1569921265,2019-10-01 09:14:25.269,13988,2.8613708E1,0,9,0,66,48,
1569921325,2019-10-01 09:15:25.267,13988,2.8567902E1,0,12,0,66,49,
1569921385,2019-10-01 09:16:25.267,14015,2.8599884E1,0,7,0,56,42,
1569921445,2019-10-01 09:17:25.267,14015,2.8495453E1,0,9,0,57,46,
1569921505,2019-10-01 09:18:25.267,14041,2.8630768E1,0,8,0,55,42,
1569921565,2019-10-01 09:19:25.267,14055,2.8686188E1,0,10,0,66,42,
1569921625,2019-10-01 09:20:25.267,14068,2.8675507E1,0,9,0,64,41,
1569921685,2019-10-01 09:21:25.267,14082,2.8599884E1,0,6,0,56,43,
1569921745,2019-10-01 09:22:25.267,14082,2.8709625E1,0,9,0,65,46,
1569921805,2019-10-01 09:23:25.269,14082,2.8772491E1,0,9,0,56,44,
1569921865,2019-10-01 09:24:25.267,14055,2.8707489E1,0,15,0,66,43,
1569921925,2019-10-01 09:25:25.267,14028,2.87128E1,0,9,0,75,45,
1569921985,2019-10-01 09:26:25.267,14041,2.8833221E1,0,11,0,66,42,
1569922045,2019-10-01 09:27:25.267,13812,2.8716003E1,0,4,0,57,42,
1569922105,2019-10-01 09:28:25.307,13907,2.8875824E1,0,10,0,57,40,
1569922165,2019-10-01 09:29:25.269,13852,2.8755432E1,0,8,0,66,45,
1569922225,2019-10-01 09:30:25.267,13865,2.8830017E1,0,9,0,66,43,
1569922285,2019-10-01 09:31:25.267,13865,2.8940826E1,0,8,0,57,43,
1569922345,2019-10-01 09:32:25.267,13812,2.8730927E1,0,6,0,57,42,
1569922405,2019-10-01 09:33:25.267,13825,2.8711761E1,0,10,0,57,49,
1569922465,2019-10-01 09:34:25.267,13704,2.8675507E1,0,9,0,66,45,
1569922525,2019-10-01 09:35:25.270,13704,2.8604126E1,0,13,0,65,46,
1569922585,2019-10-01 09:36:25.267,13771,2.8566833E1,0,9,0,57,48,
1569922645,2019-10-01 09:37:25.267,13785,2.8631836E1,0,6,0,57,45,
1569922705,2019-10-01 09:38:25.267,13893,2.827597E1,0,5,0,56,43,
1569922765,2019-10-01 09:39:25.267,13961,2.8144897E1,0,8,0,43,44,
1569922825,2019-10-01 09:40:25.267,13947,2.8266357E1,0,10,0,49,43,
1569922885,2019-10-01 09:41:25.267,13961,2.8040466E1,0,12,0,45,47,
1569922945,2019-10-01 09:42:25.302,13961,2.7863617E1,0,6,0,38,44,
1569923005,2019-10-01 09:43:25.267,13974,2.7562073E1,0,6,0,38,45,
1569923065,2019-10-01 09:44:25.267,13961,2.7553558E1,0,9,0,43,45,
1569923125,2019-10-01 09:45:25.267,13961,2.7499207E1,0,9,0,43,45,
1569923185,2019-10-01 09:46:25.267,13961,2.750241E1,0,10,0,38,50,
1569923245,2019-10-01 09:47:25.267,13974,2.742035E1,0,11,0,37,45,
1569923305,2019-10-01 09:48:25.267,13974,2.7323395E1,0,10,0,40,40,
1569923365,2019-10-01 09:49:25.267,13961,2.7312744E1,0,5,0,44,43,
1569923425,2019-10-01 09:50:25.267,13961,2.7236023E1,0,9,0,44,44,
1569923485,2019-10-01 09:51:25.267,13961,2.7211517E1,0,11,0,45,43,
1569923545,2019-10-01 09:52:25.270,13934,2.7207245E1,0,8,0,52,43,
1569923605,2019-10-01 09:53:25.269,13934,2.703891E1,0,7,0,49,44,
1569923665,2019-10-01 09:54:25.267,13934,2.7022919E1,0,9,0,54,42,
1569923725,2019-10-01 09:55:25.267,13947,2.7086853E1,0,11,0,54,41,
1569923785,2019-10-01 09:56:25.267,13961,2.6764008E1,0,9,0,44,43,
1569923845,2019-10-01 09:57:25.267,14001,2.6850311E1,0,9,0,37,45,
1569923905,2019-10-01 09:58:25.269,13947,2.698349E1,0,15,0,37,43,
1569923965,2019-10-01 09:59:25.267,13974,2.6766144E1,0,10,0,45,41,
