Time(longsecs),Time(UTC),Earth Location,GPS Receiver Status,GPS Satellites Used,GPS PDOP,GPS TDOP,Timing Status,Timing Phase Lock,Timing Uncertainty(ns),DAC Count,Timing Error(ns),GPS Last Update Time,
1569909625,2019-10-01 06:00:25.267,47.644866N 0.58688E 191m,Off,6,2.5824814,1.6592587,Time OK,Free running,35200,9215,0,2019-10-01 05:22:32.000000000,
1569909685,2019-10-01 06:01:25.269,47.644866N 0.58688E 191m,Off,6,2.5824814,1.6592587,Time OK,Free running,36000,9215,0,2019-10-01 05:22:32.000000000,
1569909745,2019-10-01 06:02:25.269,47.644866N 0.58688E 191m,Off,6,2.5824814,1.6592587,Time OK,Free running,37100,9215,0,2019-10-01 05:22:32.000000000,
1569909805,2019-10-01 06:03:25.269,47.644866N 0.58688E 191m,Off,6,2.5824814,1.6592587,Time OK,Free running,38000,9215,0,2019-10-01 05:22:32.000000000,
1569909865,2019-10-01 06:04:25.267,47.644866N 0.58688E 191m,Off,6,2.5824814,1.6592587,Time OK,Free running,38800,9215,0,2019-10-01 05:22:32.000000000,
1569909925,2019-10-01 06:05:25.267,47.644866N 0.58688E 191m,Off,6,2.5824814,1.6592587,Time OK,Free running,39700,9215,0,2019-10-01 05:22:32.000000000,
1569909985,2019-10-01 06:06:25.267,47.644866N 0.58688E 191m,Off,6,2.5824814,1.6592587,Time OK,Free running,40600,9215,0,2019-10-01 05:22:32.000000000,
1569910045,2019-10-01 06:07:25.267,47.644866N 0.58688E 191m,Off,6,2.5824814,1.6592587,Time OK,Free running,41400,9215,0,2019-10-01 05:22:32.000000000,
1569910105,2019-10-01 06:08:25.267,47.644866N 0.58688E 191m,Off,6,2.5824814,1.6592587,Time OK,Free running,42500,9215,0,2019-10-01 05:22:32.000000000,
1569910165,2019-10-01 06:09:25.269,47.644866N 0.58688E 191m,Off,6,2.5824814,1.6592587,Time OK,Free running,43600,9215,0,2019-10-01 05:22:32.000000000,
1569910225,2019-10-01 06:10:25.267,47.644866N 0.58688E 191m,Off,6,2.5824814,1.6592587,Time OK,Free running,44600,9215,0,2019-10-01 05:22:32.000000000,
1569910285,2019-10-01 06:11:25.267,47.644866N 0.58688E 191m,Off,6,2.5824814,1.6592587,Time OK,Free running,45800,9215,0,2019-10-01 05:22:32.000000000,
1569910345,2019-10-01 06:12:25.267,47.644866N 0.58688E 191m,Off,6,2.5824814,1.6592587,Time OK,Free running,47000,9215,0,2019-10-01 05:22:32.000000000,
1569910405,2019-10-01 06:13:25.267,47.644866N 0.58688E 191m,Off,6,2.5824814,1.6592587,Time OK,Free running,48200,9215,0,2019-10-01 05:22:32.000000000,
1569910465,2019-10-01 06:14:25.269,47.644866N 0.58688E 191m,Off,6,2.5824814,1.6592587,Time OK,Free running,49300,9215,0,2019-10-01 05:22:32.000000000,
1569910525,2019-10-01 06:15:25.267,47.644866N 0.58688E 191m,Off,6,2.5824814,1.6592587,Time OK,Free running,50100,9215,0,2019-10-01 05:22:32.000000000,
1569910585,2019-10-01 06:16:25.269,47.644866N 0.58688E 191m,Doing fixes,6,4.088729,3.0826805,Time OK,Coarse lock,100,9253,-208,2019-10-01 06:16:22.000000000,
1569910645,2019-10-01 06:17:25.271,47.644866N 0.58688E 191m,Doing fixes,6,4.1637406,3.1513062,Time OK,Fine lock,100,9216,0,2019-10-01 06:17:22.000000000,
1569910705,2019-10-01 06:18:25.267,47.644866N 0.58688E 191m,Off,6,4.204501,3.1883528,Time OK,Free running,500,9216,0,2019-10-01 06:17:52.000000000,
1569910765,2019-10-01 06:19:25.268,47.644866N 0.58688E 191m,Off,6,4.204501,3.1883528,Time OK,Free running,1400,9216,0,2019-10-01 06:17:52.000000000,
1569910825,2019-10-01 06:20:25.271,47.644866N 0.58688E 191m,Off,6,4.204501,3.1883528,Time OK,Free running,2500,9216,0,2019-10-01 06:17:52.000000000,
1569910885,2019-10-01 06:21:25.269,47.644866N 0.58688E 191m,Off,6,4.204501,3.1883528,Time OK,Free running,3600,9216,0,2019-10-01 06:17:52.000000000,
1569910945,2019-10-01 06:22:25.268,47.644866N 0.58688E 191m,Off,6,4.204501,3.1883528,Time OK,Free running,4600,9216,0,2019-10-01 06:17:52.000000000,
1569911005,2019-10-01 06:23:25.267,47.644866N 0.58688E 191m,Off,6,4.204501,3.1883528,Time OK,Free running,5800,9216,0,2019-10-01 06:17:52.000000000,
1569911065,2019-10-01 06:24:25.268,47.644866N 0.58688E 191m,Off,6,4.204501,3.1883528,Time OK,Free running,7200,9216,0,2019-10-01 06:17:52.000000000,
1569911125,2019-10-01 06:25:25.267,47.644866N 0.58688E 191m,Off,6,4.204501,3.1883528,Time OK,Free running,8200,9216,0,2019-10-01 06:17:52.000000000,
1569911185,2019-10-01 06:26:25.267,47.644866N 0.58688E 191m,Off,6,4.204501,3.1883528,Time OK,Free running,9100,9216,0,2019-10-01 06:17:52.000000000,
1569911245,2019-10-01 06:27:25.267,47.644866N 0.58688E 191m,Off,6,4.204501,3.1883528,Time OK,Free running,10200,9216,0,2019-10-01 06:17:52.000000000,
1569911305,2019-10-01 06:28:25.269,47.644866N 0.58688E 191m,Off,6,4.204501,3.1883528,Time OK,Free running,11400,9216,0,2019-10-01 06:17:52.000000000,
1569911365,2019-10-01 06:29:25.269,47.644866N 0.58688E 191m,Off,6,4.204501,3.1883528,Time OK,Free running,12600,9216,0,2019-10-01 06:17:52.000000000,
1569911425,2019-10-01 06:30:25.267,47.644866N 0.58688E 191m,Off,6,4.204501,3.1883528,Time OK,Free running,13700,9216,0,2019-10-01 06:17:52.000000000,
1569911485,2019-10-01 06:31:25.267,47.644866N 0.58688E 191m,Off,6,4.204501,3.1883528,Time OK,Free running,14700,9216,0,2019-10-01 06:17:52.000000000,
1569911545,2019-10-01 06:32:25.267,47.644866N 0.58688E 191m,Off,6,4.204501,3.1883528,Time OK,Free running,15700,9216,0,2019-10-01 06:17:52.000000000,
1569911605,2019-10-01 06:33:25.267,47.644866N 0.58688E 191m,Off,6,4.204501,3.1883528,Time OK,Free running,16900,9216,0,2019-10-01 06:17:52.000000000,
1569911665,2019-10-01 06:34:25.267,47.644866N 0.58688E 191m,Off,6,4.204501,3.1883528,Time OK,Free running,18100,9216,0,2019-10-01 06:17:52.000000000,
1569911725,2019-10-01 06:35:25.267,47.644866N 0.58688E 191m,Off,6,4.204501,3.1883528,Time OK,Free running,19500,9216,0,2019-10-01 06:17:52.000000000,
1569911785,2019-10-01 06:36:25.267,47.644866N 0.58688E 191m,Off,6,4.204501,3.1883528,Time OK,Free running,21000,9216,0,2019-10-01 06:17:52.000000000,
1569911845,2019-10-01 06:37:25.267,47.644866N 0.58688E 191m,Off,6,4.204501,3.1883528,Time OK,Free running,22000,9216,0,2019-10-01 06:17:52.000000000,
1569911905,2019-10-01 06:38:25.267,47.644866N 0.58688E 191m,Off,6,4.204501,3.1883528,Time OK,Free running,23100,9216,0,2019-10-01 06:17:52.000000000,
1569911965,2019-10-01 06:39:25.267,47.644866N 0.58688E 191m,Off,6,4.204501,3.1883528,Time OK,Free running,24600,9216,0,2019-10-01 06:17:52.000000000,
1569912025,2019-10-01 06:40:25.267,47.644866N 0.58688E 191m,Off,6,4.204501,3.1883528,Time OK,Free running,26000,9216,0,2019-10-01 06:17:52.000000000,
1569912085,2019-10-01 06:41:25.267,47.644866N 0.58688E 191m,Off,6,4.204501,3.1883528,Time OK,Free running,27100,9216,0,2019-10-01 06:17:52.000000000,
1569912145,2019-10-01 06:42:25.267,47.644866N 0.58688E 191m,Off,6,4.204501,3.1883528,Time OK,Free running,28000,9216,0,2019-10-01 06:17:52.000000000,
1569912205,2019-10-01 06:43:25.267,47.644866N 0.58688E 191m,Off,6,4.204501,3.1883528,Time OK,Free running,28800,9216,0,2019-10-01 06:17:52.000000000,
1569912265,2019-10-01 06:44:25.267,47.644866N 0.58688E 191m,Off,6,4.204501,3.1883528,Time OK,Free running,29700,9216,0,2019-10-01 06:17:52.000000000,
1569912325,2019-10-01 06:45:25.267,47.644866N 0.58688E 191m,Off,6,4.204501,3.1883528,Time OK,Free running,30800,9216,0,2019-10-01 06:17:52.000000000,
1569912385,2019-10-01 06:46:25.267,47.644866N 0.58688E 191m,Off,6,4.204501,3.1883528,Time OK,Free running,31600,9216,0,2019-10-01 06:17:52.000000000,
1569912445,2019-10-01 06:47:25.267,47.644866N 0.58688E 191m,Off,6,4.204501,3.1883528,Time OK,Free running,32600,9216,0,2019-10-01 06:17:52.000000000,
1569912505,2019-10-01 06:48:25.267,47.644866N 0.58688E 191m,Off,6,4.204501,3.1883528,Time OK,Free running,34000,9216,0,2019-10-01 06:17:52.000000000,
1569912565,2019-10-01 06:49:25.267,47.644866N 0.58688E 191m,Off,6,4.204501,3.1883528,Time OK,Free running,35100,9216,0,2019-10-01 06:17:52.000000000,
1569912625,2019-10-01 06:50:25.267,47.644866N 0.58688E 191m,Off,6,4.204501,3.1883528,Time OK,Free running,36100,9216,0,2019-10-01 06:17:52.000000000,
1569912685,2019-10-01 06:51:25.267,47.644866N 0.58688E 191m,Off,6,4.204501,3.1883528,Time OK,Free running,37300,9216,0,2019-10-01 06:17:52.000000000,
1569912745,2019-10-01 06:52:25.267,47.644866N 0.58688E 191m,Off,6,4.204501,3.1883528,Time OK,Free running,38500,9216,0,2019-10-01 06:17:52.000000000,
1569912805,2019-10-01 06:53:25.267,47.644866N 0.58688E 191m,Off,6,4.204501,3.1883528,Time OK,Free running,39700,9216,0,2019-10-01 06:17:52.000000000,
1569912865,2019-10-01 06:54:25.267,47.644866N 0.58688E 191m,Off,6,4.204501,3.1883528,Time OK,Free running,41000,9216,0,2019-10-01 06:17:52.000000000,
1569912925,2019-10-01 06:55:25.271,47.644866N 0.58688E 191m,Off,6,4.204501,3.1883528,Time OK,Free running,42300,9216,0,2019-10-01 06:17:52.000000000,
1569912985,2019-10-01 06:56:25.305,47.644866N 0.58688E 191m,Off,6,4.204501,3.1883528,Time OK,Free running,43500,9216,0,2019-10-01 06:17:52.000000000,
1569913045,2019-10-01 06:57:25.267,47.644866N 0.58688E 191m,Off,6,4.204501,3.1883528,Time OK,Free running,44700,9216,0,2019-10-01 06:17:52.000000000,
1569913105,2019-10-01 06:58:25.267,47.644866N 0.58688E 191m,Off,6,4.204501,3.1883528,Time OK,Free running,46000,9216,0,2019-10-01 06:17:52.000000000,
1569913165,2019-10-01 06:59:25.267,47.644866N 0.58688E 191m,Off,6,4.204501,3.1883528,Time OK,Free running,47300,9216,0,2019-10-01 06:17:52.000000000,
