Time(longsecs),Time(UTC),Supply Voltage(mV),Temperature(&deg;C),NMX Bus Current(mA),Sensor Current(mA),Serial Port Current(mA),Controller Current(mA),Digitizer Current(mA),
1569934825,2019-10-01 13:00:25.269,15866,3.1685577E1,0,4,0,39,36,
1569934885,2019-10-01 13:01:25.267,15555,3.1664276E1,0,9,0,39,41,
1569934945,2019-10-01 13:02:25.267,15298,3.178894E1,0,9,0,49,45,
1569935005,2019-10-01 13:03:25.267,15258,3.1968994E1,0,9,4,35,39,
1569935065,2019-10-01 13:04:25.267,15421,3.2035065E1,0,6,0,40,39,
1569935125,2019-10-01 13:05:25.267,15272,3.2063843E1,0,9,0,39,44,
1569935185,2019-10-01 13:06:25.267,15448,3.2161865E1,0,10,0,39,40,
1569935245,2019-10-01 13:07:25.267,15339,3.2265198E1,0,9,0,35,41,
1569935305,2019-10-01 13:08:25.267,15015,3.242929E1,0,15,0,36,40,
1569935365,2019-10-01 13:09:25.267,14934,3.2504944E1,0,9,0,42,37,
1569935425,2019-10-01 13:10:25.299,14879,3.247406E1,0,9,0,41,38,
1569935485,2019-10-01 13:11:25.268,14825,3.2829926E1,0,9,0,45,42,
1569935545,2019-10-01 13:12:25.267,14771,3.263495E1,0,12,0,36,41,
1569935605,2019-10-01 13:13:25.267,14771,3.295352E1,0,13,0,36,39,
1569935665,2019-10-01 13:14:25.267,14825,3.2963104E1,0,9,0,42,42,
1569935725,2019-10-01 13:15:25.267,14852,3.3039825E1,0,10,0,45,46,
1569935785,2019-10-01 13:16:25.267,14825,3.3183685E1,0,9,0,50,44,
1569935845,2019-10-01 13:17:25.270,14825,3.281076E1,0,10,0,45,41,
1569935905,2019-10-01 13:18:25.267,14852,3.303131E1,0,10,0,37,38,
1569935965,2019-10-01 13:19:25.267,14758,3.3295563E1,0,11,0,42,44,
1569936025,2019-10-01 13:20:25.267,14731,3.3356293E1,0,11,0,43,39,
1569936085,2019-10-01 13:21:25.281,14731,3.328064E1,0,9,0,45,46,
1569936145,2019-10-01 13:22:25.267,14758,3.3344574E1,0,11,0,42,40,
1569936205,2019-10-01 13:23:25.267,14758,3.3626923E1,0,10,0,39,45,
1569936265,2019-10-01 13:24:25.267,14771,3.3708984E1,0,10,0,37,43,
1569936325,2019-10-01 13:25:25.284,14731,3.342874E1,0,9,0,36,42,
1569936385,2019-10-01 13:26:25.267,14798,3.363971E1,0,9,0,41,46,
1569936445,2019-10-01 13:27:25.267,14812,3.3599213E1,0,9,0,36,40,
1569936505,2019-10-01 13:28:25.296,14758,3.362372E1,0,13,0,36,40,
1569936565,2019-10-01 13:29:25.267,14704,3.3632263E1,1,11,0,42,44,
1569936625,2019-10-01 13:30:25.267,14677,3.366101E1,0,11,0,43,41,
1569936685,2019-10-01 13:31:25.269,14704,3.359497E1,0,11,0,43,43,
1569936745,2019-10-01 13:32:25.267,14664,3.3244415E1,0,10,0,36,45,
1569936805,2019-10-01 13:33:25.267,14636,3.3384003E1,0,9,0,36,46,
1569936865,2019-10-01 13:34:25.300,14677,3.2725494E1,0,12,0,42,43,
1569936925,2019-10-01 13:35:25.269,14622,3.2939667E1,0,10,0,42,44,
1569936985,2019-10-01 13:36:25.267,14636,3.26882E1,0,9,0,42,42,
1569937045,2019-10-01 13:37:25.267,14636,3.2553955E1,0,13,0,36,40,
1569937724,2019-10-01 13:48:44.749,15948,3.0566803E1,0,9,0,47,46,
1569937785,2019-10-01 13:49:45.723,15975,3.0230103E1,0,6,0,47,41,
1569937845,2019-10-01 13:50:45.722,15988,3.0200256E1,0,9,0,39,40,
1569937905,2019-10-01 13:51:45.732,15988,2.9827332E1,0,11,0,36,38,
1569937965,2019-10-01 13:52:45.722,16015,2.9848633E1,0,11,0,38,36,
1569938025,2019-10-01 13:53:45.722,15988,2.9744232E1,0,14,0,42,38,
1569938085,2019-10-01 13:54:45.722,15975,2.9705872E1,0,12,0,42,41,
1569938145,2019-10-01 13:55:45.722,15988,2.9501282E1,0,8,0,33,37,
1569938205,2019-10-01 13:56:45.722,15799,2.9517273E1,0,6,0,35,35,
1569938265,2019-10-01 13:57:45.723,15988,2.9483185E1,0,8,56,36,40,
1569938325,2019-10-01 13:58:45.722,16002,2.9505554E1,0,9,0,38,41,
1569938385,2019-10-01 13:59:45.722,15988,2.94086E1,0,10,0,33,40,
