Time(longsecs),Time(UTC),External SOH Voltage 1(V),External SOH Voltage 2(V),External SOH Voltage 3(V),External SOH Voltage 4(V),Sensor SOH Voltage 1(V),Sensor SOH Voltage 2(V),Sensor SOH Voltage 3(V),
1571151611,2019-10-15 15:00:11.767,-2.2742748E-3,2.5949478E-3,-5.8436394E-4,5.846739E-3,1.864605E-1,1.8790245E-1,1.782341E-1,
1571151671,2019-10-15 15:01:11.767,-6.28829E-3,-1.0051727E-3,-4.563093E-3,8.633137E-4,1.7297745E-1,1.7599869E-1,1.7318726E-1,
1571151731,2019-10-15 15:02:11.767,-4.6024323E-3,8.5258484E-4,-2.5086403E-3,3.1936169E-3,1.7804623E-1,1.799717E-1,1.7560291E-1,
1571151791,2019-10-15 15:03:11.767,-5.8653355E-3,-1.3308525E-3,-4.6048164E-3,1.2998581E-3,1.7728329E-1,1.7791843E-1,1.8033981E-1,
1571151851,2019-10-15 15:04:11.767,-5.631447E-3,-9.3078613E-4,-4.3091774E-3,8.6069107E-4,1.7429638E-1,1.7979145E-1,1.8220615E-1,
1571151911,2019-10-15 15:05:11.767,-5.6278706E-3,-1.4121532E-3,-4.7523975E-3,8.6069107E-4,1.7638493E-1,1.7756462E-1,1.7475224E-1,
1571151971,2019-10-15 15:06:11.767,-4.603386E-3,5.457401E-4,-2.1665096E-3,2.693653E-3,1.8021584E-1,1.8274784E-1,1.7405128E-1,
1571152031,2019-10-15 15:07:11.767,-2.1903515E-3,3.1545162E-3,-4.580021E-4,5.657673E-3,1.8506813E-1,1.88303E-1,1.9351959E-1,
1571152091,2019-10-15 15:08:11.767,-1.9648075E-3,3.0140877E-3,-5.0473213E-4,5.456686E-3,1.8903065E-1,1.9119453E-1,1.865797E-1,
1571152151,2019-10-15 15:09:11.768,-2.4220943E-3,2.7718544E-3,-6.0248375E-4,5.4881573E-3,1.885252E-1,1.903925E-1,1.9207859E-1,
1571152211,2019-10-15 15:10:11.768,-3.964901E-3,6.122589E-4,-2.9144287E-3,2.9277802E-3,1.7948532E-1,1.815424E-1,1.7695904E-1,
1571152271,2019-10-15 15:11:11.770,-1.3589859E-3,3.0601025E-3,2.4437904E-4,5.705118E-3,1.8661976E-1,1.8857574E-1,1.8396378E-1,
1571152331,2019-10-15 15:12:11.767,-1.9290447E-3,2.790928E-3,-2.002716E-5,5.697727E-3,1.8749905E-1,1.8932152E-1,1.7758751E-1,
1571152391,2019-10-15 15:13:11.767,-1.8675327E-3,2.9838085E-3,-2.7823448E-4,5.466461E-3,1.8879414E-1,1.9121075E-1,1.7823982E-1,
1571152451,2019-10-15 15:14:11.767,-3.9434433E-3,1.3101101E-3,-2.1705627E-3,3.7062168E-3,1.8312073E-1,1.832161E-1,1.80727E-1,
1571152511,2019-10-15 15:15:11.767,-3.4117699E-3,8.8882446E-4,-2.2962093E-3,3.5116673E-3,1.8250275E-1,1.8597984E-1,1.7222881E-1,
1571152571,2019-10-15 15:16:11.767,-4.856825E-3,2.3055077E-4,-2.459526E-3,3.3817291E-3,1.7559719E-1,1.8012047E-1,1.8226719E-1,
1571152631,2019-10-15 15:17:11.767,-6.944895E-3,-1.0430813E-3,-4.8105717E-3,1.1012554E-3,1.7334843E-1,1.764431E-1,1.7323303E-1,
1571152691,2019-10-15 15:18:11.767,-4.1639805E-3,1.2285709E-3,-1.832962E-3,3.6845207E-3,1.7968369E-1,1.8114471E-1,1.7209053E-1,
1571152751,2019-10-15 15:19:11.767,-8.559227E-4,3.2856464E-3,-1.0538101E-4,5.3157806E-3,1.8853378E-1,1.9066238E-1,1.8362617E-1,
1571152811,2019-10-15 15:20:11.767,-4.3423176E-3,5.977154E-4,-2.701521E-3,3.3915043E-3,1.7941761E-1,1.8023205E-1,1.7689133E-1,
1571152871,2019-10-15 15:21:11.767,-3.964901E-3,1.0299683E-3,-1.9595623E-3,3.7705898E-3,1.8486977E-1,1.8724155E-1,1.8184185E-1,
1571152931,2019-10-15 15:22:11.769,-5.7628155E-3,-1.2381077E-3,-4.1429996E-3,1.3356209E-3,1.7551231E-1,1.769886E-1,1.795454E-1,
1571152991,2019-10-15 15:23:11.767,-4.033804E-3,1.4817715E-3,-1.8510818E-3,3.6444664E-3,1.7777443E-1,1.8185234E-1,1.7944622E-1,
1571153051,2019-10-15 15:24:11.768,-4.340887E-3,6.303787E-4,-2.5439262E-3,3.1068325E-3,1.8460369E-1,1.8277264E-1,1.827116E-1,
1571153111,2019-10-15 15:25:11.767,-4.8000813E-3,6.54459E-4,-2.351284E-3,3.0674934E-3,1.7779922E-1,1.799879E-1,1.814766E-1,
1571153171,2019-10-15 15:26:11.767,-6.0050488E-3,-1.4419556E-3,-4.518509E-3,1.1093616E-3,1.7535305E-1,1.757021E-1,1.6305351E-1,
1571153231,2019-10-15 15:27:11.767,-6.385088E-3,-1.4064312E-3,-4.177332E-3,1.0280609E-3,1.7718697E-1,1.7716503E-1,1.8086243E-1,
1571153291,2019-10-15 15:28:11.767,-4.2274E-3,8.4638596E-4,-1.9390583E-3,3.8247108E-3,1.7905235E-1,1.8309975E-1,1.7380524E-1,
1571153351,2019-10-15 15:29:11.767,-5.911827E-3,-1.1422634E-3,-4.2164326E-3,1.2419224E-3,1.7639923E-1,1.7735386E-1,1.676836E-1,
1571153411,2019-10-15 15:30:11.777,-3.1466484E-3,8.673668E-4,-2.0525455E-3,3.44491E-3,1.8344784E-1,1.830759E-1,1.8390465E-1,
1571153471,2019-10-15 15:31:11.767,-4.1787624E-3,1.3892651E-3,-1.6360283E-3,3.6549568E-3,1.7766476E-1,1.8300629E-1,1.8151855E-1,
1571153531,2019-10-15 15:32:11.767,-6.811142E-3,-1.5826225E-3,-4.4898987E-3,1.026392E-3,1.740179E-1,1.7503166E-1,1.7348003E-1,
1571153591,2019-10-15 15:33:11.767,-4.1413307E-3,8.084774E-4,-2.2962093E-3,3.0863285E-3,1.810894E-1,1.8336296E-1,1.8105316E-1,
1571153651,2019-10-15 15:34:11.767,-1.7185211E-3,3.0863285E-3,4.7683716E-5,5.035639E-3,1.8906689E-1,1.916132E-1,1.886301E-1,
1571153711,2019-10-15 15:35:11.767,-4.6229362E-3,4.079342E-4,-2.9695034E-3,2.8834343E-3,1.8198681E-1,1.8248749E-1,1.7722034E-1,
1571153771,2019-10-15 15:36:11.767,-5.739689E-3,-1.144886E-3,-4.306078E-3,1.2602806E-3,1.7839527E-1,1.799097E-1,1.7924213E-1,
1571153831,2019-10-15 15:37:11.767,-1.8312931E-3,3.203392E-3,-3.426075E-4,5.693674E-3,1.8967533E-1,1.9348145E-1,1.8664742E-1,
1571153891,2019-10-15 15:38:11.767,-3.9396286E-3,9.0432167E-4,-1.9328594E-3,3.7152767E-3,1.8110275E-1,1.8358803E-1,1.713028E-1,
1571153951,2019-10-15 15:39:11.767,-3.6616325E-3,2.3436546E-4,-2.7945042E-3,3.000021E-3,1.8236732E-1,1.845417E-1,1.8856049E-1,
1571154011,2019-10-15 15:40:11.767,-1.7473698E-3,2.981186E-3,2.1886826E-4,5.672455E-3,1.9120216E-1,1.9137573E-1,1.9653797E-1,
1571154071,2019-10-15 15:41:11.767,-5.997181E-3,-1.2962818E-3,-4.9779415E-3,1.0015965E-3,1.7477608E-1,1.7691231E-1,1.7527676E-1,
1571154131,2019-10-15 15:42:11.767,-4.8565865E-3,4.0340424E-4,-2.3326874E-3,2.9366016E-3,1.8274498E-1,1.8470669E-1,1.8386841E-1,
1571154191,2019-10-15 15:43:11.767,-2.1252632E-3,2.7959347E-3,1.3518333E-4,5.0115585E-3,1.8621635E-1,1.8771362E-1,1.9461536E-1,
1571154251,2019-10-15 15:44:11.767,-3.8027763E-3,6.623268E-4,-2.5794506E-3,3.0946732E-3,1.7963123E-1,1.8028164E-1,1.76548E-1,
1571154311,2019-10-15 15:45:11.767,-5.7377815E-3,-1.5060902E-3,-4.393339E-3,1.06287E-3,1.7309666E-1,1.7855835E-1,1.7207623E-1,
1571154371,2019-10-15 15:46:11.767,-1.1732578E-3,2.8092861E-3,-2.38657E-4,5.5942535E-3,1.8606567E-1,1.8676472E-1,1.8189907E-1,
1571154431,2019-10-15 15:47:11.767,-5.289793E-3,3.809929E-4,-2.5348663E-3,3.1661987E-3,1.7889214E-1,1.8300915E-1,1.7688274E-1,
1571154491,2019-10-15 15:48:11.767,-3.9711E-3,9.326935E-4,-2.1004677E-3,3.575325E-3,1.8145752E-1,1.8057346E-1,1.7755222E-1,
1571154551,2019-10-15 15:49:11.767,-6.4303875E-3,-9.622574E-4,-4.4691563E-3,8.8882446E-4,1.6940498E-1,1.7462158E-1,1.6504765E-1,
1571154611,2019-10-15 15:50:11.767,-3.7968159E-3,1.1684895E-3,-1.988411E-3,3.9155483E-3,1.7934799E-1,1.7920017E-1,1.6894436E-1,
1571154671,2019-10-15 15:51:11.767,-2.4409294E-3,2.5975704E-3,-6.5493584E-4,5.502939E-3,1.8718815E-1,1.9001007E-1,1.7863464E-1,
1571154731,2019-10-15 15:52:11.767,-4.0664673E-3,1.2154579E-3,-1.9721985E-3,3.2823086E-3,1.81674E-1,1.8365192E-1,1.8401909E-1,
1571154791,2019-10-15 15:53:11.767,-2.0189285E-3,2.9742718E-3,-2.772808E-4,5.329132E-3,1.8728733E-1,1.8909454E-1,1.9219112E-1,
1571154851,2019-10-15 15:54:11.767,-4.8577785E-3,8.3351135E-4,-2.7871132E-3,3.0634403E-3,1.7949104E-1,1.7882729E-1,1.7849445E-1,
1571154911,2019-10-15 15:55:11.767,-4.6339035E-3,4.5609474E-4,-2.5920868E-3,3.1261444E-3,1.8155384E-1,1.8453884E-1,1.7240906E-1,
1571154971,2019-10-15 15:56:11.767,-4.2641163E-3,1.4529228E-3,-2.0985603E-3,3.8321018E-3,1.8208885E-1,1.8361282E-1,1.8181515E-1,
1571155031,2019-10-15 15:57:11.767,-3.3931732E-3,1.2989044E-3,-2.1426678E-3,4.1151047E-3,1.8111706E-1,1.8167782E-1,1.7922306E-1,
1571155091,2019-10-15 15:58:11.767,-6.5510273E-3,-1.2891293E-3,-4.8782825E-3,1.3661385E-3,1.7368221E-1,1.7500019E-1,1.7381E-1,
1571155151,2019-10-15 15:59:11.799,-1.9316673E-3,3.5116673E-3,9.703636E-5,5.9177876E-3,1.9060135E-1,1.9478321E-1,1.8671322E-1,
