Time(longsecs),Time(UTC),External SOH Voltage 1(V),External SOH Voltage 2(V),External SOH Voltage 3(V),External SOH Voltage 4(V),Sensor SOH Voltage 1(V),Sensor SOH Voltage 2(V),Sensor SOH Voltage 3(V),
1571122811,2019-10-15 07:00:11.767,-2.0172596E-3,2.6831627E-3,-1.654625E-4,5.541563E-3,1.8320465E-1,1.8586826E-1,1.8233967E-1,
1571122871,2019-10-15 07:01:11.767,-6.5801144E-3,-1.6386509E-3,-4.548788E-3,1.2044907E-3,1.7187405E-1,1.7477894E-1,1.7222023E-1,
1571122931,2019-10-15 07:02:11.768,-2.1615028E-3,2.995491E-3,-4.6110153E-4,5.2855015E-3,1.8602753E-1,1.8717194E-1,1.858921E-1,
1571122991,2019-10-15 07:03:11.767,-3.6756992E-3,1.5990734E-3,-1.9135475E-3,3.7198067E-3,1.7704678E-1,1.7977619E-1,1.7845821E-1,
1571123051,2019-10-15 07:04:11.805,-4.085779E-3,1.629591E-3,-1.8098354E-3,3.3700466E-3,1.8212223E-1,1.8020248E-1,1.8109512E-1,
1571123111,2019-10-15 07:05:11.768,-6.387472E-3,-1.4364719E-3,-4.8179626E-3,1.6222E-3,1.7346096E-1,1.7558575E-1,1.7261791E-1,
1571123171,2019-10-15 07:06:11.767,-4.242897E-3,9.703636E-4,-3.5309792E-3,3.3695698E-3,1.7781162E-1,1.8170357E-1,1.7759895E-1,
1571123231,2019-10-15 07:07:11.767,-1.8017292E-3,3.0715466E-3,-1.9025803E-4,6.1104298E-3,1.8333054E-1,1.8598461E-1,1.8175983E-1,
1571123291,2019-10-15 07:08:11.767,-3.870964E-3,1.5389919E-3,-2.1967888E-3,4.085541E-3,1.837511E-1,1.8566513E-1,1.8452168E-1,
1571123351,2019-10-15 07:09:11.769,-2.6314259E-3,1.1870861E-3,-2.0782948E-3,3.6187172E-3,1.8014812E-1,1.8577385E-1,1.7854881E-1,
1571123411,2019-10-15 07:10:11.767,-1.7991066E-3,2.2740364E-3,-6.82354E-4,4.894018E-3,1.9013882E-1,1.9078541E-1,1.8902302E-1,
1571123471,2019-10-15 07:11:11.767,-1.8382072E-3,2.4483204E-3,-3.4093857E-4,5.4774284E-3,1.9013882E-1,1.9216251E-1,1.8811989E-1,
1571123531,2019-10-15 07:12:11.767,-1.6429424E-3,2.8402805E-3,-3.466606E-4,5.144596E-3,1.8907166E-1,1.8890572E-1,1.8567085E-1,
1571123591,2019-10-15 07:13:11.767,-3.9711E-3,1.0533333E-3,-2.2537708E-3,3.4360886E-3,1.7993355E-1,1.8334675E-1,1.8109131E-1,
1571123651,2019-10-15 07:14:11.767,-6.5431595E-3,-1.3639927E-3,-4.524231E-3,1.5900135E-3,1.7249966E-1,1.7511654E-1,1.6973495E-1,
1571123711,2019-10-15 07:15:11.767,-1.5292168E-3,3.427267E-3,-1.0461807E-3,5.7098866E-3,1.8575478E-1,1.8674946E-1,1.8171597E-1,
1571123771,2019-10-15 07:16:11.767,-4.609823E-3,7.507801E-4,-2.775669E-3,3.3333302E-3,1.8080425E-1,1.8132305E-1,1.7713833E-1,
1571123831,2019-10-15 07:17:11.769,-3.4997463E-3,1.2617111E-3,-1.0032654E-3,4.0295124E-3,1.7939281E-1,1.819706E-1,1.8009853E-1,
1571123891,2019-10-15 07:18:11.767,-3.8495064E-3,1.0592937E-3,-2.146721E-3,3.7565231E-3,1.7990398E-1,1.8291569E-1,1.8370914E-1,
1571123951,2019-10-15 07:19:11.768,-6.1178207E-3,-1.2676716E-3,-4.6298504E-3,1.1417866E-3,1.743536E-1,1.7628574E-1,1.7508793E-1,
1571124011,2019-10-15 07:20:11.767,-1.8453598E-3,2.5646687E-3,2.2959709E-4,5.68676E-3,1.8460083E-1,1.8678474E-1,1.8066978E-1,
1571124071,2019-10-15 07:21:11.781,-1.9340515E-3,3.0436516E-3,-3.0970573E-4,5.451679E-3,1.8942451E-1,1.9067097E-1,1.8958187E-1,
1571124131,2019-10-15 07:22:11.767,-6.15716E-3,-1.8675327E-3,-4.579544E-3,8.904934E-4,1.748476E-1,1.778574E-1,1.7858887E-1,
1571124191,2019-10-15 07:23:11.778,-3.7400723E-3,8.6688995E-4,-2.1998882E-3,4.0831566E-3,1.7894554E-1,1.81036E-1,1.7958546E-1,
1571124251,2019-10-15 07:24:11.767,-4.342556E-3,8.075237E-4,-2.6862621E-3,2.891302E-3,1.8136883E-1,1.8318367E-1,1.7757702E-1,
1571124311,2019-10-15 07:25:11.798,-4.836321E-3,1.5830994E-4,-2.9969215E-3,3.1077862E-3,1.7974949E-1,1.7386341E-1,1.8003845E-1,
1571124371,2019-10-15 07:26:11.767,-3.8921833E-3,8.327961E-4,-3.0241013E-3,3.6296844E-3,1.8731594E-1,1.8980026E-1,1.8616676E-1,
1571124431,2019-10-15 07:27:11.767,-3.993511E-3,1.3957024E-3,-1.9581318E-3,3.7679672E-3,1.8174553E-1,1.8401909E-1,1.8102264E-1,
1571124491,2019-10-15 07:28:11.767,-6.4561367E-3,-1.5416145E-3,-4.094839E-3,1.434803E-3,1.749115E-1,1.7760086E-1,1.7577648E-1,
1571124551,2019-10-15 07:29:11.767,-3.1352043E-3,1.6846657E-3,-1.52421E-3,3.61228E-3,1.8205929E-1,1.8501377E-1,1.8299294E-1,
1571124611,2019-10-15 07:30:11.767,-6.0765743E-3,-9.858608E-4,-4.2307377E-3,1.4019012E-3,1.740675E-1,1.7572594E-1,1.6989136E-1,
1571124671,2019-10-15 07:31:11.767,-2.1762848E-3,1.8997192E-3,-6.864071E-4,5.376816E-3,1.879158E-1,1.9027233E-1,1.8376732E-1,
1571124731,2019-10-15 07:32:11.767,-2.0461082E-3,3.0937195E-3,-1.5068054E-4,5.6815147E-3,1.8389511E-1,1.8667984E-1,1.7868996E-1,
1571124791,2019-10-15 07:33:11.776,-4.1680336E-3,8.997917E-4,-2.245903E-3,3.5307407E-3,1.8160248E-1,1.83362E-1,1.8115234E-1,
1571124851,2019-10-15 07:34:11.767,-6.3233376E-3,-1.3177395E-3,-4.2307377E-3,1.3093948E-3,1.7741013E-1,1.807003E-1,1.7707443E-1,
1571124911,2019-10-15 07:35:11.805,-3.6559105E-3,9.0384483E-4,-2.7968884E-3,4.2140484E-3,1.8171215E-1,1.9198036E-1,1.7989826E-1,
1571124971,2019-10-15 07:36:11.767,-6.048441E-3,-1.2025833E-3,-4.766941E-3,1.3546944E-3,1.754551E-1,1.7743301E-1,1.7435646E-1,
1571125031,2019-10-15 07:37:11.767,-3.7837029E-3,1.1639595E-3,-1.8262863E-3,3.6358833E-3,1.8235493E-1,1.836071E-1,1.8238258E-1,
1571125091,2019-10-15 07:38:11.767,-4.502058E-3,-1.1610985E-4,-2.4650097E-3,3.0369759E-3,1.7886257E-1,1.8245697E-1,1.810093E-1,
1571125151,2019-10-15 07:39:11.776,-4.228592E-3,5.531311E-4,-2.537012E-3,2.5787354E-3,1.7879963E-1,1.7959309E-1,1.7547607E-1,
1571125211,2019-10-15 07:40:11.767,-1.9490719E-3,2.8755665E-3,-4.6372414E-4,6.0768127E-3,1.8526936E-1,1.8762779E-1,1.8174934E-1,
1571125271,2019-10-15 07:41:11.767,-4.7638416E-3,8.420944E-4,-2.8464794E-3,3.0779839E-3,1.7897224E-1,1.8097496E-1,1.8136978E-1,
1571125331,2019-10-15 07:42:11.767,-1.7020702E-3,3.2043457E-3,-6.878376E-4,5.4650307E-3,1.8346691E-1,1.8510723E-1,1.822815E-1,
1571125391,2019-10-15 07:43:11.767,-2.1834373E-3,3.024578E-3,-5.5217743E-4,6.0138702E-3,1.8577671E-1,1.8849277E-1,1.8383026E-1,
1571125451,2019-10-15 07:44:11.767,-3.985405E-3,1.0442734E-3,-2.2788048E-3,4.196644E-3,1.8266773E-1,1.8383884E-1,1.7665863E-1,
1571125511,2019-10-15 07:45:11.767,-4.3632984E-3,1.5499592E-3,-2.5606155E-3,3.2904148E-3,1.8055058E-1,1.8412209E-1,1.8387985E-1,
1571125571,2019-10-15 07:46:11.767,-3.8490295E-3,4.234314E-4,-2.143383E-3,3.1957626E-3,1.8274498E-1,1.8445301E-1,1.8069935E-1,
1571125631,2019-10-15 07:47:11.767,-3.7119389E-3,1.1587143E-3,-2.4294853E-3,3.7093163E-3,1.8153954E-1,1.8431568E-1,1.8136406E-1,
1571125691,2019-10-15 07:48:11.767,-6.4299107E-3,-1.1384487E-3,-4.074812E-3,7.3981285E-4,1.7502308E-1,1.7861557E-1,1.7329597E-1,
1571125751,2019-10-15 07:49:11.767,-4.0905476E-3,1.5604496E-3,-1.9323826E-3,3.4470558E-3,1.7943668E-1,1.8131256E-1,1.7691517E-1,
1571125811,2019-10-15 07:50:11.770,-1.8279552E-3,2.2773743E-3,-8.132458E-4,5.1858425E-3,1.8989277E-1,1.9144726E-1,1.8911648E-1,
1571125871,2019-10-15 07:51:11.767,-3.961563E-3,7.932186E-4,-2.1374226E-3,2.5804043E-3,1.807375E-1,1.8190765E-1,1.772232E-1,
1571125931,2019-10-15 07:52:11.767,-4.519701E-3,6.611347E-4,-2.43783E-3,3.2174587E-3,1.7815685E-1,1.8245697E-1,1.7789364E-1,
1571125991,2019-10-15 07:53:11.767,-6.149292E-3,-1.0690689E-3,-4.716158E-3,9.455681E-4,1.7135525E-1,1.7349339E-1,1.7205906E-1,
1571126051,2019-10-15 07:54:11.767,-2.3424625E-3,3.3984184E-3,-1.475811E-4,5.5687428E-3,1.8756676E-1,1.8980598E-1,1.8456078E-1,
1571126111,2019-10-15 07:55:11.767,-6.4969063E-3,-1.0347366E-3,-4.073143E-3,1.335144E-3,1.7306423E-1,1.745205E-1,1.7261505E-1,
1571126171,2019-10-15 07:56:11.767,-6.37269E-3,-1.623869E-3,-4.6355724E-3,1.257658E-3,1.7413425E-1,1.7801094E-1,1.723299E-1,
1571126231,2019-10-15 07:57:11.802,-4.033804E-3,1.5201569E-3,-2.6659966E-3,3.7136078E-3,1.8147182E-1,1.8063831E-1,1.8012905E-1,
1571126291,2019-10-15 07:58:11.767,-6.303549E-3,-9.763241E-4,-4.1861534E-3,1.0890961E-3,1.7624092E-1,1.7832279E-1,1.7596245E-1,
1571126351,2019-10-15 07:59:11.767,-6.2966347E-3,-1.3811588E-3,-4.1618347E-3,1.7235279E-3,1.7556477E-1,1.775837E-1,1.7392159E-1,
