Time(longsecs),Time(UTC),Earth Location,GPS Receiver Status,GPS Satellites Used,GPS PDOP,GPS TDOP,Timing Status,Timing Phase Lock,Timing Uncertainty(ns),DAC Count,Timing Error(ns),GPS Last Update Time,
1571148011,2019-10-15 14:00:11.767,47.651062N 0.578096E 189m,Off,5,3.9287992,2.7452538,Time OK,Free running,8300,8902,0,2019-10-15 13:51:26.000000000,
1571148071,2019-10-15 14:01:11.767,47.651062N 0.578096E 189m,Off,5,3.9287992,2.7452538,Time OK,Free running,9100,8902,0,2019-10-15 13:51:26.000000000,
1571148131,2019-10-15 14:02:11.767,47.651062N 0.578096E 189m,Off,5,3.9287992,2.7452538,Time OK,Free running,10100,8902,0,2019-10-15 13:51:26.000000000,
1571148191,2019-10-15 14:03:11.767,47.651062N 0.578096E 189m,Off,5,3.9287992,2.7452538,Time OK,Free running,10900,8902,0,2019-10-15 13:51:26.000000000,
1571148251,2019-10-15 14:04:11.767,47.651062N 0.578096E 189m,Off,5,3.9287992,2.7452538,Time OK,Free running,11900,8902,0,2019-10-15 13:51:26.000000000,
1571148311,2019-10-15 14:05:11.805,47.651062N 0.578096E 189m,Off,5,3.9287992,2.7452538,Time OK,Free running,12800,8902,0,2019-10-15 13:51:26.000000000,
1571148371,2019-10-15 14:06:11.768,47.651062N 0.578096E 189m,Off,5,3.9287992,2.7452538,Time OK,Free running,13600,8902,0,2019-10-15 13:51:26.000000000,
1571148431,2019-10-15 14:07:11.769,47.651062N 0.578096E 189m,Off,5,3.9287992,2.7452538,Time OK,Free running,14500,8902,0,2019-10-15 13:51:26.000000000,
1571148491,2019-10-15 14:08:11.767,47.651062N 0.578096E 189m,Off,5,3.9287992,2.7452538,Time OK,Free running,15700,8902,0,2019-10-15 13:51:26.000000000,
1571148551,2019-10-15 14:09:11.767,47.651062N 0.578096E 189m,Off,5,3.9287992,2.7452538,Time OK,Free running,16800,8902,0,2019-10-15 13:51:26.000000000,
1571148611,2019-10-15 14:10:11.767,47.651062N 0.578096E 189m,Off,5,3.9287992,2.7452538,Time OK,Free running,17900,8902,0,2019-10-15 13:51:26.000000000,
1571148671,2019-10-15 14:11:11.767,47.651062N 0.578096E 189m,Off,5,3.9287992,2.7452538,Time OK,Free running,18900,8902,0,2019-10-15 13:51:26.000000000,
1571148731,2019-10-15 14:12:11.767,47.651062N 0.578096E 189m,Off,5,3.9287992,2.7452538,Time OK,Free running,19700,8902,0,2019-10-15 13:51:26.000000000,
1571148791,2019-10-15 14:13:11.767,47.651062N 0.578096E 189m,Off,5,3.9287992,2.7452538,Time OK,Free running,20800,8902,0,2019-10-15 13:51:26.000000000,
1571148851,2019-10-15 14:14:11.773,47.651062N 0.578096E 189m,Off,5,3.9287992,2.7452538,Time OK,Free running,22300,8902,0,2019-10-15 13:51:26.000000000,
1571148911,2019-10-15 14:15:11.767,47.651062N 0.578096E 189m,Off,5,3.9287992,2.7452538,Time OK,Free running,23500,8902,0,2019-10-15 13:51:26.000000000,
1571148971,2019-10-15 14:16:11.767,47.651062N 0.578096E 189m,Off,5,3.9287992,2.7452538,Time OK,Free running,24500,8902,0,2019-10-15 13:51:26.000000000,
1571149031,2019-10-15 14:17:11.767,47.651062N 0.578096E 189m,Off,5,3.9287992,2.7452538,Time OK,Free running,25700,8902,0,2019-10-15 13:51:26.000000000,
1571149091,2019-10-15 14:18:11.767,47.651062N 0.578096E 189m,Off,5,3.9287992,2.7452538,Time OK,Free running,26900,8902,0,2019-10-15 13:51:26.000000000,
1571149151,2019-10-15 14:19:11.767,47.651062N 0.578096E 189m,Off,5,3.9287992,2.7452538,Time OK,Free running,28000,8902,0,2019-10-15 13:51:26.000000000,
1571149211,2019-10-15 14:20:11.767,47.651062N 0.578096E 189m,Off,5,3.9287992,2.7452538,Time OK,Free running,29200,8902,0,2019-10-15 13:51:26.000000000,
1571149271,2019-10-15 14:21:11.768,47.651062N 0.578096E 189m,Off,5,3.9287992,2.7452538,Time OK,Free running,30400,8902,0,2019-10-15 13:51:26.000000000,
1571149331,2019-10-15 14:22:11.767,47.651062N 0.578096E 189m,Off,5,3.9287992,2.7452538,Time OK,Free running,31600,8902,0,2019-10-15 13:51:26.000000000,
1571149391,2019-10-15 14:23:11.767,47.651062N 0.578096E 189m,Off,5,3.9287992,2.7452538,Time OK,Free running,33000,8902,0,2019-10-15 13:51:26.000000000,
1571149451,2019-10-15 14:24:11.767,47.651062N 0.578096E 189m,Off,5,3.9287992,2.7452538,Time OK,Free running,34200,8902,0,2019-10-15 13:51:26.000000000,
1571149511,2019-10-15 14:25:11.767,47.651062N 0.578096E 189m,Off,5,3.9287992,2.7452538,Time OK,Free running,35500,8902,0,2019-10-15 13:51:26.000000000,
1571149571,2019-10-15 14:26:11.767,47.651062N 0.578096E 189m,Off,5,3.9287992,2.7452538,Time OK,Free running,37000,8902,0,2019-10-15 13:51:26.000000000,
1571149631,2019-10-15 14:27:11.767,47.651062N 0.578096E 189m,Off,5,3.9287992,2.7452538,Time OK,Free running,38200,8902,0,2019-10-15 13:51:26.000000000,
1571149691,2019-10-15 14:28:11.767,47.651062N 0.578096E 189m,Off,5,3.9287992,2.7452538,Time OK,Free running,39400,8902,0,2019-10-15 13:51:26.000000000,
1571149751,2019-10-15 14:29:11.767,47.651062N 0.578096E 189m,Off,5,3.9287992,2.7452538,Time OK,Free running,41100,8902,0,2019-10-15 13:51:26.000000000,
1571149811,2019-10-15 14:30:11.767,47.651062N 0.578096E 189m,Off,5,3.9287992,2.7452538,Time OK,Free running,42900,8902,0,2019-10-15 13:51:26.000000000,
1571149871,2019-10-15 14:31:11.802,47.651062N 0.578096E 189m,Off,5,3.9287992,2.7452538,Time OK,Free running,44600,8902,0,2019-10-15 13:51:26.000000000,
1571149931,2019-10-15 14:32:11.767,47.651062N 0.578096E 189m,Off,5,3.9287992,2.7452538,Time OK,Free running,46400,8902,0,2019-10-15 13:51:26.000000000,
1571149991,2019-10-15 14:33:11.767,47.651062N 0.578096E 189m,Off,5,3.9287992,2.7452538,Time OK,Free running,48400,8902,0,2019-10-15 13:51:26.000000000,
1571150051,2019-10-15 14:34:11.767,47.651062N 0.578096E 189m,Off,5,3.9287992,2.7452538,Time OK,Free running,50500,8902,0,2019-10-15 13:51:26.000000000,
1571150111,2019-10-15 14:35:11.767,47.651062N 0.578096E 189m,Doing fixes,6,2.722983,1.7921649,Time OK,Coarse lock,100,8788,729,2019-10-15 14:35:11.000000000,
1571150171,2019-10-15 14:36:11.806,47.651062N 0.578096E 189m,Doing fixes,6,2.740872,1.8075742,Time OK,Fine lock,100,8889,0,2019-10-15 14:36:11.000000000,
1571150231,2019-10-15 14:37:11.767,47.651062N 0.578096E 189m,Off,6,2.752294,1.8173046,Time OK,Free running,400,8885,0,2019-10-15 14:36:46.000000000,
1571150291,2019-10-15 14:38:11.767,47.651062N 0.578096E 189m,Off,6,2.752294,1.8173046,Time OK,Free running,1200,8885,0,2019-10-15 14:36:46.000000000,
1571150351,2019-10-15 14:39:11.767,47.651062N 0.578096E 189m,Off,6,2.752294,1.8173046,Time OK,Free running,2000,8885,0,2019-10-15 14:36:46.000000000,
1571150411,2019-10-15 14:40:11.768,47.651062N 0.578096E 189m,Off,6,2.752294,1.8173046,Time OK,Free running,3000,8885,0,2019-10-15 14:36:46.000000000,
1571150471,2019-10-15 14:41:11.772,47.651062N 0.578096E 189m,Off,6,2.752294,1.8173046,Time OK,Free running,3900,8885,0,2019-10-15 14:36:46.000000000,
1571150531,2019-10-15 14:42:11.769,47.651062N 0.578096E 189m,Off,6,2.752294,1.8173046,Time OK,Free running,5100,8885,0,2019-10-15 14:36:46.000000000,
1571150591,2019-10-15 14:43:11.769,47.651062N 0.578096E 189m,Off,6,2.752294,1.8173046,Time OK,Free running,6200,8885,0,2019-10-15 14:36:46.000000000,
1571150651,2019-10-15 14:44:11.767,47.651062N 0.578096E 189m,Off,6,2.752294,1.8173046,Time OK,Free running,7000,8885,0,2019-10-15 14:36:46.000000000,
1571150711,2019-10-15 14:45:11.767,47.651062N 0.578096E 189m,Off,6,2.752294,1.8173046,Time OK,Free running,7900,8885,0,2019-10-15 14:36:46.000000000,
1571150771,2019-10-15 14:46:11.767,47.651062N 0.578096E 189m,Off,6,2.752294,1.8173046,Time OK,Free running,9100,8885,0,2019-10-15 14:36:46.000000000,
1571150831,2019-10-15 14:47:11.767,47.651062N 0.578096E 189m,Off,6,2.752294,1.8173046,Time OK,Free running,10600,8885,0,2019-10-15 14:36:46.000000000,
1571150891,2019-10-15 14:48:11.767,47.651062N 0.578096E 189m,Off,6,2.752294,1.8173046,Time OK,Free running,12100,8885,0,2019-10-15 14:36:46.000000000,
1571150951,2019-10-15 14:49:11.767,47.651062N 0.578096E 189m,Off,6,2.752294,1.8173046,Time OK,Free running,13600,8885,0,2019-10-15 14:36:46.000000000,
1571151011,2019-10-15 14:50:11.767,47.651062N 0.578096E 189m,Off,6,2.752294,1.8173046,Time OK,Free running,15200,8885,0,2019-10-15 14:36:46.000000000,
1571151071,2019-10-15 14:51:11.768,47.651062N 0.578096E 189m,Off,6,2.752294,1.8173046,Time OK,Free running,16800,8885,0,2019-10-15 14:36:46.000000000,
1571151131,2019-10-15 14:52:11.767,47.651062N 0.578096E 189m,Off,6,2.752294,1.8173046,Time OK,Free running,18700,8885,0,2019-10-15 14:36:46.000000000,
1571151191,2019-10-15 14:53:11.767,47.651062N 0.578096E 189m,Off,6,2.752294,1.8173046,Time OK,Free running,20700,8885,0,2019-10-15 14:36:46.000000000,
1571151251,2019-10-15 14:54:11.767,47.651062N 0.578096E 189m,Off,6,2.752294,1.8173046,Time OK,Free running,22600,8885,0,2019-10-15 14:36:46.000000000,
1571151311,2019-10-15 14:55:11.767,47.651062N 0.578096E 189m,Off,6,2.752294,1.8173046,Time OK,Free running,24000,8885,0,2019-10-15 14:36:46.000000000,
1571151371,2019-10-15 14:56:11.767,47.651062N 0.578096E 189m,Off,6,2.752294,1.8173046,Time OK,Free running,25400,8885,0,2019-10-15 14:36:46.000000000,
1571151431,2019-10-15 14:57:11.767,47.651062N 0.578096E 189m,Off,6,2.752294,1.8173046,Time OK,Free running,27100,8885,0,2019-10-15 14:36:46.000000000,
1571151491,2019-10-15 14:58:11.769,47.651062N 0.578096E 189m,Off,6,2.752294,1.8173046,Time OK,Free running,29100,8885,0,2019-10-15 14:36:46.000000000,
1571151551,2019-10-15 14:59:11.767,47.651062N 0.578096E 189m,Off,6,2.752294,1.8173046,Time OK,Free running,31200,8885,0,2019-10-15 14:36:46.000000000,
