Time(longsecs),Time(UTC),Earth Location,GPS Receiver Status,GPS Satellites Used,GPS PDOP,GPS TDOP,Timing Status,Timing Phase Lock,Timing Uncertainty(ns),DAC Count,Timing Error(ns),GPS Last Update Time,
1571158811,2019-10-15 17:00:11.768,47.651102N 0.578014E 189m,Off,5,3.127027,1.6793814,Time OK,Free running,30900,8721,0,2019-10-15 16:40:26.000000000,
1571158871,2019-10-15 17:01:11.772,47.651102N 0.578014E 189m,Off,5,3.127027,1.6793814,Time OK,Free running,33300,8721,0,2019-10-15 16:40:26.000000000,
1571158931,2019-10-15 17:02:11.767,47.651102N 0.578014E 189m,Off,5,3.127027,1.6793814,Time OK,Free running,36200,8721,0,2019-10-15 16:40:26.000000000,
1571158991,2019-10-15 17:03:11.767,47.651102N 0.578014E 189m,Off,5,3.127027,1.6793814,Time OK,Free running,39200,8721,0,2019-10-15 16:40:26.000000000,
1571159051,2019-10-15 17:04:11.767,47.651102N 0.578014E 189m,Off,5,3.127027,1.6793814,Time OK,Free running,42200,8721,0,2019-10-15 16:40:26.000000000,
1571159111,2019-10-15 17:05:11.767,47.651102N 0.578014E 189m,Off,5,3.127027,1.6793814,Time OK,Free running,45500,8721,0,2019-10-15 16:40:26.000000000,
1571159171,2019-10-15 17:06:11.769,47.651102N 0.578014E 189m,Off,5,3.127027,1.6793814,Time OK,Free running,48800,8721,0,2019-10-15 16:40:26.000000000,
1571159231,2019-10-15 17:07:11.767,47.651102N 0.578014E 189m,Off,5,3.127027,1.6793814,Time OK,Free running,51800,8721,0,2019-10-15 16:40:26.000000000,
1571159291,2019-10-15 17:08:11.767,47.651102N 0.578014E 189m,Doing fixes,5,3.2308233,2.1034055,Time OK,Coarse lock,100,8212,3541,2019-10-15 17:08:11.000000000,
1571159351,2019-10-15 17:09:11.767,47.651102N 0.578014E 189m,Doing fixes,5,3.2361324,2.1152327,Time OK,Fine lock,100,8678,0,2019-10-15 17:09:11.000000000,
1571159411,2019-10-15 17:10:11.767,47.651102N 0.578014E 189m,Off,6,2.5917094,1.5349753,Time OK,Free running,400,8678,0,2019-10-15 17:09:46.000000000,
1571159471,2019-10-15 17:11:11.767,47.651102N 0.578014E 189m,Off,6,2.5917094,1.5349753,Time OK,Free running,1200,8678,0,2019-10-15 17:09:46.000000000,
1571159531,2019-10-15 17:12:11.767,47.651102N 0.578014E 189m,Off,6,2.5917094,1.5349753,Time OK,Free running,2400,8678,0,2019-10-15 17:09:46.000000000,
1571159591,2019-10-15 17:13:11.777,47.651102N 0.578014E 189m,Off,6,2.5917094,1.5349753,Time OK,Free running,3800,8678,0,2019-10-15 17:09:46.000000000,
1571159651,2019-10-15 17:14:11.769,47.651102N 0.578014E 189m,Off,6,2.5917094,1.5349753,Time OK,Free running,4800,8678,0,2019-10-15 17:09:46.000000000,
1571159711,2019-10-15 17:15:11.770,47.651102N 0.578014E 189m,Off,6,2.5917094,1.5349753,Time OK,Free running,5900,8678,0,2019-10-15 17:09:46.000000000,
1571159771,2019-10-15 17:16:11.767,47.651102N 0.578014E 189m,Off,6,2.5917094,1.5349753,Time OK,Free running,7200,8678,0,2019-10-15 17:09:46.000000000,
1571159831,2019-10-15 17:17:11.767,47.651102N 0.578014E 189m,Off,6,2.5917094,1.5349753,Time OK,Free running,8800,8678,0,2019-10-15 17:09:46.000000000,
1571159891,2019-10-15 17:18:11.767,47.651102N 0.578014E 189m,Off,6,2.5917094,1.5349753,Time OK,Free running,10400,8678,0,2019-10-15 17:09:46.000000000,
1571159951,2019-10-15 17:19:11.767,47.651102N 0.578014E 189m,Off,6,2.5917094,1.5349753,Time OK,Free running,12000,8678,0,2019-10-15 17:09:46.000000000,
1571160011,2019-10-15 17:20:11.769,47.651102N 0.578014E 189m,Off,6,2.5917094,1.5349753,Time OK,Free running,13700,8678,0,2019-10-15 17:09:46.000000000,
1571160071,2019-10-15 17:21:11.767,47.651102N 0.578014E 189m,Off,6,2.5917094,1.5349753,Time OK,Free running,15500,8678,0,2019-10-15 17:09:46.000000000,
1571160131,2019-10-15 17:22:11.767,47.651102N 0.578014E 189m,Off,6,2.5917094,1.5349753,Time OK,Free running,17600,8678,0,2019-10-15 17:09:46.000000000,
1571160191,2019-10-15 17:23:11.767,47.651102N 0.578014E 189m,Off,6,2.5917094,1.5349753,Time OK,Free running,19600,8678,0,2019-10-15 17:09:46.000000000,
1571160251,2019-10-15 17:24:11.767,47.651102N 0.578014E 189m,Off,6,2.5917094,1.5349753,Time OK,Free running,21800,8678,0,2019-10-15 17:09:46.000000000,
1571160311,2019-10-15 17:25:11.767,47.651102N 0.578014E 189m,Off,6,2.5917094,1.5349753,Time OK,Free running,24100,8678,0,2019-10-15 17:09:46.000000000,
1571160371,2019-10-15 17:26:11.768,47.651102N 0.578014E 189m,Off,6,2.5917094,1.5349753,Time OK,Free running,26300,8678,0,2019-10-15 17:09:46.000000000,
1571160431,2019-10-15 17:27:11.767,47.651102N 0.578014E 189m,Off,6,2.5917094,1.5349753,Time OK,Free running,28700,8678,0,2019-10-15 17:09:46.000000000,
1571160491,2019-10-15 17:28:11.767,47.651102N 0.578014E 189m,Off,6,2.5917094,1.5349753,Time OK,Free running,31100,8678,0,2019-10-15 17:09:46.000000000,
1571160551,2019-10-15 17:29:11.767,47.651102N 0.578014E 189m,Off,6,2.5917094,1.5349753,Time OK,Free running,33400,8678,0,2019-10-15 17:09:46.000000000,
1571160611,2019-10-15 17:30:11.767,47.651102N 0.578014E 189m,Off,6,2.5917094,1.5349753,Time OK,Free running,35800,8678,0,2019-10-15 17:09:46.000000000,
1571160671,2019-10-15 17:31:11.767,47.651102N 0.578014E 189m,Off,6,2.5917094,1.5349753,Time OK,Free running,38400,8678,0,2019-10-15 17:09:46.000000000,
1571160731,2019-10-15 17:32:11.767,47.651102N 0.578014E 189m,Off,6,2.5917094,1.5349753,Time OK,Free running,41100,8678,0,2019-10-15 17:09:46.000000000,
1571160791,2019-10-15 17:33:11.767,47.651102N 0.578014E 189m,Off,6,2.5917094,1.5349753,Time OK,Free running,43900,8678,0,2019-10-15 17:09:46.000000000,
1571160851,2019-10-15 17:34:11.767,47.651102N 0.578014E 189m,Off,6,2.5917094,1.5349753,Time OK,Free running,46800,8678,0,2019-10-15 17:09:46.000000000,
1571160911,2019-10-15 17:35:11.767,47.651102N 0.578014E 189m,Off,6,2.5917094,1.5349753,Time OK,Free running,49900,8678,0,2019-10-15 17:09:46.000000000,
1571160971,2019-10-15 17:36:11.767,47.651102N 0.578014E 189m,Off,6,2.5917094,1.5349753,Time OK,Free running,53200,8678,0,2019-10-15 17:09:46.000000000,
1571161031,2019-10-15 17:37:11.770,47.651102N 0.578014E 189m,Doing fixes,5,4.0007787,2.8871284,Time OK,Coarse lock,100,7336,20833,2019-10-15 17:37:11.000000000,
1571161091,2019-10-15 17:38:11.767,47.651102N 0.578014E 189m,Doing fixes,5,4.050076,2.9298277,Time OK,Fine lock,100,8652,-104,2019-10-15 17:38:11.000000000,
1571161151,2019-10-15 17:39:11.767,47.651102N 0.578014E 189m,Off,6,2.3922365,1.4099313,Time OK,Free running,100,8638,0,2019-10-15 17:39:06.000000000,
1571161211,2019-10-15 17:40:11.767,47.651102N 0.578014E 189m,Off,6,2.3922365,1.4099313,Time OK,Free running,900,8638,0,2019-10-15 17:39:06.000000000,
1571161271,2019-10-15 17:41:11.767,47.651102N 0.578014E 189m,Off,6,2.3922365,1.4099313,Time OK,Free running,1800,8638,0,2019-10-15 17:39:06.000000000,
1571161331,2019-10-15 17:42:11.767,47.651102N 0.578014E 189m,Off,6,2.3922365,1.4099313,Time OK,Free running,2600,8638,0,2019-10-15 17:39:06.000000000,
1571161391,2019-10-15 17:43:11.767,47.651102N 0.578014E 189m,Off,6,2.3922365,1.4099313,Time OK,Free running,3500,8638,0,2019-10-15 17:39:06.000000000,
1571161451,2019-10-15 17:44:11.767,47.651102N 0.578014E 189m,Off,6,2.3922365,1.4099313,Time OK,Free running,4600,8638,0,2019-10-15 17:39:06.000000000,
1571161511,2019-10-15 17:45:11.767,47.651102N 0.578014E 189m,Off,6,2.3922365,1.4099313,Time OK,Free running,5900,8638,0,2019-10-15 17:39:06.000000000,
1571161571,2019-10-15 17:46:11.767,47.651102N 0.578014E 189m,Off,6,2.3922365,1.4099313,Time OK,Free running,7400,8638,0,2019-10-15 17:39:06.000000000,
1571161631,2019-10-15 17:47:11.767,47.651102N 0.578014E 189m,Off,6,2.3922365,1.4099313,Time OK,Free running,9000,8638,0,2019-10-15 17:39:06.000000000,
1571161691,2019-10-15 17:48:11.767,47.651102N 0.578014E 189m,Off,6,2.3922365,1.4099313,Time OK,Free running,10100,8638,0,2019-10-15 17:39:06.000000000,
1571161751,2019-10-15 17:49:11.767,47.651102N 0.578014E 189m,Off,6,2.3922365,1.4099313,Time OK,Free running,11000,8638,0,2019-10-15 17:39:06.000000000,
1571161811,2019-10-15 17:50:11.767,47.651102N 0.578014E 189m,Off,6,2.3922365,1.4099313,Time OK,Free running,12400,8638,0,2019-10-15 17:39:06.000000000,
1571161871,2019-10-15 17:51:11.767,47.651102N 0.578014E 189m,Off,6,2.3922365,1.4099313,Time OK,Free running,13900,8638,0,2019-10-15 17:39:06.000000000,
1571161931,2019-10-15 17:52:11.778,47.651102N 0.578014E 189m,Off,6,2.3922365,1.4099313,Time OK,Free running,15500,8638,0,2019-10-15 17:39:06.000000000,
1571161991,2019-10-15 17:53:11.767,47.651102N 0.578014E 189m,Off,6,2.3922365,1.4099313,Time OK,Free running,17000,8638,0,2019-10-15 17:39:06.000000000,
1571162051,2019-10-15 17:54:11.767,47.651102N 0.578014E 189m,Off,6,2.3922365,1.4099313,Time OK,Free running,18400,8638,0,2019-10-15 17:39:06.000000000,
1571162111,2019-10-15 17:55:11.767,47.651102N 0.578014E 189m,Off,6,2.3922365,1.4099313,Time OK,Free running,19900,8638,0,2019-10-15 17:39:06.000000000,
1571162171,2019-10-15 17:56:11.767,47.651102N 0.578014E 189m,Off,6,2.3922365,1.4099313,Time OK,Free running,21700,8638,0,2019-10-15 17:39:06.000000000,
1571162231,2019-10-15 17:57:11.767,47.651102N 0.578014E 189m,Off,6,2.3922365,1.4099313,Time OK,Free running,23300,8638,0,2019-10-15 17:39:06.000000000,
1571162291,2019-10-15 17:58:11.767,47.651102N 0.578014E 189m,Off,6,2.3922365,1.4099313,Time OK,Free running,24800,8638,0,2019-10-15 17:39:06.000000000,
1571162351,2019-10-15 17:59:11.767,47.651102N 0.578014E 189m,Off,6,2.3922365,1.4099313,Time OK,Free running,26600,8638,0,2019-10-15 17:39:06.000000000,
