Time(longsecs),Time(UTC),Supply Voltage(mV),Temperature(&deg;C),NMX Bus Current(mA),Sensor Current(mA),Serial Port Current(mA),Controller Current(mA),Digitizer Current(mA),
1571166011,2019-10-15 19:00:11.767,16525,1.9747223E1,0,9,0,33,41,
1571166071,2019-10-15 19:01:11.767,16525,1.99711E1,0,9,0,33,40,
1571166131,2019-10-15 19:02:11.769,16525,1.9800781E1,0,9,0,37,40,
1571166191,2019-10-15 19:03:11.767,16525,1.9757935E1,0,11,0,33,38,
1571166251,2019-10-15 19:04:11.769,16525,1.9806152E1,0,1,0,38,39,
1571166311,2019-10-15 19:05:11.767,16525,1.9875763E1,0,9,0,33,42,
1571166371,2019-10-15 19:06:11.801,16525,1.967331E1,0,6,0,38,42,
1571166431,2019-10-15 19:07:11.767,16538,1.9469757E1,0,7,0,38,39,
1571166491,2019-10-15 19:08:11.767,16525,1.9784698E1,0,9,0,39,38,
1571166551,2019-10-15 19:09:11.767,16525,1.9586517E1,0,6,0,35,41,
1571166611,2019-10-15 19:10:11.767,16525,1.9724731E1,0,9,0,33,39,
1571166671,2019-10-15 19:11:11.769,16525,1.9572601E1,0,15,0,38,37,
1571166731,2019-10-15 19:12:11.767,16511,1.9414062E1,0,4,0,39,40,
1571166791,2019-10-15 19:13:11.767,16525,1.9772919E1,0,9,0,37,37,
1571166851,2019-10-15 19:14:11.767,16525,1.960794E1,0,18,0,33,38,
1571166911,2019-10-15 19:15:11.767,16525,1.955545E1,0,6,0,32,39,
1571166971,2019-10-15 19:16:11.767,16525,1.9376556E1,0,7,0,48,39,
1571167031,2019-10-15 19:17:11.767,16511,1.956726E1,0,11,0,45,39,
1571167091,2019-10-15 19:18:11.767,16511,1.9439758E1,0,9,0,36,35,
1571167151,2019-10-15 19:19:11.767,16498,1.9493317E1,0,8,0,39,36,
1571167211,2019-10-15 19:20:11.769,16525,1.963153E1,0,9,0,29,37,
1571167271,2019-10-15 19:21:11.767,16498,1.9490112E1,0,15,0,41,38,
1571167331,2019-10-15 19:22:11.767,16511,1.9454773E1,0,9,0,40,42,
1571167391,2019-10-15 19:23:11.770,16511,1.9371216E1,0,6,0,38,41,
1571167451,2019-10-15 19:24:11.767,16525,1.9344421E1,0,13,0,35,40,
1571167511,2019-10-15 19:25:11.798,16511,1.925766E1,0,9,0,36,39,
1571167571,2019-10-15 19:26:11.767,16511,1.918158E1,0,10,0,38,38,
1571167631,2019-10-15 19:27:11.767,16511,1.9215881E1,0,0,0,35,41,
1571167691,2019-10-15 19:28:11.767,16538,1.9360504E1,0,6,0,38,43,
1571167751,2019-10-15 19:29:11.767,16525,1.9085175E1,0,10,0,33,38,
1571167811,2019-10-15 19:30:11.767,16525,1.9316559E1,0,6,0,38,35,
1571167871,2019-10-15 19:31:11.767,16525,1.9343353E1,0,9,0,38,40,
1571167931,2019-10-15 19:32:11.767,16511,1.9165527E1,0,9,0,40,36,
1571167991,2019-10-15 19:33:11.767,16511,1.900055E1,0,6,0,40,41,
1571168051,2019-10-15 19:34:11.767,16511,1.91109E1,0,14,0,33,37,
1571168111,2019-10-15 19:35:11.767,16511,1.9165527E1,0,9,0,33,39,
1571168171,2019-10-15 19:36:11.767,16511,1.9144104E1,0,11,0,38,41,
1571168231,2019-10-15 19:37:11.778,16511,1.8860199E1,0,16,0,38,36,
1571168291,2019-10-15 19:38:11.767,16511,1.8959839E1,0,10,0,38,37,
1571168351,2019-10-15 19:39:11.767,16511,1.922229E1,0,9,0,33,44,
1571168411,2019-10-15 19:40:11.767,16511,1.9168732E1,0,5,0,33,40,
1571168471,2019-10-15 19:41:11.767,16511,1.8925568E1,0,9,0,38,38,
1571168531,2019-10-15 19:42:11.767,16511,1.9030548E1,0,9,0,38,39,
1571168591,2019-10-15 19:43:11.767,16511,1.9032684E1,0,9,0,40,35,
1571168651,2019-10-15 19:44:11.769,16511,1.8821655E1,0,8,0,36,38,
1571168711,2019-10-15 19:45:11.796,16511,1.8858063E1,0,9,0,33,38,
1571168771,2019-10-15 19:46:11.767,16511,1.8808807E1,0,11,0,38,38,
1571168831,2019-10-15 19:47:11.767,16511,1.888379E1,0,8,0,35,42,
1571168891,2019-10-15 19:48:11.767,16511,1.8898773E1,0,17,0,35,41,
1571168951,2019-10-15 19:49:11.767,16511,1.8809875E1,0,11,0,33,42,
1571169011,2019-10-15 19:50:11.768,16511,1.886557E1,0,10,0,40,39,
1571169071,2019-10-15 19:51:11.767,16498,1.8840942E1,0,8,0,41,42,
1571169131,2019-10-15 19:52:11.767,16498,1.8808807E1,0,9,0,42,41,
1571169191,2019-10-15 19:53:11.767,16483,1.8770233E1,0,8,0,36,38,
1571169251,2019-10-15 19:54:11.767,16511,1.87081E1,0,13,0,33,39,
1571169311,2019-10-15 19:55:11.767,16538,1.8698456E1,0,9,0,37,40,
1571169371,2019-10-15 19:56:11.767,16511,1.863739E1,0,5,0,36,36,
1571169431,2019-10-15 19:57:11.767,16525,1.8743439E1,0,4,0,38,40,
1571169491,2019-10-15 19:58:11.767,16525,1.8639526E1,0,9,0,38,41,
1571169551,2019-10-15 19:59:11.767,16470,1.8693085E1,0,12,0,35,41,
