Time(longsecs),Time(UTC),Supply Voltage(mV),Temperature(&deg;C),NMX Bus Current(mA),Sensor Current(mA),Serial Port Current(mA),Controller Current(mA),Digitizer Current(mA),
1572354018,2019-10-29 13:00:18.806,16605,1.9937317E1,0,4,0,57,36,
1572354078,2019-10-29 13:01:18.807,16619,1.9855225E1,0,7,0,55,34,
1572354138,2019-10-29 13:02:18.809,16605,1.9849823E1,0,2,0,53,38,
1572354198,2019-10-29 13:03:18.807,16605,1.9976196E1,0,6,0,56,35,
1572354258,2019-10-29 13:04:18.809,16674,1.9977295E1,0,6,0,56,37,
1572354318,2019-10-29 13:05:18.806,16605,1.9998901E1,0,2,0,57,35,
1572354378,2019-10-29 13:06:18.806,16659,1.9944885E1,0,7,0,57,36,
1572354438,2019-10-29 13:07:18.809,16605,2.0171722E1,0,10,0,57,36,
1572354498,2019-10-29 13:08:18.807,16605,1.9959991E1,0,7,0,56,37,
1572354558,2019-10-29 13:09:18.806,16741,1.9835785E1,0,7,0,57,34,
1572354618,2019-10-29 13:10:18.809,16592,1.9995667E1,0,6,95,63,36,
1572354678,2019-10-29 13:11:18.807,16482,2.0022644E1,0,9,0,65,35,
1572354738,2019-10-29 13:12:18.806,16592,1.9797974E1,0,5,0,57,38,
1572354798,2019-10-29 13:13:18.806,16714,1.9917877E1,0,6,0,49,39,
1572354858,2019-10-29 13:14:18.806,16605,1.974289E1,0,3,0,49,32,
1572354918,2019-10-29 13:15:18.806,16605,2.0129608E1,0,7,0,57,36,
1572354978,2019-10-29 13:16:18.806,16605,2.0009705E1,0,7,0,57,39,
1572355038,2019-10-29 13:17:18.811,16605,2.0123108E1,0,9,0,55,40,
1572355098,2019-10-29 13:18:18.806,16605,2.0158752E1,0,9,0,50,36,
1572355158,2019-10-29 13:19:18.806,16605,1.9994568E1,0,6,0,49,39,
1572355218,2019-10-29 13:20:18.806,16592,2.0152283E1,0,12,13,55,36,
1572355278,2019-10-29 13:21:18.806,16592,2.0049652E1,0,8,0,57,34,
1572355338,2019-10-29 13:22:18.806,16646,1.9830383E1,0,4,0,57,35,
1572355398,2019-10-29 13:23:18.806,16592,2.0108002E1,0,4,0,49,36,
1572355458,2019-10-29 13:24:18.806,16592,1.9964325E1,0,9,10,50,36,
1572355518,2019-10-29 13:25:18.809,16592,2.008316E1,0,12,0,58,35,
1572355578,2019-10-29 13:26:18.806,16577,1.9760162E1,0,9,0,57,38,
1572355638,2019-10-29 13:27:18.806,16537,2.0039948E1,0,3,0,57,37,
1572355698,2019-10-29 13:28:18.806,16482,2.0047516E1,0,7,0,49,36,
1572355758,2019-10-29 13:29:18.806,16577,1.9985931E1,0,8,0,51,34,
1572355818,2019-10-29 13:30:18.845,16564,1.9949188E1,0,8,0,58,35,
1572355878,2019-10-29 13:31:18.806,16524,2.00961E1,0,11,17,57,34,
1572355938,2019-10-29 13:32:18.807,16537,2.0010773E1,0,4,0,55,34,
1572355998,2019-10-29 13:33:18.806,16564,1.9987E1,0,7,0,47,36,
1572356058,2019-10-29 13:34:18.806,16455,1.9907074E1,0,12,0,52,36,
1572356118,2019-10-29 13:35:18.806,16564,2.0150116E1,0,8,0,57,34,
1572356178,2019-10-29 13:36:18.806,16564,2.0051819E1,0,3,0,56,36,
1572356238,2019-10-29 13:37:18.806,16577,2.0042114E1,0,8,0,56,38,
1572356298,2019-10-29 13:38:18.806,16577,1.9976196E1,0,8,0,49,35,
1572356358,2019-10-29 13:39:18.809,16592,2.0119873E1,0,11,0,54,37,
1572356418,2019-10-29 13:40:18.806,16592,1.9925446E1,0,6,0,58,38,
1572356478,2019-10-29 13:41:18.806,16592,2.0138245E1,0,7,0,57,39,
1572356538,2019-10-29 13:42:18.806,16592,2.0219269E1,0,6,0,57,35,
1572356598,2019-10-29 13:43:18.806,16592,2.0177124E1,0,7,0,57,35,
1572356658,2019-10-29 13:44:18.806,16592,2.01026E1,0,9,0,49,37,
1572356718,2019-10-29 13:45:18.806,16577,2.0110168E1,0,7,0,59,40,
1572356778,2019-10-29 13:46:18.806,16592,1.9996735E1,0,11,0,56,35,
1572356838,2019-10-29 13:47:18.830,16577,2.0293793E1,0,7,0,57,37,
1572356898,2019-10-29 13:48:18.806,16577,2.0127441E1,0,9,0,49,36,
1572356958,2019-10-29 13:49:18.809,16577,1.9977295E1,0,9,0,49,35,
1572357018,2019-10-29 13:50:18.807,16564,2.0014008E1,0,9,0,57,38,
1572357078,2019-10-29 13:51:18.806,16564,2.0098267E1,0,5,0,57,38,
1572357138,2019-10-29 13:52:18.806,16564,2.0130676E1,0,7,0,53,39,
1572357198,2019-10-29 13:53:18.806,16577,1.9991333E1,0,11,0,49,35,
1572357258,2019-10-29 13:54:18.839,16564,2.0003204E1,0,7,0,52,38,
1572357318,2019-10-29 13:55:18.807,16564,2.018576E1,0,7,0,56,36,
1572357378,2019-10-29 13:56:18.806,16564,2.0093964E1,0,9,0,57,35,
1572357438,2019-10-29 13:57:18.847,16564,2.0159851E1,0,6,0,57,35,
1572357498,2019-10-29 13:58:18.807,16564,1.9910309E1,0,10,0,56,37,
1572357558,2019-10-29 13:59:18.806,16577,1.9996735E1,11,8,0,49,36,
