Time(longsecs),Time(UTC),Earth Location,GPS Receiver Status,GPS Satellites Used,GPS PDOP,GPS TDOP,Timing Status,Timing Phase Lock,Timing Uncertainty(ns),DAC Count,Timing Error(ns),GPS Last Update Time,
1572332418,2019-10-29 07:00:18.806,47.636206N 0.583857E 198m,Off,5,2.856037,1.5635177,Time OK,Free running,46900,9121,0,2019-10-29 06:11:55.000000000,
1572332478,2019-10-29 07:01:18.807,47.636206N 0.583857E 198m,Off,5,2.856037,1.5635177,Time OK,Free running,47800,9121,0,2019-10-29 06:11:55.000000000,
1572332538,2019-10-29 07:02:18.806,47.636206N 0.583857E 198m,Off,5,2.856037,1.5635177,Time OK,Free running,48600,9121,0,2019-10-29 06:11:55.000000000,
1572332598,2019-10-29 07:03:18.806,47.636206N 0.583857E 198m,Off,5,2.856037,1.5635177,Time OK,Free running,49500,9121,0,2019-10-29 06:11:55.000000000,
1572332658,2019-10-29 07:04:18.806,47.636206N 0.583857E 198m,Off,5,2.856037,1.5635177,Time OK,Free running,50400,9121,0,2019-10-29 06:11:55.000000000,
1572332718,2019-10-29 07:05:18.807,47.636206N 0.583857E 198m,Doing fixes,5,3.9341786,2.6286714,Time OK,Coarse lock,100,8894,4062,2019-10-29 07:05:15.000000000,
1572332778,2019-10-29 07:06:18.807,47.636206N 0.583857E 198m,Doing fixes,6,2.868104,1.6721302,Time OK,Fine lock,100,9119,0,2019-10-29 07:06:15.000000000,
1572332838,2019-10-29 07:07:18.806,47.636206N 0.583857E 198m,Off,6,2.8501463,1.8334641,Time OK,Free running,100,9117,0,2019-10-29 07:07:15.000000000,
1572332898,2019-10-29 07:08:18.806,47.636206N 0.583857E 198m,Off,6,2.8501463,1.8334641,Time OK,Free running,1300,9117,0,2019-10-29 07:07:15.000000000,
1572332958,2019-10-29 07:09:18.806,47.636206N 0.583857E 198m,Off,6,2.8501463,1.8334641,Time OK,Free running,2600,9117,0,2019-10-29 07:07:15.000000000,
1572333018,2019-10-29 07:10:18.807,47.636206N 0.583857E 198m,Off,6,2.8501463,1.8334641,Time OK,Free running,3700,9117,0,2019-10-29 07:07:15.000000000,
1572333078,2019-10-29 07:11:18.806,47.636206N 0.583857E 198m,Off,6,2.8501463,1.8334641,Time OK,Free running,5000,9117,0,2019-10-29 07:07:15.000000000,
1572333138,2019-10-29 07:12:18.806,47.636206N 0.583857E 198m,Off,6,2.8501463,1.8334641,Time OK,Free running,6500,9117,0,2019-10-29 07:07:15.000000000,
1572333198,2019-10-29 07:13:18.846,47.636206N 0.583857E 198m,Off,6,2.8501463,1.8334641,Time OK,Free running,7700,9117,0,2019-10-29 07:07:15.000000000,
1572333258,2019-10-29 07:14:18.806,47.636206N 0.583857E 198m,Off,6,2.8501463,1.8334641,Time OK,Free running,8900,9117,0,2019-10-29 07:07:15.000000000,
1572333318,2019-10-29 07:15:18.806,47.636206N 0.583857E 198m,Off,6,2.8501463,1.8334641,Time OK,Free running,10500,9117,0,2019-10-29 07:07:15.000000000,
1572333378,2019-10-29 07:16:18.806,47.636206N 0.583857E 198m,Off,6,2.8501463,1.8334641,Time OK,Free running,11800,9117,0,2019-10-29 07:07:15.000000000,
1572333438,2019-10-29 07:17:18.806,47.636206N 0.583857E 198m,Off,6,2.8501463,1.8334641,Time OK,Free running,12900,9117,0,2019-10-29 07:07:15.000000000,
1572333498,2019-10-29 07:18:18.806,47.636206N 0.583857E 198m,Off,6,2.8501463,1.8334641,Time OK,Free running,14100,9117,0,2019-10-29 07:07:15.000000000,
1572333558,2019-10-29 07:19:18.806,47.636206N 0.583857E 198m,Off,6,2.8501463,1.8334641,Time OK,Free running,15400,9117,0,2019-10-29 07:07:15.000000000,
1572333618,2019-10-29 07:20:18.806,47.636206N 0.583857E 198m,Off,6,2.8501463,1.8334641,Time OK,Free running,16700,9117,0,2019-10-29 07:07:15.000000000,
1572333678,2019-10-29 07:21:18.807,47.636206N 0.583857E 198m,Off,6,2.8501463,1.8334641,Time OK,Free running,18000,9117,0,2019-10-29 07:07:15.000000000,
1572333738,2019-10-29 07:22:18.806,47.636206N 0.583857E 198m,Off,6,2.8501463,1.8334641,Time OK,Free running,19400,9117,0,2019-10-29 07:07:15.000000000,
1572333798,2019-10-29 07:23:18.806,47.636206N 0.583857E 198m,Off,6,2.8501463,1.8334641,Time OK,Free running,20700,9117,0,2019-10-29 07:07:15.000000000,
1572333858,2019-10-29 07:24:18.806,47.636206N 0.583857E 198m,Off,6,2.8501463,1.8334641,Time OK,Free running,21900,9117,0,2019-10-29 07:07:15.000000000,
1572333918,2019-10-29 07:25:18.806,47.636206N 0.583857E 198m,Off,6,2.8501463,1.8334641,Time OK,Free running,23400,9117,0,2019-10-29 07:07:15.000000000,
1572333978,2019-10-29 07:26:18.836,47.636206N 0.583857E 198m,Off,6,2.8501463,1.8334641,Time OK,Free running,24900,9117,0,2019-10-29 07:07:15.000000000,
1572334038,2019-10-29 07:27:18.806,47.636206N 0.583857E 198m,Off,6,2.8501463,1.8334641,Time OK,Free running,26200,9117,0,2019-10-29 07:07:15.000000000,
1572334098,2019-10-29 07:28:18.820,47.636206N 0.583857E 198m,Off,6,2.8501463,1.8334641,Time OK,Free running,27500,9117,0,2019-10-29 07:07:15.000000000,
1572334158,2019-10-29 07:29:18.806,47.636206N 0.583857E 198m,Off,6,2.8501463,1.8334641,Time OK,Free running,28900,9117,0,2019-10-29 07:07:15.000000000,
1572334218,2019-10-29 07:30:18.806,47.636206N 0.583857E 198m,Off,6,2.8501463,1.8334641,Time OK,Free running,30200,9117,0,2019-10-29 07:07:15.000000000,
1572334278,2019-10-29 07:31:18.807,47.636206N 0.583857E 198m,Off,6,2.8501463,1.8334641,Time OK,Free running,31400,9117,0,2019-10-29 07:07:15.000000000,
1572334338,2019-10-29 07:32:18.806,47.636206N 0.583857E 198m,Off,6,2.8501463,1.8334641,Time OK,Free running,32500,9117,0,2019-10-29 07:07:15.000000000,
1572334398,2019-10-29 07:33:18.806,47.636206N 0.583857E 198m,Off,6,2.8501463,1.8334641,Time OK,Free running,33700,9117,0,2019-10-29 07:07:15.000000000,
1572334458,2019-10-29 07:34:18.806,47.636206N 0.583857E 198m,Off,6,2.8501463,1.8334641,Time OK,Free running,35000,9117,0,2019-10-29 07:07:15.000000000,
1572334518,2019-10-29 07:35:18.806,47.636206N 0.583857E 198m,Off,6,2.8501463,1.8334641,Time OK,Free running,36200,9117,0,2019-10-29 07:07:15.000000000,
1572334578,2019-10-29 07:36:18.806,47.636206N 0.583857E 198m,Off,6,2.8501463,1.8334641,Time OK,Free running,37500,9117,0,2019-10-29 07:07:15.000000000,
1572334638,2019-10-29 07:37:18.806,47.636206N 0.583857E 198m,Off,6,2.8501463,1.8334641,Time OK,Free running,38500,9117,0,2019-10-29 07:07:15.000000000,
1572334698,2019-10-29 07:38:18.806,47.636206N 0.583857E 198m,Off,6,2.8501463,1.8334641,Time OK,Free running,39500,9117,0,2019-10-29 07:07:15.000000000,
1572334758,2019-10-29 07:39:18.809,47.636206N 0.583857E 198m,Off,6,2.8501463,1.8334641,Time OK,Free running,40600,9117,0,2019-10-29 07:07:15.000000000,
1572334818,2019-10-29 07:40:18.809,47.636206N 0.583857E 198m,Off,6,2.8501463,1.8334641,Time OK,Free running,41500,9117,0,2019-10-29 07:07:15.000000000,
1572334878,2019-10-29 07:41:18.806,47.636206N 0.583857E 198m,Off,6,2.8501463,1.8334641,Time OK,Free running,42500,9117,0,2019-10-29 07:07:15.000000000,
1572334938,2019-10-29 07:42:18.806,47.636206N 0.583857E 198m,Off,6,2.8501463,1.8334641,Time OK,Free running,43300,9117,0,2019-10-29 07:07:15.000000000,
1572334998,2019-10-29 07:43:18.806,47.636206N 0.583857E 198m,Off,6,2.8501463,1.8334641,Time OK,Free running,44500,9117,0,2019-10-29 07:07:15.000000000,
1572335058,2019-10-29 07:44:18.806,47.636206N 0.583857E 198m,Off,6,2.8501463,1.8334641,Time OK,Free running,45500,9117,0,2019-10-29 07:07:15.000000000,
1572335118,2019-10-29 07:45:18.806,47.636206N 0.583857E 198m,Off,6,2.8501463,1.8334641,Time OK,Free running,46500,9117,0,2019-10-29 07:07:15.000000000,
1572335178,2019-10-29 07:46:18.818,47.636206N 0.583857E 198m,Off,6,2.8501463,1.8334641,Time OK,Free running,47500,9117,0,2019-10-29 07:07:15.000000000,
1572335238,2019-10-29 07:47:18.806,47.636206N 0.583857E 198m,Off,6,2.8501463,1.8334641,Time OK,Free running,48400,9117,0,2019-10-29 07:07:15.000000000,
1572335298,2019-10-29 07:48:18.816,47.636206N 0.583857E 198m,Off,6,2.8501463,1.8334641,Time OK,Free running,49700,9117,0,2019-10-29 07:07:15.000000000,
1572335358,2019-10-29 07:49:18.806,47.636206N 0.583857E 198m,Off,6,2.8501463,1.8334641,Time OK,Free running,51200,9117,0,2019-10-29 07:07:15.000000000,
1572335418,2019-10-29 07:50:18.807,47.636206N 0.583857E 198m,No GPS time,6,2.8501463,1.8334641,Time OK,Free running,52200,9117,0,2019-10-29 07:07:15.000000000,
1572335478,2019-10-29 07:51:18.807,47.636206N 0.583857E 198m,Doing fixes,7,3.172584,2.186659,Time OK,Fine lock,100,9107,0,2019-10-29 07:51:15.000000000,
1572335538,2019-10-29 07:52:18.806,47.636206N 0.583857E 198m,Off,8,2.1144006,1.2306776,Time OK,Free running,800,9109,0,2019-10-29 07:51:25.000000000,
1572335598,2019-10-29 07:53:18.806,47.636206N 0.583857E 198m,Off,8,2.1144006,1.2306776,Time OK,Free running,1700,9109,0,2019-10-29 07:51:25.000000000,
1572335658,2019-10-29 07:54:18.806,47.636206N 0.583857E 198m,Off,8,2.1144006,1.2306776,Time OK,Free running,2800,9109,0,2019-10-29 07:51:25.000000000,
1572335718,2019-10-29 07:55:18.806,47.636206N 0.583857E 198m,Off,8,2.1144006,1.2306776,Time OK,Free running,3700,9109,0,2019-10-29 07:51:25.000000000,
1572335778,2019-10-29 07:56:18.806,47.636206N 0.583857E 198m,Off,8,2.1144006,1.2306776,Time OK,Free running,4600,9109,0,2019-10-29 07:51:25.000000000,
1572335838,2019-10-29 07:57:18.807,47.636206N 0.583857E 198m,Off,8,2.1144006,1.2306776,Time OK,Free running,5400,9109,0,2019-10-29 07:51:25.000000000,
1572335898,2019-10-29 07:58:18.806,47.636206N 0.583857E 198m,Off,8,2.1144006,1.2306776,Time OK,Free running,6500,9109,0,2019-10-29 07:51:25.000000000,
1572335958,2019-10-29 07:59:18.806,47.636206N 0.583857E 198m,Off,8,2.1144006,1.2306776,Time OK,Free running,7600,9109,0,2019-10-29 07:51:25.000000000,
