Time(longsecs),Time(UTC),Earth Location,GPS Receiver Status,GPS Satellites Used,GPS PDOP,GPS TDOP,Timing Status,Timing Phase Lock,Timing Uncertainty(ns),DAC Count,Timing Error(ns),GPS Last Update Time,
1572346818,2019-10-29 11:00:18.809,47.636226N 0.583805E 206m,Off,8,3.6041756,2.5717604,Time OK,Free running,22900,9163,0,2019-10-29 10:46:05.000000000,
1572346878,2019-10-29 11:01:18.807,47.636226N 0.583805E 206m,Off,8,3.6041756,2.5717604,Time OK,Free running,25200,9163,0,2019-10-29 10:46:05.000000000,
1572346938,2019-10-29 11:02:18.806,47.636226N 0.583805E 206m,Off,8,3.6041756,2.5717604,Time OK,Free running,27700,9163,0,2019-10-29 10:46:05.000000000,
1572346998,2019-10-29 11:03:18.806,47.636226N 0.583805E 206m,Off,8,3.6041756,2.5717604,Time OK,Free running,30200,9163,0,2019-10-29 10:46:05.000000000,
1572347058,2019-10-29 11:04:18.807,47.636226N 0.583805E 206m,Off,8,3.6041756,2.5717604,Time OK,Free running,32500,9163,0,2019-10-29 10:46:05.000000000,
1572347118,2019-10-29 11:05:18.806,47.636226N 0.583805E 206m,Off,8,3.6041756,2.5717604,Time OK,Free running,35000,9163,0,2019-10-29 10:46:05.000000000,
1572347178,2019-10-29 11:06:18.806,47.636226N 0.583805E 206m,Off,8,3.6041756,2.5717604,Time OK,Free running,37900,9163,0,2019-10-29 10:46:05.000000000,
1572347238,2019-10-29 11:07:18.807,47.636226N 0.583805E 206m,Off,8,3.6041756,2.5717604,Time OK,Free running,40800,9163,0,2019-10-29 10:46:05.000000000,
1572347298,2019-10-29 11:08:18.806,47.636226N 0.583805E 206m,Off,8,3.6041756,2.5717604,Time OK,Free running,43900,9163,0,2019-10-29 10:46:05.000000000,
1572347358,2019-10-29 11:09:18.806,47.636226N 0.583805E 206m,Off,8,3.6041756,2.5717604,Time OK,Free running,47100,9163,0,2019-10-29 10:46:05.000000000,
1572347418,2019-10-29 11:10:18.851,47.636226N 0.583805E 206m,Off,8,3.6041756,2.5717604,Time OK,Free running,50100,9163,0,2019-10-29 10:46:05.000000000,
1572347478,2019-10-29 11:11:18.807,47.636226N 0.583805E 206m,No GPS time,0,0.0,0.0,Time OK,Free running,53300,9163,0,2019-10-29 11:11:15.000000000,
1572347538,2019-10-29 11:12:18.807,47.636226N 0.583805E 206m,Doing fixes,8,2.1527374,1.1805134,Time OK,Coarse lock,100,9148,0,2019-10-29 11:12:15.000000000,
1572347598,2019-10-29 11:13:18.807,47.636226N 0.583805E 206m,Doing fixes,8,2.0547822,1.2057012,Time OK,Fine lock,100,9109,0,2019-10-29 11:13:15.000000000,
1572347658,2019-10-29 11:14:18.806,47.636226N 0.583805E 206m,Off,8,2.0534532,1.2045633,Time OK,Free running,800,9109,0,2019-10-29 11:13:25.000000000,
1572347718,2019-10-29 11:15:18.806,47.636226N 0.583805E 206m,Off,8,2.0534532,1.2045633,Time OK,Free running,1600,9109,0,2019-10-29 11:13:25.000000000,
1572347778,2019-10-29 11:16:18.806,47.636226N 0.583805E 206m,Off,8,2.0534532,1.2045633,Time OK,Free running,2700,9109,0,2019-10-29 11:13:25.000000000,
1572347838,2019-10-29 11:17:18.807,47.636226N 0.583805E 206m,Off,8,2.0534532,1.2045633,Time OK,Free running,4200,9109,0,2019-10-29 11:13:25.000000000,
1572347898,2019-10-29 11:18:18.807,47.636226N 0.583805E 206m,Off,8,2.0534532,1.2045633,Time OK,Free running,5500,9109,0,2019-10-29 11:13:25.000000000,
1572347958,2019-10-29 11:19:18.806,47.636226N 0.583805E 206m,Off,8,2.0534532,1.2045633,Time OK,Free running,6900,9109,0,2019-10-29 11:13:25.000000000,
1572348018,2019-10-29 11:20:18.806,47.636226N 0.583805E 206m,Off,8,2.0534532,1.2045633,Time OK,Free running,8500,9109,0,2019-10-29 11:13:25.000000000,
1572348078,2019-10-29 11:21:18.806,47.636226N 0.583805E 206m,Off,8,2.0534532,1.2045633,Time OK,Free running,10000,9109,0,2019-10-29 11:13:25.000000000,
1572348138,2019-10-29 11:22:18.807,47.636226N 0.583805E 206m,Off,8,2.0534532,1.2045633,Time OK,Free running,11800,9109,0,2019-10-29 11:13:25.000000000,
1572348198,2019-10-29 11:23:18.806,47.636226N 0.583805E 206m,Off,8,2.0534532,1.2045633,Time OK,Free running,13900,9109,0,2019-10-29 11:13:25.000000000,
1572348258,2019-10-29 11:24:18.806,47.636226N 0.583805E 206m,Off,8,2.0534532,1.2045633,Time OK,Free running,15900,9109,0,2019-10-29 11:13:25.000000000,
1572348318,2019-10-29 11:25:18.839,47.636226N 0.583805E 206m,Off,8,2.0534532,1.2045633,Time OK,Free running,17700,9109,0,2019-10-29 11:13:25.000000000,
1572348378,2019-10-29 11:26:18.806,47.636226N 0.583805E 206m,Off,8,2.0534532,1.2045633,Time OK,Free running,19600,9109,0,2019-10-29 11:13:25.000000000,
1572348438,2019-10-29 11:27:18.817,47.636226N 0.583805E 206m,Off,8,2.0534532,1.2045633,Time OK,Free running,21400,9109,0,2019-10-29 11:13:25.000000000,
1572348498,2019-10-29 11:28:18.806,47.636226N 0.583805E 206m,Off,8,2.0534532,1.2045633,Time OK,Free running,23300,9109,0,2019-10-29 11:13:25.000000000,
1572348558,2019-10-29 11:29:18.806,47.636226N 0.583805E 206m,Off,8,2.0534532,1.2045633,Time OK,Free running,25600,9109,0,2019-10-29 11:13:25.000000000,
1572348618,2019-10-29 11:30:18.806,47.636226N 0.583805E 206m,Off,8,2.0534532,1.2045633,Time OK,Free running,28000,9109,0,2019-10-29 11:13:25.000000000,
1572348678,2019-10-29 11:31:18.807,47.636226N 0.583805E 206m,Off,8,2.0534532,1.2045633,Time OK,Free running,30700,9109,0,2019-10-29 11:13:25.000000000,
1572348738,2019-10-29 11:32:18.806,47.636226N 0.583805E 206m,Off,8,2.0534532,1.2045633,Time OK,Free running,33200,9109,0,2019-10-29 11:13:25.000000000,
1572348798,2019-10-29 11:33:18.809,47.636226N 0.583805E 206m,Off,8,2.0534532,1.2045633,Time OK,Free running,35500,9109,0,2019-10-29 11:13:25.000000000,
1572348858,2019-10-29 11:34:18.806,47.636226N 0.583805E 206m,Off,8,2.0534532,1.2045633,Time OK,Free running,38100,9109,0,2019-10-29 11:13:25.000000000,
1572348918,2019-10-29 11:35:18.806,47.636226N 0.583805E 206m,Off,8,2.0534532,1.2045633,Time OK,Free running,40800,9109,0,2019-10-29 11:13:25.000000000,
1572348978,2019-10-29 11:36:18.807,47.636226N 0.583805E 206m,Off,8,2.0534532,1.2045633,Time OK,Free running,43500,9109,0,2019-10-29 11:13:25.000000000,
1572349038,2019-10-29 11:37:18.806,47.636226N 0.583805E 206m,Off,8,2.0534532,1.2045633,Time OK,Free running,46400,9109,0,2019-10-29 11:13:25.000000000,
1572349098,2019-10-29 11:38:18.806,47.636226N 0.583805E 206m,Off,8,2.0534532,1.2045633,Time OK,Free running,49200,9109,0,2019-10-29 11:13:25.000000000,
1572349158,2019-10-29 11:39:18.806,47.636226N 0.583805E 206m,Off,8,2.0534532,1.2045633,Time OK,Free running,52000,9109,0,2019-10-29 11:13:25.000000000,
1572349218,2019-10-29 11:40:18.807,47.636226N 0.583805E 206m,Doing fixes,7,2.659657,1.7228341,Time OK,Coarse lock,100,8798,2500,2019-10-29 11:40:16.000000000,
1572349278,2019-10-29 11:41:18.807,47.636226N 0.583805E 206m,Off,8,2.5956247,1.6793283,Time OK,Free running,600,9106,0,2019-10-29 11:40:36.000000000,
1572349338,2019-10-29 11:42:18.807,47.636226N 0.583805E 206m,Off,8,2.5956247,1.6793283,Time OK,Free running,1500,9106,0,2019-10-29 11:40:36.000000000,
1572349398,2019-10-29 11:43:18.807,47.636226N 0.583805E 206m,Off,8,2.5956247,1.6793283,Time OK,Free running,2600,9106,0,2019-10-29 11:40:36.000000000,
1572349458,2019-10-29 11:44:18.806,47.636226N 0.583805E 206m,Off,8,2.5956247,1.6793283,Time OK,Free running,3600,9106,0,2019-10-29 11:40:36.000000000,
1572349518,2019-10-29 11:45:18.806,47.636226N 0.583805E 206m,Off,8,2.5956247,1.6793283,Time OK,Free running,4500,9106,0,2019-10-29 11:40:36.000000000,
1572349578,2019-10-29 11:46:18.806,47.636226N 0.583805E 206m,Off,8,2.5956247,1.6793283,Time OK,Free running,5500,9106,0,2019-10-29 11:40:36.000000000,
1572349638,2019-10-29 11:47:18.806,47.636226N 0.583805E 206m,Off,8,2.5956247,1.6793283,Time OK,Free running,6500,9106,0,2019-10-29 11:40:36.000000000,
1572349698,2019-10-29 11:48:18.809,47.636226N 0.583805E 206m,Off,8,2.5956247,1.6793283,Time OK,Free running,7500,9106,0,2019-10-29 11:40:36.000000000,
1572349758,2019-10-29 11:49:18.806,47.636226N 0.583805E 206m,Off,8,2.5956247,1.6793283,Time OK,Free running,8400,9106,0,2019-10-29 11:40:36.000000000,
1572349818,2019-10-29 11:50:18.807,47.636226N 0.583805E 206m,Off,8,2.5956247,1.6793283,Time OK,Free running,9300,9106,0,2019-10-29 11:40:36.000000000,
1572349878,2019-10-29 11:51:18.839,47.636226N 0.583805E 206m,Off,8,2.5956247,1.6793283,Time OK,Free running,10200,9106,0,2019-10-29 11:40:36.000000000,
1572349938,2019-10-29 11:52:18.806,47.636226N 0.583805E 206m,Off,8,2.5956247,1.6793283,Time OK,Free running,11700,9106,0,2019-10-29 11:40:36.000000000,
1572349998,2019-10-29 11:53:18.806,47.636226N 0.583805E 206m,Off,8,2.5956247,1.6793283,Time OK,Free running,13000,9106,0,2019-10-29 11:40:36.000000000,
1572350058,2019-10-29 11:54:18.809,47.636226N 0.583805E 206m,Off,8,2.5956247,1.6793283,Time OK,Free running,14100,9106,0,2019-10-29 11:40:36.000000000,
1572350118,2019-10-29 11:55:18.806,47.636226N 0.583805E 206m,Off,8,2.5956247,1.6793283,Time OK,Free running,15500,9106,0,2019-10-29 11:40:36.000000000,
1572350178,2019-10-29 11:56:18.807,47.636226N 0.583805E 206m,Off,8,2.5956247,1.6793283,Time OK,Free running,16800,9106,0,2019-10-29 11:40:36.000000000,
1572350238,2019-10-29 11:57:18.806,47.636226N 0.583805E 206m,Off,8,2.5956247,1.6793283,Time OK,Free running,18100,9106,0,2019-10-29 11:40:36.000000000,
1572350298,2019-10-29 11:58:18.821,47.636226N 0.583805E 206m,Off,8,2.5956247,1.6793283,Time OK,Free running,19600,9106,0,2019-10-29 11:40:36.000000000,
1572350358,2019-10-29 11:59:18.806,47.636226N 0.583805E 206m,Off,8,2.5956247,1.6793283,Time OK,Free running,21000,9106,0,2019-10-29 11:40:36.000000000,
