Time(longsecs),Time(UTC),External SOH Voltage 1(V),External SOH Voltage 2(V),External SOH Voltage 3(V),External SOH Voltage 4(V),Sensor SOH Voltage 1(V),Sensor SOH Voltage 2(V),Sensor SOH Voltage 3(V),
1572170430,2019-10-27 10:00:30.926,-2.3207664E-3,-1.4231205E-3,6.6206455E-3,2.9492378E-4,4.7170734E-1,4.7185135E-1,4.685011E-1,
1572170490,2019-10-27 10:01:30.926,-2.3453236E-3,-1.3444424E-3,6.9465637E-3,2.5129318E-4,4.662552E-1,4.6321392E-1,4.609871E-1,
1572170550,2019-10-27 10:02:30.926,-4.846573E-3,-3.981352E-3,4.6157837E-3,-1.9526482E-3,4.626341E-1,4.612522E-1,4.5942974E-1,
1572170610,2019-10-27 10:03:30.927,-4.0647984E-3,-3.189087E-3,5.0354004E-3,-1.4588833E-3,4.716797E-1,4.706335E-1,4.680395E-1,
1572170670,2019-10-27 10:04:30.926,-6.6916943E-3,-6.0141087E-3,2.5146008E-3,-4.077196E-3,4.5888424E-1,4.5808983E-1,4.5522404E-1,
1572170730,2019-10-27 10:05:30.926,-4.1298866E-3,-3.2019615E-3,4.684925E-3,-1.127243E-3,4.6381664E-1,4.6285248E-1,4.6038437E-1,
1572170790,2019-10-27 10:06:30.926,-6.7880154E-3,-5.841255E-3,2.1362305E-3,-3.919363E-3,4.5767975E-1,4.5604897E-1,4.5398903E-1,
1572170850,2019-10-27 10:07:30.926,-6.6993237E-3,-5.9421062E-3,2.8984547E-3,-4.02689E-3,4.5724487E-1,4.5579433E-1,4.5286465E-1,
1572170910,2019-10-27 10:08:30.927,-6.588936E-3,-5.333185E-3,2.398014E-3,-3.7827492E-3,4.5836735E-1,4.5672894E-1,4.5467472E-1,
1572170970,2019-10-27 10:09:30.926,-4.082203E-3,-3.4754276E-3,5.279541E-3,-1.5833378E-3,4.658718E-1,4.650383E-1,4.6456242E-1,
1572171030,2019-10-27 10:10:30.926,-4.704714E-3,-3.4656525E-3,4.7984123E-3,-1.440525E-3,4.661646E-1,4.6518135E-1,4.6340656E-1,
1572171090,2019-10-27 10:11:30.966,-2.2730827E-3,-1.5249252E-3,6.4225197E-3,2.5248528E-4,4.684906E-1,4.688673E-1,4.667263E-1,
1572171150,2019-10-27 10:12:30.926,-6.7596436E-3,-5.790472E-3,2.5520325E-3,-4.1787624E-3,4.531803E-1,4.521389E-1,4.499426E-1,
1572171210,2019-10-27 10:13:30.926,-6.8347454E-3,-5.807638E-3,2.4504662E-3,-4.045725E-3,4.5781994E-1,4.5831966E-1,4.573307E-1,
1572171270,2019-10-27 10:14:30.926,-2.22373E-3,-1.3177395E-3,7.0602894E-3,6.067753E-4,4.7765827E-1,4.7501564E-1,4.7396088E-1,
1572171330,2019-10-27 10:15:30.964,-6.9549084E-3,-5.7013035E-3,2.7046204E-3,-3.9384365E-3,4.5766544E-1,4.564972E-1,4.536476E-1,
1572171390,2019-10-27 10:16:30.926,-2.3686886E-3,-1.3759136E-3,6.277323E-3,3.926754E-4,4.7224426E-1,4.7094727E-1,4.7032833E-1,
1572171450,2019-10-27 10:17:30.926,-2.269268E-3,-1.3697147E-3,7.2345734E-3,6.392002E-4,4.7174072E-1,4.7208977E-1,4.6947765E-1,
1572171510,2019-10-27 10:18:30.926,-4.893303E-3,-3.6530495E-3,4.350424E-3,-2.1498203E-3,4.6253204E-1,4.6261692E-1,4.601097E-1,
1572171570,2019-10-27 10:19:30.926,-4.1902065E-3,-2.9041767E-3,5.143881E-3,-9.4389915E-4,4.660473E-1,4.660864E-1,4.6422958E-1,
1572171630,2019-10-27 10:20:30.926,-4.011154E-3,-3.0097961E-3,4.7302246E-3,-1.6195774E-3,4.6325302E-1,4.627962E-1,4.6067142E-1,
1572171690,2019-10-27 10:21:30.926,-2.6168823E-3,-1.1992455E-3,6.841421E-3,1.5735626E-4,4.6969032E-1,4.6825123E-1,4.651928E-1,
1572171750,2019-10-27 10:22:30.926,-3.887415E-3,-3.2007694E-3,4.988432E-3,-1.4452934E-3,4.662838E-1,4.6565247E-1,4.6305466E-1,
1572171810,2019-10-27 10:23:30.926,-6.3881874E-3,-5.5890083E-3,2.5455952E-3,-4.217863E-3,4.5427418E-1,4.5362568E-1,4.5177937E-1,
1572171870,2019-10-27 10:24:30.926,-4.4431686E-3,-3.998518E-3,4.5194626E-3,-1.7530918E-3,4.660101E-1,4.63459E-1,4.6056843E-1,
1572171930,2019-10-27 10:25:30.926,-2.5072098E-3,-1.8594265E-3,6.7276955E-3,1.7166138E-5,4.7609997E-1,4.72682E-1,4.7219276E-1,
1572171990,2019-10-27 10:26:30.926,-4.999399E-3,-3.881693E-3,4.6412945E-3,-1.7719269E-3,4.6798134E-1,4.675846E-1,4.649973E-1,
1572172050,2019-10-27 10:27:30.926,-2.0706654E-3,-1.5676022E-3,7.1451664E-3,3.798008E-4,4.701109E-1,4.6754837E-1,4.651518E-1,
1572172110,2019-10-27 10:28:30.926,-6.5128803E-3,-5.291939E-3,2.83432E-3,-3.9134026E-3,4.5987606E-1,4.5779133E-1,4.573908E-1,
1572172170,2019-10-27 10:29:30.926,-4.4107437E-3,-3.525257E-3,4.793167E-3,-1.3103485E-3,4.6549416E-1,4.6390724E-1,4.634695E-1,
1572172230,2019-10-27 10:30:30.926,-4.957676E-3,-3.5836697E-3,4.4243336E-3,-2.2819042E-3,4.6648693E-1,4.6483994E-1,4.6172237E-1,
1572172290,2019-10-27 10:31:30.926,-4.2557716E-3,-3.136158E-3,4.8816204E-3,-1.5237331E-3,4.6568584E-1,4.6494007E-1,4.626913E-1,
1572172350,2019-10-27 10:32:30.926,-4.2972565E-3,-3.341198E-3,5.0714016E-3,-1.5983582E-3,4.687357E-1,4.681759E-1,4.6604347E-1,
1572172410,2019-10-27 10:33:30.926,-2.4831295E-3,-1.363039E-3,6.71196E-3,4.5514107E-4,4.7071075E-1,4.700365E-1,4.6728706E-1,
1572172470,2019-10-27 10:34:30.926,-6.6497326E-3,-5.8112144E-3,2.6466846E-3,-4.0647984E-3,4.490366E-1,4.487629E-1,4.454136E-1,
1572172530,2019-10-27 10:35:30.926,-2.2346973E-3,-1.4395714E-3,7.0335865E-3,3.2114983E-4,4.758196E-1,4.7544193E-1,4.7215843E-1,
1572172590,2019-10-27 10:36:30.926,-4.4984818E-3,-4.1246414E-3,4.382372E-3,-1.9800663E-3,4.6927738E-1,4.6704674E-1,4.6612072E-1,
1572172650,2019-10-27 10:37:30.928,-6.9880486E-3,-5.744219E-3,2.5782585E-3,-4.208088E-3,4.5901012E-1,4.5886898E-1,4.5536518E-1,
1572172710,2019-10-27 10:38:30.926,-3.841877E-3,-3.2339096E-3,4.842758E-3,-1.3241768E-3,4.6239376E-1,4.6302986E-1,4.610777E-1,
1572172770,2019-10-27 10:39:30.926,-4.462719E-3,-4.0256977E-3,4.7035217E-3,-2.3744106E-3,4.6584892E-1,4.648981E-1,4.629116E-1,
1572172830,2019-10-27 10:40:30.926,-7.008791E-3,-5.790472E-3,2.4232864E-3,-4.329443E-3,4.5767212E-1,4.5484734E-1,4.5295048E-1,
1572172890,2019-10-27 10:41:30.926,-2.323389E-3,-1.5230179E-3,6.977558E-3,8.304119E-4,4.7228527E-1,4.7038555E-1,4.6965694E-1,
1572172950,2019-10-27 10:42:30.926,-6.7300797E-3,-5.9792995E-3,2.361536E-3,-3.799677E-3,4.572258E-1,4.5621204E-1,4.5504093E-1,
1572173010,2019-10-27 10:43:30.926,-4.5309067E-3,-3.7486553E-3,4.666567E-3,-2.1748543E-3,4.653225E-1,4.643278E-1,4.6228886E-1,
1572173070,2019-10-27 10:44:30.926,-4.4460297E-3,-3.7913322E-3,4.545212E-3,-1.9910336E-3,4.6430397E-1,4.6382713E-1,4.6213436E-1,
1572173130,2019-10-27 10:45:30.926,-3.661871E-3,-2.8612614E-3,5.0809383E-3,-1.1155605E-3,4.632225E-1,4.6135807E-1,4.6027946E-1,
1572173190,2019-10-27 10:46:30.926,-6.7255497E-3,-5.895376E-3,2.8192997E-3,-4.221201E-3,4.5737457E-1,4.559269E-1,4.5188046E-1,
1572173250,2019-10-27 10:47:30.926,-4.091978E-3,-3.1933784E-3,4.617691E-3,-1.3184547E-3,4.681549E-1,4.6893406E-1,4.6708965E-1,
1572173310,2019-10-27 10:48:30.926,-4.1265488E-3,-3.2668114E-3,5.0451756E-3,-1.5063286E-3,4.6505928E-1,4.6456623E-1,4.6131802E-1,
1572173370,2019-10-27 10:49:30.926,-6.508589E-3,-5.842209E-3,2.6631355E-3,-3.8378239E-3,4.569664E-1,4.5681477E-1,4.5400524E-1,
1572173430,2019-10-27 10:50:30.926,-4.70376E-3,-3.720522E-3,4.4178963E-3,-2.2945404E-3,4.6447182E-1,4.645443E-1,4.6123314E-1,
1572173490,2019-10-27 10:51:30.926,-6.38175E-3,-5.564928E-3,2.5918484E-3,-3.6141872E-3,4.5529366E-1,4.5297337E-1,4.5073795E-1,
1572173550,2019-10-27 10:52:30.926,-6.7179203E-3,-5.7046413E-3,2.7179718E-3,-4.1980743E-3,4.548025E-1,4.5363903E-1,4.5105934E-1,
1572173610,2019-10-27 10:53:30.926,-6.2885284E-3,-5.8670044E-3,2.6841164E-3,-3.8483143E-3,4.5894337E-1,4.5879745E-1,4.573288E-1,
1572173670,2019-10-27 10:54:30.926,-5.1846504E-3,-3.904581E-3,4.4054985E-3,-2.54035E-3,4.6292973E-1,4.6224976E-1,4.5961094E-1,
1572173730,2019-10-27 10:55:30.926,-4.5084953E-3,-4.0159225E-3,4.6350956E-3,-2.2408962E-3,4.6506786E-1,4.62821E-1,4.6238327E-1,
1572173790,2019-10-27 10:56:30.926,-4.2881966E-3,-3.2622814E-3,4.6761036E-3,-1.4436245E-3,4.6152115E-1,4.607153E-1,4.5936966E-1,
1572173850,2019-10-27 10:57:30.926,-4.515648E-3,-3.877163E-3,4.241705E-3,-2.1936893E-3,4.6540165E-1,4.6395683E-1,4.6278858E-1,
1572173910,2019-10-27 10:58:30.926,-4.6823025E-3,-3.3700466E-3,4.5347214E-3,-1.7282963E-3,4.7204208E-1,4.702673E-1,4.6786785E-1,
1572173970,2019-10-27 10:59:30.926,-4.747629E-3,-4.0745735E-3,4.2672157E-3,-2.313614E-3,4.652834E-1,4.6310616E-1,4.600134E-1,
