Time(longsecs),Time(UTC),Supply Voltage(mV),Temperature(&deg;C),NMX Bus Current(mA),Sensor Current(mA),Serial Port Current(mA),Controller Current(mA),Digitizer Current(mA),
1571382018,2019-10-18 07:00:18.813,15691,1.7351257E1,0,7,0,40,39,
1571382078,2019-10-18 07:01:18.839,15691,1.7125488E1,0,7,0,35,41,
1571382138,2019-10-18 07:02:18.807,15691,1.7402039E1,0,7,0,35,42,
1571382198,2019-10-18 07:03:18.806,15691,1.735559E1,0,2,0,42,38,
1571382258,2019-10-18 07:04:18.809,15691,1.7178436E1,0,9,0,41,38,
1571382318,2019-10-18 07:05:18.806,15705,1.7142792E1,0,7,0,42,37,
1571382378,2019-10-18 07:06:18.806,15705,1.701532E1,0,6,0,40,36,
1571382438,2019-10-18 07:07:18.808,15678,1.7129822E1,0,7,0,40,40,
1571382498,2019-10-18 07:08:18.806,15691,1.7161133E1,0,4,0,41,40,
1571382558,2019-10-18 07:09:18.807,15569,1.7053131E1,0,9,0,45,38,
1571382618,2019-10-18 07:10:18.807,15569,1.7154663E1,0,7,0,43,38,
1571382678,2019-10-18 07:11:18.806,15678,1.6941864E1,0,7,0,41,38,
1571382738,2019-10-18 07:12:18.806,15691,1.7179504E1,0,10,0,39,38,
1571382798,2019-10-18 07:13:18.806,15733,1.7151428E1,0,6,0,35,39,
1571382858,2019-10-18 07:14:18.806,15678,1.7198944E1,0,7,0,35,38,
1571382918,2019-10-18 07:15:18.806,15705,1.717627E1,0,10,0,43,40,
1571382978,2019-10-18 07:16:18.821,15705,1.7271332E1,18,7,0,35,36,
1571383038,2019-10-18 07:17:18.806,15705,1.7061768E1,0,9,0,40,40,
1571383098,2019-10-18 07:18:18.806,15705,1.7075806E1,0,8,0,36,42,
1571383158,2019-10-18 07:19:18.806,15746,1.7205444E1,0,8,0,35,38,
1571383218,2019-10-18 07:20:18.809,15705,1.7133057E1,0,7,0,40,40,
1571383278,2019-10-18 07:21:18.806,15691,1.7019623E1,0,9,0,40,35,
1571383338,2019-10-18 07:22:18.806,15691,1.6991547E1,0,9,0,40,36,
1571383398,2019-10-18 07:23:18.806,15691,1.707257E1,0,5,0,35,38,
1571383458,2019-10-18 07:24:18.809,15705,1.6833832E1,0,7,0,41,40,
1571383518,2019-10-18 07:25:18.806,15691,1.6882446E1,0,9,0,40,39,
1571383578,2019-10-18 07:26:18.806,15705,1.7158997E1,0,8,0,40,36,
1571383638,2019-10-18 07:27:18.806,15691,1.6853271E1,0,8,0,41,39,
1571383698,2019-10-18 07:28:18.806,15691,1.6948334E1,0,8,0,40,36,
1571383758,2019-10-18 07:29:18.806,15705,1.6744171E1,0,6,0,34,41,
1571383818,2019-10-18 07:30:18.806,15719,1.6953735E1,0,9,0,42,38,
1571383878,2019-10-18 07:31:18.806,15705,1.6894318E1,0,10,0,40,36,
1571383938,2019-10-18 07:32:18.806,15719,1.6915924E1,0,9,0,40,40,
1571383998,2019-10-18 07:33:18.807,15678,1.694403E1,0,8,0,35,38,
1571384058,2019-10-18 07:34:18.806,15705,1.6946167E1,0,6,0,35,43,
1571384118,2019-10-18 07:35:18.807,15678,1.6803589E1,0,9,0,37,40,
1571384178,2019-10-18 07:36:18.806,15705,1.6835999E1,0,9,0,35,37,
1571384238,2019-10-18 07:37:18.806,15705,1.6911621E1,0,0,0,40,38,
1571384298,2019-10-18 07:38:18.806,15705,1.6975342E1,0,7,0,35,39,
1571384358,2019-10-18 07:39:18.806,15705,1.6817627E1,0,10,0,35,36,
1571384418,2019-10-18 07:40:18.806,15719,1.6945099E1,0,8,0,40,37,
1571384478,2019-10-18 07:41:18.806,15705,1.7033691E1,0,6,0,40,37,
1571384538,2019-10-18 07:42:18.809,15733,1.6945099E1,0,8,0,38,37,
1571384598,2019-10-18 07:43:18.809,15719,1.6711761E1,0,9,0,35,39,
1571384658,2019-10-18 07:44:18.808,15705,1.6827362E1,0,9,0,35,37,
1571384718,2019-10-18 07:45:18.808,15705,1.6748505E1,0,5,0,43,37,
1571384778,2019-10-18 07:46:18.837,15719,1.6814392E1,11,7,0,34,36,
1571384838,2019-10-18 07:47:18.811,15719,1.6837067E1,0,6,0,36,37,
1571384898,2019-10-18 07:48:18.808,15719,1.6816559E1,0,8,0,35,38,
1571384958,2019-10-18 07:49:18.808,15719,1.697644E1,0,9,0,35,39,
1571385018,2019-10-18 07:50:18.808,15719,1.691269E1,0,8,0,40,38,
1571385078,2019-10-18 07:51:18.807,15719,1.688028E1,0,8,0,38,40,
1571385138,2019-10-18 07:52:18.808,15719,1.6840332E1,0,5,0,49,37,
1571385198,2019-10-18 07:53:18.810,15705,1.679712E1,0,4,0,43,40,
1571385258,2019-10-18 07:54:18.807,15801,1.6731201E1,0,10,0,44,42,
1571385318,2019-10-18 07:55:18.806,15719,1.6973175E1,0,5,0,41,38,
1571385378,2019-10-18 07:56:18.806,15719,1.6874878E1,0,11,0,39,43,
1571385438,2019-10-18 07:57:18.806,15719,1.6676117E1,0,9,0,41,36,
1571385498,2019-10-18 07:58:18.806,15719,1.7025024E1,0,13,0,35,38,
1571385558,2019-10-18 07:59:18.806,15691,1.6851135E1,0,9,0,35,37,
