Time(longsecs),Time(UTC),Earth Location,GPS Receiver Status,GPS Satellites Used,GPS PDOP,GPS TDOP,Timing Status,Timing Phase Lock,Timing Uncertainty(ns),DAC Count,Timing Error(ns),GPS Last Update Time,
1571392818,2019-10-18 10:00:18.806,47.63627N 0.58387E 192m,Off,8,1.9376643,1.2003542,Time OK,Free running,20000,9154,0,2019-10-18 09:50:05.000000000,
1571392878,2019-10-18 10:01:18.809,47.63627N 0.58387E 192m,Off,8,1.9376643,1.2003542,Time OK,Free running,23100,9154,0,2019-10-18 09:50:05.000000000,
1571392938,2019-10-18 10:02:18.806,47.63627N 0.58387E 192m,Off,8,1.9376643,1.2003542,Time OK,Free running,26400,9154,0,2019-10-18 09:50:05.000000000,
1571392998,2019-10-18 10:03:18.806,47.63627N 0.58387E 192m,Off,8,1.9376643,1.2003542,Time OK,Free running,30200,9154,0,2019-10-18 09:50:05.000000000,
1571393058,2019-10-18 10:04:18.806,47.63627N 0.58387E 192m,Off,8,1.9376643,1.2003542,Time OK,Free running,34300,9154,0,2019-10-18 09:50:05.000000000,
1571393118,2019-10-18 10:05:18.806,47.63627N 0.58387E 192m,Off,8,1.9376643,1.2003542,Time OK,Free running,38400,9154,0,2019-10-18 09:50:05.000000000,
1571393178,2019-10-18 10:06:18.806,47.63627N 0.58387E 192m,Off,8,1.9376643,1.2003542,Time OK,Free running,42800,9154,0,2019-10-18 09:50:05.000000000,
1571393238,2019-10-18 10:07:18.808,47.63627N 0.58387E 192m,Off,8,1.9376643,1.2003542,Time OK,Free running,47600,9154,0,2019-10-18 09:50:05.000000000,
1571393298,2019-10-18 10:08:18.806,47.63627N 0.58387E 192m,Off,8,1.9376643,1.2003542,Time OK,Free running,52700,9154,0,2019-10-18 09:50:05.000000000,
1571393358,2019-10-18 10:09:18.807,47.63627N 0.58387E 192m,No GPS time,0,0.0,0.0,Time OK,Free running,58200,9154,0,2019-10-18 10:09:15.000000000,
1571393418,2019-10-18 10:10:18.809,47.63627N 0.58387E 192m,Off,8,2.5191875,1.4894525,Time OK,Free running,100,9161,0,2019-10-18 10:10:16.000000000,
1571393478,2019-10-18 10:11:18.806,47.63627N 0.58387E 192m,Off,8,2.5191875,1.4894525,Time OK,Free running,1000,9161,0,2019-10-18 10:10:16.000000000,
1571393538,2019-10-18 10:12:18.806,47.63627N 0.58387E 192m,Off,8,2.5191875,1.4894525,Time OK,Free running,2300,9161,0,2019-10-18 10:10:16.000000000,
1571393598,2019-10-18 10:13:18.836,47.63627N 0.58387E 192m,Off,8,2.5191875,1.4894525,Time OK,Free running,4000,9161,0,2019-10-18 10:10:16.000000000,
1571393658,2019-10-18 10:14:18.806,47.63627N 0.58387E 192m,Off,8,2.5191875,1.4894525,Time OK,Free running,5700,9161,0,2019-10-18 10:10:16.000000000,
1571393718,2019-10-18 10:15:18.847,47.63627N 0.58387E 192m,Off,8,2.5191875,1.4894525,Time OK,Free running,7600,9161,0,2019-10-18 10:10:16.000000000,
1571393778,2019-10-18 10:16:18.806,47.63627N 0.58387E 192m,Off,8,2.5191875,1.4894525,Time OK,Free running,10000,9161,0,2019-10-18 10:10:16.000000000,
1571393838,2019-10-18 10:17:18.806,47.63627N 0.58387E 192m,Off,8,2.5191875,1.4894525,Time OK,Free running,12700,9161,0,2019-10-18 10:10:16.000000000,
1571393898,2019-10-18 10:18:18.806,47.63627N 0.58387E 192m,Off,8,2.5191875,1.4894525,Time OK,Free running,15400,9161,0,2019-10-18 10:10:16.000000000,
1571393958,2019-10-18 10:19:18.806,47.63627N 0.58387E 192m,Off,8,2.5191875,1.4894525,Time OK,Free running,18700,9161,0,2019-10-18 10:10:16.000000000,
1571394018,2019-10-18 10:20:18.806,47.63627N 0.58387E 192m,Off,8,2.5191875,1.4894525,Time OK,Free running,22300,9161,0,2019-10-18 10:10:16.000000000,
1571394078,2019-10-18 10:21:18.806,47.63627N 0.58387E 192m,Off,8,2.5191875,1.4894525,Time OK,Free running,26000,9161,0,2019-10-18 10:10:16.000000000,
1571394138,2019-10-18 10:22:18.806,47.63627N 0.58387E 192m,Off,8,2.5191875,1.4894525,Time OK,Free running,29800,9161,0,2019-10-18 10:10:16.000000000,
1571394198,2019-10-18 10:23:18.806,47.63627N 0.58387E 192m,Off,8,2.5191875,1.4894525,Time OK,Free running,33800,9161,0,2019-10-18 10:10:16.000000000,
1571394258,2019-10-18 10:24:18.806,47.63627N 0.58387E 192m,Off,8,2.5191875,1.4894525,Time OK,Free running,38200,9161,0,2019-10-18 10:10:16.000000000,
1571394318,2019-10-18 10:25:18.806,47.63627N 0.58387E 192m,Off,8,2.5191875,1.4894525,Time OK,Free running,42900,9161,0,2019-10-18 10:10:16.000000000,
1571394378,2019-10-18 10:26:18.806,47.63627N 0.58387E 192m,Off,8,2.5191875,1.4894525,Time OK,Free running,47900,9161,0,2019-10-18 10:10:16.000000000,
1571394438,2019-10-18 10:27:18.806,47.63627N 0.58387E 192m,Off,8,2.5191875,1.4894525,Time OK,Free running,53200,9161,0,2019-10-18 10:10:16.000000000,
1571394498,2019-10-18 10:28:18.807,47.63627N 0.58387E 192m,No GPS time,8,2.5191875,1.4894525,Time OK,Free running,58800,9161,0,2019-10-18 10:10:16.000000000,
1571394558,2019-10-18 10:29:18.807,47.63627N 0.58387E 192m,Doing fixes,7,3.0473886,1.9659653,Time OK,Coarse lock,100,9508,729,2019-10-18 10:29:15.000000000,
1571394618,2019-10-18 10:30:18.809,47.63627N 0.58387E 192m,Doing fixes,8,1.8204664,1.0503851,Time OK,Fine lock,100,9286,0,2019-10-18 10:30:15.000000000,
1571394678,2019-10-18 10:31:18.807,47.63627N 0.58387E 192m,Doing fixes,8,2.8758578,1.8843676,Time OK,Fine lock,100,9295,0,2019-10-18 10:31:15.000000000,
1571394738,2019-10-18 10:32:18.806,47.63627N 0.58387E 192m,Off,7,2.9449666,1.9043888,Time OK,Free running,500,9295,0,2019-10-18 10:31:45.000000000,
1571394798,2019-10-18 10:33:18.806,47.63627N 0.58387E 192m,Off,7,2.9449666,1.9043888,Time OK,Free running,1300,9295,0,2019-10-18 10:31:45.000000000,
1571394858,2019-10-18 10:34:18.806,47.63627N 0.58387E 192m,Off,7,2.9449666,1.9043888,Time OK,Free running,2300,9295,0,2019-10-18 10:31:45.000000000,
1571394918,2019-10-18 10:35:18.806,47.63627N 0.58387E 192m,Off,7,2.9449666,1.9043888,Time OK,Free running,3600,9295,0,2019-10-18 10:31:45.000000000,
1571394978,2019-10-18 10:36:18.806,47.63627N 0.58387E 192m,Off,7,2.9449666,1.9043888,Time OK,Free running,5000,9295,0,2019-10-18 10:31:45.000000000,
1571395038,2019-10-18 10:37:18.807,47.63627N 0.58387E 192m,Off,7,2.9449666,1.9043888,Time OK,Free running,6500,9295,0,2019-10-18 10:31:45.000000000,
1571395098,2019-10-18 10:38:18.806,47.63627N 0.58387E 192m,Off,7,2.9449666,1.9043888,Time OK,Free running,8500,9295,0,2019-10-18 10:31:45.000000000,
1571395158,2019-10-18 10:39:18.807,47.63627N 0.58387E 192m,Off,7,2.9449666,1.9043888,Time OK,Free running,10800,9295,0,2019-10-18 10:31:45.000000000,
1571395218,2019-10-18 10:40:18.806,47.63627N 0.58387E 192m,Off,7,2.9449666,1.9043888,Time OK,Free running,13100,9295,0,2019-10-18 10:31:45.000000000,
1571395278,2019-10-18 10:41:18.806,47.63627N 0.58387E 192m,Off,7,2.9449666,1.9043888,Time OK,Free running,15800,9295,0,2019-10-18 10:31:45.000000000,
1571395338,2019-10-18 10:42:18.806,47.63627N 0.58387E 192m,Off,7,2.9449666,1.9043888,Time OK,Free running,18700,9295,0,2019-10-18 10:31:45.000000000,
1571395398,2019-10-18 10:43:18.806,47.63627N 0.58387E 192m,Off,7,2.9449666,1.9043888,Time OK,Free running,21900,9295,0,2019-10-18 10:31:45.000000000,
1571395458,2019-10-18 10:44:18.806,47.63627N 0.58387E 192m,Off,7,2.9449666,1.9043888,Time OK,Free running,25500,9295,0,2019-10-18 10:31:45.000000000,
1571395518,2019-10-18 10:45:18.806,47.63627N 0.58387E 192m,Off,7,2.9449666,1.9043888,Time OK,Free running,29400,9295,0,2019-10-18 10:31:45.000000000,
1571395578,2019-10-18 10:46:18.807,47.63627N 0.58387E 192m,Off,7,2.9449666,1.9043888,Time OK,Free running,33300,9295,0,2019-10-18 10:31:45.000000000,
1571395638,2019-10-18 10:47:18.806,47.63627N 0.58387E 192m,Off,7,2.9449666,1.9043888,Time OK,Free running,37500,9295,0,2019-10-18 10:31:45.000000000,
1571395698,2019-10-18 10:48:18.806,47.63627N 0.58387E 192m,Off,7,2.9449666,1.9043888,Time OK,Free running,42100,9295,0,2019-10-18 10:31:45.000000000,
1571395758,2019-10-18 10:49:18.806,47.63627N 0.58387E 192m,Off,7,2.9449666,1.9043888,Time OK,Free running,46800,9295,0,2019-10-18 10:31:45.000000000,
1571395818,2019-10-18 10:50:18.806,47.63627N 0.58387E 192m,Off,7,2.9449666,1.9043888,Time OK,Free running,51700,9295,0,2019-10-18 10:31:45.000000000,
1571395878,2019-10-18 10:51:18.807,47.63627N 0.58387E 192m,Doing fixes,7,2.3062584,1.4675179,Time OK,Coarse lock,100,11450,-19583,2019-10-18 10:51:15.000000000,
1571395938,2019-10-18 10:52:18.807,47.63627N 0.58387E 192m,Doing fixes,6,3.9748664,2.5795374,Time OK,Coarse lock,100,9372,104,2019-10-18 10:52:15.000000000,
1571395998,2019-10-18 10:53:18.809,47.63627N 0.58387E 192m,Doing fixes,8,2.241704,1.4614611,Time OK,Fine lock,100,9401,-104,2019-10-18 10:53:15.000000000,
1571396058,2019-10-18 10:54:18.806,47.63627N 0.58387E 192m,Off,7,2.5358074,1.616543,Time OK,Free running,100,9393,0,2019-10-18 10:54:15.000000000,
1571396118,2019-10-18 10:55:18.827,47.63627N 0.58387E 192m,Off,7,2.5358074,1.616543,Time OK,Free running,1000,9393,0,2019-10-18 10:54:15.000000000,
1571396178,2019-10-18 10:56:18.845,47.63627N 0.58387E 192m,Off,7,2.5358074,1.616543,Time OK,Free running,2000,9393,0,2019-10-18 10:54:15.000000000,
1571396238,2019-10-18 10:57:18.806,47.63627N 0.58387E 192m,Off,7,2.5358074,1.616543,Time OK,Free running,3300,9393,0,2019-10-18 10:54:15.000000000,
1571396298,2019-10-18 10:58:18.806,47.63627N 0.58387E 192m,Off,7,2.5358074,1.616543,Time OK,Free running,4500,9393,0,2019-10-18 10:54:15.000000000,
1571396358,2019-10-18 10:59:18.806,47.63627N 0.58387E 192m,Off,7,2.5358074,1.616543,Time OK,Free running,6100,9393,0,2019-10-18 10:54:15.000000000,
