Time(longsecs),Time(UTC),Supply Voltage(mV),Temperature(&deg;C),NMX Bus Current(mA),Sensor Current(mA),Serial Port Current(mA),Controller Current(mA),Digitizer Current(mA),
1571418018,2019-10-18 17:00:18.807,16264,2.3825043E1,0,8,0,47,39,
1571418078,2019-10-18 17:01:18.807,16264,2.4067017E1,0,10,0,42,37,
1571418138,2019-10-18 17:02:18.806,16264,2.3740784E1,0,7,0,42,41,
1571418198,2019-10-18 17:03:18.806,16278,2.3721344E1,0,9,0,40,35,
1571418258,2019-10-18 17:04:18.806,16278,2.3845581E1,0,8,0,34,35,
1571418318,2019-10-18 17:05:18.806,16250,2.365976E1,0,7,0,66,37,
1571418378,2019-10-18 17:06:18.806,16278,2.3535553E1,0,8,0,40,39,
1571418438,2019-10-18 17:07:18.806,16264,2.370514E1,0,7,0,40,42,
1571418498,2019-10-18 17:08:18.806,16278,2.3431854E1,0,8,0,28,35,
1571418558,2019-10-18 17:09:18.806,16278,2.362738E1,0,8,0,34,38,
1571418618,2019-10-18 17:10:18.806,16182,2.3515015E1,0,11,0,39,41,
1571418678,2019-10-18 17:11:18.806,16264,2.355066E1,0,11,0,31,35,
1571418738,2019-10-18 17:12:18.806,16278,2.3313019E1,0,11,0,40,36,
1571418798,2019-10-18 17:13:18.806,16278,2.3308685E1,0,9,0,34,39,
1571418858,2019-10-18 17:14:18.809,16278,2.3188782E1,0,9,0,34,37,
1571418918,2019-10-18 17:15:18.806,16264,2.317691E1,0,10,0,38,41,
1571418978,2019-10-18 17:16:18.807,16264,2.3360565E1,0,6,0,38,37,
1571419038,2019-10-18 17:17:18.806,16278,2.3462097E1,0,6,0,35,37,
1571419098,2019-10-18 17:18:18.808,16278,2.3333557E1,0,8,0,34,38,
1571419158,2019-10-18 17:19:18.807,16237,2.3175842E1,0,13,0,68,36,
1571419218,2019-10-18 17:20:18.808,16264,2.3236328E1,0,5,0,39,39,
1571419278,2019-10-18 17:21:18.806,16264,2.3169342E1,0,8,0,40,36,
1571419338,2019-10-18 17:22:18.806,16264,2.3024597E1,0,8,0,42,37,
1571419398,2019-10-18 17:23:18.840,16264,2.3105621E1,0,11,0,34,39,
1571419458,2019-10-18 17:24:18.806,16237,2.317044E1,0,9,0,35,40,
1571419518,2019-10-18 17:25:18.806,16250,2.302893E1,0,9,0,33,36,
1571419578,2019-10-18 17:26:18.806,16210,2.3231995E1,0,8,3,42,35,
1571419638,2019-10-18 17:27:18.806,16264,2.2986786E1,0,14,0,39,38,
1571419698,2019-10-18 17:28:18.807,16237,2.3207153E1,0,12,0,71,36,
1571419758,2019-10-18 17:29:18.807,16237,2.2756714E1,0,6,0,67,37,
1571419818,2019-10-18 17:30:18.809,16264,2.3077545E1,0,10,0,36,37,
1571419878,2019-10-18 17:31:18.809,16250,2.2878784E1,0,11,0,42,37,
1571419938,2019-10-18 17:32:18.806,16264,2.2786957E1,0,9,0,40,38,
1571419998,2019-10-18 17:33:18.806,16305,2.2828003E1,0,9,0,35,37,
1571420058,2019-10-18 17:34:18.806,16264,2.2839874E1,0,8,0,33,39,
1571420118,2019-10-18 17:35:18.806,16237,2.2661652E1,0,6,0,38,38,
1571420178,2019-10-18 17:36:18.806,16278,2.269513E1,0,11,0,38,36,
1571420238,2019-10-18 17:37:18.806,16264,2.284851E1,1,7,0,38,36,
1571420298,2019-10-18 17:38:18.806,16264,2.243695E1,0,7,0,36,34,
1571420358,2019-10-18 17:39:18.840,16264,2.2555786E1,0,8,0,34,39,
1571420418,2019-10-18 17:40:18.806,16264,2.2683258E1,0,5,0,34,38,
1571420478,2019-10-18 17:41:18.806,16264,2.2590363E1,0,6,0,40,37,
1571420538,2019-10-18 17:42:18.806,16237,2.2736176E1,0,8,0,68,38,
1571420598,2019-10-18 17:43:18.808,16264,2.2483398E1,0,9,0,36,38,
1571420658,2019-10-18 17:44:18.806,16237,2.2354858E1,0,7,0,33,36,
1571420718,2019-10-18 17:45:18.806,16250,2.2432648E1,0,10,0,38,40,
1571420778,2019-10-18 17:46:18.806,16264,2.252121E1,0,12,0,37,44,
1571420838,2019-10-18 17:47:18.806,16237,2.2362427E1,0,6,0,66,45,
1571420898,2019-10-18 17:48:18.807,16237,2.2457489E1,0,4,0,63,35,
1571420958,2019-10-18 17:49:18.809,16264,2.2416443E1,0,8,0,34,35,
1571421018,2019-10-18 17:50:18.806,16264,2.2486664E1,0,9,0,39,38,
1571421078,2019-10-18 17:51:18.806,16264,2.2505005E1,0,9,0,38,38,
1571421138,2019-10-18 17:52:18.806,16250,2.2442352E1,0,11,0,39,42,
1571421198,2019-10-18 17:53:18.806,16237,2.2297607E1,0,7,0,40,38,
1571421258,2019-10-18 17:54:18.806,16250,2.2137726E1,0,13,0,34,36,
1571421318,2019-10-18 17:55:18.806,16168,2.2156097E1,0,8,0,39,41,
1571421378,2019-10-18 17:56:18.809,16264,2.2121521E1,0,2,0,40,37,
1571421438,2019-10-18 17:57:18.806,16264,2.219284E1,0,8,0,42,37,
1571421498,2019-10-18 17:58:18.806,16278,2.2138824E1,0,8,0,34,35,
1571421558,2019-10-18 17:59:18.806,16305,2.210965E1,0,4,0,34,37,
