Time(longsecs),Time(UTC),External SOH Voltage 1(V),External SOH Voltage 2(V),External SOH Voltage 3(V),External SOH Voltage 4(V),Sensor SOH Voltage 1(V),Sensor SOH Voltage 2(V),Sensor SOH Voltage 3(V),
1571360418,2019-10-18 01:00:18.806,-7.7519417E-3,3.116846E-3,-1.2612343E-3,-3.4856796E-4,2.3191357E-1,2.3507214E-1,2.3292065E-1,
1571360478,2019-10-18 01:01:18.806,-9.627819E-3,1.3563633E-3,-3.2122135E-3,-2.7530193E-3,2.2570992E-1,2.2869396E-1,2.2694492E-1,
1571360538,2019-10-18 01:02:18.807,-1.005435E-2,7.402897E-4,-3.3068657E-3,-2.770424E-3,2.2114277E-1,2.221117E-1,2.2417164E-1,
1571360598,2019-10-18 01:03:18.808,-1.0092258E-2,5.7816505E-4,-3.6756992E-3,-2.9187202E-3,2.2469997E-1,2.2633457E-1,2.2776985E-1,
1571360658,2019-10-18 01:04:18.806,-7.7660084E-3,2.9337406E-3,-1.4996529E-3,-4.310608E-4,2.2789955E-1,2.3135757E-1,2.2775173E-1,
1571360718,2019-10-18 01:05:18.807,-7.565975E-3,3.0636787E-3,-1.483202E-3,-4.6253204E-4,2.2634315E-1,2.2927475E-1,2.2776985E-1,
1571360778,2019-10-18 01:06:18.806,-1.1828661E-2,-1.0278225E-3,-5.031824E-3,-4.415989E-3,2.200594E-1,2.230959E-1,2.2310448E-1,
1571360838,2019-10-18 01:07:18.806,-1.19178295E-2,-1.1255741E-3,-5.323887E-3,-4.829645E-3,2.163372E-1,2.1801853E-1,2.1842766E-1,
1571360898,2019-10-18 01:08:18.806,-7.739067E-3,3.0725002E-3,-1.0282993E-3,-1.1610985E-4,2.2809029E-1,2.3114777E-1,2.282877E-1,
1571360958,2019-10-18 01:09:18.806,-7.6408386E-3,2.9382706E-3,-1.2629032E-3,-4.8613548E-4,2.2835636E-1,2.3195457E-1,2.2783947E-1,
1571361018,2019-10-18 01:10:18.806,-7.2665215E-3,3.39818E-3,-1.1560917E-3,-4.0984154E-4,2.265749E-1,2.2908211E-1,2.2961521E-1,
1571361078,2019-10-18 01:11:18.807,-1.2113333E-2,-1.0411739E-3,-5.1157475E-3,-4.468441E-3,2.1500397E-1,2.174263E-1,2.1722317E-1,
1571361138,2019-10-18 01:12:18.806,-1.2331247E-2,-1.1658669E-3,-5.243063E-3,-4.958868E-3,2.149229E-1,2.1778679E-1,2.1647358E-1,
1571361198,2019-10-18 01:13:18.806,-7.7340603E-3,3.1898022E-3,-1.430273E-3,-5.4621696E-4,2.2731018E-1,2.3023987E-1,2.2977638E-1,
1571361258,2019-10-18 01:14:18.806,-9.400368E-3,1.2731552E-3,-2.9022694E-3,-2.1231174E-3,2.2200394E-1,2.2501945E-1,2.2505474E-1,
1571361318,2019-10-18 01:15:18.806,-1.2078524E-2,-1.0399818E-3,-5.0702095E-3,-4.473686E-3,2.1130276E-1,2.148695E-1,2.1427727E-1,
1571361378,2019-10-18 01:16:18.806,-8.039951E-3,2.9995441E-3,-1.4996529E-3,-7.4863434E-4,2.2707367E-1,2.3013306E-1,2.320919E-1,
1571361438,2019-10-18 01:17:18.806,-9.59897E-3,1.6989708E-3,-2.8328896E-3,-2.3589134E-3,2.22126E-1,2.2476959E-1,2.2293186E-1,
1571361498,2019-10-18 01:18:18.806,-1.19514465E-2,-1.0688305E-3,-5.1755905E-3,-5.3157806E-3,2.1986961E-1,2.2313213E-1,2.2216892E-1,
1571361558,2019-10-18 01:19:18.806,-1.1995077E-2,-1.2199879E-3,-5.2313805E-3,-4.507065E-3,2.1321774E-1,2.1677399E-1,2.154541E-1,
1571361618,2019-10-18 01:20:18.857,-1.0304928E-2,6.992817E-4,-3.4003258E-3,-3.3409595E-3,2.2800255E-1,2.2464275E-1,2.2315693E-1,
1571361678,2019-10-18 01:21:18.806,-9.446621E-3,1.2104511E-3,-2.735138E-3,-2.2838116E-3,2.2636986E-1,2.2882366E-1,2.2850513E-1,
1571361738,2019-10-18 01:22:18.806,-1.1814356E-2,-1.226902E-3,-5.1887035E-3,-4.7609806E-3,2.1329498E-1,2.1630669E-1,2.1598148E-1,
1571361798,2019-10-18 01:23:18.806,-7.6606274E-3,2.8157234E-3,-8.838177E-4,-3.2949448E-4,2.2587776E-1,2.2779942E-1,2.2666931E-1,
1571361858,2019-10-18 01:24:18.806,-9.685755E-3,1.3701916E-3,-2.9654503E-3,-2.7217865E-3,2.1966934E-1,2.2229385E-1,2.228632E-1,
1571361918,2019-10-18 01:25:18.806,-1.2297869E-2,-1.1460781E-3,-5.0592422E-3,-4.8799515E-3,2.1562767E-1,2.1817398E-1,2.1699429E-1,
1571361978,2019-10-18 01:26:18.806,-1.2085199E-2,-1.2762547E-3,-5.4354668E-3,-4.5719147E-3,2.1595192E-1,2.1945953E-1,2.1578121E-1,
1571362038,2019-10-18 01:27:18.806,-9.205103E-3,1.237154E-3,-2.644062E-3,-2.4998188E-3,2.2638702E-1,2.2826862E-1,2.2765255E-1,
1571362098,2019-10-18 01:28:18.807,-1.1718512E-2,-9.6583366E-4,-5.309105E-3,-4.9164295E-3,2.1722412E-1,2.1937943E-1,2.1750355E-1,
1571362158,2019-10-18 01:29:18.806,-1.2127399E-2,-1.1606216E-3,-4.982233E-3,-5.161524E-3,2.1612358E-1,2.1829891E-1,2.1694183E-1,
1571362218,2019-10-18 01:30:18.806,-9.415388E-3,1.5494823E-3,-2.93684E-3,-2.7124882E-3,2.2048092E-1,2.2300053E-1,2.2217464E-1,
1571362278,2019-10-18 01:31:18.806,-9.943724E-3,8.637905E-4,-3.1151772E-3,-2.7737617E-3,2.2581959E-1,2.2783947E-1,2.271347E-1,
1571362338,2019-10-18 01:32:18.806,-9.741783E-3,1.2252331E-3,-3.0117035E-3,-2.0987988E-3,2.218914E-1,2.2458458E-1,2.2580051E-1,
1571362398,2019-10-18 01:33:18.806,-1.0099888E-2,6.351471E-4,-3.3078194E-3,-3.1900406E-3,2.2066212E-1,2.2450733E-1,2.2350216E-1,
1571362458,2019-10-18 01:34:18.807,-7.8032017E-3,3.199339E-3,-9.982586E-4,-6.4206123E-4,2.284956E-1,2.3025513E-1,2.3066902E-1,
1571362518,2019-10-18 01:35:18.807,-7.5526237E-3,3.103733E-3,-7.70092E-4,-3.643036E-4,2.273016E-1,2.3193264E-1,2.310133E-1,
1571362578,2019-10-18 01:36:18.807,-9.989023E-3,6.1774254E-4,-3.4725666E-3,-2.6831627E-3,2.2512436E-1,2.2782898E-1,2.2833729E-1,
1571362638,2019-10-18 01:37:18.806,-1.00336075E-2,9.293556E-4,-3.7310123E-3,-3.263235E-3,2.2170258E-1,2.2435665E-1,2.2167015E-1,
1571362698,2019-10-18 01:38:18.806,-1.216197E-2,-9.36985E-4,-5.4724216E-3,-4.6613216E-3,2.1563244E-1,2.1883297E-1,2.1844006E-1,
1571362758,2019-10-18 01:39:18.806,-1.0183096E-2,8.3112717E-4,-3.4501553E-3,-3.0965805E-3,2.1856022E-1,2.2163868E-1,2.2027397E-1,
1571362818,2019-10-18 01:40:18.806,-7.5821877E-3,2.970934E-3,-1.0249615E-3,-6.0749054E-4,2.2773266E-1,2.302351E-1,2.2895908E-1,
1571362878,2019-10-18 01:41:18.847,-1.2235403E-2,-1.0488033E-3,-5.265236E-3,-4.6741962E-3,2.1543503E-1,2.1894741E-1,2.1675014E-1,
1571362938,2019-10-18 01:42:18.806,-7.853508E-3,3.1557083E-3,-9.16481E-4,-4.696846E-4,2.2722244E-1,2.2951698E-1,2.3050117E-1,
1571362998,2019-10-18 01:43:18.806,-1.2466192E-2,-1.2483597E-3,-5.148411E-3,-4.3566227E-3,2.1131325E-1,2.1445274E-1,2.1380615E-1,
1571363058,2019-10-18 01:44:18.806,-9.829044E-3,6.110668E-4,-3.4058094E-3,-3.0620098E-3,2.247467E-1,2.2785473E-1,2.2770882E-1,
1571363118,2019-10-18 01:45:18.806,-9.66692E-3,1.199007E-3,-3.1397343E-3,-2.0992756E-3,2.2073364E-1,2.2278786E-1,2.2223759E-1,
1571363178,2019-10-18 01:46:18.806,-1.2298584E-2,-1.0998249E-3,-5.5077076E-3,-4.778385E-3,2.1960545E-1,2.2274399E-1,2.2190475E-1,
1571363238,2019-10-18 01:47:18.806,-7.527113E-3,3.4065247E-3,-9.036064E-4,-7.677078E-5,2.2692871E-1,2.2951221E-1,2.281828E-1,
1571363298,2019-10-18 01:48:18.806,-9.437561E-3,1.1286736E-3,-2.7980804E-3,-2.3527145E-3,2.2216988E-1,2.2465038E-1,2.2349834E-1,
1571363358,2019-10-18 01:49:18.821,-9.506702E-3,1.3477802E-3,-3.3483505E-3,-2.2838116E-3,2.2767925E-1,2.3318195E-1,2.2866058E-1,
1571363418,2019-10-18 01:50:18.806,-1.1880636E-2,-9.365082E-4,-4.9602985E-3,-4.9562454E-3,2.155571E-1,2.1838665E-1,2.1917915E-1,
1571363478,2019-10-18 01:51:18.806,-8.020163E-3,3.3237934E-3,-8.3351135E-4,-8.029938E-4,2.3041153E-1,2.3413086E-1,2.3227406E-1,
1571363538,2019-10-18 01:52:18.806,-1.0206938E-2,6.6041946E-4,-3.2458305E-3,-2.6788712E-3,2.2782898E-1,2.2994995E-1,2.2930717E-1,
1571363598,2019-10-18 01:53:18.806,-7.722378E-3,3.262043E-3,-1.3051033E-3,-5.9843063E-4,2.3168278E-1,2.3469448E-1,2.3296452E-1,
1571363658,2019-10-18 01:54:18.806,-8.097172E-3,3.2503605E-3,-1.0693073E-3,-4.6300888E-4,2.2739601E-1,2.3070812E-1,2.2875309E-1,
1571363718,2019-10-18 01:55:18.806,-1.0150671E-2,9.069443E-4,-3.345251E-3,-2.6142597E-3,2.2092056E-1,2.2407341E-1,2.2534084E-1,
1571363778,2019-10-18 01:56:18.806,-7.806301E-3,2.800703E-3,-1.2021065E-3,-4.954338E-4,2.2620487E-1,2.282753E-1,2.2672844E-1,
1571363838,2019-10-18 01:57:18.806,-1.0201216E-2,8.482933E-4,-3.7596226E-3,-2.8643608E-3,2.2431564E-1,2.2729492E-1,2.233963E-1,
1571363898,2019-10-18 01:58:18.806,-9.674072E-3,1.3680458E-3,-3.5247803E-3,-2.3860931E-3,2.2275639E-1,2.2482109E-1,2.2469997E-1,
1571363958,2019-10-18 01:59:18.809,-1.0187626E-2,6.902218E-4,-3.6344528E-3,-3.1728745E-3,2.272892E-1,2.3073101E-1,2.2855759E-1,
