Time(longsecs),Time(UTC),Earth Location,GPS Receiver Status,GPS Satellites Used,GPS PDOP,GPS TDOP,Timing Status,Timing Phase Lock,Timing Uncertainty(ns),DAC Count,Timing Error(ns),GPS Last Update Time,
1571630422,2019-10-21 04:00:22.384,47.644838N 0.58667E 214m,Off,5,2.8498032,1.8671944,Time OK,Free running,32000,8828,0,2019-10-21 03:27:59.000000000,
1571630482,2019-10-21 04:01:22.352,47.644838N 0.58667E 214m,Off,5,2.8498032,1.8671944,Time OK,Free running,32900,8828,0,2019-10-21 03:27:59.000000000,
1571630542,2019-10-21 04:02:22.352,47.644838N 0.58667E 214m,Off,5,2.8498032,1.8671944,Time OK,Free running,34000,8828,0,2019-10-21 03:27:59.000000000,
1571630602,2019-10-21 04:03:22.352,47.644838N 0.58667E 214m,Off,5,2.8498032,1.8671944,Time OK,Free running,35000,8828,0,2019-10-21 03:27:59.000000000,
1571630662,2019-10-21 04:04:22.352,47.644838N 0.58667E 214m,Off,5,2.8498032,1.8671944,Time OK,Free running,35900,8828,0,2019-10-21 03:27:59.000000000,
1571630722,2019-10-21 04:05:22.354,47.644838N 0.58667E 214m,Off,5,2.8498032,1.8671944,Time OK,Free running,36800,8828,0,2019-10-21 03:27:59.000000000,
1571630782,2019-10-21 04:06:22.352,47.644838N 0.58667E 214m,Off,5,2.8498032,1.8671944,Time OK,Free running,37600,8828,0,2019-10-21 03:27:59.000000000,
1571630842,2019-10-21 04:07:22.352,47.644838N 0.58667E 214m,Off,5,2.8498032,1.8671944,Time OK,Free running,38400,8828,0,2019-10-21 03:27:59.000000000,
1571630902,2019-10-21 04:08:22.352,47.644838N 0.58667E 214m,Off,5,2.8498032,1.8671944,Time OK,Free running,39600,8828,0,2019-10-21 03:27:59.000000000,
1571630962,2019-10-21 04:09:22.352,47.644838N 0.58667E 214m,Off,5,2.8498032,1.8671944,Time OK,Free running,40700,8828,0,2019-10-21 03:27:59.000000000,
1571631022,2019-10-21 04:10:22.352,47.644838N 0.58667E 214m,Off,5,2.8498032,1.8671944,Time OK,Free running,41600,8828,0,2019-10-21 03:27:59.000000000,
1571631082,2019-10-21 04:11:22.352,47.644838N 0.58667E 214m,Off,5,2.8498032,1.8671944,Time OK,Free running,42600,8828,0,2019-10-21 03:27:59.000000000,
1571631142,2019-10-21 04:12:22.352,47.644838N 0.58667E 214m,Off,5,2.8498032,1.8671944,Time OK,Free running,43400,8828,0,2019-10-21 03:27:59.000000000,
1571631202,2019-10-21 04:13:22.352,47.644838N 0.58667E 214m,Off,5,2.8498032,1.8671944,Time OK,Free running,44200,8828,0,2019-10-21 03:27:59.000000000,
1571631262,2019-10-21 04:14:22.352,47.644838N 0.58667E 214m,Off,5,2.8498032,1.8671944,Time OK,Free running,45100,8828,0,2019-10-21 03:27:59.000000000,
1571631322,2019-10-21 04:15:22.352,47.644838N 0.58667E 214m,Off,5,2.8498032,1.8671944,Time OK,Free running,46000,8828,0,2019-10-21 03:27:59.000000000,
1571631382,2019-10-21 04:16:22.354,47.644838N 0.58667E 214m,Off,5,2.8498032,1.8671944,Time OK,Free running,47200,8828,0,2019-10-21 03:27:59.000000000,
1571631442,2019-10-21 04:17:22.352,47.644838N 0.58667E 214m,Off,5,2.8498032,1.8671944,Time OK,Free running,48400,8828,0,2019-10-21 03:27:59.000000000,
1571631502,2019-10-21 04:18:22.352,47.644838N 0.58667E 214m,Off,5,2.8498032,1.8671944,Time OK,Free running,49500,8828,0,2019-10-21 03:27:59.000000000,
1571631562,2019-10-21 04:19:22.352,47.644838N 0.58667E 214m,Off,5,2.8498032,1.8671944,Time OK,Free running,50600,8828,0,2019-10-21 03:27:59.000000000,
1571631622,2019-10-21 04:20:22.352,47.644838N 0.58667E 214m,Doing fixes,4,2.6513143,0.60872144,Time OK,Free running,51800,8828,0,2019-10-21 04:20:19.000000000,
1571631682,2019-10-21 04:21:22.352,47.644838N 0.58667E 214m,Doing fixes,5,3.9856746,2.6440535,Time OK,Fine lock,100,8837,0,2019-10-21 04:21:19.000000000,
1571631742,2019-10-21 04:22:22.352,47.644838N 0.58667E 214m,Off,5,3.9743505,2.6576967,Time OK,Free running,100,8833,0,2019-10-21 04:22:19.000000000,
1571631802,2019-10-21 04:23:22.352,47.644838N 0.58667E 214m,Off,5,3.9743505,2.6576967,Time OK,Free running,1000,8833,0,2019-10-21 04:22:19.000000000,
1571631862,2019-10-21 04:24:22.354,47.644838N 0.58667E 214m,Off,5,3.9743505,2.6576967,Time OK,Free running,1900,8833,0,2019-10-21 04:22:19.000000000,
1571631922,2019-10-21 04:25:22.352,47.644838N 0.58667E 214m,Off,5,3.9743505,2.6576967,Time OK,Free running,2800,8833,0,2019-10-21 04:22:19.000000000,
1571631982,2019-10-21 04:26:22.352,47.644838N 0.58667E 214m,Off,5,3.9743505,2.6576967,Time OK,Free running,3600,8833,0,2019-10-21 04:22:19.000000000,
1571632042,2019-10-21 04:27:22.352,47.644838N 0.58667E 214m,Off,5,3.9743505,2.6576967,Time OK,Free running,4500,8833,0,2019-10-21 04:22:19.000000000,
1571632102,2019-10-21 04:28:22.352,47.644838N 0.58667E 214m,Off,5,3.9743505,2.6576967,Time OK,Free running,5600,8833,0,2019-10-21 04:22:19.000000000,
1571632162,2019-10-21 04:29:22.352,47.644838N 0.58667E 214m,Off,5,3.9743505,2.6576967,Time OK,Free running,6500,8833,0,2019-10-21 04:22:19.000000000,
1571632222,2019-10-21 04:30:22.352,47.644838N 0.58667E 214m,Off,5,3.9743505,2.6576967,Time OK,Free running,7300,8833,0,2019-10-21 04:22:19.000000000,
1571632282,2019-10-21 04:31:22.352,47.644838N 0.58667E 214m,Off,5,3.9743505,2.6576967,Time OK,Free running,8300,8833,0,2019-10-21 04:22:19.000000000,
1571632342,2019-10-21 04:32:22.352,47.644838N 0.58667E 214m,Off,5,3.9743505,2.6576967,Time OK,Free running,9300,8833,0,2019-10-21 04:22:19.000000000,
1571632402,2019-10-21 04:33:22.352,47.644838N 0.58667E 214m,Off,5,3.9743505,2.6576967,Time OK,Free running,10300,8833,0,2019-10-21 04:22:19.000000000,
1571632462,2019-10-21 04:34:22.352,47.644838N 0.58667E 214m,Off,5,3.9743505,2.6576967,Time OK,Free running,11400,8833,0,2019-10-21 04:22:19.000000000,
1571632522,2019-10-21 04:35:22.352,47.644838N 0.58667E 214m,Off,5,3.9743505,2.6576967,Time OK,Free running,12200,8833,0,2019-10-21 04:22:19.000000000,
1571632582,2019-10-21 04:36:22.352,47.644838N 0.58667E 214m,Off,5,3.9743505,2.6576967,Time OK,Free running,13200,8833,0,2019-10-21 04:22:19.000000000,
1571632642,2019-10-21 04:37:22.352,47.644838N 0.58667E 214m,Off,5,3.9743505,2.6576967,Time OK,Free running,14100,8833,0,2019-10-21 04:22:19.000000000,
1571632702,2019-10-21 04:38:22.352,47.644838N 0.58667E 214m,Off,5,3.9743505,2.6576967,Time OK,Free running,15100,8833,0,2019-10-21 04:22:19.000000000,
1571632762,2019-10-21 04:39:22.352,47.644838N 0.58667E 214m,Off,5,3.9743505,2.6576967,Time OK,Free running,16200,8833,0,2019-10-21 04:22:19.000000000,
1571632822,2019-10-21 04:40:22.352,47.644838N 0.58667E 214m,Off,5,3.9743505,2.6576967,Time OK,Free running,17400,8833,0,2019-10-21 04:22:19.000000000,
1571632882,2019-10-21 04:41:22.352,47.644838N 0.58667E 214m,Off,5,3.9743505,2.6576967,Time OK,Free running,18300,8833,0,2019-10-21 04:22:19.000000000,
1571632942,2019-10-21 04:42:22.352,47.644838N 0.58667E 214m,Off,5,3.9743505,2.6576967,Time OK,Free running,19100,8833,0,2019-10-21 04:22:19.000000000,
1571633002,2019-10-21 04:43:22.352,47.644838N 0.58667E 214m,Off,5,3.9743505,2.6576967,Time OK,Free running,20300,8833,0,2019-10-21 04:22:19.000000000,
1571633062,2019-10-21 04:44:22.352,47.644838N 0.58667E 214m,Off,5,3.9743505,2.6576967,Time OK,Free running,21300,8833,0,2019-10-21 04:22:19.000000000,
1571633122,2019-10-21 04:45:22.352,47.644838N 0.58667E 214m,Off,5,3.9743505,2.6576967,Time OK,Free running,22100,8833,0,2019-10-21 04:22:19.000000000,
1571633182,2019-10-21 04:46:22.352,47.644838N 0.58667E 214m,Off,5,3.9743505,2.6576967,Time OK,Free running,23000,8833,0,2019-10-21 04:22:19.000000000,
1571633242,2019-10-21 04:47:22.352,47.644838N 0.58667E 214m,Off,5,3.9743505,2.6576967,Time OK,Free running,24000,8833,0,2019-10-21 04:22:19.000000000,
1571633302,2019-10-21 04:48:22.352,47.644838N 0.58667E 214m,Off,5,3.9743505,2.6576967,Time OK,Free running,25000,8833,0,2019-10-21 04:22:19.000000000,
1571633362,2019-10-21 04:49:22.352,47.644838N 0.58667E 214m,Off,5,3.9743505,2.6576967,Time OK,Free running,26000,8833,0,2019-10-21 04:22:19.000000000,
1571633422,2019-10-21 04:50:22.352,47.644838N 0.58667E 214m,Off,5,3.9743505,2.6576967,Time OK,Free running,26900,8833,0,2019-10-21 04:22:19.000000000,
1571633482,2019-10-21 04:51:22.352,47.644838N 0.58667E 214m,Off,5,3.9743505,2.6576967,Time OK,Free running,27700,8833,0,2019-10-21 04:22:19.000000000,
1571633542,2019-10-21 04:52:22.352,47.644838N 0.58667E 214m,Off,5,3.9743505,2.6576967,Time OK,Free running,28700,8833,0,2019-10-21 04:22:19.000000000,
1571633602,2019-10-21 04:53:22.352,47.644838N 0.58667E 214m,Off,5,3.9743505,2.6576967,Time OK,Free running,29700,8833,0,2019-10-21 04:22:19.000000000,
1571633662,2019-10-21 04:54:22.353,47.644838N 0.58667E 214m,Off,5,3.9743505,2.6576967,Time OK,Free running,30500,8833,0,2019-10-21 04:22:19.000000000,
1571633722,2019-10-21 04:55:22.352,47.644838N 0.58667E 214m,Off,5,3.9743505,2.6576967,Time OK,Free running,31500,8833,0,2019-10-21 04:22:19.000000000,
1571633782,2019-10-21 04:56:22.352,47.644838N 0.58667E 214m,Off,5,3.9743505,2.6576967,Time OK,Free running,32400,8833,0,2019-10-21 04:22:19.000000000,
1571633842,2019-10-21 04:57:22.352,47.644838N 0.58667E 214m,Off,5,3.9743505,2.6576967,Time OK,Free running,33200,8833,0,2019-10-21 04:22:19.000000000,
1571633902,2019-10-21 04:58:22.352,47.644838N 0.58667E 214m,Off,5,3.9743505,2.6576967,Time OK,Free running,34100,8833,0,2019-10-21 04:22:19.000000000,
1571633962,2019-10-21 04:59:22.352,47.644838N 0.58667E 214m,Off,5,3.9743505,2.6576967,Time OK,Free running,34900,8833,0,2019-10-21 04:22:19.000000000,
