Time(longsecs),Time(UTC),External SOH Voltage 1(V),External SOH Voltage 2(V),External SOH Voltage 3(V),External SOH Voltage 4(V),Sensor SOH Voltage 1(V),Sensor SOH Voltage 2(V),Sensor SOH Voltage 3(V),
1572091230,2019-10-26 12:00:30.925,-2.5289059E-3,-1.352787E-3,6.5660477E-3,5.245209E-4,4.5986366E-1,4.5842743E-1,4.559288E-1,
1572091290,2019-10-26 12:01:30.925,-2.5501251E-3,-1.3780594E-3,7.0154667E-3,2.4557114E-5,4.5525932E-1,4.5485497E-1,4.519558E-1,
1572091350,2019-10-26 12:02:30.925,-5.125284E-3,-4.1906834E-3,4.438877E-3,-1.9435883E-3,4.5127392E-1,4.5014954E-1,4.4776058E-1,
1572091410,2019-10-26 12:03:30.925,-6.7892075E-3,-5.924225E-3,2.9637814E-3,-3.96657E-3,4.4557476E-1,4.4662952E-1,4.427719E-1,
1572091470,2019-10-26 12:04:30.925,-3.976345E-3,-3.1142235E-3,5.1341057E-3,-9.6797943E-4,4.5388412E-1,4.5401573E-1,4.5080376E-1,
1572091530,2019-10-26 12:05:30.925,-2.4693012E-3,-1.6419888E-3,6.910801E-3,5.6004524E-4,4.5920753E-1,4.5835114E-1,4.5816612E-1,
1572091590,2019-10-26 12:06:30.925,-6.6473484E-3,-5.647421E-3,2.8681755E-3,-3.6985874E-3,4.4484806E-1,4.4421768E-1,4.4321346E-1,
1572091650,2019-10-26 12:07:30.925,-4.878521E-3,-4.0414333E-3,4.6310425E-3,-1.9609928E-3,4.5381832E-1,4.541254E-1,4.522686E-1,
1572091710,2019-10-26 12:08:30.925,-4.647732E-3,-3.7865639E-3,4.674673E-3,-1.888752E-3,4.548092E-1,4.546318E-1,4.511156E-1,
1572091770,2019-10-26 12:09:30.926,-2.432108E-3,-1.3155937E-3,6.986618E-3,5.309582E-4,4.5489883E-1,4.5544815E-1,4.5222473E-1,
1572091830,2019-10-26 12:10:30.926,-4.106045E-3,-3.0610561E-3,5.193472E-3,-1.6722679E-3,4.5099163E-1,4.5130825E-1,4.4983006E-1,
1572091890,2019-10-26 12:11:30.926,-4.076004E-3,-3.0868053E-3,5.103588E-3,-1.992464E-3,4.5354557E-1,4.5242023E-1,4.4934845E-1,
1572091950,2019-10-26 12:12:30.925,-2.3889542E-3,-1.3356209E-3,6.7896843E-3,5.1283836E-4,4.5637035E-1,4.5432758E-1,4.5503998E-1,
1572092010,2019-10-26 12:13:30.926,-2.4404526E-3,-1.537323E-3,7.077217E-3,4.3201447E-4,4.55472E-1,4.543848E-1,4.526949E-1,
1572092070,2019-10-26 12:14:30.925,-2.0403862E-3,-1.3687611E-3,7.1856976E-3,4.041195E-4,4.6243858E-1,4.594488E-1,4.6018982E-1,
1572092130,2019-10-26 12:15:30.928,-6.757021E-3,-5.7468414E-3,2.7689934E-3,-4.4994354E-3,4.4429874E-1,4.4320774E-1,4.410801E-1,
1572092190,2019-10-26 12:16:30.926,-2.2499561E-3,-1.291275E-3,6.898403E-3,4.6157837E-4,4.5438004E-1,4.5493603E-1,4.5333576E-1,
1572092250,2019-10-26 12:17:30.925,-2.1128654E-3,-1.3933182E-3,7.037163E-3,2.5129318E-4,4.5954514E-1,4.5840073E-1,4.550953E-1,
1572092310,2019-10-26 12:18:30.925,-6.860256E-3,-5.7976246E-3,2.8085709E-3,-4.192829E-3,4.4348145E-1,4.4254017E-1,4.4043446E-1,
1572092370,2019-10-26 12:19:30.925,-4.276514E-3,-3.324747E-3,5.0091743E-3,-2.0058155E-3,4.510107E-1,4.5167828E-1,4.4917488E-1,
1572092430,2019-10-26 12:20:30.926,-2.1605492E-3,-1.3308525E-3,6.7653656E-3,4.5371056E-4,4.604683E-1,4.6020412E-1,4.5868874E-1,
1572092490,2019-10-26 12:21:30.925,-4.9500465E-3,-4.0619373E-3,4.337311E-3,-2.1994114E-3,4.5019054E-1,4.495163E-1,4.4749165E-1,
1572092550,2019-10-26 12:22:30.926,-5.1207542E-3,-3.9417744E-3,4.4691563E-3,-2.0561218E-3,4.482069E-1,4.4818783E-1,4.4596863E-1,
1572092610,2019-10-26 12:23:30.932,-2.3431778E-3,-1.4379025E-3,7.042885E-3,2.193451E-4,4.5161343E-1,4.5018196E-1,4.475155E-1,
1572092670,2019-10-26 12:24:30.927,-4.3640137E-3,-3.1721592E-3,5.2363873E-3,-1.6815662E-3,4.5067215E-1,4.5031738E-1,4.4972134E-1,
1572092730,2019-10-26 12:25:30.928,-4.49419E-3,-3.6685467E-3,4.6629906E-3,-2.0475388E-3,4.5833492E-1,4.5729446E-1,4.578495E-1,
1572092790,2019-10-26 12:26:30.925,-4.1081905E-3,-3.0386448E-3,4.916191E-3,-1.4638901E-3,4.503641E-1,4.4921684E-1,4.4582844E-1,
1572092850,2019-10-26 12:27:30.966,-2.2845268E-3,-1.2624264E-3,6.900549E-3,3.926754E-4,4.5655346E-1,4.5611954E-1,4.5300865E-1,
1572092910,2019-10-26 12:28:30.925,-4.5444965E-3,-3.4525394E-3,5.1021576E-3,-1.1334419E-3,4.5121574E-1,4.5067787E-1,4.4816685E-1,
1572092970,2019-10-26 12:29:30.925,-2.4056435E-3,-1.0101795E-3,7.182598E-3,4.172325E-4,4.600668E-1,4.5863247E-1,4.570589E-1,
1572093030,2019-10-26 12:30:30.925,-6.946802E-3,-5.6996346E-3,2.828598E-3,-3.992319E-3,4.4469738E-1,4.4407845E-1,4.4162464E-1,
1572093090,2019-10-26 12:31:30.926,-4.7392845E-3,-3.7882328E-3,4.3535233E-3,-2.3281574E-3,4.517479E-1,4.5153713E-1,4.4933224E-1,
1572093150,2019-10-26 12:32:30.925,-4.760027E-3,-3.8559437E-3,4.453659E-3,-1.9733906E-3,4.484234E-1,4.473524E-1,4.4722366E-1,
1572093210,2019-10-26 12:33:30.940,-4.4043064E-3,-3.2172203E-3,4.916191E-3,-1.2886524E-3,4.484024E-1,4.4769955E-1,4.4697094E-1,
1572093270,2019-10-26 12:34:30.925,-2.4888515E-3,-1.5058517E-3,6.618023E-3,4.4608116E-4,4.5031548E-1,4.5022106E-1,4.486189E-1,
1572093330,2019-10-26 12:35:30.925,-2.1805763E-3,-1.8064976E-3,7.0650578E-3,9.622574E-4,4.5581722E-1,4.5472527E-1,4.5288754E-1,
1572093390,2019-10-26 12:36:30.926,-4.831791E-3,-3.9942265E-3,4.8294067E-3,-1.8208027E-3,4.538927E-1,4.5432472E-1,4.5130253E-1,
1572093450,2019-10-26 12:37:30.927,-2.5970936E-3,-1.6682148E-3,6.953001E-3,4.2533875E-4,4.5905304E-1,4.5746803E-1,4.5527458E-1,
1572093510,2019-10-26 12:38:30.925,-2.1941662E-3,-1.5039444E-3,6.5181255E-3,7.033348E-4,4.5126343E-1,4.49728E-1,4.4804955E-1,
1572093570,2019-10-26 12:39:30.925,-6.335497E-3,-5.4762363E-3,2.7384758E-3,-3.7653446E-3,4.4336128E-1,4.4528294E-1,4.4222832E-1,
1572093630,2019-10-26 12:40:30.925,-2.2115707E-3,-1.336813E-3,6.8080425E-3,-6.222725E-5,4.584074E-1,4.5951462E-1,4.5630264E-1,
1572093690,2019-10-26 12:41:30.925,-2.4781227E-3,-1.3124943E-3,6.7224503E-3,3.2234192E-4,4.5761395E-1,4.565344E-1,4.5475674E-1,
1572093750,2019-10-26 12:42:30.925,-6.6657066E-3,-5.7985783E-3,2.800703E-3,-4.0533543E-3,4.4359303E-1,4.405632E-1,4.4111443E-1,
1572093810,2019-10-26 12:43:30.925,-6.706476E-3,-5.7013035E-3,2.4256706E-3,-3.9846897E-3,4.4278145E-1,4.4289207E-1,4.3977356E-1,
1572093870,2019-10-26 12:44:30.925,-5.0058365E-3,-3.736496E-3,4.557848E-3,-2.4683475E-3,4.4845486E-1,4.4826126E-1,4.4527245E-1,
1572093930,2019-10-26 12:45:30.925,-4.8151016E-3,-3.6640167E-3,4.450083E-3,-2.4294853E-3,4.412403E-1,4.3950367E-1,4.370594E-1,
1572093990,2019-10-26 12:46:30.925,-4.9808025E-3,-3.9212704E-3,4.556656E-3,-2.0005703E-3,4.50099E-1,4.49728E-1,4.4743347E-1,
1572094050,2019-10-26 12:47:30.925,-2.2935867E-3,-1.8260479E-3,6.967783E-3,3.20673E-4,4.5677376E-1,4.557886E-1,4.5361423E-1,
1572094110,2019-10-26 12:48:30.925,-4.138708E-3,-3.2045841E-3,5.1050186E-3,-1.2989044E-3,4.482813E-1,4.4883156E-1,4.4824505E-1,
1572094170,2019-10-26 12:49:30.925,-6.6792965E-3,-5.372286E-3,3.1337738E-3,-3.6735535E-3,4.3898678E-1,4.3906593E-1,4.372387E-1,
1572094230,2019-10-26 12:50:30.925,-4.108429E-3,-3.4558773E-3,5.175352E-3,-1.6560555E-3,4.4962883E-1,4.4772148E-1,4.470005E-1,
1572094290,2019-10-26 12:51:30.925,-6.9708824E-3,-5.4461956E-3,3.036499E-3,-4.1229725E-3,4.4459534E-1,4.443636E-1,4.4244862E-1,
1572094350,2019-10-26 12:52:30.926,-6.8740845E-3,-5.658865E-3,2.6874542E-3,-3.9367676E-3,4.441309E-1,4.439268E-1,4.4200802E-1,
1572094410,2019-10-26 12:53:30.925,-4.8696995E-3,-4.024267E-3,4.634142E-3,-2.2935867E-3,4.504137E-1,4.5020676E-1,4.4756126E-1,
1572094470,2019-10-26 12:54:30.925,-3.8335323E-3,-3.2687187E-3,5.411148E-3,-1.4185905E-3,4.4888592E-1,4.4921875E-1,4.4860172E-1,
1572094530,2019-10-26 12:55:30.925,-3.976345E-3,-3.3831596E-3,5.6421757E-3,-1.1832714E-3,4.494028E-1,4.500723E-1,4.4757557E-1,
1572094590,2019-10-26 12:56:30.925,-2.0740032E-3,-1.1789799E-3,7.4784756E-3,3.824234E-4,4.523592E-1,4.5098877E-1,4.4938374E-1,
1572094650,2019-10-26 12:57:30.930,-6.7255497E-3,-5.6414604E-3,2.9211044E-3,-3.913641E-3,4.3927765E-1,4.367237E-1,4.3698597E-1,
1572094710,2019-10-26 12:58:30.925,-6.580591E-3,-5.685091E-3,2.6459694E-3,-4.142046E-3,4.4583416E-1,4.4664E-1,4.444828E-1,
1572094770,2019-10-26 12:59:30.925,-3.992796E-3,-3.3929348E-3,5.0866604E-3,-1.405716E-3,4.5121956E-1,4.5033455E-1,4.4806862E-1,
