Time(longsecs),Time(UTC),External SOH Voltage 1(V),External SOH Voltage 2(V),External SOH Voltage 3(V),External SOH Voltage 4(V),Sensor SOH Voltage 1(V),Sensor SOH Voltage 2(V),Sensor SOH Voltage 3(V),
1572087630,2019-10-26 11:00:30.928,-4.8639774E-3,-4.057169E-3,4.471779E-3,-2.0263195E-3,4.5874596E-1,4.574957E-1,4.5674038E-1,
1572087690,2019-10-26 11:01:30.931,-4.638195E-3,-3.676176E-3,4.6653748E-3,-2.4466515E-3,4.5452595E-1,4.5354652E-1,4.5304203E-1,
1572087750,2019-10-26 11:02:30.925,-4.850626E-3,-4.031658E-3,4.709244E-3,-1.9254684E-3,4.547987E-1,4.5304203E-1,4.523754E-1,
1572087810,2019-10-26 11:03:30.925,-6.505728E-3,-5.292654E-3,2.6240349E-3,-3.931761E-3,4.5274925E-1,4.5198154E-1,4.5105457E-1,
1572087870,2019-10-26 11:04:30.928,-4.6048164E-3,-4.300356E-3,4.7011375E-3,-1.67799E-3,4.5583248E-1,4.5321846E-1,4.5266533E-1,
1572087930,2019-10-26 11:05:30.925,-2.5458336E-3,-1.1548996E-3,6.71196E-3,3.2806396E-4,4.6513176E-1,4.64365E-1,4.619503E-1,
1572087990,2019-10-26 11:06:30.925,-4.892111E-3,-3.8585663E-3,4.643917E-3,-1.9743443E-3,4.4971943E-1,4.480276E-1,4.470234E-1,
1572088050,2019-10-26 11:07:30.925,-2.1460056E-3,-1.3358593E-3,7.35116E-3,3.8313866E-4,4.587202E-1,4.5877457E-1,4.563961E-1,
1572088110,2019-10-26 11:08:30.926,-5.014181E-3,-4.3063164E-3,4.660845E-3,-2.1276474E-3,4.588604E-1,4.574232E-1,4.5500183E-1,
1572088170,2019-10-26 11:09:30.925,-6.5352917E-3,-5.6550503E-3,2.195835E-3,-4.1246414E-3,4.4787312E-1,4.471445E-1,4.4413567E-1,
1572088230,2019-10-26 11:10:30.928,-6.745577E-3,-5.5963993E-3,2.444744E-3,-4.2891502E-3,4.4894886E-1,4.4716835E-1,4.4392586E-1,
1572088290,2019-10-26 11:11:30.925,-6.846428E-3,-5.7628155E-3,2.6221275E-3,-4.2250156E-3,4.4823933E-1,4.472599E-1,4.4506073E-1,
1572088350,2019-10-26 11:12:30.925,-4.50325E-3,-3.6165714E-3,4.9831867E-3,-1.7828941E-3,4.507227E-1,4.4839096E-1,4.4580936E-1,
1572088410,2019-10-26 11:13:30.926,-6.3824654E-3,-5.178213E-3,2.5906563E-3,-3.7708282E-3,4.4746876E-1,4.4681358E-1,4.4435024E-1,
1572088470,2019-10-26 11:14:30.926,-7.081032E-3,-5.9683323E-3,2.7441978E-3,-3.7164688E-3,4.5100212E-1,4.494152E-1,4.4571304E-1,
1572088530,2019-10-26 11:15:30.925,-3.9069653E-3,-2.9981136E-3,4.825592E-3,-1.0631084E-3,4.5632267E-1,4.5492458E-1,4.5384026E-1,
1572088590,2019-10-26 11:16:30.925,-3.7517548E-3,-3.0670166E-3,4.8601627E-3,-1.4750957E-3,4.5379353E-1,4.5197487E-1,4.498844E-1,
1572088650,2019-10-26 11:17:30.925,-6.9260597E-3,-5.8465004E-3,2.7656555E-3,-3.8807392E-3,4.4556808E-1,4.4730377E-1,4.4339848E-1,
1572088710,2019-10-26 11:18:30.927,-6.570101E-3,-5.329609E-3,2.869606E-3,-4.4517517E-3,4.469509E-1,4.4608974E-1,4.4391918E-1,
1572088770,2019-10-26 11:19:30.925,-6.7322254E-3,-5.8631897E-3,2.619505E-3,-4.107237E-3,4.5244694E-1,4.5154667E-1,4.5275593E-1,
1572088830,2019-10-26 11:20:30.925,-2.543211E-3,-1.5156269E-3,6.9150925E-3,3.926754E-4,4.562378E-1,4.5694256E-1,4.53022E-1,
1572088890,2019-10-26 11:21:30.925,-4.1413307E-3,-3.5574436E-3,4.8954487E-3,-1.3849735E-3,4.5316505E-1,4.5264626E-1,4.5150948E-1,
1572088950,2019-10-26 11:22:30.925,-4.4546127E-3,-4.142761E-3,4.261017E-3,-1.8553734E-3,4.5345497E-1,4.5311546E-1,4.5207787E-1,
1572089010,2019-10-26 11:23:30.927,-4.443407E-3,-3.69668E-3,4.178047E-3,-1.7518997E-3,4.542904E-1,4.5331097E-1,4.5125675E-1,
1572089070,2019-10-26 11:24:30.925,-4.4665337E-3,-3.8237572E-3,4.711628E-3,-1.8630028E-3,4.5324802E-1,4.5228767E-1,4.4928455E-1,
1572089130,2019-10-26 11:25:30.926,-3.771782E-3,-3.1664371E-3,5.36108E-3,-1.8770695E-3,4.5578003E-1,4.54175E-1,4.532814E-1,
1572089190,2019-10-26 11:26:30.925,-2.152443E-3,-1.3329983E-3,6.574154E-3,3.0589104E-4,4.609766E-1,4.6025848E-1,4.5700932E-1,
1572089250,2019-10-26 11:27:30.957,-3.90625E-3,-3.1557083E-3,5.670309E-3,-1.4231205E-3,4.556799E-1,4.5536518E-1,4.5435143E-1,
1572089310,2019-10-26 11:28:30.925,-5.158663E-3,-3.9975643E-3,4.602194E-3,-1.8265247E-3,4.5021248E-1,4.493351E-1,4.5043278E-1,
1572089370,2019-10-26 11:29:30.925,-2.3722649E-3,-1.4750957E-3,7.150173E-3,6.0272217E-4,4.5980072E-1,4.588232E-1,4.5601654E-1,
1572089430,2019-10-26 11:30:30.925,-6.6742897E-3,-5.6672096E-3,3.0591488E-3,-3.936529E-3,4.4943047E-1,4.4878578E-1,4.464798E-1,
1572089490,2019-10-26 11:31:30.925,-4.709482E-3,-3.7448406E-3,4.7307014E-3,-2.108097E-3,4.519186E-1,4.5228958E-1,4.481926E-1,
1572089550,2019-10-26 11:32:30.928,-5.1031113E-3,-3.957033E-3,4.7552586E-3,-2.1600723E-3,4.5501328E-1,4.5339394E-1,4.5168304E-1,
1572089610,2019-10-26 11:33:30.925,-4.02689E-3,-3.2436848E-3,4.9450397E-3,-1.6286373E-3,4.5368004E-1,4.5240402E-1,4.5151424E-1,
1572089670,2019-10-26 11:34:30.925,-2.1038055E-3,-1.5881062E-3,7.014036E-3,5.5646896E-4,4.617443E-1,4.6014214E-1,4.5735073E-1,
1572089730,2019-10-26 11:35:30.925,-6.766796E-3,-5.6066513E-3,3.0088425E-3,-3.944397E-3,4.476576E-1,4.4900417E-1,4.4695282E-1,
1572089790,2019-10-26 11:36:30.925,-6.485462E-3,-5.790472E-3,2.7673244E-3,-4.1832924E-3,4.5317173E-1,4.5231247E-1,4.5137882E-1,
1572089850,2019-10-26 11:37:30.925,-4.1093826E-3,-3.4492016E-3,4.834652E-3,-1.4793873E-3,4.5450306E-1,4.5482445E-1,4.5187855E-1,
1572089910,2019-10-26 11:38:30.928,-4.0090084E-3,-2.8295517E-3,5.2289963E-3,-1.4717579E-3,4.539566E-1,4.539051E-1,4.5196438E-1,
1572089970,2019-10-26 11:39:30.925,-6.5534115E-3,-5.806446E-3,2.5463104E-3,-4.172802E-3,4.4255352E-1,4.4194412E-1,4.3955898E-1,
1572090030,2019-10-26 11:40:30.926,-2.5012493E-3,-1.3003349E-3,7.194519E-3,4.491806E-4,4.5907784E-1,4.6096325E-1,4.577217E-1,
1572090090,2019-10-26 11:41:30.926,-4.476309E-3,-3.2396317E-3,5.2189827E-3,-1.1832714E-3,4.6169662E-1,4.597187E-1,4.581995E-1,
1572090150,2019-10-26 11:42:30.926,-4.329443E-3,-3.330946E-3,4.9846172E-3,-1.6343594E-3,4.5089817E-1,4.5060062E-1,4.47567E-1,
1572090210,2019-10-26 11:43:30.925,-3.9384365E-3,-3.3726692E-3,5.1949024E-3,-1.6698837E-3,4.5437145E-1,4.539175E-1,4.5082378E-1,
1572090270,2019-10-26 11:44:30.925,-6.659746E-3,-5.7110786E-3,2.619505E-3,-4.1570663E-3,4.4535542E-1,4.4403076E-1,4.4158745E-1,
1572090330,2019-10-26 11:45:30.925,-4.515648E-3,-3.0448437E-3,5.227089E-3,-1.9016266E-3,4.536047E-1,4.5259285E-1,4.4939995E-1,
1572090390,2019-10-26 11:46:30.926,-4.652977E-3,-3.7558079E-3,4.638672E-3,-2.0046234E-3,4.5117378E-1,4.504099E-1,4.482231E-1,
1572090450,2019-10-26 11:47:30.925,-3.944397E-3,-3.0853748E-3,4.6896935E-3,-1.6095638E-3,4.5514202E-1,4.5464802E-1,4.5258808E-1,
1572090510,2019-10-26 11:48:30.925,-4.380703E-3,-2.857685E-3,5.032778E-3,-1.6491413E-3,4.5293522E-1,4.541893E-1,4.5114803E-1,
1572090570,2019-10-26 11:49:30.925,-6.5279007E-3,-5.3491592E-3,2.9211044E-3,-3.7164688E-3,4.439516E-1,4.4469738E-1,4.435768E-1,
1572090630,2019-10-26 11:50:30.925,-6.828785E-3,-5.6095123E-3,2.7599335E-3,-4.1503906E-3,4.423771E-1,4.423046E-1,4.4120026E-1,
1572090690,2019-10-26 11:51:30.925,-2.1953583E-3,-1.5320778E-3,6.795168E-3,5.7315826E-4,4.5919228E-1,4.5848846E-1,4.5662308E-1,
1572090750,2019-10-26 11:52:30.925,-2.4940968E-3,-1.3155937E-3,6.6902637E-3,3.5858154E-4,4.618187E-1,4.6042728E-1,4.58395E-1,
1572090810,2019-10-26 11:53:30.926,-2.5970936E-3,-1.5347004E-3,7.172346E-3,3.3545494E-4,4.595623E-1,4.5741463E-1,4.5672417E-1,
1572090870,2019-10-26 11:54:30.925,-6.7076683E-3,-5.493641E-3,2.9478073E-3,-3.665924E-3,4.457903E-1,4.4615078E-1,4.4303608E-1,
1572090930,2019-10-26 11:55:30.928,-6.7312717E-3,-5.813122E-3,2.7616024E-3,-3.9186478E-3,4.446373E-1,4.4457054E-1,4.4111156E-1,
1572090990,2019-10-26 11:56:30.925,-4.98271E-3,-3.7455559E-3,4.5104027E-3,-1.954317E-3,4.5257378E-1,4.518137E-1,4.5002365E-1,
1572091050,2019-10-26 11:57:30.925,-6.4344406E-3,-5.8214664E-3,2.888441E-3,-3.6299229E-3,4.4581413E-1,4.4305134E-1,4.4357777E-1,
1572091110,2019-10-26 11:58:30.925,-1.907587E-3,-1.2836456E-3,6.993532E-3,6.556511E-4,4.6096802E-1,4.6119118E-1,4.5959187E-1,
1572091170,2019-10-26 11:59:30.964,-6.6747665E-3,-5.8984756E-3,2.4487972E-3,-3.8073063E-3,4.4410992E-1,4.4400978E-1,4.416933E-1,
