Time(longsecs),Time(UTC),Supply Voltage(mV),Temperature(&deg;C),NMX Bus Current(mA),Sensor Current(mA),Serial Port Current(mA),Controller Current(mA),Digitizer Current(mA),
1572418818,2019-10-30 07:00:18.806,16250,1.3893463E1,0,6,0,64,41,
1572418878,2019-10-30 07:01:18.806,16264,1.3852417E1,0,6,0,38,34,
1572418938,2019-10-30 07:02:18.806,16264,1.4073853E1,0,9,0,39,37,
1572418998,2019-10-30 07:03:18.809,16264,1.4066315E1,0,9,0,40,36,
1572419058,2019-10-30 07:04:18.806,16264,1.4111664E1,0,7,0,48,34,
1572419118,2019-10-30 07:05:18.806,16278,1.3730347E1,0,11,0,40,37,
1572419178,2019-10-30 07:06:18.845,16264,1.3824341E1,0,9,0,39,42,
1572419238,2019-10-30 07:07:18.806,16264,1.3879425E1,0,9,0,39,34,
1572419298,2019-10-30 07:08:18.822,16237,1.3930206E1,0,8,0,39,36,
1572419358,2019-10-30 07:09:18.807,16264,1.4065216E1,0,10,0,33,35,
1572419418,2019-10-30 07:10:18.806,16250,1.4115997E1,0,7,0,38,37,
1572419478,2019-10-30 07:11:18.806,16264,1.3838379E1,0,8,0,38,38,
1572419538,2019-10-30 07:12:18.806,16264,1.4079254E1,0,6,47,38,41,
1572419598,2019-10-30 07:13:18.806,16264,1.3907501E1,0,8,0,40,38,
1572419658,2019-10-30 07:14:18.806,16278,1.37908325E1,0,8,0,33,37,
1572419718,2019-10-30 07:15:18.854,16250,1.3890228E1,0,6,0,39,36,
1572419778,2019-10-30 07:16:18.806,16264,1.3979889E1,0,4,0,39,37,
1572419838,2019-10-30 07:17:18.806,16264,1.42413025E1,0,8,0,38,36,
1572419898,2019-10-30 07:18:18.806,16264,1.391507E1,0,9,0,38,34,
1572419958,2019-10-30 07:19:18.806,16264,1.4009064E1,0,13,0,34,35,
1572420018,2019-10-30 07:20:18.806,16264,1.3986359E1,0,7,0,38,35,
1572420078,2019-10-30 07:21:18.809,16264,1.3921539E1,0,5,0,39,35,
1572420138,2019-10-30 07:22:18.813,16264,1.3841614E1,0,7,0,40,40,
1572420198,2019-10-30 07:23:18.806,16264,1.3911835E1,0,6,0,40,38,
1572420258,2019-10-30 07:24:18.806,16278,1.3946411E1,0,7,0,34,39,
1572420318,2019-10-30 07:25:18.806,16264,1.3894562E1,0,8,0,39,34,
1572420378,2019-10-30 07:26:18.806,16264,1.3970154E1,0,6,0,39,35,
1572420438,2019-10-30 07:27:18.806,16264,1.3775726E1,0,12,0,39,36,
1572420498,2019-10-30 07:28:18.823,16264,1.3822174E1,0,4,0,38,38,
1572420558,2019-10-30 07:29:18.806,16278,1.4003662E1,0,2,0,33,35,
1572420618,2019-10-30 07:30:18.809,16278,1.3768158E1,0,8,0,36,39,
1572420678,2019-10-30 07:31:18.806,16278,1.37152405E1,0,5,0,43,39,
1572420738,2019-10-30 07:32:18.806,16278,1.3907501E1,0,7,0,39,38,
1572420798,2019-10-30 07:33:18.806,16278,1.3958282E1,0,13,0,39,36,
1572420858,2019-10-30 07:34:18.806,16278,1.3946411E1,0,11,0,33,36,
1572420918,2019-10-30 07:35:18.807,16278,1.3870789E1,0,8,0,38,38,
1572420978,2019-10-30 07:36:18.806,16292,1.3971252E1,0,3,0,40,36,
1572421038,2019-10-30 07:37:18.809,16292,1.3973389E1,0,5,0,38,33,
1572421098,2019-10-30 07:38:18.806,16292,1.4022003E1,0,10,0,40,37,
1572421158,2019-10-30 07:39:18.806,16264,1.3748718E1,0,5,0,34,36,
1572421218,2019-10-30 07:40:18.806,16292,1.3951813E1,0,4,0,37,38,
1572421278,2019-10-30 07:41:18.807,16292,1.389563E1,0,7,0,48,36,
1572421338,2019-10-30 07:42:18.807,16292,1.3972321E1,0,6,0,48,37,
1572421398,2019-10-30 07:43:18.809,16292,1.3886993E1,0,7,0,50,38,
1572421458,2019-10-30 07:44:18.806,16278,1.3778961E1,0,7,0,33,38,
1572421518,2019-10-30 07:45:18.807,16305,1.3956116E1,0,9,0,33,35,
1572421578,2019-10-30 07:46:18.806,16292,1.42855835E1,0,10,0,33,37,
1572421638,2019-10-30 07:47:18.809,16278,1.3939911E1,0,8,0,38,36,
1572421698,2019-10-30 07:48:18.809,16292,1.3955048E1,0,2,0,33,37,
1572421758,2019-10-30 07:49:18.806,16292,1.3997162E1,0,2,0,33,37,
1572421818,2019-10-30 07:50:18.807,16292,1.4066315E1,0,2,0,35,38,
1572421878,2019-10-30 07:51:18.806,16292,1.3867554E1,0,6,0,40,35,
1572421938,2019-10-30 07:52:18.806,16292,1.3926941E1,0,9,0,40,36,
1572421998,2019-10-30 07:53:18.807,16278,1.3965851E1,0,6,0,36,39,
1572422058,2019-10-30 07:54:18.806,16292,1.4041443E1,0,8,0,41,33,
1572422118,2019-10-30 07:55:18.807,16305,1.40177E1,0,7,0,38,40,
1572422178,2019-10-30 07:56:18.806,16305,1.3688232E1,0,9,0,38,35,
1572422238,2019-10-30 07:57:18.806,16292,1.4060913E1,0,9,0,38,38,
1572422298,2019-10-30 07:58:18.807,16332,1.3996094E1,0,6,0,35,39,
1572422358,2019-10-30 07:59:18.806,16292,1.3815704E1,0,4,0,35,37,
