Time(longsecs),Time(UTC),Earth Location,GPS Receiver Status,GPS Satellites Used,GPS PDOP,GPS TDOP,Timing Status,Timing Phase Lock,Timing Uncertainty(ns),DAC Count,Timing Error(ns),GPS Last Update Time,
1572411618,2019-10-30 05:00:18.808,47.636246N 0.583854E 197m,Off,6,3.3623424,2.2465,Time OK,Free running,8500,9133,0,2019-10-30 04:50:55.000000000,
1572411678,2019-10-30 05:01:18.806,47.636246N 0.583854E 197m,Off,6,3.3623424,2.2465,Time OK,Free running,9500,9133,0,2019-10-30 04:50:55.000000000,
1572411738,2019-10-30 05:02:18.807,47.636246N 0.583854E 197m,Off,6,3.3623424,2.2465,Time OK,Free running,10300,9133,0,2019-10-30 04:50:55.000000000,
1572411798,2019-10-30 05:03:18.806,47.636246N 0.583854E 197m,Off,6,3.3623424,2.2465,Time OK,Free running,11200,9133,0,2019-10-30 04:50:55.000000000,
1572411858,2019-10-30 05:04:18.806,47.636246N 0.583854E 197m,Off,6,3.3623424,2.2465,Time OK,Free running,12100,9133,0,2019-10-30 04:50:55.000000000,
1572411918,2019-10-30 05:05:18.806,47.636246N 0.583854E 197m,Off,6,3.3623424,2.2465,Time OK,Free running,13000,9133,0,2019-10-30 04:50:55.000000000,
1572411978,2019-10-30 05:06:18.807,47.636246N 0.583854E 197m,Off,6,3.3623424,2.2465,Time OK,Free running,13900,9133,0,2019-10-30 04:50:55.000000000,
1572412038,2019-10-30 05:07:18.806,47.636246N 0.583854E 197m,Off,6,3.3623424,2.2465,Time OK,Free running,14800,9133,0,2019-10-30 04:50:55.000000000,
1572412098,2019-10-30 05:08:18.806,47.636246N 0.583854E 197m,Off,6,3.3623424,2.2465,Time OK,Free running,15600,9133,0,2019-10-30 04:50:55.000000000,
1572412158,2019-10-30 05:09:18.806,47.636246N 0.583854E 197m,Off,6,3.3623424,2.2465,Time OK,Free running,16500,9133,0,2019-10-30 04:50:55.000000000,
1572412218,2019-10-30 05:10:18.806,47.636246N 0.583854E 197m,Off,6,3.3623424,2.2465,Time OK,Free running,17600,9133,0,2019-10-30 04:50:55.000000000,
1572412278,2019-10-30 05:11:18.806,47.636246N 0.583854E 197m,Off,6,3.3623424,2.2465,Time OK,Free running,18600,9133,0,2019-10-30 04:50:55.000000000,
1572412338,2019-10-30 05:12:18.806,47.636246N 0.583854E 197m,Off,6,3.3623424,2.2465,Time OK,Free running,19500,9133,0,2019-10-30 04:50:55.000000000,
1572412398,2019-10-30 05:13:18.806,47.636246N 0.583854E 197m,Off,6,3.3623424,2.2465,Time OK,Free running,20600,9133,0,2019-10-30 04:50:55.000000000,
1572412458,2019-10-30 05:14:18.806,47.636246N 0.583854E 197m,Off,6,3.3623424,2.2465,Time OK,Free running,21500,9133,0,2019-10-30 04:50:55.000000000,
1572412518,2019-10-30 05:15:18.806,47.636246N 0.583854E 197m,Off,6,3.3623424,2.2465,Time OK,Free running,22300,9133,0,2019-10-30 04:50:55.000000000,
1572412578,2019-10-30 05:16:18.807,47.636246N 0.583854E 197m,Off,6,3.3623424,2.2465,Time OK,Free running,23400,9133,0,2019-10-30 04:50:55.000000000,
1572412638,2019-10-30 05:17:18.809,47.636246N 0.583854E 197m,Off,6,3.3623424,2.2465,Time OK,Free running,24400,9133,0,2019-10-30 04:50:55.000000000,
1572412698,2019-10-30 05:18:18.812,47.636246N 0.583854E 197m,Off,6,3.3623424,2.2465,Time OK,Free running,25200,9133,0,2019-10-30 04:50:55.000000000,
1572412758,2019-10-30 05:19:18.806,47.636246N 0.583854E 197m,Off,6,3.3623424,2.2465,Time OK,Free running,26200,9133,0,2019-10-30 04:50:55.000000000,
1572412818,2019-10-30 05:20:18.818,47.636246N 0.583854E 197m,Off,6,3.3623424,2.2465,Time OK,Free running,27200,9133,0,2019-10-30 04:50:55.000000000,
1572412878,2019-10-30 05:21:18.806,47.636246N 0.583854E 197m,Off,6,3.3623424,2.2465,Time OK,Free running,28000,9133,0,2019-10-30 04:50:55.000000000,
1572412938,2019-10-30 05:22:18.806,47.636246N 0.583854E 197m,Off,6,3.3623424,2.2465,Time OK,Free running,28900,9133,0,2019-10-30 04:50:55.000000000,
1572412998,2019-10-30 05:23:18.807,47.636246N 0.583854E 197m,Off,6,3.3623424,2.2465,Time OK,Free running,29700,9133,0,2019-10-30 04:50:55.000000000,
1572413058,2019-10-30 05:24:18.806,47.636246N 0.583854E 197m,Off,6,3.3623424,2.2465,Time OK,Free running,30600,9133,0,2019-10-30 04:50:55.000000000,
1572413118,2019-10-30 05:25:18.806,47.636246N 0.583854E 197m,Off,6,3.3623424,2.2465,Time OK,Free running,31800,9133,0,2019-10-30 04:50:55.000000000,
1572413178,2019-10-30 05:26:18.807,47.636246N 0.583854E 197m,Off,6,3.3623424,2.2465,Time OK,Free running,32600,9133,0,2019-10-30 04:50:55.000000000,
1572413238,2019-10-30 05:27:18.806,47.636246N 0.583854E 197m,Off,6,3.3623424,2.2465,Time OK,Free running,33400,9133,0,2019-10-30 04:50:55.000000000,
1572413298,2019-10-30 05:28:18.806,47.636246N 0.583854E 197m,Off,6,3.3623424,2.2465,Time OK,Free running,34600,9133,0,2019-10-30 04:50:55.000000000,
1572413358,2019-10-30 05:29:18.806,47.636246N 0.583854E 197m,Off,6,3.3623424,2.2465,Time OK,Free running,35500,9133,0,2019-10-30 04:50:55.000000000,
1572413418,2019-10-30 05:30:18.806,47.636246N 0.583854E 197m,Off,6,3.3623424,2.2465,Time OK,Free running,36300,9133,0,2019-10-30 04:50:55.000000000,
1572413478,2019-10-30 05:31:18.806,47.636246N 0.583854E 197m,Off,6,3.3623424,2.2465,Time OK,Free running,37300,9133,0,2019-10-30 04:50:55.000000000,
1572413538,2019-10-30 05:32:18.806,47.636246N 0.583854E 197m,Off,6,3.3623424,2.2465,Time OK,Free running,38100,9133,0,2019-10-30 04:50:55.000000000,
1572413598,2019-10-30 05:33:18.806,47.636246N 0.583854E 197m,Off,6,3.3623424,2.2465,Time OK,Free running,39000,9133,0,2019-10-30 04:50:55.000000000,
1572413658,2019-10-30 05:34:18.806,47.636246N 0.583854E 197m,Off,6,3.3623424,2.2465,Time OK,Free running,40000,9133,0,2019-10-30 04:50:55.000000000,
1572413718,2019-10-30 05:35:18.806,47.636246N 0.583854E 197m,Off,6,3.3623424,2.2465,Time OK,Free running,41200,9133,0,2019-10-30 04:50:55.000000000,
1572413778,2019-10-30 05:36:18.807,47.636246N 0.583854E 197m,Off,6,3.3623424,2.2465,Time OK,Free running,42300,9133,0,2019-10-30 04:50:55.000000000,
1572413838,2019-10-30 05:37:18.806,47.636246N 0.583854E 197m,Off,6,3.3623424,2.2465,Time OK,Free running,43300,9133,0,2019-10-30 04:50:55.000000000,
1572413898,2019-10-30 05:38:18.806,47.636246N 0.583854E 197m,Off,6,3.3623424,2.2465,Time OK,Free running,44300,9133,0,2019-10-30 04:50:55.000000000,
1572413958,2019-10-30 05:39:18.806,47.636246N 0.583854E 197m,Off,6,3.3623424,2.2465,Time OK,Free running,45200,9133,0,2019-10-30 04:50:55.000000000,
1572414018,2019-10-30 05:40:18.806,47.636246N 0.583854E 197m,Off,6,3.3623424,2.2465,Time OK,Free running,46200,9133,0,2019-10-30 04:50:55.000000000,
1572414078,2019-10-30 05:41:18.806,47.636246N 0.583854E 197m,Off,6,3.3623424,2.2465,Time OK,Free running,47100,9133,0,2019-10-30 04:50:55.000000000,
1572414138,2019-10-30 05:42:18.806,47.636246N 0.583854E 197m,Off,6,3.3623424,2.2465,Time OK,Free running,48100,9133,0,2019-10-30 04:50:55.000000000,
1572414198,2019-10-30 05:43:18.806,47.636246N 0.583854E 197m,Off,6,3.3623424,2.2465,Time OK,Free running,49300,9133,0,2019-10-30 04:50:55.000000000,
1572414258,2019-10-30 05:44:18.809,47.636246N 0.583854E 197m,Off,6,3.3623424,2.2465,Time OK,Free running,50400,9133,0,2019-10-30 04:50:55.000000000,
1572414318,2019-10-30 05:45:18.809,47.636246N 0.583854E 197m,Doing fixes,5,3.9856706,2.9476078,Time OK,Coarse lock,100,7638,26354,2019-10-30 05:45:15.000000000,
1572414378,2019-10-30 05:46:18.807,47.636246N 0.583854E 197m,Doing fixes,5,3.9453108,2.9109826,Time OK,Coarse lock,100,9141,-208,2019-10-30 05:46:15.000000000,
1572414438,2019-10-30 05:47:18.807,47.636246N 0.583854E 197m,Doing fixes,6,1.9549583,1.0166873,Time OK,Fine lock,100,9112,104,2019-10-30 05:47:15.000000000,
1572414498,2019-10-30 05:48:18.807,47.636246N 0.583854E 197m,Doing fixes,6,3.6714444,2.2912662,Time OK,Fine lock,100,9106,104,2019-10-30 05:48:15.000000000,
1572414558,2019-10-30 05:49:18.822,47.636246N 0.583854E 197m,Doing fixes,6,3.1230545,1.7730132,Time OK,Fine lock,100,9118,0,2019-10-30 05:49:15.000000000,
1572414618,2019-10-30 05:50:18.807,47.636246N 0.583854E 197m,Doing fixes,5,2.7377408,1.791351,Time OK,Fine lock,100,9121,0,2019-10-30 05:50:15.000000000,
1572414678,2019-10-30 05:51:18.806,47.636246N 0.583854E 197m,Off,5,2.732102,1.785786,Time OK,Free running,500,9120,0,2019-10-30 05:50:45.000000000,
1572414738,2019-10-30 05:52:18.806,47.636246N 0.583854E 197m,Off,5,2.732102,1.785786,Time OK,Free running,1300,9120,0,2019-10-30 05:50:45.000000000,
1572414798,2019-10-30 05:53:18.806,47.636246N 0.583854E 197m,Off,5,2.732102,1.785786,Time OK,Free running,2200,9120,0,2019-10-30 05:50:45.000000000,
1572414858,2019-10-30 05:54:18.806,47.636246N 0.583854E 197m,Off,5,2.732102,1.785786,Time OK,Free running,3300,9120,0,2019-10-30 05:50:45.000000000,
1572414918,2019-10-30 05:55:18.806,47.636246N 0.583854E 197m,Off,5,2.732102,1.785786,Time OK,Free running,4100,9120,0,2019-10-30 05:50:45.000000000,
1572414978,2019-10-30 05:56:18.806,47.636246N 0.583854E 197m,Off,5,2.732102,1.785786,Time OK,Free running,4900,9120,0,2019-10-30 05:50:45.000000000,
1572415038,2019-10-30 05:57:18.806,47.636246N 0.583854E 197m,Off,5,2.732102,1.785786,Time OK,Free running,5900,9120,0,2019-10-30 05:50:45.000000000,
1572415098,2019-10-30 05:58:18.806,47.636246N 0.583854E 197m,Off,5,2.732102,1.785786,Time OK,Free running,6800,9120,0,2019-10-30 05:50:45.000000000,
1572415158,2019-10-30 05:59:18.806,47.636246N 0.583854E 197m,Off,5,2.732102,1.785786,Time OK,Free running,7600,9120,0,2019-10-30 05:50:45.000000000,
