Time(longsecs),Time(UTC),Earth Location,GPS Receiver Status,GPS Satellites Used,GPS PDOP,GPS TDOP,Timing Status,Timing Phase Lock,Timing Uncertainty(ns),DAC Count,Timing Error(ns),GPS Last Update Time,
1572433218,2019-10-30 11:00:18.807,47.636214N 0.583908E 193m,Off,8,2.0904603,1.3149229,Time OK,Free running,37800,9150,0,2019-10-30 10:40:45.000000000,
1572433278,2019-10-30 11:01:18.806,47.636214N 0.583908E 193m,Off,8,2.0904603,1.3149229,Time OK,Free running,40600,9150,0,2019-10-30 10:40:45.000000000,
1572433338,2019-10-30 11:02:18.806,47.636214N 0.583908E 193m,Off,8,2.0904603,1.3149229,Time OK,Free running,43800,9150,0,2019-10-30 10:40:45.000000000,
1572433398,2019-10-30 11:03:18.806,47.636214N 0.583908E 193m,Off,8,2.0904603,1.3149229,Time OK,Free running,47000,9150,0,2019-10-30 10:40:45.000000000,
1572433458,2019-10-30 11:04:18.807,47.636214N 0.583908E 193m,Off,8,2.0904603,1.3149229,Time OK,Free running,50200,9150,0,2019-10-30 10:40:45.000000000,
1572433518,2019-10-30 11:05:18.807,47.636214N 0.583908E 193m,Doing fixes,7,3.7917886,2.808844,Time OK,Coarse lock,100,9796,-6354,2019-10-30 11:05:16.000000000,
1572433578,2019-10-30 11:06:18.807,47.636214N 0.583908E 193m,Doing fixes,8,3.149323,2.216655,Time OK,Coarse lock,100,9156,104,2019-10-30 11:06:16.000000000,
1572433638,2019-10-30 11:07:18.807,47.636214N 0.583908E 193m,Doing fixes,7,3.7316942,2.7564802,Time OK,Fine lock,100,9165,0,2019-10-30 11:07:16.000000000,
1572433698,2019-10-30 11:08:18.806,47.636214N 0.583908E 193m,Off,7,3.262124,2.2177908,Time OK,Free running,100,9168,0,2019-10-30 11:08:16.000000000,
1572433758,2019-10-30 11:09:18.806,47.636214N 0.583908E 193m,Off,7,3.262124,2.2177908,Time OK,Free running,1100,9168,0,2019-10-30 11:08:16.000000000,
1572433818,2019-10-30 11:10:18.806,47.636214N 0.583908E 193m,Off,7,3.262124,2.2177908,Time OK,Free running,2200,9168,0,2019-10-30 11:08:16.000000000,
1572433878,2019-10-30 11:11:18.807,47.636214N 0.583908E 193m,Off,7,3.262124,2.2177908,Time OK,Free running,3200,9168,0,2019-10-30 11:08:16.000000000,
1572433938,2019-10-30 11:12:18.806,47.636214N 0.583908E 193m,Off,7,3.262124,2.2177908,Time OK,Free running,4200,9168,0,2019-10-30 11:08:16.000000000,
1572433998,2019-10-30 11:13:18.806,47.636214N 0.583908E 193m,Off,7,3.262124,2.2177908,Time OK,Free running,5800,9168,0,2019-10-30 11:08:16.000000000,
1572434058,2019-10-30 11:14:18.806,47.636214N 0.583908E 193m,Off,7,3.262124,2.2177908,Time OK,Free running,7500,9168,0,2019-10-30 11:08:16.000000000,
1572434118,2019-10-30 11:15:18.806,47.636214N 0.583908E 193m,Off,7,3.262124,2.2177908,Time OK,Free running,9100,9168,0,2019-10-30 11:08:16.000000000,
1572434178,2019-10-30 11:16:18.806,47.636214N 0.583908E 193m,Off,7,3.262124,2.2177908,Time OK,Free running,10900,9168,0,2019-10-30 11:08:16.000000000,
1572434238,2019-10-30 11:17:18.831,47.636214N 0.583908E 193m,Off,7,3.262124,2.2177908,Time OK,Free running,12700,9168,0,2019-10-30 11:08:16.000000000,
1572434298,2019-10-30 11:18:18.806,47.636214N 0.583908E 193m,Off,7,3.262124,2.2177908,Time OK,Free running,14500,9168,0,2019-10-30 11:08:16.000000000,
1572434358,2019-10-30 11:19:18.806,47.636214N 0.583908E 193m,Off,7,3.262124,2.2177908,Time OK,Free running,16500,9168,0,2019-10-30 11:08:16.000000000,
1572434418,2019-10-30 11:20:18.807,47.636214N 0.583908E 193m,Off,7,3.262124,2.2177908,Time OK,Free running,18400,9168,0,2019-10-30 11:08:16.000000000,
1572434478,2019-10-30 11:21:18.806,47.636214N 0.583908E 193m,Off,7,3.262124,2.2177908,Time OK,Free running,20500,9168,0,2019-10-30 11:08:16.000000000,
1572434538,2019-10-30 11:22:18.807,47.636214N 0.583908E 193m,Off,7,3.262124,2.2177908,Time OK,Free running,22900,9168,0,2019-10-30 11:08:16.000000000,
1572434598,2019-10-30 11:23:18.806,47.636214N 0.583908E 193m,Off,7,3.262124,2.2177908,Time OK,Free running,25200,9168,0,2019-10-30 11:08:16.000000000,
1572434658,2019-10-30 11:24:18.807,47.636214N 0.583908E 193m,Off,7,3.262124,2.2177908,Time OK,Free running,27500,9168,0,2019-10-30 11:08:16.000000000,
1572434718,2019-10-30 11:25:18.806,47.636214N 0.583908E 193m,Off,7,3.262124,2.2177908,Time OK,Free running,29600,9168,0,2019-10-30 11:08:16.000000000,
1572434778,2019-10-30 11:26:18.806,47.636214N 0.583908E 193m,Off,7,3.262124,2.2177908,Time OK,Free running,31900,9168,0,2019-10-30 11:08:16.000000000,
1572434838,2019-10-30 11:27:18.823,47.636214N 0.583908E 193m,Off,7,3.262124,2.2177908,Time OK,Free running,34400,9168,0,2019-10-30 11:08:16.000000000,
1572434898,2019-10-30 11:28:18.806,47.636214N 0.583908E 193m,Off,7,3.262124,2.2177908,Time OK,Free running,36900,9168,0,2019-10-30 11:08:16.000000000,
1572434958,2019-10-30 11:29:18.807,47.636214N 0.583908E 193m,Off,7,3.262124,2.2177908,Time OK,Free running,39600,9168,0,2019-10-30 11:08:16.000000000,
1572435018,2019-10-30 11:30:18.806,47.636214N 0.583908E 193m,Off,7,3.262124,2.2177908,Time OK,Free running,42200,9168,0,2019-10-30 11:08:16.000000000,
1572435078,2019-10-30 11:31:18.807,47.636214N 0.583908E 193m,Off,7,3.262124,2.2177908,Time OK,Free running,45100,9168,0,2019-10-30 11:08:16.000000000,
1572435138,2019-10-30 11:32:18.806,47.636214N 0.583908E 193m,Off,7,3.262124,2.2177908,Time OK,Free running,48200,9168,0,2019-10-30 11:08:16.000000000,
1572435198,2019-10-30 11:33:18.806,47.636214N 0.583908E 193m,Off,7,3.262124,2.2177908,Time OK,Free running,51000,9168,0,2019-10-30 11:08:16.000000000,
1572435258,2019-10-30 11:34:18.807,47.636214N 0.583908E 193m,No GPS time,7,3.262124,2.2177908,Time OK,Free running,53600,9168,0,2019-10-30 11:08:16.000000000,
1572435318,2019-10-30 11:35:18.807,47.636214N 0.583908E 193m,Doing fixes,7,3.0313382,2.018358,Time OK,Fine lock,100,9072,-208,2019-10-30 11:35:15.000000000,
1572435378,2019-10-30 11:36:18.807,47.636214N 0.583908E 193m,Doing fixes,6,3.141882,2.1377401,Time OK,Fine lock,100,9121,0,2019-10-30 11:36:15.000000000,
1572435438,2019-10-30 11:37:18.806,47.636214N 0.583908E 193m,Off,7,3.0120406,1.9966685,Time OK,Free running,600,9121,0,2019-10-30 11:36:35.000000000,
1572435498,2019-10-30 11:38:18.806,47.636214N 0.583908E 193m,Off,7,3.0120406,1.9966685,Time OK,Free running,1600,9121,0,2019-10-30 11:36:35.000000000,
1572435558,2019-10-30 11:39:18.806,47.636214N 0.583908E 193m,Off,7,3.0120406,1.9966685,Time OK,Free running,2600,9121,0,2019-10-30 11:36:35.000000000,
1572435618,2019-10-30 11:40:18.806,47.636214N 0.583908E 193m,Off,7,3.0120406,1.9966685,Time OK,Free running,3400,9121,0,2019-10-30 11:36:35.000000000,
1572435678,2019-10-30 11:41:18.807,47.636214N 0.583908E 193m,Off,7,3.0120406,1.9966685,Time OK,Free running,4300,9121,0,2019-10-30 11:36:35.000000000,
1572435738,2019-10-30 11:42:18.806,47.636214N 0.583908E 193m,Off,7,3.0120406,1.9966685,Time OK,Free running,5200,9121,0,2019-10-30 11:36:35.000000000,
1572435798,2019-10-30 11:43:18.807,47.636214N 0.583908E 193m,Off,7,3.0120406,1.9966685,Time OK,Free running,6200,9121,0,2019-10-30 11:36:35.000000000,
1572435858,2019-10-30 11:44:18.806,47.636214N 0.583908E 193m,Off,7,3.0120406,1.9966685,Time OK,Free running,7200,9121,0,2019-10-30 11:36:35.000000000,
1572435918,2019-10-30 11:45:18.840,47.636214N 0.583908E 193m,Off,7,3.0120406,1.9966685,Time OK,Free running,8400,9121,0,2019-10-30 11:36:35.000000000,
1572435978,2019-10-30 11:46:18.806,47.636214N 0.583908E 193m,Off,7,3.0120406,1.9966685,Time OK,Free running,9900,9121,0,2019-10-30 11:36:35.000000000,
1572436038,2019-10-30 11:47:18.843,47.636214N 0.583908E 193m,Off,7,3.0120406,1.9966685,Time OK,Free running,11200,9121,0,2019-10-30 11:36:35.000000000,
1572436098,2019-10-30 11:48:18.806,47.636214N 0.583908E 193m,Off,7,3.0120406,1.9966685,Time OK,Free running,12500,9121,0,2019-10-30 11:36:35.000000000,
1572436158,2019-10-30 11:49:18.806,47.636214N 0.583908E 193m,Off,7,3.0120406,1.9966685,Time OK,Free running,13700,9121,0,2019-10-30 11:36:35.000000000,
1572436218,2019-10-30 11:50:18.807,47.636214N 0.583908E 193m,Off,7,3.0120406,1.9966685,Time OK,Free running,14900,9121,0,2019-10-30 11:36:35.000000000,
1572436278,2019-10-30 11:51:18.806,47.636214N 0.583908E 193m,Off,7,3.0120406,1.9966685,Time OK,Free running,16500,9121,0,2019-10-30 11:36:35.000000000,
1572436338,2019-10-30 11:52:18.806,47.636214N 0.583908E 193m,Off,7,3.0120406,1.9966685,Time OK,Free running,18100,9121,0,2019-10-30 11:36:35.000000000,
1572436398,2019-10-30 11:53:18.809,47.636214N 0.583908E 193m,Off,7,3.0120406,1.9966685,Time OK,Free running,19700,9121,0,2019-10-30 11:36:35.000000000,
1572436458,2019-10-30 11:54:18.806,47.636214N 0.583908E 193m,Off,7,3.0120406,1.9966685,Time OK,Free running,21500,9121,0,2019-10-30 11:36:35.000000000,
1572436518,2019-10-30 11:55:18.845,47.636214N 0.583908E 193m,Off,7,3.0120406,1.9966685,Time OK,Free running,23300,9121,0,2019-10-30 11:36:35.000000000,
1572436578,2019-10-30 11:56:18.806,47.636214N 0.583908E 193m,Off,7,3.0120406,1.9966685,Time OK,Free running,25100,9121,0,2019-10-30 11:36:35.000000000,
1572436638,2019-10-30 11:57:18.806,47.636214N 0.583908E 193m,Off,7,3.0120406,1.9966685,Time OK,Free running,27300,9121,0,2019-10-30 11:36:35.000000000,
1572436698,2019-10-30 11:58:18.806,47.636214N 0.583908E 193m,Off,7,3.0120406,1.9966685,Time OK,Free running,29400,9121,0,2019-10-30 11:36:35.000000000,
1572436758,2019-10-30 11:59:18.806,47.636214N 0.583908E 193m,Off,7,3.0120406,1.9966685,Time OK,Free running,31400,9121,0,2019-10-30 11:36:35.000000000,
