Time(longsecs),Time(UTC),External SOH Voltage 1(V),External SOH Voltage 2(V),External SOH Voltage 3(V),External SOH Voltage 4(V),Sensor SOH Voltage 1(V),Sensor SOH Voltage 2(V),Sensor SOH Voltage 3(V),
1572454818,2019-10-30 17:00:18.806,-1.2085676E-2,-9.434223E-4,-5.125046E-3,-4.8322678E-3,2.6283455E-1,2.6548386E-1,2.6490498E-1,
1572454878,2019-10-30 17:01:18.807,-1.0175467E-2,1.1940002E-3,-3.6263466E-3,-2.7692318E-3,2.6895046E-1,2.717371E-1,2.7058983E-1,
1572454938,2019-10-30 17:02:18.806,-1.1808395E-2,-1.0752678E-3,-5.0837994E-3,-5.0344467E-3,2.6461983E-1,2.6639366E-1,2.6680374E-1,
1572454998,2019-10-30 17:03:18.806,-1.002121E-2,7.0858E-4,-3.2789707E-3,-3.0443668E-3,2.682209E-1,2.6971626E-1,2.6938438E-1,
1572455058,2019-10-30 17:04:18.806,-9.968519E-3,1.5172958E-3,-3.0772686E-3,-2.679348E-3,2.6912022E-1,2.7129364E-1,2.693491E-1,
1572455118,2019-10-30 17:05:18.806,-9.67741E-3,1.3034344E-3,-2.9213428E-3,-2.4940968E-3,2.7035904E-1,2.7342606E-1,2.7200317E-1,
1572455178,2019-10-30 17:06:18.806,-1.01614E-2,4.749298E-4,-3.1130314E-3,-2.9790401E-3,2.7149773E-1,2.735281E-1,2.743616E-1,
1572455238,2019-10-30 17:07:18.806,-1.1917114E-2,-1.0707378E-3,-4.878044E-3,-4.3525696E-3,2.61302E-1,2.640152E-1,2.6474094E-1,
1572455298,2019-10-30 17:08:18.806,-1.0003805E-2,7.1907043E-4,-3.2224655E-3,-2.8305054E-3,2.7068043E-1,2.7383232E-1,2.728758E-1,
1572455358,2019-10-30 17:09:18.806,-1.038909E-2,5.7315826E-4,-3.592968E-3,-2.8808117E-3,2.7059555E-1,2.7259254E-1,2.7291107E-1,
1572455418,2019-10-30 17:10:18.806,-9.587765E-3,1.2905598E-3,-2.7844906E-3,-2.1140575E-3,2.689247E-1,2.717495E-1,2.6957703E-1,
1572455478,2019-10-30 17:11:18.807,-1.0258675E-2,1.0128021E-3,-3.5569668E-3,-2.973795E-3,2.654419E-1,2.686863E-1,2.6681042E-1,
1572455538,2019-10-30 17:12:18.806,-9.874582E-3,1.6384125E-3,-2.9995441E-3,-2.094984E-3,2.696991E-1,2.721014E-1,2.7182198E-1,
1572455598,2019-10-30 17:13:18.806,-7.90143E-3,3.0500889E-3,-1.3780594E-3,-4.3177605E-4,2.770691E-1,2.794733E-1,2.7973366E-1,
1572455658,2019-10-30 17:14:18.806,-9.967804E-3,7.5531006E-4,-3.4298897E-3,-2.9466152E-3,2.6861668E-1,2.7186394E-1,2.7018738E-1,
1572455718,2019-10-30 17:15:18.831,-9.527683E-3,9.987354E-4,-3.0984879E-3,-2.3167133E-3,2.6748657E-1,2.7072525E-1,2.700281E-1,
1572455778,2019-10-30 17:16:18.845,-1.2221813E-2,-1.1558533E-3,-5.4540634E-3,-4.7574043E-3,2.6295948E-1,2.6520538E-1,2.6497173E-1,
1572455838,2019-10-30 17:17:18.809,-7.548094E-3,3.2060146E-3,-1.1994839E-3,-3.5953522E-4,2.7346134E-1,2.767372E-1,2.7478027E-1,
1572455898,2019-10-30 17:18:18.806,-1.0154963E-2,6.301403E-4,-3.0925274E-3,-2.62928E-3,2.689247E-1,2.7183056E-1,2.7157974E-1,
1572455958,2019-10-30 17:19:18.807,-1.0286808E-2,7.97987E-4,-3.5877228E-3,-3.3755302E-3,2.6757526E-1,2.6996517E-1,2.7023125E-1,
1572456018,2019-10-30 17:20:18.806,-1.1902094E-2,-1.3213158E-3,-5.4559708E-3,-5.043268E-3,2.633295E-1,2.6613617E-1,2.6617718E-1,
1572456078,2019-10-30 17:21:18.807,-1.2430906E-2,-1.0101795E-3,-5.07164E-3,-5.05352E-3,2.6236343E-1,2.6524162E-1,2.6529884E-1,
1572456138,2019-10-30 17:22:18.809,-1.2105703E-2,-1.3818741E-3,-5.0907135E-3,-4.7211647E-3,2.633648E-1,2.6640224E-1,2.65975E-1,
1572456198,2019-10-30 17:23:18.806,-7.749796E-3,3.3435822E-3,-1.0983944E-3,-6.13451E-4,2.7579117E-1,2.792654E-1,2.775936E-1,
1572456258,2019-10-30 17:24:18.807,-1.0002375E-2,1.1503696E-3,-2.8998852E-3,-2.1631718E-3,2.696991E-1,2.7251816E-1,2.7206707E-1,
1572456318,2019-10-30 17:25:18.806,-9.8695755E-3,6.6185E-4,-3.5908222E-3,-2.5103092E-3,2.675085E-1,2.7021027E-1,2.687111E-1,
1572456378,2019-10-30 17:26:18.806,-1.2150526E-2,-1.2681484E-3,-4.981756E-3,-5.174637E-3,2.6109886E-1,2.6307106E-1,2.627163E-1,
1572456438,2019-10-30 17:27:18.844,-1.02648735E-2,3.1256676E-4,-3.2887459E-3,-2.875328E-3,2.6731586E-1,2.7034664E-1,2.6959896E-1,
1572456498,2019-10-30 17:28:18.806,-7.927656E-3,3.2644272E-3,-1.5113354E-3,-3.7002563E-4,2.73777E-1,2.7592564E-1,2.7513123E-1,
1572456558,2019-10-30 17:29:18.807,-7.766962E-3,2.9866695E-3,-1.1098385E-3,-4.9209595E-4,2.7638245E-1,2.779789E-1,2.769451E-1,
1572456618,2019-10-30 17:30:18.806,-8.118153E-3,3.064394E-3,-1.2845993E-3,-7.009506E-4,2.7741432E-1,2.7908134E-1,2.7817154E-1,
1572456678,2019-10-30 17:31:18.806,-1.0108709E-2,5.235672E-4,-3.4894943E-3,-3.093481E-3,2.687111E-1,2.706499E-1,2.7065563E-1,
1572456738,2019-10-30 17:32:18.809,-7.763624E-3,3.3435822E-3,-1.3151169E-3,-6.2584877E-4,2.74045E-1,2.7590942E-1,2.7592564E-1,
1572456798,2019-10-30 17:33:18.806,-1.2135267E-2,-1.1737347E-3,-5.354643E-3,-4.788637E-3,2.6146984E-1,2.647333E-1,2.6411152E-1,
1572456858,2019-10-30 17:34:18.806,-1.2197256E-2,-9.841919E-4,-5.198717E-3,-4.9140453E-3,2.6591778E-1,2.680769E-1,2.6635742E-1,
1572456918,2019-10-30 17:35:18.806,-9.59897E-3,1.6672611E-3,-2.6648045E-3,-2.131462E-3,2.6930714E-1,2.7167892E-1,2.694149E-1,
1572456978,2019-10-30 17:36:18.806,-1.0699987E-2,1.9693375E-4,-3.6354065E-3,-2.9790401E-3,2.6619625E-1,2.6891994E-1,2.684164E-1,
1572457038,2019-10-30 17:37:18.809,-9.443283E-3,1.21212E-3,-3.0443668E-3,-2.380371E-3,2.6756287E-1,2.6995182E-1,2.7050972E-1,
1572457098,2019-10-30 17:38:18.806,-1.0071516E-2,1.4557838E-3,-2.826929E-3,-2.575159E-3,2.675686E-1,2.7069378E-1,2.6932812E-1,
1572457158,2019-10-30 17:39:18.807,-9.734631E-3,1.3656616E-3,-3.109932E-3,-2.3989677E-3,2.692957E-1,2.722683E-1,2.730856E-1,
1572457218,2019-10-30 17:40:18.836,-1.02648735E-2,4.0602684E-4,-3.6287308E-3,-3.0052662E-3,2.6779747E-1,2.6965714E-1,2.6918983E-1,
1572457278,2019-10-30 17:41:18.806,-9.987593E-3,6.5231323E-4,-3.4489632E-3,-2.8150082E-3,2.6628017E-1,2.6956367E-1,2.678051E-1,
1572457338,2019-10-30 17:42:18.806,-7.839918E-3,3.0112267E-3,-8.75473E-4,-2.69413E-4,2.747078E-1,2.771082E-1,2.7600098E-1,
1572457398,2019-10-30 17:43:18.807,-1.2009144E-2,-8.261204E-4,-5.4638386E-3,-4.747629E-3,2.6519203E-1,2.6841354E-1,2.667303E-1,
1572457458,2019-10-30 17:44:18.807,-9.935617E-3,3.9839745E-4,-3.0474663E-3,-2.9318333E-3,2.6454544E-1,2.6748085E-1,2.6764202E-1,
1572457518,2019-10-30 17:45:18.811,-9.364843E-3,1.4750957E-3,-2.9976368E-3,-2.9160976E-3,2.6928234E-1,2.7239132E-1,2.71533E-1,
1572457578,2019-10-30 17:46:18.806,-1.0545731E-2,5.3191185E-4,-3.56102E-3,-2.5520325E-3,2.6643562E-1,2.6980305E-1,2.6894188E-1,
1572457638,2019-10-30 17:47:18.806,-1.0448694E-2,7.9107285E-4,-3.5891533E-3,-3.1440258E-3,2.6942062E-1,2.7256298E-1,2.7123547E-1,
1572457698,2019-10-30 17:48:18.806,-1.2048721E-2,-9.91106E-4,-5.4335594E-3,-4.94051E-3,2.613144E-1,2.6542568E-1,2.636795E-1,
1572457758,2019-10-30 17:49:18.818,-9.836912E-3,1.5156269E-3,-2.753973E-3,-2.444744E-3,2.7052402E-1,2.7370167E-1,2.746973E-1,
1572457818,2019-10-30 17:50:18.806,-1.0376692E-2,6.928444E-4,-3.7004948E-3,-3.2420158E-3,2.667656E-1,2.70154E-1,2.7039146E-1,
1572457878,2019-10-30 17:51:18.806,-1.0003805E-2,9.162426E-4,-3.4339428E-3,-3.358841E-3,2.6591778E-1,2.6885414E-1,2.6910114E-1,
1572457938,2019-10-30 17:52:18.806,-1.1790752E-2,-6.6041946E-4,-5.307436E-3,-4.658699E-3,2.662239E-1,2.6826572E-1,2.682066E-1,
1572457998,2019-10-30 17:53:18.806,-1.0121822E-2,9.393692E-4,-3.5834312E-3,-3.2947063E-3,2.667408E-1,2.6881027E-1,2.690544E-1,
1572458058,2019-10-30 17:54:18.807,-9.365797E-3,1.3697147E-3,-2.5057793E-3,-1.9938946E-3,2.6826572E-1,2.7031422E-1,2.713461E-1,
1572458118,2019-10-30 17:55:18.806,-1.0187149E-2,6.737709E-4,-3.5717487E-3,-2.8808117E-3,2.71883E-1,2.7465153E-1,2.736187E-1,
1572458178,2019-10-30 17:56:18.806,-1.19383335E-2,-1.0609627E-3,-4.840851E-3,-4.537821E-3,2.6332188E-1,2.6624775E-1,2.6517487E-1,
1572458238,2019-10-30 17:57:18.809,-1.0239601E-2,6.530285E-4,-3.314495E-3,-2.9575825E-3,2.690153E-1,2.7160454E-1,2.7104568E-1,
1572458298,2019-10-30 17:58:18.806,-7.671356E-3,3.2362938E-3,-1.3985634E-3,-4.825592E-4,2.7577114E-1,2.7818012E-1,2.7734852E-1,
1572458358,2019-10-30 17:59:18.806,-9.264708E-3,1.5895367E-3,-2.7577877E-3,-2.203703E-3,2.6684856E-1,2.6988983E-1,2.695713E-1,
