Time(longsecs),Time(UTC),Supply Voltage(mV),Temperature(&deg;C),NMX Bus Current(mA),Sensor Current(mA),Serial Port Current(mA),Controller Current(mA),Digitizer Current(mA),
1570359645,2019-10-06 11:00:45.722,16406,2.691211E1,0,9,0,38,37,
1570359705,2019-10-06 11:01:45.722,16433,2.697284E1,0,9,0,33,38,
1570359765,2019-10-06 11:02:45.722,16433,2.7195526E1,0,9,0,38,37,
1570359825,2019-10-06 11:03:45.722,16475,2.7352173E1,0,9,0,38,35,
1570359885,2019-10-06 11:04:45.722,16420,2.738733E1,0,9,0,31,40,
1570359945,2019-10-06 11:05:45.722,16420,2.7586578E1,0,3,0,37,35,
1570360005,2019-10-06 11:06:45.723,16529,2.7407562E1,0,6,0,41,38,
1570360065,2019-10-06 11:07:45.722,16475,2.7624939E1,0,9,0,44,39,
1570360125,2019-10-06 11:08:45.722,16502,2.7715515E1,0,10,0,33,38,
1570360185,2019-10-06 11:09:45.722,16461,2.7610016E1,0,15,0,38,37,
1570360245,2019-10-06 11:10:45.724,16433,2.7847626E1,0,6,0,32,41,
1570360305,2019-10-06 11:11:45.722,16433,2.7987213E1,0,9,0,38,35,
1570360365,2019-10-06 11:12:45.722,16475,2.7854004E1,0,7,0,33,37,
1570360425,2019-10-06 11:13:45.722,16461,2.7997864E1,0,10,0,38,35,
1570360485,2019-10-06 11:14:45.722,16529,2.8004242E1,0,8,0,35,40,
1570360545,2019-10-06 11:15:45.722,16515,2.796164E1,0,9,0,33,35,
1570360605,2019-10-06 11:16:45.722,16502,2.8073517E1,0,6,0,31,39,
1570360665,2019-10-06 11:17:45.755,16515,2.8219482E1,0,9,0,36,34,
1570360725,2019-10-06 11:18:45.722,16488,2.8288757E1,0,7,0,38,34,
1570360785,2019-10-06 11:19:45.722,16502,2.8456024E1,0,9,0,36,38,
1570360845,2019-10-06 11:20:45.722,16515,2.8451752E1,0,10,0,32,35,
1570360905,2019-10-06 11:21:45.722,16502,2.8321777E1,0,7,0,32,39,
1570360965,2019-10-06 11:22:45.722,16502,2.8420868E1,0,6,0,37,38,
1570361025,2019-10-06 11:23:45.724,16502,2.8655273E1,0,4,0,38,36,
1570361085,2019-10-06 11:24:45.722,16515,2.8686188E1,0,9,0,36,42,
1570361145,2019-10-06 11:25:45.722,16515,2.8622253E1,0,9,0,32,35,
1570361205,2019-10-06 11:26:45.722,16542,2.8637177E1,0,10,0,31,35,
1570361265,2019-10-06 11:27:45.722,16502,2.8821503E1,0,6,0,37,35,
1570361325,2019-10-06 11:28:45.722,16502,2.8942963E1,0,6,0,38,36,
1570361385,2019-10-06 11:29:45.722,16515,2.8740509E1,0,9,0,38,37,
1570361445,2019-10-06 11:30:45.722,16542,2.9139008E1,0,13,0,32,35,
1570361505,2019-10-06 11:31:45.754,16515,2.9271149E1,0,4,0,31,38,
1570361565,2019-10-06 11:32:45.723,16502,2.9147552E1,0,7,0,41,38,
1570361625,2019-10-06 11:33:45.755,16515,2.9052704E1,0,9,0,46,39,
1570361685,2019-10-06 11:34:45.722,16515,2.941925E1,0,9,0,37,36,
1570361745,2019-10-06 11:35:45.722,16502,2.9326538E1,0,6,0,31,37,
1570361805,2019-10-06 11:36:45.722,16475,2.9628082E1,0,9,0,32,37,
1570361865,2019-10-06 11:37:45.722,16529,2.9721863E1,0,8,0,36,39,
1570361925,2019-10-06 11:38:45.722,16515,2.9688812E1,0,9,0,37,35,
1570361985,2019-10-06 11:39:45.723,16461,2.965686E1,0,7,0,40,38,
1570362045,2019-10-06 11:40:45.722,16515,3.013208E1,0,11,0,35,35,
1570362105,2019-10-06 11:41:45.723,16515,2.9830536E1,0,8,0,34,40,
1570362165,2019-10-06 11:42:45.722,16515,3.0178955E1,0,9,0,38,33,
1570362225,2019-10-06 11:43:45.722,16529,3.0084106E1,0,4,0,35,37,
1570362285,2019-10-06 11:44:45.724,16529,3.0205597E1,0,8,0,37,36,
1570362345,2019-10-06 11:45:45.723,16529,3.0173615E1,0,6,0,35,36,
1570362405,2019-10-06 11:46:45.722,16515,3.033133E1,0,8,0,32,37,
1570362465,2019-10-06 11:47:45.722,16502,3.0330261E1,0,8,0,38,36,
1570362525,2019-10-06 11:48:45.722,16502,3.0593445E1,0,4,0,38,37,
1570362585,2019-10-06 11:49:45.722,16515,3.0597687E1,0,6,0,31,40,
1570362645,2019-10-06 11:50:45.722,16502,3.0760712E1,0,13,0,31,36,
1570362705,2019-10-06 11:51:45.722,16515,3.0842773E1,0,8,0,31,36,
1570362765,2019-10-06 11:52:45.722,16515,3.0807587E1,0,8,0,37,36,
1570362825,2019-10-06 11:53:45.722,16502,3.093332E1,0,7,0,46,36,
1570362885,2019-10-06 11:54:45.723,16502,3.1133636E1,0,11,0,45,36,
1570362945,2019-10-06 11:55:45.722,16515,3.1080353E1,0,9,0,36,34,
1570363005,2019-10-06 11:56:45.722,16515,3.1373383E1,0,10,0,33,36,
1570363065,2019-10-06 11:57:45.722,16529,3.128067E1,0,9,0,37,38,
1570363125,2019-10-06 11:58:45.723,16569,3.13638E1,0,6,0,35,36,
1570363185,2019-10-06 11:59:45.722,16515,3.137976E1,0,11,0,37,37,
