Time(longsecs),Time(UTC),Supply Voltage(mV),Temperature(&deg;C),NMX Bus Current(mA),Sensor Current(mA),Serial Port Current(mA),Controller Current(mA),Digitizer Current(mA),
1572022818,2019-10-25 17:00:18.806,16524,2.2474762E1,0,8,0,39,38,
1572022878,2019-10-25 17:01:18.806,16509,2.2587097E1,0,11,0,38,38,
1572022938,2019-10-25 17:02:18.806,16509,2.2470459E1,0,7,0,38,38,
1572022998,2019-10-25 17:03:18.806,16509,2.2546051E1,0,7,0,39,39,
1572023058,2019-10-25 17:04:18.806,16509,2.2663818E1,0,8,0,47,36,
1572023118,2019-10-25 17:05:18.838,16509,2.2538513E1,0,9,0,40,38,
1572023178,2019-10-25 17:06:18.807,16509,2.2403473E1,0,9,0,37,36,
1572023238,2019-10-25 17:07:18.806,16509,2.2500702E1,0,4,0,38,37,
1572023298,2019-10-25 17:08:18.806,16509,2.237323E1,0,9,0,36,39,
1572023358,2019-10-25 17:09:18.806,16509,2.2651917E1,0,8,0,34,42,
1572023418,2019-10-25 17:10:18.806,16509,2.2485565E1,0,6,0,38,35,
1572023478,2019-10-25 17:11:18.806,16509,2.239914E1,0,8,0,41,36,
1572023538,2019-10-25 17:12:18.841,16509,2.2376465E1,0,6,0,38,34,
1572023598,2019-10-25 17:13:18.821,16509,2.2394836E1,0,6,0,33,36,
1572023658,2019-10-25 17:14:18.807,16509,2.223172E1,0,9,0,42,37,
1572023718,2019-10-25 17:15:18.807,16400,2.2201477E1,0,6,0,47,36,
1572023778,2019-10-25 17:16:18.807,16537,2.2273834E1,0,7,0,47,36,
1572023838,2019-10-25 17:17:18.807,16496,2.2221985E1,0,8,0,45,35,
1572023898,2019-10-25 17:18:18.806,16400,2.2460724E1,0,8,0,33,35,
1572023958,2019-10-25 17:19:18.806,16414,2.2303009E1,0,8,0,33,35,
1572024018,2019-10-25 17:20:18.806,16550,2.2440186E1,0,7,0,39,37,
1572024078,2019-10-25 17:21:18.806,16509,2.253418E1,0,6,0,29,39,
1572024138,2019-10-25 17:22:18.806,16496,2.223819E1,0,12,0,42,36,
1572024198,2019-10-25 17:23:18.806,16524,2.21669E1,0,6,0,29,35,
1572024258,2019-10-25 17:24:18.806,16509,2.239267E1,0,10,0,34,37,
1572024318,2019-10-25 17:25:18.806,16509,2.2048065E1,0,2,0,39,37,
1572024378,2019-10-25 17:26:18.810,16550,2.209021E1,0,7,0,36,38,
1572024438,2019-10-25 17:27:18.807,16509,2.2075073E1,0,8,0,37,37,
1572024498,2019-10-25 17:28:18.806,16509,2.2291138E1,0,8,0,34,37,
1572024558,2019-10-25 17:29:18.806,16509,2.2247925E1,0,9,0,33,36,
1572024618,2019-10-25 17:30:18.806,16509,2.1861206E1,0,11,0,38,38,
1572024678,2019-10-25 17:31:18.822,16509,2.2167969E1,0,8,0,38,36,
1572024738,2019-10-25 17:32:18.806,16550,2.2158264E1,0,8,0,38,39,
1572024798,2019-10-25 17:33:18.806,16509,2.2002716E1,0,5,0,40,37,
1572024858,2019-10-25 17:34:18.806,16509,2.2039429E1,0,5,0,33,36,
1572024918,2019-10-25 17:35:18.806,16496,2.2007019E1,0,13,0,35,38,
1572024978,2019-10-25 17:36:18.807,16496,2.189685E1,0,7,0,41,36,
1572025038,2019-10-25 17:37:18.806,16509,2.2056732E1,0,7,0,33,37,
1572025098,2019-10-25 17:38:18.806,16496,2.2032959E1,0,8,0,39,36,
1572025158,2019-10-25 17:39:18.806,16509,2.2130188E1,0,9,0,33,38,
1572025218,2019-10-25 17:40:18.806,16550,2.1725098E1,0,7,0,38,36,
1572025278,2019-10-25 17:41:18.806,16496,2.2027557E1,0,9,0,39,35,
1572025338,2019-10-25 17:42:18.806,16496,2.1823395E1,0,8,0,38,37,
1572025398,2019-10-25 17:43:18.806,16509,2.1806122E1,0,6,0,37,36,
1572025458,2019-10-25 17:44:18.806,16509,2.180719E1,0,9,0,33,38,
1572025518,2019-10-25 17:45:18.806,16496,2.1995148E1,0,11,0,39,36,
1572025578,2019-10-25 17:46:18.807,16496,2.1849304E1,0,8,0,37,38,
1572025638,2019-10-25 17:47:18.806,16524,2.208374E1,0,8,0,40,35,
1572025698,2019-10-25 17:48:18.806,16496,2.1772614E1,0,7,0,36,37,
1572025758,2019-10-25 17:49:18.807,16496,2.1658112E1,0,9,0,33,37,
1572025818,2019-10-25 17:50:18.806,16496,2.1881714E1,21,11,0,38,38,
1572025878,2019-10-25 17:51:18.807,16496,2.1463684E1,0,7,0,36,36,
1572025938,2019-10-25 17:52:18.806,16509,2.1541443E1,0,13,0,39,35,
1572025998,2019-10-25 17:53:18.807,16496,2.1990814E1,0,7,0,37,36,
1572026058,2019-10-25 17:54:18.807,16509,2.178775E1,0,4,0,34,36,
1572026118,2019-10-25 17:55:18.807,16496,2.188498E1,0,10,0,37,35,
1572026178,2019-10-25 17:56:18.806,16496,2.1604095E1,0,6,0,34,35,
1572026238,2019-10-25 17:57:18.807,16482,2.1732666E1,0,10,0,47,35,
1572026298,2019-10-25 17:58:18.807,16496,2.1617065E1,0,7,0,47,38,
1572026358,2019-10-25 17:59:18.807,16496,2.1618164E1,0,6,0,42,37,
