Time(longsecs),Time(UTC),GPS Satellite Acquisition Flag 1,GPS Satellite Acquisition Flag 2,GPS Satellite Acquisition Flag 3,GPS Satellite Acquisition Flag 4,GPS Satellite Acquisition Flag 5,GPS Satellite Acquisition Flag 6,GPS Satellite Acquisition Flag 7,GPS Satellite Acquisition Flag 8,GPS Satellite Acquisition Flag 9,GPS Satellite Acquisition Flag 10,GPS Satellite Acquisition Flag 11,GPS Satellite Acquisition Flag 12,GPS Satellite Azimuth 1(Degrees),GPS Satellite Azimuth 2(Degrees),GPS Satellite Azimuth 3(Degrees),GPS Satellite Azimuth 4(Degrees),GPS Satellite Azimuth 5(Degrees),GPS Satellite Azimuth 6(Degrees),GPS Satellite Azimuth 7(Degrees),GPS Satellite Azimuth 8(Degrees),GPS Satellite Azimuth 9(Degrees),GPS Satellite Azimuth 10(Degrees),GPS Satellite Azimuth 11(Degrees),GPS Satellite Azimuth 12(Degrees),GPS Satellite Elevation 1(Degrees),GPS Satellite Elevation 2(Degrees),GPS Satellite Elevation 3(Degrees),GPS Satellite Elevation 4(Degrees),GPS Satellite Elevation 5(Degrees),GPS Satellite Elevation 6(Degrees),GPS Satellite Elevation 7(Degrees),GPS Satellite Elevation 8(Degrees),GPS Satellite Elevation 9(Degrees),GPS Satellite Elevation 10(Degrees),GPS Satellite Elevation 11(Degrees),GPS Satellite Elevation 12(Degrees),GPS Satellite PRN 1,GPS Satellite PRN 2,GPS Satellite PRN 3,GPS Satellite PRN 4,GPS Satellite PRN 5,GPS Satellite PRN 6,GPS Satellite PRN 7,GPS Satellite PRN 8,GPS Satellite PRN 9,GPS Satellite PRN 10,GPS Satellite PRN 11,GPS Satellite PRN 12,GPS Satellite Signal Level 1(AMU),GPS Satellite Signal Level 2(AMU),GPS Satellite Signal Level 3(AMU),GPS Satellite Signal Level 4(AMU),GPS Satellite Signal Level 5(AMU),GPS Satellite Signal Level 6(AMU),GPS Satellite Signal Level 7(AMU),GPS Satellite Signal Level 8(AMU),GPS Satellite Signal Level 9(AMU),GPS Satellite Signal Level 10(AMU),GPS Satellite Signal Level 11(AMU),GPS Satellite Signal Level 12(AMU),
1571997618,2019-10-25 10:00:18.811,Acquired,Acquired,Acquired,Acquired,Acquired,Acquired,Acquired,Acquired,Acquired,Acquired,Acquired,Acquired,9.5832816E1,2.4944526399999998E2,1.54679936E2,6.0574735999999994E1,3.0734943999999996E2,3.17804224E2,3.8278104E1,1.84838224E2,2.62578976E2,4.129942E1,1.6797435199999998E2,8.803145599999999E1,7.4745888E1,6.7325456E1,6.2057652E1,3.7867128E1,3.6796943999999996E1,1.9581256E1,8.771244E1,2.183427E1,1.6049875999999998E1,1.7652022E1,1.2330737E1,8.327617E0,1,3,11,14,17,19,22,23,28,32,8,31,10,13,14,4,8,1,6,11,12,1,3,2,
1571997678,2019-10-25 10:01:18.807,Acquired,Acquired,Acquired,Acquired,Acquired,Acquired,Acquired,Acquired,Acquired,Acquired,Acquired,Acquired,9.5832816E1,2.4944526399999998E2,1.54679936E2,6.0574735999999994E1,3.0734943999999996E2,3.17804224E2,3.8278104E1,1.84838224E2,2.62578976E2,4.129942E1,1.6797435199999998E2,8.803145599999999E1,7.4745888E1,6.7325456E1,6.2057652E1,3.7867128E1,3.6796943999999996E1,1.9581256E1,8.771244E1,2.183427E1,1.6049875999999998E1,1.7652022E1,1.2330737E1,8.327617E0,1,3,11,14,17,19,22,23,28,32,8,31,10,13,14,4,8,1,6,11,12,1,3,2,
1571997738,2019-10-25 10:02:18.806,Acquired,Acquired,Acquired,Acquired,Acquired,Acquired,Acquired,Acquired,Acquired,Acquired,Acquired,Acquired,9.5832816E1,2.4944526399999998E2,1.54679936E2,6.0574735999999994E1,3.0734943999999996E2,3.17804224E2,3.8278104E1,1.84838224E2,2.62578976E2,4.129942E1,1.6797435199999998E2,8.803145599999999E1,7.4745888E1,6.7325456E1,6.2057652E1,3.7867128E1,3.6796943999999996E1,1.9581256E1,8.771244E1,2.183427E1,1.6049875999999998E1,1.7652022E1,1.2330737E1,8.327617E0,1,3,11,14,17,19,22,23,28,32,8,31,10,13,14,4,8,1,6,11,12,1,3,2,
1571997798,2019-10-25 10:03:18.825,Acquired,Acquired,Acquired,Acquired,Acquired,Acquired,Acquired,Acquired,Acquired,Acquired,Acquired,Acquired,9.5832816E1,2.4944526399999998E2,1.54679936E2,6.0574735999999994E1,3.0734943999999996E2,3.17804224E2,3.8278104E1,1.84838224E2,2.62578976E2,4.129942E1,1.6797435199999998E2,8.803145599999999E1,7.4745888E1,6.7325456E1,6.2057652E1,3.7867128E1,3.6796943999999996E1,1.9581256E1,8.771244E1,2.183427E1,1.6049875999999998E1,1.7652022E1,1.2330737E1,8.327617E0,1,3,11,14,17,19,22,23,28,32,8,31,10,13,14,4,8,1,6,11,12,1,3,2,
1571997858,2019-10-25 10:04:18.806,Acquired,Acquired,Acquired,Acquired,Acquired,Acquired,Acquired,Acquired,Acquired,Acquired,Acquired,Acquired,9.5832816E1,2.4944526399999998E2,1.54679936E2,6.0574735999999994E1,3.0734943999999996E2,3.17804224E2,3.8278104E1,1.84838224E2,2.62578976E2,4.129942E1,1.6797435199999998E2,8.803145599999999E1,7.4745888E1,6.7325456E1,6.2057652E1,3.7867128E1,3.6796943999999996E1,1.9581256E1,8.771244E1,2.183427E1,1.6049875999999998E1,1.7652022E1,1.2330737E1,8.327617E0,1,3,11,14,17,19,22,23,28,32,8,31,10,13,14,4,8,1,6,11,12,1,3,2,
1571997918,2019-10-25 10:05:18.809,Acquired,Acquired,Acquired,Acquired,Acquired,Acquired,Acquired,Acquired,Acquired,Acquired,Acquired,Acquired,9.5832816E1,2.4944526399999998E2,1.54679936E2,6.0574735999999994E1,3.0734943999999996E2,3.17804224E2,3.8278104E1,1.84838224E2,2.62578976E2,4.129942E1,1.6797435199999998E2,8.803145599999999E1,7.4745888E1,6.7325456E1,6.2057652E1,3.7867128E1,3.6796943999999996E1,1.9581256E1,8.771244E1,2.183427E1,1.6049875999999998E1,1.7652022E1,1.2330737E1,8.327617E0,1,3,11,14,17,19,22,23,28,32,8,31,10,13,14,4,8,1,6,11,12,1,3,2,
1571997978,2019-10-25 10:06:18.806,Acquired,Acquired,Acquired,Acquired,Acquired,Acquired,Acquired,Acquired,Acquired,Acquired,Acquired,Acquired,9.5832816E1,2.4944526399999998E2,1.54679936E2,6.0574735999999994E1,3.0734943999999996E2,3.17804224E2,3.8278104E1,1.84838224E2,2.62578976E2,4.129942E1,1.6797435199999998E2,8.803145599999999E1,7.4745888E1,6.7325456E1,6.2057652E1,3.7867128E1,3.6796943999999996E1,1.9581256E1,8.771244E1,2.183427E1,1.6049875999999998E1,1.7652022E1,1.2330737E1,8.327617E0,1,3,11,14,17,19,22,23,28,32,8,31,10,13,14,4,8,1,6,11,12,1,3,2,
1571998038,2019-10-25 10:07:18.806,Acquired,Acquired,Acquired,Acquired,Acquired,Acquired,Acquired,Acquired,Acquired,Acquired,Acquired,Acquired,9.5832816E1,2.4944526399999998E2,1.54679936E2,6.0574735999999994E1,3.0734943999999996E2,3.17804224E2,3.8278104E1,1.84838224E2,2.62578976E2,4.129942E1,1.6797435199999998E2,8.803145599999999E1,7.4745888E1,6.7325456E1,6.2057652E1,3.7867128E1,3.6796943999999996E1,1.9581256E1,8.771244E1,2.183427E1,1.6049875999999998E1,1.7652022E1,1.2330737E1,8.327617E0,1,3,11,14,17,19,22,23,28,32,8,31,10,13,14,4,8,1,6,11,12,1,3,2,
1571998098,2019-10-25 10:08:18.806,Acquired,Acquired,Acquired,Acquired,Acquired,Acquired,Acquired,Acquired,Acquired,Acquired,Acquired,Acquired,9.5832816E1,2.4944526399999998E2,1.54679936E2,6.0574735999999994E1,3.0734943999999996E2,3.17804224E2,3.8278104E1,1.84838224E2,2.62578976E2,4.129942E1,1.6797435199999998E2,8.803145599999999E1,7.4745888E1,6.7325456E1,6.2057652E1,3.7867128E1,3.6796943999999996E1,1.9581256E1,8.771244E1,2.183427E1,1.6049875999999998E1,1.7652022E1,1.2330737E1,8.327617E0,1,3,11,14,17,19,22,23,28,32,8,31,10,13,14,4,8,1,6,11,12,1,3,2,
1571998158,2019-10-25 10:09:18.806,Acquired,Acquired,Acquired,Acquired,Acquired,Acquired,Acquired,Acquired,Acquired,Acquired,Acquired,Acquired,9.5832816E1,2.4944526399999998E2,1.54679936E2,6.0574735999999994E1,3.0734943999999996E2,3.17804224E2,3.8278104E1,1.84838224E2,2.62578976E2,4.129942E1,1.6797435199999998E2,8.803145599999999E1,7.4745888E1,6.7325456E1,6.2057652E1,3.7867128E1,3.6796943999999996E1,1.9581256E1,8.771244E1,2.183427E1,1.6049875999999998E1,1.7652022E1,1.2330737E1,8.327617E0,1,3,11,14,17,19,22,23,28,32,8,31,10,13,14,4,8,1,6,11,12,1,3,2,
1571998218,2019-10-25 10:10:18.809,Acquired,Acquired,Acquired,Acquired,Acquired,Acquired,Acquired,Acquired,Acquired,Acquired,Acquired,Acquired,9.5832816E1,2.4944526399999998E2,1.54679936E2,6.0574735999999994E1,3.0734943999999996E2,3.17804224E2,3.8278104E1,1.84838224E2,2.62578976E2,4.129942E1,1.6797435199999998E2,8.803145599999999E1,7.4745888E1,6.7325456E1,6.2057652E1,3.7867128E1,3.6796943999999996E1,1.9581256E1,8.771244E1,2.183427E1,1.6049875999999998E1,1.7652022E1,1.2330737E1,8.327617E0,1,3,11,14,17,19,22,23,28,32,8,31,10,13,14,4,8,1,6,11,12,1,3,2,
1571998278,2019-10-25 10:11:18.806,Acquired,Acquired,Acquired,Acquired,Acquired,Acquired,Acquired,Acquired,Acquired,Acquired,Acquired,Acquired,9.5832816E1,2.4944526399999998E2,1.54679936E2,6.0574735999999994E1,3.0734943999999996E2,3.17804224E2,3.8278104E1,1.84838224E2,2.62578976E2,4.129942E1,1.6797435199999998E2,8.803145599999999E1,7.4745888E1,6.7325456E1,6.2057652E1,3.7867128E1,3.6796943999999996E1,1.9581256E1,8.771244E1,2.183427E1,1.6049875999999998E1,1.7652022E1,1.2330737E1,8.327617E0,1,3,11,14,17,19,22,23,28,32,8,31,10,13,14,4,8,1,6,11,12,1,3,2,
1571998338,2019-10-25 10:12:18.806,Acquired,Acquired,Acquired,Acquired,Acquired,Acquired,Acquired,Acquired,Acquired,Acquired,Acquired,Acquired,9.5832816E1,2.4944526399999998E2,1.54679936E2,6.0574735999999994E1,3.0734943999999996E2,3.17804224E2,3.8278104E1,1.84838224E2,2.62578976E2,4.129942E1,1.6797435199999998E2,8.803145599999999E1,7.4745888E1,6.7325456E1,6.2057652E1,3.7867128E1,3.6796943999999996E1,1.9581256E1,8.771244E1,2.183427E1,1.6049875999999998E1,1.7652022E1,1.2330737E1,8.327617E0,1,3,11,14,17,19,22,23,28,32,8,31,10,13,14,4,8,1,6,11,12,1,3,2,
1571998398,2019-10-25 10:13:18.806,Acquired,Acquired,Acquired,Acquired,Acquired,Acquired,Acquired,Acquired,Acquired,Acquired,Acquired,Acquired,9.5832816E1,2.4944526399999998E2,1.54679936E2,6.0574735999999994E1,3.0734943999999996E2,3.17804224E2,3.8278104E1,1.84838224E2,2.62578976E2,4.129942E1,1.6797435199999998E2,8.803145599999999E1,7.4745888E1,6.7325456E1,6.2057652E1,3.7867128E1,3.6796943999999996E1,1.9581256E1,8.771244E1,2.183427E1,1.6049875999999998E1,1.7652022E1,1.2330737E1,8.327617E0,1,3,11,14,17,19,22,23,28,32,8,31,10,13,14,4,8,1,6,11,12,1,3,2,
1571998458,2019-10-25 10:14:18.809,Acquired,Acquired,Acquired,Acquired,Acquired,Acquired,Acquired,Acquired,Acquired,Acquired,Acquired,Acquired,9.5832816E1,2.4944526399999998E2,1.54679936E2,6.0574735999999994E1,3.0734943999999996E2,3.17804224E2,3.8278104E1,1.84838224E2,2.62578976E2,4.129942E1,1.6797435199999998E2,8.803145599999999E1,7.4745888E1,6.7325456E1,6.2057652E1,3.7867128E1,3.6796943999999996E1,1.9581256E1,8.771244E1,2.183427E1,1.6049875999999998E1,1.7652022E1,1.2330737E1,8.327617E0,1,3,11,14,17,19,22,23,28,32,8,31,10,13,14,4,8,1,6,11,12,1,3,2,
1571998518,2019-10-25 10:15:18.806,Acquired,Acquired,Acquired,Acquired,Acquired,Acquired,Acquired,Acquired,Acquired,Acquired,Acquired,Acquired,9.5832816E1,2.4944526399999998E2,1.54679936E2,6.0574735999999994E1,3.0734943999999996E2,3.17804224E2,3.8278104E1,1.84838224E2,2.62578976E2,4.129942E1,1.6797435199999998E2,8.803145599999999E1,7.4745888E1,6.7325456E1,6.2057652E1,3.7867128E1,3.6796943999999996E1,1.9581256E1,8.771244E1,2.183427E1,1.6049875999999998E1,1.7652022E1,1.2330737E1,8.327617E0,1,3,11,14,17,19,22,23,28,32,8,31,10,13,14,4,8,1,6,11,12,1,3,2,
1571998578,2019-10-25 10:16:18.806,Acquired,Acquired,Acquired,Acquired,Acquired,Acquired,Acquired,Acquired,Acquired,Acquired,Acquired,Acquired,9.5832816E1,2.4944526399999998E2,1.54679936E2,6.0574735999999994E1,3.0734943999999996E2,3.17804224E2,3.8278104E1,1.84838224E2,2.62578976E2,4.129942E1,1.6797435199999998E2,8.803145599999999E1,7.4745888E1,6.7325456E1,6.2057652E1,3.7867128E1,3.6796943999999996E1,1.9581256E1,8.771244E1,2.183427E1,1.6049875999999998E1,1.7652022E1,1.2330737E1,8.327617E0,1,3,11,14,17,19,22,23,28,32,8,31,10,13,14,4,8,1,6,11,12,1,3,2,
1571998638,2019-10-25 10:17:18.807,Acquired,Acquired,Acquired,Acquired,Acquired,Acquired,Acquired,Acquired,Acquired,Acquired,Acquired,Acquired,9.5832816E1,2.4944526399999998E2,1.54679936E2,6.0574735999999994E1,3.0734943999999996E2,3.17804224E2,3.8278104E1,1.84838224E2,2.62578976E2,4.129942E1,1.6797435199999998E2,8.803145599999999E1,7.4745888E1,6.7325456E1,6.2057652E1,3.7867128E1,3.6796943999999996E1,1.9581256E1,8.771244E1,2.183427E1,1.6049875999999998E1,1.7652022E1,1.2330737E1,8.327617E0,1,3,11,14,17,19,22,23,28,32,8,31,10,13,14,4,8,1,6,11,12,1,3,2,
1571998698,2019-10-25 10:18:18.806,Acquired,Acquired,Acquired,Acquired,Acquired,Acquired,Acquired,Acquired,Acquired,Acquired,Acquired,Acquired,9.5832816E1,2.4944526399999998E2,1.54679936E2,6.0574735999999994E1,3.0734943999999996E2,3.17804224E2,3.8278104E1,1.84838224E2,2.62578976E2,4.129942E1,1.6797435199999998E2,8.803145599999999E1,7.4745888E1,6.7325456E1,6.2057652E1,3.7867128E1,3.6796943999999996E1,1.9581256E1,8.771244E1,2.183427E1,1.6049875999999998E1,1.7652022E1,1.2330737E1,8.327617E0,1,3,11,14,17,19,22,23,28,32,8,31,10,13,14,4,8,1,6,11,12,1,3,2,
1571998758,2019-10-25 10:19:18.806,Acquired,Acquired,Acquired,Acquired,Acquired,Acquired,Acquired,Acquired,Acquired,Acquired,Acquired,Acquired,9.5832816E1,2.4944526399999998E2,1.54679936E2,6.0574735999999994E1,3.0734943999999996E2,3.17804224E2,3.8278104E1,1.84838224E2,2.62578976E2,4.129942E1,1.6797435199999998E2,8.803145599999999E1,7.4745888E1,6.7325456E1,6.2057652E1,3.7867128E1,3.6796943999999996E1,1.9581256E1,8.771244E1,2.183427E1,1.6049875999999998E1,1.7652022E1,1.2330737E1,8.327617E0,1,3,11,14,17,19,22,23,28,32,8,31,10,13,14,4,8,1,6,11,12,1,3,2,
1571998818,2019-10-25 10:20:18.807,Acquired,Acquired,Acquired,Acquired,Acquired,Acquired,Acquired,Acquired,Acquired,Acquired,Acquired,Acquired,9.5832816E1,2.4944526399999998E2,1.54679936E2,6.0574735999999994E1,3.0734943999999996E2,3.17804224E2,3.8278104E1,1.84838224E2,2.62578976E2,4.129942E1,1.6797435199999998E2,8.803145599999999E1,7.4745888E1,6.7325456E1,6.2057652E1,3.7867128E1,3.6796943999999996E1,1.9581256E1,8.771244E1,2.183427E1,1.6049875999999998E1,1.7652022E1,1.2330737E1,8.327617E0,1,3,11,14,17,19,22,23,28,32,8,31,10,13,14,4,8,1,6,11,12,1,3,2,
1571998878,2019-10-25 10:21:18.806,Acquired,Acquired,Acquired,Acquired,Acquired,Acquired,Acquired,Acquired,Acquired,Acquired,Acquired,Acquired,9.5832816E1,2.4944526399999998E2,1.54679936E2,6.0574735999999994E1,3.0734943999999996E2,3.17804224E2,3.8278104E1,1.84838224E2,2.62578976E2,4.129942E1,1.6797435199999998E2,8.803145599999999E1,7.4745888E1,6.7325456E1,6.2057652E1,3.7867128E1,3.6796943999999996E1,1.9581256E1,8.771244E1,2.183427E1,1.6049875999999998E1,1.7652022E1,1.2330737E1,8.327617E0,1,3,11,14,17,19,22,23,28,32,8,31,10,13,14,4,8,1,6,11,12,1,3,2,
1571998938,2019-10-25 10:22:18.809,Acquired,Acquired,Acquired,Acquired,Acquired,Acquired,Acquired,Acquired,Acquired,Acquired,Acquired,Acquired,9.5832816E1,2.4944526399999998E2,1.54679936E2,6.0574735999999994E1,3.0734943999999996E2,3.17804224E2,3.8278104E1,1.84838224E2,2.62578976E2,4.129942E1,1.6797435199999998E2,8.803145599999999E1,7.4745888E1,6.7325456E1,6.2057652E1,3.7867128E1,3.6796943999999996E1,1.9581256E1,8.771244E1,2.183427E1,1.6049875999999998E1,1.7652022E1,1.2330737E1,8.327617E0,1,3,11,14,17,19,22,23,28,32,8,31,10,13,14,4,8,1,6,11,12,1,3,2,
1571998998,2019-10-25 10:23:18.807,Acquired,Acquired,Acquired,Acquired,Acquired,Acquired,Acquired,Acquired,Acquired,Acquired,Acquired,Acquired,9.5832816E1,2.4944526399999998E2,1.54679936E2,6.0574735999999994E1,3.0734943999999996E2,3.17804224E2,3.8278104E1,1.84838224E2,2.62578976E2,4.129942E1,1.6797435199999998E2,8.803145599999999E1,7.4745888E1,6.7325456E1,6.2057652E1,3.7867128E1,3.6796943999999996E1,1.9581256E1,8.771244E1,2.183427E1,1.6049875999999998E1,1.7652022E1,1.2330737E1,8.327617E0,1,3,11,14,17,19,22,23,28,32,8,31,10,13,14,4,8,1,6,11,12,1,3,2,
1571999058,2019-10-25 10:24:18.806,Acquired,Acquired,Acquired,Acquired,Acquired,Acquired,Acquired,Acquired,Acquired,Acquired,Acquired,Acquired,9.5832816E1,2.4944526399999998E2,1.54679936E2,6.0574735999999994E1,3.0734943999999996E2,3.17804224E2,3.8278104E1,1.84838224E2,2.62578976E2,4.129942E1,1.6797435199999998E2,8.803145599999999E1,7.4745888E1,6.7325456E1,6.2057652E1,3.7867128E1,3.6796943999999996E1,1.9581256E1,8.771244E1,2.183427E1,1.6049875999999998E1,1.7652022E1,1.2330737E1,8.327617E0,1,3,11,14,17,19,22,23,28,32,8,31,10,13,14,4,8,1,6,11,12,1,3,2,
1571999118,2019-10-25 10:25:18.806,Acquired,Acquired,Acquired,Acquired,Acquired,Acquired,Acquired,Acquired,Acquired,Acquired,Acquired,Acquired,9.5832816E1,2.4944526399999998E2,1.54679936E2,6.0574735999999994E1,3.0734943999999996E2,3.17804224E2,3.8278104E1,1.84838224E2,2.62578976E2,4.129942E1,1.6797435199999998E2,8.803145599999999E1,7.4745888E1,6.7325456E1,6.2057652E1,3.7867128E1,3.6796943999999996E1,1.9581256E1,8.771244E1,2.183427E1,1.6049875999999998E1,1.7652022E1,1.2330737E1,8.327617E0,1,3,11,14,17,19,22,23,28,32,8,31,10,13,14,4,8,1,6,11,12,1,3,2,
1571999178,2019-10-25 10:26:18.806,Acquired,Acquired,Acquired,Acquired,Acquired,Acquired,Acquired,Acquired,Acquired,Acquired,Acquired,Acquired,9.5832816E1,2.4944526399999998E2,1.54679936E2,6.0574735999999994E1,3.0734943999999996E2,3.17804224E2,3.8278104E1,1.84838224E2,2.62578976E2,4.129942E1,1.6797435199999998E2,8.803145599999999E1,7.4745888E1,6.7325456E1,6.2057652E1,3.7867128E1,3.6796943999999996E1,1.9581256E1,8.771244E1,2.183427E1,1.6049875999999998E1,1.7652022E1,1.2330737E1,8.327617E0,1,3,11,14,17,19,22,23,28,32,8,31,10,13,14,4,8,1,6,11,12,1,3,2,
1571999238,2019-10-25 10:27:18.806,Acquired,Acquired,Acquired,Acquired,Acquired,Acquired,Acquired,Acquired,Acquired,Acquired,Acquired,Acquired,9.5832816E1,2.4944526399999998E2,1.54679936E2,6.0574735999999994E1,3.0734943999999996E2,3.17804224E2,3.8278104E1,1.84838224E2,2.62578976E2,4.129942E1,1.6797435199999998E2,8.803145599999999E1,7.4745888E1,6.7325456E1,6.2057652E1,3.7867128E1,3.6796943999999996E1,1.9581256E1,8.771244E1,2.183427E1,1.6049875999999998E1,1.7652022E1,1.2330737E1,8.327617E0,1,3,11,14,17,19,22,23,28,32,8,31,10,13,14,4,8,1,6,11,12,1,3,2,
1571999298,2019-10-25 10:28:18.807,Acquired,Acquired,Acquired,Acquired,Acquired,Acquired,Acquired,Acquired,Acquired,Acquired,Acquired,Acquired,9.5832816E1,2.4944526399999998E2,1.54679936E2,6.0574735999999994E1,3.0734943999999996E2,3.17804224E2,3.8278104E1,1.84838224E2,2.62578976E2,4.129942E1,1.6797435199999998E2,8.803145599999999E1,7.4745888E1,6.7325456E1,6.2057652E1,3.7867128E1,3.6796943999999996E1,1.9581256E1,8.771244E1,2.183427E1,1.6049875999999998E1,1.7652022E1,1.2330737E1,8.327617E0,1,3,11,14,17,19,22,23,28,32,8,31,10,13,14,4,8,1,6,11,12,1,3,2,
1571999358,2019-10-25 10:29:18.807,Acquired,Acquired,Acquired,Acquired,Acquired,Acquired,Acquired,Acquired,Acquired,Acquired,Acquired,Not acquired,9.680815199999999E1,2.49973696E2,1.5463808E2,6.0130739999999996E1,3.07032384E2,3.17666816E2,4.1728148E1,1.8481363199999998E2,2.62234128E2,4.1117107999999995E1,1.6798479999999998E2,8.7680376E1,7.4339632E1,6.7763888E1,6.1564451999999996E1,3.7652668E1,3.7113208E1,1.9961648E1,8.7287832E1,2.226947E1,1.5772577E1,1.7314156E1,1.1909505999999999E1,8.579245E0,1,3,11,14,17,19,22,23,28,32,8,31,12,14,14,6,5,2,1,13,11,3,3,2,
1571999418,2019-10-25 10:30:18.807,Acquired,Acquired,Acquired,Acquired,Acquired,Acquired,Acquired,Acquired,Acquired,Not acquired,Not acquired,Not acquired,1.15875496E2,2.79485568E2,1.55168512E2,4.9380691999999996E1,2.93797696E2,3.10984736E2,6.282776E1,1.84033056E2,7.6102904E1,2.99648864E2,2.002688E2,2.5254715199999998E2,6.1248228E1,8.0393728E1,4.6629312E1,2.9346833999999998E1,4.5094756E1,3.0946068E1,7.3954656E1,3.5952492E1,1.5250798E1,6.689782E0,7.447197E0,6.694160999999999E0,1,3,11,14,17,19,22,23,31,6,9,28,11,4,10,6,9,5,10,15,4,0,0,0,
1571999478,2019-10-25 10:31:18.807,Acquired,Acquired,Acquired,Acquired,Acquired,Acquired,Acquired,Acquired,Acquired,Not acquired,Not acquired,Not acquired,1.1631727199999999E2,2.81488992E2,1.5521959999999999E2,4.9111428E1,2.93231136E2,3.10667008E2,6.3150659999999995E1,1.8399895999999998E2,7.5684344E1,2.99818848E2,2.00303664E2,2.52244512E2,6.0796724E1,8.0756288E1,4.6134547999999995E1,2.9020836E1,4.5289632E1,3.128529E1,7.351182399999999E1,3.6424299999999995E1,1.543271E1,7.0625659999999995E0,7.867426999999999E0,6.375528E0,1,3,11,14,17,19,22,23,31,6,9,28,6,3,15,7,13,4,6,15,1,0,0,0,
1571999538,2019-10-25 10:32:18.807,Acquired,Acquired,Acquired,Acquired,Acquired,Acquired,Acquired,Acquired,Not acquired,Not acquired,Not acquired,Not acquired,1.16748792E2,2.836176E2,1.55271312E2,4.8849619999999994E1,2.92661056E2,3.10344768E2,6.3467955999999994E1,1.83963968E2,7.526688E1,2.99986208E2,2.00339664E2,2.51945024E2,6.0347992E1,8.110695199999999E1,4.5643788E1,2.8694858E1,4.5477351999999996E1,3.1619538E1,7.307256E1,3.689348E1,1.5610087E1,7.433757E0,8.285879999999999E0,6.058695E0,1,3,11,14,17,19,22,23,31,6,9,28,11,6,14,4,13,2,5,15,1,0,0,0,
1571999598,2019-10-25 10:33:18.809,Acquired,Acquired,Acquired,Acquired,Acquired,Acquired,Acquired,Acquired,Acquired,Not acquired,Not acquired,Not acquired,1.17174448E2,2.85906144E2,1.55324144E2,4.8592487999999996E1,2.9208224E2,3.1001500799999997E2,6.3782211999999994E1,1.8392790399999998E2,7.484635999999999E1,3.0015270399999997E2,2.00377264E2,2.5164585599999998E2,5.9897755999999994E1,8.144803999999999E1,4.5152344E1,2.8365517999999998E1,4.5659424E1,3.1951708E1,7.263248E1,3.7364808E1,1.5784559E1,7.8067269999999995E0,8.706718E0,5.740416E0,1,3,11,14,17,19,22,23,31,6,9,28,15,10,14,1,14,2,9,13,2,0,0,0,
1571999658,2019-10-25 10:34:18.806,Acquired,Acquired,Acquired,Acquired,Acquired,Acquired,Acquired,Acquired,Acquired,Not acquired,Not acquired,Not acquired,1.17174448E2,2.85906144E2,1.55324144E2,4.8592487999999996E1,2.9208224E2,3.1001500799999997E2,6.3782211999999994E1,1.8392790399999998E2,7.484635999999999E1,3.0015270399999997E2,2.00377264E2,2.5164585599999998E2,5.9897755999999994E1,8.144803999999999E1,4.5152344E1,2.8365517999999998E1,4.5659424E1,3.1951708E1,7.263248E1,3.7364808E1,1.5784559E1,7.8067269999999995E0,8.706718E0,5.740416E0,1,3,11,14,17,19,22,23,31,6,9,28,15,10,14,1,14,2,9,13,2,0,0,0,
1571999718,2019-10-25 10:35:18.806,Acquired,Acquired,Acquired,Acquired,Acquired,Acquired,Acquired,Acquired,Acquired,Not acquired,Not acquired,Not acquired,1.17174448E2,2.85906144E2,1.55324144E2,4.8592487999999996E1,2.9208224E2,3.1001500799999997E2,6.3782211999999994E1,1.8392790399999998E2,7.484635999999999E1,3.0015270399999997E2,2.00377264E2,2.5164585599999998E2,5.9897755999999994E1,8.144803999999999E1,4.5152344E1,2.8365517999999998E1,4.5659424E1,3.1951708E1,7.263248E1,3.7364808E1,1.5784559E1,7.8067269999999995E0,8.706718E0,5.740416E0,1,3,11,14,17,19,22,23,31,6,9,28,15,10,14,1,14,2,9,13,2,0,0,0,
1571999778,2019-10-25 10:36:18.807,Acquired,Acquired,Acquired,Acquired,Acquired,Acquired,Acquired,Acquired,Acquired,Not acquired,Not acquired,Not acquired,1.17174448E2,2.85906144E2,1.55324144E2,4.8592487999999996E1,2.9208224E2,3.1001500799999997E2,6.3782211999999994E1,1.8392790399999998E2,7.484635999999999E1,3.0015270399999997E2,2.00377264E2,2.5164585599999998E2,5.9897755999999994E1,8.144803999999999E1,4.5152344E1,2.8365517999999998E1,4.5659424E1,3.1951708E1,7.263248E1,3.7364808E1,1.5784559E1,7.8067269999999995E0,8.706718E0,5.740416E0,1,3,11,14,17,19,22,23,31,6,9,28,15,10,14,1,14,2,9,13,2,0,0,0,
1571999838,2019-10-25 10:37:18.806,Acquired,Acquired,Acquired,Acquired,Acquired,Acquired,Acquired,Acquired,Acquired,Not acquired,Not acquired,Not acquired,1.17174448E2,2.85906144E2,1.55324144E2,4.8592487999999996E1,2.9208224E2,3.1001500799999997E2,6.3782211999999994E1,1.8392790399999998E2,7.484635999999999E1,3.0015270399999997E2,2.00377264E2,2.5164585599999998E2,5.9897755999999994E1,8.144803999999999E1,4.5152344E1,2.8365517999999998E1,4.5659424E1,3.1951708E1,7.263248E1,3.7364808E1,1.5784559E1,7.8067269999999995E0,8.706718E0,5.740416E0,1,3,11,14,17,19,22,23,31,6,9,28,15,10,14,1,14,2,9,13,2,0,0,0,
1571999898,2019-10-25 10:38:18.806,Acquired,Acquired,Acquired,Acquired,Acquired,Acquired,Acquired,Acquired,Acquired,Not acquired,Not acquired,Not acquired,1.17174448E2,2.85906144E2,1.55324144E2,4.8592487999999996E1,2.9208224E2,3.1001500799999997E2,6.3782211999999994E1,1.8392790399999998E2,7.484635999999999E1,3.0015270399999997E2,2.00377264E2,2.5164585599999998E2,5.9897755999999994E1,8.144803999999999E1,4.5152344E1,2.8365517999999998E1,4.5659424E1,3.1951708E1,7.263248E1,3.7364808E1,1.5784559E1,7.8067269999999995E0,8.706718E0,5.740416E0,1,3,11,14,17,19,22,23,31,6,9,28,15,10,14,1,14,2,9,13,2,0,0,0,
1571999958,2019-10-25 10:39:18.806,Acquired,Acquired,Acquired,Acquired,Acquired,Acquired,Acquired,Acquired,Acquired,Not acquired,Not acquired,Not acquired,1.17174448E2,2.85906144E2,1.55324144E2,4.8592487999999996E1,2.9208224E2,3.1001500799999997E2,6.3782211999999994E1,1.8392790399999998E2,7.484635999999999E1,3.0015270399999997E2,2.00377264E2,2.5164585599999998E2,5.9897755999999994E1,8.144803999999999E1,4.5152344E1,2.8365517999999998E1,4.5659424E1,3.1951708E1,7.263248E1,3.7364808E1,1.5784559E1,7.8067269999999995E0,8.706718E0,5.740416E0,1,3,11,14,17,19,22,23,31,6,9,28,15,10,14,1,14,2,9,13,2,0,0,0,
1572000018,2019-10-25 10:40:18.807,Acquired,Acquired,Acquired,Acquired,Acquired,Acquired,Acquired,Acquired,Acquired,Not acquired,Not acquired,Not acquired,1.17174448E2,2.85906144E2,1.55324144E2,4.8592487999999996E1,2.9208224E2,3.1001500799999997E2,6.3782211999999994E1,1.8392790399999998E2,7.484635999999999E1,3.0015270399999997E2,2.00377264E2,2.5164585599999998E2,5.9897755999999994E1,8.144803999999999E1,4.5152344E1,2.8365517999999998E1,4.5659424E1,3.1951708E1,7.263248E1,3.7364808E1,1.5784559E1,7.8067269999999995E0,8.706718E0,5.740416E0,1,3,11,14,17,19,22,23,31,6,9,28,15,10,14,1,14,2,9,13,2,0,0,0,
1572000078,2019-10-25 10:41:18.809,Acquired,Acquired,Acquired,Acquired,Acquired,Acquired,Acquired,Acquired,Acquired,Not acquired,Not acquired,Not acquired,1.17174448E2,2.85906144E2,1.55324144E2,4.8592487999999996E1,2.9208224E2,3.1001500799999997E2,6.3782211999999994E1,1.8392790399999998E2,7.484635999999999E1,3.0015270399999997E2,2.00377264E2,2.5164585599999998E2,5.9897755999999994E1,8.144803999999999E1,4.5152344E1,2.8365517999999998E1,4.5659424E1,3.1951708E1,7.263248E1,3.7364808E1,1.5784559E1,7.8067269999999995E0,8.706718E0,5.740416E0,1,3,11,14,17,19,22,23,31,6,9,28,15,10,14,1,14,2,9,13,2,0,0,0,
1572000138,2019-10-25 10:42:18.806,Acquired,Acquired,Acquired,Acquired,Acquired,Acquired,Acquired,Acquired,Acquired,Not acquired,Not acquired,Not acquired,1.17174448E2,2.85906144E2,1.55324144E2,4.8592487999999996E1,2.9208224E2,3.1001500799999997E2,6.3782211999999994E1,1.8392790399999998E2,7.484635999999999E1,3.0015270399999997E2,2.00377264E2,2.5164585599999998E2,5.9897755999999994E1,8.144803999999999E1,4.5152344E1,2.8365517999999998E1,4.5659424E1,3.1951708E1,7.263248E1,3.7364808E1,1.5784559E1,7.8067269999999995E0,8.706718E0,5.740416E0,1,3,11,14,17,19,22,23,31,6,9,28,15,10,14,1,14,2,9,13,2,0,0,0,
1572000198,2019-10-25 10:43:18.809,Acquired,Acquired,Acquired,Acquired,Acquired,Acquired,Acquired,Acquired,Acquired,Not acquired,Not acquired,Not acquired,1.17174448E2,2.85906144E2,1.55324144E2,4.8592487999999996E1,2.9208224E2,3.1001500799999997E2,6.3782211999999994E1,1.8392790399999998E2,7.484635999999999E1,3.0015270399999997E2,2.00377264E2,2.5164585599999998E2,5.9897755999999994E1,8.144803999999999E1,4.5152344E1,2.8365517999999998E1,4.5659424E1,3.1951708E1,7.263248E1,3.7364808E1,1.5784559E1,7.8067269999999995E0,8.706718E0,5.740416E0,1,3,11,14,17,19,22,23,31,6,9,28,15,10,14,1,14,2,9,13,2,0,0,0,
1572000258,2019-10-25 10:44:18.806,Acquired,Acquired,Acquired,Acquired,Acquired,Acquired,Acquired,Acquired,Acquired,Not acquired,Not acquired,Not acquired,1.17174448E2,2.85906144E2,1.55324144E2,4.8592487999999996E1,2.9208224E2,3.1001500799999997E2,6.3782211999999994E1,1.8392790399999998E2,7.484635999999999E1,3.0015270399999997E2,2.00377264E2,2.5164585599999998E2,5.9897755999999994E1,8.144803999999999E1,4.5152344E1,2.8365517999999998E1,4.5659424E1,3.1951708E1,7.263248E1,3.7364808E1,1.5784559E1,7.8067269999999995E0,8.706718E0,5.740416E0,1,3,11,14,17,19,22,23,31,6,9,28,15,10,14,1,14,2,9,13,2,0,0,0,
1572000318,2019-10-25 10:45:18.809,Acquired,Acquired,Acquired,Acquired,Acquired,Acquired,Acquired,Acquired,Acquired,Not acquired,Not acquired,Not acquired,1.17174448E2,2.85906144E2,1.55324144E2,4.8592487999999996E1,2.9208224E2,3.1001500799999997E2,6.3782211999999994E1,1.8392790399999998E2,7.484635999999999E1,3.0015270399999997E2,2.00377264E2,2.5164585599999998E2,5.9897755999999994E1,8.144803999999999E1,4.5152344E1,2.8365517999999998E1,4.5659424E1,3.1951708E1,7.263248E1,3.7364808E1,1.5784559E1,7.8067269999999995E0,8.706718E0,5.740416E0,1,3,11,14,17,19,22,23,31,6,9,28,15,10,14,1,14,2,9,13,2,0,0,0,
1572000378,2019-10-25 10:46:18.807,Acquired,Acquired,Acquired,Acquired,Acquired,Acquired,Acquired,Acquired,Acquired,Not acquired,Not acquired,Not acquired,1.17174448E2,2.85906144E2,1.55324144E2,4.8592487999999996E1,2.9208224E2,3.1001500799999997E2,6.3782211999999994E1,1.8392790399999998E2,7.484635999999999E1,3.0015270399999997E2,2.00377264E2,2.5164585599999998E2,5.9897755999999994E1,8.144803999999999E1,4.5152344E1,2.8365517999999998E1,4.5659424E1,3.1951708E1,7.263248E1,3.7364808E1,1.5784559E1,7.8067269999999995E0,8.706718E0,5.740416E0,1,3,11,14,17,19,22,23,31,6,9,28,15,10,14,1,14,2,9,13,2,0,0,0,
1572000438,2019-10-25 10:47:18.806,Acquired,Acquired,Acquired,Acquired,Acquired,Acquired,Acquired,Acquired,Acquired,Not acquired,Not acquired,Not acquired,1.17174448E2,2.85906144E2,1.55324144E2,4.8592487999999996E1,2.9208224E2,3.1001500799999997E2,6.3782211999999994E1,1.8392790399999998E2,7.484635999999999E1,3.0015270399999997E2,2.00377264E2,2.5164585599999998E2,5.9897755999999994E1,8.144803999999999E1,4.5152344E1,2.8365517999999998E1,4.5659424E1,3.1951708E1,7.263248E1,3.7364808E1,1.5784559E1,7.8067269999999995E0,8.706718E0,5.740416E0,1,3,11,14,17,19,22,23,31,6,9,28,15,10,14,1,14,2,9,13,2,0,0,0,
1572000498,2019-10-25 10:48:18.809,Acquired,Acquired,Acquired,Acquired,Acquired,Acquired,Acquired,Acquired,Acquired,Not acquired,Not acquired,Not acquired,1.17174448E2,2.85906144E2,1.55324144E2,4.8592487999999996E1,2.9208224E2,3.1001500799999997E2,6.3782211999999994E1,1.8392790399999998E2,7.484635999999999E1,3.0015270399999997E2,2.00377264E2,2.5164585599999998E2,5.9897755999999994E1,8.144803999999999E1,4.5152344E1,2.8365517999999998E1,4.5659424E1,3.1951708E1,7.263248E1,3.7364808E1,1.5784559E1,7.8067269999999995E0,8.706718E0,5.740416E0,1,3,11,14,17,19,22,23,31,6,9,28,15,10,14,1,14,2,9,13,2,0,0,0,
1572000558,2019-10-25 10:49:18.806,Acquired,Acquired,Acquired,Acquired,Acquired,Acquired,Acquired,Acquired,Acquired,Not acquired,Not acquired,Not acquired,1.17174448E2,2.85906144E2,1.55324144E2,4.8592487999999996E1,2.9208224E2,3.1001500799999997E2,6.3782211999999994E1,1.8392790399999998E2,7.484635999999999E1,3.0015270399999997E2,2.00377264E2,2.5164585599999998E2,5.9897755999999994E1,8.144803999999999E1,4.5152344E1,2.8365517999999998E1,4.5659424E1,3.1951708E1,7.263248E1,3.7364808E1,1.5784559E1,7.8067269999999995E0,8.706718E0,5.740416E0,1,3,11,14,17,19,22,23,31,6,9,28,15,10,14,1,14,2,9,13,2,0,0,0,
1572000618,2019-10-25 10:50:18.806,Acquired,Acquired,Acquired,Acquired,Acquired,Acquired,Acquired,Acquired,Acquired,Not acquired,Not acquired,Not acquired,1.17174448E2,2.85906144E2,1.55324144E2,4.8592487999999996E1,2.9208224E2,3.1001500799999997E2,6.3782211999999994E1,1.8392790399999998E2,7.484635999999999E1,3.0015270399999997E2,2.00377264E2,2.5164585599999998E2,5.9897755999999994E1,8.144803999999999E1,4.5152344E1,2.8365517999999998E1,4.5659424E1,3.1951708E1,7.263248E1,3.7364808E1,1.5784559E1,7.8067269999999995E0,8.706718E0,5.740416E0,1,3,11,14,17,19,22,23,31,6,9,28,15,10,14,1,14,2,9,13,2,0,0,0,
1572000678,2019-10-25 10:51:18.806,Acquired,Acquired,Acquired,Acquired,Acquired,Acquired,Acquired,Acquired,Acquired,Not acquired,Not acquired,Not acquired,1.17174448E2,2.85906144E2,1.55324144E2,4.8592487999999996E1,2.9208224E2,3.1001500799999997E2,6.3782211999999994E1,1.8392790399999998E2,7.484635999999999E1,3.0015270399999997E2,2.00377264E2,2.5164585599999998E2,5.9897755999999994E1,8.144803999999999E1,4.5152344E1,2.8365517999999998E1,4.5659424E1,3.1951708E1,7.263248E1,3.7364808E1,1.5784559E1,7.8067269999999995E0,8.706718E0,5.740416E0,1,3,11,14,17,19,22,23,31,6,9,28,15,10,14,1,14,2,9,13,2,0,0,0,
1572000738,2019-10-25 10:52:18.809,Acquired,Acquired,Acquired,Acquired,Acquired,Acquired,Acquired,Acquired,Acquired,Not acquired,Not acquired,Not acquired,1.17174448E2,2.85906144E2,1.55324144E2,4.8592487999999996E1,2.9208224E2,3.1001500799999997E2,6.3782211999999994E1,1.8392790399999998E2,7.484635999999999E1,3.0015270399999997E2,2.00377264E2,2.5164585599999998E2,5.9897755999999994E1,8.144803999999999E1,4.5152344E1,2.8365517999999998E1,4.5659424E1,3.1951708E1,7.263248E1,3.7364808E1,1.5784559E1,7.8067269999999995E0,8.706718E0,5.740416E0,1,3,11,14,17,19,22,23,31,6,9,28,15,10,14,1,14,2,9,13,2,0,0,0,
1572000798,2019-10-25 10:53:18.806,Acquired,Acquired,Acquired,Acquired,Acquired,Acquired,Acquired,Acquired,Acquired,Not acquired,Not acquired,Not acquired,1.17174448E2,2.85906144E2,1.55324144E2,4.8592487999999996E1,2.9208224E2,3.1001500799999997E2,6.3782211999999994E1,1.8392790399999998E2,7.484635999999999E1,3.0015270399999997E2,2.00377264E2,2.5164585599999998E2,5.9897755999999994E1,8.144803999999999E1,4.5152344E1,2.8365517999999998E1,4.5659424E1,3.1951708E1,7.263248E1,3.7364808E1,1.5784559E1,7.8067269999999995E0,8.706718E0,5.740416E0,1,3,11,14,17,19,22,23,31,6,9,28,15,10,14,1,14,2,9,13,2,0,0,0,
1572000858,2019-10-25 10:54:18.806,Acquired,Acquired,Acquired,Acquired,Acquired,Acquired,Acquired,Acquired,Acquired,Not acquired,Not acquired,Not acquired,1.17174448E2,2.85906144E2,1.55324144E2,4.8592487999999996E1,2.9208224E2,3.1001500799999997E2,6.3782211999999994E1,1.8392790399999998E2,7.484635999999999E1,3.0015270399999997E2,2.00377264E2,2.5164585599999998E2,5.9897755999999994E1,8.144803999999999E1,4.5152344E1,2.8365517999999998E1,4.5659424E1,3.1951708E1,7.263248E1,3.7364808E1,1.5784559E1,7.8067269999999995E0,8.706718E0,5.740416E0,1,3,11,14,17,19,22,23,31,6,9,28,15,10,14,1,14,2,9,13,2,0,0,0,
1572000918,2019-10-25 10:55:18.806,Acquired,Acquired,Acquired,Acquired,Acquired,Acquired,Acquired,Acquired,Acquired,Not acquired,Not acquired,Not acquired,1.17174448E2,2.85906144E2,1.55324144E2,4.8592487999999996E1,2.9208224E2,3.1001500799999997E2,6.3782211999999994E1,1.8392790399999998E2,7.484635999999999E1,3.0015270399999997E2,2.00377264E2,2.5164585599999998E2,5.9897755999999994E1,8.144803999999999E1,4.5152344E1,2.8365517999999998E1,4.5659424E1,3.1951708E1,7.263248E1,3.7364808E1,1.5784559E1,7.8067269999999995E0,8.706718E0,5.740416E0,1,3,11,14,17,19,22,23,31,6,9,28,15,10,14,1,14,2,9,13,2,0,0,0,
1572000978,2019-10-25 10:56:18.825,Acquired,Acquired,Acquired,Acquired,Acquired,Acquired,Acquired,Acquired,Acquired,Not acquired,Not acquired,Not acquired,1.17174448E2,2.85906144E2,1.55324144E2,4.8592487999999996E1,2.9208224E2,3.1001500799999997E2,6.3782211999999994E1,1.8392790399999998E2,7.484635999999999E1,3.0015270399999997E2,2.00377264E2,2.5164585599999998E2,5.9897755999999994E1,8.144803999999999E1,4.5152344E1,2.8365517999999998E1,4.5659424E1,3.1951708E1,7.263248E1,3.7364808E1,1.5784559E1,7.8067269999999995E0,8.706718E0,5.740416E0,1,3,11,14,17,19,22,23,31,6,9,28,15,10,14,1,14,2,9,13,2,0,0,0,
1572001038,2019-10-25 10:57:18.806,Acquired,Acquired,Acquired,Acquired,Acquired,Acquired,Acquired,Acquired,Acquired,Not acquired,Not acquired,Not acquired,1.17174448E2,2.85906144E2,1.55324144E2,4.8592487999999996E1,2.9208224E2,3.1001500799999997E2,6.3782211999999994E1,1.8392790399999998E2,7.484635999999999E1,3.0015270399999997E2,2.00377264E2,2.5164585599999998E2,5.9897755999999994E1,8.144803999999999E1,4.5152344E1,2.8365517999999998E1,4.5659424E1,3.1951708E1,7.263248E1,3.7364808E1,1.5784559E1,7.8067269999999995E0,8.706718E0,5.740416E0,1,3,11,14,17,19,22,23,31,6,9,28,15,10,14,1,14,2,9,13,2,0,0,0,
1572001098,2019-10-25 10:58:18.806,Acquired,Acquired,Acquired,Acquired,Acquired,Acquired,Acquired,Acquired,Acquired,Not acquired,Not acquired,Not acquired,1.17174448E2,2.85906144E2,1.55324144E2,4.8592487999999996E1,2.9208224E2,3.1001500799999997E2,6.3782211999999994E1,1.8392790399999998E2,7.484635999999999E1,3.0015270399999997E2,2.00377264E2,2.5164585599999998E2,5.9897755999999994E1,8.144803999999999E1,4.5152344E1,2.8365517999999998E1,4.5659424E1,3.1951708E1,7.263248E1,3.7364808E1,1.5784559E1,7.8067269999999995E0,8.706718E0,5.740416E0,1,3,11,14,17,19,22,23,31,6,9,28,15,10,14,1,14,2,9,13,2,0,0,0,
1572001158,2019-10-25 10:59:18.809,Acquired,Acquired,Acquired,Acquired,Acquired,Acquired,Acquired,Acquired,Acquired,Not acquired,Not acquired,Not acquired,1.17174448E2,2.85906144E2,1.55324144E2,4.8592487999999996E1,2.9208224E2,3.1001500799999997E2,6.3782211999999994E1,1.8392790399999998E2,7.484635999999999E1,3.0015270399999997E2,2.00377264E2,2.5164585599999998E2,5.9897755999999994E1,8.144803999999999E1,4.5152344E1,2.8365517999999998E1,4.5659424E1,3.1951708E1,7.263248E1,3.7364808E1,1.5784559E1,7.8067269999999995E0,8.706718E0,5.740416E0,1,3,11,14,17,19,22,23,31,6,9,28,15,10,14,1,14,2,9,13,2,0,0,0,
