Time(longsecs),Time(UTC),Supply Voltage(mV),Temperature(&deg;C),NMX Bus Current(mA),Sensor Current(mA),Serial Port Current(mA),Controller Current(mA),Digitizer Current(mA),
1572030018,2019-10-25 19:00:18.806,16455,2.1026184E1,0,7,0,38,41,
1572030078,2019-10-25 19:01:18.807,16509,2.1170929E1,0,6,0,37,38,
1572030138,2019-10-25 19:02:18.845,16482,2.1072632E1,0,7,0,38,34,
1572030198,2019-10-25 19:03:18.811,16482,2.086847E1,0,4,0,39,38,
1572030258,2019-10-25 19:04:18.806,16482,2.084256E1,0,9,0,33,36,
1572030318,2019-10-25 19:05:18.806,16482,2.1079132E1,0,7,0,39,36,
1572030378,2019-10-25 19:06:18.806,16482,2.0931122E1,0,8,0,38,38,
1572030438,2019-10-25 19:07:18.806,16482,2.1000275E1,0,8,0,38,35,
1572030498,2019-10-25 19:08:18.806,16469,2.087497E1,0,9,0,39,37,
1572030558,2019-10-25 19:09:18.806,16469,2.0909515E1,0,4,0,38,41,
1572030618,2019-10-25 19:10:18.806,16482,2.1124481E1,0,7,0,38,37,
1572030678,2019-10-25 19:11:18.806,16469,2.0988373E1,0,4,0,38,34,
1572030738,2019-10-25 19:12:18.806,16564,2.0702118E1,0,1,0,39,38,
1572030798,2019-10-25 19:13:18.806,16482,2.0895477E1,0,7,0,40,40,
1572030858,2019-10-25 19:14:18.806,16482,2.0850098E1,0,8,0,36,38,
1572030918,2019-10-25 19:15:18.811,16469,2.079718E1,0,11,0,33,40,
1572030978,2019-10-25 19:16:18.839,16469,2.0963531E1,0,10,0,39,39,
1572031038,2019-10-25 19:17:18.806,16469,2.0677277E1,0,7,0,39,34,
1572031098,2019-10-25 19:18:18.806,16482,2.0897644E1,0,8,0,39,37,
1572031158,2019-10-25 19:19:18.806,16482,2.0865234E1,0,6,0,33,38,
1572031218,2019-10-25 19:20:18.807,16482,2.0920319E1,0,9,0,36,36,
1572031278,2019-10-25 19:21:18.806,16469,2.0916016E1,0,8,0,38,37,
1572031338,2019-10-25 19:22:18.806,16469,2.0812317E1,0,7,0,38,36,
1572031398,2019-10-25 19:23:18.840,16482,2.058545E1,0,14,0,34,36,
1572031458,2019-10-25 19:24:18.816,16496,2.0682678E1,0,8,0,34,36,
1572031518,2019-10-25 19:25:18.806,16482,2.0622192E1,0,13,0,39,37,
1572031578,2019-10-25 19:26:18.838,16469,2.0639465E1,0,9,0,37,38,
1572031638,2019-10-25 19:27:18.807,16469,2.0940857E1,0,6,0,47,35,
1572031698,2019-10-25 19:28:18.808,16469,2.0791779E1,20,9,0,43,36,
1572031758,2019-10-25 19:29:18.807,16469,2.0717255E1,0,3,0,42,40,
1572031818,2019-10-25 19:30:18.807,16469,2.0837158E1,11,9,0,36,35,
1572031878,2019-10-25 19:31:18.806,16496,2.0787445E1,0,10,0,34,35,
1572031938,2019-10-25 19:32:18.807,16469,2.083606E1,0,8,0,40,34,
1572031998,2019-10-25 19:33:18.806,16469,2.072696E1,0,7,0,33,38,
1572032058,2019-10-25 19:34:18.808,16469,2.0828491E1,0,6,0,34,35,
1572032118,2019-10-25 19:35:18.807,16469,2.0885742E1,0,9,0,35,37,
1572032178,2019-10-25 19:36:18.806,16469,2.0749634E1,0,7,0,40,36,
1572032238,2019-10-25 19:37:18.806,16469,2.0765839E1,0,7,0,39,36,
1572032298,2019-10-25 19:38:18.806,16469,2.0467712E1,0,10,0,28,36,
1572032358,2019-10-25 19:39:18.806,16469,2.0760437E1,0,7,0,33,38,
1572032418,2019-10-25 19:40:18.816,16469,2.0638397E1,0,8,0,40,36,
1572032478,2019-10-25 19:41:18.806,16455,2.059085E1,0,11,0,39,36,
1572032538,2019-10-25 19:42:18.806,16469,2.0535767E1,0,13,0,33,35,
1572032598,2019-10-25 19:43:18.806,16455,2.046878E1,0,6,0,38,37,
1572032658,2019-10-25 19:44:18.806,16469,2.061679E1,0,7,0,33,35,
1572032718,2019-10-25 19:45:18.806,16442,2.0548737E1,0,7,0,38,35,
1572032778,2019-10-25 19:46:18.806,16469,2.0640533E1,0,8,0,38,33,
1572032838,2019-10-25 19:47:18.806,16469,2.0582214E1,0,13,0,37,36,
1572032898,2019-10-25 19:48:18.806,16469,2.0573578E1,0,6,0,39,37,
1572032958,2019-10-25 19:49:18.806,16482,2.0563843E1,0,6,27,33,38,
1572033018,2019-10-25 19:50:18.806,16469,2.0708588E1,0,9,0,38,37,
1572033078,2019-10-25 19:51:18.806,16455,2.0429901E1,0,8,0,37,34,
1572033138,2019-10-25 19:52:18.807,16469,2.0651337E1,0,6,0,38,35,
1572033198,2019-10-25 19:53:18.806,16427,2.0548737E1,0,8,0,36,34,
1572033258,2019-10-25 19:54:18.806,16469,2.0596252E1,0,6,0,39,35,
1572033318,2019-10-25 19:55:18.806,16469,2.0322968E1,0,0,0,36,36,
1572033378,2019-10-25 19:56:18.806,16414,2.0534698E1,0,6,0,39,35,
1572033438,2019-10-25 19:57:18.807,16455,2.0238708E1,0,6,0,33,38,
1572033498,2019-10-25 19:58:18.806,16455,2.048822E1,0,9,0,33,40,
1572033558,2019-10-25 19:59:18.806,16469,2.0380219E1,0,6,0,36,37,
