Time(longsecs),Time(UTC),GPS Satellite Acquisition Flag 1,GPS Satellite Acquisition Flag 2,GPS Satellite Acquisition Flag 3,GPS Satellite Acquisition Flag 4,GPS Satellite Acquisition Flag 5,GPS Satellite Acquisition Flag 6,GPS Satellite Acquisition Flag 7,GPS Satellite Acquisition Flag 8,GPS Satellite Acquisition Flag 9,GPS Satellite Acquisition Flag 10,GPS Satellite Acquisition Flag 11,GPS Satellite Acquisition Flag 12,GPS Satellite Azimuth 1(Degrees),GPS Satellite Azimuth 2(Degrees),GPS Satellite Azimuth 3(Degrees),GPS Satellite Azimuth 4(Degrees),GPS Satellite Azimuth 5(Degrees),GPS Satellite Azimuth 6(Degrees),GPS Satellite Azimuth 7(Degrees),GPS Satellite Azimuth 8(Degrees),GPS Satellite Azimuth 9(Degrees),GPS Satellite Azimuth 10(Degrees),GPS Satellite Azimuth 11(Degrees),GPS Satellite Azimuth 12(Degrees),GPS Satellite Elevation 1(Degrees),GPS Satellite Elevation 2(Degrees),GPS Satellite Elevation 3(Degrees),GPS Satellite Elevation 4(Degrees),GPS Satellite Elevation 5(Degrees),GPS Satellite Elevation 6(Degrees),GPS Satellite Elevation 7(Degrees),GPS Satellite Elevation 8(Degrees),GPS Satellite Elevation 9(Degrees),GPS Satellite Elevation 10(Degrees),GPS Satellite Elevation 11(Degrees),GPS Satellite Elevation 12(Degrees),GPS Satellite PRN 1,GPS Satellite PRN 2,GPS Satellite PRN 3,GPS Satellite PRN 4,GPS Satellite PRN 5,GPS Satellite PRN 6,GPS Satellite PRN 7,GPS Satellite PRN 8,GPS Satellite PRN 9,GPS Satellite PRN 10,GPS Satellite PRN 11,GPS Satellite PRN 12,GPS Satellite Signal Level 1(AMU),GPS Satellite Signal Level 2(AMU),GPS Satellite Signal Level 3(AMU),GPS Satellite Signal Level 4(AMU),GPS Satellite Signal Level 5(AMU),GPS Satellite Signal Level 6(AMU),GPS Satellite Signal Level 7(AMU),GPS Satellite Signal Level 8(AMU),GPS Satellite Signal Level 9(AMU),GPS Satellite Signal Level 10(AMU),GPS Satellite Signal Level 11(AMU),GPS Satellite Signal Level 12(AMU),
1570766411,2019-10-11 04:00:11.767,Not acquired,Acquired,Acquired,Acquired,Acquired,Acquired,Acquired,Not acquired,,,,,5.6257064E1,2.97058112E2,1.6916275199999998E2,1.1677347999999999E2,2.9768963199999996E2,5.940036E1,2.1305121599999998E2,3.11945344E2,,,,,1.4492704E1,2.9586579999999998E1,5.0512788E1,2.7108126E1,5.815768E1,5.3062979999999996E1,4.8962784E1,7.6884239999999995E0,,,,,5,16,21,25,26,29,31,23,,,,,0,5,10,5,14,8,12,0,,,,,
1570766471,2019-10-11 04:01:11.768,Not acquired,Acquired,Acquired,Acquired,Acquired,Acquired,Acquired,Not acquired,,,,,5.6257064E1,2.97058112E2,1.6916275199999998E2,1.1677347999999999E2,2.9768963199999996E2,5.940036E1,2.1305121599999998E2,3.11945344E2,,,,,1.4492704E1,2.9586579999999998E1,5.0512788E1,2.7108126E1,5.815768E1,5.3062979999999996E1,4.8962784E1,7.6884239999999995E0,,,,,5,16,21,25,26,29,31,23,,,,,0,5,10,5,14,8,12,0,,,,,
1570766531,2019-10-11 04:02:11.768,Not acquired,Acquired,Acquired,Acquired,Acquired,Acquired,Acquired,Not acquired,,,,,5.6257064E1,2.97058112E2,1.6916275199999998E2,1.1677347999999999E2,2.9768963199999996E2,5.940036E1,2.1305121599999998E2,3.11945344E2,,,,,1.4492704E1,2.9586579999999998E1,5.0512788E1,2.7108126E1,5.815768E1,5.3062979999999996E1,4.8962784E1,7.6884239999999995E0,,,,,5,16,21,25,26,29,31,23,,,,,0,5,10,5,14,8,12,0,,,,,
1570766591,2019-10-11 04:03:11.767,Not acquired,Acquired,Acquired,Acquired,Acquired,Acquired,Acquired,Not acquired,,,,,5.6257064E1,2.97058112E2,1.6916275199999998E2,1.1677347999999999E2,2.9768963199999996E2,5.940036E1,2.1305121599999998E2,3.11945344E2,,,,,1.4492704E1,2.9586579999999998E1,5.0512788E1,2.7108126E1,5.815768E1,5.3062979999999996E1,4.8962784E1,7.6884239999999995E0,,,,,5,16,21,25,26,29,31,23,,,,,0,5,10,5,14,8,12,0,,,,,
1570766651,2019-10-11 04:04:11.767,Acquired,Acquired,Acquired,Acquired,Acquired,Acquired,Acquired,Not acquired,,,,,5.5830183999999996E1,2.97234944E2,1.68929264E2,1.17040048E2,2.97685248E2,5.9572027999999996E1,2.1265712E2,3.11558944E2,,,,,1.4546643E1,3.0002779999999998E1,5.0983591999999994E1,2.671191E1,5.8608264E1,5.2619212E1,4.8550996E1,7.6066579999999995E0,,,,,5,16,21,25,26,29,31,23,,,,,1,3,7,7,14,9,12,0,,,,,
1570766711,2019-10-11 04:05:11.767,Acquired,Acquired,Acquired,Acquired,Acquired,Acquired,Acquired,Not acquired,,,,,5.5830183999999996E1,2.97234944E2,1.68929264E2,1.17040048E2,2.97685248E2,5.9572027999999996E1,2.1265712E2,3.11558944E2,,,,,1.4546643E1,3.0002779999999998E1,5.0983591999999994E1,2.671191E1,5.8608264E1,5.2619212E1,4.8550996E1,7.6066579999999995E0,,,,,5,16,21,25,26,29,31,23,,,,,1,3,7,7,14,9,12,0,,,,,
1570766771,2019-10-11 04:06:11.767,Acquired,Acquired,Acquired,Acquired,Acquired,Acquired,Acquired,Not acquired,,,,,5.5830183999999996E1,2.97234944E2,1.68929264E2,1.17040048E2,2.97685248E2,5.9572027999999996E1,2.1265712E2,3.11558944E2,,,,,1.4546643E1,3.0002779999999998E1,5.0983591999999994E1,2.671191E1,5.8608264E1,5.2619212E1,4.8550996E1,7.6066579999999995E0,,,,,5,16,21,25,26,29,31,23,,,,,1,3,7,7,14,9,12,0,,,,,
1570766831,2019-10-11 04:07:11.767,Acquired,Acquired,Acquired,Acquired,Acquired,Acquired,Acquired,Not acquired,,,,,5.5830183999999996E1,2.97234944E2,1.68929264E2,1.17040048E2,2.97685248E2,5.9572027999999996E1,2.1265712E2,3.11558944E2,,,,,1.4546643E1,3.0002779999999998E1,5.0983591999999994E1,2.671191E1,5.8608264E1,5.2619212E1,4.8550996E1,7.6066579999999995E0,,,,,5,16,21,25,26,29,31,23,,,,,1,3,7,7,14,9,12,0,,,,,
1570766891,2019-10-11 04:08:11.767,Acquired,Acquired,Acquired,Acquired,Acquired,Acquired,Acquired,Not acquired,,,,,5.5830183999999996E1,2.97234944E2,1.68929264E2,1.17040048E2,2.97685248E2,5.9572027999999996E1,2.1265712E2,3.11558944E2,,,,,1.4546643E1,3.0002779999999998E1,5.0983591999999994E1,2.671191E1,5.8608264E1,5.2619212E1,4.8550996E1,7.6066579999999995E0,,,,,5,16,21,25,26,29,31,23,,,,,1,3,7,7,14,9,12,0,,,,,
1570766951,2019-10-11 04:09:11.767,Acquired,Acquired,Acquired,Acquired,Acquired,Acquired,Acquired,Not acquired,,,,,5.5830183999999996E1,2.97234944E2,1.68929264E2,1.17040048E2,2.97685248E2,5.9572027999999996E1,2.1265712E2,3.11558944E2,,,,,1.4546643E1,3.0002779999999998E1,5.0983591999999994E1,2.671191E1,5.8608264E1,5.2619212E1,4.8550996E1,7.6066579999999995E0,,,,,5,16,21,25,26,29,31,23,,,,,1,3,7,7,14,9,12,0,,,,,
1570767011,2019-10-11 04:10:11.767,Acquired,Acquired,Acquired,Acquired,Acquired,Acquired,Acquired,Not acquired,,,,,5.5830183999999996E1,2.97234944E2,1.68929264E2,1.17040048E2,2.97685248E2,5.9572027999999996E1,2.1265712E2,3.11558944E2,,,,,1.4546643E1,3.0002779999999998E1,5.0983591999999994E1,2.671191E1,5.8608264E1,5.2619212E1,4.8550996E1,7.6066579999999995E0,,,,,5,16,21,25,26,29,31,23,,,,,1,3,7,7,14,9,12,0,,,,,
1570767071,2019-10-11 04:11:11.767,Acquired,Acquired,Acquired,Acquired,Acquired,Acquired,Acquired,Not acquired,,,,,5.5830183999999996E1,2.97234944E2,1.68929264E2,1.17040048E2,2.97685248E2,5.9572027999999996E1,2.1265712E2,3.11558944E2,,,,,1.4546643E1,3.0002779999999998E1,5.0983591999999994E1,2.671191E1,5.8608264E1,5.2619212E1,4.8550996E1,7.6066579999999995E0,,,,,5,16,21,25,26,29,31,23,,,,,1,3,7,7,14,9,12,0,,,,,
1570767131,2019-10-11 04:12:11.767,Acquired,Acquired,Acquired,Acquired,Acquired,Acquired,Acquired,Not acquired,,,,,5.5830183999999996E1,2.97234944E2,1.68929264E2,1.17040048E2,2.97685248E2,5.9572027999999996E1,2.1265712E2,3.11558944E2,,,,,1.4546643E1,3.0002779999999998E1,5.0983591999999994E1,2.671191E1,5.8608264E1,5.2619212E1,4.8550996E1,7.6066579999999995E0,,,,,5,16,21,25,26,29,31,23,,,,,1,3,7,7,14,9,12,0,,,,,
1570767191,2019-10-11 04:13:11.767,Acquired,Acquired,Acquired,Acquired,Acquired,Acquired,Acquired,Not acquired,,,,,5.5830183999999996E1,2.97234944E2,1.68929264E2,1.17040048E2,2.97685248E2,5.9572027999999996E1,2.1265712E2,3.11558944E2,,,,,1.4546643E1,3.0002779999999998E1,5.0983591999999994E1,2.671191E1,5.8608264E1,5.2619212E1,4.8550996E1,7.6066579999999995E0,,,,,5,16,21,25,26,29,31,23,,,,,1,3,7,7,14,9,12,0,,,,,
1570767251,2019-10-11 04:14:11.767,Acquired,Acquired,Acquired,Acquired,Acquired,Acquired,Acquired,Not acquired,,,,,5.5830183999999996E1,2.97234944E2,1.68929264E2,1.17040048E2,2.97685248E2,5.9572027999999996E1,2.1265712E2,3.11558944E2,,,,,1.4546643E1,3.0002779999999998E1,5.0983591999999994E1,2.671191E1,5.8608264E1,5.2619212E1,4.8550996E1,7.6066579999999995E0,,,,,5,16,21,25,26,29,31,23,,,,,1,3,7,7,14,9,12,0,,,,,
1570767311,2019-10-11 04:15:11.767,Acquired,Acquired,Acquired,Acquired,Acquired,Acquired,Acquired,Not acquired,,,,,5.5830183999999996E1,2.97234944E2,1.68929264E2,1.17040048E2,2.97685248E2,5.9572027999999996E1,2.1265712E2,3.11558944E2,,,,,1.4546643E1,3.0002779999999998E1,5.0983591999999994E1,2.671191E1,5.8608264E1,5.2619212E1,4.8550996E1,7.6066579999999995E0,,,,,5,16,21,25,26,29,31,23,,,,,1,3,7,7,14,9,12,0,,,,,
1570767371,2019-10-11 04:16:11.767,Acquired,Acquired,Acquired,Acquired,Acquired,Acquired,Acquired,Not acquired,,,,,5.5830183999999996E1,2.97234944E2,1.68929264E2,1.17040048E2,2.97685248E2,5.9572027999999996E1,2.1265712E2,3.11558944E2,,,,,1.4546643E1,3.0002779999999998E1,5.0983591999999994E1,2.671191E1,5.8608264E1,5.2619212E1,4.8550996E1,7.6066579999999995E0,,,,,5,16,21,25,26,29,31,23,,,,,1,3,7,7,14,9,12,0,,,,,
1570767431,2019-10-11 04:17:11.769,Acquired,Acquired,Acquired,Acquired,Acquired,Acquired,Acquired,Not acquired,,,,,5.5830183999999996E1,2.97234944E2,1.68929264E2,1.17040048E2,2.97685248E2,5.9572027999999996E1,2.1265712E2,3.11558944E2,,,,,1.4546643E1,3.0002779999999998E1,5.0983591999999994E1,2.671191E1,5.8608264E1,5.2619212E1,4.8550996E1,7.6066579999999995E0,,,,,5,16,21,25,26,29,31,23,,,,,1,3,7,7,14,9,12,0,,,,,
1570767491,2019-10-11 04:18:11.767,Acquired,Acquired,Acquired,Acquired,Acquired,Acquired,Acquired,Not acquired,,,,,5.5830183999999996E1,2.97234944E2,1.68929264E2,1.17040048E2,2.97685248E2,5.9572027999999996E1,2.1265712E2,3.11558944E2,,,,,1.4546643E1,3.0002779999999998E1,5.0983591999999994E1,2.671191E1,5.8608264E1,5.2619212E1,4.8550996E1,7.6066579999999995E0,,,,,5,16,21,25,26,29,31,23,,,,,1,3,7,7,14,9,12,0,,,,,
1570767551,2019-10-11 04:19:11.767,Acquired,Acquired,Acquired,Acquired,Acquired,Acquired,Acquired,Not acquired,,,,,5.5830183999999996E1,2.97234944E2,1.68929264E2,1.17040048E2,2.97685248E2,5.9572027999999996E1,2.1265712E2,3.11558944E2,,,,,1.4546643E1,3.0002779999999998E1,5.0983591999999994E1,2.671191E1,5.8608264E1,5.2619212E1,4.8550996E1,7.6066579999999995E0,,,,,5,16,21,25,26,29,31,23,,,,,1,3,7,7,14,9,12,0,,,,,
1570767611,2019-10-11 04:20:11.799,Acquired,Acquired,Acquired,Acquired,Acquired,Acquired,Acquired,Not acquired,,,,,5.5830183999999996E1,2.97234944E2,1.68929264E2,1.17040048E2,2.97685248E2,5.9572027999999996E1,2.1265712E2,3.11558944E2,,,,,1.4546643E1,3.0002779999999998E1,5.0983591999999994E1,2.671191E1,5.8608264E1,5.2619212E1,4.8550996E1,7.6066579999999995E0,,,,,5,16,21,25,26,29,31,23,,,,,1,3,7,7,14,9,12,0,,,,,
1570767671,2019-10-11 04:21:11.767,Acquired,Acquired,Acquired,Acquired,Acquired,Acquired,Acquired,Not acquired,,,,,5.5830183999999996E1,2.97234944E2,1.68929264E2,1.17040048E2,2.97685248E2,5.9572027999999996E1,2.1265712E2,3.11558944E2,,,,,1.4546643E1,3.0002779999999998E1,5.0983591999999994E1,2.671191E1,5.8608264E1,5.2619212E1,4.8550996E1,7.6066579999999995E0,,,,,5,16,21,25,26,29,31,23,,,,,1,3,7,7,14,9,12,0,,,,,
1570767731,2019-10-11 04:22:11.767,Acquired,Acquired,Acquired,Acquired,Acquired,Acquired,Acquired,Not acquired,,,,,5.5830183999999996E1,2.97234944E2,1.68929264E2,1.17040048E2,2.97685248E2,5.9572027999999996E1,2.1265712E2,3.11558944E2,,,,,1.4546643E1,3.0002779999999998E1,5.0983591999999994E1,2.671191E1,5.8608264E1,5.2619212E1,4.8550996E1,7.6066579999999995E0,,,,,5,16,21,25,26,29,31,23,,,,,1,3,7,7,14,9,12,0,,,,,
1570767791,2019-10-11 04:23:11.767,Acquired,Acquired,Acquired,Acquired,Acquired,Acquired,Acquired,Not acquired,,,,,5.5830183999999996E1,2.97234944E2,1.68929264E2,1.17040048E2,2.97685248E2,5.9572027999999996E1,2.1265712E2,3.11558944E2,,,,,1.4546643E1,3.0002779999999998E1,5.0983591999999994E1,2.671191E1,5.8608264E1,5.2619212E1,4.8550996E1,7.6066579999999995E0,,,,,5,16,21,25,26,29,31,23,,,,,1,3,7,7,14,9,12,0,,,,,
1570767851,2019-10-11 04:24:11.779,Acquired,Acquired,Acquired,Acquired,Acquired,Acquired,Acquired,Not acquired,,,,,5.5830183999999996E1,2.97234944E2,1.68929264E2,1.17040048E2,2.97685248E2,5.9572027999999996E1,2.1265712E2,3.11558944E2,,,,,1.4546643E1,3.0002779999999998E1,5.0983591999999994E1,2.671191E1,5.8608264E1,5.2619212E1,4.8550996E1,7.6066579999999995E0,,,,,5,16,21,25,26,29,31,23,,,,,1,3,7,7,14,9,12,0,,,,,
1570767911,2019-10-11 04:25:11.767,Acquired,Acquired,Acquired,Acquired,Acquired,Acquired,Acquired,Not acquired,,,,,5.5830183999999996E1,2.97234944E2,1.68929264E2,1.17040048E2,2.97685248E2,5.9572027999999996E1,2.1265712E2,3.11558944E2,,,,,1.4546643E1,3.0002779999999998E1,5.0983591999999994E1,2.671191E1,5.8608264E1,5.2619212E1,4.8550996E1,7.6066579999999995E0,,,,,5,16,21,25,26,29,31,23,,,,,1,3,7,7,14,9,12,0,,,,,
1570767971,2019-10-11 04:26:11.767,Acquired,Acquired,Acquired,Acquired,Acquired,Acquired,Acquired,Not acquired,,,,,5.5830183999999996E1,2.97234944E2,1.68929264E2,1.17040048E2,2.97685248E2,5.9572027999999996E1,2.1265712E2,3.11558944E2,,,,,1.4546643E1,3.0002779999999998E1,5.0983591999999994E1,2.671191E1,5.8608264E1,5.2619212E1,4.8550996E1,7.6066579999999995E0,,,,,5,16,21,25,26,29,31,23,,,,,1,3,7,7,14,9,12,0,,,,,
1570768031,2019-10-11 04:27:11.767,Acquired,Acquired,Acquired,Acquired,Acquired,Acquired,Acquired,Not acquired,,,,,5.5830183999999996E1,2.97234944E2,1.68929264E2,1.17040048E2,2.97685248E2,5.9572027999999996E1,2.1265712E2,3.11558944E2,,,,,1.4546643E1,3.0002779999999998E1,5.0983591999999994E1,2.671191E1,5.8608264E1,5.2619212E1,4.8550996E1,7.6066579999999995E0,,,,,5,16,21,25,26,29,31,23,,,,,1,3,7,7,14,9,12,0,,,,,
1570768091,2019-10-11 04:28:11.769,Acquired,Acquired,Acquired,Acquired,Acquired,Acquired,Acquired,Not acquired,,,,,5.5830183999999996E1,2.97234944E2,1.68929264E2,1.17040048E2,2.97685248E2,5.9572027999999996E1,2.1265712E2,3.11558944E2,,,,,1.4546643E1,3.0002779999999998E1,5.0983591999999994E1,2.671191E1,5.8608264E1,5.2619212E1,4.8550996E1,7.6066579999999995E0,,,,,5,16,21,25,26,29,31,23,,,,,1,3,7,7,14,9,12,0,,,,,
1570768151,2019-10-11 04:29:11.767,Acquired,Acquired,Acquired,Acquired,Acquired,Acquired,Acquired,Not acquired,,,,,5.5830183999999996E1,2.97234944E2,1.68929264E2,1.17040048E2,2.97685248E2,5.9572027999999996E1,2.1265712E2,3.11558944E2,,,,,1.4546643E1,3.0002779999999998E1,5.0983591999999994E1,2.671191E1,5.8608264E1,5.2619212E1,4.8550996E1,7.6066579999999995E0,,,,,5,16,21,25,26,29,31,23,,,,,1,3,7,7,14,9,12,0,,,,,
1570768211,2019-10-11 04:30:11.767,Acquired,Acquired,Acquired,Acquired,Acquired,Acquired,Acquired,Not acquired,,,,,5.5830183999999996E1,2.97234944E2,1.68929264E2,1.17040048E2,2.97685248E2,5.9572027999999996E1,2.1265712E2,3.11558944E2,,,,,1.4546643E1,3.0002779999999998E1,5.0983591999999994E1,2.671191E1,5.8608264E1,5.2619212E1,4.8550996E1,7.6066579999999995E0,,,,,5,16,21,25,26,29,31,23,,,,,1,3,7,7,14,9,12,0,,,,,
1570768271,2019-10-11 04:31:11.767,Acquired,Acquired,Acquired,Acquired,Acquired,Acquired,Acquired,Not acquired,,,,,5.5830183999999996E1,2.97234944E2,1.68929264E2,1.17040048E2,2.97685248E2,5.9572027999999996E1,2.1265712E2,3.11558944E2,,,,,1.4546643E1,3.0002779999999998E1,5.0983591999999994E1,2.671191E1,5.8608264E1,5.2619212E1,4.8550996E1,7.6066579999999995E0,,,,,5,16,21,25,26,29,31,23,,,,,1,3,7,7,14,9,12,0,,,,,
1570768331,2019-10-11 04:32:11.767,Acquired,Acquired,Acquired,Acquired,Acquired,Acquired,Acquired,Not acquired,,,,,5.5830183999999996E1,2.97234944E2,1.68929264E2,1.17040048E2,2.97685248E2,5.9572027999999996E1,2.1265712E2,3.11558944E2,,,,,1.4546643E1,3.0002779999999998E1,5.0983591999999994E1,2.671191E1,5.8608264E1,5.2619212E1,4.8550996E1,7.6066579999999995E0,,,,,5,16,21,25,26,29,31,23,,,,,1,3,7,7,14,9,12,0,,,,,
1570768391,2019-10-11 04:33:11.767,Acquired,Acquired,Acquired,Acquired,Acquired,Acquired,Acquired,Not acquired,,,,,5.5830183999999996E1,2.97234944E2,1.68929264E2,1.17040048E2,2.97685248E2,5.9572027999999996E1,2.1265712E2,3.11558944E2,,,,,1.4546643E1,3.0002779999999998E1,5.0983591999999994E1,2.671191E1,5.8608264E1,5.2619212E1,4.8550996E1,7.6066579999999995E0,,,,,5,16,21,25,26,29,31,23,,,,,1,3,7,7,14,9,12,0,,,,,
1570768451,2019-10-11 04:34:11.767,Acquired,Acquired,Acquired,Acquired,Acquired,Acquired,Acquired,Not acquired,,,,,5.5830183999999996E1,2.97234944E2,1.68929264E2,1.17040048E2,2.97685248E2,5.9572027999999996E1,2.1265712E2,3.11558944E2,,,,,1.4546643E1,3.0002779999999998E1,5.0983591999999994E1,2.671191E1,5.8608264E1,5.2619212E1,4.8550996E1,7.6066579999999995E0,,,,,5,16,21,25,26,29,31,23,,,,,1,3,7,7,14,9,12,0,,,,,
1570768511,2019-10-11 04:35:11.767,Acquired,Acquired,Acquired,Acquired,Acquired,Acquired,Acquired,Not acquired,,,,,5.5830183999999996E1,2.97234944E2,1.68929264E2,1.17040048E2,2.97685248E2,5.9572027999999996E1,2.1265712E2,3.11558944E2,,,,,1.4546643E1,3.0002779999999998E1,5.0983591999999994E1,2.671191E1,5.8608264E1,5.2619212E1,4.8550996E1,7.6066579999999995E0,,,,,5,16,21,25,26,29,31,23,,,,,1,3,7,7,14,9,12,0,,,,,
1570768571,2019-10-11 04:36:11.767,Acquired,Acquired,Acquired,Acquired,Acquired,Acquired,Acquired,Not acquired,,,,,5.5830183999999996E1,2.97234944E2,1.68929264E2,1.17040048E2,2.97685248E2,5.9572027999999996E1,2.1265712E2,3.11558944E2,,,,,1.4546643E1,3.0002779999999998E1,5.0983591999999994E1,2.671191E1,5.8608264E1,5.2619212E1,4.8550996E1,7.6066579999999995E0,,,,,5,16,21,25,26,29,31,23,,,,,1,3,7,7,14,9,12,0,,,,,
1570768631,2019-10-11 04:37:11.769,Acquired,Acquired,Acquired,Acquired,Acquired,Acquired,Acquired,Not acquired,,,,,5.5830183999999996E1,2.97234944E2,1.68929264E2,1.17040048E2,2.97685248E2,5.9572027999999996E1,2.1265712E2,3.11558944E2,,,,,1.4546643E1,3.0002779999999998E1,5.0983591999999994E1,2.671191E1,5.8608264E1,5.2619212E1,4.8550996E1,7.6066579999999995E0,,,,,5,16,21,25,26,29,31,23,,,,,1,3,7,7,14,9,12,0,,,,,
1570768691,2019-10-11 04:38:11.796,Acquired,Acquired,Acquired,Acquired,Acquired,Acquired,Acquired,Not acquired,,,,,5.5830183999999996E1,2.97234944E2,1.68929264E2,1.17040048E2,2.97685248E2,5.9572027999999996E1,2.1265712E2,3.11558944E2,,,,,1.4546643E1,3.0002779999999998E1,5.0983591999999994E1,2.671191E1,5.8608264E1,5.2619212E1,4.8550996E1,7.6066579999999995E0,,,,,5,16,21,25,26,29,31,23,,,,,1,3,7,7,14,9,12,0,,,,,
1570768751,2019-10-11 04:39:11.767,Acquired,Acquired,Acquired,Acquired,Acquired,Acquired,Acquired,Not acquired,,,,,5.5830183999999996E1,2.97234944E2,1.68929264E2,1.17040048E2,2.97685248E2,5.9572027999999996E1,2.1265712E2,3.11558944E2,,,,,1.4546643E1,3.0002779999999998E1,5.0983591999999994E1,2.671191E1,5.8608264E1,5.2619212E1,4.8550996E1,7.6066579999999995E0,,,,,5,16,21,25,26,29,31,23,,,,,1,3,7,7,14,9,12,0,,,,,
1570768811,2019-10-11 04:40:11.767,Acquired,Acquired,Acquired,Acquired,Acquired,Acquired,Acquired,Not acquired,,,,,5.5830183999999996E1,2.97234944E2,1.68929264E2,1.17040048E2,2.97685248E2,5.9572027999999996E1,2.1265712E2,3.11558944E2,,,,,1.4546643E1,3.0002779999999998E1,5.0983591999999994E1,2.671191E1,5.8608264E1,5.2619212E1,4.8550996E1,7.6066579999999995E0,,,,,5,16,21,25,26,29,31,23,,,,,1,3,7,7,14,9,12,0,,,,,
1570768871,2019-10-11 04:41:11.767,Acquired,Acquired,Acquired,Acquired,Acquired,Acquired,Acquired,Not acquired,,,,,5.5830183999999996E1,2.97234944E2,1.68929264E2,1.17040048E2,2.97685248E2,5.9572027999999996E1,2.1265712E2,3.11558944E2,,,,,1.4546643E1,3.0002779999999998E1,5.0983591999999994E1,2.671191E1,5.8608264E1,5.2619212E1,4.8550996E1,7.6066579999999995E0,,,,,5,16,21,25,26,29,31,23,,,,,1,3,7,7,14,9,12,0,,,,,
1570768931,2019-10-11 04:42:11.767,Acquired,Acquired,Acquired,Acquired,Acquired,Acquired,Acquired,Not acquired,,,,,5.5830183999999996E1,2.97234944E2,1.68929264E2,1.17040048E2,2.97685248E2,5.9572027999999996E1,2.1265712E2,3.11558944E2,,,,,1.4546643E1,3.0002779999999998E1,5.0983591999999994E1,2.671191E1,5.8608264E1,5.2619212E1,4.8550996E1,7.6066579999999995E0,,,,,5,16,21,25,26,29,31,23,,,,,1,3,7,7,14,9,12,0,,,,,
1570768991,2019-10-11 04:43:11.767,Acquired,Acquired,Acquired,Acquired,Acquired,Acquired,Acquired,Not acquired,,,,,5.5830183999999996E1,2.97234944E2,1.68929264E2,1.17040048E2,2.97685248E2,5.9572027999999996E1,2.1265712E2,3.11558944E2,,,,,1.4546643E1,3.0002779999999998E1,5.0983591999999994E1,2.671191E1,5.8608264E1,5.2619212E1,4.8550996E1,7.6066579999999995E0,,,,,5,16,21,25,26,29,31,23,,,,,1,3,7,7,14,9,12,0,,,,,
1570769051,2019-10-11 04:44:11.767,Acquired,Acquired,Acquired,Acquired,Acquired,Acquired,Acquired,Not acquired,,,,,5.5830183999999996E1,2.97234944E2,1.68929264E2,1.17040048E2,2.97685248E2,5.9572027999999996E1,2.1265712E2,3.11558944E2,,,,,1.4546643E1,3.0002779999999998E1,5.0983591999999994E1,2.671191E1,5.8608264E1,5.2619212E1,4.8550996E1,7.6066579999999995E0,,,,,5,16,21,25,26,29,31,23,,,,,1,3,7,7,14,9,12,0,,,,,
1570769111,2019-10-11 04:45:11.767,Acquired,Acquired,Acquired,Acquired,Acquired,Acquired,Acquired,Not acquired,,,,,5.5830183999999996E1,2.97234944E2,1.68929264E2,1.17040048E2,2.97685248E2,5.9572027999999996E1,2.1265712E2,3.11558944E2,,,,,1.4546643E1,3.0002779999999998E1,5.0983591999999994E1,2.671191E1,5.8608264E1,5.2619212E1,4.8550996E1,7.6066579999999995E0,,,,,5,16,21,25,26,29,31,23,,,,,1,3,7,7,14,9,12,0,,,,,
1570769171,2019-10-11 04:46:11.779,Acquired,Acquired,Acquired,Acquired,Acquired,Acquired,Acquired,Not acquired,,,,,5.5830183999999996E1,2.97234944E2,1.68929264E2,1.17040048E2,2.97685248E2,5.9572027999999996E1,2.1265712E2,3.11558944E2,,,,,1.4546643E1,3.0002779999999998E1,5.0983591999999994E1,2.671191E1,5.8608264E1,5.2619212E1,4.8550996E1,7.6066579999999995E0,,,,,5,16,21,25,26,29,31,23,,,,,1,3,7,7,14,9,12,0,,,,,
1570769231,2019-10-11 04:47:11.767,Acquired,Acquired,Acquired,Acquired,Acquired,Acquired,Acquired,Not acquired,,,,,5.5830183999999996E1,2.97234944E2,1.68929264E2,1.17040048E2,2.97685248E2,5.9572027999999996E1,2.1265712E2,3.11558944E2,,,,,1.4546643E1,3.0002779999999998E1,5.0983591999999994E1,2.671191E1,5.8608264E1,5.2619212E1,4.8550996E1,7.6066579999999995E0,,,,,5,16,21,25,26,29,31,23,,,,,1,3,7,7,14,9,12,0,,,,,
1570769291,2019-10-11 04:48:11.767,Acquired,Acquired,Acquired,Acquired,Acquired,Acquired,Acquired,Not acquired,,,,,5.5830183999999996E1,2.97234944E2,1.68929264E2,1.17040048E2,2.97685248E2,5.9572027999999996E1,2.1265712E2,3.11558944E2,,,,,1.4546643E1,3.0002779999999998E1,5.0983591999999994E1,2.671191E1,5.8608264E1,5.2619212E1,4.8550996E1,7.6066579999999995E0,,,,,5,16,21,25,26,29,31,23,,,,,1,3,7,7,14,9,12,0,,,,,
1570769351,2019-10-11 04:49:11.767,Acquired,Acquired,Acquired,Acquired,Acquired,Acquired,Acquired,Not acquired,,,,,5.5830183999999996E1,2.97234944E2,1.68929264E2,1.17040048E2,2.97685248E2,5.9572027999999996E1,2.1265712E2,3.11558944E2,,,,,1.4546643E1,3.0002779999999998E1,5.0983591999999994E1,2.671191E1,5.8608264E1,5.2619212E1,4.8550996E1,7.6066579999999995E0,,,,,5,16,21,25,26,29,31,23,,,,,1,3,7,7,14,9,12,0,,,,,
1570769411,2019-10-11 04:50:11.767,Acquired,Acquired,Acquired,Acquired,Acquired,Acquired,Acquired,Not acquired,,,,,5.5830183999999996E1,2.97234944E2,1.68929264E2,1.17040048E2,2.97685248E2,5.9572027999999996E1,2.1265712E2,3.11558944E2,,,,,1.4546643E1,3.0002779999999998E1,5.0983591999999994E1,2.671191E1,5.8608264E1,5.2619212E1,4.8550996E1,7.6066579999999995E0,,,,,5,16,21,25,26,29,31,23,,,,,1,3,7,7,14,9,12,0,,,,,
1570769471,2019-10-11 04:51:11.767,Acquired,Acquired,Acquired,Acquired,Acquired,Acquired,Acquired,Not acquired,,,,,5.5830183999999996E1,2.97234944E2,1.68929264E2,1.17040048E2,2.97685248E2,5.9572027999999996E1,2.1265712E2,3.11558944E2,,,,,1.4546643E1,3.0002779999999998E1,5.0983591999999994E1,2.671191E1,5.8608264E1,5.2619212E1,4.8550996E1,7.6066579999999995E0,,,,,5,16,21,25,26,29,31,23,,,,,1,3,7,7,14,9,12,0,,,,,
1570769531,2019-10-11 04:52:11.767,Acquired,Acquired,Acquired,Acquired,Acquired,Acquired,Acquired,Not acquired,,,,,5.5830183999999996E1,2.97234944E2,1.68929264E2,1.17040048E2,2.97685248E2,5.9572027999999996E1,2.1265712E2,3.11558944E2,,,,,1.4546643E1,3.0002779999999998E1,5.0983591999999994E1,2.671191E1,5.8608264E1,5.2619212E1,4.8550996E1,7.6066579999999995E0,,,,,5,16,21,25,26,29,31,23,,,,,1,3,7,7,14,9,12,0,,,,,
1570769591,2019-10-11 04:53:11.767,Acquired,Acquired,Acquired,Acquired,Acquired,Acquired,Acquired,Not acquired,,,,,5.5830183999999996E1,2.97234944E2,1.68929264E2,1.17040048E2,2.97685248E2,5.9572027999999996E1,2.1265712E2,3.11558944E2,,,,,1.4546643E1,3.0002779999999998E1,5.0983591999999994E1,2.671191E1,5.8608264E1,5.2619212E1,4.8550996E1,7.6066579999999995E0,,,,,5,16,21,25,26,29,31,23,,,,,1,3,7,7,14,9,12,0,,,,,
1570769651,2019-10-11 04:54:11.767,Acquired,Acquired,Acquired,Acquired,Acquired,Acquired,Acquired,Not acquired,,,,,5.5830183999999996E1,2.97234944E2,1.68929264E2,1.17040048E2,2.97685248E2,5.9572027999999996E1,2.1265712E2,3.11558944E2,,,,,1.4546643E1,3.0002779999999998E1,5.0983591999999994E1,2.671191E1,5.8608264E1,5.2619212E1,4.8550996E1,7.6066579999999995E0,,,,,5,16,21,25,26,29,31,23,,,,,1,3,7,7,14,9,12,0,,,,,
1570769711,2019-10-11 04:55:11.767,Acquired,Acquired,Acquired,Acquired,Acquired,Acquired,Acquired,Not acquired,,,,,5.5830183999999996E1,2.97234944E2,1.68929264E2,1.17040048E2,2.97685248E2,5.9572027999999996E1,2.1265712E2,3.11558944E2,,,,,1.4546643E1,3.0002779999999998E1,5.0983591999999994E1,2.671191E1,5.8608264E1,5.2619212E1,4.8550996E1,7.6066579999999995E0,,,,,5,16,21,25,26,29,31,23,,,,,1,3,7,7,14,9,12,0,,,,,
1570769771,2019-10-11 04:56:11.767,Acquired,Acquired,Acquired,Acquired,Not acquired,Acquired,Acquired,Not acquired,Not acquired,,,,3.8899415999999995E1,3.02204384E2,1.4843675199999998E2,2.82620704E2,2.61470128E2,6.8082144E1,2.01947248E2,1.48703472E2,1.26698168E2,,,,1.3004548E1,4.7806968E1,6.8306592E1,7.658675199999999E1,1.8663287999999998E1,3.5366472E1,3.0869006E1,1.0611336999999999E1,1.0835101E1,,,,5,16,21,26,27,29,31,20,25,,,,1,5,12,15,0,3,15,0,2,,,,
1570769831,2019-10-11 04:57:11.769,Acquired,Acquired,Acquired,Acquired,Acquired,Acquired,Not acquired,Acquired,,,,,2.90829728E2,1.3586494399999998E2,7.914536799999999E1,1.78926336E2,2.76900352E2,8.1026304E1,1.55961088E2,1.9444328E2,,,,,7.1251464E1,3.0220646E1,6.9054952E1,7.16516E1,3.8610444E1,1.5681928E1,1.1106480999999999E1,9.077083E0,,,,,16,20,21,26,27,29,10,31,,,,,10,2,8,14,4,2,2,2,,,,,
1570769891,2019-10-11 04:58:11.767,Acquired,Acquired,Acquired,Acquired,Acquired,Acquired,Not acquired,Acquired,,,,,2.90829728E2,1.3586494399999998E2,7.914536799999999E1,1.78926336E2,2.76900352E2,8.1026304E1,1.55961088E2,1.9444328E2,,,,,7.1251464E1,3.0220646E1,6.9054952E1,7.16516E1,3.8610444E1,1.5681928E1,1.1106480999999999E1,9.077083E0,,,,,16,20,21,26,27,29,10,31,,,,,10,2,8,14,4,2,2,2,,,,,
1570769951,2019-10-11 04:59:11.767,Acquired,Acquired,Acquired,Acquired,Acquired,Acquired,Not acquired,Acquired,,,,,2.90829728E2,1.3586494399999998E2,7.914536799999999E1,1.78926336E2,2.76900352E2,8.1026304E1,1.55961088E2,1.9444328E2,,,,,7.1251464E1,3.0220646E1,6.9054952E1,7.16516E1,3.8610444E1,1.5681928E1,1.1106480999999999E1,9.077083E0,,,,,16,20,21,26,27,29,10,31,,,,,10,2,8,14,4,2,2,2,,,,,
