Time(longsecs),Time(UTC),Earth Location,GPS Receiver Status,GPS Satellites Used,GPS PDOP,GPS TDOP,Timing Status,Timing Phase Lock,Timing Uncertainty(ns),DAC Count,Timing Error(ns),GPS Last Update Time,
1570824011,2019-10-11 20:00:11.767,47.651098N 0.578089E 177m,Off,5,3.4208758,2.2451065,Time OK,Free running,9900,8664,0,2019-10-11 19:50:26.000000000,
1570824071,2019-10-11 20:01:11.767,47.651098N 0.578089E 177m,Off,5,3.4208758,2.2451065,Time OK,Free running,10800,8664,0,2019-10-11 19:50:26.000000000,
1570824131,2019-10-11 20:02:11.768,47.651098N 0.578089E 177m,Off,5,3.4208758,2.2451065,Time OK,Free running,11800,8664,0,2019-10-11 19:50:26.000000000,
1570824191,2019-10-11 20:03:11.767,47.651098N 0.578089E 177m,Off,5,3.4208758,2.2451065,Time OK,Free running,13000,8664,0,2019-10-11 19:50:26.000000000,
1570824251,2019-10-11 20:04:11.767,47.651098N 0.578089E 177m,Off,5,3.4208758,2.2451065,Time OK,Free running,14200,8664,0,2019-10-11 19:50:26.000000000,
1570824311,2019-10-11 20:05:11.801,47.651098N 0.578089E 177m,Off,5,3.4208758,2.2451065,Time OK,Free running,15000,8664,0,2019-10-11 19:50:26.000000000,
1570824371,2019-10-11 20:06:11.767,47.651098N 0.578089E 177m,Off,5,3.4208758,2.2451065,Time OK,Free running,15800,8664,0,2019-10-11 19:50:26.000000000,
1570824431,2019-10-11 20:07:11.767,47.651098N 0.578089E 177m,Off,5,3.4208758,2.2451065,Time OK,Free running,16700,8664,0,2019-10-11 19:50:26.000000000,
1570824491,2019-10-11 20:08:11.767,47.651098N 0.578089E 177m,Off,5,3.4208758,2.2451065,Time OK,Free running,17600,8664,0,2019-10-11 19:50:26.000000000,
1570824551,2019-10-11 20:09:11.767,47.651098N 0.578089E 177m,Off,5,3.4208758,2.2451065,Time OK,Free running,18600,8664,0,2019-10-11 19:50:26.000000000,
1570824611,2019-10-11 20:10:11.768,47.651098N 0.578089E 177m,Off,5,3.4208758,2.2451065,Time OK,Free running,19600,8664,0,2019-10-11 19:50:26.000000000,
1570824671,2019-10-11 20:11:11.805,47.651098N 0.578089E 177m,Off,5,3.4208758,2.2451065,Time OK,Free running,20400,8664,0,2019-10-11 19:50:26.000000000,
1570824731,2019-10-11 20:12:11.800,47.651098N 0.578089E 177m,Off,5,3.4208758,2.2451065,Time OK,Free running,21300,8664,0,2019-10-11 19:50:26.000000000,
1570824791,2019-10-11 20:13:11.767,47.651098N 0.578089E 177m,Off,5,3.4208758,2.2451065,Time OK,Free running,22400,8664,0,2019-10-11 19:50:26.000000000,
1570824851,2019-10-11 20:14:11.767,47.651098N 0.578089E 177m,Off,5,3.4208758,2.2451065,Time OK,Free running,23300,8664,0,2019-10-11 19:50:26.000000000,
1570824911,2019-10-11 20:15:11.767,47.651098N 0.578089E 177m,Off,5,3.4208758,2.2451065,Time OK,Free running,24100,8664,0,2019-10-11 19:50:26.000000000,
1570824971,2019-10-11 20:16:11.767,47.651098N 0.578089E 177m,Off,5,3.4208758,2.2451065,Time OK,Free running,25000,8664,0,2019-10-11 19:50:26.000000000,
1570825031,2019-10-11 20:17:11.796,47.651098N 0.578089E 177m,Off,5,3.4208758,2.2451065,Time OK,Free running,26100,8664,0,2019-10-11 19:50:26.000000000,
1570825091,2019-10-11 20:18:11.778,47.651098N 0.578089E 177m,Off,5,3.4208758,2.2451065,Time OK,Free running,27300,8664,0,2019-10-11 19:50:26.000000000,
1570825151,2019-10-11 20:19:11.768,47.651098N 0.578089E 177m,Off,5,3.4208758,2.2451065,Time OK,Free running,28700,8664,0,2019-10-11 19:50:26.000000000,
1570825211,2019-10-11 20:20:11.767,47.651098N 0.578089E 177m,Off,5,3.4208758,2.2451065,Time OK,Free running,29900,8664,0,2019-10-11 19:50:26.000000000,
1570825271,2019-10-11 20:21:11.767,47.651098N 0.578089E 177m,Off,5,3.4208758,2.2451065,Time OK,Free running,31100,8664,0,2019-10-11 19:50:26.000000000,
1570825331,2019-10-11 20:22:11.802,47.651098N 0.578089E 177m,Off,5,3.4208758,2.2451065,Time OK,Free running,32100,8664,0,2019-10-11 19:50:26.000000000,
1570825391,2019-10-11 20:23:11.767,47.651098N 0.578089E 177m,Off,5,3.4208758,2.2451065,Time OK,Free running,32900,8664,0,2019-10-11 19:50:26.000000000,
1570825451,2019-10-11 20:24:11.767,47.651098N 0.578089E 177m,Off,5,3.4208758,2.2451065,Time OK,Free running,34000,8664,0,2019-10-11 19:50:26.000000000,
1570825511,2019-10-11 20:25:11.767,47.651098N 0.578089E 177m,Off,5,3.4208758,2.2451065,Time OK,Free running,35100,8664,0,2019-10-11 19:50:26.000000000,
1570825571,2019-10-11 20:26:11.767,47.651098N 0.578089E 177m,Off,5,3.4208758,2.2451065,Time OK,Free running,36400,8664,0,2019-10-11 19:50:26.000000000,
1570825631,2019-10-11 20:27:11.767,47.651098N 0.578089E 177m,Off,5,3.4208758,2.2451065,Time OK,Free running,38100,8664,0,2019-10-11 19:50:26.000000000,
1570825691,2019-10-11 20:28:11.770,47.651098N 0.578089E 177m,Off,5,3.4208758,2.2451065,Time OK,Free running,39900,8664,0,2019-10-11 19:50:26.000000000,
1570825751,2019-10-11 20:29:11.767,47.651098N 0.578089E 177m,Off,5,3.4208758,2.2451065,Time OK,Free running,41400,8664,0,2019-10-11 19:50:26.000000000,
1570825811,2019-10-11 20:30:11.767,47.651098N 0.578089E 177m,Off,5,3.4208758,2.2451065,Time OK,Free running,42800,8664,0,2019-10-11 19:50:26.000000000,
1570825871,2019-10-11 20:31:11.767,47.651098N 0.578089E 177m,Off,5,3.4208758,2.2451065,Time OK,Free running,44400,8664,0,2019-10-11 19:50:26.000000000,
1570825931,2019-10-11 20:32:11.805,47.651098N 0.578089E 177m,Off,5,3.4208758,2.2451065,Time OK,Free running,46000,8664,0,2019-10-11 19:50:26.000000000,
1570825991,2019-10-11 20:33:11.767,47.651098N 0.578089E 177m,Off,5,3.4208758,2.2451065,Time OK,Free running,47800,8664,0,2019-10-11 19:50:26.000000000,
1570826051,2019-10-11 20:34:11.767,47.651098N 0.578089E 177m,Off,5,3.4208758,2.2451065,Time OK,Free running,49700,8664,0,2019-10-11 19:50:26.000000000,
1570826111,2019-10-11 20:35:11.767,47.651098N 0.578089E 177m,Off,5,3.4208758,2.2451065,Time OK,Free running,51400,8664,0,2019-10-11 19:50:26.000000000,
1570826171,2019-10-11 20:36:11.768,47.651098N 0.578089E 177m,Doing fixes,4,1.9733546,0.8094227,Time OK,Free running,53200,8664,0,2019-10-11 20:36:11.000000000,
1570826231,2019-10-11 20:37:11.767,47.651098N 0.578089E 177m,Doing fixes,6,2.912876,1.841012,Time OK,Fine lock,100,8629,-104,2019-10-11 20:37:11.000000000,
1570826291,2019-10-11 20:38:11.767,47.651098N 0.578089E 177m,Doing fixes,5,3.0423622,1.9646478,Time OK,Fine lock,100,8644,0,2019-10-11 20:38:11.000000000,
1570826351,2019-10-11 20:39:11.767,47.651098N 0.578089E 177m,Off,7,2.3977861,1.4579122,Time OK,Free running,200,8645,0,2019-10-11 20:38:56.000000000,
1570826411,2019-10-11 20:40:11.767,47.651098N 0.578089E 177m,Off,7,2.3977861,1.4579122,Time OK,Free running,1200,8645,0,2019-10-11 20:38:56.000000000,
1570826471,2019-10-11 20:41:11.767,47.651098N 0.578089E 177m,Off,7,2.3977861,1.4579122,Time OK,Free running,2200,8645,0,2019-10-11 20:38:56.000000000,
1570826531,2019-10-11 20:42:11.767,47.651098N 0.578089E 177m,Off,7,2.3977861,1.4579122,Time OK,Free running,3200,8645,0,2019-10-11 20:38:56.000000000,
1570826591,2019-10-11 20:43:11.767,47.651098N 0.578089E 177m,Off,7,2.3977861,1.4579122,Time OK,Free running,4200,8645,0,2019-10-11 20:38:56.000000000,
1570826651,2019-10-11 20:44:11.767,47.651098N 0.578089E 177m,Off,7,2.3977861,1.4579122,Time OK,Free running,5000,8645,0,2019-10-11 20:38:56.000000000,
1570826711,2019-10-11 20:45:11.767,47.651098N 0.578089E 177m,Off,7,2.3977861,1.4579122,Time OK,Free running,5800,8645,0,2019-10-11 20:38:56.000000000,
1570826771,2019-10-11 20:46:11.799,47.651098N 0.578089E 177m,Off,7,2.3977861,1.4579122,Time OK,Free running,6700,8645,0,2019-10-11 20:38:56.000000000,
1570826831,2019-10-11 20:47:11.767,47.651098N 0.578089E 177m,Off,7,2.3977861,1.4579122,Time OK,Free running,7500,8645,0,2019-10-11 20:38:56.000000000,
1570826891,2019-10-11 20:48:11.767,47.651098N 0.578089E 177m,Off,7,2.3977861,1.4579122,Time OK,Free running,8500,8645,0,2019-10-11 20:38:56.000000000,
1570826951,2019-10-11 20:49:11.767,47.651098N 0.578089E 177m,Off,7,2.3977861,1.4579122,Time OK,Free running,9700,8645,0,2019-10-11 20:38:56.000000000,
1570827011,2019-10-11 20:50:11.767,47.651098N 0.578089E 177m,Off,7,2.3977861,1.4579122,Time OK,Free running,10600,8645,0,2019-10-11 20:38:56.000000000,
1570827071,2019-10-11 20:51:11.767,47.651098N 0.578089E 177m,Off,7,2.3977861,1.4579122,Time OK,Free running,11500,8645,0,2019-10-11 20:38:56.000000000,
1570827131,2019-10-11 20:52:11.767,47.651098N 0.578089E 177m,Off,7,2.3977861,1.4579122,Time OK,Free running,12600,8645,0,2019-10-11 20:38:56.000000000,
1570827191,2019-10-11 20:53:11.767,47.651098N 0.578089E 177m,Off,7,2.3977861,1.4579122,Time OK,Free running,13600,8645,0,2019-10-11 20:38:56.000000000,
1570827251,2019-10-11 20:54:11.769,47.651098N 0.578089E 177m,Off,7,2.3977861,1.4579122,Time OK,Free running,14700,8645,0,2019-10-11 20:38:56.000000000,
1570827311,2019-10-11 20:55:11.767,47.651098N 0.578089E 177m,Off,7,2.3977861,1.4579122,Time OK,Free running,16100,8645,0,2019-10-11 20:38:56.000000000,
1570827371,2019-10-11 20:56:11.767,47.651098N 0.578089E 177m,Off,7,2.3977861,1.4579122,Time OK,Free running,17300,8645,0,2019-10-11 20:38:56.000000000,
1570827431,2019-10-11 20:57:11.767,47.651098N 0.578089E 177m,Off,7,2.3977861,1.4579122,Time OK,Free running,18400,8645,0,2019-10-11 20:38:56.000000000,
1570827491,2019-10-11 20:58:11.767,47.651098N 0.578089E 177m,Off,7,2.3977861,1.4579122,Time OK,Free running,19400,8645,0,2019-10-11 20:38:56.000000000,
1570827551,2019-10-11 20:59:11.767,47.651098N 0.578089E 177m,Off,7,2.3977861,1.4579122,Time OK,Free running,20300,8645,0,2019-10-11 20:38:56.000000000,
