Time(longsecs),Time(UTC),Supply Voltage(mV),Temperature(&deg;C),NMX Bus Current(mA),Sensor Current(mA),Serial Port Current(mA),Controller Current(mA),Digitizer Current(mA),
1572386420,2019-10-29 22:00:20.663,16475,1.5454742E1,0,12,0,32,36,
1572386480,2019-10-29 22:01:20.663,16448,1.5355621E1,0,7,0,36,35,
1572386540,2019-10-29 22:02:20.663,16461,1.5436615E1,0,13,0,37,35,
1572386600,2019-10-29 22:03:20.663,16448,1.5237366E1,0,9,0,37,35,
1572386660,2019-10-29 22:04:20.663,16448,1.5398254E1,0,10,0,36,42,
1572386720,2019-10-29 22:05:20.663,16433,1.5440887E1,0,11,0,37,33,
1572386780,2019-10-29 22:06:20.663,16448,1.5196869E1,0,5,0,31,38,
1572386840,2019-10-29 22:07:20.663,16461,1.5404663E1,0,10,0,31,40,
1572386900,2019-10-29 22:08:20.663,16448,1.5382263E1,0,2,0,37,36,
1572386960,2019-10-29 22:09:20.663,16448,1.5457916E1,0,15,0,38,36,
1572387020,2019-10-29 22:10:20.663,16448,1.5631592E1,0,6,0,31,33,
1572387080,2019-10-29 22:11:20.663,16461,1.5714722E1,0,8,0,36,38,
1572387140,2019-10-29 22:12:20.663,16461,1.5382263E1,0,11,0,36,36,
1572387200,2019-10-29 22:13:20.663,16461,1.5500549E1,0,9,0,36,35,
1572387260,2019-10-29 22:14:20.663,16420,1.5310883E1,0,12,0,36,36,
1572387320,2019-10-29 22:15:20.663,16448,1.5149994E1,0,7,0,31,36,
1572387380,2019-10-29 22:16:20.665,16448,1.5386536E1,0,10,0,36,39,
1572387440,2019-10-29 22:17:20.663,16461,1.5373749E1,0,6,0,36,37,
1572387500,2019-10-29 22:18:20.663,16448,1.5368408E1,0,10,0,36,36,
1572387560,2019-10-29 22:19:20.664,16448,1.5323669E1,0,11,0,39,34,
1572387620,2019-10-29 22:20:20.664,16448,1.521286E1,0,9,0,45,36,
1572387680,2019-10-29 22:21:20.663,16448,1.5433411E1,0,5,0,37,39,
1572387740,2019-10-29 22:22:20.663,16448,1.5546356E1,0,8,0,31,35,
1572387800,2019-10-29 22:23:20.663,16448,1.5324738E1,0,13,0,38,39,
1572387860,2019-10-29 22:24:20.701,16461,1.5342865E1,0,6,0,36,37,
1572387920,2019-10-29 22:25:20.663,16448,1.5250153E1,0,11,0,34,41,
1572387980,2019-10-29 22:26:20.663,16461,1.5468567E1,0,4,0,37,42,
1572388040,2019-10-29 22:27:20.696,16448,1.5338593E1,0,15,0,36,35,
1572388100,2019-10-29 22:28:20.663,16461,1.521286E1,0,14,0,36,33,
1572388160,2019-10-29 22:29:20.663,16448,1.5503754E1,0,10,0,34,36,
1572388220,2019-10-29 22:30:20.663,16448,1.5321533E1,0,13,0,31,37,
1572388280,2019-10-29 22:31:20.663,16448,1.5521851E1,5,7,0,37,37,
1572388340,2019-10-29 22:32:20.664,16529,1.5381195E1,0,9,0,35,36,
1572388400,2019-10-29 22:33:20.663,16448,1.52821045E1,0,7,0,36,41,
1572388460,2019-10-29 22:34:20.665,16448,1.5484558E1,0,6,0,36,39,
1572388520,2019-10-29 22:35:20.663,16448,1.5226715E1,0,7,0,31,39,
1572388580,2019-10-29 22:36:20.663,16461,1.5386536E1,0,9,0,36,41,
1572388640,2019-10-29 22:37:20.663,16448,1.5576202E1,0,9,0,32,35,
1572388700,2019-10-29 22:38:20.663,16448,1.53013E1,0,6,0,36,39,
1572388760,2019-10-29 22:39:20.665,16448,1.5261871E1,0,9,0,36,38,
1572388820,2019-10-29 22:40:20.665,16461,1.5507996E1,0,6,0,31,35,
1572388880,2019-10-29 22:41:20.672,16448,1.5288513E1,0,11,0,36,33,
1572388940,2019-10-29 22:42:20.664,16448,1.5236298E1,0,9,0,37,38,
1572389000,2019-10-29 22:43:20.664,16448,1.5237366E1,0,9,0,36,39,
1572389060,2019-10-29 22:44:20.666,16448,1.5307678E1,0,8,15,38,37,
1572389120,2019-10-29 22:45:20.663,16448,1.5363098E1,0,5,0,31,34,
1572389180,2019-10-29 22:46:20.663,16448,1.5308746E1,0,11,0,36,37,
1572389240,2019-10-29 22:47:20.663,16448,1.52352295E1,0,8,0,35,36,
1572389300,2019-10-29 22:48:20.663,16461,1.5237366E1,0,8,0,40,38,
1572389360,2019-10-29 22:49:20.663,16448,1.5228851E1,0,11,0,33,33,
1572389420,2019-10-29 22:50:20.663,16448,1.5170227E1,0,9,0,34,36,
1572389480,2019-10-29 22:51:20.663,16448,1.5357758E1,0,10,0,36,40,
1572389540,2019-10-29 22:52:20.663,16448,1.5209656E1,0,4,0,36,33,
1572389600,2019-10-29 22:53:20.663,16448,1.5164917E1,0,9,0,37,37,
1572389660,2019-10-29 22:54:20.663,16448,1.5398254E1,0,4,0,33,37,
1572389720,2019-10-29 22:55:20.663,16461,1.5178772E1,0,6,0,31,41,
1572389780,2019-10-29 22:56:20.663,16448,1.5367371E1,0,6,0,36,38,
1572389840,2019-10-29 22:57:20.663,16448,1.5259735E1,22,14,0,34,35,
1572389900,2019-10-29 22:58:20.663,16448,1.5153198E1,0,14,0,36,35,
1572389960,2019-10-29 22:59:20.663,16448,1.5227783E1,0,9,0,36,35,
