Time(longsecs),Time(UTC),GPS Satellite Acquisition Flag 1,GPS Satellite Acquisition Flag 2,GPS Satellite Acquisition Flag 3,GPS Satellite Acquisition Flag 4,GPS Satellite Acquisition Flag 5,GPS Satellite Acquisition Flag 6,GPS Satellite Acquisition Flag 7,GPS Satellite Acquisition Flag 8,GPS Satellite Acquisition Flag 9,GPS Satellite Acquisition Flag 10,GPS Satellite Acquisition Flag 11,GPS Satellite Acquisition Flag 12,GPS Satellite Azimuth 1(Degrees),GPS Satellite Azimuth 2(Degrees),GPS Satellite Azimuth 3(Degrees),GPS Satellite Azimuth 4(Degrees),GPS Satellite Azimuth 5(Degrees),GPS Satellite Azimuth 6(Degrees),GPS Satellite Azimuth 7(Degrees),GPS Satellite Azimuth 8(Degrees),GPS Satellite Azimuth 9(Degrees),GPS Satellite Azimuth 10(Degrees),GPS Satellite Azimuth 11(Degrees),GPS Satellite Azimuth 12(Degrees),GPS Satellite Elevation 1(Degrees),GPS Satellite Elevation 2(Degrees),GPS Satellite Elevation 3(Degrees),GPS Satellite Elevation 4(Degrees),GPS Satellite Elevation 5(Degrees),GPS Satellite Elevation 6(Degrees),GPS Satellite Elevation 7(Degrees),GPS Satellite Elevation 8(Degrees),GPS Satellite Elevation 9(Degrees),GPS Satellite Elevation 10(Degrees),GPS Satellite Elevation 11(Degrees),GPS Satellite Elevation 12(Degrees),GPS Satellite PRN 1,GPS Satellite PRN 2,GPS Satellite PRN 3,GPS Satellite PRN 4,GPS Satellite PRN 5,GPS Satellite PRN 6,GPS Satellite PRN 7,GPS Satellite PRN 8,GPS Satellite PRN 9,GPS Satellite PRN 10,GPS Satellite PRN 11,GPS Satellite PRN 12,GPS Satellite Signal Level 1(AMU),GPS Satellite Signal Level 2(AMU),GPS Satellite Signal Level 3(AMU),GPS Satellite Signal Level 4(AMU),GPS Satellite Signal Level 5(AMU),GPS Satellite Signal Level 6(AMU),GPS Satellite Signal Level 7(AMU),GPS Satellite Signal Level 8(AMU),GPS Satellite Signal Level 9(AMU),GPS Satellite Signal Level 10(AMU),GPS Satellite Signal Level 11(AMU),GPS Satellite Signal Level 12(AMU),
1571760030,2019-10-22 16:00:30.926,Acquired,Acquired,Acquired,Acquired,Acquired,Acquired,Acquired,Acquired,,Acquired,,,2.7790495999999996E2,2.98477536E2,2.0745983999999999E2,1.49231888E2,6.2916231999999994E1,6.837092799999999E1,1.8288836799999999E2,4.7040496E1,,3.33650304E2,,,4.6730855999999996E1,1.9950599999999998E1,4.5060427999999995E1,5.4980548E1,6.1779703999999995E1,3.0037945999999998E1,2.920913E1,1.1601892E1,,7.516274999999999E0,,,2,5,6,7,9,23,30,16,,29,,,10,12,12,15,15,14,12,4,,7,,,
1571760090,2019-10-22 16:01:30.926,Acquired,Acquired,Acquired,Acquired,Acquired,Acquired,Acquired,Acquired,,Acquired,,,2.7790495999999996E2,2.98477536E2,2.0745983999999999E2,1.49231888E2,6.2916231999999994E1,6.837092799999999E1,1.8288836799999999E2,4.7040496E1,,3.33650304E2,,,4.6730855999999996E1,1.9950599999999998E1,4.5060427999999995E1,5.4980548E1,6.1779703999999995E1,3.0037945999999998E1,2.920913E1,1.1601892E1,,7.516274999999999E0,,,2,5,6,7,9,23,30,16,,29,,,10,12,12,15,15,14,12,4,,7,,,
1571760150,2019-10-22 16:02:30.955,Acquired,Acquired,Acquired,Acquired,Acquired,Acquired,Acquired,Acquired,,Acquired,,,2.7790495999999996E2,2.98477536E2,2.0745983999999999E2,1.49231888E2,6.2916231999999994E1,6.837092799999999E1,1.8288836799999999E2,4.7040496E1,,3.33650304E2,,,4.6730855999999996E1,1.9950599999999998E1,4.5060427999999995E1,5.4980548E1,6.1779703999999995E1,3.0037945999999998E1,2.920913E1,1.1601892E1,,7.516274999999999E0,,,2,5,6,7,9,23,30,16,,29,,,10,12,12,15,15,14,12,4,,7,,,
1571760210,2019-10-22 16:03:30.926,Acquired,Acquired,Acquired,Acquired,Acquired,Acquired,Acquired,Acquired,,Acquired,,,2.7790495999999996E2,2.98477536E2,2.0745983999999999E2,1.49231888E2,6.2916231999999994E1,6.837092799999999E1,1.8288836799999999E2,4.7040496E1,,3.33650304E2,,,4.6730855999999996E1,1.9950599999999998E1,4.5060427999999995E1,5.4980548E1,6.1779703999999995E1,3.0037945999999998E1,2.920913E1,1.1601892E1,,7.516274999999999E0,,,2,5,6,7,9,23,30,16,,29,,,10,12,12,15,15,14,12,4,,7,,,
1571760270,2019-10-22 16:04:30.959,Acquired,Acquired,Acquired,Acquired,Acquired,Acquired,Acquired,Not acquired,,,,,2.5000694399999998E2,3.0181327999999996E2,1.98246128E2,1.11322744E2,2.66839728E2,1.62248256E2,1.9247064E2,1.5183896E2,,,,,4.1576215999999995E1,3.8574639999999995E1,2.4665142E1,6.705382E1,2.9028703999999998E1,7.0419208E1,5.977481999999999E0,6.797814E0,,,,,2,5,6,7,13,30,6,28,,,,,14,14,9,14,11,15,9,0,,,,,
1571760330,2019-10-22 16:05:30.927,Acquired,Acquired,Acquired,Acquired,Acquired,Acquired,Acquired,Not acquired,,,,,2.3147871999999998E2,2.94698016E2,6.9228184E1,8.3715328E1,2.66839728E2,1.62248256E2,1.9247064E2,1.5183896E2,,,,,2.7522593999999998E1,5.7274063999999996E1,5.9345084E1,2.5369391999999998E1,2.9028703999999998E1,7.0419208E1,5.977481999999999E0,6.797814E0,,,,,2,5,7,9,13,30,6,28,,,,,13,11,15,15,11,15,9,0,,,,,
1571760390,2019-10-22 16:06:30.926,Acquired,Acquired,Acquired,Acquired,Acquired,Acquired,Acquired,Not acquired,,,,,2.3147871999999998E2,2.94698016E2,6.9228184E1,8.3715328E1,2.66839728E2,1.62248256E2,1.9247064E2,1.5183896E2,,,,,2.7522593999999998E1,5.7274063999999996E1,5.9345084E1,2.5369391999999998E1,2.9028703999999998E1,7.0419208E1,5.977481999999999E0,6.797814E0,,,,,2,5,7,9,13,30,6,28,,,,,13,11,15,15,11,15,9,0,,,,,
1571760450,2019-10-22 16:07:30.926,Acquired,Acquired,Acquired,Acquired,Acquired,Acquired,Acquired,Not acquired,,,,,2.3147871999999998E2,2.94698016E2,6.9228184E1,8.3715328E1,2.66839728E2,1.62248256E2,1.9247064E2,1.5183896E2,,,,,2.7522593999999998E1,5.7274063999999996E1,5.9345084E1,2.5369391999999998E1,2.9028703999999998E1,7.0419208E1,5.977481999999999E0,6.797814E0,,,,,2,5,7,9,13,30,6,28,,,,,13,11,15,15,11,15,9,0,,,,,
1571760510,2019-10-22 16:08:30.926,Acquired,Acquired,Acquired,Acquired,Acquired,Acquired,Acquired,Not acquired,,,,,2.3147871999999998E2,2.94698016E2,6.9228184E1,8.3715328E1,2.66839728E2,1.62248256E2,1.9247064E2,1.5183896E2,,,,,2.7522593999999998E1,5.7274063999999996E1,5.9345084E1,2.5369391999999998E1,2.9028703999999998E1,7.0419208E1,5.977481999999999E0,6.797814E0,,,,,2,5,7,9,13,30,6,28,,,,,13,11,15,15,11,15,9,0,,,,,
1571760570,2019-10-22 16:09:30.927,Acquired,Acquired,Acquired,Acquired,Acquired,Acquired,Acquired,Not acquired,,,,,2.3147871999999998E2,2.94698016E2,6.9228184E1,8.3715328E1,2.66839728E2,1.62248256E2,1.9247064E2,1.5183896E2,,,,,2.7522593999999998E1,5.7274063999999996E1,5.9345084E1,2.5369391999999998E1,2.9028703999999998E1,7.0419208E1,5.977481999999999E0,6.797814E0,,,,,2,5,7,9,13,30,6,28,,,,,13,11,15,15,11,15,9,0,,,,,
1571760630,2019-10-22 16:10:30.926,Acquired,Acquired,Acquired,Acquired,Acquired,Acquired,Acquired,Not acquired,,,,,2.3147871999999998E2,2.94698016E2,6.9228184E1,8.3715328E1,2.66839728E2,1.62248256E2,1.9247064E2,1.5183896E2,,,,,2.7522593999999998E1,5.7274063999999996E1,5.9345084E1,2.5369391999999998E1,2.9028703999999998E1,7.0419208E1,5.977481999999999E0,6.797814E0,,,,,2,5,7,9,13,30,6,28,,,,,13,11,15,15,11,15,9,0,,,,,
1571760690,2019-10-22 16:11:30.926,Acquired,Acquired,Acquired,Acquired,Acquired,Acquired,Acquired,Not acquired,,,,,2.3147871999999998E2,2.94698016E2,6.9228184E1,8.3715328E1,2.66839728E2,1.62248256E2,1.9247064E2,1.5183896E2,,,,,2.7522593999999998E1,5.7274063999999996E1,5.9345084E1,2.5369391999999998E1,2.9028703999999998E1,7.0419208E1,5.977481999999999E0,6.797814E0,,,,,2,5,7,9,13,30,6,28,,,,,13,11,15,15,11,15,9,0,,,,,
1571760750,2019-10-22 16:12:30.926,Acquired,Acquired,Acquired,Acquired,Acquired,Acquired,Acquired,Not acquired,,,,,2.3147871999999998E2,2.94698016E2,6.9228184E1,8.3715328E1,2.66839728E2,1.62248256E2,1.9247064E2,1.5183896E2,,,,,2.7522593999999998E1,5.7274063999999996E1,5.9345084E1,2.5369391999999998E1,2.9028703999999998E1,7.0419208E1,5.977481999999999E0,6.797814E0,,,,,2,5,7,9,13,30,6,28,,,,,13,11,15,15,11,15,9,0,,,,,
1571760810,2019-10-22 16:13:30.927,Acquired,Acquired,Acquired,Acquired,Acquired,Acquired,Acquired,Not acquired,,,,,2.3147871999999998E2,2.94698016E2,6.9228184E1,8.3715328E1,2.66839728E2,1.62248256E2,1.9247064E2,1.5183896E2,,,,,2.7522593999999998E1,5.7274063999999996E1,5.9345084E1,2.5369391999999998E1,2.9028703999999998E1,7.0419208E1,5.977481999999999E0,6.797814E0,,,,,2,5,7,9,13,30,6,28,,,,,13,11,15,15,11,15,9,0,,,,,
1571760870,2019-10-22 16:14:30.926,Acquired,Acquired,Acquired,Acquired,Acquired,Acquired,Acquired,Not acquired,,,,,2.3147871999999998E2,2.94698016E2,6.9228184E1,8.3715328E1,2.66839728E2,1.62248256E2,1.9247064E2,1.5183896E2,,,,,2.7522593999999998E1,5.7274063999999996E1,5.9345084E1,2.5369391999999998E1,2.9028703999999998E1,7.0419208E1,5.977481999999999E0,6.797814E0,,,,,2,5,7,9,13,30,6,28,,,,,13,11,15,15,11,15,9,0,,,,,
1571760930,2019-10-22 16:15:30.926,Acquired,Acquired,Acquired,Acquired,Acquired,Acquired,Acquired,Not acquired,,,,,2.3147871999999998E2,2.94698016E2,6.9228184E1,8.3715328E1,2.66839728E2,1.62248256E2,1.9247064E2,1.5183896E2,,,,,2.7522593999999998E1,5.7274063999999996E1,5.9345084E1,2.5369391999999998E1,2.9028703999999998E1,7.0419208E1,5.977481999999999E0,6.797814E0,,,,,2,5,7,9,13,30,6,28,,,,,13,11,15,15,11,15,9,0,,,,,
1571760990,2019-10-22 16:16:30.926,Acquired,Acquired,Acquired,Acquired,Acquired,Acquired,Acquired,Not acquired,,,,,2.3147871999999998E2,2.94698016E2,6.9228184E1,8.3715328E1,2.66839728E2,1.62248256E2,1.9247064E2,1.5183896E2,,,,,2.7522593999999998E1,5.7274063999999996E1,5.9345084E1,2.5369391999999998E1,2.9028703999999998E1,7.0419208E1,5.977481999999999E0,6.797814E0,,,,,2,5,7,9,13,30,6,28,,,,,13,11,15,15,11,15,9,0,,,,,
1571761050,2019-10-22 16:17:30.926,Acquired,Acquired,Acquired,Acquired,Acquired,Acquired,Acquired,Not acquired,,,,,2.3147871999999998E2,2.94698016E2,6.9228184E1,8.3715328E1,2.66839728E2,1.62248256E2,1.9247064E2,1.5183896E2,,,,,2.7522593999999998E1,5.7274063999999996E1,5.9345084E1,2.5369391999999998E1,2.9028703999999998E1,7.0419208E1,5.977481999999999E0,6.797814E0,,,,,2,5,7,9,13,30,6,28,,,,,13,11,15,15,11,15,9,0,,,,,
1571761110,2019-10-22 16:18:30.926,Acquired,Acquired,Acquired,Acquired,Acquired,Acquired,Acquired,Not acquired,,,,,2.3147871999999998E2,2.94698016E2,6.9228184E1,8.3715328E1,2.66839728E2,1.62248256E2,1.9247064E2,1.5183896E2,,,,,2.7522593999999998E1,5.7274063999999996E1,5.9345084E1,2.5369391999999998E1,2.9028703999999998E1,7.0419208E1,5.977481999999999E0,6.797814E0,,,,,2,5,7,9,13,30,6,28,,,,,13,11,15,15,11,15,9,0,,,,,
1571761170,2019-10-22 16:19:30.926,Acquired,Acquired,Acquired,Acquired,Acquired,Acquired,Acquired,Not acquired,,,,,2.3147871999999998E2,2.94698016E2,6.9228184E1,8.3715328E1,2.66839728E2,1.62248256E2,1.9247064E2,1.5183896E2,,,,,2.7522593999999998E1,5.7274063999999996E1,5.9345084E1,2.5369391999999998E1,2.9028703999999998E1,7.0419208E1,5.977481999999999E0,6.797814E0,,,,,2,5,7,9,13,30,6,28,,,,,13,11,15,15,11,15,9,0,,,,,
1571761230,2019-10-22 16:20:30.926,Acquired,Acquired,Acquired,Acquired,Acquired,Acquired,Acquired,Not acquired,,,,,2.3147871999999998E2,2.94698016E2,6.9228184E1,8.3715328E1,2.66839728E2,1.62248256E2,1.9247064E2,1.5183896E2,,,,,2.7522593999999998E1,5.7274063999999996E1,5.9345084E1,2.5369391999999998E1,2.9028703999999998E1,7.0419208E1,5.977481999999999E0,6.797814E0,,,,,2,5,7,9,13,30,6,28,,,,,13,11,15,15,11,15,9,0,,,,,
1571761290,2019-10-22 16:21:30.926,Acquired,Acquired,Acquired,Acquired,Acquired,Acquired,Acquired,Not acquired,,,,,2.3147871999999998E2,2.94698016E2,6.9228184E1,8.3715328E1,2.66839728E2,1.62248256E2,1.9247064E2,1.5183896E2,,,,,2.7522593999999998E1,5.7274063999999996E1,5.9345084E1,2.5369391999999998E1,2.9028703999999998E1,7.0419208E1,5.977481999999999E0,6.797814E0,,,,,2,5,7,9,13,30,6,28,,,,,13,11,15,15,11,15,9,0,,,,,
1571761350,2019-10-22 16:22:30.926,Acquired,Acquired,Acquired,Acquired,Acquired,Acquired,Acquired,Not acquired,,,,,2.3147871999999998E2,2.94698016E2,6.9228184E1,8.3715328E1,2.66839728E2,1.62248256E2,1.9247064E2,1.5183896E2,,,,,2.7522593999999998E1,5.7274063999999996E1,5.9345084E1,2.5369391999999998E1,2.9028703999999998E1,7.0419208E1,5.977481999999999E0,6.797814E0,,,,,2,5,7,9,13,30,6,28,,,,,13,11,15,15,11,15,9,0,,,,,
1571761410,2019-10-22 16:23:30.945,Acquired,Acquired,Acquired,Acquired,Acquired,Acquired,Acquired,Not acquired,,,,,2.3147871999999998E2,2.94698016E2,6.9228184E1,8.3715328E1,2.66839728E2,1.62248256E2,1.9247064E2,1.5183896E2,,,,,2.7522593999999998E1,5.7274063999999996E1,5.9345084E1,2.5369391999999998E1,2.9028703999999998E1,7.0419208E1,5.977481999999999E0,6.797814E0,,,,,2,5,7,9,13,30,6,28,,,,,13,11,15,15,11,15,9,0,,,,,
1571761470,2019-10-22 16:24:30.926,Acquired,Acquired,Acquired,Acquired,Acquired,Acquired,Acquired,Not acquired,,,,,2.3147871999999998E2,2.94698016E2,6.9228184E1,8.3715328E1,2.66839728E2,1.62248256E2,1.9247064E2,1.5183896E2,,,,,2.7522593999999998E1,5.7274063999999996E1,5.9345084E1,2.5369391999999998E1,2.9028703999999998E1,7.0419208E1,5.977481999999999E0,6.797814E0,,,,,2,5,7,9,13,30,6,28,,,,,13,11,15,15,11,15,9,0,,,,,
1571761530,2019-10-22 16:25:30.926,Acquired,Acquired,Acquired,Acquired,Acquired,Acquired,Acquired,Not acquired,,,,,2.3147871999999998E2,2.94698016E2,6.9228184E1,8.3715328E1,2.66839728E2,1.62248256E2,1.9247064E2,1.5183896E2,,,,,2.7522593999999998E1,5.7274063999999996E1,5.9345084E1,2.5369391999999998E1,2.9028703999999998E1,7.0419208E1,5.977481999999999E0,6.797814E0,,,,,2,5,7,9,13,30,6,28,,,,,13,11,15,15,11,15,9,0,,,,,
1571761590,2019-10-22 16:26:30.926,Acquired,Acquired,Acquired,Acquired,Acquired,Acquired,Acquired,Not acquired,,,,,2.3147871999999998E2,2.94698016E2,6.9228184E1,8.3715328E1,2.66839728E2,1.62248256E2,1.9247064E2,1.5183896E2,,,,,2.7522593999999998E1,5.7274063999999996E1,5.9345084E1,2.5369391999999998E1,2.9028703999999998E1,7.0419208E1,5.977481999999999E0,6.797814E0,,,,,2,5,7,9,13,30,6,28,,,,,13,11,15,15,11,15,9,0,,,,,
1571761650,2019-10-22 16:27:30.926,Acquired,Acquired,Acquired,Acquired,Acquired,Acquired,Acquired,Not acquired,,,,,2.3147871999999998E2,2.94698016E2,6.9228184E1,8.3715328E1,2.66839728E2,1.62248256E2,1.9247064E2,1.5183896E2,,,,,2.7522593999999998E1,5.7274063999999996E1,5.9345084E1,2.5369391999999998E1,2.9028703999999998E1,7.0419208E1,5.977481999999999E0,6.797814E0,,,,,2,5,7,9,13,30,6,28,,,,,13,11,15,15,11,15,9,0,,,,,
1571761710,2019-10-22 16:28:30.926,Acquired,Acquired,Acquired,Acquired,Acquired,Acquired,Acquired,Not acquired,,,,,2.3147871999999998E2,2.94698016E2,6.9228184E1,8.3715328E1,2.66839728E2,1.62248256E2,1.9247064E2,1.5183896E2,,,,,2.7522593999999998E1,5.7274063999999996E1,5.9345084E1,2.5369391999999998E1,2.9028703999999998E1,7.0419208E1,5.977481999999999E0,6.797814E0,,,,,2,5,7,9,13,30,6,28,,,,,13,11,15,15,11,15,9,0,,,,,
1571761770,2019-10-22 16:29:30.926,Acquired,Acquired,Acquired,Acquired,Acquired,Acquired,Acquired,Not acquired,,,,,2.3147871999999998E2,2.94698016E2,6.9228184E1,8.3715328E1,2.66839728E2,1.62248256E2,1.9247064E2,1.5183896E2,,,,,2.7522593999999998E1,5.7274063999999996E1,5.9345084E1,2.5369391999999998E1,2.9028703999999998E1,7.0419208E1,5.977481999999999E0,6.797814E0,,,,,2,5,7,9,13,30,6,28,,,,,13,11,15,15,11,15,9,0,,,,,
1571761830,2019-10-22 16:30:30.928,Acquired,Acquired,Acquired,Acquired,Acquired,Acquired,Acquired,Not acquired,,,,,2.3147871999999998E2,2.94698016E2,6.9228184E1,8.3715328E1,2.66839728E2,1.62248256E2,1.9247064E2,1.5183896E2,,,,,2.7522593999999998E1,5.7274063999999996E1,5.9345084E1,2.5369391999999998E1,2.9028703999999998E1,7.0419208E1,5.977481999999999E0,6.797814E0,,,,,2,5,7,9,13,30,6,28,,,,,13,11,15,15,11,15,9,0,,,,,
1571761890,2019-10-22 16:31:30.926,Acquired,Acquired,Acquired,Acquired,Acquired,Acquired,Acquired,Not acquired,,,,,2.3147871999999998E2,2.94698016E2,6.9228184E1,8.3715328E1,2.66839728E2,1.62248256E2,1.9247064E2,1.5183896E2,,,,,2.7522593999999998E1,5.7274063999999996E1,5.9345084E1,2.5369391999999998E1,2.9028703999999998E1,7.0419208E1,5.977481999999999E0,6.797814E0,,,,,2,5,7,9,13,30,6,28,,,,,13,11,15,15,11,15,9,0,,,,,
1571761950,2019-10-22 16:32:30.926,Acquired,Acquired,Acquired,Acquired,Acquired,Acquired,Acquired,Not acquired,,,,,2.3147871999999998E2,2.94698016E2,6.9228184E1,8.3715328E1,2.66839728E2,1.62248256E2,1.9247064E2,1.5183896E2,,,,,2.7522593999999998E1,5.7274063999999996E1,5.9345084E1,2.5369391999999998E1,2.9028703999999998E1,7.0419208E1,5.977481999999999E0,6.797814E0,,,,,2,5,7,9,13,30,6,28,,,,,13,11,15,15,11,15,9,0,,,,,
1571762010,2019-10-22 16:33:30.926,Acquired,Acquired,Acquired,Acquired,Acquired,Acquired,Acquired,Not acquired,,,,,2.3147871999999998E2,2.94698016E2,6.9228184E1,8.3715328E1,2.66839728E2,1.62248256E2,1.9247064E2,1.5183896E2,,,,,2.7522593999999998E1,5.7274063999999996E1,5.9345084E1,2.5369391999999998E1,2.9028703999999998E1,7.0419208E1,5.977481999999999E0,6.797814E0,,,,,2,5,7,9,13,30,6,28,,,,,13,11,15,15,11,15,9,0,,,,,
1571762070,2019-10-22 16:34:30.926,Acquired,Acquired,Acquired,Acquired,Acquired,Acquired,Acquired,Not acquired,,,,,2.3147871999999998E2,2.94698016E2,6.9228184E1,8.3715328E1,2.66839728E2,1.62248256E2,1.9247064E2,1.5183896E2,,,,,2.7522593999999998E1,5.7274063999999996E1,5.9345084E1,2.5369391999999998E1,2.9028703999999998E1,7.0419208E1,5.977481999999999E0,6.797814E0,,,,,2,5,7,9,13,30,6,28,,,,,13,11,15,15,11,15,9,0,,,,,
1571762130,2019-10-22 16:35:30.926,Acquired,Acquired,Acquired,Acquired,Acquired,Acquired,Acquired,Not acquired,,,,,2.3147871999999998E2,2.94698016E2,6.9228184E1,8.3715328E1,2.66839728E2,1.62248256E2,1.9247064E2,1.5183896E2,,,,,2.7522593999999998E1,5.7274063999999996E1,5.9345084E1,2.5369391999999998E1,2.9028703999999998E1,7.0419208E1,5.977481999999999E0,6.797814E0,,,,,2,5,7,9,13,30,6,28,,,,,13,11,15,15,11,15,9,0,,,,,
1571762190,2019-10-22 16:36:30.926,Acquired,Acquired,Acquired,Acquired,Acquired,Acquired,Acquired,Not acquired,,,,,2.3147871999999998E2,2.94698016E2,6.9228184E1,8.3715328E1,2.66839728E2,1.62248256E2,1.9247064E2,1.5183896E2,,,,,2.7522593999999998E1,5.7274063999999996E1,5.9345084E1,2.5369391999999998E1,2.9028703999999998E1,7.0419208E1,5.977481999999999E0,6.797814E0,,,,,2,5,7,9,13,30,6,28,,,,,13,11,15,15,11,15,9,0,,,,,
1571762250,2019-10-22 16:37:30.926,Acquired,Acquired,Acquired,Acquired,Acquired,Acquired,Acquired,Not acquired,,,,,2.3147871999999998E2,2.94698016E2,6.9228184E1,8.3715328E1,2.66839728E2,1.62248256E2,1.9247064E2,1.5183896E2,,,,,2.7522593999999998E1,5.7274063999999996E1,5.9345084E1,2.5369391999999998E1,2.9028703999999998E1,7.0419208E1,5.977481999999999E0,6.797814E0,,,,,2,5,7,9,13,30,6,28,,,,,13,11,15,15,11,15,9,0,,,,,
1571762310,2019-10-22 16:38:30.926,Acquired,Acquired,Acquired,Acquired,Acquired,Acquired,Acquired,Not acquired,,,,,2.3147871999999998E2,2.94698016E2,6.9228184E1,8.3715328E1,2.66839728E2,1.62248256E2,1.9247064E2,1.5183896E2,,,,,2.7522593999999998E1,5.7274063999999996E1,5.9345084E1,2.5369391999999998E1,2.9028703999999998E1,7.0419208E1,5.977481999999999E0,6.797814E0,,,,,2,5,7,9,13,30,6,28,,,,,13,11,15,15,11,15,9,0,,,,,
1571762370,2019-10-22 16:39:30.926,Acquired,Acquired,Acquired,Acquired,Acquired,Acquired,Acquired,Not acquired,,,,,2.3147871999999998E2,2.94698016E2,6.9228184E1,8.3715328E1,2.66839728E2,1.62248256E2,1.9247064E2,1.5183896E2,,,,,2.7522593999999998E1,5.7274063999999996E1,5.9345084E1,2.5369391999999998E1,2.9028703999999998E1,7.0419208E1,5.977481999999999E0,6.797814E0,,,,,2,5,7,9,13,30,6,28,,,,,13,11,15,15,11,15,9,0,,,,,
1571762430,2019-10-22 16:40:30.926,Acquired,Acquired,Acquired,Acquired,Acquired,Acquired,Acquired,Not acquired,,,,,2.3147871999999998E2,2.94698016E2,6.9228184E1,8.3715328E1,2.66839728E2,1.62248256E2,1.9247064E2,1.5183896E2,,,,,2.7522593999999998E1,5.7274063999999996E1,5.9345084E1,2.5369391999999998E1,2.9028703999999998E1,7.0419208E1,5.977481999999999E0,6.797814E0,,,,,2,5,7,9,13,30,6,28,,,,,13,11,15,15,11,15,9,0,,,,,
1571762490,2019-10-22 16:41:30.926,Acquired,Acquired,Acquired,Acquired,Acquired,Acquired,Acquired,Not acquired,,,,,2.3147871999999998E2,2.94698016E2,6.9228184E1,8.3715328E1,2.66839728E2,1.62248256E2,1.9247064E2,1.5183896E2,,,,,2.7522593999999998E1,5.7274063999999996E1,5.9345084E1,2.5369391999999998E1,2.9028703999999998E1,7.0419208E1,5.977481999999999E0,6.797814E0,,,,,2,5,7,9,13,30,6,28,,,,,13,11,15,15,11,15,9,0,,,,,
1571762550,2019-10-22 16:42:30.926,Acquired,Acquired,Acquired,Acquired,Acquired,Acquired,Acquired,Not acquired,,,,,2.3147871999999998E2,2.94698016E2,6.9228184E1,8.3715328E1,2.66839728E2,1.62248256E2,1.9247064E2,1.5183896E2,,,,,2.7522593999999998E1,5.7274063999999996E1,5.9345084E1,2.5369391999999998E1,2.9028703999999998E1,7.0419208E1,5.977481999999999E0,6.797814E0,,,,,2,5,7,9,13,30,6,28,,,,,13,11,15,15,11,15,9,0,,,,,
1571762610,2019-10-22 16:43:30.926,Acquired,Acquired,Acquired,Acquired,Acquired,Acquired,Acquired,Not acquired,,,,,2.3147871999999998E2,2.94698016E2,6.9228184E1,8.3715328E1,2.66839728E2,1.62248256E2,1.9247064E2,1.5183896E2,,,,,2.7522593999999998E1,5.7274063999999996E1,5.9345084E1,2.5369391999999998E1,2.9028703999999998E1,7.0419208E1,5.977481999999999E0,6.797814E0,,,,,2,5,7,9,13,30,6,28,,,,,13,11,15,15,11,15,9,0,,,,,
1571762670,2019-10-22 16:44:30.926,Acquired,Acquired,Acquired,Acquired,Acquired,Acquired,Acquired,Not acquired,,,,,2.3147871999999998E2,2.94698016E2,6.9228184E1,8.3715328E1,2.66839728E2,1.62248256E2,1.9247064E2,1.5183896E2,,,,,2.7522593999999998E1,5.7274063999999996E1,5.9345084E1,2.5369391999999998E1,2.9028703999999998E1,7.0419208E1,5.977481999999999E0,6.797814E0,,,,,2,5,7,9,13,30,6,28,,,,,13,11,15,15,11,15,9,0,,,,,
1571762730,2019-10-22 16:45:30.926,Acquired,Acquired,Acquired,Acquired,Acquired,Acquired,Acquired,Not acquired,,,,,2.3147871999999998E2,2.94698016E2,6.9228184E1,8.3715328E1,2.66839728E2,1.62248256E2,1.9247064E2,1.5183896E2,,,,,2.7522593999999998E1,5.7274063999999996E1,5.9345084E1,2.5369391999999998E1,2.9028703999999998E1,7.0419208E1,5.977481999999999E0,6.797814E0,,,,,2,5,7,9,13,30,6,28,,,,,13,11,15,15,11,15,9,0,,,,,
1571762790,2019-10-22 16:46:30.927,Acquired,Acquired,,Acquired,Acquired,Acquired,Acquired,Not acquired,,,,,2.3115163199999998E2,2.94288576E2,,8.397173599999999E1,2.67133264E2,1.6133099199999998E2,1.9233696E2,1.51638688E2,,,,,2.7152051999999998E1,5.7677299999999995E1,,2.4991984E1,2.9413117999999997E1,7.0808032E1,5.575677E0,7.192022E0,,,,,2,5,,9,13,30,6,28,,,,,13,12,,14,12,15,11,0,,,,,
1571762850,2019-10-22 16:47:30.926,Acquired,Acquired,Acquired,Acquired,Acquired,Acquired,Not acquired,Acquired,Acquired,,,,2.5870104E2,5.7620528E1,2.79720064E2,1.4295463999999998E2,9.178132E1,2.19944112E2,9.4357272E1,2.8211731199999997E2,3.34640384E2,,,,6.9121648E1,4.2880552E1,4.5471447999999995E1,2.3883146E1,7.4921448E1,1.1696845999999999E1,1.0175296999999999E1,1.1607023E1,6.232633E0,,,,5,7,13,28,30,2,9,15,21,,,,15,15,11,5,15,8,0,5,5,,,,
1571762910,2019-10-22 16:48:30.926,Acquired,Acquired,Acquired,Acquired,Acquired,Acquired,Acquired,Acquired,Acquired,,,,2.57365936E2,5.7539516E1,2.80043776E2,1.4271552E2,9.0294184E1,2.1970535999999998E2,9.4605592E1,2.8232345599999996E2,3.34353024E2,,,,6.9192112E1,4.2469055999999995E1,4.5871756E1,2.4296004E1,7.4665488E1,1.1324434E1,9.827427E0,1.1974864E1,6.423267999999999E0,,,,5,7,13,28,30,2,9,15,21,,,,15,16,11,6,15,7,1,5,4,,,,
1571762970,2019-10-22 16:49:30.926,Acquired,Acquired,Acquired,Acquired,Acquired,Acquired,Acquired,Acquired,Acquired,,,,2.57365936E2,5.7539516E1,2.80043776E2,1.4271552E2,9.0294184E1,2.1970535999999998E2,9.4605592E1,2.8232345599999996E2,3.34353024E2,,,,6.9192112E1,4.2469055999999995E1,4.5871756E1,2.4296004E1,7.4665488E1,1.1324434E1,9.827427E0,1.1974864E1,6.423267999999999E0,,,,5,7,13,28,30,2,9,15,21,,,,15,16,11,6,15,7,1,5,4,,,,
1571763030,2019-10-22 16:50:30.926,Acquired,Acquired,Acquired,Acquired,Acquired,Acquired,Acquired,Acquired,Acquired,,,,2.57365936E2,5.7539516E1,2.80043776E2,1.4271552E2,9.0294184E1,2.1970535999999998E2,9.4605592E1,2.8232345599999996E2,3.34353024E2,,,,6.9192112E1,4.2469055999999995E1,4.5871756E1,2.4296004E1,7.4665488E1,1.1324434E1,9.827427E0,1.1974864E1,6.423267999999999E0,,,,5,7,13,28,30,2,9,15,21,,,,15,16,11,6,15,7,1,5,4,,,,
1571763090,2019-10-22 16:51:30.926,Acquired,Acquired,Acquired,Acquired,Acquired,Acquired,Acquired,Acquired,Acquired,,,,2.57365936E2,5.7539516E1,2.80043776E2,1.4271552E2,9.0294184E1,2.1970535999999998E2,9.4605592E1,2.8232345599999996E2,3.34353024E2,,,,6.9192112E1,4.2469055999999995E1,4.5871756E1,2.4296004E1,7.4665488E1,1.1324434E1,9.827427E0,1.1974864E1,6.423267999999999E0,,,,5,7,13,28,30,2,9,15,21,,,,15,16,11,6,15,7,1,5,4,,,,
1571763150,2019-10-22 16:52:30.926,Acquired,Acquired,Acquired,Acquired,Acquired,Acquired,Acquired,Acquired,Acquired,,,,2.57365936E2,5.7539516E1,2.80043776E2,1.4271552E2,9.0294184E1,2.1970535999999998E2,9.4605592E1,2.8232345599999996E2,3.34353024E2,,,,6.9192112E1,4.2469055999999995E1,4.5871756E1,2.4296004E1,7.4665488E1,1.1324434E1,9.827427E0,1.1974864E1,6.423267999999999E0,,,,5,7,13,28,30,2,9,15,21,,,,15,16,11,6,15,7,1,5,4,,,,
1571763210,2019-10-22 16:53:30.926,Acquired,Acquired,Acquired,Acquired,Acquired,Acquired,Acquired,Acquired,Acquired,,,,2.57365936E2,5.7539516E1,2.80043776E2,1.4271552E2,9.0294184E1,2.1970535999999998E2,9.4605592E1,2.8232345599999996E2,3.34353024E2,,,,6.9192112E1,4.2469055999999995E1,4.5871756E1,2.4296004E1,7.4665488E1,1.1324434E1,9.827427E0,1.1974864E1,6.423267999999999E0,,,,5,7,13,28,30,2,9,15,21,,,,15,16,11,6,15,7,1,5,4,,,,
1571763270,2019-10-22 16:54:30.926,Acquired,Acquired,Acquired,Acquired,Acquired,Acquired,Acquired,Acquired,Acquired,,,,2.57365936E2,5.7539516E1,2.80043776E2,1.4271552E2,9.0294184E1,2.1970535999999998E2,9.4605592E1,2.8232345599999996E2,3.34353024E2,,,,6.9192112E1,4.2469055999999995E1,4.5871756E1,2.4296004E1,7.4665488E1,1.1324434E1,9.827427E0,1.1974864E1,6.423267999999999E0,,,,5,7,13,28,30,2,9,15,21,,,,15,16,11,6,15,7,1,5,4,,,,
1571763330,2019-10-22 16:55:30.926,Acquired,Acquired,Acquired,Acquired,Acquired,Acquired,Acquired,Acquired,Acquired,,,,2.57365936E2,5.7539516E1,2.80043776E2,1.4271552E2,9.0294184E1,2.1970535999999998E2,9.4605592E1,2.8232345599999996E2,3.34353024E2,,,,6.9192112E1,4.2469055999999995E1,4.5871756E1,2.4296004E1,7.4665488E1,1.1324434E1,9.827427E0,1.1974864E1,6.423267999999999E0,,,,5,7,13,28,30,2,9,15,21,,,,15,16,11,6,15,7,1,5,4,,,,
1571763390,2019-10-22 16:56:30.926,Acquired,Acquired,Acquired,Acquired,Acquired,Acquired,Acquired,Acquired,Acquired,,,,2.57365936E2,5.7539516E1,2.80043776E2,1.4271552E2,9.0294184E1,2.1970535999999998E2,9.4605592E1,2.8232345599999996E2,3.34353024E2,,,,6.9192112E1,4.2469055999999995E1,4.5871756E1,2.4296004E1,7.4665488E1,1.1324434E1,9.827427E0,1.1974864E1,6.423267999999999E0,,,,5,7,13,28,30,2,9,15,21,,,,15,16,11,6,15,7,1,5,4,,,,
1571763450,2019-10-22 16:57:30.926,Acquired,Acquired,Acquired,Acquired,Acquired,Acquired,Acquired,Acquired,Acquired,,,,2.57365936E2,5.7539516E1,2.80043776E2,1.4271552E2,9.0294184E1,2.1970535999999998E2,9.4605592E1,2.8232345599999996E2,3.34353024E2,,,,6.9192112E1,4.2469055999999995E1,4.5871756E1,2.4296004E1,7.4665488E1,1.1324434E1,9.827427E0,1.1974864E1,6.423267999999999E0,,,,5,7,13,28,30,2,9,15,21,,,,15,16,11,6,15,7,1,5,4,,,,
1571763510,2019-10-22 16:58:30.926,Acquired,Acquired,Acquired,Acquired,Acquired,Acquired,Acquired,Acquired,Acquired,,,,2.57365936E2,5.7539516E1,2.80043776E2,1.4271552E2,9.0294184E1,2.1970535999999998E2,9.4605592E1,2.8232345599999996E2,3.34353024E2,,,,6.9192112E1,4.2469055999999995E1,4.5871756E1,2.4296004E1,7.4665488E1,1.1324434E1,9.827427E0,1.1974864E1,6.423267999999999E0,,,,5,7,13,28,30,2,9,15,21,,,,15,16,11,6,15,7,1,5,4,,,,
1571763570,2019-10-22 16:59:30.926,Acquired,Acquired,Acquired,Acquired,Acquired,Acquired,Acquired,Acquired,Acquired,,,,2.57365936E2,5.7539516E1,2.80043776E2,1.4271552E2,9.0294184E1,2.1970535999999998E2,9.4605592E1,2.8232345599999996E2,3.34353024E2,,,,6.9192112E1,4.2469055999999995E1,4.5871756E1,2.4296004E1,7.4665488E1,1.1324434E1,9.827427E0,1.1974864E1,6.423267999999999E0,,,,5,7,13,28,30,2,9,15,21,,,,15,16,11,6,15,7,1,5,4,,,,
