Time(longsecs),Time(UTC),Earth Location,GPS Receiver Status,GPS Satellites Used,GPS PDOP,GPS TDOP,Timing Status,Timing Phase Lock,Timing Uncertainty(ns),DAC Count,Timing Error(ns),GPS Last Update Time,
1571752830,2019-10-22 14:00:30.928,47.638698N 0.549108E 177m,Off,8,1.586024,0.8286442,Time OK,Free running,17300,8595,0,2019-10-22 13:43:18.000000000,
1571752890,2019-10-22 14:01:30.928,47.638698N 0.549108E 177m,Off,8,1.586024,0.8286442,Time OK,Free running,18400,8595,0,2019-10-22 13:43:18.000000000,
1571752950,2019-10-22 14:02:30.926,47.638698N 0.549108E 177m,Off,8,1.586024,0.8286442,Time OK,Free running,19600,8595,0,2019-10-22 13:43:18.000000000,
1571753010,2019-10-22 14:03:30.926,47.638698N 0.549108E 177m,Off,8,1.586024,0.8286442,Time OK,Free running,20900,8595,0,2019-10-22 13:43:18.000000000,
1571753070,2019-10-22 14:04:30.928,47.638698N 0.549108E 177m,Off,8,1.586024,0.8286442,Time OK,Free running,22100,8595,0,2019-10-22 13:43:18.000000000,
1571753130,2019-10-22 14:05:30.958,47.638698N 0.549108E 177m,Off,8,1.586024,0.8286442,Time OK,Free running,23400,8595,0,2019-10-22 13:43:18.000000000,
1571753190,2019-10-22 14:06:30.926,47.638698N 0.549108E 177m,Off,8,1.586024,0.8286442,Time OK,Free running,24500,8595,0,2019-10-22 13:43:18.000000000,
1571753250,2019-10-22 14:07:30.926,47.638698N 0.549108E 177m,Off,8,1.586024,0.8286442,Time OK,Free running,25400,8595,0,2019-10-22 13:43:18.000000000,
1571753310,2019-10-22 14:08:30.926,47.638698N 0.549108E 177m,Off,8,1.586024,0.8286442,Time OK,Free running,26500,8595,0,2019-10-22 13:43:18.000000000,
1571753370,2019-10-22 14:09:30.926,47.638698N 0.549108E 177m,Off,8,1.586024,0.8286442,Time OK,Free running,27700,8595,0,2019-10-22 13:43:18.000000000,
1571753430,2019-10-22 14:10:30.926,47.638698N 0.549108E 177m,Off,8,1.586024,0.8286442,Time OK,Free running,28800,8595,0,2019-10-22 13:43:18.000000000,
1571753490,2019-10-22 14:11:30.928,47.638698N 0.549108E 177m,Off,8,1.586024,0.8286442,Time OK,Free running,29800,8595,0,2019-10-22 13:43:18.000000000,
1571753550,2019-10-22 14:12:30.926,47.638698N 0.549108E 177m,Off,8,1.586024,0.8286442,Time OK,Free running,30800,8595,0,2019-10-22 13:43:18.000000000,
1571753610,2019-10-22 14:13:30.926,47.638698N 0.549108E 177m,Off,8,1.586024,0.8286442,Time OK,Free running,32100,8595,0,2019-10-22 13:43:18.000000000,
1571753670,2019-10-22 14:14:30.926,47.638698N 0.549108E 177m,Off,8,1.586024,0.8286442,Time OK,Free running,33400,8595,0,2019-10-22 13:43:18.000000000,
1571753730,2019-10-22 14:15:30.927,47.638698N 0.549108E 177m,Off,8,1.586024,0.8286442,Time OK,Free running,34500,8595,0,2019-10-22 13:43:18.000000000,
1571753790,2019-10-22 14:16:30.926,47.638698N 0.549108E 177m,Off,8,1.586024,0.8286442,Time OK,Free running,35600,8595,0,2019-10-22 13:43:18.000000000,
1571753850,2019-10-22 14:17:30.926,47.638698N 0.549108E 177m,Off,8,1.586024,0.8286442,Time OK,Free running,36800,8595,0,2019-10-22 13:43:18.000000000,
1571753910,2019-10-22 14:18:30.926,47.638698N 0.549108E 177m,Off,8,1.586024,0.8286442,Time OK,Free running,38000,8595,0,2019-10-22 13:43:18.000000000,
1571753970,2019-10-22 14:19:30.926,47.638698N 0.549108E 177m,Off,8,1.586024,0.8286442,Time OK,Free running,39100,8595,0,2019-10-22 13:43:18.000000000,
1571754030,2019-10-22 14:20:30.926,47.638698N 0.549108E 177m,Off,8,1.586024,0.8286442,Time OK,Free running,40000,8595,0,2019-10-22 13:43:18.000000000,
1571754090,2019-10-22 14:21:30.926,47.638698N 0.549108E 177m,Off,8,1.586024,0.8286442,Time OK,Free running,41000,8595,0,2019-10-22 13:43:18.000000000,
1571754150,2019-10-22 14:22:30.926,47.638698N 0.549108E 177m,Off,8,1.586024,0.8286442,Time OK,Free running,42200,8595,0,2019-10-22 13:43:18.000000000,
1571754210,2019-10-22 14:23:30.926,47.638698N 0.549108E 177m,Off,8,1.586024,0.8286442,Time OK,Free running,43300,8595,0,2019-10-22 13:43:18.000000000,
1571754270,2019-10-22 14:24:30.926,47.638698N 0.549108E 177m,Off,8,1.586024,0.8286442,Time OK,Free running,44400,8595,0,2019-10-22 13:43:18.000000000,
1571754330,2019-10-22 14:25:30.926,47.638698N 0.549108E 177m,Off,8,1.586024,0.8286442,Time OK,Free running,45300,8595,0,2019-10-22 13:43:18.000000000,
1571754390,2019-10-22 14:26:30.928,47.638698N 0.549108E 177m,Off,8,1.586024,0.8286442,Time OK,Free running,46400,8595,0,2019-10-22 13:43:18.000000000,
1571754450,2019-10-22 14:27:30.938,47.638698N 0.549108E 177m,Off,8,1.586024,0.8286442,Time OK,Free running,47500,8595,0,2019-10-22 13:43:18.000000000,
1571754510,2019-10-22 14:28:30.926,47.638698N 0.549108E 177m,Off,8,1.586024,0.8286442,Time OK,Free running,48400,8595,0,2019-10-22 13:43:18.000000000,
1571754570,2019-10-22 14:29:30.926,47.638698N 0.549108E 177m,Off,8,1.586024,0.8286442,Time OK,Free running,49300,8595,0,2019-10-22 13:43:18.000000000,
1571754630,2019-10-22 14:30:30.926,47.638698N 0.549108E 177m,Off,8,1.586024,0.8286442,Time OK,Free running,50700,8595,0,2019-10-22 13:43:18.000000000,
1571754690,2019-10-22 14:31:30.959,47.638698N 0.549108E 177m,No GPS time,0,0.0,0.0,Time OK,Free running,51900,8595,0,2019-10-22 14:31:27.000000000,
1571754750,2019-10-22 14:32:30.926,47.638698N 0.549108E 177m,Doing fixes,9,1.8739603,0.9549615,Time OK,Fine lock,100,8603,104,2019-10-22 14:32:27.000000000,
1571754810,2019-10-22 14:33:30.926,47.638698N 0.549108E 177m,Doing fixes,9,1.8930345,0.9662814,Time OK,Fine lock,100,8597,0,2019-10-22 14:33:27.000000000,
1571754870,2019-10-22 14:34:30.926,47.638698N 0.549108E 177m,Doing fixes,9,1.9118049,0.9773653,Time OK,Fine lock,100,8600,0,2019-10-22 14:34:27.000000000,
1571754930,2019-10-22 14:35:30.926,47.638698N 0.549108E 177m,Off,8,2.1256022,1.149815,Time OK,Free running,600,8598,0,2019-10-22 14:34:47.000000000,
1571754990,2019-10-22 14:36:30.927,47.638698N 0.549108E 177m,Off,8,2.1256022,1.149815,Time OK,Free running,1500,8598,0,2019-10-22 14:34:47.000000000,
1571755050,2019-10-22 14:37:30.926,47.638698N 0.549108E 177m,Off,8,2.1256022,1.149815,Time OK,Free running,2600,8598,0,2019-10-22 14:34:47.000000000,
1571755110,2019-10-22 14:38:30.928,47.638698N 0.549108E 177m,Off,8,2.1256022,1.149815,Time OK,Free running,3600,8598,0,2019-10-22 14:34:47.000000000,
1571755170,2019-10-22 14:39:30.926,47.638698N 0.549108E 177m,Off,8,2.1256022,1.149815,Time OK,Free running,4800,8598,0,2019-10-22 14:34:47.000000000,
1571755230,2019-10-22 14:40:30.926,47.638698N 0.549108E 177m,Off,8,2.1256022,1.149815,Time OK,Free running,6000,8598,0,2019-10-22 14:34:47.000000000,
1571755290,2019-10-22 14:41:30.926,47.638698N 0.549108E 177m,Off,8,2.1256022,1.149815,Time OK,Free running,6800,8598,0,2019-10-22 14:34:47.000000000,
1571755350,2019-10-22 14:42:30.926,47.638698N 0.549108E 177m,Off,8,2.1256022,1.149815,Time OK,Free running,7700,8598,0,2019-10-22 14:34:47.000000000,
1571755410,2019-10-22 14:43:30.926,47.638698N 0.549108E 177m,Off,8,2.1256022,1.149815,Time OK,Free running,8700,8598,0,2019-10-22 14:34:47.000000000,
1571755470,2019-10-22 14:44:30.926,47.638698N 0.549108E 177m,Off,8,2.1256022,1.149815,Time OK,Free running,9500,8598,0,2019-10-22 14:34:47.000000000,
1571755530,2019-10-22 14:45:30.926,47.638698N 0.549108E 177m,Off,8,2.1256022,1.149815,Time OK,Free running,10300,8598,0,2019-10-22 14:34:47.000000000,
1571755590,2019-10-22 14:46:30.926,47.638698N 0.549108E 177m,Off,8,2.1256022,1.149815,Time OK,Free running,11300,8598,0,2019-10-22 14:34:47.000000000,
1571755650,2019-10-22 14:47:30.928,47.638698N 0.549108E 177m,Off,8,2.1256022,1.149815,Time OK,Free running,12200,8598,0,2019-10-22 14:34:47.000000000,
1571755710,2019-10-22 14:48:30.937,47.638698N 0.549108E 177m,Off,8,2.1256022,1.149815,Time OK,Free running,13000,8598,0,2019-10-22 14:34:47.000000000,
1571755770,2019-10-22 14:49:30.926,47.638698N 0.549108E 177m,Off,8,2.1256022,1.149815,Time OK,Free running,14100,8598,0,2019-10-22 14:34:47.000000000,
1571755830,2019-10-22 14:50:30.926,47.638698N 0.549108E 177m,Off,8,2.1256022,1.149815,Time OK,Free running,15000,8598,0,2019-10-22 14:34:47.000000000,
1571755890,2019-10-22 14:51:30.926,47.638698N 0.549108E 177m,Off,8,2.1256022,1.149815,Time OK,Free running,16000,8598,0,2019-10-22 14:34:47.000000000,
1571755950,2019-10-22 14:52:30.926,47.638698N 0.549108E 177m,Off,8,2.1256022,1.149815,Time OK,Free running,17300,8598,0,2019-10-22 14:34:47.000000000,
1571756010,2019-10-22 14:53:30.926,47.638698N 0.549108E 177m,Off,8,2.1256022,1.149815,Time OK,Free running,18500,8598,0,2019-10-22 14:34:47.000000000,
1571756070,2019-10-22 14:54:30.926,47.638698N 0.549108E 177m,Off,8,2.1256022,1.149815,Time OK,Free running,19600,8598,0,2019-10-22 14:34:47.000000000,
1571756130,2019-10-22 14:55:30.926,47.638698N 0.549108E 177m,Off,8,2.1256022,1.149815,Time OK,Free running,20800,8598,0,2019-10-22 14:34:47.000000000,
1571756190,2019-10-22 14:56:30.926,47.638698N 0.549108E 177m,Off,8,2.1256022,1.149815,Time OK,Free running,21800,8598,0,2019-10-22 14:34:47.000000000,
1571756250,2019-10-22 14:57:30.926,47.638698N 0.549108E 177m,Off,8,2.1256022,1.149815,Time OK,Free running,22900,8598,0,2019-10-22 14:34:47.000000000,
1571756310,2019-10-22 14:58:30.926,47.638698N 0.549108E 177m,Off,8,2.1256022,1.149815,Time OK,Free running,24400,8598,0,2019-10-22 14:34:47.000000000,
1571756370,2019-10-22 14:59:30.926,47.638698N 0.549108E 177m,Off,8,2.1256022,1.149815,Time OK,Free running,25600,8598,0,2019-10-22 14:34:47.000000000,
