Time(longsecs),Time(UTC),Earth Location,GPS Receiver Status,GPS Satellites Used,GPS PDOP,GPS TDOP,Timing Status,Timing Phase Lock,Timing Uncertainty(ns),DAC Count,Timing Error(ns),GPS Last Update Time,
1571734830,2019-10-22 09:00:30.926,47.63873N 0.549108E 178m,Off,10,1.752481,0.94538885,Time OK,Free running,100,9034,0,2019-10-22 09:00:28.000000000,
1571734890,2019-10-22 09:01:30.926,47.63873N 0.549108E 178m,Off,10,1.752481,0.94538885,Time OK,Free running,900,9034,0,2019-10-22 09:00:28.000000000,
1571734950,2019-10-22 09:02:30.959,47.63873N 0.549108E 178m,Off,10,1.752481,0.94538885,Time OK,Free running,2000,9034,0,2019-10-22 09:00:28.000000000,
1571735010,2019-10-22 09:03:30.926,47.63873N 0.549108E 178m,Off,10,1.752481,0.94538885,Time OK,Free running,3300,9034,0,2019-10-22 09:00:28.000000000,
1571735070,2019-10-22 09:04:30.926,47.63873N 0.549108E 178m,Off,10,1.752481,0.94538885,Time OK,Free running,4400,9034,0,2019-10-22 09:00:28.000000000,
1571735130,2019-10-22 09:05:30.926,47.63873N 0.549108E 178m,Off,10,1.752481,0.94538885,Time OK,Free running,5300,9034,0,2019-10-22 09:00:28.000000000,
1571735190,2019-10-22 09:06:30.926,47.63873N 0.549108E 178m,Off,10,1.752481,0.94538885,Time OK,Free running,6400,9034,0,2019-10-22 09:00:28.000000000,
1571735250,2019-10-22 09:07:30.926,47.63873N 0.549108E 178m,Off,10,1.752481,0.94538885,Time OK,Free running,7900,9034,0,2019-10-22 09:00:28.000000000,
1571735310,2019-10-22 09:08:30.926,47.63873N 0.549108E 178m,Off,10,1.752481,0.94538885,Time OK,Free running,9500,9034,0,2019-10-22 09:00:28.000000000,
1571735370,2019-10-22 09:09:30.926,47.63873N 0.549108E 178m,Off,10,1.752481,0.94538885,Time OK,Free running,11000,9034,0,2019-10-22 09:00:28.000000000,
1571735430,2019-10-22 09:10:30.926,47.63873N 0.549108E 178m,Off,10,1.752481,0.94538885,Time OK,Free running,12500,9034,0,2019-10-22 09:00:28.000000000,
1571735490,2019-10-22 09:11:30.926,47.63873N 0.549108E 178m,Off,10,1.752481,0.94538885,Time OK,Free running,14000,9034,0,2019-10-22 09:00:28.000000000,
1571735550,2019-10-22 09:12:30.926,47.63873N 0.549108E 178m,Off,10,1.752481,0.94538885,Time OK,Free running,15700,9034,0,2019-10-22 09:00:28.000000000,
1571735610,2019-10-22 09:13:30.926,47.63873N 0.549108E 178m,Off,10,1.752481,0.94538885,Time OK,Free running,17400,9034,0,2019-10-22 09:00:28.000000000,
1571735670,2019-10-22 09:14:30.926,47.63873N 0.549108E 178m,Off,10,1.752481,0.94538885,Time OK,Free running,19200,9034,0,2019-10-22 09:00:28.000000000,
1571735730,2019-10-22 09:15:30.926,47.63873N 0.549108E 178m,Off,10,1.752481,0.94538885,Time OK,Free running,21400,9034,0,2019-10-22 09:00:28.000000000,
1571735790,2019-10-22 09:16:30.926,47.63873N 0.549108E 178m,Off,10,1.752481,0.94538885,Time OK,Free running,23500,9034,0,2019-10-22 09:00:28.000000000,
1571735850,2019-10-22 09:17:30.926,47.63873N 0.549108E 178m,Off,10,1.752481,0.94538885,Time OK,Free running,25600,9034,0,2019-10-22 09:00:28.000000000,
1571735910,2019-10-22 09:18:30.926,47.63873N 0.549108E 178m,Off,10,1.752481,0.94538885,Time OK,Free running,27800,9034,0,2019-10-22 09:00:28.000000000,
1571735970,2019-10-22 09:19:30.926,47.63873N 0.549108E 178m,Off,10,1.752481,0.94538885,Time OK,Free running,30000,9034,0,2019-10-22 09:00:28.000000000,
1571736030,2019-10-22 09:20:30.926,47.63873N 0.549108E 178m,Off,10,1.752481,0.94538885,Time OK,Free running,32400,9034,0,2019-10-22 09:00:28.000000000,
1571736090,2019-10-22 09:21:30.926,47.63873N 0.549108E 178m,Off,10,1.752481,0.94538885,Time OK,Free running,35000,9034,0,2019-10-22 09:00:28.000000000,
1571736150,2019-10-22 09:22:30.926,47.63873N 0.549108E 178m,Off,10,1.752481,0.94538885,Time OK,Free running,37600,9034,0,2019-10-22 09:00:28.000000000,
1571736210,2019-10-22 09:23:30.959,47.63873N 0.549108E 178m,Off,10,1.752481,0.94538885,Time OK,Free running,40300,9034,0,2019-10-22 09:00:28.000000000,
1571736270,2019-10-22 09:24:30.926,47.63873N 0.549108E 178m,Off,10,1.752481,0.94538885,Time OK,Free running,42900,9034,0,2019-10-22 09:00:28.000000000,
1571736330,2019-10-22 09:25:30.926,47.63873N 0.549108E 178m,Off,10,1.752481,0.94538885,Time OK,Free running,45700,9034,0,2019-10-22 09:00:28.000000000,
1571736390,2019-10-22 09:26:30.926,47.63873N 0.549108E 178m,Off,10,1.752481,0.94538885,Time OK,Free running,48600,9034,0,2019-10-22 09:00:28.000000000,
1571736450,2019-10-22 09:27:30.926,47.63873N 0.549108E 178m,Off,10,1.752481,0.94538885,Time OK,Free running,51400,9034,0,2019-10-22 09:00:28.000000000,
1571736510,2019-10-22 09:28:30.956,47.63873N 0.549108E 178m,No GPS time,10,1.752481,0.94538885,Time OK,Free running,54500,9034,0,2019-10-22 09:00:28.000000000,
1571736570,2019-10-22 09:29:30.926,47.63873N 0.549108E 178m,Doing fixes,9,1.8220562,1.0919627,Time OK,Coarse lock,100,9126,208,2019-10-22 09:29:28.000000000,
1571736630,2019-10-22 09:30:30.926,47.63873N 0.549108E 178m,Doing fixes,10,1.4484793,0.7999488,Time OK,Fine lock,100,9060,0,2019-10-22 09:30:28.000000000,
1571736690,2019-10-22 09:31:30.928,47.63873N 0.549108E 178m,Off,10,1.4491892,0.80058545,Time OK,Free running,600,9060,0,2019-10-22 09:30:48.000000000,
1571736750,2019-10-22 09:32:30.926,47.63873N 0.549108E 178m,Off,10,1.4491892,0.80058545,Time OK,Free running,1400,9060,0,2019-10-22 09:30:48.000000000,
1571736810,2019-10-22 09:33:30.926,47.63873N 0.549108E 178m,Off,10,1.4491892,0.80058545,Time OK,Free running,2400,9060,0,2019-10-22 09:30:48.000000000,
1571736870,2019-10-22 09:34:30.926,47.63873N 0.549108E 178m,Off,10,1.4491892,0.80058545,Time OK,Free running,3400,9060,0,2019-10-22 09:30:48.000000000,
1571736930,2019-10-22 09:35:30.959,47.63873N 0.549108E 178m,Off,10,1.4491892,0.80058545,Time OK,Free running,4200,9060,0,2019-10-22 09:30:48.000000000,
1571736990,2019-10-22 09:36:30.926,47.63873N 0.549108E 178m,Off,10,1.4491892,0.80058545,Time OK,Free running,5200,9060,0,2019-10-22 09:30:48.000000000,
1571737050,2019-10-22 09:37:30.926,47.63873N 0.549108E 178m,Off,10,1.4491892,0.80058545,Time OK,Free running,6200,9060,0,2019-10-22 09:30:48.000000000,
1571737110,2019-10-22 09:38:30.926,47.63873N 0.549108E 178m,Off,10,1.4491892,0.80058545,Time OK,Free running,7000,9060,0,2019-10-22 09:30:48.000000000,
1571737170,2019-10-22 09:39:30.927,47.63873N 0.549108E 178m,Off,10,1.4491892,0.80058545,Time OK,Free running,8200,9060,0,2019-10-22 09:30:48.000000000,
1571737230,2019-10-22 09:40:30.926,47.63873N 0.549108E 178m,Off,10,1.4491892,0.80058545,Time OK,Free running,9400,9060,0,2019-10-22 09:30:48.000000000,
1571737290,2019-10-22 09:41:30.926,47.63873N 0.549108E 178m,Off,10,1.4491892,0.80058545,Time OK,Free running,10400,9060,0,2019-10-22 09:30:48.000000000,
1571737350,2019-10-22 09:42:30.928,47.63873N 0.549108E 178m,Off,10,1.4491892,0.80058545,Time OK,Free running,11500,9060,0,2019-10-22 09:30:48.000000000,
1571737410,2019-10-22 09:43:30.926,47.63873N 0.549108E 178m,Off,10,1.4491892,0.80058545,Time OK,Free running,12700,9060,0,2019-10-22 09:30:48.000000000,
1571737470,2019-10-22 09:44:30.926,47.63873N 0.549108E 178m,Off,10,1.4491892,0.80058545,Time OK,Free running,13800,9060,0,2019-10-22 09:30:48.000000000,
1571737530,2019-10-22 09:45:30.926,47.63873N 0.549108E 178m,Off,10,1.4491892,0.80058545,Time OK,Free running,15400,9060,0,2019-10-22 09:30:48.000000000,
1571737590,2019-10-22 09:46:30.964,47.63873N 0.549108E 178m,Off,10,1.4491892,0.80058545,Time OK,Free running,17200,9060,0,2019-10-22 09:30:48.000000000,
1571737650,2019-10-22 09:47:30.926,47.63873N 0.549108E 178m,Off,10,1.4491892,0.80058545,Time OK,Free running,19000,9060,0,2019-10-22 09:30:48.000000000,
1571737710,2019-10-22 09:48:30.926,47.63873N 0.549108E 178m,Off,10,1.4491892,0.80058545,Time OK,Free running,20600,9060,0,2019-10-22 09:30:48.000000000,
1571737770,2019-10-22 09:49:30.926,47.63873N 0.549108E 178m,Off,10,1.4491892,0.80058545,Time OK,Free running,22300,9060,0,2019-10-22 09:30:48.000000000,
1571737830,2019-10-22 09:50:30.926,47.63873N 0.549108E 178m,Off,10,1.4491892,0.80058545,Time OK,Free running,24300,9060,0,2019-10-22 09:30:48.000000000,
1571737890,2019-10-22 09:51:30.926,47.63873N 0.549108E 178m,Off,10,1.4491892,0.80058545,Time OK,Free running,26400,9060,0,2019-10-22 09:30:48.000000000,
1571737950,2019-10-22 09:52:30.926,47.63873N 0.549108E 178m,Off,10,1.4491892,0.80058545,Time OK,Free running,28600,9060,0,2019-10-22 09:30:48.000000000,
1571738010,2019-10-22 09:53:30.926,47.63873N 0.549108E 178m,Off,10,1.4491892,0.80058545,Time OK,Free running,30800,9060,0,2019-10-22 09:30:48.000000000,
1571738070,2019-10-22 09:54:30.926,47.63873N 0.549108E 178m,Off,10,1.4491892,0.80058545,Time OK,Free running,32800,9060,0,2019-10-22 09:30:48.000000000,
1571738130,2019-10-22 09:55:30.926,47.63873N 0.549108E 178m,Off,10,1.4491892,0.80058545,Time OK,Free running,34700,9060,0,2019-10-22 09:30:48.000000000,
1571738190,2019-10-22 09:56:30.926,47.63873N 0.549108E 178m,Off,10,1.4491892,0.80058545,Time OK,Free running,36700,9060,0,2019-10-22 09:30:48.000000000,
1571738250,2019-10-22 09:57:30.926,47.63873N 0.549108E 178m,Off,10,1.4491892,0.80058545,Time OK,Free running,38800,9060,0,2019-10-22 09:30:48.000000000,
1571738310,2019-10-22 09:58:30.929,47.63873N 0.549108E 178m,Off,10,1.4491892,0.80058545,Time OK,Free running,41100,9060,0,2019-10-22 09:30:48.000000000,
1571738370,2019-10-22 09:59:30.926,47.63873N 0.549108E 178m,Off,10,1.4491892,0.80058545,Time OK,Free running,43600,9060,0,2019-10-22 09:30:48.000000000,
