Time(longsecs),Time(UTC),GPS Satellite Acquisition Flag 1,GPS Satellite Acquisition Flag 2,GPS Satellite Acquisition Flag 3,GPS Satellite Acquisition Flag 4,GPS Satellite Acquisition Flag 5,GPS Satellite Acquisition Flag 6,GPS Satellite Acquisition Flag 7,GPS Satellite Acquisition Flag 8,GPS Satellite Acquisition Flag 9,GPS Satellite Acquisition Flag 10,GPS Satellite Acquisition Flag 11,GPS Satellite Acquisition Flag 12,GPS Satellite Azimuth 1(Degrees),GPS Satellite Azimuth 2(Degrees),GPS Satellite Azimuth 3(Degrees),GPS Satellite Azimuth 4(Degrees),GPS Satellite Azimuth 5(Degrees),GPS Satellite Azimuth 6(Degrees),GPS Satellite Azimuth 7(Degrees),GPS Satellite Azimuth 8(Degrees),GPS Satellite Azimuth 9(Degrees),GPS Satellite Azimuth 10(Degrees),GPS Satellite Azimuth 11(Degrees),GPS Satellite Azimuth 12(Degrees),GPS Satellite Elevation 1(Degrees),GPS Satellite Elevation 2(Degrees),GPS Satellite Elevation 3(Degrees),GPS Satellite Elevation 4(Degrees),GPS Satellite Elevation 5(Degrees),GPS Satellite Elevation 6(Degrees),GPS Satellite Elevation 7(Degrees),GPS Satellite Elevation 8(Degrees),GPS Satellite Elevation 9(Degrees),GPS Satellite Elevation 10(Degrees),GPS Satellite Elevation 11(Degrees),GPS Satellite Elevation 12(Degrees),GPS Satellite PRN 1,GPS Satellite PRN 2,GPS Satellite PRN 3,GPS Satellite PRN 4,GPS Satellite PRN 5,GPS Satellite PRN 6,GPS Satellite PRN 7,GPS Satellite PRN 8,GPS Satellite PRN 9,GPS Satellite PRN 10,GPS Satellite PRN 11,GPS Satellite PRN 12,GPS Satellite Signal Level 1(AMU),GPS Satellite Signal Level 2(AMU),GPS Satellite Signal Level 3(AMU),GPS Satellite Signal Level 4(AMU),GPS Satellite Signal Level 5(AMU),GPS Satellite Signal Level 6(AMU),GPS Satellite Signal Level 7(AMU),GPS Satellite Signal Level 8(AMU),GPS Satellite Signal Level 9(AMU),GPS Satellite Signal Level 10(AMU),GPS Satellite Signal Level 11(AMU),GPS Satellite Signal Level 12(AMU),
1571734830,2019-10-22 09:00:30.926,Acquired,Acquired,Acquired,Acquired,Acquired,Acquired,Acquired,Acquired,Acquired,Acquired,Acquired,,3.03714144E2,2.2611983999999998E2,1.6548419199999998E2,2.79589312E2,1.00306512E2,2.24668016E2,2.92995008E2,6.682612E1,5.3055727999999995E1,3.16343072E2,1.50291056E2,,7.024268E1,3.5282108E1,4.5327543999999996E1,7.9484864E1,3.8536172E1,5.8962092E1,2.8406892E1,3.5077163999999996E1,8.651383E0,1.0533192999999999E1,1.1907136E1,,1,3,8,11,14,22,28,32,10,17,27,,15,15,10,12,12,13,12,13,8,4,3,,
1571734890,2019-10-22 09:01:30.926,Acquired,Acquired,Acquired,Acquired,Acquired,Acquired,Acquired,Acquired,Acquired,Acquired,Acquired,,3.03714144E2,2.2611983999999998E2,1.6548419199999998E2,2.79589312E2,1.00306512E2,2.24668016E2,2.92995008E2,6.682612E1,5.3055727999999995E1,3.16343072E2,1.50291056E2,,7.024268E1,3.5282108E1,4.5327543999999996E1,7.9484864E1,3.8536172E1,5.8962092E1,2.8406892E1,3.5077163999999996E1,8.651383E0,1.0533192999999999E1,1.1907136E1,,1,3,8,11,14,22,28,32,10,17,27,,15,15,10,12,12,13,12,13,8,4,3,,
1571734950,2019-10-22 09:02:30.959,Acquired,Acquired,Acquired,Acquired,Acquired,Acquired,Acquired,Acquired,Acquired,Acquired,Acquired,,3.03714144E2,2.2611983999999998E2,1.6548419199999998E2,2.79589312E2,1.00306512E2,2.24668016E2,2.92995008E2,6.682612E1,5.3055727999999995E1,3.16343072E2,1.50291056E2,,7.024268E1,3.5282108E1,4.5327543999999996E1,7.9484864E1,3.8536172E1,5.8962092E1,2.8406892E1,3.5077163999999996E1,8.651383E0,1.0533192999999999E1,1.1907136E1,,1,3,8,11,14,22,28,32,10,17,27,,15,15,10,12,12,13,12,13,8,4,3,,
1571735010,2019-10-22 09:03:30.926,Acquired,Acquired,Acquired,Acquired,Acquired,Acquired,Acquired,Acquired,Acquired,Acquired,Acquired,,3.03714144E2,2.2611983999999998E2,1.6548419199999998E2,2.79589312E2,1.00306512E2,2.24668016E2,2.92995008E2,6.682612E1,5.3055727999999995E1,3.16343072E2,1.50291056E2,,7.024268E1,3.5282108E1,4.5327543999999996E1,7.9484864E1,3.8536172E1,5.8962092E1,2.8406892E1,3.5077163999999996E1,8.651383E0,1.0533192999999999E1,1.1907136E1,,1,3,8,11,14,22,28,32,10,17,27,,15,15,10,12,12,13,12,13,8,4,3,,
1571735070,2019-10-22 09:04:30.926,Acquired,Acquired,Acquired,Acquired,Acquired,Acquired,Acquired,Acquired,Acquired,Acquired,Acquired,,3.03714144E2,2.2611983999999998E2,1.6548419199999998E2,2.79589312E2,1.00306512E2,2.24668016E2,2.92995008E2,6.682612E1,5.3055727999999995E1,3.16343072E2,1.50291056E2,,7.024268E1,3.5282108E1,4.5327543999999996E1,7.9484864E1,3.8536172E1,5.8962092E1,2.8406892E1,3.5077163999999996E1,8.651383E0,1.0533192999999999E1,1.1907136E1,,1,3,8,11,14,22,28,32,10,17,27,,15,15,10,12,12,13,12,13,8,4,3,,
1571735130,2019-10-22 09:05:30.926,Acquired,Acquired,Acquired,Acquired,Acquired,Acquired,Acquired,Acquired,Acquired,Acquired,Acquired,,3.03714144E2,2.2611983999999998E2,1.6548419199999998E2,2.79589312E2,1.00306512E2,2.24668016E2,2.92995008E2,6.682612E1,5.3055727999999995E1,3.16343072E2,1.50291056E2,,7.024268E1,3.5282108E1,4.5327543999999996E1,7.9484864E1,3.8536172E1,5.8962092E1,2.8406892E1,3.5077163999999996E1,8.651383E0,1.0533192999999999E1,1.1907136E1,,1,3,8,11,14,22,28,32,10,17,27,,15,15,10,12,12,13,12,13,8,4,3,,
1571735190,2019-10-22 09:06:30.926,Acquired,Acquired,Acquired,Acquired,Acquired,Acquired,Acquired,Acquired,Acquired,Acquired,Acquired,,3.03714144E2,2.2611983999999998E2,1.6548419199999998E2,2.79589312E2,1.00306512E2,2.24668016E2,2.92995008E2,6.682612E1,5.3055727999999995E1,3.16343072E2,1.50291056E2,,7.024268E1,3.5282108E1,4.5327543999999996E1,7.9484864E1,3.8536172E1,5.8962092E1,2.8406892E1,3.5077163999999996E1,8.651383E0,1.0533192999999999E1,1.1907136E1,,1,3,8,11,14,22,28,32,10,17,27,,15,15,10,12,12,13,12,13,8,4,3,,
1571735250,2019-10-22 09:07:30.926,Acquired,Acquired,Acquired,Acquired,Acquired,Acquired,Acquired,Acquired,Acquired,Acquired,Acquired,,3.03714144E2,2.2611983999999998E2,1.6548419199999998E2,2.79589312E2,1.00306512E2,2.24668016E2,2.92995008E2,6.682612E1,5.3055727999999995E1,3.16343072E2,1.50291056E2,,7.024268E1,3.5282108E1,4.5327543999999996E1,7.9484864E1,3.8536172E1,5.8962092E1,2.8406892E1,3.5077163999999996E1,8.651383E0,1.0533192999999999E1,1.1907136E1,,1,3,8,11,14,22,28,32,10,17,27,,15,15,10,12,12,13,12,13,8,4,3,,
1571735310,2019-10-22 09:08:30.926,Acquired,Acquired,Acquired,Acquired,Acquired,Acquired,Acquired,Acquired,Acquired,Acquired,Acquired,,3.03714144E2,2.2611983999999998E2,1.6548419199999998E2,2.79589312E2,1.00306512E2,2.24668016E2,2.92995008E2,6.682612E1,5.3055727999999995E1,3.16343072E2,1.50291056E2,,7.024268E1,3.5282108E1,4.5327543999999996E1,7.9484864E1,3.8536172E1,5.8962092E1,2.8406892E1,3.5077163999999996E1,8.651383E0,1.0533192999999999E1,1.1907136E1,,1,3,8,11,14,22,28,32,10,17,27,,15,15,10,12,12,13,12,13,8,4,3,,
1571735370,2019-10-22 09:09:30.926,Acquired,Acquired,Acquired,Acquired,Acquired,Acquired,Acquired,Acquired,Acquired,Acquired,Acquired,,3.03714144E2,2.2611983999999998E2,1.6548419199999998E2,2.79589312E2,1.00306512E2,2.24668016E2,2.92995008E2,6.682612E1,5.3055727999999995E1,3.16343072E2,1.50291056E2,,7.024268E1,3.5282108E1,4.5327543999999996E1,7.9484864E1,3.8536172E1,5.8962092E1,2.8406892E1,3.5077163999999996E1,8.651383E0,1.0533192999999999E1,1.1907136E1,,1,3,8,11,14,22,28,32,10,17,27,,15,15,10,12,12,13,12,13,8,4,3,,
1571735430,2019-10-22 09:10:30.926,Acquired,Acquired,Acquired,Acquired,Acquired,Acquired,Acquired,Acquired,Acquired,Acquired,Acquired,,3.03714144E2,2.2611983999999998E2,1.6548419199999998E2,2.79589312E2,1.00306512E2,2.24668016E2,2.92995008E2,6.682612E1,5.3055727999999995E1,3.16343072E2,1.50291056E2,,7.024268E1,3.5282108E1,4.5327543999999996E1,7.9484864E1,3.8536172E1,5.8962092E1,2.8406892E1,3.5077163999999996E1,8.651383E0,1.0533192999999999E1,1.1907136E1,,1,3,8,11,14,22,28,32,10,17,27,,15,15,10,12,12,13,12,13,8,4,3,,
1571735490,2019-10-22 09:11:30.926,Acquired,Acquired,Acquired,Acquired,Acquired,Acquired,Acquired,Acquired,Acquired,Acquired,Acquired,,3.03714144E2,2.2611983999999998E2,1.6548419199999998E2,2.79589312E2,1.00306512E2,2.24668016E2,2.92995008E2,6.682612E1,5.3055727999999995E1,3.16343072E2,1.50291056E2,,7.024268E1,3.5282108E1,4.5327543999999996E1,7.9484864E1,3.8536172E1,5.8962092E1,2.8406892E1,3.5077163999999996E1,8.651383E0,1.0533192999999999E1,1.1907136E1,,1,3,8,11,14,22,28,32,10,17,27,,15,15,10,12,12,13,12,13,8,4,3,,
1571735550,2019-10-22 09:12:30.926,Acquired,Acquired,Acquired,Acquired,Acquired,Acquired,Acquired,Acquired,Acquired,Acquired,Acquired,,3.03714144E2,2.2611983999999998E2,1.6548419199999998E2,2.79589312E2,1.00306512E2,2.24668016E2,2.92995008E2,6.682612E1,5.3055727999999995E1,3.16343072E2,1.50291056E2,,7.024268E1,3.5282108E1,4.5327543999999996E1,7.9484864E1,3.8536172E1,5.8962092E1,2.8406892E1,3.5077163999999996E1,8.651383E0,1.0533192999999999E1,1.1907136E1,,1,3,8,11,14,22,28,32,10,17,27,,15,15,10,12,12,13,12,13,8,4,3,,
1571735610,2019-10-22 09:13:30.926,Acquired,Acquired,Acquired,Acquired,Acquired,Acquired,Acquired,Acquired,Acquired,Acquired,Acquired,,3.03714144E2,2.2611983999999998E2,1.6548419199999998E2,2.79589312E2,1.00306512E2,2.24668016E2,2.92995008E2,6.682612E1,5.3055727999999995E1,3.16343072E2,1.50291056E2,,7.024268E1,3.5282108E1,4.5327543999999996E1,7.9484864E1,3.8536172E1,5.8962092E1,2.8406892E1,3.5077163999999996E1,8.651383E0,1.0533192999999999E1,1.1907136E1,,1,3,8,11,14,22,28,32,10,17,27,,15,15,10,12,12,13,12,13,8,4,3,,
1571735670,2019-10-22 09:14:30.926,Acquired,Acquired,Acquired,Acquired,Acquired,Acquired,Acquired,Acquired,Acquired,Acquired,Acquired,,3.03714144E2,2.2611983999999998E2,1.6548419199999998E2,2.79589312E2,1.00306512E2,2.24668016E2,2.92995008E2,6.682612E1,5.3055727999999995E1,3.16343072E2,1.50291056E2,,7.024268E1,3.5282108E1,4.5327543999999996E1,7.9484864E1,3.8536172E1,5.8962092E1,2.8406892E1,3.5077163999999996E1,8.651383E0,1.0533192999999999E1,1.1907136E1,,1,3,8,11,14,22,28,32,10,17,27,,15,15,10,12,12,13,12,13,8,4,3,,
1571735730,2019-10-22 09:15:30.926,Acquired,Acquired,Acquired,Acquired,Acquired,Acquired,Acquired,Acquired,Acquired,Acquired,Acquired,,3.03714144E2,2.2611983999999998E2,1.6548419199999998E2,2.79589312E2,1.00306512E2,2.24668016E2,2.92995008E2,6.682612E1,5.3055727999999995E1,3.16343072E2,1.50291056E2,,7.024268E1,3.5282108E1,4.5327543999999996E1,7.9484864E1,3.8536172E1,5.8962092E1,2.8406892E1,3.5077163999999996E1,8.651383E0,1.0533192999999999E1,1.1907136E1,,1,3,8,11,14,22,28,32,10,17,27,,15,15,10,12,12,13,12,13,8,4,3,,
1571735790,2019-10-22 09:16:30.926,Acquired,Acquired,Acquired,Acquired,Acquired,Acquired,Acquired,Acquired,Acquired,Acquired,Acquired,,3.03714144E2,2.2611983999999998E2,1.6548419199999998E2,2.79589312E2,1.00306512E2,2.24668016E2,2.92995008E2,6.682612E1,5.3055727999999995E1,3.16343072E2,1.50291056E2,,7.024268E1,3.5282108E1,4.5327543999999996E1,7.9484864E1,3.8536172E1,5.8962092E1,2.8406892E1,3.5077163999999996E1,8.651383E0,1.0533192999999999E1,1.1907136E1,,1,3,8,11,14,22,28,32,10,17,27,,15,15,10,12,12,13,12,13,8,4,3,,
1571735850,2019-10-22 09:17:30.926,Acquired,Acquired,Acquired,Acquired,Acquired,Acquired,Acquired,Acquired,Acquired,Acquired,Acquired,,3.03714144E2,2.2611983999999998E2,1.6548419199999998E2,2.79589312E2,1.00306512E2,2.24668016E2,2.92995008E2,6.682612E1,5.3055727999999995E1,3.16343072E2,1.50291056E2,,7.024268E1,3.5282108E1,4.5327543999999996E1,7.9484864E1,3.8536172E1,5.8962092E1,2.8406892E1,3.5077163999999996E1,8.651383E0,1.0533192999999999E1,1.1907136E1,,1,3,8,11,14,22,28,32,10,17,27,,15,15,10,12,12,13,12,13,8,4,3,,
1571735910,2019-10-22 09:18:30.926,Acquired,Acquired,Acquired,Acquired,Acquired,Acquired,Acquired,Acquired,Acquired,Acquired,Acquired,,3.03714144E2,2.2611983999999998E2,1.6548419199999998E2,2.79589312E2,1.00306512E2,2.24668016E2,2.92995008E2,6.682612E1,5.3055727999999995E1,3.16343072E2,1.50291056E2,,7.024268E1,3.5282108E1,4.5327543999999996E1,7.9484864E1,3.8536172E1,5.8962092E1,2.8406892E1,3.5077163999999996E1,8.651383E0,1.0533192999999999E1,1.1907136E1,,1,3,8,11,14,22,28,32,10,17,27,,15,15,10,12,12,13,12,13,8,4,3,,
1571735970,2019-10-22 09:19:30.926,Acquired,Acquired,Acquired,Acquired,Acquired,Acquired,Acquired,Acquired,Acquired,Acquired,Acquired,,3.03714144E2,2.2611983999999998E2,1.6548419199999998E2,2.79589312E2,1.00306512E2,2.24668016E2,2.92995008E2,6.682612E1,5.3055727999999995E1,3.16343072E2,1.50291056E2,,7.024268E1,3.5282108E1,4.5327543999999996E1,7.9484864E1,3.8536172E1,5.8962092E1,2.8406892E1,3.5077163999999996E1,8.651383E0,1.0533192999999999E1,1.1907136E1,,1,3,8,11,14,22,28,32,10,17,27,,15,15,10,12,12,13,12,13,8,4,3,,
1571736030,2019-10-22 09:20:30.926,Acquired,Acquired,Acquired,Acquired,Acquired,Acquired,Acquired,Acquired,Acquired,Acquired,Acquired,,3.03714144E2,2.2611983999999998E2,1.6548419199999998E2,2.79589312E2,1.00306512E2,2.24668016E2,2.92995008E2,6.682612E1,5.3055727999999995E1,3.16343072E2,1.50291056E2,,7.024268E1,3.5282108E1,4.5327543999999996E1,7.9484864E1,3.8536172E1,5.8962092E1,2.8406892E1,3.5077163999999996E1,8.651383E0,1.0533192999999999E1,1.1907136E1,,1,3,8,11,14,22,28,32,10,17,27,,15,15,10,12,12,13,12,13,8,4,3,,
1571736090,2019-10-22 09:21:30.926,Acquired,Acquired,Acquired,Acquired,Acquired,Acquired,Acquired,Acquired,Acquired,Acquired,Acquired,,3.03714144E2,2.2611983999999998E2,1.6548419199999998E2,2.79589312E2,1.00306512E2,2.24668016E2,2.92995008E2,6.682612E1,5.3055727999999995E1,3.16343072E2,1.50291056E2,,7.024268E1,3.5282108E1,4.5327543999999996E1,7.9484864E1,3.8536172E1,5.8962092E1,2.8406892E1,3.5077163999999996E1,8.651383E0,1.0533192999999999E1,1.1907136E1,,1,3,8,11,14,22,28,32,10,17,27,,15,15,10,12,12,13,12,13,8,4,3,,
1571736150,2019-10-22 09:22:30.926,Acquired,Acquired,Acquired,Acquired,Acquired,Acquired,Acquired,Acquired,Acquired,Acquired,Acquired,,3.03714144E2,2.2611983999999998E2,1.6548419199999998E2,2.79589312E2,1.00306512E2,2.24668016E2,2.92995008E2,6.682612E1,5.3055727999999995E1,3.16343072E2,1.50291056E2,,7.024268E1,3.5282108E1,4.5327543999999996E1,7.9484864E1,3.8536172E1,5.8962092E1,2.8406892E1,3.5077163999999996E1,8.651383E0,1.0533192999999999E1,1.1907136E1,,1,3,8,11,14,22,28,32,10,17,27,,15,15,10,12,12,13,12,13,8,4,3,,
1571736210,2019-10-22 09:23:30.959,Acquired,Acquired,Acquired,Acquired,Acquired,Acquired,Acquired,Acquired,Acquired,Acquired,Acquired,,3.03714144E2,2.2611983999999998E2,1.6548419199999998E2,2.79589312E2,1.00306512E2,2.24668016E2,2.92995008E2,6.682612E1,5.3055727999999995E1,3.16343072E2,1.50291056E2,,7.024268E1,3.5282108E1,4.5327543999999996E1,7.9484864E1,3.8536172E1,5.8962092E1,2.8406892E1,3.5077163999999996E1,8.651383E0,1.0533192999999999E1,1.1907136E1,,1,3,8,11,14,22,28,32,10,17,27,,15,15,10,12,12,13,12,13,8,4,3,,
1571736270,2019-10-22 09:24:30.926,Acquired,Acquired,Acquired,Acquired,Acquired,Acquired,Acquired,Acquired,Acquired,Acquired,Acquired,,3.03714144E2,2.2611983999999998E2,1.6548419199999998E2,2.79589312E2,1.00306512E2,2.24668016E2,2.92995008E2,6.682612E1,5.3055727999999995E1,3.16343072E2,1.50291056E2,,7.024268E1,3.5282108E1,4.5327543999999996E1,7.9484864E1,3.8536172E1,5.8962092E1,2.8406892E1,3.5077163999999996E1,8.651383E0,1.0533192999999999E1,1.1907136E1,,1,3,8,11,14,22,28,32,10,17,27,,15,15,10,12,12,13,12,13,8,4,3,,
1571736330,2019-10-22 09:25:30.926,Acquired,Acquired,Acquired,Acquired,Acquired,Acquired,Acquired,Acquired,Acquired,Acquired,Acquired,,3.03714144E2,2.2611983999999998E2,1.6548419199999998E2,2.79589312E2,1.00306512E2,2.24668016E2,2.92995008E2,6.682612E1,5.3055727999999995E1,3.16343072E2,1.50291056E2,,7.024268E1,3.5282108E1,4.5327543999999996E1,7.9484864E1,3.8536172E1,5.8962092E1,2.8406892E1,3.5077163999999996E1,8.651383E0,1.0533192999999999E1,1.1907136E1,,1,3,8,11,14,22,28,32,10,17,27,,15,15,10,12,12,13,12,13,8,4,3,,
1571736390,2019-10-22 09:26:30.926,Acquired,Acquired,Acquired,Acquired,Acquired,Acquired,Acquired,Acquired,Acquired,Acquired,Acquired,,3.03714144E2,2.2611983999999998E2,1.6548419199999998E2,2.79589312E2,1.00306512E2,2.24668016E2,2.92995008E2,6.682612E1,5.3055727999999995E1,3.16343072E2,1.50291056E2,,7.024268E1,3.5282108E1,4.5327543999999996E1,7.9484864E1,3.8536172E1,5.8962092E1,2.8406892E1,3.5077163999999996E1,8.651383E0,1.0533192999999999E1,1.1907136E1,,1,3,8,11,14,22,28,32,10,17,27,,15,15,10,12,12,13,12,13,8,4,3,,
1571736450,2019-10-22 09:27:30.926,Acquired,Acquired,Acquired,Acquired,Acquired,Acquired,Acquired,Acquired,Acquired,Acquired,Acquired,,3.03714144E2,2.2611983999999998E2,1.6548419199999998E2,2.79589312E2,1.00306512E2,2.24668016E2,2.92995008E2,6.682612E1,5.3055727999999995E1,3.16343072E2,1.50291056E2,,7.024268E1,3.5282108E1,4.5327543999999996E1,7.9484864E1,3.8536172E1,5.8962092E1,2.8406892E1,3.5077163999999996E1,8.651383E0,1.0533192999999999E1,1.1907136E1,,1,3,8,11,14,22,28,32,10,17,27,,15,15,10,12,12,13,12,13,8,4,3,,
1571736510,2019-10-22 09:28:30.956,Acquired,Acquired,Acquired,Acquired,Acquired,Acquired,Acquired,Acquired,Acquired,Acquired,Acquired,,3.03714144E2,2.2611983999999998E2,1.6548419199999998E2,2.79589312E2,1.00306512E2,2.24668016E2,2.92995008E2,6.682612E1,5.3055727999999995E1,3.16343072E2,1.50291056E2,,7.024268E1,3.5282108E1,4.5327543999999996E1,7.9484864E1,3.8536172E1,5.8962092E1,2.8406892E1,3.5077163999999996E1,8.651383E0,1.0533192999999999E1,1.1907136E1,,1,3,8,11,14,22,28,32,10,17,27,,15,15,10,12,12,13,12,13,8,4,3,,
1571736570,2019-10-22 09:29:30.926,Acquired,Acquired,Acquired,Acquired,Acquired,Acquired,Acquired,Acquired,Acquired,Acquired,Acquired,,3.03714144E2,2.2611983999999998E2,1.6548419199999998E2,2.79589312E2,1.00306512E2,2.24668016E2,2.92995008E2,6.682612E1,5.3055727999999995E1,3.16343072E2,1.50291056E2,,7.024268E1,3.5282108E1,4.5327543999999996E1,7.9484864E1,3.8536172E1,5.8962092E1,2.8406892E1,3.5077163999999996E1,8.651383E0,1.0533192999999999E1,1.1907136E1,,1,3,8,11,14,22,28,32,10,17,27,,15,15,10,12,12,13,12,13,8,4,3,,
1571736630,2019-10-22 09:30:30.926,Acquired,Acquired,Acquired,Acquired,Acquired,Acquired,Acquired,Acquired,Acquired,Acquired,Acquired,,3.0443715199999997E2,2.2634408E2,1.65522528E2,2.78328832E2,9.977243999999999E1,2.24875568E2,2.92532672E2,6.6326336E1,5.3154467999999994E1,3.16355392E2,1.50399168E2,,7.0657304E1,3.5727799999999995E1,4.4836512E1,7.991534399999999E1,3.8733288E1,5.9433955999999995E1,2.8381159999999998E1,3.4984435999999995E1,8.280602E0,1.0897507E1,1.1504743E1,,1,3,8,11,14,22,28,32,10,17,27,,15,15,10,12,11,12,11,13,10,4,3,,
1571736690,2019-10-22 09:31:30.928,Acquired,Acquired,Acquired,Acquired,Acquired,Acquired,Acquired,Acquired,Acquired,,,,3.4725648E2,2.3402113599999998E2,1.66825504E2,1.7479662399999998E2,8.2404088E1,3.15262944E2,2.32014064E2,2.7850112E2,5.2665423999999994E1,,,,8.1747736E1,4.9216823999999995E1,3.0458275999999998E1,8.1319808E1,4.2025155999999996E1,2.2344355999999998E1,7.354996E1,2.5360204E1,2.9731374E1,,,,1,3,8,11,14,17,22,28,32,,,,15,15,12,9,12,11,12,9,14,,,,
1571736750,2019-10-22 09:32:30.926,Acquired,Acquired,Acquired,Acquired,Acquired,Acquired,Acquired,Acquired,Acquired,,,,3.4725648E2,2.3402113599999998E2,1.66825504E2,1.7479662399999998E2,8.2404088E1,3.15262944E2,2.32014064E2,2.7850112E2,5.2665423999999994E1,,,,8.1747736E1,4.9216823999999995E1,3.0458275999999998E1,8.1319808E1,4.2025155999999996E1,2.2344355999999998E1,7.354996E1,2.5360204E1,2.9731374E1,,,,1,3,8,11,14,17,22,28,32,,,,15,15,12,9,12,11,12,9,14,,,,
1571736810,2019-10-22 09:33:30.926,Acquired,Acquired,Acquired,Acquired,Acquired,Acquired,Acquired,Acquired,Acquired,,,,3.4725648E2,2.3402113599999998E2,1.66825504E2,1.7479662399999998E2,8.2404088E1,3.15262944E2,2.32014064E2,2.7850112E2,5.2665423999999994E1,,,,8.1747736E1,4.9216823999999995E1,3.0458275999999998E1,8.1319808E1,4.2025155999999996E1,2.2344355999999998E1,7.354996E1,2.5360204E1,2.9731374E1,,,,1,3,8,11,14,17,22,28,32,,,,15,15,12,9,12,11,12,9,14,,,,
1571736870,2019-10-22 09:34:30.926,Acquired,Acquired,Acquired,Acquired,Acquired,Acquired,Acquired,Acquired,Acquired,,,,3.4725648E2,2.3402113599999998E2,1.66825504E2,1.7479662399999998E2,8.2404088E1,3.15262944E2,2.32014064E2,2.7850112E2,5.2665423999999994E1,,,,8.1747736E1,4.9216823999999995E1,3.0458275999999998E1,8.1319808E1,4.2025155999999996E1,2.2344355999999998E1,7.354996E1,2.5360204E1,2.9731374E1,,,,1,3,8,11,14,17,22,28,32,,,,15,15,12,9,12,11,12,9,14,,,,
1571736930,2019-10-22 09:35:30.959,Acquired,Acquired,Acquired,Acquired,Acquired,Acquired,Acquired,Acquired,Acquired,,,,3.4725648E2,2.3402113599999998E2,1.66825504E2,1.7479662399999998E2,8.2404088E1,3.15262944E2,2.32014064E2,2.7850112E2,5.2665423999999994E1,,,,8.1747736E1,4.9216823999999995E1,3.0458275999999998E1,8.1319808E1,4.2025155999999996E1,2.2344355999999998E1,7.354996E1,2.5360204E1,2.9731374E1,,,,1,3,8,11,14,17,22,28,32,,,,15,15,12,9,12,11,12,9,14,,,,
1571736990,2019-10-22 09:36:30.926,Acquired,Acquired,Acquired,Acquired,Acquired,Acquired,Acquired,Acquired,Acquired,,,,3.4725648E2,2.3402113599999998E2,1.66825504E2,1.7479662399999998E2,8.2404088E1,3.15262944E2,2.32014064E2,2.7850112E2,5.2665423999999994E1,,,,8.1747736E1,4.9216823999999995E1,3.0458275999999998E1,8.1319808E1,4.2025155999999996E1,2.2344355999999998E1,7.354996E1,2.5360204E1,2.9731374E1,,,,1,3,8,11,14,17,22,28,32,,,,15,15,12,9,12,11,12,9,14,,,,
1571737050,2019-10-22 09:37:30.926,Acquired,Acquired,Acquired,Acquired,Acquired,Acquired,Acquired,Acquired,Acquired,,,,3.4725648E2,2.3402113599999998E2,1.66825504E2,1.7479662399999998E2,8.2404088E1,3.15262944E2,2.32014064E2,2.7850112E2,5.2665423999999994E1,,,,8.1747736E1,4.9216823999999995E1,3.0458275999999998E1,8.1319808E1,4.2025155999999996E1,2.2344355999999998E1,7.354996E1,2.5360204E1,2.9731374E1,,,,1,3,8,11,14,17,22,28,32,,,,15,15,12,9,12,11,12,9,14,,,,
1571737110,2019-10-22 09:38:30.926,Acquired,Acquired,Acquired,Acquired,Acquired,Acquired,Acquired,Acquired,Acquired,,,,3.4725648E2,2.3402113599999998E2,1.66825504E2,1.7479662399999998E2,8.2404088E1,3.15262944E2,2.32014064E2,2.7850112E2,5.2665423999999994E1,,,,8.1747736E1,4.9216823999999995E1,3.0458275999999998E1,8.1319808E1,4.2025155999999996E1,2.2344355999999998E1,7.354996E1,2.5360204E1,2.9731374E1,,,,1,3,8,11,14,17,22,28,32,,,,15,15,12,9,12,11,12,9,14,,,,
1571737170,2019-10-22 09:39:30.927,Acquired,Acquired,Acquired,Acquired,Acquired,Acquired,Acquired,Acquired,Acquired,,,,3.4725648E2,2.3402113599999998E2,1.66825504E2,1.7479662399999998E2,8.2404088E1,3.15262944E2,2.32014064E2,2.7850112E2,5.2665423999999994E1,,,,8.1747736E1,4.9216823999999995E1,3.0458275999999998E1,8.1319808E1,4.2025155999999996E1,2.2344355999999998E1,7.354996E1,2.5360204E1,2.9731374E1,,,,1,3,8,11,14,17,22,28,32,,,,15,15,12,9,12,11,12,9,14,,,,
1571737230,2019-10-22 09:40:30.926,Acquired,Acquired,Acquired,Acquired,Acquired,Acquired,Acquired,Acquired,Acquired,,,,3.4725648E2,2.3402113599999998E2,1.66825504E2,1.7479662399999998E2,8.2404088E1,3.15262944E2,2.32014064E2,2.7850112E2,5.2665423999999994E1,,,,8.1747736E1,4.9216823999999995E1,3.0458275999999998E1,8.1319808E1,4.2025155999999996E1,2.2344355999999998E1,7.354996E1,2.5360204E1,2.9731374E1,,,,1,3,8,11,14,17,22,28,32,,,,15,15,12,9,12,11,12,9,14,,,,
1571737290,2019-10-22 09:41:30.926,Acquired,Acquired,Acquired,Acquired,Acquired,Acquired,Acquired,Acquired,Acquired,,,,3.4725648E2,2.3402113599999998E2,1.66825504E2,1.7479662399999998E2,8.2404088E1,3.15262944E2,2.32014064E2,2.7850112E2,5.2665423999999994E1,,,,8.1747736E1,4.9216823999999995E1,3.0458275999999998E1,8.1319808E1,4.2025155999999996E1,2.2344355999999998E1,7.354996E1,2.5360204E1,2.9731374E1,,,,1,3,8,11,14,17,22,28,32,,,,15,15,12,9,12,11,12,9,14,,,,
1571737350,2019-10-22 09:42:30.928,Acquired,Acquired,Acquired,Acquired,Acquired,Acquired,Acquired,Acquired,Acquired,,,,3.4725648E2,2.3402113599999998E2,1.66825504E2,1.7479662399999998E2,8.2404088E1,3.15262944E2,2.32014064E2,2.7850112E2,5.2665423999999994E1,,,,8.1747736E1,4.9216823999999995E1,3.0458275999999998E1,8.1319808E1,4.2025155999999996E1,2.2344355999999998E1,7.354996E1,2.5360204E1,2.9731374E1,,,,1,3,8,11,14,17,22,28,32,,,,15,15,12,9,12,11,12,9,14,,,,
1571737410,2019-10-22 09:43:30.926,Acquired,Acquired,Acquired,Acquired,Acquired,Acquired,Acquired,Acquired,Acquired,,,,3.4725648E2,2.3402113599999998E2,1.66825504E2,1.7479662399999998E2,8.2404088E1,3.15262944E2,2.32014064E2,2.7850112E2,5.2665423999999994E1,,,,8.1747736E1,4.9216823999999995E1,3.0458275999999998E1,8.1319808E1,4.2025155999999996E1,2.2344355999999998E1,7.354996E1,2.5360204E1,2.9731374E1,,,,1,3,8,11,14,17,22,28,32,,,,15,15,12,9,12,11,12,9,14,,,,
1571737470,2019-10-22 09:44:30.926,Acquired,Acquired,Acquired,Acquired,Acquired,Acquired,Acquired,Acquired,Acquired,,,,3.4725648E2,2.3402113599999998E2,1.66825504E2,1.7479662399999998E2,8.2404088E1,3.15262944E2,2.32014064E2,2.7850112E2,5.2665423999999994E1,,,,8.1747736E1,4.9216823999999995E1,3.0458275999999998E1,8.1319808E1,4.2025155999999996E1,2.2344355999999998E1,7.354996E1,2.5360204E1,2.9731374E1,,,,1,3,8,11,14,17,22,28,32,,,,15,15,12,9,12,11,12,9,14,,,,
1571737530,2019-10-22 09:45:30.926,Acquired,Acquired,Acquired,Acquired,Acquired,Acquired,Acquired,Acquired,Acquired,,,,3.4725648E2,2.3402113599999998E2,1.66825504E2,1.7479662399999998E2,8.2404088E1,3.15262944E2,2.32014064E2,2.7850112E2,5.2665423999999994E1,,,,8.1747736E1,4.9216823999999995E1,3.0458275999999998E1,8.1319808E1,4.2025155999999996E1,2.2344355999999998E1,7.354996E1,2.5360204E1,2.9731374E1,,,,1,3,8,11,14,17,22,28,32,,,,15,15,12,9,12,11,12,9,14,,,,
1571737590,2019-10-22 09:46:30.964,Acquired,Acquired,Acquired,Acquired,Acquired,Acquired,Acquired,Acquired,Acquired,,,,3.4725648E2,2.3402113599999998E2,1.66825504E2,1.7479662399999998E2,8.2404088E1,3.15262944E2,2.32014064E2,2.7850112E2,5.2665423999999994E1,,,,8.1747736E1,4.9216823999999995E1,3.0458275999999998E1,8.1319808E1,4.2025155999999996E1,2.2344355999999998E1,7.354996E1,2.5360204E1,2.9731374E1,,,,1,3,8,11,14,17,22,28,32,,,,15,15,12,9,12,11,12,9,14,,,,
1571737650,2019-10-22 09:47:30.926,Acquired,Acquired,Acquired,Acquired,Acquired,Acquired,Acquired,Acquired,Acquired,,,,3.4725648E2,2.3402113599999998E2,1.66825504E2,1.7479662399999998E2,8.2404088E1,3.15262944E2,2.32014064E2,2.7850112E2,5.2665423999999994E1,,,,8.1747736E1,4.9216823999999995E1,3.0458275999999998E1,8.1319808E1,4.2025155999999996E1,2.2344355999999998E1,7.354996E1,2.5360204E1,2.9731374E1,,,,1,3,8,11,14,17,22,28,32,,,,15,15,12,9,12,11,12,9,14,,,,
1571737710,2019-10-22 09:48:30.926,Acquired,Acquired,Acquired,Acquired,Acquired,Acquired,Acquired,Acquired,Acquired,,,,3.4725648E2,2.3402113599999998E2,1.66825504E2,1.7479662399999998E2,8.2404088E1,3.15262944E2,2.32014064E2,2.7850112E2,5.2665423999999994E1,,,,8.1747736E1,4.9216823999999995E1,3.0458275999999998E1,8.1319808E1,4.2025155999999996E1,2.2344355999999998E1,7.354996E1,2.5360204E1,2.9731374E1,,,,1,3,8,11,14,17,22,28,32,,,,15,15,12,9,12,11,12,9,14,,,,
1571737770,2019-10-22 09:49:30.926,Acquired,Acquired,Acquired,Acquired,Acquired,Acquired,Acquired,Acquired,Acquired,,,,3.4725648E2,2.3402113599999998E2,1.66825504E2,1.7479662399999998E2,8.2404088E1,3.15262944E2,2.32014064E2,2.7850112E2,5.2665423999999994E1,,,,8.1747736E1,4.9216823999999995E1,3.0458275999999998E1,8.1319808E1,4.2025155999999996E1,2.2344355999999998E1,7.354996E1,2.5360204E1,2.9731374E1,,,,1,3,8,11,14,17,22,28,32,,,,15,15,12,9,12,11,12,9,14,,,,
1571737830,2019-10-22 09:50:30.926,Acquired,Acquired,Acquired,Acquired,Acquired,Acquired,Acquired,Acquired,Acquired,,,,3.4725648E2,2.3402113599999998E2,1.66825504E2,1.7479662399999998E2,8.2404088E1,3.15262944E2,2.32014064E2,2.7850112E2,5.2665423999999994E1,,,,8.1747736E1,4.9216823999999995E1,3.0458275999999998E1,8.1319808E1,4.2025155999999996E1,2.2344355999999998E1,7.354996E1,2.5360204E1,2.9731374E1,,,,1,3,8,11,14,17,22,28,32,,,,15,15,12,9,12,11,12,9,14,,,,
1571737890,2019-10-22 09:51:30.926,Acquired,Acquired,Acquired,Acquired,Acquired,Acquired,Acquired,Acquired,Acquired,,,,3.4725648E2,2.3402113599999998E2,1.66825504E2,1.7479662399999998E2,8.2404088E1,3.15262944E2,2.32014064E2,2.7850112E2,5.2665423999999994E1,,,,8.1747736E1,4.9216823999999995E1,3.0458275999999998E1,8.1319808E1,4.2025155999999996E1,2.2344355999999998E1,7.354996E1,2.5360204E1,2.9731374E1,,,,1,3,8,11,14,17,22,28,32,,,,15,15,12,9,12,11,12,9,14,,,,
1571737950,2019-10-22 09:52:30.926,Acquired,Acquired,Acquired,Acquired,Acquired,Acquired,Acquired,Acquired,Acquired,,,,3.4725648E2,2.3402113599999998E2,1.66825504E2,1.7479662399999998E2,8.2404088E1,3.15262944E2,2.32014064E2,2.7850112E2,5.2665423999999994E1,,,,8.1747736E1,4.9216823999999995E1,3.0458275999999998E1,8.1319808E1,4.2025155999999996E1,2.2344355999999998E1,7.354996E1,2.5360204E1,2.9731374E1,,,,1,3,8,11,14,17,22,28,32,,,,15,15,12,9,12,11,12,9,14,,,,
1571738010,2019-10-22 09:53:30.926,Acquired,Acquired,Acquired,Acquired,Acquired,Acquired,Acquired,Acquired,Acquired,,,,3.4725648E2,2.3402113599999998E2,1.66825504E2,1.7479662399999998E2,8.2404088E1,3.15262944E2,2.32014064E2,2.7850112E2,5.2665423999999994E1,,,,8.1747736E1,4.9216823999999995E1,3.0458275999999998E1,8.1319808E1,4.2025155999999996E1,2.2344355999999998E1,7.354996E1,2.5360204E1,2.9731374E1,,,,1,3,8,11,14,17,22,28,32,,,,15,15,12,9,12,11,12,9,14,,,,
1571738070,2019-10-22 09:54:30.926,Acquired,Acquired,Acquired,Acquired,Acquired,Acquired,Acquired,Acquired,Acquired,,,,3.4725648E2,2.3402113599999998E2,1.66825504E2,1.7479662399999998E2,8.2404088E1,3.15262944E2,2.32014064E2,2.7850112E2,5.2665423999999994E1,,,,8.1747736E1,4.9216823999999995E1,3.0458275999999998E1,8.1319808E1,4.2025155999999996E1,2.2344355999999998E1,7.354996E1,2.5360204E1,2.9731374E1,,,,1,3,8,11,14,17,22,28,32,,,,15,15,12,9,12,11,12,9,14,,,,
1571738130,2019-10-22 09:55:30.926,Acquired,Acquired,Acquired,Acquired,Acquired,Acquired,Acquired,Acquired,Acquired,,,,3.4725648E2,2.3402113599999998E2,1.66825504E2,1.7479662399999998E2,8.2404088E1,3.15262944E2,2.32014064E2,2.7850112E2,5.2665423999999994E1,,,,8.1747736E1,4.9216823999999995E1,3.0458275999999998E1,8.1319808E1,4.2025155999999996E1,2.2344355999999998E1,7.354996E1,2.5360204E1,2.9731374E1,,,,1,3,8,11,14,17,22,28,32,,,,15,15,12,9,12,11,12,9,14,,,,
1571738190,2019-10-22 09:56:30.926,Acquired,Acquired,Acquired,Acquired,Acquired,Acquired,Acquired,Acquired,Acquired,,,,3.4725648E2,2.3402113599999998E2,1.66825504E2,1.7479662399999998E2,8.2404088E1,3.15262944E2,2.32014064E2,2.7850112E2,5.2665423999999994E1,,,,8.1747736E1,4.9216823999999995E1,3.0458275999999998E1,8.1319808E1,4.2025155999999996E1,2.2344355999999998E1,7.354996E1,2.5360204E1,2.9731374E1,,,,1,3,8,11,14,17,22,28,32,,,,15,15,12,9,12,11,12,9,14,,,,
1571738250,2019-10-22 09:57:30.926,Acquired,Acquired,Acquired,Acquired,Acquired,Acquired,Acquired,Acquired,Acquired,,,,3.4725648E2,2.3402113599999998E2,1.66825504E2,1.7479662399999998E2,8.2404088E1,3.15262944E2,2.32014064E2,2.7850112E2,5.2665423999999994E1,,,,8.1747736E1,4.9216823999999995E1,3.0458275999999998E1,8.1319808E1,4.2025155999999996E1,2.2344355999999998E1,7.354996E1,2.5360204E1,2.9731374E1,,,,1,3,8,11,14,17,22,28,32,,,,15,15,12,9,12,11,12,9,14,,,,
1571738310,2019-10-22 09:58:30.929,Acquired,Acquired,Acquired,Acquired,Acquired,Acquired,Acquired,Acquired,Acquired,,,,3.4725648E2,2.3402113599999998E2,1.66825504E2,1.7479662399999998E2,8.2404088E1,3.15262944E2,2.32014064E2,2.7850112E2,5.2665423999999994E1,,,,8.1747736E1,4.9216823999999995E1,3.0458275999999998E1,8.1319808E1,4.2025155999999996E1,2.2344355999999998E1,7.354996E1,2.5360204E1,2.9731374E1,,,,1,3,8,11,14,17,22,28,32,,,,15,15,12,9,12,11,12,9,14,,,,
1571738370,2019-10-22 09:59:30.926,Acquired,Acquired,Acquired,Acquired,Acquired,Acquired,Acquired,Acquired,Acquired,,,,3.4725648E2,2.3402113599999998E2,1.66825504E2,1.7479662399999998E2,8.2404088E1,3.15262944E2,2.32014064E2,2.7850112E2,5.2665423999999994E1,,,,8.1747736E1,4.9216823999999995E1,3.0458275999999998E1,8.1319808E1,4.2025155999999996E1,2.2344355999999998E1,7.354996E1,2.5360204E1,2.9731374E1,,,,1,3,8,11,14,17,22,28,32,,,,15,15,12,9,12,11,12,9,14,,,,
