Time(longsecs),Time(UTC),GPS Satellite Acquisition Flag 1,GPS Satellite Acquisition Flag 2,GPS Satellite Acquisition Flag 3,GPS Satellite Acquisition Flag 4,GPS Satellite Acquisition Flag 5,GPS Satellite Acquisition Flag 6,GPS Satellite Acquisition Flag 7,GPS Satellite Acquisition Flag 8,GPS Satellite Acquisition Flag 9,GPS Satellite Acquisition Flag 10,GPS Satellite Acquisition Flag 11,GPS Satellite Acquisition Flag 12,GPS Satellite Azimuth 1(Degrees),GPS Satellite Azimuth 2(Degrees),GPS Satellite Azimuth 3(Degrees),GPS Satellite Azimuth 4(Degrees),GPS Satellite Azimuth 5(Degrees),GPS Satellite Azimuth 6(Degrees),GPS Satellite Azimuth 7(Degrees),GPS Satellite Azimuth 8(Degrees),GPS Satellite Azimuth 9(Degrees),GPS Satellite Azimuth 10(Degrees),GPS Satellite Azimuth 11(Degrees),GPS Satellite Azimuth 12(Degrees),GPS Satellite Elevation 1(Degrees),GPS Satellite Elevation 2(Degrees),GPS Satellite Elevation 3(Degrees),GPS Satellite Elevation 4(Degrees),GPS Satellite Elevation 5(Degrees),GPS Satellite Elevation 6(Degrees),GPS Satellite Elevation 7(Degrees),GPS Satellite Elevation 8(Degrees),GPS Satellite Elevation 9(Degrees),GPS Satellite Elevation 10(Degrees),GPS Satellite Elevation 11(Degrees),GPS Satellite Elevation 12(Degrees),GPS Satellite PRN 1,GPS Satellite PRN 2,GPS Satellite PRN 3,GPS Satellite PRN 4,GPS Satellite PRN 5,GPS Satellite PRN 6,GPS Satellite PRN 7,GPS Satellite PRN 8,GPS Satellite PRN 9,GPS Satellite PRN 10,GPS Satellite PRN 11,GPS Satellite PRN 12,GPS Satellite Signal Level 1(AMU),GPS Satellite Signal Level 2(AMU),GPS Satellite Signal Level 3(AMU),GPS Satellite Signal Level 4(AMU),GPS Satellite Signal Level 5(AMU),GPS Satellite Signal Level 6(AMU),GPS Satellite Signal Level 7(AMU),GPS Satellite Signal Level 8(AMU),GPS Satellite Signal Level 9(AMU),GPS Satellite Signal Level 10(AMU),GPS Satellite Signal Level 11(AMU),GPS Satellite Signal Level 12(AMU),
1571756430,2019-10-22 15:00:30.926,Acquired,Acquired,Acquired,Acquired,Acquired,Acquired,Acquired,Acquired,,Acquired,,,2.78560384E2,2.9834137599999997E2,2.07775424E2,1.49704256E2,6.2729831999999995E1,6.8196128E1,1.82928224E2,4.7470735999999995E1,,3.3404166399999997E2,,,4.6690988E1,1.9548244E1,4.5514596E1,5.4572652E1,6.2234676E1,3.0437289999999997E1,2.8738922E1,1.1550455999999999E1,,7.442079E0,,,2,5,6,7,9,23,30,16,,29,,,11,13,12,15,15,13,13,4,,9,,,
1571756490,2019-10-22 15:01:30.926,Acquired,Acquired,Acquired,Acquired,Acquired,Acquired,Acquired,Acquired,,Acquired,,,2.78560384E2,2.9834137599999997E2,2.07775424E2,1.49704256E2,6.2729831999999995E1,6.8196128E1,1.82928224E2,4.7470735999999995E1,,3.3404166399999997E2,,,4.6690988E1,1.9548244E1,4.5514596E1,5.4572652E1,6.2234676E1,3.0437289999999997E1,2.8738922E1,1.1550455999999999E1,,7.442079E0,,,2,5,6,7,9,23,30,16,,29,,,11,13,12,15,15,13,13,4,,9,,,
1571756550,2019-10-22 15:02:30.926,Acquired,Acquired,Acquired,Acquired,Acquired,Acquired,Acquired,Acquired,,Acquired,,,2.78560384E2,2.9834137599999997E2,2.07775424E2,1.49704256E2,6.2729831999999995E1,6.8196128E1,1.82928224E2,4.7470735999999995E1,,3.3404166399999997E2,,,4.6690988E1,1.9548244E1,4.5514596E1,5.4572652E1,6.2234676E1,3.0437289999999997E1,2.8738922E1,1.1550455999999999E1,,7.442079E0,,,2,5,6,7,9,23,30,16,,29,,,11,13,12,15,15,13,13,4,,9,,,
1571756610,2019-10-22 15:03:30.926,Acquired,Acquired,Acquired,Acquired,Acquired,Acquired,Acquired,Acquired,,Acquired,,,2.78560384E2,2.9834137599999997E2,2.07775424E2,1.49704256E2,6.2729831999999995E1,6.8196128E1,1.82928224E2,4.7470735999999995E1,,3.3404166399999997E2,,,4.6690988E1,1.9548244E1,4.5514596E1,5.4572652E1,6.2234676E1,3.0437289999999997E1,2.8738922E1,1.1550455999999999E1,,7.442079E0,,,2,5,6,7,9,23,30,16,,29,,,11,13,12,15,15,13,13,4,,9,,,
1571756670,2019-10-22 15:04:30.926,Acquired,Acquired,Acquired,Acquired,Acquired,Acquired,Acquired,Acquired,,Acquired,,,2.78560384E2,2.9834137599999997E2,2.07775424E2,1.49704256E2,6.2729831999999995E1,6.8196128E1,1.82928224E2,4.7470735999999995E1,,3.3404166399999997E2,,,4.6690988E1,1.9548244E1,4.5514596E1,5.4572652E1,6.2234676E1,3.0437289999999997E1,2.8738922E1,1.1550455999999999E1,,7.442079E0,,,2,5,6,7,9,23,30,16,,29,,,11,13,12,15,15,13,13,4,,9,,,
1571756730,2019-10-22 15:05:30.926,Acquired,Acquired,Acquired,Acquired,Acquired,Acquired,Acquired,Acquired,,Acquired,,,2.78560384E2,2.9834137599999997E2,2.07775424E2,1.49704256E2,6.2729831999999995E1,6.8196128E1,1.82928224E2,4.7470735999999995E1,,3.3404166399999997E2,,,4.6690988E1,1.9548244E1,4.5514596E1,5.4572652E1,6.2234676E1,3.0437289999999997E1,2.8738922E1,1.1550455999999999E1,,7.442079E0,,,2,5,6,7,9,23,30,16,,29,,,11,13,12,15,15,13,13,4,,9,,,
1571756790,2019-10-22 15:06:30.926,Acquired,Acquired,Acquired,Acquired,Acquired,Acquired,Acquired,Acquired,,Acquired,,,2.78560384E2,2.9834137599999997E2,2.07775424E2,1.49704256E2,6.2729831999999995E1,6.8196128E1,1.82928224E2,4.7470735999999995E1,,3.3404166399999997E2,,,4.6690988E1,1.9548244E1,4.5514596E1,5.4572652E1,6.2234676E1,3.0437289999999997E1,2.8738922E1,1.1550455999999999E1,,7.442079E0,,,2,5,6,7,9,23,30,16,,29,,,11,13,12,15,15,13,13,4,,9,,,
1571756850,2019-10-22 15:07:30.927,Acquired,Acquired,Acquired,Acquired,Acquired,Acquired,Acquired,Acquired,,Acquired,,,2.78560384E2,2.9834137599999997E2,2.07775424E2,1.49704256E2,6.2729831999999995E1,6.8196128E1,1.82928224E2,4.7470735999999995E1,,3.3404166399999997E2,,,4.6690988E1,1.9548244E1,4.5514596E1,5.4572652E1,6.2234676E1,3.0437289999999997E1,2.8738922E1,1.1550455999999999E1,,7.442079E0,,,2,5,6,7,9,23,30,16,,29,,,11,13,12,15,15,13,13,4,,9,,,
1571756910,2019-10-22 15:08:30.926,Acquired,Acquired,Acquired,Acquired,Acquired,Acquired,Acquired,Acquired,,Acquired,,,2.78560384E2,2.9834137599999997E2,2.07775424E2,1.49704256E2,6.2729831999999995E1,6.8196128E1,1.82928224E2,4.7470735999999995E1,,3.3404166399999997E2,,,4.6690988E1,1.9548244E1,4.5514596E1,5.4572652E1,6.2234676E1,3.0437289999999997E1,2.8738922E1,1.1550455999999999E1,,7.442079E0,,,2,5,6,7,9,23,30,16,,29,,,11,13,12,15,15,13,13,4,,9,,,
1571756970,2019-10-22 15:09:30.926,Acquired,Acquired,Acquired,Acquired,Acquired,Acquired,Acquired,Acquired,,Acquired,,,2.78560384E2,2.9834137599999997E2,2.07775424E2,1.49704256E2,6.2729831999999995E1,6.8196128E1,1.82928224E2,4.7470735999999995E1,,3.3404166399999997E2,,,4.6690988E1,1.9548244E1,4.5514596E1,5.4572652E1,6.2234676E1,3.0437289999999997E1,2.8738922E1,1.1550455999999999E1,,7.442079E0,,,2,5,6,7,9,23,30,16,,29,,,11,13,12,15,15,13,13,4,,9,,,
1571757030,2019-10-22 15:10:30.926,Acquired,Acquired,Acquired,Acquired,Acquired,Acquired,Acquired,Acquired,,Acquired,,,2.78560384E2,2.9834137599999997E2,2.07775424E2,1.49704256E2,6.2729831999999995E1,6.8196128E1,1.82928224E2,4.7470735999999995E1,,3.3404166399999997E2,,,4.6690988E1,1.9548244E1,4.5514596E1,5.4572652E1,6.2234676E1,3.0437289999999997E1,2.8738922E1,1.1550455999999999E1,,7.442079E0,,,2,5,6,7,9,23,30,16,,29,,,11,13,12,15,15,13,13,4,,9,,,
1571757090,2019-10-22 15:11:30.926,Acquired,Acquired,Acquired,Acquired,Acquired,Acquired,Acquired,Acquired,,Acquired,,,2.78560384E2,2.9834137599999997E2,2.07775424E2,1.49704256E2,6.2729831999999995E1,6.8196128E1,1.82928224E2,4.7470735999999995E1,,3.3404166399999997E2,,,4.6690988E1,1.9548244E1,4.5514596E1,5.4572652E1,6.2234676E1,3.0437289999999997E1,2.8738922E1,1.1550455999999999E1,,7.442079E0,,,2,5,6,7,9,23,30,16,,29,,,11,13,12,15,15,13,13,4,,9,,,
1571757150,2019-10-22 15:12:30.926,Acquired,Acquired,Acquired,Acquired,Acquired,Acquired,Acquired,Acquired,,Acquired,,,2.78560384E2,2.9834137599999997E2,2.07775424E2,1.49704256E2,6.2729831999999995E1,6.8196128E1,1.82928224E2,4.7470735999999995E1,,3.3404166399999997E2,,,4.6690988E1,1.9548244E1,4.5514596E1,5.4572652E1,6.2234676E1,3.0437289999999997E1,2.8738922E1,1.1550455999999999E1,,7.442079E0,,,2,5,6,7,9,23,30,16,,29,,,11,13,12,15,15,13,13,4,,9,,,
1571757210,2019-10-22 15:13:30.941,Acquired,Acquired,Acquired,Acquired,Acquired,Acquired,Acquired,Acquired,,Acquired,,,2.78560384E2,2.9834137599999997E2,2.07775424E2,1.49704256E2,6.2729831999999995E1,6.8196128E1,1.82928224E2,4.7470735999999995E1,,3.3404166399999997E2,,,4.6690988E1,1.9548244E1,4.5514596E1,5.4572652E1,6.2234676E1,3.0437289999999997E1,2.8738922E1,1.1550455999999999E1,,7.442079E0,,,2,5,6,7,9,23,30,16,,29,,,11,13,12,15,15,13,13,4,,9,,,
1571757270,2019-10-22 15:14:30.926,Acquired,Acquired,Acquired,Acquired,Acquired,Acquired,Acquired,Acquired,,Acquired,,,2.78560384E2,2.9834137599999997E2,2.07775424E2,1.49704256E2,6.2729831999999995E1,6.8196128E1,1.82928224E2,4.7470735999999995E1,,3.3404166399999997E2,,,4.6690988E1,1.9548244E1,4.5514596E1,5.4572652E1,6.2234676E1,3.0437289999999997E1,2.8738922E1,1.1550455999999999E1,,7.442079E0,,,2,5,6,7,9,23,30,16,,29,,,11,13,12,15,15,13,13,4,,9,,,
1571757330,2019-10-22 15:15:30.926,Acquired,Acquired,Acquired,Acquired,Acquired,Acquired,Acquired,Acquired,,Acquired,,,2.78560384E2,2.9834137599999997E2,2.07775424E2,1.49704256E2,6.2729831999999995E1,6.8196128E1,1.82928224E2,4.7470735999999995E1,,3.3404166399999997E2,,,4.6690988E1,1.9548244E1,4.5514596E1,5.4572652E1,6.2234676E1,3.0437289999999997E1,2.8738922E1,1.1550455999999999E1,,7.442079E0,,,2,5,6,7,9,23,30,16,,29,,,11,13,12,15,15,13,13,4,,9,,,
1571757390,2019-10-22 15:16:30.926,Acquired,Acquired,Acquired,Acquired,Acquired,Acquired,Acquired,Acquired,,Acquired,,,2.78560384E2,2.9834137599999997E2,2.07775424E2,1.49704256E2,6.2729831999999995E1,6.8196128E1,1.82928224E2,4.7470735999999995E1,,3.3404166399999997E2,,,4.6690988E1,1.9548244E1,4.5514596E1,5.4572652E1,6.2234676E1,3.0437289999999997E1,2.8738922E1,1.1550455999999999E1,,7.442079E0,,,2,5,6,7,9,23,30,16,,29,,,11,13,12,15,15,13,13,4,,9,,,
1571757450,2019-10-22 15:17:30.926,Acquired,Acquired,Acquired,Acquired,Acquired,Acquired,Acquired,Acquired,,Acquired,,,2.78560384E2,2.9834137599999997E2,2.07775424E2,1.49704256E2,6.2729831999999995E1,6.8196128E1,1.82928224E2,4.7470735999999995E1,,3.3404166399999997E2,,,4.6690988E1,1.9548244E1,4.5514596E1,5.4572652E1,6.2234676E1,3.0437289999999997E1,2.8738922E1,1.1550455999999999E1,,7.442079E0,,,2,5,6,7,9,23,30,16,,29,,,11,13,12,15,15,13,13,4,,9,,,
1571757510,2019-10-22 15:18:30.926,Acquired,Acquired,Acquired,Acquired,Acquired,Acquired,Acquired,Acquired,,Acquired,,,2.78560384E2,2.9834137599999997E2,2.07775424E2,1.49704256E2,6.2729831999999995E1,6.8196128E1,1.82928224E2,4.7470735999999995E1,,3.3404166399999997E2,,,4.6690988E1,1.9548244E1,4.5514596E1,5.4572652E1,6.2234676E1,3.0437289999999997E1,2.8738922E1,1.1550455999999999E1,,7.442079E0,,,2,5,6,7,9,23,30,16,,29,,,11,13,12,15,15,13,13,4,,9,,,
1571757570,2019-10-22 15:19:30.926,Acquired,Acquired,Acquired,Acquired,Acquired,Acquired,Acquired,Acquired,,Acquired,,,2.78560384E2,2.9834137599999997E2,2.07775424E2,1.49704256E2,6.2729831999999995E1,6.8196128E1,1.82928224E2,4.7470735999999995E1,,3.3404166399999997E2,,,4.6690988E1,1.9548244E1,4.5514596E1,5.4572652E1,6.2234676E1,3.0437289999999997E1,2.8738922E1,1.1550455999999999E1,,7.442079E0,,,2,5,6,7,9,23,30,16,,29,,,11,13,12,15,15,13,13,4,,9,,,
1571757630,2019-10-22 15:20:30.926,Acquired,Acquired,Acquired,Acquired,Acquired,Acquired,Acquired,Acquired,,Acquired,,,2.7790495999999996E2,2.98477536E2,2.0745983999999999E2,1.49231888E2,6.2916231999999994E1,6.837092799999999E1,1.8288836799999999E2,4.7040496E1,,3.33650304E2,,,4.6730855999999996E1,1.9950599999999998E1,4.5060427999999995E1,5.4980548E1,6.1779703999999995E1,3.0037945999999998E1,2.920913E1,1.1601892E1,,7.516274999999999E0,,,2,5,6,7,9,23,30,16,,29,,,10,12,12,15,15,14,12,4,,7,,,
1571757690,2019-10-22 15:21:30.926,Acquired,Acquired,Acquired,Acquired,Acquired,Acquired,Acquired,Acquired,,Acquired,,,2.7790495999999996E2,2.98477536E2,2.0745983999999999E2,1.49231888E2,6.2916231999999994E1,6.837092799999999E1,1.8288836799999999E2,4.7040496E1,,3.33650304E2,,,4.6730855999999996E1,1.9950599999999998E1,4.5060427999999995E1,5.4980548E1,6.1779703999999995E1,3.0037945999999998E1,2.920913E1,1.1601892E1,,7.516274999999999E0,,,2,5,6,7,9,23,30,16,,29,,,10,12,12,15,15,14,12,4,,7,,,
1571757750,2019-10-22 15:22:30.926,Acquired,Acquired,Acquired,Acquired,Acquired,Acquired,Acquired,Acquired,,Acquired,,,2.7790495999999996E2,2.98477536E2,2.0745983999999999E2,1.49231888E2,6.2916231999999994E1,6.837092799999999E1,1.8288836799999999E2,4.7040496E1,,3.33650304E2,,,4.6730855999999996E1,1.9950599999999998E1,4.5060427999999995E1,5.4980548E1,6.1779703999999995E1,3.0037945999999998E1,2.920913E1,1.1601892E1,,7.516274999999999E0,,,2,5,6,7,9,23,30,16,,29,,,10,12,12,15,15,14,12,4,,7,,,
1571757810,2019-10-22 15:23:30.926,Acquired,Acquired,Acquired,Acquired,Acquired,Acquired,Acquired,Acquired,,Acquired,,,2.7790495999999996E2,2.98477536E2,2.0745983999999999E2,1.49231888E2,6.2916231999999994E1,6.837092799999999E1,1.8288836799999999E2,4.7040496E1,,3.33650304E2,,,4.6730855999999996E1,1.9950599999999998E1,4.5060427999999995E1,5.4980548E1,6.1779703999999995E1,3.0037945999999998E1,2.920913E1,1.1601892E1,,7.516274999999999E0,,,2,5,6,7,9,23,30,16,,29,,,10,12,12,15,15,14,12,4,,7,,,
1571757870,2019-10-22 15:24:30.928,Acquired,Acquired,Acquired,Acquired,Acquired,Acquired,Acquired,Acquired,,Acquired,,,2.7790495999999996E2,2.98477536E2,2.0745983999999999E2,1.49231888E2,6.2916231999999994E1,6.837092799999999E1,1.8288836799999999E2,4.7040496E1,,3.33650304E2,,,4.6730855999999996E1,1.9950599999999998E1,4.5060427999999995E1,5.4980548E1,6.1779703999999995E1,3.0037945999999998E1,2.920913E1,1.1601892E1,,7.516274999999999E0,,,2,5,6,7,9,23,30,16,,29,,,10,12,12,15,15,14,12,4,,7,,,
1571757930,2019-10-22 15:25:30.928,Acquired,Acquired,Acquired,Acquired,Acquired,Acquired,Acquired,Acquired,,Acquired,,,2.7790495999999996E2,2.98477536E2,2.0745983999999999E2,1.49231888E2,6.2916231999999994E1,6.837092799999999E1,1.8288836799999999E2,4.7040496E1,,3.33650304E2,,,4.6730855999999996E1,1.9950599999999998E1,4.5060427999999995E1,5.4980548E1,6.1779703999999995E1,3.0037945999999998E1,2.920913E1,1.1601892E1,,7.516274999999999E0,,,2,5,6,7,9,23,30,16,,29,,,10,12,12,15,15,14,12,4,,7,,,
1571757990,2019-10-22 15:26:30.926,Acquired,Acquired,Acquired,Acquired,Acquired,Acquired,Acquired,Acquired,,Acquired,,,2.7790495999999996E2,2.98477536E2,2.0745983999999999E2,1.49231888E2,6.2916231999999994E1,6.837092799999999E1,1.8288836799999999E2,4.7040496E1,,3.33650304E2,,,4.6730855999999996E1,1.9950599999999998E1,4.5060427999999995E1,5.4980548E1,6.1779703999999995E1,3.0037945999999998E1,2.920913E1,1.1601892E1,,7.516274999999999E0,,,2,5,6,7,9,23,30,16,,29,,,10,12,12,15,15,14,12,4,,7,,,
1571758050,2019-10-22 15:27:30.926,Acquired,Acquired,Acquired,Acquired,Acquired,Acquired,Acquired,Acquired,,Acquired,,,2.7790495999999996E2,2.98477536E2,2.0745983999999999E2,1.49231888E2,6.2916231999999994E1,6.837092799999999E1,1.8288836799999999E2,4.7040496E1,,3.33650304E2,,,4.6730855999999996E1,1.9950599999999998E1,4.5060427999999995E1,5.4980548E1,6.1779703999999995E1,3.0037945999999998E1,2.920913E1,1.1601892E1,,7.516274999999999E0,,,2,5,6,7,9,23,30,16,,29,,,10,12,12,15,15,14,12,4,,7,,,
1571758110,2019-10-22 15:28:30.926,Acquired,Acquired,Acquired,Acquired,Acquired,Acquired,Acquired,Acquired,,Acquired,,,2.7790495999999996E2,2.98477536E2,2.0745983999999999E2,1.49231888E2,6.2916231999999994E1,6.837092799999999E1,1.8288836799999999E2,4.7040496E1,,3.33650304E2,,,4.6730855999999996E1,1.9950599999999998E1,4.5060427999999995E1,5.4980548E1,6.1779703999999995E1,3.0037945999999998E1,2.920913E1,1.1601892E1,,7.516274999999999E0,,,2,5,6,7,9,23,30,16,,29,,,10,12,12,15,15,14,12,4,,7,,,
1571758170,2019-10-22 15:29:30.926,Acquired,Acquired,Acquired,Acquired,Acquired,Acquired,Acquired,Acquired,,Acquired,,,2.7790495999999996E2,2.98477536E2,2.0745983999999999E2,1.49231888E2,6.2916231999999994E1,6.837092799999999E1,1.8288836799999999E2,4.7040496E1,,3.33650304E2,,,4.6730855999999996E1,1.9950599999999998E1,4.5060427999999995E1,5.4980548E1,6.1779703999999995E1,3.0037945999999998E1,2.920913E1,1.1601892E1,,7.516274999999999E0,,,2,5,6,7,9,23,30,16,,29,,,10,12,12,15,15,14,12,4,,7,,,
1571758230,2019-10-22 15:30:30.926,Acquired,Acquired,Acquired,Acquired,Acquired,Acquired,Acquired,Acquired,,Acquired,,,2.7790495999999996E2,2.98477536E2,2.0745983999999999E2,1.49231888E2,6.2916231999999994E1,6.837092799999999E1,1.8288836799999999E2,4.7040496E1,,3.33650304E2,,,4.6730855999999996E1,1.9950599999999998E1,4.5060427999999995E1,5.4980548E1,6.1779703999999995E1,3.0037945999999998E1,2.920913E1,1.1601892E1,,7.516274999999999E0,,,2,5,6,7,9,23,30,16,,29,,,10,12,12,15,15,14,12,4,,7,,,
1571758290,2019-10-22 15:31:30.926,Acquired,Acquired,Acquired,Acquired,Acquired,Acquired,Acquired,Acquired,,Acquired,,,2.7790495999999996E2,2.98477536E2,2.0745983999999999E2,1.49231888E2,6.2916231999999994E1,6.837092799999999E1,1.8288836799999999E2,4.7040496E1,,3.33650304E2,,,4.6730855999999996E1,1.9950599999999998E1,4.5060427999999995E1,5.4980548E1,6.1779703999999995E1,3.0037945999999998E1,2.920913E1,1.1601892E1,,7.516274999999999E0,,,2,5,6,7,9,23,30,16,,29,,,10,12,12,15,15,14,12,4,,7,,,
1571758350,2019-10-22 15:32:30.926,Acquired,Acquired,Acquired,Acquired,Acquired,Acquired,Acquired,Acquired,,Acquired,,,2.7790495999999996E2,2.98477536E2,2.0745983999999999E2,1.49231888E2,6.2916231999999994E1,6.837092799999999E1,1.8288836799999999E2,4.7040496E1,,3.33650304E2,,,4.6730855999999996E1,1.9950599999999998E1,4.5060427999999995E1,5.4980548E1,6.1779703999999995E1,3.0037945999999998E1,2.920913E1,1.1601892E1,,7.516274999999999E0,,,2,5,6,7,9,23,30,16,,29,,,10,12,12,15,15,14,12,4,,7,,,
1571758410,2019-10-22 15:33:30.927,Acquired,Acquired,Acquired,Acquired,Acquired,Acquired,Acquired,Acquired,,Acquired,,,2.7790495999999996E2,2.98477536E2,2.0745983999999999E2,1.49231888E2,6.2916231999999994E1,6.837092799999999E1,1.8288836799999999E2,4.7040496E1,,3.33650304E2,,,4.6730855999999996E1,1.9950599999999998E1,4.5060427999999995E1,5.4980548E1,6.1779703999999995E1,3.0037945999999998E1,2.920913E1,1.1601892E1,,7.516274999999999E0,,,2,5,6,7,9,23,30,16,,29,,,10,12,12,15,15,14,12,4,,7,,,
1571758470,2019-10-22 15:34:30.926,Acquired,Acquired,Acquired,Acquired,Acquired,Acquired,Acquired,Acquired,,Acquired,,,2.7790495999999996E2,2.98477536E2,2.0745983999999999E2,1.49231888E2,6.2916231999999994E1,6.837092799999999E1,1.8288836799999999E2,4.7040496E1,,3.33650304E2,,,4.6730855999999996E1,1.9950599999999998E1,4.5060427999999995E1,5.4980548E1,6.1779703999999995E1,3.0037945999999998E1,2.920913E1,1.1601892E1,,7.516274999999999E0,,,2,5,6,7,9,23,30,16,,29,,,10,12,12,15,15,14,12,4,,7,,,
1571758530,2019-10-22 15:35:30.926,Acquired,Acquired,Acquired,Acquired,Acquired,Acquired,Acquired,Acquired,,Acquired,,,2.7790495999999996E2,2.98477536E2,2.0745983999999999E2,1.49231888E2,6.2916231999999994E1,6.837092799999999E1,1.8288836799999999E2,4.7040496E1,,3.33650304E2,,,4.6730855999999996E1,1.9950599999999998E1,4.5060427999999995E1,5.4980548E1,6.1779703999999995E1,3.0037945999999998E1,2.920913E1,1.1601892E1,,7.516274999999999E0,,,2,5,6,7,9,23,30,16,,29,,,10,12,12,15,15,14,12,4,,7,,,
1571758590,2019-10-22 15:36:30.926,Acquired,Acquired,Acquired,Acquired,Acquired,Acquired,Acquired,Acquired,,Acquired,,,2.7790495999999996E2,2.98477536E2,2.0745983999999999E2,1.49231888E2,6.2916231999999994E1,6.837092799999999E1,1.8288836799999999E2,4.7040496E1,,3.33650304E2,,,4.6730855999999996E1,1.9950599999999998E1,4.5060427999999995E1,5.4980548E1,6.1779703999999995E1,3.0037945999999998E1,2.920913E1,1.1601892E1,,7.516274999999999E0,,,2,5,6,7,9,23,30,16,,29,,,10,12,12,15,15,14,12,4,,7,,,
1571758650,2019-10-22 15:37:30.926,Acquired,Acquired,Acquired,Acquired,Acquired,Acquired,Acquired,Acquired,,Acquired,,,2.7790495999999996E2,2.98477536E2,2.0745983999999999E2,1.49231888E2,6.2916231999999994E1,6.837092799999999E1,1.8288836799999999E2,4.7040496E1,,3.33650304E2,,,4.6730855999999996E1,1.9950599999999998E1,4.5060427999999995E1,5.4980548E1,6.1779703999999995E1,3.0037945999999998E1,2.920913E1,1.1601892E1,,7.516274999999999E0,,,2,5,6,7,9,23,30,16,,29,,,10,12,12,15,15,14,12,4,,7,,,
1571758710,2019-10-22 15:38:30.926,Acquired,Acquired,Acquired,Acquired,Acquired,Acquired,Acquired,Acquired,,Acquired,,,2.7790495999999996E2,2.98477536E2,2.0745983999999999E2,1.49231888E2,6.2916231999999994E1,6.837092799999999E1,1.8288836799999999E2,4.7040496E1,,3.33650304E2,,,4.6730855999999996E1,1.9950599999999998E1,4.5060427999999995E1,5.4980548E1,6.1779703999999995E1,3.0037945999999998E1,2.920913E1,1.1601892E1,,7.516274999999999E0,,,2,5,6,7,9,23,30,16,,29,,,10,12,12,15,15,14,12,4,,7,,,
1571758770,2019-10-22 15:39:30.926,Acquired,Acquired,Acquired,Acquired,Acquired,Acquired,Acquired,Acquired,,Acquired,,,2.7790495999999996E2,2.98477536E2,2.0745983999999999E2,1.49231888E2,6.2916231999999994E1,6.837092799999999E1,1.8288836799999999E2,4.7040496E1,,3.33650304E2,,,4.6730855999999996E1,1.9950599999999998E1,4.5060427999999995E1,5.4980548E1,6.1779703999999995E1,3.0037945999999998E1,2.920913E1,1.1601892E1,,7.516274999999999E0,,,2,5,6,7,9,23,30,16,,29,,,10,12,12,15,15,14,12,4,,7,,,
1571758830,2019-10-22 15:40:30.926,Acquired,Acquired,Acquired,Acquired,Acquired,Acquired,Acquired,Acquired,,Acquired,,,2.7790495999999996E2,2.98477536E2,2.0745983999999999E2,1.49231888E2,6.2916231999999994E1,6.837092799999999E1,1.8288836799999999E2,4.7040496E1,,3.33650304E2,,,4.6730855999999996E1,1.9950599999999998E1,4.5060427999999995E1,5.4980548E1,6.1779703999999995E1,3.0037945999999998E1,2.920913E1,1.1601892E1,,7.516274999999999E0,,,2,5,6,7,9,23,30,16,,29,,,10,12,12,15,15,14,12,4,,7,,,
1571758890,2019-10-22 15:41:30.926,Acquired,Acquired,Acquired,Acquired,Acquired,Acquired,Acquired,Acquired,,Acquired,,,2.7790495999999996E2,2.98477536E2,2.0745983999999999E2,1.49231888E2,6.2916231999999994E1,6.837092799999999E1,1.8288836799999999E2,4.7040496E1,,3.33650304E2,,,4.6730855999999996E1,1.9950599999999998E1,4.5060427999999995E1,5.4980548E1,6.1779703999999995E1,3.0037945999999998E1,2.920913E1,1.1601892E1,,7.516274999999999E0,,,2,5,6,7,9,23,30,16,,29,,,10,12,12,15,15,14,12,4,,7,,,
1571758950,2019-10-22 15:42:30.926,Acquired,Acquired,Acquired,Acquired,Acquired,Acquired,Acquired,Acquired,,Acquired,,,2.7790495999999996E2,2.98477536E2,2.0745983999999999E2,1.49231888E2,6.2916231999999994E1,6.837092799999999E1,1.8288836799999999E2,4.7040496E1,,3.33650304E2,,,4.6730855999999996E1,1.9950599999999998E1,4.5060427999999995E1,5.4980548E1,6.1779703999999995E1,3.0037945999999998E1,2.920913E1,1.1601892E1,,7.516274999999999E0,,,2,5,6,7,9,23,30,16,,29,,,10,12,12,15,15,14,12,4,,7,,,
1571759010,2019-10-22 15:43:30.926,Acquired,Acquired,Acquired,Acquired,Acquired,Acquired,Acquired,Acquired,,Acquired,,,2.7790495999999996E2,2.98477536E2,2.0745983999999999E2,1.49231888E2,6.2916231999999994E1,6.837092799999999E1,1.8288836799999999E2,4.7040496E1,,3.33650304E2,,,4.6730855999999996E1,1.9950599999999998E1,4.5060427999999995E1,5.4980548E1,6.1779703999999995E1,3.0037945999999998E1,2.920913E1,1.1601892E1,,7.516274999999999E0,,,2,5,6,7,9,23,30,16,,29,,,10,12,12,15,15,14,12,4,,7,,,
1571759070,2019-10-22 15:44:30.926,Acquired,Acquired,Acquired,Acquired,Acquired,Acquired,Acquired,Acquired,,Acquired,,,2.7790495999999996E2,2.98477536E2,2.0745983999999999E2,1.49231888E2,6.2916231999999994E1,6.837092799999999E1,1.8288836799999999E2,4.7040496E1,,3.33650304E2,,,4.6730855999999996E1,1.9950599999999998E1,4.5060427999999995E1,5.4980548E1,6.1779703999999995E1,3.0037945999999998E1,2.920913E1,1.1601892E1,,7.516274999999999E0,,,2,5,6,7,9,23,30,16,,29,,,10,12,12,15,15,14,12,4,,7,,,
1571759130,2019-10-22 15:45:30.926,Acquired,Acquired,Acquired,Acquired,Acquired,Acquired,Acquired,Acquired,,Acquired,,,2.7790495999999996E2,2.98477536E2,2.0745983999999999E2,1.49231888E2,6.2916231999999994E1,6.837092799999999E1,1.8288836799999999E2,4.7040496E1,,3.33650304E2,,,4.6730855999999996E1,1.9950599999999998E1,4.5060427999999995E1,5.4980548E1,6.1779703999999995E1,3.0037945999999998E1,2.920913E1,1.1601892E1,,7.516274999999999E0,,,2,5,6,7,9,23,30,16,,29,,,10,12,12,15,15,14,12,4,,7,,,
1571759190,2019-10-22 15:46:30.926,Acquired,Acquired,Acquired,Acquired,Acquired,Acquired,Acquired,Acquired,,Acquired,,,2.7790495999999996E2,2.98477536E2,2.0745983999999999E2,1.49231888E2,6.2916231999999994E1,6.837092799999999E1,1.8288836799999999E2,4.7040496E1,,3.33650304E2,,,4.6730855999999996E1,1.9950599999999998E1,4.5060427999999995E1,5.4980548E1,6.1779703999999995E1,3.0037945999999998E1,2.920913E1,1.1601892E1,,7.516274999999999E0,,,2,5,6,7,9,23,30,16,,29,,,10,12,12,15,15,14,12,4,,7,,,
1571759250,2019-10-22 15:47:30.926,Acquired,Acquired,Acquired,Acquired,Acquired,Acquired,Acquired,Acquired,,Acquired,,,2.7790495999999996E2,2.98477536E2,2.0745983999999999E2,1.49231888E2,6.2916231999999994E1,6.837092799999999E1,1.8288836799999999E2,4.7040496E1,,3.33650304E2,,,4.6730855999999996E1,1.9950599999999998E1,4.5060427999999995E1,5.4980548E1,6.1779703999999995E1,3.0037945999999998E1,2.920913E1,1.1601892E1,,7.516274999999999E0,,,2,5,6,7,9,23,30,16,,29,,,10,12,12,15,15,14,12,4,,7,,,
1571759310,2019-10-22 15:48:30.926,Acquired,Acquired,Acquired,Acquired,Acquired,Acquired,Acquired,Acquired,,Acquired,,,2.7790495999999996E2,2.98477536E2,2.0745983999999999E2,1.49231888E2,6.2916231999999994E1,6.837092799999999E1,1.8288836799999999E2,4.7040496E1,,3.33650304E2,,,4.6730855999999996E1,1.9950599999999998E1,4.5060427999999995E1,5.4980548E1,6.1779703999999995E1,3.0037945999999998E1,2.920913E1,1.1601892E1,,7.516274999999999E0,,,2,5,6,7,9,23,30,16,,29,,,10,12,12,15,15,14,12,4,,7,,,
1571759370,2019-10-22 15:49:30.926,Acquired,Acquired,Acquired,Acquired,Acquired,Acquired,Acquired,Acquired,,Acquired,,,2.7790495999999996E2,2.98477536E2,2.0745983999999999E2,1.49231888E2,6.2916231999999994E1,6.837092799999999E1,1.8288836799999999E2,4.7040496E1,,3.33650304E2,,,4.6730855999999996E1,1.9950599999999998E1,4.5060427999999995E1,5.4980548E1,6.1779703999999995E1,3.0037945999999998E1,2.920913E1,1.1601892E1,,7.516274999999999E0,,,2,5,6,7,9,23,30,16,,29,,,10,12,12,15,15,14,12,4,,7,,,
1571759430,2019-10-22 15:50:30.926,Acquired,Acquired,Acquired,Acquired,Acquired,Acquired,Acquired,Acquired,,Acquired,,,2.7790495999999996E2,2.98477536E2,2.0745983999999999E2,1.49231888E2,6.2916231999999994E1,6.837092799999999E1,1.8288836799999999E2,4.7040496E1,,3.33650304E2,,,4.6730855999999996E1,1.9950599999999998E1,4.5060427999999995E1,5.4980548E1,6.1779703999999995E1,3.0037945999999998E1,2.920913E1,1.1601892E1,,7.516274999999999E0,,,2,5,6,7,9,23,30,16,,29,,,10,12,12,15,15,14,12,4,,7,,,
1571759490,2019-10-22 15:51:30.964,Acquired,Acquired,Acquired,Acquired,Acquired,Acquired,Acquired,Acquired,,Acquired,,,2.7790495999999996E2,2.98477536E2,2.0745983999999999E2,1.49231888E2,6.2916231999999994E1,6.837092799999999E1,1.8288836799999999E2,4.7040496E1,,3.33650304E2,,,4.6730855999999996E1,1.9950599999999998E1,4.5060427999999995E1,5.4980548E1,6.1779703999999995E1,3.0037945999999998E1,2.920913E1,1.1601892E1,,7.516274999999999E0,,,2,5,6,7,9,23,30,16,,29,,,10,12,12,15,15,14,12,4,,7,,,
1571759550,2019-10-22 15:52:30.926,Acquired,Acquired,Acquired,Acquired,Acquired,Acquired,Acquired,Acquired,,Acquired,,,2.7790495999999996E2,2.98477536E2,2.0745983999999999E2,1.49231888E2,6.2916231999999994E1,6.837092799999999E1,1.8288836799999999E2,4.7040496E1,,3.33650304E2,,,4.6730855999999996E1,1.9950599999999998E1,4.5060427999999995E1,5.4980548E1,6.1779703999999995E1,3.0037945999999998E1,2.920913E1,1.1601892E1,,7.516274999999999E0,,,2,5,6,7,9,23,30,16,,29,,,10,12,12,15,15,14,12,4,,7,,,
1571759610,2019-10-22 15:53:30.926,Acquired,Acquired,Acquired,Acquired,Acquired,Acquired,Acquired,Acquired,,Acquired,,,2.7790495999999996E2,2.98477536E2,2.0745983999999999E2,1.49231888E2,6.2916231999999994E1,6.837092799999999E1,1.8288836799999999E2,4.7040496E1,,3.33650304E2,,,4.6730855999999996E1,1.9950599999999998E1,4.5060427999999995E1,5.4980548E1,6.1779703999999995E1,3.0037945999999998E1,2.920913E1,1.1601892E1,,7.516274999999999E0,,,2,5,6,7,9,23,30,16,,29,,,10,12,12,15,15,14,12,4,,7,,,
1571759670,2019-10-22 15:54:30.926,Acquired,Acquired,Acquired,Acquired,Acquired,Acquired,Acquired,Acquired,,Acquired,,,2.7790495999999996E2,2.98477536E2,2.0745983999999999E2,1.49231888E2,6.2916231999999994E1,6.837092799999999E1,1.8288836799999999E2,4.7040496E1,,3.33650304E2,,,4.6730855999999996E1,1.9950599999999998E1,4.5060427999999995E1,5.4980548E1,6.1779703999999995E1,3.0037945999999998E1,2.920913E1,1.1601892E1,,7.516274999999999E0,,,2,5,6,7,9,23,30,16,,29,,,10,12,12,15,15,14,12,4,,7,,,
1571759730,2019-10-22 15:55:30.926,Acquired,Acquired,Acquired,Acquired,Acquired,Acquired,Acquired,Acquired,,Acquired,,,2.7790495999999996E2,2.98477536E2,2.0745983999999999E2,1.49231888E2,6.2916231999999994E1,6.837092799999999E1,1.8288836799999999E2,4.7040496E1,,3.33650304E2,,,4.6730855999999996E1,1.9950599999999998E1,4.5060427999999995E1,5.4980548E1,6.1779703999999995E1,3.0037945999999998E1,2.920913E1,1.1601892E1,,7.516274999999999E0,,,2,5,6,7,9,23,30,16,,29,,,10,12,12,15,15,14,12,4,,7,,,
1571759790,2019-10-22 15:56:30.926,Acquired,Acquired,Acquired,Acquired,Acquired,Acquired,Acquired,Acquired,,Acquired,,,2.7790495999999996E2,2.98477536E2,2.0745983999999999E2,1.49231888E2,6.2916231999999994E1,6.837092799999999E1,1.8288836799999999E2,4.7040496E1,,3.33650304E2,,,4.6730855999999996E1,1.9950599999999998E1,4.5060427999999995E1,5.4980548E1,6.1779703999999995E1,3.0037945999999998E1,2.920913E1,1.1601892E1,,7.516274999999999E0,,,2,5,6,7,9,23,30,16,,29,,,10,12,12,15,15,14,12,4,,7,,,
1571759850,2019-10-22 15:57:30.926,Acquired,Acquired,Acquired,Acquired,Acquired,Acquired,Acquired,Acquired,,Acquired,,,2.7790495999999996E2,2.98477536E2,2.0745983999999999E2,1.49231888E2,6.2916231999999994E1,6.837092799999999E1,1.8288836799999999E2,4.7040496E1,,3.33650304E2,,,4.6730855999999996E1,1.9950599999999998E1,4.5060427999999995E1,5.4980548E1,6.1779703999999995E1,3.0037945999999998E1,2.920913E1,1.1601892E1,,7.516274999999999E0,,,2,5,6,7,9,23,30,16,,29,,,10,12,12,15,15,14,12,4,,7,,,
1571759910,2019-10-22 15:58:30.928,Acquired,Acquired,Acquired,Acquired,Acquired,Acquired,Acquired,Acquired,,Acquired,,,2.7790495999999996E2,2.98477536E2,2.0745983999999999E2,1.49231888E2,6.2916231999999994E1,6.837092799999999E1,1.8288836799999999E2,4.7040496E1,,3.33650304E2,,,4.6730855999999996E1,1.9950599999999998E1,4.5060427999999995E1,5.4980548E1,6.1779703999999995E1,3.0037945999999998E1,2.920913E1,1.1601892E1,,7.516274999999999E0,,,2,5,6,7,9,23,30,16,,29,,,10,12,12,15,15,14,12,4,,7,,,
1571759970,2019-10-22 15:59:30.926,Acquired,Acquired,Acquired,Acquired,Acquired,Acquired,Acquired,Acquired,,Acquired,,,2.7790495999999996E2,2.98477536E2,2.0745983999999999E2,1.49231888E2,6.2916231999999994E1,6.837092799999999E1,1.8288836799999999E2,4.7040496E1,,3.33650304E2,,,4.6730855999999996E1,1.9950599999999998E1,4.5060427999999995E1,5.4980548E1,6.1779703999999995E1,3.0037945999999998E1,2.920913E1,1.1601892E1,,7.516274999999999E0,,,2,5,6,7,9,23,30,16,,29,,,10,12,12,15,15,14,12,4,,7,,,
