Time(longsecs),Time(UTC),External SOH Voltage 1(V),External SOH Voltage 2(V),External SOH Voltage 3(V),External SOH Voltage 4(V),Sensor SOH Voltage 1(V),Sensor SOH Voltage 2(V),Sensor SOH Voltage 3(V),
1571770830,2019-10-22 19:00:30.928,-6.6046715E-3,-5.687237E-3,2.9826164E-3,-4.0888786E-3,4.5349312E-1,4.530611E-1,4.5226002E-1,
1571770890,2019-10-22 19:01:30.926,-5.1789284E-3,-3.9789677E-3,4.4476986E-3,-2.383709E-3,4.6154404E-1,4.595251E-1,4.5860958E-1,
1571770950,2019-10-22 19:02:30.926,-3.9424896E-3,-2.9304028E-3,4.9300194E-3,-1.0998249E-3,4.6251774E-1,4.6163654E-1,4.6096134E-1,
1571771010,2019-10-22 19:03:30.926,-6.6440105E-3,-5.788088E-3,2.5212765E-3,-4.0183067E-3,4.4889164E-1,4.5335865E-1,4.5516872E-1,
1571771070,2019-10-22 19:04:30.926,-4.8971176E-3,-4.045725E-3,4.601717E-3,-2.2525787E-3,4.5964527E-1,4.589224E-1,4.5938587E-1,
1571771130,2019-10-22 19:05:30.926,-1.9235611E-3,-1.4312267E-3,7.0519447E-3,5.8317184E-4,4.6744537E-1,4.6733475E-1,4.6470928E-1,
1571771190,2019-10-22 19:06:30.926,-3.5591125E-3,-2.9137135E-3,4.987955E-3,-1.168251E-3,4.7114277E-1,4.6597958E-1,4.6064568E-1,
1571771250,2019-10-22 19:07:30.926,-2.1028519E-3,-1.832962E-3,6.932497E-3,6.489754E-4,4.6998692E-1,4.710369E-1,4.7221565E-1,
1571771310,2019-10-22 19:08:30.926,-2.5146008E-3,-1.3482571E-3,6.616354E-3,4.6157837E-4,4.6818733E-1,4.66527E-1,4.6414948E-1,
1571771370,2019-10-22 19:09:30.928,-3.6280155E-3,-3.1659603E-3,5.0005913E-3,-1.3868809E-3,4.6348763E-1,4.622631E-1,4.5989704E-1,
1571771430,2019-10-22 19:10:30.926,-6.230116E-3,-5.6591034E-3,2.8071404E-3,-3.530264E-3,4.5742512E-1,4.5467186E-1,4.5347786E-1,
1571771490,2019-10-22 19:11:30.928,-5.0816536E-3,-4.2989254E-3,4.252672E-3,-1.9648075E-3,4.628458E-1,4.620247E-1,4.591961E-1,
1571771550,2019-10-22 19:12:30.926,-4.281521E-3,-3.5045147E-3,4.8263073E-3,-2.0623207E-3,4.6209812E-1,4.60886E-1,4.5898914E-1,
1571771610,2019-10-22 19:13:30.926,-4.511118E-3,-4.0819645E-3,4.2231083E-3,-2.2382736E-3,4.591818E-1,4.6239662E-1,4.6513557E-1,
1571771670,2019-10-22 19:14:30.964,-2.1641254E-3,-1.5501976E-3,6.9224834E-3,2.9802322E-4,4.6797085E-1,4.6636486E-1,4.655037E-1,
1571771730,2019-10-22 19:15:30.926,-4.4608116E-3,-3.7577152E-3,4.532814E-3,-2.0179749E-3,4.551611E-1,4.5946693E-1,4.571066E-1,
1571771790,2019-10-22 19:16:30.926,-2.370119E-3,-1.6179085E-3,7.01046E-3,1.5258789E-4,4.675169E-1,4.6608734E-1,4.645338E-1,
1571771850,2019-10-22 19:17:30.959,-4.3234825E-3,-3.3957958E-3,4.5137405E-3,-1.7483234E-3,4.6968365E-1,4.5928383E-1,4.566412E-1,
1571771910,2019-10-22 19:18:30.926,-6.9549084E-3,-5.755186E-3,2.863884E-3,-4.0738583E-3,4.573059E-1,4.5711708E-1,4.5538425E-1,
1571771970,2019-10-22 19:19:30.926,-7.016182E-3,-5.6188107E-3,2.8574467E-3,-4.116535E-3,4.5333862E-1,4.5310497E-1,4.519348E-1,
1571772030,2019-10-22 19:20:30.926,-6.619215E-3,-4.9307346E-3,2.8598309E-3,-3.5521984E-3,4.5575523E-1,4.5107174E-1,4.47793E-1,
1571772090,2019-10-22 19:21:30.934,-2.1531582E-3,-1.4438629E-3,6.5016747E-3,7.2956085E-4,4.6948433E-1,4.6590614E-1,4.6423817E-1,
1571772150,2019-10-22 19:22:30.926,-3.891468E-3,-3.196001E-3,4.6339035E-3,-1.3687611E-3,4.6433163E-1,4.6225548E-1,4.583149E-1,
1571772210,2019-10-22 19:23:30.926,-4.5399666E-3,-3.3593178E-3,5.1703453E-3,-1.9068718E-3,4.6219063E-1,4.6037865E-1,4.5845318E-1,
1571772270,2019-10-22 19:24:30.927,-2.093792E-3,-9.520054E-4,7.3251724E-3,7.324219E-4,4.6994781E-1,4.6880245E-1,4.6424866E-1,
1571772330,2019-10-22 19:25:30.927,-4.1041374E-3,-3.282547E-3,5.0315857E-3,-1.4941692E-3,4.6190834E-1,4.5884514E-1,4.5765972E-1,
1571772390,2019-10-22 19:26:30.927,-6.812334E-3,-5.6414604E-3,2.6814938E-3,-3.7858486E-3,4.536047E-1,4.5619488E-1,4.5516872E-1,
1571772450,2019-10-22 19:27:30.926,-6.547451E-3,-6.0515404E-3,2.619505E-3,-3.541708E-3,4.5636368E-1,4.535122E-1,4.5152092E-1,
1571772510,2019-10-22 19:28:30.926,-4.469633E-3,-4.598379E-3,4.5309067E-3,-1.8644333E-3,4.6844006E-1,4.612713E-1,4.566002E-1,
1571772570,2019-10-22 19:29:30.927,-3.8785934E-3,-2.9764175E-3,4.8508644E-3,-1.2226105E-3,4.6334934E-1,4.6886063E-1,4.6561718E-1,
1571772630,2019-10-22 19:30:30.926,-4.962206E-3,-3.5648346E-3,4.7667027E-3,-2.443552E-3,4.6119404E-1,4.612217E-1,4.6014214E-1,
1571772690,2019-10-22 19:31:30.926,-6.5579414E-3,-5.563259E-3,2.5866032E-3,-3.841877E-3,4.551096E-1,4.53763E-1,4.5083714E-1,
1571772750,2019-10-22 19:32:30.926,-4.2996407E-3,-3.34692E-3,5.0046444E-3,-1.4195442E-3,4.620247E-1,4.60927E-1,4.5938015E-1,
1571772810,2019-10-22 19:33:30.926,-4.3118E-3,-3.660202E-3,5.032778E-3,-1.7373562E-3,4.6266365E-1,4.6220398E-1,4.6167755E-1,
1571772870,2019-10-22 19:34:30.928,-6.3660145E-3,-6.0458183E-3,2.7077198E-3,-3.951311E-3,4.5706272E-1,4.5416832E-1,4.5174026E-1,
1571772930,2019-10-22 19:35:30.927,-6.823778E-3,-5.549431E-3,2.860546E-3,-3.5283566E-3,4.5643806E-1,4.539194E-1,4.526806E-1,
1571772990,2019-10-22 19:36:30.927,-6.7694187E-3,-5.6021214E-3,2.4974346E-3,-3.7744045E-3,4.553976E-1,4.543848E-1,4.5369434E-1,
1571773050,2019-10-22 19:37:30.929,-6.823778E-3,-5.2707195E-3,2.9904842E-3,-3.8058758E-3,4.4862843E-1,4.546709E-1,4.5200253E-1,
1571773110,2019-10-22 19:38:30.958,-5.014658E-3,-4.1487217E-3,4.1003227E-3,-2.067566E-3,4.6322632E-1,4.6169853E-1,4.602728E-1,
1571773170,2019-10-22 19:39:30.926,-2.2382736E-3,-1.7809868E-3,6.586075E-3,5.5003166E-4,4.717617E-1,4.67021E-1,4.6517467E-1,
1571773230,2019-10-22 19:40:30.926,-6.508827E-3,-5.7771206E-3,2.7782917E-3,-4.1754246E-3,4.5702744E-1,4.580679E-1,4.5712566E-1,
1571773290,2019-10-22 19:41:30.928,-4.1692257E-3,-3.0779839E-3,5.5224895E-3,-1.5146732E-3,4.602728E-1,4.6329975E-1,4.6135616E-1,
1571773350,2019-10-22 19:42:30.926,-4.4925213E-3,-4.1041374E-3,4.7295094E-3,-1.4407635E-3,4.6280575E-1,4.540491E-1,4.5255852E-1,
1571773410,2019-10-22 19:43:30.926,-6.6888332E-3,-5.2592754E-3,2.5398731E-3,-3.7744045E-3,4.548092E-1,4.571905E-1,4.53681E-1,
1571773470,2019-10-22 19:44:30.926,-4.51684E-3,-3.5703182E-3,4.354477E-3,-2.0895004E-3,4.6089458E-1,4.6368027E-1,4.602642E-1,
1571773530,2019-10-22 19:45:30.955,-6.503105E-3,-5.761385E-3,2.623558E-3,-4.157543E-3,4.5508862E-1,4.5386124E-1,4.520254E-1,
1571773590,2019-10-22 19:46:30.926,-4.831791E-3,-3.781557E-3,4.3604374E-3,-2.2745132E-3,4.6155357E-1,4.5999908E-1,4.573984E-1,
1571773650,2019-10-22 19:47:30.928,-2.302885E-3,-1.2803078E-3,6.859064E-3,2.9921532E-4,4.6659184E-1,4.6827984E-1,4.6684933E-1,
1571773710,2019-10-22 19:48:30.926,-6.7801476E-3,-5.859375E-3,3.0047894E-3,-4.263401E-3,4.505453E-1,4.5444298E-1,4.525385E-1,
1571773770,2019-10-22 19:49:30.927,-4.7717094E-3,-3.898859E-3,4.687071E-3,-2.13027E-3,4.615984E-1,4.6192646E-1,4.5990658E-1,
1571773830,2019-10-22 19:50:30.926,-4.971981E-3,-3.8518906E-3,4.5046806E-3,-2.316475E-3,4.6506596E-1,4.573307E-1,4.5615482E-1,
1571773890,2019-10-22 19:51:30.926,-2.2308826E-3,-1.7740726E-3,6.7293644E-3,2.193451E-4,4.6542645E-1,4.7396374E-1,4.7183037E-1,
1571773950,2019-10-22 19:52:30.926,-4.5604706E-3,-3.7164688E-3,4.4584274E-3,-1.9965172E-3,4.5902824E-1,4.612894E-1,4.5794296E-1,
1571774010,2019-10-22 19:53:30.926,-2.0952225E-3,-1.4417171E-3,6.8473816E-3,4.4465065E-4,4.6784592E-1,4.6544647E-1,4.6293068E-1,
1571774070,2019-10-22 19:54:30.926,-3.876686E-3,-3.2172203E-3,4.8611164E-3,-1.3623238E-3,4.6367645E-1,4.609909E-1,4.6039295E-1,
1571774130,2019-10-22 19:55:30.926,-4.453182E-3,-3.4525394E-3,5.3601265E-3,-1.4705658E-3,4.6166992E-1,4.6274376E-1,4.6161747E-1,
1571774190,2019-10-22 19:56:30.926,-4.9345493E-3,-3.3724308E-3,4.6875477E-3,-1.778841E-3,4.6375656E-1,4.6023846E-1,4.586811E-1,
1571774250,2019-10-22 19:57:30.928,-4.280567E-3,-3.6871433E-3,5.0137043E-3,-2.3212433E-3,4.6446323E-1,4.6422958E-1,4.6277618E-1,
1571774310,2019-10-22 19:58:30.926,-2.150774E-3,-1.6245842E-3,6.886244E-3,-4.7683716E-7,4.692831E-1,4.6868038E-1,4.6661568E-1,
1571774370,2019-10-22 19:59:30.955,-1.9114017E-3,-1.4576912E-3,7.3542595E-3,6.8950653E-4,4.7040558E-1,4.709034E-1,4.6879482E-1,
