Time(longsecs),Time(UTC),Supply Voltage(mV),Temperature(&deg;C),NMX Bus Current(mA),Sensor Current(mA),Serial Port Current(mA),Controller Current(mA),Digitizer Current(mA),
1571785230,2019-10-22 23:00:30.926,16332,1.9599426E1,0,10,0,57,34,
1571785290,2019-10-22 23:01:30.926,16278,1.963794E1,0,13,0,59,36,
1571785350,2019-10-22 23:02:30.926,16319,1.9601593E1,0,10,0,60,37,
1571785410,2019-10-22 23:03:30.926,16319,1.9560944E1,0,9,0,63,36,
1571785470,2019-10-22 23:04:30.926,16319,1.9633636E1,0,3,0,50,35,
1571785530,2019-10-22 23:05:30.926,16319,1.9617615E1,0,9,0,57,42,
1571785590,2019-10-22 23:06:30.926,16319,1.9518188E1,0,9,0,60,36,
1571785650,2019-10-22 23:07:30.926,16305,1.9547058E1,0,4,0,58,35,
1571785710,2019-10-22 23:08:30.926,16332,1.952246E1,0,8,0,59,39,
1571785770,2019-10-22 23:09:30.928,16319,1.9497894E1,0,10,0,50,38,
1571785830,2019-10-22 23:10:30.926,16292,1.9640076E1,0,9,0,57,37,
1571785890,2019-10-22 23:11:30.926,16319,1.9464752E1,0,6,0,59,35,
1571785950,2019-10-22 23:12:30.928,16305,1.9759796E1,0,9,0,59,38,
1571786010,2019-10-22 23:13:30.926,16332,1.9472229E1,0,10,0,50,37,
1571786070,2019-10-22 23:14:30.926,16319,1.9819672E1,0,8,0,50,37,
1571786130,2019-10-22 23:15:30.926,16319,1.9565247E1,15,8,0,59,38,
1571786190,2019-10-22 23:16:30.926,16319,1.961441E1,0,11,0,59,39,
1571786250,2019-10-22 23:17:30.926,16292,1.9652893E1,0,9,0,59,39,
1571786310,2019-10-22 23:18:30.926,16319,1.9478638E1,0,13,0,51,35,
1571786370,2019-10-22 23:19:30.926,16305,1.9324707E1,0,11,0,60,34,
1571786430,2019-10-22 23:20:30.926,16319,1.9702057E1,0,9,11,59,37,
1571786490,2019-10-22 23:21:30.926,16305,1.9571655E1,0,9,0,59,38,
1571786550,2019-10-22 23:22:30.926,16319,1.950003E1,0,9,0,58,34,
1571786610,2019-10-22 23:23:30.926,16305,1.9490387E1,0,6,0,51,41,
1571786670,2019-10-22 23:24:30.926,16305,1.9519257E1,4,13,0,50,38,
1571786730,2019-10-22 23:25:30.926,16278,1.9795074E1,0,12,0,87,39,
1571786790,2019-10-22 23:26:30.932,16252,1.9524597E1,0,8,0,86,35,
1571786850,2019-10-22 23:27:30.926,16305,1.9573792E1,0,6,0,68,37,
1571786910,2019-10-22 23:28:30.926,16305,1.959729E1,0,5,0,63,36,
1571786970,2019-10-22 23:29:30.926,16319,1.9737335E1,32,2,0,50,37,
1571787030,2019-10-22 23:30:30.926,16319,1.9483978E1,0,7,0,56,37,
1571787090,2019-10-22 23:31:30.926,16332,1.921457E1,0,15,0,59,36,
1571787150,2019-10-22 23:32:30.926,16305,1.932254E1,0,8,0,59,33,
1571787210,2019-10-22 23:33:30.938,16319,1.9599426E1,0,10,0,50,35,
1571787270,2019-10-22 23:34:30.926,16305,1.9700989E1,0,8,0,50,36,
1571787330,2019-10-22 23:35:30.926,16292,1.9533173E1,0,9,0,65,35,
1571787390,2019-10-22 23:36:30.926,16332,1.9537445E1,0,6,0,59,38,
1571787450,2019-10-22 23:37:30.926,16278,1.9345001E1,0,10,0,90,37,
1571787510,2019-10-22 23:38:30.926,16278,1.9773712E1,0,10,0,70,41,
1571787570,2019-10-22 23:39:30.926,16305,1.9599426E1,0,7,0,50,35,
1571787630,2019-10-22 23:40:30.928,16292,1.9434814E1,0,8,0,59,38,
1571787690,2019-10-22 23:41:30.926,16305,1.9532104E1,0,10,0,59,36,
1571787750,2019-10-22 23:42:30.926,16305,1.952353E1,27,6,0,58,35,
1571787810,2019-10-22 23:43:30.926,16305,1.942517E1,0,16,0,59,36,
1571787870,2019-10-22 23:44:30.926,16305,1.9565247E1,0,7,0,50,37,
1571787930,2019-10-22 23:45:30.926,16292,1.9588745E1,0,15,0,58,39,
1571787990,2019-10-22 23:46:30.926,16292,1.9383484E1,0,12,0,66,39,
1571788050,2019-10-22 23:47:30.926,16305,1.9497894E1,0,11,0,59,35,
1571788110,2019-10-22 23:48:30.926,16305,1.9539581E1,0,7,0,50,37,
1571788170,2019-10-22 23:49:30.926,16305,1.9496826E1,0,13,0,50,38,
1571788230,2019-10-22 23:50:30.926,16292,1.9653961E1,0,11,0,59,37,
1571788290,2019-10-22 23:51:30.926,16278,1.9395264E1,0,6,0,87,41,
1571788350,2019-10-22 23:52:30.926,16292,1.9478638E1,0,16,0,58,40,
1571788410,2019-10-22 23:53:30.926,16292,1.9659302E1,0,11,0,70,36,
1571788470,2019-10-22 23:54:30.926,16305,1.9605865E1,0,9,0,59,34,
1571788530,2019-10-22 23:55:30.926,16278,1.9589813E1,0,11,0,64,35,
1571788590,2019-10-22 23:56:30.926,16305,1.9633636E1,0,4,0,58,37,
1571788650,2019-10-22 23:57:30.926,16292,1.9575928E1,8,8,0,57,40,
1571788710,2019-10-22 23:58:30.926,16305,1.9325775E1,0,14,0,50,37,
1571788770,2019-10-22 23:59:30.939,16305,1.9664642E1,0,10,0,50,37,
