Time(longsecs),Time(UTC),Supply Voltage(mV),Temperature(&deg;C),NMX Bus Current(mA),Sensor Current(mA),Serial Port Current(mA),Controller Current(mA),Digitizer Current(mA),
1570370447,2019-10-06 14:00:47.257,16646,3.4816315E1,0,9,0,49,38,
1570370507,2019-10-06 14:01:47.257,16605,3.474179E1,0,7,0,59,36,
1570370567,2019-10-06 14:02:47.257,16632,3.474936E1,0,12,0,55,36,
1570370627,2019-10-06 14:03:47.269,16605,3.4834686E1,0,5,0,59,35,
1570370687,2019-10-06 14:04:47.257,16619,3.478607E1,0,8,0,57,38,
1570370747,2019-10-06 14:05:47.257,16632,3.512094E1,0,7,0,49,40,
1570370807,2019-10-06 14:06:47.260,16619,3.5195496E1,0,4,0,57,37,
1570370867,2019-10-06 14:07:47.257,16619,3.5015076E1,0,6,0,57,41,
1570370927,2019-10-06 14:08:47.257,16619,3.5111237E1,0,4,0,57,37,
1570370987,2019-10-06 14:09:47.257,16632,3.5130676E1,0,9,0,49,38,
1570371047,2019-10-06 14:10:47.257,16646,3.522574E1,0,8,0,49,38,
1570371107,2019-10-06 14:11:47.257,16632,3.52063E1,0,9,0,58,37,
1570371167,2019-10-06 14:12:47.257,16632,3.528839E1,0,7,0,57,36,
1570371227,2019-10-06 14:13:47.257,16632,3.505722E1,0,8,0,57,39,
1570371287,2019-10-06 14:14:47.257,16619,3.5300262E1,0,7,0,49,35,
1570371347,2019-10-06 14:15:47.257,16632,3.508423E1,0,7,0,49,36,
1570371407,2019-10-06 14:16:47.257,16619,3.5124176E1,0,9,0,59,36,
1570371467,2019-10-06 14:17:47.257,16632,3.538452E1,0,8,0,57,37,
1570371527,2019-10-06 14:18:47.258,16701,3.5191162E1,0,6,0,58,37,
1570371587,2019-10-06 14:19:47.291,16619,3.5473114E1,0,6,0,50,34,
1570371647,2019-10-06 14:20:47.258,16632,3.5393158E1,0,9,0,57,35,
1570371707,2019-10-06 14:21:47.260,16619,3.5459045E1,0,9,0,66,35,
1570371767,2019-10-06 14:22:47.258,16619,3.5406128E1,0,8,0,66,37,
1570371827,2019-10-06 14:23:47.257,16632,3.535428E1,0,7,0,58,36,
1570371887,2019-10-06 14:24:47.257,16632,3.5156586E1,0,2,0,59,38,
1570371947,2019-10-06 14:25:47.257,16674,3.5473114E1,0,8,0,49,37,
1570372007,2019-10-06 14:26:47.257,16632,3.5440704E1,0,7,0,58,37,
1570372067,2019-10-06 14:27:47.257,16632,3.562433E1,0,8,0,61,35,
1570372127,2019-10-06 14:28:47.257,16674,3.5542236E1,0,7,0,57,39,
1570372187,2019-10-06 14:29:47.257,16482,3.5522797E1,0,11,0,49,38,
1570372247,2019-10-06 14:30:47.257,16646,3.5625427E1,0,6,0,49,36,
1570372307,2019-10-06 14:31:47.257,16619,3.557141E1,0,11,0,59,37,
1570372367,2019-10-06 14:32:47.257,16509,3.544287E1,0,10,0,58,36,
1570372427,2019-10-06 14:33:47.292,16646,3.5612457E1,0,9,0,58,38,
1570372487,2019-10-06 14:34:47.267,16592,3.570102E1,0,8,0,57,41,
1570372547,2019-10-06 14:35:47.257,16632,3.567511E1,0,6,0,49,37,
1570372607,2019-10-06 14:36:47.257,16646,3.5703186E1,0,8,0,56,39,
1570372667,2019-10-06 14:37:47.259,16659,3.5599487E1,0,9,0,59,37,
1570372727,2019-10-06 14:38:47.257,16632,3.5748566E1,0,7,0,57,39,
1570372787,2019-10-06 14:39:47.257,16632,3.5614624E1,0,4,0,58,36,
1570372847,2019-10-06 14:40:47.257,16632,3.5672943E1,0,7,0,49,39,
1570372907,2019-10-06 14:41:47.257,16632,3.5496857E1,0,9,0,58,38,
1570372967,2019-10-06 14:42:47.257,16632,3.568808E1,0,9,35,58,37,
1570373027,2019-10-06 14:43:47.257,16632,3.5676178E1,0,8,0,58,39,
1570373087,2019-10-06 14:44:47.257,16619,3.5615692E1,0,8,0,49,36,
1570373147,2019-10-06 14:45:47.257,16537,3.5548706E1,0,9,0,58,36,
1570373207,2019-10-06 14:46:47.260,16619,3.54299E1,0,7,0,58,36,
1570373267,2019-10-06 14:47:47.275,16674,3.5602722E1,0,7,0,58,36,
1570373327,2019-10-06 14:48:47.257,16619,3.5510925E1,0,9,0,58,36,
1570373387,2019-10-06 14:49:47.260,16687,3.55325E1,0,9,0,49,36,
1570373447,2019-10-06 14:50:47.257,16577,3.5419098E1,0,7,0,49,36,
1570373507,2019-10-06 14:51:47.257,16632,3.5420166E1,0,9,0,57,38,
1570373567,2019-10-06 14:52:47.257,16509,3.526245E1,0,8,0,58,38,
1570373627,2019-10-06 14:53:47.257,16619,3.5484985E1,0,8,0,59,39,
1570373687,2019-10-06 14:54:47.258,16632,3.5389923E1,0,8,0,49,38,
1570373747,2019-10-06 14:55:47.257,16674,3.5581116E1,0,13,0,50,37,
1570373807,2019-10-06 14:56:47.260,16674,3.5653503E1,0,9,0,58,37,
1570373867,2019-10-06 14:57:47.257,16755,3.5535767E1,0,6,0,58,37,
1570373927,2019-10-06 14:58:47.257,16619,3.559192E1,0,8,0,57,36,
1570373987,2019-10-06 14:59:47.257,16632,3.5402893E1,0,1,0,49,33,
