Time(longsecs),Time(UTC),External SOH Voltage 1(V),External SOH Voltage 2(V),External SOH Voltage 3(V),External SOH Voltage 4(V),Sensor SOH Voltage 1(V),Sensor SOH Voltage 2(V),Sensor SOH Voltage 3(V),
1570323647,2019-10-06 01:00:47.257,-9.584665E-3,1.4338493E-3,-3.0002594E-3,-2.3109913E-3,2.2609615E-1,2.2434998E-1,2.242527E-1,
1570323707,2019-10-06 01:01:47.257,-7.871151E-3,3.3056736E-3,-1.0874271E-3,-5.4073334E-4,2.2540092E-1,2.3056221E-1,2.3011589E-1,
1570323767,2019-10-06 01:02:47.258,-1.0288477E-2,7.917881E-4,-3.4770966E-3,-2.9780865E-3,2.1979713E-1,2.2308445E-1,2.2110748E-1,
1570323827,2019-10-06 01:03:47.257,-1.0150671E-2,7.183552E-4,-3.4911633E-3,-3.1223297E-3,2.2435284E-1,2.237711E-1,2.24226E-1,
1570323887,2019-10-06 01:04:47.257,-1.1655569E-2,-6.9594383E-4,-5.1369667E-3,-4.743576E-3,2.1120834E-1,2.17762E-1,2.1800327E-1,
1570323947,2019-10-06 01:05:47.257,-1.04112625E-2,7.727146E-4,-3.481865E-3,-2.8123856E-3,2.1879959E-1,2.2410393E-1,2.226305E-1,
1570324007,2019-10-06 01:06:47.258,-9.821892E-3,9.925365E-4,-3.0705929E-3,-2.6066303E-3,2.1762657E-1,2.213316E-1,2.2198296E-1,
1570324067,2019-10-06 01:07:47.257,-1.18973255E-2,-9.827614E-4,-5.6438446E-3,-4.9767494E-3,2.1590805E-1,2.1603394E-1,2.1525764E-1,
1570324127,2019-10-06 01:08:47.259,-9.552002E-3,1.7066002E-3,-2.660513E-3,-2.8865337E-3,2.2045994E-1,2.233572E-1,2.2286892E-1,
1570324187,2019-10-06 01:09:47.257,-9.763479E-3,1.5022755E-3,-2.7472973E-3,-2.1629333E-3,2.2083092E-1,2.2396946E-1,2.2349453E-1,
1570324247,2019-10-06 01:10:47.257,-1.2050867E-2,-1.1203289E-3,-5.2051544E-3,-5.0394535E-3,2.1272087E-1,2.156725E-1,2.1473026E-1,
1570324307,2019-10-06 01:11:47.257,-7.870913E-3,3.0879974E-3,-1.4076233E-3,-8.261204E-4,2.2450161E-1,2.2724628E-1,2.24473E-1,
1570324367,2019-10-06 01:12:47.258,-1.1707544E-2,-1.2459755E-3,-5.087614E-3,-4.7700405E-3,2.1360683E-1,2.1852493E-1,2.1847343E-1,
1570324427,2019-10-06 01:13:47.257,-1.0366201E-2,9.229183E-4,-3.458023E-3,-3.010273E-3,2.1833324E-1,2.2445393E-1,2.2145844E-1,
1570324487,2019-10-06 01:14:47.257,-7.67231E-3,2.943039E-3,-6.182194E-4,-4.6896935E-4,2.2657776E-1,2.2833347E-1,2.2629452E-1,
1570324547,2019-10-06 01:15:47.260,-9.470701E-3,1.461029E-3,-2.853632E-3,-2.4337769E-3,2.1802807E-1,2.2372627E-1,2.2091866E-1,
1570324607,2019-10-06 01:16:47.257,-1.2033224E-2,-1.406908E-3,-5.3346157E-3,-4.788637E-3,2.1346188E-1,2.1628094E-1,2.151556E-1,
1570324667,2019-10-06 01:17:47.257,-8.701324E-3,2.7468204E-3,-1.2896061E-3,-6.556511E-4,2.2517204E-1,2.324524E-1,2.4497414E-1,
1570324727,2019-10-06 01:18:47.258,-9.5431805E-3,1.4414787E-3,-2.967596E-3,-2.1264553E-3,2.2067642E-1,2.2437954E-1,2.1784592E-1,
1570324787,2019-10-06 01:19:47.257,-9.684324E-3,1.3234615E-3,-2.9907227E-3,-2.1822453E-3,2.1714497E-1,2.2291374E-1,2.4119377E-1,
1570324847,2019-10-06 01:20:47.259,-7.4398518E-3,3.1540394E-3,-1.3251305E-3,-3.1495094E-4,2.2712517E-1,2.2714996E-1,2.319355E-1,
1570324907,2019-10-06 01:21:47.257,-1.2137175E-2,-8.327961E-4,-5.169153E-3,-4.894495E-3,2.1693039E-1,2.1485043E-1,2.1481228E-1,
1570324967,2019-10-06 01:22:47.267,-1.1954308E-2,-1.1897087E-3,-5.706072E-3,-4.57716E-3,2.1242237E-1,2.160883E-1,2.1434212E-1,
1570325027,2019-10-06 01:23:47.257,-1.2061119E-2,-1.31917E-3,-5.558014E-3,-4.863262E-3,2.1523285E-1,2.1946144E-1,2.1749401E-1,
1570325087,2019-10-06 01:24:47.257,-9.584188E-3,1.2962818E-3,-3.2205582E-3,-2.270937E-3,2.185936E-1,2.1830845E-1,2.1825314E-1,
1570325147,2019-10-06 01:25:47.257,-1.1859179E-2,-8.6832047E-4,-5.3710938E-3,-4.6339035E-3,2.1393108E-1,2.1487045E-1,2.1331024E-1,
1570325207,2019-10-06 01:26:47.257,-1.219821E-2,-8.8119507E-4,-5.1863194E-3,-4.8565865E-3,2.1126556E-1,2.1625996E-1,2.1560478E-1,
1570325267,2019-10-06 01:27:47.257,-1.2073755E-2,-1.162529E-3,-5.3982735E-3,-4.6412945E-3,2.1532917E-1,2.179966E-1,2.178154E-1,
1570325327,2019-10-06 01:28:47.257,-7.614851E-3,3.424406E-3,-8.699894E-4,-5.517006E-4,2.2401333E-1,2.2940254E-1,2.268858E-1,
1570325387,2019-10-06 01:29:47.258,-1.1935711E-2,-1.1255741E-3,-5.2073E-3,-5.124569E-3,2.1182442E-1,2.1493626E-1,2.1178913E-1,
1570325447,2019-10-06 01:30:47.260,-7.909298E-3,3.2920837E-3,-1.0919571E-3,-3.2544136E-4,2.2928715E-1,2.303114E-1,2.2836113E-1,
1570325507,2019-10-06 01:31:47.288,-1.2093306E-2,-1.5156269E-3,-5.4750443E-3,-4.752636E-3,2.1308899E-1,2.1620369E-1,2.145567E-1,
1570325567,2019-10-06 01:32:47.257,-1.1911154E-2,-9.331703E-4,-5.0985813E-3,-4.7912598E-3,2.1409798E-1,2.1867466E-1,2.1935368E-1,
1570325627,2019-10-06 01:33:47.257,-9.580135E-3,1.3587475E-3,-2.9394627E-3,-2.4831295E-3,2.200985E-1,2.2173023E-1,2.2042942E-1,
1570325687,2019-10-06 01:34:47.257,-9.70149E-3,1.8873215E-3,-3.0488968E-3,-2.6583672E-3,2.2302341E-1,2.2478676E-1,2.2432041E-1,
1570325747,2019-10-06 01:35:47.257,-7.599354E-3,3.1440258E-3,-1.3124943E-3,-6.520748E-4,2.256403E-1,2.2624302E-1,2.2719955E-1,
1570325807,2019-10-06 01:36:47.257,-7.8041553E-3,3.0181408E-3,-1.2700558E-3,-5.364418E-4,2.2752953E-1,2.30834E-1,2.3004913E-1,
1570325867,2019-10-06 01:37:47.260,-1.2033939E-2,-8.93116E-4,-5.389929E-3,-4.8308372E-3,2.1395588E-1,2.1633816E-1,2.145319E-1,
1570325927,2019-10-06 01:38:47.257,-1.1988878E-2,-1.1503696E-3,-5.8152676E-3,-5.389929E-3,2.1260071E-1,2.1614361E-1,2.1471596E-1,
1570325987,2019-10-06 01:39:47.257,-9.772301E-3,1.2443066E-3,-2.9683113E-3,-2.6228428E-3,2.205925E-1,2.2342396E-1,2.2068024E-1,
1570326047,2019-10-06 01:40:47.257,-7.7281E-3,3.3359528E-3,-1.2950897E-3,-6.761551E-4,2.2377491E-1,2.2919941E-1,2.2750568E-1,
1570326107,2019-10-06 01:41:47.257,-9.274244E-3,1.462698E-3,-2.744913E-3,-2.1834373E-3,2.2187614E-1,2.2441101E-1,2.2171879E-1,
1570326167,2019-10-06 01:42:47.257,-1.0147333E-2,7.1263313E-4,-3.545761E-3,-3.2496452E-3,2.1935463E-1,2.2148323E-1,2.195673E-1,
1570326227,2019-10-06 01:43:47.287,-1.19690895E-2,-1.234293E-3,-5.5947304E-3,-4.9431324E-3,2.1298599E-1,2.1730709E-1,2.1587181E-1,
1570326287,2019-10-06 01:44:47.257,-9.427071E-3,1.3787746E-3,-2.8316975E-3,-2.1150112E-3,2.2244072E-1,2.2474575E-1,2.2345352E-1,
1570326347,2019-10-06 01:45:47.257,-1.1762142E-2,-1.1591911E-3,-5.2349567E-3,-4.557848E-3,2.1408558E-1,2.1666336E-1,2.1495819E-1,
1570326407,2019-10-06 01:46:47.257,-9.083033E-3,1.4448166E-3,-2.7468204E-3,-2.0611286E-3,2.1762848E-1,2.2082233E-1,2.187481E-1,
1570326467,2019-10-06 01:47:47.257,-9.929895E-3,9.608269E-4,-3.3228397E-3,-2.646923E-3,2.2569275E-1,2.2834682E-1,2.2502613E-1,
1570326527,2019-10-06 01:48:47.257,-7.876873E-3,3.3197403E-3,-1.0256767E-3,-8.69751E-4,2.2680378E-1,2.3000526E-1,2.3202801E-1,
1570326587,2019-10-06 01:49:47.257,-1.0261774E-2,7.6174736E-4,-3.418684E-3,-3.1166077E-3,2.191143E-1,2.2293758E-1,2.2490215E-1,
1570326647,2019-10-06 01:50:47.257,-9.2868805E-3,1.4328957E-3,-2.744913E-3,-2.0530224E-3,2.194643E-1,2.2254467E-1,2.2076416E-1,
1570326707,2019-10-06 01:51:47.258,-9.744406E-3,1.232624E-3,-2.9466152E-3,-2.2156239E-3,2.2267342E-1,2.2445965E-1,2.2681904E-1,
1570326767,2019-10-06 01:52:47.258,-8.068323E-3,3.1540394E-3,-1.2373924E-3,-4.2319298E-4,2.265091E-1,2.295208E-1,2.2894764E-1,
1570326827,2019-10-06 01:53:47.257,-7.946014E-3,3.0806065E-3,-1.1954308E-3,-7.8725815E-4,2.256527E-1,2.2769928E-1,2.2600842E-1,
1570326887,2019-10-06 01:54:47.257,-1.0135174E-2,1.075983E-3,-3.591776E-3,-2.804041E-3,2.1973896E-1,2.2217083E-1,2.2072983E-1,
1570326947,2019-10-06 01:55:47.287,-9.520054E-3,1.4560223E-3,-3.0806065E-3,-2.2742748E-3,2.1947765E-1,2.2137547E-1,2.216959E-1,
1570327007,2019-10-06 01:56:47.257,-9.473801E-3,1.6109943E-3,-3.1871796E-3,-1.9664764E-3,2.1842861E-1,2.2070217E-1,2.2076607E-1,
1570327067,2019-10-06 01:57:47.258,-9.642601E-3,1.6021729E-3,-3.3063889E-3,-2.0606518E-3,2.1971512E-1,2.229271E-1,2.2156239E-1,
1570327127,2019-10-06 01:58:47.257,-1.1614323E-2,-8.8882446E-4,-5.4113865E-3,-4.878044E-3,2.1413231E-1,2.163639E-1,2.144022E-1,
1570327187,2019-10-06 01:59:47.257,-9.353638E-3,1.3518333E-3,-2.9072762E-3,-2.5660992E-3,2.1883392E-1,2.2269917E-1,2.2179985E-1,
