Time(longsecs),Time(UTC),Supply Voltage(mV),Temperature(&deg;C),NMX Bus Current(mA),Sensor Current(mA),Serial Port Current(mA),Controller Current(mA),Digitizer Current(mA),
1571911230,2019-10-24 10:00:30.926,16523,1.9604797E1,0,8,185,35,35,
1571911290,2019-10-24 10:01:30.926,16536,1.9418762E1,0,17,0,39,36,
1571911350,2019-10-24 10:02:30.926,16563,1.963794E1,0,21,0,39,36,
1571911410,2019-10-24 10:03:30.965,16563,1.9399536E1,0,2,0,40,37,
1571911470,2019-10-24 10:04:30.964,16550,1.9541718E1,0,7,0,40,37,
1571911530,2019-10-24 10:05:30.926,16550,1.9514984E1,0,8,0,40,36,
1571911590,2019-10-24 10:06:30.926,16550,1.9658234E1,0,6,0,40,34,
1571911650,2019-10-24 10:07:30.928,16550,1.9702057E1,0,11,0,40,37,
1571911710,2019-10-24 10:08:30.928,16550,1.9681763E1,0,9,0,35,36,
1571911770,2019-10-24 10:09:30.926,16550,1.9710632E1,0,11,0,40,39,
1571911830,2019-10-24 10:10:30.926,16563,1.9822876E1,0,8,0,42,37,
1571911890,2019-10-24 10:11:30.928,16563,1.9661438E1,0,10,0,38,37,
1571911950,2019-10-24 10:12:30.926,16550,1.9988586E1,0,6,0,39,36,
1571912010,2019-10-24 10:13:30.928,16550,1.9754456E1,0,17,0,35,35,
1571912070,2019-10-24 10:14:30.926,16550,1.9458313E1,0,10,0,35,39,
1571912130,2019-10-24 10:15:30.926,16550,2.0009949E1,0,10,0,41,36,
1571912190,2019-10-24 10:16:30.927,16550,1.992978E1,0,11,0,37,35,
1571912250,2019-10-24 10:17:30.926,16563,2.002066E1,0,12,0,37,36,
1571912310,2019-10-24 10:18:30.926,16550,2.0023865E1,0,9,0,35,36,
1571912370,2019-10-24 10:19:30.926,16550,1.9907318E1,0,9,0,35,39,
1571912430,2019-10-24 10:20:30.926,16550,1.9905182E1,0,9,0,40,38,
1571912490,2019-10-24 10:21:30.926,16550,2.0057007E1,0,11,0,40,36,
1571912550,2019-10-24 10:22:30.926,16536,2.0170319E1,0,2,0,38,33,
1571912610,2019-10-24 10:23:30.964,16550,2.0067688E1,0,9,0,34,37,
1571912670,2019-10-24 10:24:30.926,16550,2.0018524E1,0,6,0,40,35,
1571912730,2019-10-24 10:25:30.926,16563,2.0202393E1,0,9,0,39,36,
1571912790,2019-10-24 10:26:30.926,16550,2.028363E1,0,6,0,39,38,
1571912850,2019-10-24 10:27:30.926,16658,2.027295E1,0,9,0,40,37,
1571912910,2019-10-24 10:28:30.927,16563,2.024408E1,0,6,0,37,36,
1571912970,2019-10-24 10:29:30.967,16550,2.0099762E1,0,7,0,43,37,
1571913030,2019-10-24 10:30:30.926,16550,2.033496E1,0,9,0,43,41,
1571913090,2019-10-24 10:31:30.926,16550,2.0649261E1,0,10,0,43,36,
1571913150,2019-10-24 10:32:30.926,16550,2.0513489E1,0,2,0,39,35,
1571913210,2019-10-24 10:33:30.926,16550,2.0586182E1,0,13,2,34,37,
1571913270,2019-10-24 10:34:30.928,16536,2.0656738E1,0,9,0,42,37,
1571913330,2019-10-24 10:35:30.926,16550,2.0430115E1,0,17,0,35,39,
1571913390,2019-10-24 10:36:30.926,16536,2.0922943E1,0,11,0,39,36,
1571913450,2019-10-24 10:37:30.926,16563,2.0797852E1,0,12,0,40,38,
1571913510,2019-10-24 10:38:30.928,16536,2.0898346E1,0,8,0,35,36,
1571913570,2019-10-24 10:39:30.928,16550,2.0927216E1,0,8,0,34,37,
1571913630,2019-10-24 10:40:30.926,16536,2.0974243E1,0,8,0,40,35,
1571913690,2019-10-24 10:41:30.926,16550,2.1132477E1,0,10,0,40,35,
1571913750,2019-10-24 10:42:30.926,16536,2.1075806E1,0,8,0,40,36,
1571913810,2019-10-24 10:43:30.926,16550,2.132489E1,0,11,0,40,37,
1571913870,2019-10-24 10:44:30.938,16550,2.1355896E1,0,10,0,34,35,
1571913930,2019-10-24 10:45:30.926,16536,2.1277863E1,0,13,0,39,37,
1571913990,2019-10-24 10:46:30.926,16550,2.1330261E1,0,9,0,39,36,
1571914050,2019-10-24 10:47:30.926,16550,2.1438232E1,0,18,0,40,37,
1571914110,2019-10-24 10:48:30.926,16496,2.1543E1,0,7,0,36,38,
1571914170,2019-10-24 10:49:30.929,16536,2.1576141E1,0,2,0,40,36,
1571914230,2019-10-24 10:50:30.926,16550,2.1384766E1,0,10,0,39,39,
1571914290,2019-10-24 10:51:30.926,16550,2.1516266E1,0,10,0,40,37,
1571914350,2019-10-24 10:52:30.938,16536,2.167984E1,0,0,0,38,37,
1571914410,2019-10-24 10:53:30.926,16536,2.1952454E1,0,9,0,40,35,
1571914470,2019-10-24 10:54:30.926,16536,2.1613556E1,0,7,0,34,35,
1571914530,2019-10-24 10:55:30.926,16536,2.1981293E1,0,9,0,37,36,
1571914590,2019-10-24 10:56:30.927,16550,2.1979156E1,0,12,0,39,38,
1571914650,2019-10-24 10:57:30.926,16536,2.2165192E1,0,7,0,39,36,
1571914710,2019-10-24 10:58:30.926,16536,2.2101044E1,0,10,0,43,37,
1571914770,2019-10-24 10:59:30.926,16536,2.2438873E1,0,4,0,43,32,
