Time(longsecs),Time(UTC),External SOH Voltage 1(V),External SOH Voltage 2(V),External SOH Voltage 3(V),External SOH Voltage 4(V),Sensor SOH Voltage 1(V),Sensor SOH Voltage 2(V),Sensor SOH Voltage 3(V),
1571936430,2019-10-24 17:00:30.928,-4.622221E-3,-3.5910606E-3,4.4641495E-3,-2.3958683E-3,4.4938374E-1,4.4812965E-1,4.4687462E-1,
1571936490,2019-10-24 17:01:30.926,-4.878044E-3,-3.7121773E-3,4.428625E-3,-1.8670559E-3,4.5183277E-1,4.5088577E-1,4.470253E-1,
1571936550,2019-10-24 17:02:30.926,-4.4562817E-3,-2.9981136E-3,5.2337646E-3,-1.5642643E-3,4.5132923E-1,4.495411E-1,4.473772E-1,
1571936610,2019-10-24 17:03:30.926,-6.7150593E-3,-5.6877136E-3,2.5963783E-3,-3.676176E-3,4.4306183E-1,4.427824E-1,4.4105053E-1,
1571936670,2019-10-24 17:04:30.926,-2.262354E-3,-1.7836094E-3,6.620407E-3,4.46558E-4,4.5507908E-1,4.5409107E-1,4.529152E-1,
1571936730,2019-10-24 17:05:30.958,-2.2416115E-3,-1.5814304E-3,7.465124E-3,4.2915344E-5,4.574337E-1,4.5623207E-1,4.5514774E-1,
1571936790,2019-10-24 17:06:30.938,-6.5038204E-3,-5.7382584E-3,3.1986237E-3,-3.904581E-3,4.408245E-1,4.3892097E-1,4.3655014E-1,
1571936850,2019-10-24 17:07:30.926,-4.753351E-3,-3.7198067E-3,4.5261383E-3,-1.8959045E-3,4.4951153E-1,4.4816685E-1,4.4475174E-1,
1571936910,2019-10-24 17:08:30.926,-4.7798157E-3,-4.023075E-3,4.262924E-3,-2.4461746E-3,4.52693E-1,4.520254E-1,4.4912052E-1,
1571936970,2019-10-24 17:09:30.926,-6.720543E-3,-5.979061E-3,2.3150444E-3,-4.160166E-3,4.4249249E-1,4.415779E-1,4.389887E-1,
1571937030,2019-10-24 17:10:30.926,-6.7737103E-3,-5.820036E-3,2.547741E-3,-4.221201E-3,4.357109E-1,4.348173E-1,4.3189144E-1,
1571937090,2019-10-24 17:11:30.933,-5.257368E-3,-3.9885044E-3,4.6310425E-3,-2.3190975E-3,4.493332E-1,4.4848442E-1,4.463148E-1,
1571937150,2019-10-24 17:12:30.929,-4.5552254E-3,-4.024267E-3,4.2159557E-3,-2.3059845E-3,4.50531E-1,4.5049572E-1,4.4801903E-1,
1571937210,2019-10-24 17:13:30.926,-4.489422E-3,-3.860712E-3,4.6966076E-3,-2.0854473E-3,4.4488811E-1,4.4435024E-1,4.4246483E-1,
1571937270,2019-10-24 17:14:30.926,-3.7155151E-3,-2.99716E-3,5.2018166E-3,-8.780956E-4,4.5264626E-1,4.5185947E-1,4.4885063E-1,
1571937330,2019-10-24 17:15:30.926,-2.3975372E-3,-1.4452934E-3,6.9305897E-3,1.4591217E-4,4.5213413E-1,4.503641E-1,4.4777107E-1,
1571937390,2019-10-24 17:16:30.926,-4.076004E-3,-2.927065E-3,5.13649E-3,-1.316309E-3,4.5210552E-1,4.498949E-1,4.5008373E-1,
1571937450,2019-10-24 17:17:30.926,-6.5636635E-3,-5.4159164E-3,1.932621E-3,-4.5125484E-3,4.4304276E-1,4.4222832E-1,4.3904972E-1,
1571937510,2019-10-24 17:18:30.926,-2.3918152E-3,-1.4092922E-3,7.186651E-3,6.945133E-4,4.567461E-1,4.549532E-1,4.527855E-1,
1571937570,2019-10-24 17:19:30.928,-4.8344135E-3,-3.5789013E-3,4.4260025E-3,-1.6393661E-3,4.538641E-1,4.5193577E-1,4.485445E-1,
1571937630,2019-10-24 17:20:30.926,-6.8998337E-3,-6.099701E-3,2.8259754E-3,-4.2107105E-3,4.3947124E-1,4.384966E-1,4.371233E-1,
1571937690,2019-10-24 17:21:30.926,-6.58679E-3,-5.9068203E-3,3.0732155E-3,-3.5116673E-3,4.3567848E-1,4.351406E-1,4.3266392E-1,
1571937750,2019-10-24 17:22:30.926,-2.500534E-3,-1.5501976E-3,6.9298744E-3,4.5776367E-5,4.4927502E-1,4.5036602E-1,4.4693375E-1,
1571937810,2019-10-24 17:23:30.958,-2.546072E-3,-8.9764595E-4,7.172346E-3,5.288124E-4,4.5228195E-1,4.5061493E-1,4.4755363E-1,
1571937870,2019-10-24 17:24:30.928,-5.04303E-3,-3.8478374E-3,4.6424866E-3,-2.0172596E-3,4.4903946E-1,4.4896793E-1,4.4657612E-1,
1571937930,2019-10-24 17:25:30.959,-2.3064613E-3,-1.1434555E-3,6.7408085E-3,7.472038E-4,4.5605564E-1,4.5435238E-1,4.5191288E-1,
1571937990,2019-10-24 17:26:30.927,-2.2730827E-3,-9.4652176E-4,6.8678856E-3,4.3463707E-4,4.562359E-1,4.5449734E-1,4.5213985E-1,
1571938050,2019-10-24 17:27:30.926,-4.63295E-3,-3.9286613E-3,4.254341E-3,-1.9068718E-3,4.491701E-1,4.4895554E-1,4.4630718E-1,
1571938110,2019-10-24 17:28:30.926,-7.09033E-3,-5.755186E-3,3.0691624E-3,-4.188299E-3,4.435196E-1,4.420967E-1,4.392557E-1,
1571938170,2019-10-24 17:29:30.926,-6.8683624E-3,-5.6729317E-3,3.316164E-3,-4.2409897E-3,4.3939304E-1,4.389887E-1,4.351883E-1,
1571938230,2019-10-24 17:30:30.926,-4.8508644E-3,-3.890276E-3,4.2333603E-3,-1.8167496E-3,4.522791E-1,4.5026493E-1,4.492817E-1,
1571938290,2019-10-24 17:31:30.926,-3.8847923E-3,-2.8460026E-3,5.104065E-3,-1.3239384E-3,4.5058537E-1,4.4894886E-1,4.4707203E-1,
1571938350,2019-10-24 17:32:30.926,-4.082203E-3,-3.0841827E-3,4.8971176E-3,-1.6698837E-3,4.4421482E-1,4.4233036E-1,4.40629E-1,
1571938410,2019-10-24 17:33:30.926,-2.329111E-3,-1.2228489E-3,6.863117E-3,6.3824654E-4,4.5301533E-1,4.514265E-1,4.5011902E-1,
1571938470,2019-10-24 17:34:30.926,-4.7700405E-3,-3.6633015E-3,4.498005E-3,-2.1531582E-3,4.4876003E-1,4.4862175E-1,4.465189E-1,
1571938530,2019-10-24 17:35:30.926,-4.4248104E-3,-4.0135384E-3,4.518032E-3,-2.0809174E-3,4.517069E-1,4.5102692E-1,4.4860554E-1,
1571938590,2019-10-24 17:36:30.927,-6.808996E-3,-5.549431E-3,2.2962093E-3,-4.1470528E-3,4.3947124E-1,4.39229E-1,4.3521976E-1,
1571938650,2019-10-24 17:37:30.927,-4.582882E-3,-3.2815933E-3,4.869938E-3,-8.087158E-4,4.514017E-1,4.5111275E-1,4.485445E-1,
1571938710,2019-10-24 17:38:30.928,-4.079342E-3,-3.1223297E-3,4.652977E-3,-1.6641617E-3,4.5205402E-1,4.509802E-1,4.4971752E-1,
1571938770,2019-10-24 17:39:30.948,-6.694317E-3,-5.788088E-3,2.4094582E-3,-4.023075E-3,4.3865967E-1,4.384489E-1,4.35606E-1,
1571938830,2019-10-24 17:40:30.928,-4.0631294E-3,-3.1216145E-3,4.753113E-3,-1.085043E-3,4.4959545E-1,4.4919395E-1,4.4884205E-1,
1571938890,2019-10-24 17:41:30.927,-2.2120476E-3,-1.0604858E-3,6.68478E-3,2.6869774E-4,4.599476E-1,4.599886E-1,4.5632267E-1,
1571938950,2019-10-24 17:42:30.930,-4.189968E-3,-2.931118E-3,5.1927567E-3,-1.914978E-3,4.459839E-1,4.4651318E-1,4.430275E-1,
1571939010,2019-10-24 17:43:30.928,-4.005909E-3,-3.0970573E-3,5.0456524E-3,-1.4519691E-3,4.4479084E-1,4.4419575E-1,4.3946266E-1,
1571939070,2019-10-24 17:44:30.927,-4.2681694E-3,-3.4518242E-3,4.8913956E-3,-1.4705658E-3,4.4927692E-1,4.491005E-1,4.4666386E-1,
1571939130,2019-10-24 17:45:30.927,-4.1923523E-3,-3.330946E-3,5.3272247E-3,-1.5773773E-3,4.508915E-1,4.5011902E-1,4.5043755E-1,
1571939190,2019-10-24 17:46:30.927,-6.78277E-3,-5.8836937E-3,2.4614334E-3,-4.276514E-3,4.4326496E-1,4.4155884E-1,4.391222E-1,
1571939250,2019-10-24 17:47:30.926,-3.6742687E-3,-3.4086704E-3,4.748106E-3,-1.4562607E-3,4.498663E-1,4.4957542E-1,4.4625664E-1,
1571939310,2019-10-24 17:48:30.926,-4.6601295E-3,-3.6382675E-3,4.153013E-3,-1.9059181E-3,4.5039272E-1,4.4872475E-1,4.471588E-1,
1571939370,2019-10-24 17:49:30.961,-6.661892E-3,-5.413294E-3,2.7797222E-3,-4.327774E-3,4.427309E-1,4.4270515E-1,4.398117E-1,
1571939430,2019-10-24 17:50:30.926,-6.3517094E-3,-5.556822E-3,2.735138E-3,-3.8650036E-3,4.3899632E-1,4.381323E-1,4.363079E-1,
1571939490,2019-10-24 17:51:30.927,-4.018545E-3,-2.931118E-3,5.0029755E-3,-1.4843941E-3,4.5039272E-1,4.4967365E-1,4.4801426E-1,
1571939550,2019-10-24 17:52:30.926,-6.8047047E-3,-6.0577393E-3,2.780676E-3,-4.0705204E-3,4.4696617E-1,4.4479656E-1,4.4365692E-1,
1571939610,2019-10-24 17:53:30.926,-5.1543713E-3,-3.7455559E-3,4.1792393E-3,-2.3629665E-3,4.5137024E-1,4.4987202E-1,4.4760036E-1,
1571939670,2019-10-24 17:54:30.926,-6.648302E-3,-5.895853E-3,2.6049614E-3,-3.908634E-3,4.3683052E-1,4.363966E-1,4.3671417E-1,
1571939730,2019-10-24 17:55:30.926,-2.418995E-3,-1.3523102E-3,7.0626736E-3,6.766319E-4,4.5727444E-1,4.568596E-1,4.5406342E-1,
1571939790,2019-10-24 17:56:30.927,-2.1209717E-3,-1.7549992E-3,6.5808296E-3,3.8313866E-4,4.5158195E-1,4.513445E-1,4.4765186E-1,
1571939850,2019-10-24 17:57:30.926,-2.3322105E-3,-1.679182E-3,6.957054E-3,3.478527E-4,4.4986343E-1,4.480877E-1,4.4739437E-1,
1571939910,2019-10-24 17:58:30.928,-6.626606E-3,-5.6414604E-3,2.5100708E-3,-4.1823387E-3,4.4586182E-1,4.445181E-1,4.4359112E-1,
1571939970,2019-10-24 17:59:30.936,-4.437685E-3,-3.91531E-3,4.40073E-3,-2.316475E-3,4.4899273E-1,4.474678E-1,4.476862E-1,
