Time(longsecs),Time(UTC),Supply Voltage(mV),Temperature(&deg;C),NMX Bus Current(mA),Sensor Current(mA),Serial Port Current(mA),Controller Current(mA),Digitizer Current(mA),
1571875230,2019-10-24 00:00:30.926,16278,1.9562012E1,0,11,0,40,38,
1571875290,2019-10-24 00:01:30.926,16319,1.9527802E1,0,9,0,40,40,
1571875350,2019-10-24 00:02:30.927,16319,1.9543854E1,0,9,0,37,40,
1571875410,2019-10-24 00:03:30.928,16278,1.949466E1,0,6,0,41,37,
1571875470,2019-10-24 00:04:30.926,16305,,0,10,0,40,39,
1571875530,2019-10-24 00:05:30.926,16319,1.965503E1,0,10,0,35,40,
1571875590,2019-10-24 00:06:30.926,16305,,0,5,0,41,36,
1571875650,2019-10-24 00:07:30.926,16292,1.9610138E1,0,9,0,40,37,
1571875710,2019-10-24 00:08:30.926,16305,1.9588745E1,0,9,0,43,38,
1571875770,2019-10-24 00:09:30.926,16292,1.9312927E1,0,14,0,43,41,
1571875830,2019-10-24 00:10:30.928,16305,1.9232758E1,0,11,0,35,36,
1571875890,2019-10-24 00:11:30.926,16305,1.9341797E1,0,6,0,40,33,
1571875950,2019-10-24 00:12:30.926,16292,1.953424E1,0,11,0,40,35,
1571876010,2019-10-24 00:13:30.926,16305,1.9331116E1,0,13,0,35,39,
1571876070,2019-10-24 00:14:30.928,16305,1.9413422E1,0,11,0,35,37,
1571876130,2019-10-24 00:15:30.926,16292,1.9312927E1,0,18,0,38,39,
1571876190,2019-10-24 00:16:30.926,16305,1.911731E1,0,14,0,40,38,
1571876250,2019-10-24 00:17:30.926,16292,1.9274445E1,0,8,0,40,39,
1571876310,2019-10-24 00:18:30.926,16305,1.9183563E1,1,9,0,35,36,
1571876370,2019-10-24 00:19:30.926,16305,1.914508E1,0,8,0,35,36,
1571876430,2019-10-24 00:20:30.926,16305,1.9177155E1,0,9,0,37,38,
1571876490,2019-10-24 00:21:30.927,16292,1.9307587E1,0,8,0,36,35,
1571876550,2019-10-24 00:22:30.964,16292,1.9187866E1,0,8,0,40,38,
1571876610,2019-10-24 00:23:30.926,16292,1.9082031E1,0,11,0,40,36,
1571876670,2019-10-24 00:24:30.932,16305,1.9190002E1,0,9,0,35,37,
1571876730,2019-10-24 00:25:30.927,16292,1.9247711E1,0,10,0,35,40,
1571876790,2019-10-24 00:26:30.926,16292,1.924237E1,0,9,0,42,38,
1571876850,2019-10-24 00:27:30.926,16292,1.9046722E1,0,2,0,39,38,
1571876910,2019-10-24 00:28:30.926,16292,1.9224213E1,0,7,0,35,37,
1571876970,2019-10-24 00:29:30.936,16292,1.8840424E1,0,11,0,35,37,
1571877030,2019-10-24 00:30:30.926,16292,1.9068115E1,0,9,0,40,40,
1571877090,2019-10-24 00:31:30.926,16292,1.8994354E1,0,9,0,40,36,
1571877150,2019-10-24 00:32:30.926,16305,1.8782684E1,0,10,0,40,36,
1571877210,2019-10-24 00:33:30.926,16292,1.9096985E1,0,5,0,35,34,
1571877270,2019-10-24 00:34:30.926,16292,1.9163269E1,0,4,0,35,36,
1571877330,2019-10-24 00:35:30.926,16305,1.8892792E1,0,2,0,35,33,
1571877390,2019-10-24 00:36:30.926,16292,1.885431E1,0,9,0,40,36,
1571877450,2019-10-24 00:37:30.926,16292,1.8912048E1,0,9,0,40,38,
1571877510,2019-10-24 00:38:30.926,16305,1.8851105E1,0,10,0,35,36,
1571877570,2019-10-24 00:39:30.926,16278,1.888211E1,0,9,0,35,37,
1571877630,2019-10-24 00:40:30.926,16292,1.8800842E1,0,12,0,43,39,
1571877690,2019-10-24 00:41:30.928,16292,1.8909912E1,0,9,0,40,38,
1571877750,2019-10-24 00:42:30.926,16292,1.8954803E1,0,9,0,39,38,
1571877810,2019-10-24 00:43:30.926,16292,1.9150421E1,0,9,0,35,39,
1571877870,2019-10-24 00:44:30.926,16278,1.8861786E1,0,11,0,41,37,
1571877930,2019-10-24 00:45:30.926,16292,1.8805145E1,0,10,0,40,42,
1571877990,2019-10-24 00:46:30.926,16292,1.8782684E1,0,9,0,40,37,
1571878050,2019-10-24 00:47:30.926,16292,1.8938751E1,0,7,0,40,36,
1571878110,2019-10-24 00:48:30.926,16414,1.8858582E1,0,13,0,41,36,
1571878170,2019-10-24 00:49:30.926,16278,1.8714264E1,0,9,0,43,36,
1571878230,2019-10-24 00:50:30.926,16292,1.8891724E1,0,5,0,49,36,
1571878290,2019-10-24 00:51:30.926,16278,1.8948395E1,0,11,0,43,44,
1571878350,2019-10-24 00:52:30.926,16156,1.8674713E1,0,9,0,38,36,
1571878410,2019-10-24 00:53:30.926,16089,1.879657E1,0,11,0,40,36,
1571878470,2019-10-24 00:54:30.926,16292,1.8879974E1,0,12,0,35,39,
1571878530,2019-10-24 00:55:30.926,16414,1.8900269E1,0,7,0,43,37,
1571878590,2019-10-24 00:56:30.926,16305,1.8823303E1,0,2,0,40,35,
1571878650,2019-10-24 00:57:30.926,16305,1.8740997E1,0,6,0,40,36,
1571878710,2019-10-24 00:58:30.927,16292,1.8827576E1,0,9,0,35,35,
1571878770,2019-10-24 00:59:30.926,16305,1.8874634E1,0,14,0,35,39,
