Time(longsecs),Time(UTC),Supply Voltage(mV),Temperature(&deg;C),NMX Bus Current(mA),Sensor Current(mA),Serial Port Current(mA),Controller Current(mA),Digitizer Current(mA),
1571583638,2019-10-20 15:00:38.646,12156,1.8340515E1,0,11,0,63,55,
1571583698,2019-10-20 15:01:38.646,12156,1.8247162E1,0,21,0,63,53,
1571583758,2019-10-20 15:02:38.651,12156,1.8303375E1,0,12,0,52,59,
1571583818,2019-10-20 15:03:38.646,12143,1.823764E1,0,15,0,63,55,
1571583878,2019-10-20 15:04:38.646,12156,1.806369E1,0,13,0,64,55,
1571583938,2019-10-20 15:05:38.646,12143,1.8235504E1,0,11,0,60,52,
1571583998,2019-10-20 15:06:38.647,12156,1.8002167E1,0,9,0,52,66,
1571584058,2019-10-20 15:07:38.646,12156,1.8146423E1,0,13,0,52,54,
1571584118,2019-10-20 15:08:38.646,12129,1.8109283E1,0,15,0,94,54,
1571584178,2019-10-20 15:09:38.646,12129,1.8050964E1,0,11,0,89,56,
1571584238,2019-10-20 15:10:38.646,12143,1.792154E1,0,9,0,70,59,
1571584298,2019-10-20 15:11:38.646,12156,1.8091248E1,0,11,0,52,55,
1571584358,2019-10-20 15:12:38.680,12156,1.7992615E1,0,10,0,52,56,
1571584418,2019-10-20 15:13:38.679,12156,1.8133667E1,0,15,0,62,56,
1571584478,2019-10-20 15:14:38.646,12143,1.7827148E1,0,13,0,62,59,
1571584538,2019-10-20 15:15:38.646,12156,1.7802765E1,0,8,0,61,60,
1571584598,2019-10-20 15:16:38.646,12156,1.8113525E1,0,14,0,52,59,
1571584658,2019-10-20 15:17:38.646,12156,1.7888672E1,0,9,0,52,59,
1571584718,2019-10-20 15:18:38.647,12129,1.7986237E1,0,11,0,87,52,
1571584778,2019-10-20 15:19:38.646,12156,1.7828217E1,0,13,0,63,58,
1571584838,2019-10-20 15:20:38.646,12129,1.7737E1,0,13,0,61,59,
1571584898,2019-10-20 15:21:38.660,12129,1.7757141E1,0,14,0,91,53,
1571584958,2019-10-20 15:22:38.646,12143,1.7872772E1,0,9,0,78,58,
1571585018,2019-10-20 15:23:38.646,12143,1.7839874E1,0,11,0,80,59,
1571585078,2019-10-20 15:24:38.646,12156,1.768396E1,0,13,0,62,61,
1571585138,2019-10-20 15:25:38.649,12129,1.7860016E1,0,9,0,57,57,
1571585198,2019-10-20 15:26:38.648,12143,1.761502E1,0,10,0,61,54,
1571585258,2019-10-20 15:27:38.646,12156,1.7676544E1,0,11,0,52,54,
1571585318,2019-10-20 15:28:38.646,12156,1.7808044E1,0,6,0,66,58,
1571585378,2019-10-20 15:29:38.648,12156,1.7773071E1,0,12,0,64,58,
1571585438,2019-10-20 15:30:38.647,12115,1.760971E1,110,13,0,69,55,
1571585498,2019-10-20 15:31:38.647,12143,1.7714722E1,0,12,0,68,57,
1571585558,2019-10-20 15:32:38.647,12129,1.7869568E1,0,12,0,64,57,
1571585618,2019-10-20 15:33:38.647,12115,1.7755035E1,0,25,0,113,57,
1571585678,2019-10-20 15:34:38.646,12156,1.7703064E1,0,13,0,55,59,
1571585738,2019-10-20 15:35:38.646,12143,1.7690338E1,0,13,0,91,58,
1571585798,2019-10-20 15:36:38.646,12170,1.75047E1,0,13,0,120,58,
1571585858,2019-10-20 15:37:38.646,12129,1.7461212E1,0,12,0,62,55,
1571585918,2019-10-20 15:38:38.646,12156,1.7703064E1,0,10,0,99,54,
1571585978,2019-10-20 15:39:38.646,12156,1.7574707E1,0,13,0,70,56,
1571586038,2019-10-20 15:40:38.646,12143,1.7496216E1,0,13,0,70,55,
1571586098,2019-10-20 15:41:38.646,12156,1.742517E1,0,11,0,55,55,
1571586158,2019-10-20 15:42:38.646,12156,1.7324402E1,0,11,0,62,59,
1571586218,2019-10-20 15:43:38.646,12143,1.778366E1,8,14,0,101,59,
1571586278,2019-10-20 15:44:38.646,12156,1.738272E1,0,14,0,63,55,
1571586338,2019-10-20 15:45:38.646,12143,1.7418793E1,0,15,0,71,59,
1571586398,2019-10-20 15:46:38.658,12156,1.7598053E1,0,13,0,53,57,
1571586458,2019-10-20 15:47:38.646,12143,1.754184E1,0,9,0,64,56,
1571586518,2019-10-20 15:48:38.646,12129,1.739441E1,0,13,0,100,57,
1571586578,2019-10-20 15:49:38.646,12129,1.7442139E1,0,11,0,99,58,
1571586638,2019-10-20 15:50:38.684,12129,1.7301056E1,0,15,0,101,59,
1571586698,2019-10-20 15:51:38.646,12143,1.7345612E1,0,13,0,62,56,
1571586758,2019-10-20 15:52:38.646,12143,1.7505768E1,0,13,0,73,55,
1571586818,2019-10-20 15:53:38.646,12156,1.7364716E1,0,22,0,52,57,
1571586878,2019-10-20 15:54:38.648,12143,1.7284088E1,0,15,0,68,56,
1571586938,2019-10-20 15:55:38.646,12143,1.7262878E1,0,13,0,63,55,
1571586998,2019-10-20 15:56:38.646,12156,1.7297882E1,0,12,0,52,58,
1571587058,2019-10-20 15:57:38.646,12156,1.7313782E1,0,11,0,52,59,
1571587118,2019-10-20 15:58:38.646,12143,1.749411E1,0,11,0,61,57,
1571587178,2019-10-20 15:59:38.646,12143,1.7305298E1,0,8,0,62,59,
