Time(longsecs),Time(UTC),External SOH Voltage 1(V),External SOH Voltage 2(V),External SOH Voltage 3(V),External SOH Voltage 4(V),Sensor SOH Voltage 1(V),Sensor SOH Voltage 2(V),Sensor SOH Voltage 3(V),
1570881626,2019-10-12 12:00:26.439,-2.2974014E-3,-1.8231869E-3,7.2824955E-3,8.773804E-5,4.3967247E-1,4.3878365E-1,4.3778515E-1,
1570881686,2019-10-12 12:01:26.438,-4.183531E-3,-3.20673E-3,4.911661E-3,-1.6505718E-3,4.3506432E-1,4.349823E-1,4.3271923E-1,
1570881746,2019-10-12 12:02:26.438,-4.082918E-3,-2.9249191E-3,5.161047E-3,-1.7213821E-3,4.31777E-1,4.3154335E-1,4.2908192E-1,
1570881806,2019-10-12 12:03:26.443,-2.505064E-3,-1.3327599E-3,6.7510605E-3,7.18832E-4,4.3753433E-1,4.377823E-1,4.3436527E-1,
1570881866,2019-10-12 12:04:26.438,-6.9913864E-3,-5.621195E-3,3.0472279E-3,-4.19116E-3,4.264784E-1,4.260435E-1,4.2339897E-1,
1570881926,2019-10-12 12:05:26.438,-2.8669834E-3,-1.354456E-3,6.8416595E-3,1.1086464E-4,4.410572E-1,4.420786E-1,4.3901825E-1,
1570881986,2019-10-12 12:06:26.438,-2.3722649E-3,-1.5621185E-3,7.1148872E-3,9.03368E-4,4.3980598E-1,4.383993E-1,4.3742085E-1,
1570882046,2019-10-12 12:07:26.438,-6.842375E-3,-5.6643486E-3,3.0047894E-3,-4.3001175E-3,4.1698074E-1,4.1671658E-1,4.1416836E-1,
1570882106,2019-10-12 12:08:26.438,-2.7005672E-3,-1.458168E-3,7.0209503E-3,2.4008751E-4,4.3948174E-1,4.3962097E-1,4.3653107E-1,
1570882166,2019-10-12 12:09:26.456,-6.994009E-3,-5.7222843E-3,2.5837421E-3,-4.40979E-3,4.2755413E-1,4.2865276E-1,4.2686462E-1,
1570882226,2019-10-12 12:10:26.438,-2.4104118E-3,-1.231432E-3,6.914377E-3,8.6307526E-5,4.3818855E-1,4.3684292E-1,4.353838E-1,
1570882286,2019-10-12 12:11:26.438,-5.1488876E-3,-4.0102005E-3,4.4853687E-3,-1.9028187E-3,4.281006E-1,4.282198E-1,4.255352E-1,
1570882346,2019-10-12 12:12:26.438,-4.773617E-3,-3.4983158E-3,4.7283173E-3,-2.2294521E-3,4.289608E-1,4.286127E-1,4.2700195E-1,
1570882406,2019-10-12 12:13:26.438,-4.6470165E-3,-3.6985874E-3,4.814148E-3,-2.0148754E-3,4.3128204E-1,4.2949867E-1,4.295864E-1,
1570882466,2019-10-12 12:14:26.455,-6.5214634E-3,-5.8119297E-3,2.8004646E-3,-4.7471523E-3,4.2658234E-1,4.2622757E-1,4.249153E-1,
1570882526,2019-10-12 12:15:26.439,-4.4112206E-3,-4.0442944E-3,4.5204163E-3,-2.3069382E-3,4.305725E-1,4.3049717E-1,4.282627E-1,
1570882586,2019-10-12 12:16:26.439,-4.7314167E-3,-3.447771E-3,4.0085316E-3,-2.0132065E-3,4.3232918E-1,4.3338776E-1,4.2930794E-1,
1570882646,2019-10-12 12:17:26.438,-4.4260025E-3,-2.9349327E-3,5.2862167E-3,-1.201868E-3,4.361477E-1,4.3498802E-1,4.3205452E-1,
1570882706,2019-10-12 12:18:26.439,-2.645731E-3,-1.1763573E-3,7.4863434E-3,7.135868E-4,4.3704987E-1,4.3628216E-1,4.3343925E-1,
1570882766,2019-10-12 12:19:26.438,-6.780386E-3,-5.631447E-3,2.9623508E-3,-4.2448044E-3,4.2438412E-1,4.2430115E-1,4.2171192E-1,
1570882826,2019-10-12 12:20:26.439,-2.567768E-3,-1.5993118E-3,6.8559647E-3,5.042553E-4,4.3885326E-1,4.3810558E-1,4.3569565E-1,
1570882886,2019-10-12 12:21:26.438,-7.1713924E-3,-5.3236485E-3,3.0157566E-3,-4.071474E-3,4.250145E-1,4.2472553E-1,4.2235756E-1,
1570882946,2019-10-12 12:22:26.438,-2.4058819E-3,-1.2722015E-3,7.1001053E-3,3.1137466E-4,4.315586E-1,4.3203735E-1,4.295988E-1,
1570883006,2019-10-12 12:23:26.438,-2.5084019E-3,-1.1589527E-3,7.118225E-3,3.5309792E-4,4.3526173E-1,4.3537998E-1,4.3101215E-1,
1570883066,2019-10-12 12:24:26.441,-2.046585E-3,-1.7528534E-3,7.070303E-3,8.9240074E-4,4.3559933E-1,4.354744E-1,4.3398952E-1,
1570883126,2019-10-12 12:25:26.438,-4.284382E-3,-3.3299923E-3,5.3999424E-3,-8.971691E-4,4.2955208E-1,4.2848969E-1,4.2829514E-1,
1570883186,2019-10-12 12:26:26.438,-4.6448708E-3,-3.8058758E-3,5.0594807E-3,-1.9085407E-3,4.3170738E-1,4.3029594E-1,4.2702007E-1,
1570883246,2019-10-12 12:27:26.441,-6.5789223E-3,-5.5429935E-3,3.1216145E-3,-3.9567947E-3,4.2488384E-1,4.2397213E-1,4.2137623E-1,
1570883306,2019-10-12 12:28:26.438,-2.2921562E-3,-1.3422966E-3,6.59132E-3,-1.1610985E-4,4.354782E-1,4.3459988E-1,4.3190575E-1,
1570883366,2019-10-12 12:29:26.438,-6.6781044E-3,-5.9695244E-3,2.5696754E-3,-3.7777424E-3,4.1696644E-1,4.1529846E-1,4.1367626E-1,
1570883426,2019-10-12 12:30:26.438,-4.21381E-3,-2.869606E-3,5.362034E-3,-1.4276505E-3,4.3267155E-1,4.3219185E-1,4.3112564E-1,
1570883486,2019-10-12 12:31:26.439,-4.4322014E-3,-3.031969E-3,5.4450035E-3,-1.3988018E-3,4.3248558E-1,4.3214035E-1,4.3049717E-1,
1570883546,2019-10-12 12:32:26.438,-7.112026E-3,-5.676031E-3,2.6602745E-3,-4.3206215E-3,4.226942E-1,4.229622E-1,4.192896E-1,
1570883606,2019-10-12 12:33:26.438,-2.0143986E-3,-1.4822483E-3,7.243395E-3,5.927086E-4,4.3248558E-1,4.3061352E-1,4.303789E-1,
1570883666,2019-10-12 12:34:26.456,-4.9791336E-3,-3.942013E-3,4.430771E-3,-4.6892166E-3,4.2992973E-1,4.296112E-1,4.2848587E-1,
1570883726,2019-10-12 12:35:26.438,-2.2838116E-3,-8.289814E-4,6.9253445E-3,-1.8835068E-5,4.3771076E-1,4.3719387E-1,4.3468285E-1,
1570883786,2019-10-12 12:36:26.438,-2.210617E-3,-1.3074875E-3,6.7374706E-3,5.5360794E-4,4.317236E-1,4.311018E-1,4.2886543E-1,
1570883846,2019-10-12 12:37:26.438,-2.6807785E-3,-1.5604496E-3,7.450342E-3,4.966259E-4,4.4210052E-1,4.4220257E-1,4.4059277E-1,
1570883906,2019-10-12 12:38:26.439,-6.6435337E-3,-5.7151318E-3,2.7446747E-3,-4.119396E-3,4.26301E-1,4.2582607E-1,4.2341518E-1,
1570883966,2019-10-12 12:39:26.438,-2.762556E-3,-1.1777878E-3,6.514311E-3,-3.838539E-5,4.3826008E-1,4.3876648E-1,4.366083E-1,
1570884026,2019-10-12 12:40:26.439,-4.0905476E-3,-3.111124E-3,4.840851E-3,-1.6849041E-3,4.2564297E-1,4.258318E-1,4.2352772E-1,
1570884086,2019-10-12 12:41:26.439,-6.731987E-3,-6.061554E-3,2.8924942E-3,-3.8340092E-3,4.2308712E-1,4.2250824E-1,4.1991997E-1,
1570884146,2019-10-12 12:42:26.438,-4.8422813E-3,-3.635168E-3,4.401922E-3,-2.1133423E-3,4.3245697E-1,4.3345833E-1,4.2951107E-1,
1570884206,2019-10-12 12:43:26.438,-2.0563602E-3,-9.522438E-4,6.821871E-3,9.2315674E-4,4.3703842E-1,4.3536282E-1,4.3262482E-1,
1570884266,2019-10-12 12:44:26.438,-4.9943924E-3,-3.924608E-3,4.5182705E-3,-1.717329E-3,4.2400646E-1,4.2451382E-1,4.2290306E-1,
1570884326,2019-10-12 12:45:26.438,-2.4607182E-3,-8.1539154E-4,7.08127E-3,5.662441E-4,4.3781757E-1,4.3741798E-1,4.3719006E-1,
1570884386,2019-10-12 12:46:26.438,-4.4066906E-3,-2.7246475E-3,5.155325E-3,-1.2097359E-3,4.2983055E-1,4.2995453E-1,4.262457E-1,
1570884446,2019-10-12 12:47:26.455,-4.3172836E-3,-3.1211376E-3,5.066395E-3,-1.3656616E-3,4.295597E-1,4.2975712E-1,4.2689323E-1,
1570884506,2019-10-12 12:48:26.439,-4.267931E-3,-3.2770634E-3,5.21183E-3,-1.6298294E-3,4.2883968E-1,4.294405E-1,4.2853737E-1,
1570884566,2019-10-12 12:49:26.438,-6.659031E-3,-5.4154396E-3,2.509594E-3,-4.2448044E-3,4.233961E-1,4.2462635E-1,4.2050362E-1,
1570884626,2019-10-12 12:50:26.438,-7.249117E-3,-5.722761E-3,2.5138855E-3,-3.894329E-3,4.2393303E-1,4.255867E-1,4.2297173E-1,
1570884686,2019-10-12 12:51:26.438,-6.9053173E-3,-5.6700706E-3,2.5811195E-3,-4.2686462E-3,4.1789722E-1,4.1811275E-1,4.162426E-1,
1570884746,2019-10-12 12:52:26.456,-2.7196407E-3,-1.3930798E-3,7.169485E-3,2.9201508E-3,4.3583012E-1,4.3363667E-1,4.3161678E-1,
1570884806,2019-10-12 12:53:26.439,-6.3285828E-3,-5.436182E-3,2.78759E-3,-4.1754246E-3,4.286604E-1,4.2935944E-1,4.2494392E-1,
1570884866,2019-10-12 12:54:26.438,-7.026911E-3,-5.7394505E-3,2.79665E-3,-4.034996E-3,4.2272663E-1,4.2132568E-1,4.217205E-1,
1570884926,2019-10-12 12:55:26.438,-4.6019554E-3,-2.8152466E-3,5.7651997E-3,-9.913445E-4,4.2987442E-1,4.285183E-1,4.2733955E-1,
1570884986,2019-10-12 12:56:26.438,-1.8994808E-3,-9.989738E-4,6.6382885E-3,4.951954E-4,4.3832874E-1,4.372177E-1,4.351349E-1,
1570885046,2019-10-12 12:57:26.438,-5.0144196E-3,-4.020214E-3,4.7130585E-3,-1.7516613E-3,4.2868996E-1,4.2982388E-1,4.2586136E-1,
1570885106,2019-10-12 12:58:26.438,-4.00877E-3,-2.8467178E-3,5.22995E-3,-1.2354851E-3,4.259119E-1,4.2595196E-1,4.2415333E-1,
1570885166,2019-10-12 12:59:26.439,-4.890442E-3,-4.1160583E-3,4.817009E-3,-2.3415089E-3,4.304657E-1,4.294443E-1,4.2747784E-1,
