Time(longsecs),Time(UTC),Supply Voltage(mV),Temperature(&deg;C),NMX Bus Current(mA),Sensor Current(mA),Serial Port Current(mA),Controller Current(mA),Digitizer Current(mA),
1570856426,2019-10-12 05:00:26.439,15302,2.0531647E1,0,7,0,63,44,
1570856486,2019-10-12 05:01:26.439,15302,2.0628937E1,0,11,0,63,48,
1570856546,2019-10-12 05:02:26.439,15289,2.0557312E1,0,13,0,54,47,
1570856606,2019-10-12 05:03:26.439,15289,2.0377716E1,0,10,0,54,48,
1570856666,2019-10-12 05:04:26.439,15302,2.0539154E1,0,8,0,63,46,
1570856726,2019-10-12 05:05:26.439,15289,2.0678131E1,0,11,0,63,48,
1570856786,2019-10-12 05:06:26.439,15289,2.0658875E1,0,13,0,54,45,
1570856846,2019-10-12 05:07:26.441,15302,2.0399109E1,0,9,0,54,48,
1570856906,2019-10-12 05:08:26.439,15302,2.042688E1,0,16,0,54,43,
1570856966,2019-10-12 05:09:26.439,15289,2.046753E1,0,11,0,63,49,
1570857026,2019-10-12 05:10:26.439,15289,2.0632141E1,0,8,0,66,44,
1570857086,2019-10-12 05:11:26.439,15289,2.0437592E1,0,13,0,54,44,
1570857146,2019-10-12 05:12:26.439,15275,2.0568024E1,0,9,0,54,44,
1570857206,2019-10-12 05:13:26.441,15289,2.0469666E1,0,9,0,54,44,
1570857266,2019-10-12 05:14:26.439,15262,2.041513E1,0,4,0,63,45,
1570857326,2019-10-12 05:15:26.439,15275,2.0368103E1,0,13,0,64,43,
1570857386,2019-10-12 05:16:26.439,15181,2.047287E1,0,1,0,63,45,
1570857446,2019-10-12 05:17:26.439,15289,2.0527374E1,0,11,0,54,44,
1570857506,2019-10-12 05:18:26.439,15289,2.0343506E1,0,12,0,54,45,
1570857566,2019-10-12 05:19:26.441,15289,2.0383057E1,0,9,0,63,48,
1570857626,2019-10-12 05:20:26.439,15289,2.0498535E1,0,9,0,64,43,
1570857686,2019-10-12 05:21:26.439,15316,2.0401245E1,0,15,0,54,46,
1570857746,2019-10-12 05:22:26.439,15289,2.0347778E1,0,11,0,54,47,
1570857806,2019-10-12 05:23:26.439,15113,2.0525238E1,0,12,0,54,46,
1570857866,2019-10-12 05:24:26.439,15289,2.0367035E1,0,9,0,63,41,
1570857926,2019-10-12 05:25:26.439,15289,2.027295E1,0,9,0,63,45,
1570857986,2019-10-12 05:26:26.439,15384,2.0235535E1,0,9,0,54,47,
1570858046,2019-10-12 05:27:26.439,15384,2.032962E1,0,18,0,54,44,
1570858106,2019-10-12 05:28:26.441,15289,2.0096558E1,0,9,0,63,42,
1570858166,2019-10-12 05:29:26.439,15275,2.0143585E1,0,15,0,63,46,
1570858226,2019-10-12 05:30:26.439,15275,2.0086945E1,0,8,0,63,47,
1570858286,2019-10-12 05:31:26.439,15289,2.0326416E1,0,8,0,54,47,
1570858346,2019-10-12 05:32:26.439,15275,2.035205E1,5,10,0,54,42,
1570858406,2019-10-12 05:33:26.439,15275,2.010617E1,0,9,0,49,47,
1570858466,2019-10-12 05:34:26.441,15275,2.0213074E1,0,10,0,63,48,
1570858526,2019-10-12 05:35:26.439,15275,2.0205597E1,0,6,0,57,44,
1570858586,2019-10-12 05:36:26.439,15275,2.0084808E1,0,11,0,53,44,
1570858646,2019-10-12 05:37:26.439,15275,2.0302887E1,0,10,0,57,51,
1570858706,2019-10-12 05:38:26.439,15275,2.0359528E1,0,4,0,57,44,
1570858766,2019-10-12 05:39:26.439,15262,2.019278E1,0,38,0,64,43,
1570858826,2019-10-12 05:40:26.439,15262,2.0168182E1,0,10,0,63,45,
1570858886,2019-10-12 05:41:26.439,15275,2.023233E1,0,13,0,63,49,
1570858946,2019-10-12 05:42:26.439,15289,2.0123291E1,0,8,0,63,45,
1570859006,2019-10-12 05:43:26.439,15262,2.0080505E1,0,11,0,54,44,
1570859066,2019-10-12 05:44:26.439,15262,2.0250488E1,0,9,0,64,44,
1570859126,2019-10-12 05:45:26.439,15262,2.0090149E1,0,8,0,63,45,
1570859186,2019-10-12 05:46:26.439,15275,2.0057007E1,0,11,0,61,47,
1570859246,2019-10-12 05:47:26.439,15275,2.0046295E1,0,9,0,54,46,
1570859306,2019-10-12 05:48:26.453,15262,2.0142517E1,0,11,0,53,44,
1570859366,2019-10-12 05:49:26.439,15262,2.0004608E1,0,9,0,64,43,
1570859426,2019-10-12 05:50:26.439,15262,2.0086945E1,112,8,0,63,42,
1570859486,2019-10-12 05:51:26.439,15262,2.0005676E1,0,11,0,54,43,
1570859546,2019-10-12 05:52:26.439,15262,1.9920166E1,0,8,0,56,44,
1570859606,2019-10-12 05:53:26.439,15262,1.9881683E1,0,11,0,54,45,
1570859666,2019-10-12 05:54:26.439,15262,2.0091217E1,0,9,0,64,49,
1570859726,2019-10-12 05:55:26.441,15262,2.002066E1,0,9,0,64,44,
1570859786,2019-10-12 05:56:26.439,15262,2.0184204E1,0,10,0,55,44,
1570859846,2019-10-12 05:57:26.439,15262,2.0011017E1,0,9,0,57,45,
1570859906,2019-10-12 05:58:26.439,15262,2.0155365E1,0,9,0,55,45,
1570859966,2019-10-12 05:59:26.439,15248,1.9896637E1,0,12,0,62,45,
