Time(longsecs),Time(UTC),Earth Location,GPS Receiver Status,GPS Satellites Used,GPS PDOP,GPS TDOP,Timing Status,Timing Phase Lock,Timing Uncertainty(ns),DAC Count,Timing Error(ns),GPS Last Update Time,
1570860026,2019-10-12 06:00:26.439,47.638706N 0.54903E 169m,Off,8,2.1644638,1.2125052,Time OK,Free running,16400,8981,0,2019-10-12 05:42:53.000000000,
1570860086,2019-10-12 06:01:26.457,47.638706N 0.54903E 169m,Off,8,2.1644638,1.2125052,Time OK,Free running,17700,8981,0,2019-10-12 05:42:53.000000000,
1570860146,2019-10-12 06:02:26.441,47.638706N 0.54903E 169m,Off,8,2.1644638,1.2125052,Time OK,Free running,18700,8981,0,2019-10-12 05:42:53.000000000,
1570860206,2019-10-12 06:03:26.439,47.638706N 0.54903E 169m,Off,8,2.1644638,1.2125052,Time OK,Free running,19500,8981,0,2019-10-12 05:42:53.000000000,
1570860266,2019-10-12 06:04:26.439,47.638706N 0.54903E 169m,Off,8,2.1644638,1.2125052,Time OK,Free running,20500,8981,0,2019-10-12 05:42:53.000000000,
1570860326,2019-10-12 06:05:26.439,47.638706N 0.54903E 169m,Off,8,2.1644638,1.2125052,Time OK,Free running,21400,8981,0,2019-10-12 05:42:53.000000000,
1570860386,2019-10-12 06:06:26.439,47.638706N 0.54903E 169m,Off,8,2.1644638,1.2125052,Time OK,Free running,22200,8981,0,2019-10-12 05:42:53.000000000,
1570860446,2019-10-12 06:07:26.439,47.638706N 0.54903E 169m,Off,8,2.1644638,1.2125052,Time OK,Free running,23100,8981,0,2019-10-12 05:42:53.000000000,
1570860506,2019-10-12 06:08:26.439,47.638706N 0.54903E 169m,Off,8,2.1644638,1.2125052,Time OK,Free running,24400,8981,0,2019-10-12 05:42:53.000000000,
1570860566,2019-10-12 06:09:26.439,47.638706N 0.54903E 169m,Off,8,2.1644638,1.2125052,Time OK,Free running,25500,8981,0,2019-10-12 05:42:53.000000000,
1570860626,2019-10-12 06:10:26.439,47.638706N 0.54903E 169m,Off,8,2.1644638,1.2125052,Time OK,Free running,26400,8981,0,2019-10-12 05:42:53.000000000,
1570860686,2019-10-12 06:11:26.439,47.638706N 0.54903E 169m,Off,8,2.1644638,1.2125052,Time OK,Free running,27400,8981,0,2019-10-12 05:42:53.000000000,
1570860746,2019-10-12 06:12:26.439,47.638706N 0.54903E 169m,Off,8,2.1644638,1.2125052,Time OK,Free running,28400,8981,0,2019-10-12 05:42:53.000000000,
1570860806,2019-10-12 06:13:26.455,47.638706N 0.54903E 169m,Off,8,2.1644638,1.2125052,Time OK,Free running,29600,8981,0,2019-10-12 05:42:53.000000000,
1570860866,2019-10-12 06:14:26.439,47.638706N 0.54903E 169m,Off,8,2.1644638,1.2125052,Time OK,Free running,30900,8981,0,2019-10-12 05:42:53.000000000,
1570860926,2019-10-12 06:15:26.439,47.638706N 0.54903E 169m,Off,8,2.1644638,1.2125052,Time OK,Free running,32200,8981,0,2019-10-12 05:42:53.000000000,
1570860986,2019-10-12 06:16:26.439,47.638706N 0.54903E 169m,Off,8,2.1644638,1.2125052,Time OK,Free running,33600,8981,0,2019-10-12 05:42:53.000000000,
1570861046,2019-10-12 06:17:26.439,47.638706N 0.54903E 169m,Off,8,2.1644638,1.2125052,Time OK,Free running,35000,8981,0,2019-10-12 05:42:53.000000000,
1570861106,2019-10-12 06:18:26.439,47.638706N 0.54903E 169m,Off,8,2.1644638,1.2125052,Time OK,Free running,36300,8981,0,2019-10-12 05:42:53.000000000,
1570861166,2019-10-12 06:19:26.439,47.638706N 0.54903E 169m,Off,8,2.1644638,1.2125052,Time OK,Free running,37600,8981,0,2019-10-12 05:42:53.000000000,
1570861226,2019-10-12 06:20:26.439,47.638706N 0.54903E 169m,Off,8,2.1644638,1.2125052,Time OK,Free running,39000,8981,0,2019-10-12 05:42:53.000000000,
1570861286,2019-10-12 06:21:26.439,47.638706N 0.54903E 169m,Off,8,2.1644638,1.2125052,Time OK,Free running,40500,8981,0,2019-10-12 05:42:53.000000000,
1570861346,2019-10-12 06:22:26.439,47.638706N 0.54903E 169m,Off,8,2.1644638,1.2125052,Time OK,Free running,42100,8981,0,2019-10-12 05:42:53.000000000,
1570861406,2019-10-12 06:23:26.439,47.638706N 0.54903E 169m,Off,8,2.1644638,1.2125052,Time OK,Free running,43700,8981,0,2019-10-12 05:42:53.000000000,
1570861466,2019-10-12 06:24:26.439,47.638706N 0.54903E 169m,Off,8,2.1644638,1.2125052,Time OK,Free running,45200,8981,0,2019-10-12 05:42:53.000000000,
1570861526,2019-10-12 06:25:26.441,47.638706N 0.54903E 169m,Off,8,2.1644638,1.2125052,Time OK,Free running,46500,8981,0,2019-10-12 05:42:53.000000000,
1570861586,2019-10-12 06:26:26.439,47.638706N 0.54903E 169m,Off,8,2.1644638,1.2125052,Time OK,Free running,47700,8981,0,2019-10-12 05:42:53.000000000,
1570861646,2019-10-12 06:27:26.439,47.638706N 0.54903E 169m,Off,8,2.1644638,1.2125052,Time OK,Free running,49300,8981,0,2019-10-12 05:42:53.000000000,
1570861706,2019-10-12 06:28:26.439,47.638706N 0.54903E 169m,Off,8,2.1644638,1.2125052,Time OK,Free running,51400,8981,0,2019-10-12 05:42:53.000000000,
1570861766,2019-10-12 06:29:26.439,47.638706N 0.54903E 169m,Doing fixes,8,2.012054,1.1575159,Time OK,Coarse lock,100,11661,-26458,2019-10-12 06:29:22.000000000,
1570861826,2019-10-12 06:30:26.439,47.638706N 0.54903E 169m,Doing fixes,10,1.5804666,0.8098278,Time OK,Coarse lock,100,8993,208,2019-10-12 06:30:22.000000000,
1570861886,2019-10-12 06:31:26.439,47.638706N 0.54903E 169m,Off,10,1.5723724,0.8043285,Time OK,Free running,200,9020,0,2019-10-12 06:31:12.000000000,
1570861946,2019-10-12 06:32:26.439,47.638706N 0.54903E 169m,Off,10,1.5723724,0.8043285,Time OK,Free running,1000,9020,0,2019-10-12 06:31:12.000000000,
1570862006,2019-10-12 06:33:26.439,47.638706N 0.54903E 169m,Off,10,1.5723724,0.8043285,Time OK,Free running,2200,9020,0,2019-10-12 06:31:12.000000000,
1570862066,2019-10-12 06:34:26.439,47.638706N 0.54903E 169m,Off,10,1.5723724,0.8043285,Time OK,Free running,3500,9020,0,2019-10-12 06:31:12.000000000,
1570862126,2019-10-12 06:35:26.441,47.638706N 0.54903E 169m,Off,10,1.5723724,0.8043285,Time OK,Free running,4800,9020,0,2019-10-12 06:31:12.000000000,
1570862186,2019-10-12 06:36:26.439,47.638706N 0.54903E 169m,Off,10,1.5723724,0.8043285,Time OK,Free running,6100,9020,0,2019-10-12 06:31:12.000000000,
1570862246,2019-10-12 06:37:26.439,47.638706N 0.54903E 169m,Off,10,1.5723724,0.8043285,Time OK,Free running,7100,9020,0,2019-10-12 06:31:12.000000000,
1570862306,2019-10-12 06:38:26.439,47.638706N 0.54903E 169m,Off,10,1.5723724,0.8043285,Time OK,Free running,8200,9020,0,2019-10-12 06:31:12.000000000,
1570862366,2019-10-12 06:39:26.441,47.638706N 0.54903E 169m,Off,10,1.5723724,0.8043285,Time OK,Free running,9600,9020,0,2019-10-12 06:31:12.000000000,
1570862426,2019-10-12 06:40:26.441,47.638706N 0.54903E 169m,Off,10,1.5723724,0.8043285,Time OK,Free running,10600,9020,0,2019-10-12 06:31:12.000000000,
1570862486,2019-10-12 06:41:26.439,47.638706N 0.54903E 169m,Off,10,1.5723724,0.8043285,Time OK,Free running,11700,9020,0,2019-10-12 06:31:12.000000000,
1570862546,2019-10-12 06:42:26.439,47.638706N 0.54903E 169m,Off,10,1.5723724,0.8043285,Time OK,Free running,12800,9020,0,2019-10-12 06:31:12.000000000,
1570862606,2019-10-12 06:43:26.439,47.638706N 0.54903E 169m,Off,10,1.5723724,0.8043285,Time OK,Free running,13600,9020,0,2019-10-12 06:31:12.000000000,
1570862666,2019-10-12 06:44:26.449,47.638706N 0.54903E 169m,Off,10,1.5723724,0.8043285,Time OK,Free running,14700,9020,0,2019-10-12 06:31:12.000000000,
1570862726,2019-10-12 06:45:26.456,47.638706N 0.54903E 169m,Off,10,1.5723724,0.8043285,Time OK,Free running,16200,9020,0,2019-10-12 06:31:12.000000000,
1570862786,2019-10-12 06:46:26.439,47.638706N 0.54903E 169m,Off,10,1.5723724,0.8043285,Time OK,Free running,17600,9020,0,2019-10-12 06:31:12.000000000,
1570862846,2019-10-12 06:47:26.439,47.638706N 0.54903E 169m,Off,10,1.5723724,0.8043285,Time OK,Free running,18900,9020,0,2019-10-12 06:31:12.000000000,
1570862906,2019-10-12 06:48:26.439,47.638706N 0.54903E 169m,Off,10,1.5723724,0.8043285,Time OK,Free running,20100,9020,0,2019-10-12 06:31:12.000000000,
1570862966,2019-10-12 06:49:26.439,47.638706N 0.54903E 169m,Off,10,1.5723724,0.8043285,Time OK,Free running,21100,9020,0,2019-10-12 06:31:12.000000000,
1570863026,2019-10-12 06:50:26.441,47.638706N 0.54903E 169m,Off,10,1.5723724,0.8043285,Time OK,Free running,22200,9020,0,2019-10-12 06:31:12.000000000,
1570863086,2019-10-12 06:51:26.439,47.638706N 0.54903E 169m,Off,10,1.5723724,0.8043285,Time OK,Free running,23400,9020,0,2019-10-12 06:31:12.000000000,
1570863146,2019-10-12 06:52:26.439,47.638706N 0.54903E 169m,Off,10,1.5723724,0.8043285,Time OK,Free running,24400,9020,0,2019-10-12 06:31:12.000000000,
1570863206,2019-10-12 06:53:26.452,47.638706N 0.54903E 169m,Off,10,1.5723724,0.8043285,Time OK,Free running,25400,9020,0,2019-10-12 06:31:12.000000000,
1570863266,2019-10-12 06:54:26.439,47.638706N 0.54903E 169m,Off,10,1.5723724,0.8043285,Time OK,Free running,26400,9020,0,2019-10-12 06:31:12.000000000,
1570863326,2019-10-12 06:55:26.439,47.638706N 0.54903E 169m,Off,10,1.5723724,0.8043285,Time OK,Free running,27200,9020,0,2019-10-12 06:31:12.000000000,
1570863386,2019-10-12 06:56:26.439,47.638706N 0.54903E 169m,Off,10,1.5723724,0.8043285,Time OK,Free running,28300,9020,0,2019-10-12 06:31:12.000000000,
1570863446,2019-10-12 06:57:26.439,47.638706N 0.54903E 169m,Off,10,1.5723724,0.8043285,Time OK,Free running,29600,9020,0,2019-10-12 06:31:12.000000000,
1570863506,2019-10-12 06:58:26.439,47.638706N 0.54903E 169m,Off,10,1.5723724,0.8043285,Time OK,Free running,30500,9020,0,2019-10-12 06:31:12.000000000,
1570863566,2019-10-12 06:59:26.439,47.638706N 0.54903E 169m,Off,10,1.5723724,0.8043285,Time OK,Free running,31400,9020,0,2019-10-12 06:31:12.000000000,
