Time(longsecs),Time(UTC),External SOH Voltage 1(V),External SOH Voltage 2(V),External SOH Voltage 3(V),External SOH Voltage 4(V),Sensor SOH Voltage 1(V),Sensor SOH Voltage 2(V),Sensor SOH Voltage 3(V),
1570694422,2019-10-10 08:00:22.352,-2.6738644E-3,-1.0056734E-2,-3.4048557E-3,-4.044771E-3,3.8297844E-1,3.789587E-1,3.843937E-1,
1570694482,2019-10-10 08:01:22.354,-2.052784E-4,-7.5745583E-3,-8.00848E-4,-1.7900467E-3,3.8948727E-1,3.8223362E-1,3.9071274E-1,
1570694542,2019-10-10 08:02:22.352,-1.244545E-4,-8.164167E-3,-1.162529E-3,-1.4801025E-3,3.8721085E-1,3.82164E-1,3.8869953E-1,
1570694602,2019-10-10 08:03:22.354,-2.7008057E-3,-1.0542154E-2,-3.8261414E-3,-4.023075E-3,3.843546E-1,3.7875462E-1,3.8683987E-1,
1570694662,2019-10-10 08:04:22.352,9.934902E-4,-6.2658787E-3,7.0667267E-4,-1.8119812E-5,3.9476204E-1,3.9315414E-1,3.93672E-1,
1570694722,2019-10-10 08:05:22.352,-1.6927719E-4,-8.151531E-3,-1.8577576E-3,-2.3636818E-3,3.8835812E-1,3.83358E-1,3.9245415E-1,
1570694782,2019-10-10 08:06:22.352,-7.150173E-4,-7.570505E-3,-1.3124943E-3,-1.8479824E-3,3.88402E-1,3.840351E-1,3.866272E-1,
1570694842,2019-10-10 08:07:22.352,-5.578995E-4,-8.311033E-3,-1.7414093E-3,-2.0406246E-3,3.8415337E-1,3.8177395E-1,3.9319992E-1,
1570694902,2019-10-10 08:08:22.352,1.1298656E-3,-6.080866E-3,8.134842E-4,2.9802322E-4,3.963108E-1,3.8933563E-1,3.950405E-1,
1570694962,2019-10-10 08:09:22.352,-8.6188316E-4,-8.45623E-3,-1.7478466E-3,-2.3674965E-3,3.8860798E-1,3.814621E-1,3.9312363E-1,
1570695022,2019-10-10 08:10:22.352,-4.6658516E-4,-7.4357986E-3,-1.2171268E-3,-1.6419888E-3,3.8861847E-1,3.816471E-1,3.9235973E-1,
1570695082,2019-10-10 08:11:22.354,1.6186237E-3,-5.7199E-3,9.1576576E-4,4.7159195E-4,3.946247E-1,3.87537E-1,3.9669704E-1,
1570695142,2019-10-10 08:12:22.352,-2.5467873E-3,-1.0403633E-2,-3.9491653E-3,-4.266739E-3,3.8151455E-1,3.7692738E-1,3.8807106E-1,
1570695202,2019-10-10 08:13:22.352,-4.324913E-4,-8.723736E-3,-1.7864704E-3,-2.0103455E-3,3.8904095E-1,3.854866E-1,3.8712406E-1,
1570695262,2019-10-10 08:14:22.352,-1.7356873E-4,-8.340836E-3,-1.7633438E-3,-1.7066002E-3,3.867464E-1,3.804922E-1,3.8932228E-1,
1570695322,2019-10-10 08:15:22.386,1.66893E-5,-7.4579716E-3,-9.913445E-4,-1.5070438E-3,3.8812542E-1,3.8070488E-1,3.8983917E-1,
1570695382,2019-10-10 08:16:22.385,-5.6123734E-4,-8.136749E-3,-1.5852451E-3,-2.108097E-3,3.8925266E-1,3.8282585E-1,3.9084244E-1,
1570695442,2019-10-10 08:17:22.352,-2.7573109E-3,-1.0311127E-2,-3.5471916E-3,-4.0636063E-3,3.8044357E-1,3.7599945E-1,3.8678455E-1,
1570695502,2019-10-10 08:18:22.352,-7.9607964E-4,-8.624792E-3,-2.1624565E-3,-2.329588E-3,3.8761997E-1,3.8576412E-1,3.9408207E-1,
1570695562,2019-10-10 08:19:22.352,1.7652512E-3,-6.3459873E-3,1.4615059E-4,2.155304E-4,4.0102386E-1,3.918867E-1,3.931322E-1,
1570695622,2019-10-10 08:20:22.352,-3.4427643E-4,-8.221865E-3,-2.0234585E-3,-2.6197433E-3,3.8631916E-1,3.8078117E-1,3.9164448E-1,
1570695682,2019-10-10 08:21:22.352,1.3103485E-3,-6.3672066E-3,6.968975E-4,4.386902E-4,3.931923E-1,3.8904095E-1,3.9324188E-1,
1570695742,2019-10-10 08:22:22.352,-2.8657913E-4,-8.280277E-3,-1.7948151E-3,-2.1641254E-3,3.8760853E-1,3.8293076E-1,3.8800526E-1,
1570695802,2019-10-10 08:23:22.352,-1.4858246E-3,-8.676052E-3,-2.011776E-3,-2.6783943E-3,3.9397717E-1,3.8457012E-1,3.922634E-1,
1570695862,2019-10-10 08:24:22.354,-2.1605492E-3,-1.0234833E-2,-3.8933754E-3,-3.7052631E-3,3.82967E-1,3.790846E-1,3.858204E-1,
1570695922,2019-10-10 08:25:22.354,-2.0580292E-3,-1.0352135E-2,-3.3848286E-3,-4.188299E-3,3.8272953E-1,3.7869358E-1,3.794403E-1,
1570695982,2019-10-10 08:26:22.352,-2.584219E-3,-1.0311127E-2,-3.50976E-3,-4.0991306E-3,3.8904095E-1,3.7677765E-1,3.7656975E-1,
1570696042,2019-10-10 08:27:22.354,-2.567768E-3,-1.0689974E-2,-3.652811E-3,-4.011631E-3,3.791561E-1,3.764162E-1,3.8299942E-1,
1570696102,2019-10-10 08:28:22.353,-9.2458725E-4,-8.820534E-3,-1.8370152E-3,-2.619028E-3,3.8891792E-1,3.81382E-1,3.8704586E-1,
1570696162,2019-10-10 08:29:22.356,7.5149536E-4,-7.839441E-3,-1.2078285E-3,-1.3933182E-3,3.878088E-1,3.8265038E-1,3.9055252E-1,
1570696222,2019-10-10 08:30:22.354,0.0E0,-7.944584E-3,-1.1138916E-3,-1.8568039E-3,3.853712E-1,3.7971497E-1,3.896408E-1,
1570696282,2019-10-10 08:31:22.354,1.3113022E-5,-8.178949E-3,-1.2514591E-3,-1.4665127E-3,3.9050865E-1,3.893938E-1,3.9717197E-1,
1570696342,2019-10-10 08:32:22.354,-1.2705326E-3,-8.458853E-3,-1.9309521E-3,-1.9717216E-3,3.9421082E-1,3.8729668E-1,3.9139557E-1,
1570696402,2019-10-10 08:33:22.353,-3.2663345E-4,-8.4786415E-3,-1.8877983E-3,-2.2165775E-3,3.8770294E-1,3.8464642E-1,3.9500713E-1,
1570696462,2019-10-10 08:34:22.353,2.043724E-3,-5.923271E-3,6.532669E-4,2.8562546E-4,3.9263535E-1,3.8728905E-1,3.9888E-1,
1570696522,2019-10-10 08:35:22.353,-3.1251907E-3,-1.0262251E-2,-3.7004948E-3,-4.263878E-3,3.810463E-1,3.729639E-1,3.876686E-1,
1570696582,2019-10-10 08:36:22.375,1.2946129E-3,-6.052017E-3,7.1668625E-4,4.4584274E-5,3.930874E-1,3.894844E-1,3.974619E-1,
1570696642,2019-10-10 08:37:22.354,2.1994114E-3,-5.7082176E-3,7.431507E-4,1.3899803E-4,3.9691257E-1,3.8667107E-1,3.9368534E-1,
1570696702,2019-10-10 08:38:22.354,-4.1866302E-4,-7.815599E-3,-9.446144E-4,-1.427412E-3,3.88628E-1,3.847866E-1,3.9138222E-1,
1570696762,2019-10-10 08:39:22.354,1.37496E-3,-6.3581467E-3,4.4441223E-4,6.3562393E-4,3.9382076E-1,3.8667488E-1,3.9419174E-1,
1570696822,2019-10-10 08:40:22.353,1.6927719E-3,-6.177664E-3,3.7574768E-4,3.8146973E-5,3.950014E-1,3.9645672E-1,3.9518642E-1,
1570696882,2019-10-10 08:41:22.352,1.718998E-4,-7.617712E-3,-1.3723373E-3,-1.2700558E-3,3.8799095E-1,3.845358E-1,3.8856506E-1,
1570696942,2019-10-10 08:42:22.353,-2.562046E-3,-1.0092974E-2,-3.7283897E-3,-4.2107105E-3,3.783846E-1,3.7715912E-1,3.807516E-1,
1570697002,2019-10-10 08:43:22.352,-1.7356873E-4,-8.242369E-3,-9.148121E-4,-1.4812946E-3,3.8824463E-1,3.83214E-1,3.8974285E-1,
1570697062,2019-10-10 08:44:22.353,-3.0469894E-4,-8.2502365E-3,-8.8500977E-4,-1.2252331E-3,3.8621712E-1,3.821125E-1,3.9276314E-1,
1570697122,2019-10-10 08:45:22.352,4.3606758E-4,-8.699179E-3,-2.4311543E-3,-2.329588E-3,3.9041042E-1,3.8347054E-1,3.8856697E-1,
1570697182,2019-10-10 08:46:22.352,-6.604195E-5,-8.542061E-3,-1.7733574E-3,-2.621889E-3,3.888998E-1,3.853016E-1,3.9212036E-1,
1570697242,2019-10-10 08:47:22.352,-2.08807E-3,-1.005888E-2,-3.2281876E-3,-3.307581E-3,3.8201046E-1,3.7469673E-1,3.8066292E-1,
1570697302,2019-10-10 08:48:22.353,-4.4584274E-5,-7.7359676E-3,-1.131773E-3,-1.3210773E-3,3.8948154E-1,3.8494492E-1,3.9476776E-1,
1570697362,2019-10-10 08:49:22.352,-1.3136864E-3,-8.4095E-3,-1.594305E-3,-2.6197433E-3,3.9614296E-1,3.8499355E-1,3.9388657E-1,
1570697422,2019-10-10 08:50:22.352,1.5425682E-3,-5.678892E-3,6.7305565E-4,4.3606758E-4,3.9329624E-1,3.8739395E-1,3.9805698E-1,
1570697482,2019-10-10 08:51:22.367,1.6639233E-3,-6.183386E-3,4.7564507E-4,1.3566017E-4,3.916111E-1,3.903103E-1,4.0071583E-1,
1570697542,2019-10-10 08:52:22.352,-2.2287369E-3,-9.875536E-3,-3.5293102E-3,-4.0462017E-3,3.885708E-1,3.8571262E-1,3.8988972E-1,
1570697602,2019-10-10 08:53:22.352,1.2280941E-3,-5.8619976E-3,3.848076E-4,4.813671E-4,3.9485836E-1,3.910141E-1,3.9893055E-1,
1570697662,2019-10-10 08:54:22.352,1.5544891E-4,-8.046865E-3,-8.468628E-4,-1.6751289E-3,3.909216E-1,3.885975E-1,4.0016174E-1,
1570697722,2019-10-10 08:55:22.352,-2.4802685E-3,-1.0276318E-2,-3.4704208E-3,-3.7727356E-3,3.8238525E-1,3.7526417E-1,3.868885E-1,
1570697782,2019-10-10 08:56:22.352,-2.3241043E-3,-1.0375261E-2,-3.7386417E-3,-4.1713715E-3,3.8334465E-1,3.7676716E-1,3.870821E-1,
1570697842,2019-10-10 08:57:22.352,-3.976822E-4,-8.798122E-3,-1.6958714E-3,-1.9733906E-3,3.8901043E-1,3.815794E-1,3.908453E-1,
1570697902,2019-10-10 08:58:22.352,1.632452E-3,-5.813122E-3,5.044937E-4,3.2520294E-4,3.9960575E-1,3.9040375E-1,4.0135956E-1,
1570697962,2019-10-10 08:59:22.352,1.994133E-3,-5.966425E-3,4.0483475E-4,1.7929077E-4,3.9349842E-1,3.9020538E-1,3.975258E-1,
