Time(longsecs),Time(UTC),Earth Location,GPS Receiver Status,GPS Satellites Used,GPS PDOP,GPS TDOP,Timing Status,Timing Phase Lock,Timing Uncertainty(ns),DAC Count,Timing Error(ns),GPS Last Update Time,
1570748422,2019-10-10 23:00:22.384,47.644954N 0.586941E 185m,Off,5,3.667083,2.4352684,Time OK,Free running,1400,8921,0,2019-10-10 22:58:49.000000000,
1570748482,2019-10-10 23:01:22.352,47.644954N 0.586941E 185m,Off,5,3.667083,2.4352684,Time OK,Free running,2400,8921,0,2019-10-10 22:58:49.000000000,
1570748542,2019-10-10 23:02:22.352,47.644954N 0.586941E 185m,Off,5,3.667083,2.4352684,Time OK,Free running,3800,8921,0,2019-10-10 22:58:49.000000000,
1570748602,2019-10-10 23:03:22.352,47.644954N 0.586941E 185m,Off,5,3.667083,2.4352684,Time OK,Free running,5500,8921,0,2019-10-10 22:58:49.000000000,
1570748662,2019-10-10 23:04:22.352,47.644954N 0.586941E 185m,Off,5,3.667083,2.4352684,Time OK,Free running,6900,8921,0,2019-10-10 22:58:49.000000000,
1570748722,2019-10-10 23:05:22.352,47.644954N 0.586941E 185m,Off,5,3.667083,2.4352684,Time OK,Free running,8100,8921,0,2019-10-10 22:58:49.000000000,
1570748782,2019-10-10 23:06:22.355,47.644954N 0.586941E 185m,Off,5,3.667083,2.4352684,Time OK,Free running,9200,8921,0,2019-10-10 22:58:49.000000000,
1570748842,2019-10-10 23:07:22.352,47.644954N 0.586941E 185m,Off,5,3.667083,2.4352684,Time OK,Free running,10200,8921,0,2019-10-10 22:58:49.000000000,
1570748902,2019-10-10 23:08:22.352,47.644954N 0.586941E 185m,Off,5,3.667083,2.4352684,Time OK,Free running,11300,8921,0,2019-10-10 22:58:49.000000000,
1570748962,2019-10-10 23:09:22.352,47.644954N 0.586941E 185m,Off,5,3.667083,2.4352684,Time OK,Free running,12600,8921,0,2019-10-10 22:58:49.000000000,
1570749022,2019-10-10 23:10:22.352,47.644954N 0.586941E 185m,Off,5,3.667083,2.4352684,Time OK,Free running,13800,8921,0,2019-10-10 22:58:49.000000000,
1570749082,2019-10-10 23:11:22.352,47.644954N 0.586941E 185m,Off,5,3.667083,2.4352684,Time OK,Free running,14800,8921,0,2019-10-10 22:58:49.000000000,
1570749142,2019-10-10 23:12:22.352,47.644954N 0.586941E 185m,Off,5,3.667083,2.4352684,Time OK,Free running,15800,8921,0,2019-10-10 22:58:49.000000000,
1570749202,2019-10-10 23:13:22.352,47.644954N 0.586941E 185m,Off,5,3.667083,2.4352684,Time OK,Free running,16700,8921,0,2019-10-10 22:58:49.000000000,
1570749262,2019-10-10 23:14:22.352,47.644954N 0.586941E 185m,Off,5,3.667083,2.4352684,Time OK,Free running,17600,8921,0,2019-10-10 22:58:49.000000000,
1570749322,2019-10-10 23:15:22.352,47.644954N 0.586941E 185m,Off,5,3.667083,2.4352684,Time OK,Free running,18600,8921,0,2019-10-10 22:58:49.000000000,
1570749382,2019-10-10 23:16:22.352,47.644954N 0.586941E 185m,Off,5,3.667083,2.4352684,Time OK,Free running,19500,8921,0,2019-10-10 22:58:49.000000000,
1570749442,2019-10-10 23:17:22.352,47.644954N 0.586941E 185m,Off,5,3.667083,2.4352684,Time OK,Free running,20700,8921,0,2019-10-10 22:58:49.000000000,
1570749502,2019-10-10 23:18:22.383,47.644954N 0.586941E 185m,Off,5,3.667083,2.4352684,Time OK,Free running,21800,8921,0,2019-10-10 22:58:49.000000000,
1570749562,2019-10-10 23:19:22.352,47.644954N 0.586941E 185m,Off,5,3.667083,2.4352684,Time OK,Free running,22700,8921,0,2019-10-10 22:58:49.000000000,
1570749622,2019-10-10 23:20:22.352,47.644954N 0.586941E 185m,Off,5,3.667083,2.4352684,Time OK,Free running,23700,8921,0,2019-10-10 22:58:49.000000000,
1570749682,2019-10-10 23:21:22.352,47.644954N 0.586941E 185m,Off,5,3.667083,2.4352684,Time OK,Free running,24600,8921,0,2019-10-10 22:58:49.000000000,
1570749742,2019-10-10 23:22:22.352,47.644954N 0.586941E 185m,Off,5,3.667083,2.4352684,Time OK,Free running,25500,8921,0,2019-10-10 22:58:49.000000000,
1570749802,2019-10-10 23:23:22.384,47.644954N 0.586941E 185m,Off,5,3.667083,2.4352684,Time OK,Free running,26500,8921,0,2019-10-10 22:58:49.000000000,
1570749862,2019-10-10 23:24:22.352,47.644954N 0.586941E 185m,Off,5,3.667083,2.4352684,Time OK,Free running,27300,8921,0,2019-10-10 22:58:49.000000000,
1570749922,2019-10-10 23:25:22.352,47.644954N 0.586941E 185m,Off,5,3.667083,2.4352684,Time OK,Free running,28300,8921,0,2019-10-10 22:58:49.000000000,
1570749982,2019-10-10 23:26:22.354,47.644954N 0.586941E 185m,Off,5,3.667083,2.4352684,Time OK,Free running,29400,8921,0,2019-10-10 22:58:49.000000000,
1570750042,2019-10-10 23:27:22.352,47.644954N 0.586941E 185m,Off,5,3.667083,2.4352684,Time OK,Free running,30400,8921,0,2019-10-10 22:58:49.000000000,
1570750102,2019-10-10 23:28:22.352,47.644954N 0.586941E 185m,Off,5,3.667083,2.4352684,Time OK,Free running,31200,8921,0,2019-10-10 22:58:49.000000000,
1570750162,2019-10-10 23:29:22.354,47.644954N 0.586941E 185m,Off,5,3.667083,2.4352684,Time OK,Free running,32100,8921,0,2019-10-10 22:58:49.000000000,
1570750222,2019-10-10 23:30:22.352,47.644954N 0.586941E 185m,Off,5,3.667083,2.4352684,Time OK,Free running,33000,8921,0,2019-10-10 22:58:49.000000000,
1570750282,2019-10-10 23:31:22.352,47.644954N 0.586941E 185m,Off,5,3.667083,2.4352684,Time OK,Free running,33800,8921,0,2019-10-10 22:58:49.000000000,
1570750342,2019-10-10 23:32:22.352,47.644954N 0.586941E 185m,Off,5,3.667083,2.4352684,Time OK,Free running,34800,8921,0,2019-10-10 22:58:49.000000000,
1570750402,2019-10-10 23:33:22.352,47.644954N 0.586941E 185m,Off,5,3.667083,2.4352684,Time OK,Free running,35700,8921,0,2019-10-10 22:58:49.000000000,
1570750462,2019-10-10 23:34:22.352,47.644954N 0.586941E 185m,Off,5,3.667083,2.4352684,Time OK,Free running,36600,8921,0,2019-10-10 22:58:49.000000000,
1570750522,2019-10-10 23:35:22.352,47.644954N 0.586941E 185m,Off,5,3.667083,2.4352684,Time OK,Free running,37500,8921,0,2019-10-10 22:58:49.000000000,
1570750582,2019-10-10 23:36:22.352,47.644954N 0.586941E 185m,Off,5,3.667083,2.4352684,Time OK,Free running,38600,8921,0,2019-10-10 22:58:49.000000000,
1570750642,2019-10-10 23:37:22.352,47.644954N 0.586941E 185m,Off,5,3.667083,2.4352684,Time OK,Free running,39400,8921,0,2019-10-10 22:58:49.000000000,
1570750702,2019-10-10 23:38:22.354,47.644954N 0.586941E 185m,Off,5,3.667083,2.4352684,Time OK,Free running,40300,8921,0,2019-10-10 22:58:49.000000000,
1570750762,2019-10-10 23:39:22.359,47.644954N 0.586941E 185m,Off,5,3.667083,2.4352684,Time OK,Free running,41200,8921,0,2019-10-10 22:58:49.000000000,
1570750822,2019-10-10 23:40:22.352,47.644954N 0.586941E 185m,Off,5,3.667083,2.4352684,Time OK,Free running,42100,8921,0,2019-10-10 22:58:49.000000000,
1570750882,2019-10-10 23:41:22.352,47.644954N 0.586941E 185m,Off,5,3.667083,2.4352684,Time OK,Free running,43000,8921,0,2019-10-10 22:58:49.000000000,
1570750942,2019-10-10 23:42:22.352,47.644954N 0.586941E 185m,Off,5,3.667083,2.4352684,Time OK,Free running,43800,8921,0,2019-10-10 22:58:49.000000000,
1570751002,2019-10-10 23:43:22.352,47.644954N 0.586941E 185m,Off,5,3.667083,2.4352684,Time OK,Free running,44700,8921,0,2019-10-10 22:58:49.000000000,
1570751062,2019-10-10 23:44:22.352,47.644954N 0.586941E 185m,Off,5,3.667083,2.4352684,Time OK,Free running,45700,8921,0,2019-10-10 22:58:49.000000000,
1570751122,2019-10-10 23:45:22.352,47.644954N 0.586941E 185m,Off,5,3.667083,2.4352684,Time OK,Free running,46500,8921,0,2019-10-10 22:58:49.000000000,
1570751182,2019-10-10 23:46:22.352,47.644954N 0.586941E 185m,Off,5,3.667083,2.4352684,Time OK,Free running,47300,8921,0,2019-10-10 22:58:49.000000000,
1570751242,2019-10-10 23:47:22.352,47.644954N 0.586941E 185m,Off,5,3.667083,2.4352684,Time OK,Free running,48200,8921,0,2019-10-10 22:58:49.000000000,
1570751302,2019-10-10 23:48:22.354,47.644954N 0.586941E 185m,Off,5,3.667083,2.4352684,Time OK,Free running,49300,8921,0,2019-10-10 22:58:49.000000000,
1570751362,2019-10-10 23:49:22.352,47.644954N 0.586941E 185m,Off,5,3.667083,2.4352684,Time OK,Free running,50200,8921,0,2019-10-10 22:58:49.000000000,
1570751422,2019-10-10 23:50:22.391,47.644954N 0.586941E 185m,Doing fixes,4,2.522292,0.5265145,Time OK,Coarse lock,100,8474,5000,2019-10-10 23:50:19.000000000,
1570751482,2019-10-10 23:51:22.352,47.644954N 0.586941E 185m,Doing fixes,6,3.2488651,2.1145675,Time OK,Fine lock,100,8913,0,2019-10-10 23:51:19.000000000,
1570751542,2019-10-10 23:52:22.352,47.644954N 0.586941E 185m,Off,6,3.2104461,2.1314282,Time OK,Free running,200,8912,0,2019-10-10 23:52:09.000000000,
1570751602,2019-10-10 23:53:22.364,47.644954N 0.586941E 185m,Off,6,3.2104461,2.1314282,Time OK,Free running,1100,8912,0,2019-10-10 23:52:09.000000000,
1570751662,2019-10-10 23:54:22.390,47.644954N 0.586941E 185m,Off,6,3.2104461,2.1314282,Time OK,Free running,2400,8912,0,2019-10-10 23:52:09.000000000,
1570751722,2019-10-10 23:55:22.352,47.644954N 0.586941E 185m,Off,6,3.2104461,2.1314282,Time OK,Free running,3400,8912,0,2019-10-10 23:52:09.000000000,
1570751782,2019-10-10 23:56:22.352,47.644954N 0.586941E 185m,Off,6,3.2104461,2.1314282,Time OK,Free running,4200,8912,0,2019-10-10 23:52:09.000000000,
1570751842,2019-10-10 23:57:22.352,47.644954N 0.586941E 185m,Off,6,3.2104461,2.1314282,Time OK,Free running,5400,8912,0,2019-10-10 23:52:09.000000000,
1570751902,2019-10-10 23:58:22.352,47.644954N 0.586941E 185m,Off,6,3.2104461,2.1314282,Time OK,Free running,6600,8912,0,2019-10-10 23:52:09.000000000,
1570751962,2019-10-10 23:59:22.352,47.644954N 0.586941E 185m,Off,6,3.2104461,2.1314282,Time OK,Free running,7700,8912,0,2019-10-10 23:52:09.000000000,
