Time(longsecs),Time(UTC),Earth Location,GPS Receiver Status,GPS Satellites Used,GPS PDOP,GPS TDOP,Timing Status,Timing Phase Lock,Timing Uncertainty(ns),DAC Count,Timing Error(ns),GPS Last Update Time,
1570690822,2019-10-10 07:00:22.352,47.644942N 0.586852E 197m,Off,6,3.3608825,2.3355813,Time OK,Free running,19300,8850,0,2019-10-10 06:40:09.000000000,
1570690882,2019-10-10 07:01:22.352,47.644942N 0.586852E 197m,Off,6,3.3608825,2.3355813,Time OK,Free running,20100,8850,0,2019-10-10 06:40:09.000000000,
1570690942,2019-10-10 07:02:22.352,47.644942N 0.586852E 197m,Off,6,3.3608825,2.3355813,Time OK,Free running,21100,8850,0,2019-10-10 06:40:09.000000000,
1570691002,2019-10-10 07:03:22.352,47.644942N 0.586852E 197m,Off,6,3.3608825,2.3355813,Time OK,Free running,22000,8850,0,2019-10-10 06:40:09.000000000,
1570691062,2019-10-10 07:04:22.352,47.644942N 0.586852E 197m,Off,6,3.3608825,2.3355813,Time OK,Free running,23100,8850,0,2019-10-10 06:40:09.000000000,
1570691122,2019-10-10 07:05:22.354,47.644942N 0.586852E 197m,Off,6,3.3608825,2.3355813,Time OK,Free running,24200,8850,0,2019-10-10 06:40:09.000000000,
1570691182,2019-10-10 07:06:22.352,47.644942N 0.586852E 197m,Off,6,3.3608825,2.3355813,Time OK,Free running,25200,8850,0,2019-10-10 06:40:09.000000000,
1570691242,2019-10-10 07:07:22.352,47.644942N 0.586852E 197m,Off,6,3.3608825,2.3355813,Time OK,Free running,26100,8850,0,2019-10-10 06:40:09.000000000,
1570691302,2019-10-10 07:08:22.352,47.644942N 0.586852E 197m,Off,6,3.3608825,2.3355813,Time OK,Free running,27000,8850,0,2019-10-10 06:40:09.000000000,
1570691362,2019-10-10 07:09:22.352,47.644942N 0.586852E 197m,Off,6,3.3608825,2.3355813,Time OK,Free running,28100,8850,0,2019-10-10 06:40:09.000000000,
1570691422,2019-10-10 07:10:22.352,47.644942N 0.586852E 197m,Off,6,3.3608825,2.3355813,Time OK,Free running,29000,8850,0,2019-10-10 06:40:09.000000000,
1570691482,2019-10-10 07:11:22.352,47.644942N 0.586852E 197m,Off,6,3.3608825,2.3355813,Time OK,Free running,29800,8850,0,2019-10-10 06:40:09.000000000,
1570691542,2019-10-10 07:12:22.352,47.644942N 0.586852E 197m,Off,6,3.3608825,2.3355813,Time OK,Free running,30700,8850,0,2019-10-10 06:40:09.000000000,
1570691602,2019-10-10 07:13:22.352,47.644942N 0.586852E 197m,Off,6,3.3608825,2.3355813,Time OK,Free running,31600,8850,0,2019-10-10 06:40:09.000000000,
1570691662,2019-10-10 07:14:22.352,47.644942N 0.586852E 197m,Off,6,3.3608825,2.3355813,Time OK,Free running,32500,8850,0,2019-10-10 06:40:09.000000000,
1570691722,2019-10-10 07:15:22.354,47.644942N 0.586852E 197m,Off,6,3.3608825,2.3355813,Time OK,Free running,33500,8850,0,2019-10-10 06:40:09.000000000,
1570691782,2019-10-10 07:16:22.352,47.644942N 0.586852E 197m,Off,6,3.3608825,2.3355813,Time OK,Free running,34300,8850,0,2019-10-10 06:40:09.000000000,
1570691842,2019-10-10 07:17:22.352,47.644942N 0.586852E 197m,Off,6,3.3608825,2.3355813,Time OK,Free running,35100,8850,0,2019-10-10 06:40:09.000000000,
1570691902,2019-10-10 07:18:22.352,47.644942N 0.586852E 197m,Off,6,3.3608825,2.3355813,Time OK,Free running,36200,8850,0,2019-10-10 06:40:09.000000000,
1570691962,2019-10-10 07:19:22.352,47.644942N 0.586852E 197m,Off,6,3.3608825,2.3355813,Time OK,Free running,37200,8850,0,2019-10-10 06:40:09.000000000,
1570692022,2019-10-10 07:20:22.352,47.644942N 0.586852E 197m,Off,6,3.3608825,2.3355813,Time OK,Free running,38000,8850,0,2019-10-10 06:40:09.000000000,
1570692082,2019-10-10 07:21:22.352,47.644942N 0.586852E 197m,Off,6,3.3608825,2.3355813,Time OK,Free running,38900,8850,0,2019-10-10 06:40:09.000000000,
1570692142,2019-10-10 07:22:22.352,47.644942N 0.586852E 197m,Off,6,3.3608825,2.3355813,Time OK,Free running,39700,8850,0,2019-10-10 06:40:09.000000000,
1570692202,2019-10-10 07:23:22.352,47.644942N 0.586852E 197m,Off,6,3.3608825,2.3355813,Time OK,Free running,40700,8850,0,2019-10-10 06:40:09.000000000,
1570692262,2019-10-10 07:24:22.352,47.644942N 0.586852E 197m,Off,6,3.3608825,2.3355813,Time OK,Free running,41600,8850,0,2019-10-10 06:40:09.000000000,
1570692322,2019-10-10 07:25:22.352,47.644942N 0.586852E 197m,Off,6,3.3608825,2.3355813,Time OK,Free running,42400,8850,0,2019-10-10 06:40:09.000000000,
1570692382,2019-10-10 07:26:22.352,47.644942N 0.586852E 197m,Off,6,3.3608825,2.3355813,Time OK,Free running,43400,8850,0,2019-10-10 06:40:09.000000000,
1570692442,2019-10-10 07:27:22.352,47.644942N 0.586852E 197m,Off,6,3.3608825,2.3355813,Time OK,Free running,44700,8850,0,2019-10-10 06:40:09.000000000,
1570692502,2019-10-10 07:28:22.352,47.644942N 0.586852E 197m,Off,6,3.3608825,2.3355813,Time OK,Free running,45600,8850,0,2019-10-10 06:40:09.000000000,
1570692562,2019-10-10 07:29:22.352,47.644942N 0.586852E 197m,Off,6,3.3608825,2.3355813,Time OK,Free running,46600,8850,0,2019-10-10 06:40:09.000000000,
1570692622,2019-10-10 07:30:22.352,47.644942N 0.586852E 197m,Off,6,3.3608825,2.3355813,Time OK,Free running,47900,8850,0,2019-10-10 06:40:09.000000000,
1570692682,2019-10-10 07:31:22.352,47.644942N 0.586852E 197m,Off,6,3.3608825,2.3355813,Time OK,Free running,48700,8850,0,2019-10-10 06:40:09.000000000,
1570692742,2019-10-10 07:32:22.352,47.644942N 0.586852E 197m,Off,6,3.3608825,2.3355813,Time OK,Free running,49600,8850,0,2019-10-10 06:40:09.000000000,
1570692802,2019-10-10 07:33:22.352,47.644942N 0.586852E 197m,Off,6,3.3608825,2.3355813,Time OK,Free running,50700,8850,0,2019-10-10 06:40:09.000000000,
1570692862,2019-10-10 07:34:22.352,47.644942N 0.586852E 197m,No satellites,5,3.1867201,2.139383,Time OK,Free running,52000,8850,0,2019-10-10 07:34:19.000000000,
1570692922,2019-10-10 07:35:22.352,47.644942N 0.586852E 197m,Off,7,2.1997633,1.2433301,Time OK,Free running,100,8848,0,2019-10-10 07:35:19.000000000,
1570692982,2019-10-10 07:36:22.353,47.644942N 0.586852E 197m,Off,7,2.1997633,1.2433301,Time OK,Free running,1000,8848,0,2019-10-10 07:35:19.000000000,
1570693042,2019-10-10 07:37:22.354,47.644942N 0.586852E 197m,Off,7,2.1997633,1.2433301,Time OK,Free running,2200,8848,0,2019-10-10 07:35:19.000000000,
1570693102,2019-10-10 07:38:22.352,47.644942N 0.586852E 197m,Off,7,2.1997633,1.2433301,Time OK,Free running,3500,8848,0,2019-10-10 07:35:19.000000000,
1570693162,2019-10-10 07:39:22.354,47.644942N 0.586852E 197m,Off,7,2.1997633,1.2433301,Time OK,Free running,4700,8848,0,2019-10-10 07:35:19.000000000,
1570693222,2019-10-10 07:40:22.352,47.644942N 0.586852E 197m,Off,7,2.1997633,1.2433301,Time OK,Free running,6000,8848,0,2019-10-10 07:35:19.000000000,
1570693282,2019-10-10 07:41:22.352,47.644942N 0.586852E 197m,Off,7,2.1997633,1.2433301,Time OK,Free running,7500,8848,0,2019-10-10 07:35:19.000000000,
1570693342,2019-10-10 07:42:22.352,47.644942N 0.586852E 197m,Off,7,2.1997633,1.2433301,Time OK,Free running,8600,8848,0,2019-10-10 07:35:19.000000000,
1570693402,2019-10-10 07:43:22.352,47.644942N 0.586852E 197m,Off,7,2.1997633,1.2433301,Time OK,Free running,9700,8848,0,2019-10-10 07:35:19.000000000,
1570693462,2019-10-10 07:44:22.352,47.644942N 0.586852E 197m,Off,7,2.1997633,1.2433301,Time OK,Free running,11000,8848,0,2019-10-10 07:35:19.000000000,
1570693522,2019-10-10 07:45:22.352,47.644942N 0.586852E 197m,Off,7,2.1997633,1.2433301,Time OK,Free running,12100,8848,0,2019-10-10 07:35:19.000000000,
1570693582,2019-10-10 07:46:22.354,47.644942N 0.586852E 197m,Off,7,2.1997633,1.2433301,Time OK,Free running,13300,8848,0,2019-10-10 07:35:19.000000000,
1570693642,2019-10-10 07:47:22.353,47.644942N 0.586852E 197m,Off,7,2.1997633,1.2433301,Time OK,Free running,14600,8848,0,2019-10-10 07:35:19.000000000,
1570693702,2019-10-10 07:48:22.352,47.644942N 0.586852E 197m,Off,7,2.1997633,1.2433301,Time OK,Free running,15800,8848,0,2019-10-10 07:35:19.000000000,
1570693762,2019-10-10 07:49:22.352,47.644942N 0.586852E 197m,Off,7,2.1997633,1.2433301,Time OK,Free running,16900,8848,0,2019-10-10 07:35:19.000000000,
1570693822,2019-10-10 07:50:22.353,47.644942N 0.586852E 197m,Off,7,2.1997633,1.2433301,Time OK,Free running,18300,8848,0,2019-10-10 07:35:19.000000000,
1570693882,2019-10-10 07:51:22.386,47.644942N 0.586852E 197m,Off,7,2.1997633,1.2433301,Time OK,Free running,19700,8848,0,2019-10-10 07:35:19.000000000,
1570693942,2019-10-10 07:52:22.352,47.644942N 0.586852E 197m,Off,7,2.1997633,1.2433301,Time OK,Free running,20900,8848,0,2019-10-10 07:35:19.000000000,
1570694002,2019-10-10 07:53:22.352,47.644942N 0.586852E 197m,Off,7,2.1997633,1.2433301,Time OK,Free running,22300,8848,0,2019-10-10 07:35:19.000000000,
1570694062,2019-10-10 07:54:22.352,47.644942N 0.586852E 197m,Off,7,2.1997633,1.2433301,Time OK,Free running,23600,8848,0,2019-10-10 07:35:19.000000000,
1570694122,2019-10-10 07:55:22.354,47.644942N 0.586852E 197m,Off,7,2.1997633,1.2433301,Time OK,Free running,24800,8848,0,2019-10-10 07:35:19.000000000,
1570694182,2019-10-10 07:56:22.352,47.644942N 0.586852E 197m,Off,7,2.1997633,1.2433301,Time OK,Free running,26100,8848,0,2019-10-10 07:35:19.000000000,
1570694242,2019-10-10 07:57:22.352,47.644942N 0.586852E 197m,Off,7,2.1997633,1.2433301,Time OK,Free running,27500,8848,0,2019-10-10 07:35:19.000000000,
1570694302,2019-10-10 07:58:22.354,47.644942N 0.586852E 197m,Off,7,2.1997633,1.2433301,Time OK,Free running,28900,8848,0,2019-10-10 07:35:19.000000000,
1570694362,2019-10-10 07:59:22.352,47.644942N 0.586852E 197m,Off,7,2.1997633,1.2433301,Time OK,Free running,30200,8848,0,2019-10-10 07:35:19.000000000,
