Time(longsecs),Time(UTC),Supply Voltage(mV),Temperature(&deg;C),NMX Bus Current(mA),Sensor Current(mA),Serial Port Current(mA),Controller Current(mA),Digitizer Current(mA),
1570716022,2019-10-10 14:00:22.352,16515,3.3703644E1,0,7,0,54,34,
1570716082,2019-10-10 14:01:22.352,16529,3.3621613E1,0,9,0,54,35,
1570716142,2019-10-10 14:02:22.352,16502,3.379422E1,0,9,0,57,39,
1570716202,2019-10-10 14:03:22.352,16502,3.3592834E1,0,7,0,56,36,
1570716262,2019-10-10 14:04:22.352,16502,3.3756927E1,0,9,0,56,36,
1570716322,2019-10-10 14:05:22.352,16502,3.377823E1,0,9,0,57,39,
1570716382,2019-10-10 14:06:22.352,16515,3.3734528E1,0,9,0,56,36,
1570716442,2019-10-10 14:07:22.353,16502,3.3559784E1,0,8,0,56,36,
1570716502,2019-10-10 14:08:22.352,16515,3.372815E1,0,9,0,56,40,
1570716562,2019-10-10 14:09:22.352,16488,3.390927E1,0,7,0,55,35,
1570716622,2019-10-10 14:10:22.352,16502,3.3734528E1,0,9,0,64,36,
1570716682,2019-10-10 14:11:22.353,16502,3.3812317E1,0,9,0,63,38,
1570716742,2019-10-10 14:12:22.352,16502,3.4050995E1,0,9,0,70,35,
1570716802,2019-10-10 14:13:22.352,16515,3.3852814E1,0,6,0,55,36,
1570716862,2019-10-10 14:14:22.352,16502,3.370685E1,0,9,0,57,36,
1570716922,2019-10-10 14:15:22.352,16502,3.400412E1,0,9,0,54,39,
1570716982,2019-10-10 14:16:22.352,16502,3.3796356E1,0,10,0,57,38,
1570717042,2019-10-10 14:17:22.353,16502,3.391034E1,0,11,0,56,35,
1570717102,2019-10-10 14:18:22.352,16502,3.408615E1,0,9,0,57,35,
1570717162,2019-10-10 14:19:22.352,16502,3.395404E1,0,12,0,56,36,
1570717222,2019-10-10 14:20:22.352,16515,3.405951E1,0,8,0,55,40,
1570717282,2019-10-10 14:21:22.352,16502,3.4117065E1,0,4,0,54,36,
1570717342,2019-10-10 14:22:22.354,16502,3.4129852E1,0,9,0,56,34,
1570717402,2019-10-10 14:23:22.352,16502,3.4102142E1,0,8,0,56,35,
1570717462,2019-10-10 14:24:22.352,16502,3.419696E1,0,6,5,54,38,
1570717522,2019-10-10 14:25:22.384,16502,3.431311E1,0,10,0,56,39,
1570717582,2019-10-10 14:26:22.355,16475,3.4173523E1,0,3,0,82,34,
1570717642,2019-10-10 14:27:22.352,16529,3.4337616E1,0,9,0,56,38,
1570717702,2019-10-10 14:28:22.352,16475,3.4134094E1,0,8,0,83,36,
1570717762,2019-10-10 14:29:22.364,16488,3.442926E1,0,11,0,85,34,
1570717822,2019-10-10 14:30:22.352,16502,3.436212E1,0,9,0,55,34,
1570717882,2019-10-10 14:31:22.352,16488,3.4497437E1,0,6,0,54,39,
1570717942,2019-10-10 14:32:22.352,16488,3.449637E1,0,12,0,56,36,
1570718002,2019-10-10 14:33:22.352,16502,3.451236E1,0,12,0,57,34,
1570718062,2019-10-10 14:34:22.352,16502,3.452408E1,0,9,0,55,41,
1570718122,2019-10-10 14:35:22.352,16461,3.4513428E1,0,9,0,56,37,
1570718182,2019-10-10 14:36:22.352,16502,3.4680725E1,0,6,0,55,36,
1570718242,2019-10-10 14:37:22.352,16502,3.4651947E1,0,9,0,56,35,
1570718302,2019-10-10 14:38:22.352,16502,3.4693512E1,0,9,0,52,35,
1570718362,2019-10-10 14:39:22.354,16502,3.4634888E1,0,12,0,57,37,
1570718422,2019-10-10 14:40:22.352,16488,3.4746765E1,0,18,0,58,34,
1570718482,2019-10-10 14:41:22.352,16502,3.4774475E1,0,10,0,59,39,
1570718542,2019-10-10 14:42:22.352,16488,3.473825E1,0,14,0,63,33,
1570718602,2019-10-10 14:43:22.352,16488,3.487036E1,0,12,0,64,37,
1570718662,2019-10-10 14:44:22.352,16502,3.488208E1,0,8,0,56,36,
1570718722,2019-10-10 14:45:22.352,16502,3.49993E1,0,9,0,55,37,
1570718782,2019-10-10 14:46:22.352,16502,3.507495E1,0,9,0,55,42,
1570718842,2019-10-10 14:47:22.352,16502,3.4983307E1,0,4,0,56,37,
1570718902,2019-10-10 14:48:22.352,16488,3.505896E1,0,9,0,56,36,
1570718962,2019-10-10 14:49:22.352,16502,3.5120758E1,0,6,0,56,37,
1570719022,2019-10-10 14:50:22.352,16502,3.5033386E1,0,7,0,57,36,
1570719082,2019-10-10 14:51:22.352,16380,3.509732E1,0,6,0,57,35,
1570719142,2019-10-10 14:52:22.352,16569,3.524649E1,0,11,0,61,38,
1570719202,2019-10-10 14:53:22.352,16502,3.500888E1,0,8,0,56,39,
1570719262,2019-10-10 14:54:22.352,16502,3.5121826E1,0,6,0,54,39,
1570719322,2019-10-10 14:55:22.353,16502,3.5027008E1,0,9,0,56,37,
1570719382,2019-10-10 14:56:22.352,16502,3.522519E1,0,9,0,56,36,
1570719442,2019-10-10 14:57:22.352,16502,3.517511E1,0,9,0,50,37,
1570719502,2019-10-10 14:58:22.352,16488,3.542444E1,0,11,0,68,36,
1570719562,2019-10-10 14:59:22.354,16502,3.5182556E1,0,9,0,54,34,
