Time(longsecs),Time(UTC),External SOH Voltage 1(V),External SOH Voltage 2(V),External SOH Voltage 3(V),External SOH Voltage 4(V),Sensor SOH Voltage 1(V),Sensor SOH Voltage 2(V),Sensor SOH Voltage 3(V),
1570683622,2019-10-10 05:00:22.352,-8.356571E-4,-8.219242E-3,-1.8479824E-3,-2.23732E-3,3.8641834E-1,3.7958908E-1,3.8854694E-1,
1570683682,2019-10-10 05:01:22.352,2.1107197E-3,-5.5799484E-3,6.5898895E-4,3.9577484E-4,3.9117527E-1,3.8402843E-1,3.9107323E-1,
1570683742,2019-10-10 05:02:22.352,-1.18494034E-4,-8.087873E-3,-1.241684E-3,-1.478672E-3,3.8737392E-1,3.8332176E-1,3.9158916E-1,
1570683802,2019-10-10 05:03:22.352,2.0964146E-3,-5.841255E-3,6.697178E-4,7.6293945E-5,3.9054203E-1,3.8632202E-1,3.933134E-1,
1570683862,2019-10-10 05:04:22.352,1.7876625E-3,-5.512953E-3,4.9877167E-4,4.5657158E-4,3.9172363E-1,3.863821E-1,3.9398003E-1,
1570683922,2019-10-10 05:05:22.352,1.9009113E-3,-5.6946278E-3,6.875992E-4,1.0681152E-4,3.9070702E-1,3.8699913E-1,3.95545E-1,
1570683982,2019-10-10 05:06:22.352,-6.966591E-4,-8.112192E-3,-1.9023418E-3,-2.1021366E-3,3.800602E-1,3.7477875E-1,3.8295746E-1,
1570684042,2019-10-10 05:07:22.352,-1.924038E-4,-8.115292E-3,-1.3451576E-3,-1.162529E-3,3.865261E-1,3.812418E-1,3.89534E-1,
1570684102,2019-10-10 05:08:22.352,-1.04665756E-4,-7.487297E-3,-7.894039E-4,-1.5985966E-3,3.8486385E-1,3.7927723E-1,3.8620853E-1,
1570684162,2019-10-10 05:09:22.352,-4.6801567E-4,-8.011341E-3,-1.406908E-3,-1.970768E-3,3.8274097E-1,3.801613E-1,3.8603878E-1,
1570684222,2019-10-10 05:10:22.352,1.4541149E-3,-5.6762695E-3,7.0762634E-4,3.015995E-4,3.940096E-1,3.8855553E-1,3.9593887E-1,
1570684282,2019-10-10 05:11:22.352,-2.9563904E-5,-7.7266693E-3,-1.6860962E-3,-1.5017986E-3,3.8657475E-1,3.8088417E-1,3.8811684E-1,
1570684342,2019-10-10 05:12:22.352,-2.701521E-3,-1.0337114E-2,-3.4611225E-3,-3.8807392E-3,3.7656498E-1,3.7252045E-1,3.8167763E-1,
1570684402,2019-10-10 05:13:22.352,3.643036E-4,-7.907152E-3,-1.1641979E-3,-1.6365051E-3,3.8628864E-1,3.8202763E-1,3.9113712E-1,
1570684462,2019-10-10 05:14:22.352,-9.4103813E-4,-8.376837E-3,-2.1426678E-3,-1.9938946E-3,3.8554287E-1,3.786497E-1,3.877678E-1,
1570684522,2019-10-10 05:15:22.352,-2.6686192E-3,-9.999037E-3,-3.592968E-3,-3.991127E-3,3.8105774E-1,3.7678623E-1,3.8471508E-1,
1570684582,2019-10-10 05:16:22.352,-5.609989E-4,-8.462191E-3,-1.6560555E-3,-1.998186E-3,3.8650322E-1,3.8215637E-1,3.8960743E-1,
1570684642,2019-10-10 05:17:22.354,-2.9485226E-3,-1.03805065E-2,-3.4413338E-3,-4.0705204E-3,3.7781525E-1,3.7206173E-1,3.7985897E-1,
1570684702,2019-10-10 05:18:22.352,-2.5320053E-4,-7.815599E-3,-1.7230511E-3,-1.5611649E-3,3.865118E-1,3.8014793E-1,3.8953686E-1,
1570684762,2019-10-10 05:19:22.352,-2.6025772E-3,-1.046586E-2,-3.7527084E-3,-3.9269924E-3,3.8016224E-1,3.74465E-1,3.8141537E-1,
1570684822,2019-10-10 05:20:22.352,2.141714E-3,-5.800247E-3,5.443096E-4,2.6583672E-4,3.8985634E-1,3.8505173E-1,3.9423084E-1,
1570684882,2019-10-10 05:21:22.352,1.5976429E-3,-5.904913E-3,3.271103E-4,8.094311E-4,3.9348888E-1,3.8770294E-1,3.9735985E-1,
1570684942,2019-10-10 05:22:22.354,-5.7697296E-5,-7.5359344E-3,-1.401186E-3,-1.6167164E-3,3.866167E-1,3.8036442E-1,3.883295E-1,
1570685002,2019-10-10 05:23:22.352,-2.8047562E-3,-9.878159E-3,-3.4520626E-3,-4.2407513E-3,3.8081455E-1,3.7506294E-1,3.8244247E-1,
1570685062,2019-10-10 05:24:22.352,1.4567375E-3,-6.1297417E-3,4.3606758E-4,4.2128563E-4,3.920431E-1,3.8715076E-1,3.9447594E-1,
1570685122,2019-10-10 05:25:22.352,-2.3412704E-3,-1.02415085E-2,-3.4520626E-3,-4.385233E-3,3.7892628E-1,3.728943E-1,3.8164902E-1,
1570685182,2019-10-10 05:26:22.352,1.7216206E-3,-6.018162E-3,5.426407E-4,1.4948845E-4,3.858652E-1,3.8228035E-1,3.8969612E-1,
1570685242,2019-10-10 05:27:22.352,-2.5146008E-3,-1.0201931E-2,-3.5686493E-3,-4.051447E-3,3.771925E-1,3.7190533E-1,3.7869358E-1,
1570685302,2019-10-10 05:28:22.352,-8.106232E-6,-8.04925E-3,-1.0583401E-3,-1.6040802E-3,3.8398075E-1,3.790207E-1,3.8768482E-1,
1570685362,2019-10-10 05:29:22.352,-2.9771328E-3,-1.0313034E-2,-3.7727356E-3,-3.5066605E-3,3.817129E-1,3.7730694E-1,3.8623333E-1,
1570685422,2019-10-10 05:30:22.390,-2.7368069E-3,-1.0335684E-2,-3.4952164E-3,-3.9465427E-3,3.8249493E-1,3.757553E-1,3.853798E-1,
1570685482,2019-10-10 05:31:22.352,-2.3272038E-3,-9.96232E-3,-3.1645298E-3,-3.6947727E-3,3.8414383E-1,3.780079E-1,3.856058E-1,
1570685542,2019-10-10 05:32:22.384,-4.079342E-4,-7.92551E-3,-1.3375282E-3,-2.0489693E-3,3.8413525E-1,3.7859154E-1,3.883438E-1,
1570685602,2019-10-10 05:33:22.352,-2.9468536E-4,-8.538723E-3,-1.6067028E-3,-2.3527145E-3,3.8565445E-1,3.7978554E-1,3.886881E-1,
1570685662,2019-10-10 05:34:22.352,-2.7804375E-3,-1.0295868E-2,-3.6945343E-3,-4.53496E-3,3.8185978E-1,3.769474E-1,3.829584E-1,
1570685722,2019-10-10 05:35:22.352,-6.392002E-4,-8.322477E-3,-1.9147396E-3,-1.9369125E-3,3.8631344E-1,3.828907E-1,3.9125156E-1,
1570685782,2019-10-10 05:36:22.352,6.067753E-4,-8.155823E-3,-7.5387955E-4,-1.2962818E-3,3.841915E-1,3.7913036E-1,3.8817883E-1,
1570685842,2019-10-10 05:37:22.352,1.6067028E-3,-6.10137E-3,7.0667267E-4,4.3201447E-4,3.901043E-1,3.8566017E-1,3.9302063E-1,
1570685902,2019-10-10 05:38:22.352,-2.4926662E-3,-1.0607958E-2,-3.6890507E-3,-3.833294E-3,3.7764168E-1,3.731346E-1,3.8126945E-1,
1570685962,2019-10-10 05:39:22.352,1.7991066E-3,-6.0184E-3,4.6920776E-4,4.913807E-4,3.9052773E-1,3.8496304E-1,3.9311314E-1,
1570686022,2019-10-10 05:40:22.352,-6.77824E-4,-8.574009E-3,-2.0987988E-3,-2.3932457E-3,3.8641548E-1,3.8040733E-1,3.858862E-1,
1570686082,2019-10-10 05:41:22.352,1.9788742E-5,-7.849455E-3,-1.2860298E-3,-1.8384457E-3,3.8760567E-1,3.8414574E-1,3.917675E-1,
1570686142,2019-10-10 05:42:22.352,-8.8477135E-4,-8.495808E-3,-1.8467903E-3,-2.4068356E-3,3.7995243E-1,3.7504196E-1,3.8270378E-1,
1570686202,2019-10-10 05:43:22.352,5.197525E-5,-7.5683594E-3,-1.491785E-3,-1.1672974E-3,3.8397217E-1,3.7957573E-1,3.8671017E-1,
1570686262,2019-10-10 05:44:22.352,-1.0704994E-4,-7.367134E-3,-1.2392998E-3,-1.6198158E-3,3.8551807E-1,3.7959194E-1,3.8872623E-1,
1570686322,2019-10-10 05:45:22.352,-1.0676384E-3,-8.084774E-3,-1.8885136E-3,-2.2945404E-3,3.841982E-1,3.7836552E-1,3.8477898E-1,
1570686382,2019-10-10 05:46:22.354,-2.6032925E-3,-1.0222435E-2,-4.102707E-3,-4.4231415E-3,3.7386417E-1,3.6962986E-1,3.7472057E-1,
1570686442,2019-10-10 05:47:22.352,-5.133152E-4,-8.250952E-3,-1.8935204E-3,-2.424717E-3,3.8746738E-1,3.8299942E-1,3.9048386E-1,
1570686502,2019-10-10 05:48:22.352,-8.568764E-4,-8.429527E-3,-1.7230511E-3,-2.6032925E-3,3.7809753E-1,3.7463856E-1,3.8244724E-1,
1570686562,2019-10-10 05:49:22.352,1.4042854E-3,-6.2310696E-3,8.9740753E-4,5.1546097E-4,3.9290333E-1,3.886299E-1,3.9796066E-1,
1570686622,2019-10-10 05:50:22.352,-1.0485649E-3,-8.379459E-3,-2.077341E-3,-2.2141933E-3,3.8486958E-1,3.8043118E-1,3.8716793E-1,
1570686682,2019-10-10 05:51:22.352,-5.4359436E-5,-7.980585E-3,-1.8541813E-3,-1.4016628E-3,3.8512802E-1,3.823185E-1,3.8738537E-1,
1570686742,2019-10-10 05:52:22.352,1.13248825E-4,-7.7910423E-3,-1.0156631E-3,-1.3606548E-3,3.8983917E-1,3.8407326E-1,3.9097977E-1,
1570686802,2019-10-10 05:53:22.352,-2.7618408E-3,-1.0186911E-2,-3.4503937E-3,-3.6783218E-3,3.790655E-1,3.7355423E-1,3.7877655E-1,
1570686862,2019-10-10 05:54:22.352,2.0477772E-3,-6.0083866E-3,1.7595291E-4,5.443096E-4,3.945179E-1,3.895111E-1,3.9735985E-1,
1570686922,2019-10-10 05:55:22.352,-4.0769577E-4,-8.557081E-3,-1.7096996E-3,-1.9888878E-3,3.8355255E-1,3.7871265E-1,3.8659954E-1,
1570686982,2019-10-10 05:56:22.352,-3.671646E-4,-8.122444E-3,-1.6760826E-3,-2.1152496E-3,3.8818932E-1,3.8164902E-1,3.8858986E-1,
1570687042,2019-10-10 05:57:22.352,7.510185E-5,-7.7826977E-3,-1.578331E-3,-1.6617775E-3,3.8468838E-1,3.7811852E-1,3.8639355E-1,
1570687102,2019-10-10 05:58:22.352,-1.0633469E-3,-8.148432E-3,-1.7683506E-3,-2.0270348E-3,3.8800526E-1,3.827839E-1,3.9079857E-1,
1570687162,2019-10-10 05:59:22.354,-1.7237663E-4,-7.7831745E-3,-1.357317E-3,-1.401186E-3,3.855152E-1,3.8001633E-1,3.873272E-1,
