Time(longsecs),Time(UTC),Supply Voltage(mV),Temperature(&deg;C),NMX Bus Current(mA),Sensor Current(mA),Serial Port Current(mA),Controller Current(mA),Digitizer Current(mA),
1572184818,2019-10-27 14:00:18.806,16550,2.0440704E1,0,8,0,57,34,
1572184878,2019-10-27 14:01:18.817,16550,2.0620026E1,0,12,0,40,35,
1572184938,2019-10-27 14:02:18.807,16537,2.0453674E1,0,5,0,38,36,
1572184998,2019-10-27 14:03:18.806,16482,2.0622192E1,0,9,0,39,36,
1572185058,2019-10-27 14:04:18.806,16524,2.0311066E1,0,6,0,34,35,
1572185118,2019-10-27 14:05:18.806,16550,2.0470947E1,0,8,0,40,34,
1572185178,2019-10-27 14:06:18.806,16524,2.0210632E1,0,6,0,38,39,
1572185238,2019-10-27 14:07:18.824,16496,2.0272186E1,0,6,0,38,36,
1572185298,2019-10-27 14:08:18.806,16524,2.0159851E1,0,8,3,33,36,
1572185358,2019-10-27 14:09:18.840,16524,2.0182526E1,0,11,0,33,35,
1572185418,2019-10-27 14:10:18.806,16524,2.0139313E1,0,9,0,38,36,
1572185478,2019-10-27 14:11:18.806,16524,2.0358612E1,0,10,0,39,36,
1572185538,2019-10-27 14:12:18.822,16524,2.0383453E1,0,4,0,36,40,
1572185598,2019-10-27 14:13:18.809,16537,2.0253815E1,0,8,0,36,34,
1572185658,2019-10-27 14:14:18.806,16550,2.0313232E1,0,4,0,33,41,
1572185718,2019-10-27 14:15:18.806,16524,1.9937317E1,0,8,0,34,37,
1572185778,2019-10-27 14:16:18.806,16550,2.0324036E1,0,1,0,33,35,
1572185838,2019-10-27 14:17:18.806,16537,2.0170654E1,0,5,0,38,38,
1572185898,2019-10-27 14:18:18.806,16550,2.0100433E1,0,7,0,33,35,
1572185958,2019-10-27 14:19:18.806,16550,2.0091797E1,0,7,0,33,35,
1572186018,2019-10-27 14:20:18.806,16537,2.007666E1,0,9,0,38,37,
1572186078,2019-10-27 14:21:18.807,16537,2.0082062E1,0,10,0,47,35,
1572186138,2019-10-27 14:22:18.807,16524,2.0357513E1,0,11,0,47,38,
1572186198,2019-10-27 14:23:18.806,16524,2.0133911E1,0,6,0,33,37,
1572186258,2019-10-27 14:24:18.806,16524,1.9781769E1,0,8,0,42,36,
1572186318,2019-10-27 14:25:18.806,16524,1.9880066E1,0,9,0,39,34,
1572186378,2019-10-27 14:26:18.806,16524,1.9997803E1,0,10,0,38,38,
1572186438,2019-10-27 14:27:18.806,16496,1.9759094E1,0,7,0,38,36,
1572186498,2019-10-27 14:28:18.806,16524,1.9872498E1,0,5,0,33,38,
1572186558,2019-10-27 14:29:18.806,16524,1.9872498E1,0,7,0,41,35,
1572186618,2019-10-27 14:30:18.806,16524,1.9853058E1,0,6,0,39,36,
1572186678,2019-10-27 14:31:18.807,16659,1.9706146E1,0,3,0,36,36,
1572186738,2019-10-27 14:32:18.806,16537,1.9595978E1,0,5,0,39,34,
1572186798,2019-10-27 14:33:18.809,16550,1.9638092E1,0,9,0,33,37,
1572186858,2019-10-27 14:34:18.806,16550,1.9595978E1,0,6,0,35,38,
1572186918,2019-10-27 14:35:18.806,16550,1.9544128E1,0,6,0,41,36,
1572186978,2019-10-27 14:36:18.807,16550,1.9799042E1,0,9,0,38,35,
1572187038,2019-10-27 14:37:18.806,16577,1.9724518E1,0,7,0,38,33,
1572187098,2019-10-27 14:38:18.806,16550,1.960785E1,0,6,0,39,34,
1572187158,2019-10-27 14:39:18.806,16550,1.9498749E1,0,8,0,39,35,
1572187218,2019-10-27 14:40:18.807,16550,1.9454468E1,0,9,0,36,38,
1572187278,2019-10-27 14:41:18.816,16550,1.9578674E1,0,10,0,38,36,
1572187338,2019-10-27 14:42:18.807,16550,1.9197357E1,0,6,0,38,36,
1572187398,2019-10-27 14:43:18.806,16550,1.920816E1,0,6,0,33,35,
1572187458,2019-10-27 14:44:18.806,16550,1.9402618E1,0,9,0,33,38,
1572187518,2019-10-27 14:45:18.806,16550,1.9431763E1,0,8,0,38,34,
1572187578,2019-10-27 14:46:18.806,16537,1.9377777E1,0,9,0,39,37,
1572187638,2019-10-27 14:47:18.808,16537,1.9058014E1,0,8,0,47,36,
1572187698,2019-10-27 14:48:18.807,16550,1.9400452E1,0,7,0,43,36,
1572187758,2019-10-27 14:49:18.806,16537,1.9252472E1,0,7,0,36,34,
1572187818,2019-10-27 14:50:18.806,16524,1.929892E1,0,8,0,39,37,
1572187878,2019-10-27 14:51:18.806,16537,1.9342102E1,0,6,0,41,34,
1572187938,2019-10-27 14:52:18.806,16537,1.8934875E1,0,5,0,39,41,
1572187998,2019-10-27 14:53:18.806,16550,1.9237335E1,0,9,0,33,37,
1572188058,2019-10-27 14:54:18.806,16524,1.9046143E1,0,9,0,23,35,
1572188118,2019-10-27 14:55:18.806,16550,1.9113098E1,0,11,0,38,37,
1572188178,2019-10-27 14:56:18.806,16550,1.9072052E1,0,8,0,38,36,
1572188238,2019-10-27 14:57:18.809,16537,1.9120667E1,0,4,0,40,36,
1572188298,2019-10-27 14:58:18.806,16550,1.8979156E1,0,6,0,33,35,
1572188358,2019-10-27 14:59:18.806,16550,1.8948914E1,0,6,0,33,35,
