Time(longsecs),Time(UTC),GPS Satellite Acquisition Flag 1,GPS Satellite Acquisition Flag 2,GPS Satellite Acquisition Flag 3,GPS Satellite Acquisition Flag 4,GPS Satellite Acquisition Flag 5,GPS Satellite Acquisition Flag 6,GPS Satellite Acquisition Flag 7,GPS Satellite Acquisition Flag 8,GPS Satellite Acquisition Flag 9,GPS Satellite Acquisition Flag 10,GPS Satellite Acquisition Flag 11,GPS Satellite Acquisition Flag 12,GPS Satellite Azimuth 1(Degrees),GPS Satellite Azimuth 2(Degrees),GPS Satellite Azimuth 3(Degrees),GPS Satellite Azimuth 4(Degrees),GPS Satellite Azimuth 5(Degrees),GPS Satellite Azimuth 6(Degrees),GPS Satellite Azimuth 7(Degrees),GPS Satellite Azimuth 8(Degrees),GPS Satellite Azimuth 9(Degrees),GPS Satellite Azimuth 10(Degrees),GPS Satellite Azimuth 11(Degrees),GPS Satellite Azimuth 12(Degrees),GPS Satellite Elevation 1(Degrees),GPS Satellite Elevation 2(Degrees),GPS Satellite Elevation 3(Degrees),GPS Satellite Elevation 4(Degrees),GPS Satellite Elevation 5(Degrees),GPS Satellite Elevation 6(Degrees),GPS Satellite Elevation 7(Degrees),GPS Satellite Elevation 8(Degrees),GPS Satellite Elevation 9(Degrees),GPS Satellite Elevation 10(Degrees),GPS Satellite Elevation 11(Degrees),GPS Satellite Elevation 12(Degrees),GPS Satellite PRN 1,GPS Satellite PRN 2,GPS Satellite PRN 3,GPS Satellite PRN 4,GPS Satellite PRN 5,GPS Satellite PRN 6,GPS Satellite PRN 7,GPS Satellite PRN 8,GPS Satellite PRN 9,GPS Satellite PRN 10,GPS Satellite PRN 11,GPS Satellite PRN 12,GPS Satellite Signal Level 1(AMU),GPS Satellite Signal Level 2(AMU),GPS Satellite Signal Level 3(AMU),GPS Satellite Signal Level 4(AMU),GPS Satellite Signal Level 5(AMU),GPS Satellite Signal Level 6(AMU),GPS Satellite Signal Level 7(AMU),GPS Satellite Signal Level 8(AMU),GPS Satellite Signal Level 9(AMU),GPS Satellite Signal Level 10(AMU),GPS Satellite Signal Level 11(AMU),GPS Satellite Signal Level 12(AMU),
1572300020,2019-10-28 22:00:20.695,Acquired,Acquired,Acquired,Acquired,Acquired,Acquired,Acquired,Acquired,Not acquired,Not acquired,,,2.7735215999999997E2,2.27009424E2,1.73956256E2,4.9060171999999994E1,7.080447199999999E1,6.0933851999999995E1,2.3588913599999998E2,3.14975776E2,1.4955312E2,2.49782512E2,,,2.033205E1,6.694389199999999E1,3.1015317999999997E1,2.853773E1,3.9171583999999996E1,8.5192864E1,2.19013E1,2.0250557999999998E1,7.119126E0,9.844412E0,,,10,12,15,17,19,24,25,32,13,20,,,2,15,15,5,3,15,7,3,0,2,,,
1572300080,2019-10-28 22:01:20.663,Acquired,Acquired,Acquired,Acquired,Acquired,Acquired,Acquired,Acquired,Not acquired,Not acquired,,,2.7735215999999997E2,2.27009424E2,1.73956256E2,4.9060171999999994E1,7.080447199999999E1,6.0933851999999995E1,2.3588913599999998E2,3.14975776E2,1.4955312E2,2.49782512E2,,,2.033205E1,6.694389199999999E1,3.1015317999999997E1,2.853773E1,3.9171583999999996E1,8.5192864E1,2.19013E1,2.0250557999999998E1,7.119126E0,9.844412E0,,,10,12,15,17,19,24,25,32,13,20,,,2,15,15,5,3,15,7,3,0,2,,,
1572300140,2019-10-28 22:02:20.663,Acquired,Acquired,Acquired,Acquired,Acquired,Acquired,Acquired,Acquired,Not acquired,Not acquired,,,2.7735215999999997E2,2.27009424E2,1.73956256E2,4.9060171999999994E1,7.080447199999999E1,6.0933851999999995E1,2.3588913599999998E2,3.14975776E2,1.4955312E2,2.49782512E2,,,2.033205E1,6.694389199999999E1,3.1015317999999997E1,2.853773E1,3.9171583999999996E1,8.5192864E1,2.19013E1,2.0250557999999998E1,7.119126E0,9.844412E0,,,10,12,15,17,19,24,25,32,13,20,,,2,15,15,5,3,15,7,3,0,2,,,
1572300200,2019-10-28 22:03:20.663,Acquired,Acquired,Acquired,Acquired,Acquired,Acquired,Acquired,Acquired,Not acquired,Not acquired,,,2.7735215999999997E2,2.27009424E2,1.73956256E2,4.9060171999999994E1,7.080447199999999E1,6.0933851999999995E1,2.3588913599999998E2,3.14975776E2,1.4955312E2,2.49782512E2,,,2.033205E1,6.694389199999999E1,3.1015317999999997E1,2.853773E1,3.9171583999999996E1,8.5192864E1,2.19013E1,2.0250557999999998E1,7.119126E0,9.844412E0,,,10,12,15,17,19,24,25,32,13,20,,,2,15,15,5,3,15,7,3,0,2,,,
1572300260,2019-10-28 22:04:20.663,Acquired,Acquired,Acquired,Acquired,Acquired,Acquired,Acquired,Acquired,Not acquired,Not acquired,,,2.7735215999999997E2,2.27009424E2,1.73956256E2,4.9060171999999994E1,7.080447199999999E1,6.0933851999999995E1,2.3588913599999998E2,3.14975776E2,1.4955312E2,2.49782512E2,,,2.033205E1,6.694389199999999E1,3.1015317999999997E1,2.853773E1,3.9171583999999996E1,8.5192864E1,2.19013E1,2.0250557999999998E1,7.119126E0,9.844412E0,,,10,12,15,17,19,24,25,32,13,20,,,2,15,15,5,3,15,7,3,0,2,,,
1572300320,2019-10-28 22:05:20.663,Acquired,Acquired,Acquired,Acquired,Acquired,Acquired,Acquired,Acquired,Not acquired,Not acquired,,,2.7735215999999997E2,2.27009424E2,1.73956256E2,4.9060171999999994E1,7.080447199999999E1,6.0933851999999995E1,2.3588913599999998E2,3.14975776E2,1.4955312E2,2.49782512E2,,,2.033205E1,6.694389199999999E1,3.1015317999999997E1,2.853773E1,3.9171583999999996E1,8.5192864E1,2.19013E1,2.0250557999999998E1,7.119126E0,9.844412E0,,,10,12,15,17,19,24,25,32,13,20,,,2,15,15,5,3,15,7,3,0,2,,,
1572300380,2019-10-28 22:06:20.663,Acquired,Acquired,Acquired,Acquired,Acquired,Acquired,Acquired,Acquired,Not acquired,Not acquired,,,2.7735215999999997E2,2.27009424E2,1.73956256E2,4.9060171999999994E1,7.080447199999999E1,6.0933851999999995E1,2.3588913599999998E2,3.14975776E2,1.4955312E2,2.49782512E2,,,2.033205E1,6.694389199999999E1,3.1015317999999997E1,2.853773E1,3.9171583999999996E1,8.5192864E1,2.19013E1,2.0250557999999998E1,7.119126E0,9.844412E0,,,10,12,15,17,19,24,25,32,13,20,,,2,15,15,5,3,15,7,3,0,2,,,
1572300440,2019-10-28 22:07:20.665,Acquired,Acquired,Acquired,Acquired,Acquired,Acquired,Acquired,Acquired,Not acquired,Not acquired,,,2.7735215999999997E2,2.27009424E2,1.73956256E2,4.9060171999999994E1,7.080447199999999E1,6.0933851999999995E1,2.3588913599999998E2,3.14975776E2,1.4955312E2,2.49782512E2,,,2.033205E1,6.694389199999999E1,3.1015317999999997E1,2.853773E1,3.9171583999999996E1,8.5192864E1,2.19013E1,2.0250557999999998E1,7.119126E0,9.844412E0,,,10,12,15,17,19,24,25,32,13,20,,,2,15,15,5,3,15,7,3,0,2,,,
1572300500,2019-10-28 22:08:20.675,Acquired,Acquired,Acquired,Acquired,Acquired,Acquired,Acquired,Acquired,Not acquired,Not acquired,,,2.7735215999999997E2,2.27009424E2,1.73956256E2,4.9060171999999994E1,7.080447199999999E1,6.0933851999999995E1,2.3588913599999998E2,3.14975776E2,1.4955312E2,2.49782512E2,,,2.033205E1,6.694389199999999E1,3.1015317999999997E1,2.853773E1,3.9171583999999996E1,8.5192864E1,2.19013E1,2.0250557999999998E1,7.119126E0,9.844412E0,,,10,12,15,17,19,24,25,32,13,20,,,2,15,15,5,3,15,7,3,0,2,,,
1572300560,2019-10-28 22:09:20.698,Acquired,Acquired,Acquired,Acquired,Acquired,Acquired,Acquired,Acquired,Not acquired,Not acquired,,,2.7735215999999997E2,2.27009424E2,1.73956256E2,4.9060171999999994E1,7.080447199999999E1,6.0933851999999995E1,2.3588913599999998E2,3.14975776E2,1.4955312E2,2.49782512E2,,,2.033205E1,6.694389199999999E1,3.1015317999999997E1,2.853773E1,3.9171583999999996E1,8.5192864E1,2.19013E1,2.0250557999999998E1,7.119126E0,9.844412E0,,,10,12,15,17,19,24,25,32,13,20,,,2,15,15,5,3,15,7,3,0,2,,,
1572300620,2019-10-28 22:10:20.668,Acquired,Acquired,Acquired,Acquired,Acquired,Acquired,Acquired,Acquired,Not acquired,Not acquired,,,2.7735215999999997E2,2.27009424E2,1.73956256E2,4.9060171999999994E1,7.080447199999999E1,6.0933851999999995E1,2.3588913599999998E2,3.14975776E2,1.4955312E2,2.49782512E2,,,2.033205E1,6.694389199999999E1,3.1015317999999997E1,2.853773E1,3.9171583999999996E1,8.5192864E1,2.19013E1,2.0250557999999998E1,7.119126E0,9.844412E0,,,10,12,15,17,19,24,25,32,13,20,,,2,15,15,5,3,15,7,3,0,2,,,
1572300680,2019-10-28 22:11:20.663,Acquired,Acquired,Acquired,Acquired,Acquired,Acquired,Acquired,Acquired,Not acquired,Not acquired,,,2.7735215999999997E2,2.27009424E2,1.73956256E2,4.9060171999999994E1,7.080447199999999E1,6.0933851999999995E1,2.3588913599999998E2,3.14975776E2,1.4955312E2,2.49782512E2,,,2.033205E1,6.694389199999999E1,3.1015317999999997E1,2.853773E1,3.9171583999999996E1,8.5192864E1,2.19013E1,2.0250557999999998E1,7.119126E0,9.844412E0,,,10,12,15,17,19,24,25,32,13,20,,,2,15,15,5,3,15,7,3,0,2,,,
1572300740,2019-10-28 22:12:20.663,Acquired,Acquired,Acquired,Acquired,Acquired,Acquired,Acquired,Acquired,Not acquired,Not acquired,,,2.7735215999999997E2,2.27009424E2,1.73956256E2,4.9060171999999994E1,7.080447199999999E1,6.0933851999999995E1,2.3588913599999998E2,3.14975776E2,1.4955312E2,2.49782512E2,,,2.033205E1,6.694389199999999E1,3.1015317999999997E1,2.853773E1,3.9171583999999996E1,8.5192864E1,2.19013E1,2.0250557999999998E1,7.119126E0,9.844412E0,,,10,12,15,17,19,24,25,32,13,20,,,2,15,15,5,3,15,7,3,0,2,,,
1572300800,2019-10-28 22:13:20.663,Acquired,Acquired,Acquired,Acquired,Acquired,Acquired,Acquired,Acquired,Not acquired,Not acquired,,,2.7735215999999997E2,2.27009424E2,1.73956256E2,4.9060171999999994E1,7.080447199999999E1,6.0933851999999995E1,2.3588913599999998E2,3.14975776E2,1.4955312E2,2.49782512E2,,,2.033205E1,6.694389199999999E1,3.1015317999999997E1,2.853773E1,3.9171583999999996E1,8.5192864E1,2.19013E1,2.0250557999999998E1,7.119126E0,9.844412E0,,,10,12,15,17,19,24,25,32,13,20,,,2,15,15,5,3,15,7,3,0,2,,,
1572300860,2019-10-28 22:14:20.663,Acquired,Acquired,Acquired,Acquired,Acquired,Acquired,Acquired,Acquired,Not acquired,Not acquired,,,2.7735215999999997E2,2.27009424E2,1.73956256E2,4.9060171999999994E1,7.080447199999999E1,6.0933851999999995E1,2.3588913599999998E2,3.14975776E2,1.4955312E2,2.49782512E2,,,2.033205E1,6.694389199999999E1,3.1015317999999997E1,2.853773E1,3.9171583999999996E1,8.5192864E1,2.19013E1,2.0250557999999998E1,7.119126E0,9.844412E0,,,10,12,15,17,19,24,25,32,13,20,,,2,15,15,5,3,15,7,3,0,2,,,
1572300920,2019-10-28 22:15:20.663,Acquired,Acquired,Acquired,Acquired,Acquired,Acquired,Acquired,Acquired,Not acquired,Not acquired,,,2.7735215999999997E2,2.27009424E2,1.73956256E2,4.9060171999999994E1,7.080447199999999E1,6.0933851999999995E1,2.3588913599999998E2,3.14975776E2,1.4955312E2,2.49782512E2,,,2.033205E1,6.694389199999999E1,3.1015317999999997E1,2.853773E1,3.9171583999999996E1,8.5192864E1,2.19013E1,2.0250557999999998E1,7.119126E0,9.844412E0,,,10,12,15,17,19,24,25,32,13,20,,,2,15,15,5,3,15,7,3,0,2,,,
1572300980,2019-10-28 22:16:20.663,Acquired,Acquired,Acquired,Acquired,Acquired,Acquired,Acquired,Acquired,Not acquired,Not acquired,,,2.7735215999999997E2,2.27009424E2,1.73956256E2,4.9060171999999994E1,7.080447199999999E1,6.0933851999999995E1,2.3588913599999998E2,3.14975776E2,1.4955312E2,2.49782512E2,,,2.033205E1,6.694389199999999E1,3.1015317999999997E1,2.853773E1,3.9171583999999996E1,8.5192864E1,2.19013E1,2.0250557999999998E1,7.119126E0,9.844412E0,,,10,12,15,17,19,24,25,32,13,20,,,2,15,15,5,3,15,7,3,0,2,,,
1572301040,2019-10-28 22:17:20.663,Acquired,Acquired,Acquired,Acquired,Acquired,Acquired,Acquired,Acquired,Not acquired,Not acquired,,,2.7735215999999997E2,2.27009424E2,1.73956256E2,4.9060171999999994E1,7.080447199999999E1,6.0933851999999995E1,2.3588913599999998E2,3.14975776E2,1.4955312E2,2.49782512E2,,,2.033205E1,6.694389199999999E1,3.1015317999999997E1,2.853773E1,3.9171583999999996E1,8.5192864E1,2.19013E1,2.0250557999999998E1,7.119126E0,9.844412E0,,,10,12,15,17,19,24,25,32,13,20,,,2,15,15,5,3,15,7,3,0,2,,,
1572301100,2019-10-28 22:18:20.665,Acquired,Acquired,Acquired,Acquired,Acquired,Acquired,Acquired,Acquired,Not acquired,Not acquired,,,2.7735215999999997E2,2.27009424E2,1.73956256E2,4.9060171999999994E1,7.080447199999999E1,6.0933851999999995E1,2.3588913599999998E2,3.14975776E2,1.4955312E2,2.49782512E2,,,2.033205E1,6.694389199999999E1,3.1015317999999997E1,2.853773E1,3.9171583999999996E1,8.5192864E1,2.19013E1,2.0250557999999998E1,7.119126E0,9.844412E0,,,10,12,15,17,19,24,25,32,13,20,,,2,15,15,5,3,15,7,3,0,2,,,
1572301160,2019-10-28 22:19:20.663,Acquired,Acquired,Acquired,Acquired,Acquired,Acquired,Acquired,Acquired,Not acquired,Not acquired,,,2.7735215999999997E2,2.27009424E2,1.73956256E2,4.9060171999999994E1,7.080447199999999E1,6.0933851999999995E1,2.3588913599999998E2,3.14975776E2,1.4955312E2,2.49782512E2,,,2.033205E1,6.694389199999999E1,3.1015317999999997E1,2.853773E1,3.9171583999999996E1,8.5192864E1,2.19013E1,2.0250557999999998E1,7.119126E0,9.844412E0,,,10,12,15,17,19,24,25,32,13,20,,,2,15,15,5,3,15,7,3,0,2,,,
1572301220,2019-10-28 22:20:20.663,Acquired,Acquired,Acquired,Acquired,Acquired,Acquired,Acquired,Acquired,Not acquired,Not acquired,,,2.7735215999999997E2,2.27009424E2,1.73956256E2,4.9060171999999994E1,7.080447199999999E1,6.0933851999999995E1,2.3588913599999998E2,3.14975776E2,1.4955312E2,2.49782512E2,,,2.033205E1,6.694389199999999E1,3.1015317999999997E1,2.853773E1,3.9171583999999996E1,8.5192864E1,2.19013E1,2.0250557999999998E1,7.119126E0,9.844412E0,,,10,12,15,17,19,24,25,32,13,20,,,2,15,15,5,3,15,7,3,0,2,,,
1572301280,2019-10-28 22:21:20.695,Acquired,Acquired,Acquired,Acquired,Acquired,Acquired,Acquired,Acquired,Not acquired,Not acquired,,,2.7735215999999997E2,2.27009424E2,1.73956256E2,4.9060171999999994E1,7.080447199999999E1,6.0933851999999995E1,2.3588913599999998E2,3.14975776E2,1.4955312E2,2.49782512E2,,,2.033205E1,6.694389199999999E1,3.1015317999999997E1,2.853773E1,3.9171583999999996E1,8.5192864E1,2.19013E1,2.0250557999999998E1,7.119126E0,9.844412E0,,,10,12,15,17,19,24,25,32,13,20,,,2,15,15,5,3,15,7,3,0,2,,,
1572301340,2019-10-28 22:22:20.663,Acquired,Acquired,Acquired,Acquired,Acquired,Acquired,Acquired,Acquired,Not acquired,Not acquired,,,2.7735215999999997E2,2.27009424E2,1.73956256E2,4.9060171999999994E1,7.080447199999999E1,6.0933851999999995E1,2.3588913599999998E2,3.14975776E2,1.4955312E2,2.49782512E2,,,2.033205E1,6.694389199999999E1,3.1015317999999997E1,2.853773E1,3.9171583999999996E1,8.5192864E1,2.19013E1,2.0250557999999998E1,7.119126E0,9.844412E0,,,10,12,15,17,19,24,25,32,13,20,,,2,15,15,5,3,15,7,3,0,2,,,
1572301400,2019-10-28 22:23:20.663,Acquired,Acquired,Acquired,Acquired,Acquired,Acquired,Acquired,Acquired,Not acquired,Not acquired,,,2.7735215999999997E2,2.27009424E2,1.73956256E2,4.9060171999999994E1,7.080447199999999E1,6.0933851999999995E1,2.3588913599999998E2,3.14975776E2,1.4955312E2,2.49782512E2,,,2.033205E1,6.694389199999999E1,3.1015317999999997E1,2.853773E1,3.9171583999999996E1,8.5192864E1,2.19013E1,2.0250557999999998E1,7.119126E0,9.844412E0,,,10,12,15,17,19,24,25,32,13,20,,,2,15,15,5,3,15,7,3,0,2,,,
1572301460,2019-10-28 22:24:20.663,Acquired,Acquired,Acquired,Acquired,Acquired,Acquired,Acquired,Acquired,Not acquired,Not acquired,,,2.7735215999999997E2,2.27009424E2,1.73956256E2,4.9060171999999994E1,7.080447199999999E1,6.0933851999999995E1,2.3588913599999998E2,3.14975776E2,1.4955312E2,2.49782512E2,,,2.033205E1,6.694389199999999E1,3.1015317999999997E1,2.853773E1,3.9171583999999996E1,8.5192864E1,2.19013E1,2.0250557999999998E1,7.119126E0,9.844412E0,,,10,12,15,17,19,24,25,32,13,20,,,2,15,15,5,3,15,7,3,0,2,,,
1572301520,2019-10-28 22:25:20.663,Acquired,Acquired,Acquired,Acquired,Acquired,Acquired,Acquired,Acquired,Not acquired,Not acquired,,,2.7735215999999997E2,2.27009424E2,1.73956256E2,4.9060171999999994E1,7.080447199999999E1,6.0933851999999995E1,2.3588913599999998E2,3.14975776E2,1.4955312E2,2.49782512E2,,,2.033205E1,6.694389199999999E1,3.1015317999999997E1,2.853773E1,3.9171583999999996E1,8.5192864E1,2.19013E1,2.0250557999999998E1,7.119126E0,9.844412E0,,,10,12,15,17,19,24,25,32,13,20,,,2,15,15,5,3,15,7,3,0,2,,,
1572301580,2019-10-28 22:26:20.663,Acquired,Acquired,Acquired,Acquired,Acquired,Acquired,Acquired,Acquired,Not acquired,Not acquired,,,2.7735215999999997E2,2.27009424E2,1.73956256E2,4.9060171999999994E1,7.080447199999999E1,6.0933851999999995E1,2.3588913599999998E2,3.14975776E2,1.4955312E2,2.49782512E2,,,2.033205E1,6.694389199999999E1,3.1015317999999997E1,2.853773E1,3.9171583999999996E1,8.5192864E1,2.19013E1,2.0250557999999998E1,7.119126E0,9.844412E0,,,10,12,15,17,19,24,25,32,13,20,,,2,15,15,5,3,15,7,3,0,2,,,
1572301640,2019-10-28 22:27:20.663,Acquired,Acquired,Acquired,Acquired,Acquired,Acquired,Acquired,Acquired,Not acquired,Not acquired,,,2.7735215999999997E2,2.27009424E2,1.73956256E2,4.9060171999999994E1,7.080447199999999E1,6.0933851999999995E1,2.3588913599999998E2,3.14975776E2,1.4955312E2,2.49782512E2,,,2.033205E1,6.694389199999999E1,3.1015317999999997E1,2.853773E1,3.9171583999999996E1,8.5192864E1,2.19013E1,2.0250557999999998E1,7.119126E0,9.844412E0,,,10,12,15,17,19,24,25,32,13,20,,,2,15,15,5,3,15,7,3,0,2,,,
1572301700,2019-10-28 22:28:20.663,Acquired,Acquired,Acquired,Acquired,Acquired,Acquired,Acquired,Acquired,Not acquired,Not acquired,,,2.7735215999999997E2,2.27009424E2,1.73956256E2,4.9060171999999994E1,7.080447199999999E1,6.0933851999999995E1,2.3588913599999998E2,3.14975776E2,1.4955312E2,2.49782512E2,,,2.033205E1,6.694389199999999E1,3.1015317999999997E1,2.853773E1,3.9171583999999996E1,8.5192864E1,2.19013E1,2.0250557999999998E1,7.119126E0,9.844412E0,,,10,12,15,17,19,24,25,32,13,20,,,2,15,15,5,3,15,7,3,0,2,,,
1572301760,2019-10-28 22:29:20.663,Acquired,Acquired,Acquired,Acquired,Acquired,Acquired,Acquired,Acquired,Not acquired,Not acquired,,,2.7735215999999997E2,2.27009424E2,1.73956256E2,4.9060171999999994E1,7.080447199999999E1,6.0933851999999995E1,2.3588913599999998E2,3.14975776E2,1.4955312E2,2.49782512E2,,,2.033205E1,6.694389199999999E1,3.1015317999999997E1,2.853773E1,3.9171583999999996E1,8.5192864E1,2.19013E1,2.0250557999999998E1,7.119126E0,9.844412E0,,,10,12,15,17,19,24,25,32,13,20,,,2,15,15,5,3,15,7,3,0,2,,,
1572301820,2019-10-28 22:30:20.663,Acquired,Acquired,Acquired,Acquired,Acquired,Acquired,Acquired,Acquired,Not acquired,Not acquired,,,2.7735215999999997E2,2.27009424E2,1.73956256E2,4.9060171999999994E1,7.080447199999999E1,6.0933851999999995E1,2.3588913599999998E2,3.14975776E2,1.4955312E2,2.49782512E2,,,2.033205E1,6.694389199999999E1,3.1015317999999997E1,2.853773E1,3.9171583999999996E1,8.5192864E1,2.19013E1,2.0250557999999998E1,7.119126E0,9.844412E0,,,10,12,15,17,19,24,25,32,13,20,,,2,15,15,5,3,15,7,3,0,2,,,
1572301880,2019-10-28 22:31:20.663,Acquired,Acquired,Acquired,Acquired,Acquired,Acquired,Acquired,Acquired,Not acquired,Not acquired,,,2.7735215999999997E2,2.27009424E2,1.73956256E2,4.9060171999999994E1,7.080447199999999E1,6.0933851999999995E1,2.3588913599999998E2,3.14975776E2,1.4955312E2,2.49782512E2,,,2.033205E1,6.694389199999999E1,3.1015317999999997E1,2.853773E1,3.9171583999999996E1,8.5192864E1,2.19013E1,2.0250557999999998E1,7.119126E0,9.844412E0,,,10,12,15,17,19,24,25,32,13,20,,,2,15,15,5,3,15,7,3,0,2,,,
1572301940,2019-10-28 22:32:20.663,Acquired,Acquired,Acquired,Acquired,Acquired,Acquired,Acquired,Acquired,Not acquired,Not acquired,,,2.7735215999999997E2,2.27009424E2,1.73956256E2,4.9060171999999994E1,7.080447199999999E1,6.0933851999999995E1,2.3588913599999998E2,3.14975776E2,1.4955312E2,2.49782512E2,,,2.033205E1,6.694389199999999E1,3.1015317999999997E1,2.853773E1,3.9171583999999996E1,8.5192864E1,2.19013E1,2.0250557999999998E1,7.119126E0,9.844412E0,,,10,12,15,17,19,24,25,32,13,20,,,2,15,15,5,3,15,7,3,0,2,,,
1572302000,2019-10-28 22:33:20.664,Acquired,Acquired,Acquired,Acquired,Acquired,Acquired,Acquired,Acquired,Not acquired,Not acquired,,,2.7735215999999997E2,2.27009424E2,1.73956256E2,4.9060171999999994E1,7.080447199999999E1,6.0933851999999995E1,2.3588913599999998E2,3.14975776E2,1.4955312E2,2.49782512E2,,,2.033205E1,6.694389199999999E1,3.1015317999999997E1,2.853773E1,3.9171583999999996E1,8.5192864E1,2.19013E1,2.0250557999999998E1,7.119126E0,9.844412E0,,,10,12,15,17,19,24,25,32,13,20,,,2,15,15,5,3,15,7,3,0,2,,,
1572302060,2019-10-28 22:34:20.663,Acquired,Acquired,Acquired,Acquired,Acquired,Acquired,Acquired,Acquired,Not acquired,Not acquired,,,2.7735215999999997E2,2.27009424E2,1.73956256E2,4.9060171999999994E1,7.080447199999999E1,6.0933851999999995E1,2.3588913599999998E2,3.14975776E2,1.4955312E2,2.49782512E2,,,2.033205E1,6.694389199999999E1,3.1015317999999997E1,2.853773E1,3.9171583999999996E1,8.5192864E1,2.19013E1,2.0250557999999998E1,7.119126E0,9.844412E0,,,10,12,15,17,19,24,25,32,13,20,,,2,15,15,5,3,15,7,3,0,2,,,
1572302120,2019-10-28 22:35:20.664,Acquired,Acquired,Acquired,Acquired,Acquired,Acquired,Acquired,Acquired,Not acquired,Not acquired,,,2.7735215999999997E2,2.27009424E2,1.73956256E2,4.9060171999999994E1,7.080447199999999E1,6.0933851999999995E1,2.3588913599999998E2,3.14975776E2,1.4955312E2,2.49782512E2,,,2.033205E1,6.694389199999999E1,3.1015317999999997E1,2.853773E1,3.9171583999999996E1,8.5192864E1,2.19013E1,2.0250557999999998E1,7.119126E0,9.844412E0,,,10,12,15,17,19,24,25,32,13,20,,,2,15,15,5,3,15,7,3,0,2,,,
1572302180,2019-10-28 22:36:20.664,Acquired,Acquired,Not acquired,Acquired,Acquired,Acquired,Acquired,Not acquired,Not acquired,Not acquired,Not acquired,,2.6478736E2,1.73033152E2,3.818672E1,5.1310036E1,1.13729648E2,2.46323952E2,3.063256E2,8.301068E1,2.62347136E2,3.2057622399999997E2,1.19718448E2,,8.5582656E1,1.4062222E1,1.7142374E1,3.1790986E1,6.8916288E1,3.810978E1,3.3825303999999996E1,1.1063780999999999E1,1.0844294E1,1.1691652999999999E1,5.10887E0,,12,15,17,19,24,25,32,6,10,14,2,,13,5,0,3,15,16,3,0,0,0,0,,
1572302240,2019-10-28 22:37:20.667,Acquired,Acquired,Acquired,Acquired,Not acquired,Acquired,Acquired,Acquired,Acquired,Not acquired,,,1.03247216E2,6.1550756E1,5.4498588E1,3.10045792E2,3.8828116E1,1.3013056799999998E2,2.6612483199999997E2,1.93692368E2,2.80203776E2,3.01106016E2,,,2.1288539999999998E1,1.9575878E1,6.8697568E1,2.8830641999999997E1,1.3705943999999999E1,4.5489596E1,6.0226E1,2.1484554E1,4.3871719999999996E1,9.906680999999999E0,,,2,6,12,14,19,24,25,29,32,31,,,2,3,13,2,0,10,13,15,5,0,,,
1572302300,2019-10-28 22:38:20.664,Not acquired,Not acquired,Acquired,Acquired,Acquired,Acquired,,,Acquired,Acquired,,,1.02882048E2,6.1111459999999994E1,5.4894396E1,3.09724992E2,3.8718019999999996E1,1.30363752E2,,,2.79579296E2,3.01243008E2,,,2.1563446E1,1.9634632E1,6.825144E1,2.9106644E1,1.3327236E1,4.5051908E1,,,4.3907788E1,1.0286854E1,,,2,6,12,14,19,24,,,32,31,,,1,1,8,2,1,10,,,5,2,,,
1572302360,2019-10-28 22:39:20.664,Acquired,Acquired,Acquired,Acquired,Not acquired,Acquired,Acquired,Acquired,Acquired,Acquired,,,1.025174E2,6.0667044E1,5.5288536E1,3.0939075199999996E2,3.861094E1,1.30597328E2,2.6713140799999996E2,1.9378252799999999E2,2.78947168E2,3.01379488E2,,,2.1833099999999998E1,1.9691996E1,6.7802336E1,2.9378259999999997E1,1.2944977E1,4.4610687999999996E1,6.1063019999999995E1,2.2390278E1,4.3937391999999996E1,1.0670109E1,,,2,6,12,14,19,24,25,29,32,31,,,1,2,14,3,1,8,15,15,3,1,,,
1572302420,2019-10-28 22:40:20.696,Not acquired,Acquired,Acquired,Acquired,Not acquired,Acquired,Acquired,Acquired,Acquired,Acquired,,,1.0212858399999999E2,6.020984E1,5.5687799999999996E1,3.09041696E2,3.8504872E1,1.30835376E2,2.67663088E2,1.9383060799999998E2,2.78295744E2,3.0151792E2,,,2.2117224E1,1.9746181999999997E1,6.734136E1,2.9654104E1,1.2551428999999999E1,4.4157612E1,6.1494352E1,2.2860253999999998E1,4.3960564E1,1.1064767999999999E1,,,2,6,12,14,19,24,25,29,32,31,,,2,1,15,2,1,11,15,13,5,3,,,
1572302480,2019-10-28 22:41:20.663,Not acquired,Acquired,Acquired,Acquired,Not acquired,Acquired,Acquired,Acquired,Acquired,Acquired,,,1.0212858399999999E2,6.020984E1,5.5687799999999996E1,3.09041696E2,3.8504872E1,1.30835376E2,2.67663088E2,1.9383060799999998E2,2.78295744E2,3.0151792E2,,,2.2117224E1,1.9746181999999997E1,6.734136E1,2.9654104E1,1.2551428999999999E1,4.4157612E1,6.1494352E1,2.2860253999999998E1,4.3960564E1,1.1064767999999999E1,,,2,6,12,14,19,24,25,29,32,31,,,2,1,15,2,1,11,15,13,5,3,,,
1572302540,2019-10-28 22:42:20.663,Not acquired,Acquired,Acquired,Acquired,Not acquired,Acquired,Acquired,Acquired,Acquired,Acquired,,,1.0212858399999999E2,6.020984E1,5.5687799999999996E1,3.09041696E2,3.8504872E1,1.30835376E2,2.67663088E2,1.9383060799999998E2,2.78295744E2,3.0151792E2,,,2.2117224E1,1.9746181999999997E1,6.734136E1,2.9654104E1,1.2551428999999999E1,4.4157612E1,6.1494352E1,2.2860253999999998E1,4.3960564E1,1.1064767999999999E1,,,2,6,12,14,19,24,25,29,32,31,,,2,1,15,2,1,11,15,13,5,3,,,
1572302600,2019-10-28 22:43:20.664,Not acquired,Acquired,Acquired,Acquired,Not acquired,Acquired,Acquired,Acquired,Acquired,Acquired,,,1.0212858399999999E2,6.020984E1,5.5687799999999996E1,3.09041696E2,3.8504872E1,1.30835376E2,2.67663088E2,1.9383060799999998E2,2.78295744E2,3.0151792E2,,,2.2117224E1,1.9746181999999997E1,6.734136E1,2.9654104E1,1.2551428999999999E1,4.4157612E1,6.1494352E1,2.2860253999999998E1,4.3960564E1,1.1064767999999999E1,,,2,6,12,14,19,24,25,29,32,31,,,2,1,15,2,1,11,15,13,5,3,,,
1572302660,2019-10-28 22:44:20.663,Not acquired,Acquired,Acquired,Acquired,Not acquired,Acquired,Acquired,Acquired,Acquired,Acquired,,,1.0212858399999999E2,6.020984E1,5.5687799999999996E1,3.09041696E2,3.8504872E1,1.30835376E2,2.67663088E2,1.9383060799999998E2,2.78295744E2,3.0151792E2,,,2.2117224E1,1.9746181999999997E1,6.734136E1,2.9654104E1,1.2551428999999999E1,4.4157612E1,6.1494352E1,2.2860253999999998E1,4.3960564E1,1.1064767999999999E1,,,2,6,12,14,19,24,25,29,32,31,,,2,1,15,2,1,11,15,13,5,3,,,
1572302720,2019-10-28 22:45:20.697,Not acquired,Acquired,Acquired,Acquired,Not acquired,Acquired,Acquired,Acquired,Acquired,Acquired,,,1.0212858399999999E2,6.020984E1,5.5687799999999996E1,3.09041696E2,3.8504872E1,1.30835376E2,2.67663088E2,1.9383060799999998E2,2.78295744E2,3.0151792E2,,,2.2117224E1,1.9746181999999997E1,6.734136E1,2.9654104E1,1.2551428999999999E1,4.4157612E1,6.1494352E1,2.2860253999999998E1,4.3960564E1,1.1064767999999999E1,,,2,6,12,14,19,24,25,29,32,31,,,2,1,15,2,1,11,15,13,5,3,,,
1572302780,2019-10-28 22:46:20.663,Not acquired,Acquired,Acquired,Acquired,Not acquired,Acquired,Acquired,Acquired,Acquired,Acquired,,,1.0212858399999999E2,6.020984E1,5.5687799999999996E1,3.09041696E2,3.8504872E1,1.30835376E2,2.67663088E2,1.9383060799999998E2,2.78295744E2,3.0151792E2,,,2.2117224E1,1.9746181999999997E1,6.734136E1,2.9654104E1,1.2551428999999999E1,4.4157612E1,6.1494352E1,2.2860253999999998E1,4.3960564E1,1.1064767999999999E1,,,2,6,12,14,19,24,25,29,32,31,,,2,1,15,2,1,11,15,13,5,3,,,
1572302840,2019-10-28 22:47:20.663,Not acquired,Acquired,Acquired,Acquired,Not acquired,Acquired,Acquired,Acquired,Acquired,Acquired,,,1.0212858399999999E2,6.020984E1,5.5687799999999996E1,3.09041696E2,3.8504872E1,1.30835376E2,2.67663088E2,1.9383060799999998E2,2.78295744E2,3.0151792E2,,,2.2117224E1,1.9746181999999997E1,6.734136E1,2.9654104E1,1.2551428999999999E1,4.4157612E1,6.1494352E1,2.2860253999999998E1,4.3960564E1,1.1064767999999999E1,,,2,6,12,14,19,24,25,29,32,31,,,2,1,15,2,1,11,15,13,5,3,,,
1572302900,2019-10-28 22:48:20.663,Not acquired,Acquired,Acquired,Acquired,Not acquired,Acquired,Acquired,Acquired,Acquired,Acquired,,,1.0212858399999999E2,6.020984E1,5.5687799999999996E1,3.09041696E2,3.8504872E1,1.30835376E2,2.67663088E2,1.9383060799999998E2,2.78295744E2,3.0151792E2,,,2.2117224E1,1.9746181999999997E1,6.734136E1,2.9654104E1,1.2551428999999999E1,4.4157612E1,6.1494352E1,2.2860253999999998E1,4.3960564E1,1.1064767999999999E1,,,2,6,12,14,19,24,25,29,32,31,,,2,1,15,2,1,11,15,13,5,3,,,
1572302960,2019-10-28 22:49:20.663,Not acquired,Acquired,Acquired,Acquired,Not acquired,Acquired,Acquired,Acquired,Acquired,Acquired,,,1.0212858399999999E2,6.020984E1,5.5687799999999996E1,3.09041696E2,3.8504872E1,1.30835376E2,2.67663088E2,1.9383060799999998E2,2.78295744E2,3.0151792E2,,,2.2117224E1,1.9746181999999997E1,6.734136E1,2.9654104E1,1.2551428999999999E1,4.4157612E1,6.1494352E1,2.2860253999999998E1,4.3960564E1,1.1064767999999999E1,,,2,6,12,14,19,24,25,29,32,31,,,2,1,15,2,1,11,15,13,5,3,,,
1572303020,2019-10-28 22:50:20.663,Not acquired,Acquired,Acquired,Acquired,Not acquired,Acquired,Acquired,Acquired,Acquired,Acquired,,,1.0212858399999999E2,6.020984E1,5.5687799999999996E1,3.09041696E2,3.8504872E1,1.30835376E2,2.67663088E2,1.9383060799999998E2,2.78295744E2,3.0151792E2,,,2.2117224E1,1.9746181999999997E1,6.734136E1,2.9654104E1,1.2551428999999999E1,4.4157612E1,6.1494352E1,2.2860253999999998E1,4.3960564E1,1.1064767999999999E1,,,2,6,12,14,19,24,25,29,32,31,,,2,1,15,2,1,11,15,13,5,3,,,
1572303080,2019-10-28 22:51:20.695,Not acquired,Acquired,Acquired,Acquired,Not acquired,Acquired,Acquired,Acquired,Acquired,Acquired,,,1.0212858399999999E2,6.020984E1,5.5687799999999996E1,3.09041696E2,3.8504872E1,1.30835376E2,2.67663088E2,1.9383060799999998E2,2.78295744E2,3.0151792E2,,,2.2117224E1,1.9746181999999997E1,6.734136E1,2.9654104E1,1.2551428999999999E1,4.4157612E1,6.1494352E1,2.2860253999999998E1,4.3960564E1,1.1064767999999999E1,,,2,6,12,14,19,24,25,29,32,31,,,2,1,15,2,1,11,15,13,5,3,,,
1572303140,2019-10-28 22:52:20.663,Not acquired,Acquired,Acquired,Acquired,Not acquired,Acquired,Acquired,Acquired,Acquired,Acquired,,,1.0212858399999999E2,6.020984E1,5.5687799999999996E1,3.09041696E2,3.8504872E1,1.30835376E2,2.67663088E2,1.9383060799999998E2,2.78295744E2,3.0151792E2,,,2.2117224E1,1.9746181999999997E1,6.734136E1,2.9654104E1,1.2551428999999999E1,4.4157612E1,6.1494352E1,2.2860253999999998E1,4.3960564E1,1.1064767999999999E1,,,2,6,12,14,19,24,25,29,32,31,,,2,1,15,2,1,11,15,13,5,3,,,
1572303200,2019-10-28 22:53:20.663,Not acquired,Acquired,Acquired,Acquired,Not acquired,Acquired,Acquired,Acquired,Acquired,Acquired,,,1.0212858399999999E2,6.020984E1,5.5687799999999996E1,3.09041696E2,3.8504872E1,1.30835376E2,2.67663088E2,1.9383060799999998E2,2.78295744E2,3.0151792E2,,,2.2117224E1,1.9746181999999997E1,6.734136E1,2.9654104E1,1.2551428999999999E1,4.4157612E1,6.1494352E1,2.2860253999999998E1,4.3960564E1,1.1064767999999999E1,,,2,6,12,14,19,24,25,29,32,31,,,2,1,15,2,1,11,15,13,5,3,,,
1572303260,2019-10-28 22:54:20.663,Not acquired,Acquired,Acquired,Acquired,Not acquired,Acquired,Acquired,Acquired,Acquired,Acquired,,,1.0212858399999999E2,6.020984E1,5.5687799999999996E1,3.09041696E2,3.8504872E1,1.30835376E2,2.67663088E2,1.9383060799999998E2,2.78295744E2,3.0151792E2,,,2.2117224E1,1.9746181999999997E1,6.734136E1,2.9654104E1,1.2551428999999999E1,4.4157612E1,6.1494352E1,2.2860253999999998E1,4.3960564E1,1.1064767999999999E1,,,2,6,12,14,19,24,25,29,32,31,,,2,1,15,2,1,11,15,13,5,3,,,
1572303320,2019-10-28 22:55:20.663,Not acquired,Acquired,Acquired,Acquired,Not acquired,Acquired,Acquired,Acquired,Acquired,Acquired,,,1.0212858399999999E2,6.020984E1,5.5687799999999996E1,3.09041696E2,3.8504872E1,1.30835376E2,2.67663088E2,1.9383060799999998E2,2.78295744E2,3.0151792E2,,,2.2117224E1,1.9746181999999997E1,6.734136E1,2.9654104E1,1.2551428999999999E1,4.4157612E1,6.1494352E1,2.2860253999999998E1,4.3960564E1,1.1064767999999999E1,,,2,6,12,14,19,24,25,29,32,31,,,2,1,15,2,1,11,15,13,5,3,,,
1572303380,2019-10-28 22:56:20.663,Not acquired,Acquired,Acquired,Acquired,Not acquired,Acquired,Acquired,Acquired,Acquired,Acquired,,,1.0212858399999999E2,6.020984E1,5.5687799999999996E1,3.09041696E2,3.8504872E1,1.30835376E2,2.67663088E2,1.9383060799999998E2,2.78295744E2,3.0151792E2,,,2.2117224E1,1.9746181999999997E1,6.734136E1,2.9654104E1,1.2551428999999999E1,4.4157612E1,6.1494352E1,2.2860253999999998E1,4.3960564E1,1.1064767999999999E1,,,2,6,12,14,19,24,25,29,32,31,,,2,1,15,2,1,11,15,13,5,3,,,
1572303440,2019-10-28 22:57:20.663,Not acquired,Acquired,Acquired,Acquired,Not acquired,Acquired,Acquired,Acquired,Acquired,Acquired,,,1.0212858399999999E2,6.020984E1,5.5687799999999996E1,3.09041696E2,3.8504872E1,1.30835376E2,2.67663088E2,1.9383060799999998E2,2.78295744E2,3.0151792E2,,,2.2117224E1,1.9746181999999997E1,6.734136E1,2.9654104E1,1.2551428999999999E1,4.4157612E1,6.1494352E1,2.2860253999999998E1,4.3960564E1,1.1064767999999999E1,,,2,6,12,14,19,24,25,29,32,31,,,2,1,15,2,1,11,15,13,5,3,,,
1572303500,2019-10-28 22:58:20.663,Not acquired,Acquired,Acquired,Acquired,Not acquired,Acquired,Acquired,Acquired,Acquired,Acquired,,,1.0212858399999999E2,6.020984E1,5.5687799999999996E1,3.09041696E2,3.8504872E1,1.30835376E2,2.67663088E2,1.9383060799999998E2,2.78295744E2,3.0151792E2,,,2.2117224E1,1.9746181999999997E1,6.734136E1,2.9654104E1,1.2551428999999999E1,4.4157612E1,6.1494352E1,2.2860253999999998E1,4.3960564E1,1.1064767999999999E1,,,2,6,12,14,19,24,25,29,32,31,,,2,1,15,2,1,11,15,13,5,3,,,
1572303560,2019-10-28 22:59:20.663,Not acquired,Acquired,Acquired,Acquired,Not acquired,Acquired,Acquired,Acquired,Acquired,Acquired,,,1.0212858399999999E2,6.020984E1,5.5687799999999996E1,3.09041696E2,3.8504872E1,1.30835376E2,2.67663088E2,1.9383060799999998E2,2.78295744E2,3.0151792E2,,,2.2117224E1,1.9746181999999997E1,6.734136E1,2.9654104E1,1.2551428999999999E1,4.4157612E1,6.1494352E1,2.2860253999999998E1,4.3960564E1,1.1064767999999999E1,,,2,6,12,14,19,24,25,29,32,31,,,2,1,15,2,1,11,15,13,5,3,,,
