Time(longsecs),Time(UTC),Supply Voltage(mV),Temperature(&deg;C),NMX Bus Current(mA),Sensor Current(mA),Serial Port Current(mA),Controller Current(mA),Digitizer Current(mA),
1572235220,2019-10-28 04:00:20.663,16420,1.4867645E1,0,7,0,29,38,
1572235280,2019-10-28 04:01:20.663,16433,1.4937958E1,0,10,0,36,36,
1572235340,2019-10-28 04:02:20.663,16406,1.4696075E1,0,9,0,57,33,
1572235400,2019-10-28 04:03:20.663,16420,1.4825012E1,0,10,0,63,38,
1572235460,2019-10-28 04:04:20.663,16406,1.4674774E1,0,7,0,64,35,
1572235520,2019-10-28 04:05:20.664,16420,1.4827148E1,0,9,0,37,37,
1572235580,2019-10-28 04:06:20.663,16420,1.4542664E1,0,6,0,36,33,
1572235640,2019-10-28 04:07:20.663,16420,1.4575684E1,0,9,0,36,35,
1572235700,2019-10-28 04:08:20.663,16393,1.4786652E1,0,9,0,36,39,
1572235760,2019-10-28 04:09:20.663,16420,1.4587402E1,0,8,0,36,39,
1572235820,2019-10-28 04:10:20.665,16406,1.4712067E1,0,9,0,37,36,
1572235880,2019-10-28 04:11:20.663,16420,1.4722717E1,0,4,0,36,37,
1572235940,2019-10-28 04:12:20.666,16420,1.4739777E1,0,7,0,36,40,
1572236000,2019-10-28 04:13:20.664,16406,1.4703552E1,0,9,0,33,37,
1572236060,2019-10-28 04:14:20.663,16433,1.470993E1,0,9,0,38,42,
1572236120,2019-10-28 04:15:20.663,16448,1.47717285E1,0,7,0,32,37,
1572236180,2019-10-28 04:16:20.663,16420,1.4993378E1,0,11,0,36,37,
1572236240,2019-10-28 04:17:20.663,16420,1.484314E1,0,6,0,36,34,
1572236300,2019-10-28 04:18:20.663,16420,1.4554382E1,0,8,0,36,38,
1572236360,2019-10-28 04:19:20.663,16420,1.4844208E1,0,16,0,36,37,
1572236420,2019-10-28 04:20:20.663,16433,1.4814362E1,0,6,0,33,35,
1572236480,2019-10-28 04:21:20.693,16420,1.4688629E1,0,10,0,36,35,
1572236540,2019-10-28 04:22:20.664,16420,1.4571411E1,0,4,0,45,36,
1572236600,2019-10-28 04:23:20.663,16406,1.467691E1,0,8,0,37,38,
1572236660,2019-10-28 04:24:20.663,16393,1.4804779E1,0,10,0,36,37,
1572236720,2019-10-28 04:25:20.663,16406,1.467157E1,0,12,0,36,34,
1572236780,2019-10-28 04:26:20.663,16420,1.4796234E1,0,7,0,36,35,
1572236840,2019-10-28 04:27:20.663,16420,1.4740845E1,0,7,0,36,37,
1572236900,2019-10-28 04:28:20.663,16420,1.4779205E1,0,9,0,33,38,
1572236960,2019-10-28 04:29:20.663,16420,1.4558624E1,0,1,0,39,35,
1572237020,2019-10-28 04:30:20.663,16420,1.4670502E1,0,10,0,32,39,
1572237080,2019-10-28 04:31:20.663,16420,1.4830353E1,0,5,0,36,38,
1572237140,2019-10-28 04:32:20.665,16420,1.4624695E1,0,9,0,38,38,
1572237200,2019-10-28 04:33:20.663,16420,1.4828217E1,0,9,0,36,36,
1572237260,2019-10-28 04:34:20.663,16420,1.4695038E1,0,6,0,36,36,
1572237320,2019-10-28 04:35:20.663,16420,1.4475525E1,0,9,0,31,38,
1572237380,2019-10-28 04:36:20.663,16420,1.4623627E1,0,6,0,36,36,
1572237440,2019-10-28 04:37:20.663,16406,1.4735504E1,0,6,0,36,37,
1572237500,2019-10-28 04:38:20.663,16406,1.4654541E1,0,11,0,36,40,
1572237560,2019-10-28 04:39:20.663,16433,1.4682251E1,0,12,0,31,36,
1572237620,2019-10-28 04:40:20.679,16420,1.4850586E1,0,7,2,31,35,
1572237680,2019-10-28 04:41:20.663,16420,1.4486176E1,0,10,0,39,38,
1572237740,2019-10-28 04:42:20.673,16420,1.46918335E1,0,8,0,35,36,
1572237800,2019-10-28 04:43:20.663,16420,1.4497894E1,0,5,0,37,37,
1572237860,2019-10-28 04:44:20.665,16433,1.4712067E1,0,10,0,32,38,
1572237920,2019-10-28 04:45:20.663,16420,1.464389E1,0,17,0,32,36,
1572237980,2019-10-28 04:46:20.665,16420,1.4537323E1,0,9,0,36,36,
1572238040,2019-10-28 04:47:20.663,16420,1.4607666E1,0,4,0,36,34,
1572238100,2019-10-28 04:48:20.663,16420,1.485379E1,0,10,0,36,35,
1572238160,2019-10-28 04:49:20.663,16420,1.4741913E1,0,8,0,35,35,
1572238220,2019-10-28 04:50:20.673,16420,1.4689697E1,0,12,0,31,37,
1572238280,2019-10-28 04:51:20.663,16420,1.46918335E1,0,7,0,36,39,
1572238340,2019-10-28 04:52:20.663,16420,1.4615112E1,0,10,0,36,34,
1572238400,2019-10-28 04:53:20.663,16406,1.4656677E1,0,8,0,36,34,
1572238460,2019-10-28 04:54:20.663,16420,1.4635345E1,0,10,0,35,37,
1572238520,2019-10-28 04:55:20.663,16420,1.4720581E1,0,5,0,31,37,
1572238580,2019-10-28 04:56:20.663,16420,1.4660919E1,0,9,0,31,33,
1572238640,2019-10-28 04:57:20.663,16420,1.461618E1,0,9,0,38,36,
1572238700,2019-10-28 04:58:20.663,16420,1.4506439E1,0,6,0,36,40,
1572238760,2019-10-28 04:59:20.673,16420,1.4404144E1,0,9,0,35,38,
