Time(longsecs),Time(UTC),Earth Location,GPS Receiver Status,GPS Satellites Used,GPS PDOP,GPS TDOP,Timing Status,Timing Phase Lock,Timing Uncertainty(ns),DAC Count,Timing Error(ns),GPS Last Update Time,
1572260420,2019-10-28 11:00:20.663,47.644942N 0.586884E 187m,Off,8,3.5972133,2.5672383,Time OK,Free running,13000,8930,0,2019-10-28 10:50:47.000000000,
1572260480,2019-10-28 11:01:20.663,47.644942N 0.586884E 187m,Off,8,3.5972133,2.5672383,Time OK,Free running,15100,8930,0,2019-10-28 10:50:47.000000000,
1572260540,2019-10-28 11:02:20.681,47.644942N 0.586884E 187m,Off,8,3.5972133,2.5672383,Time OK,Free running,17200,8930,0,2019-10-28 10:50:47.000000000,
1572260600,2019-10-28 11:03:20.663,47.644942N 0.586884E 187m,Off,8,3.5972133,2.5672383,Time OK,Free running,19600,8930,0,2019-10-28 10:50:47.000000000,
1572260660,2019-10-28 11:04:20.663,47.644942N 0.586884E 187m,Off,8,3.5972133,2.5672383,Time OK,Free running,22100,8930,0,2019-10-28 10:50:47.000000000,
1572260720,2019-10-28 11:05:20.664,47.644942N 0.586884E 187m,Off,8,3.5972133,2.5672383,Time OK,Free running,24500,8930,0,2019-10-28 10:50:47.000000000,
1572260780,2019-10-28 11:06:20.663,47.644942N 0.586884E 187m,Off,8,3.5972133,2.5672383,Time OK,Free running,27200,8930,0,2019-10-28 10:50:47.000000000,
1572260840,2019-10-28 11:07:20.663,47.644942N 0.586884E 187m,Off,8,3.5972133,2.5672383,Time OK,Free running,30400,8930,0,2019-10-28 10:50:47.000000000,
1572260900,2019-10-28 11:08:20.663,47.644942N 0.586884E 187m,Off,8,3.5972133,2.5672383,Time OK,Free running,34000,8930,0,2019-10-28 10:50:47.000000000,
1572260960,2019-10-28 11:09:20.663,47.644942N 0.586884E 187m,Off,8,3.5972133,2.5672383,Time OK,Free running,37800,8930,0,2019-10-28 10:50:47.000000000,
1572261020,2019-10-28 11:10:20.663,47.644942N 0.586884E 187m,Off,8,3.5972133,2.5672383,Time OK,Free running,41600,8930,0,2019-10-28 10:50:47.000000000,
1572261080,2019-10-28 11:11:20.663,47.644942N 0.586884E 187m,Off,8,3.5972133,2.5672383,Time OK,Free running,45300,8930,0,2019-10-28 10:50:47.000000000,
1572261140,2019-10-28 11:12:20.663,47.644942N 0.586884E 187m,Off,8,3.5972133,2.5672383,Time OK,Free running,49300,8930,0,2019-10-28 10:50:47.000000000,
1572261200,2019-10-28 11:13:20.663,47.644942N 0.586884E 187m,Off,8,3.5972133,2.5672383,Time OK,Free running,53400,8930,0,2019-10-28 10:50:47.000000000,
1572261260,2019-10-28 11:14:20.664,47.644942N 0.586884E 187m,Doing fixes,7,3.762138,2.782624,Time OK,Coarse lock,100,10985,-26354,2019-10-28 11:14:17.000000000,
1572261320,2019-10-28 11:15:20.664,47.644942N 0.586884E 187m,Doing fixes,7,3.7327821,2.7569997,Time OK,Fine lock,100,8978,104,2019-10-28 11:15:17.000000000,
1572261380,2019-10-28 11:16:20.664,47.644942N 0.586884E 187m,Doing fixes,8,3.105936,2.1793423,Time OK,Fine lock,100,9000,0,2019-10-28 11:16:17.000000000,
1572261440,2019-10-28 11:17:20.663,47.644942N 0.586884E 187m,Off,7,3.3626106,2.3944128,Time OK,Free running,100,9003,0,2019-10-28 11:17:17.000000000,
1572261500,2019-10-28 11:18:20.663,47.644942N 0.586884E 187m,Off,7,3.3626106,2.3944128,Time OK,Free running,1100,9003,0,2019-10-28 11:17:17.000000000,
1572261560,2019-10-28 11:19:20.663,47.644942N 0.586884E 187m,Off,7,3.3626106,2.3944128,Time OK,Free running,2000,9003,0,2019-10-28 11:17:17.000000000,
1572261620,2019-10-28 11:20:20.663,47.644942N 0.586884E 187m,Off,7,3.3626106,2.3944128,Time OK,Free running,3100,9003,0,2019-10-28 11:17:17.000000000,
1572261680,2019-10-28 11:21:20.663,47.644942N 0.586884E 187m,Off,7,3.3626106,2.3944128,Time OK,Free running,4200,9003,0,2019-10-28 11:17:17.000000000,
1572261740,2019-10-28 11:22:20.663,47.644942N 0.586884E 187m,Off,7,3.3626106,2.3944128,Time OK,Free running,5500,9003,0,2019-10-28 11:17:17.000000000,
1572261800,2019-10-28 11:23:20.663,47.644942N 0.586884E 187m,Off,7,3.3626106,2.3944128,Time OK,Free running,7200,9003,0,2019-10-28 11:17:17.000000000,
1572261860,2019-10-28 11:24:20.663,47.644942N 0.586884E 187m,Off,7,3.3626106,2.3944128,Time OK,Free running,9000,9003,0,2019-10-28 11:17:17.000000000,
1572261920,2019-10-28 11:25:20.663,47.644942N 0.586884E 187m,Off,7,3.3626106,2.3944128,Time OK,Free running,11100,9003,0,2019-10-28 11:17:17.000000000,
1572261980,2019-10-28 11:26:20.663,47.644942N 0.586884E 187m,Off,7,3.3626106,2.3944128,Time OK,Free running,13400,9003,0,2019-10-28 11:17:17.000000000,
1572262040,2019-10-28 11:27:20.663,47.644942N 0.586884E 187m,Off,7,3.3626106,2.3944128,Time OK,Free running,15600,9003,0,2019-10-28 11:17:17.000000000,
1572262100,2019-10-28 11:28:20.663,47.644942N 0.586884E 187m,Off,7,3.3626106,2.3944128,Time OK,Free running,18000,9003,0,2019-10-28 11:17:17.000000000,
1572262160,2019-10-28 11:29:20.665,47.644942N 0.586884E 187m,Off,7,3.3626106,2.3944128,Time OK,Free running,20600,9003,0,2019-10-28 11:17:17.000000000,
1572262220,2019-10-28 11:30:20.663,47.644942N 0.586884E 187m,Off,7,3.3626106,2.3944128,Time OK,Free running,22900,9003,0,2019-10-28 11:17:17.000000000,
1572262280,2019-10-28 11:31:20.663,47.644942N 0.586884E 187m,Off,7,3.3626106,2.3944128,Time OK,Free running,25600,9003,0,2019-10-28 11:17:17.000000000,
1572262340,2019-10-28 11:32:20.663,47.644942N 0.586884E 187m,Off,7,3.3626106,2.3944128,Time OK,Free running,28900,9003,0,2019-10-28 11:17:17.000000000,
1572262400,2019-10-28 11:33:20.664,47.644942N 0.586884E 187m,Off,7,3.3626106,2.3944128,Time OK,Free running,31900,9003,0,2019-10-28 11:17:17.000000000,
1572262460,2019-10-28 11:34:20.663,47.644942N 0.586884E 187m,Off,7,3.3626106,2.3944128,Time OK,Free running,35000,9003,0,2019-10-28 11:17:17.000000000,
1572262520,2019-10-28 11:35:20.663,47.644942N 0.586884E 187m,Off,7,3.3626106,2.3944128,Time OK,Free running,38600,9003,0,2019-10-28 11:17:17.000000000,
1572262580,2019-10-28 11:36:20.663,47.644942N 0.586884E 187m,Off,7,3.3626106,2.3944128,Time OK,Free running,42300,9003,0,2019-10-28 11:17:17.000000000,
1572262640,2019-10-28 11:37:20.663,47.644942N 0.586884E 187m,Off,7,3.3626106,2.3944128,Time OK,Free running,46000,9003,0,2019-10-28 11:17:17.000000000,
1572262700,2019-10-28 11:38:20.663,47.644942N 0.586884E 187m,Off,7,3.3626106,2.3944128,Time OK,Free running,49800,9003,0,2019-10-28 11:17:17.000000000,
1572262760,2019-10-28 11:39:20.663,47.644942N 0.586884E 187m,Off,7,3.3626106,2.3944128,Time OK,Free running,53500,9003,0,2019-10-28 11:17:17.000000000,
1572262820,2019-10-28 11:40:20.663,47.644942N 0.586884E 187m,No GPS time,7,3.3626106,2.3944128,Time OK,Free running,57400,9003,0,2019-10-28 11:17:17.000000000,
1572262880,2019-10-28 11:41:20.664,47.644942N 0.586884E 187m,Doing fixes,7,2.8200312,1.8922868,Time OK,Coarse lock,100,9489,-2708,2019-10-28 11:41:17.000000000,
1572262940,2019-10-28 11:42:20.664,47.644942N 0.586884E 187m,Doing fixes,7,2.8090024,1.8833443,Time OK,Fine lock,100,9075,-104,2019-10-28 11:42:17.000000000,
1572263000,2019-10-28 11:43:20.663,47.644942N 0.586884E 187m,Off,7,2.8053725,1.8803778,Time OK,Free running,600,9073,0,2019-10-28 11:42:37.000000000,
1572263060,2019-10-28 11:44:20.663,47.644942N 0.586884E 187m,Off,7,2.8053725,1.8803778,Time OK,Free running,1500,9073,0,2019-10-28 11:42:37.000000000,
1572263120,2019-10-28 11:45:20.663,47.644942N 0.586884E 187m,Off,7,2.8053725,1.8803778,Time OK,Free running,2400,9073,0,2019-10-28 11:42:37.000000000,
1572263180,2019-10-28 11:46:20.663,47.644942N 0.586884E 187m,Off,7,2.8053725,1.8803778,Time OK,Free running,3500,9073,0,2019-10-28 11:42:37.000000000,
1572263240,2019-10-28 11:47:20.666,47.644942N 0.586884E 187m,Off,7,2.8053725,1.8803778,Time OK,Free running,4700,9073,0,2019-10-28 11:42:37.000000000,
1572263300,2019-10-28 11:48:20.663,47.644942N 0.586884E 187m,Off,7,2.8053725,1.8803778,Time OK,Free running,6300,9073,0,2019-10-28 11:42:37.000000000,
1572263360,2019-10-28 11:49:20.663,47.644942N 0.586884E 187m,Off,7,2.8053725,1.8803778,Time OK,Free running,8100,9073,0,2019-10-28 11:42:37.000000000,
1572263420,2019-10-28 11:50:20.663,47.644942N 0.586884E 187m,Off,7,2.8053725,1.8803778,Time OK,Free running,10100,9073,0,2019-10-28 11:42:37.000000000,
1572263480,2019-10-28 11:51:20.663,47.644942N 0.586884E 187m,Off,7,2.8053725,1.8803778,Time OK,Free running,12400,9073,0,2019-10-28 11:42:37.000000000,
1572263540,2019-10-28 11:52:20.665,47.644942N 0.586884E 187m,Off,7,2.8053725,1.8803778,Time OK,Free running,14600,9073,0,2019-10-28 11:42:37.000000000,
1572263600,2019-10-28 11:53:20.663,47.644942N 0.586884E 187m,Off,7,2.8053725,1.8803778,Time OK,Free running,17000,9073,0,2019-10-28 11:42:37.000000000,
1572263660,2019-10-28 11:54:20.663,47.644942N 0.586884E 187m,Off,7,2.8053725,1.8803778,Time OK,Free running,19900,9073,0,2019-10-28 11:42:37.000000000,
1572263720,2019-10-28 11:55:20.663,47.644942N 0.586884E 187m,Off,7,2.8053725,1.8803778,Time OK,Free running,22600,9073,0,2019-10-28 11:42:37.000000000,
1572263780,2019-10-28 11:56:20.663,47.644942N 0.586884E 187m,Off,7,2.8053725,1.8803778,Time OK,Free running,25400,9073,0,2019-10-28 11:42:37.000000000,
1572263840,2019-10-28 11:57:20.697,47.644942N 0.586884E 187m,Off,7,2.8053725,1.8803778,Time OK,Free running,28500,9073,0,2019-10-28 11:42:37.000000000,
1572263900,2019-10-28 11:58:20.663,47.644942N 0.586884E 187m,Off,7,2.8053725,1.8803778,Time OK,Free running,31400,9073,0,2019-10-28 11:42:37.000000000,
1572263960,2019-10-28 11:59:20.663,47.644942N 0.586884E 187m,Off,7,2.8053725,1.8803778,Time OK,Free running,34600,9073,0,2019-10-28 11:42:37.000000000,
