Time(longsecs),Time(UTC),Supply Voltage(mV),Temperature(&deg;C),NMX Bus Current(mA),Sensor Current(mA),Serial Port Current(mA),Controller Current(mA),Digitizer Current(mA),
1570089611,2019-10-03 08:00:11.767,15907,1.4357697E1,0,11,0,61,40,
1570089671,2019-10-03 08:01:11.767,15921,1.432019E1,0,4,0,61,42,
1570089731,2019-10-03 08:02:11.776,15921,1.4274139E1,0,9,0,62,41,
1570089791,2019-10-03 08:03:11.799,15935,1.4258057E1,0,8,0,51,40,
1570089851,2019-10-03 08:04:11.767,15935,1.4485168E1,0,7,0,61,41,
1570089911,2019-10-03 08:05:11.767,15948,1.4256989E1,0,9,0,61,40,
1570089971,2019-10-03 08:06:11.767,15962,1.4498016E1,0,15,0,53,44,
1570090031,2019-10-03 08:07:11.767,15962,1.4408051E1,0,15,0,51,40,
1570090091,2019-10-03 08:08:11.767,15962,1.4403748E1,0,15,0,62,40,
1570090151,2019-10-03 08:09:11.767,15976,1.4492676E1,0,4,0,64,43,
1570090211,2019-10-03 08:10:11.767,15976,1.4627655E1,0,6,0,60,41,
1570090271,2019-10-03 08:11:11.767,15976,1.4622284E1,0,9,0,53,40,
1570090331,2019-10-03 08:12:11.767,15990,1.4412323E1,0,9,0,53,42,
1570090391,2019-10-03 08:13:11.767,15990,1.433197E1,0,9,0,51,40,
1570090451,2019-10-03 08:14:11.777,15990,1.4532318E1,0,10,0,62,41,
1570090511,2019-10-03 08:15:11.767,15990,1.471228E1,0,9,0,58,39,
1570090571,2019-10-03 08:16:11.767,15990,1.4697296E1,0,10,0,51,39,
1570090631,2019-10-03 08:17:11.767,16003,1.4565521E1,0,9,0,51,42,
1570090691,2019-10-03 08:18:11.767,16003,1.473584E1,0,10,0,61,42,
1570090751,2019-10-03 08:19:11.767,16003,1.4591217E1,0,7,0,70,41,
1570090811,2019-10-03 08:20:11.767,16017,1.4780853E1,0,6,0,60,42,
1570090871,2019-10-03 08:21:11.767,16017,1.4825836E1,0,19,0,53,39,
1570090931,2019-10-03 08:22:11.767,16031,1.46319275E1,0,9,0,53,42,
1570090991,2019-10-03 08:23:11.767,16031,1.47144165E1,0,11,0,53,44,
1570091051,2019-10-03 08:24:11.767,16031,1.4763702E1,0,9,0,60,40,
1570091111,2019-10-03 08:25:11.767,16017,1.4882599E1,0,0,0,60,44,
1570091171,2019-10-03 08:26:11.767,16045,1.4971527E1,0,7,0,60,41,
1570091231,2019-10-03 08:27:11.767,16031,1.4870819E1,0,7,0,53,43,
1570091291,2019-10-03 08:28:11.767,16031,1.4913666E1,0,12,0,53,43,
1570091351,2019-10-03 08:29:11.767,16045,1.4920105E1,0,12,0,66,42,
1570091411,2019-10-03 08:30:11.767,16031,1.4925476E1,0,9,0,55,41,
1570091471,2019-10-03 08:31:11.767,16045,1.4913666E1,0,9,0,50,43,
1570091531,2019-10-03 08:32:11.767,16045,1.5033661E1,0,15,0,50,40,
1570091591,2019-10-03 08:33:11.767,16045,1.4679077E1,0,9,0,53,40,
1570091651,2019-10-03 08:34:11.767,16045,1.5055084E1,0,7,0,60,43,
1570091711,2019-10-03 08:35:11.767,16045,1.5243622E1,0,4,0,64,40,
1570091771,2019-10-03 08:36:11.769,16045,1.50401E1,0,11,0,58,39,
1570091831,2019-10-03 08:37:11.769,16058,1.506366E1,0,1,0,51,42,
1570091891,2019-10-03 08:38:11.767,16058,1.5056152E1,0,11,0,51,39,
1570091951,2019-10-03 08:39:11.767,16058,1.5281128E1,0,9,0,61,38,
1570092011,2019-10-03 08:40:11.767,16058,1.4944733E1,0,7,0,61,37,
1570092071,2019-10-03 08:41:11.767,16072,1.51633E1,0,0,0,61,40,
1570092131,2019-10-03 08:42:11.767,16072,1.5335754E1,0,6,0,51,40,
1570092191,2019-10-03 08:43:11.767,16086,1.5009033E1,0,11,0,51,41,
1570092251,2019-10-03 08:44:11.767,16099,1.5020813E1,0,8,0,60,45,
1570092311,2019-10-03 08:45:11.767,16099,1.5263977E1,0,8,0,60,40,
1570092371,2019-10-03 08:46:11.799,16113,1.5246857E1,0,9,0,51,43,
1570092431,2019-10-03 08:47:11.767,16141,1.5292908E1,0,11,0,51,43,
1570092491,2019-10-03 08:48:11.767,16126,1.5182556E1,0,9,0,60,42,
1570092551,2019-10-03 08:49:11.767,16126,1.5440735E1,0,11,0,60,45,
1570092611,2019-10-03 08:50:11.767,16141,1.5372192E1,0,9,0,59,36,
1570092671,2019-10-03 08:51:11.767,16126,1.5602509E1,0,9,0,62,36,
1570092731,2019-10-03 08:52:11.767,16126,1.5581085E1,0,11,0,60,40,
1570092791,2019-10-03 08:53:11.768,16209,1.5497528E1,0,12,0,60,45,
1570092851,2019-10-03 08:54:11.767,16072,1.5554291E1,0,9,0,61,40,
1570092911,2019-10-03 08:55:11.767,16182,1.5585358E1,0,11,0,60,39,
1570092971,2019-10-03 08:56:11.767,16154,1.5485748E1,0,9,0,51,39,
1570093031,2019-10-03 08:57:11.767,16168,1.5869232E1,0,8,0,50,38,
1570093091,2019-10-03 08:58:11.767,16168,1.5452515E1,0,11,0,51,39,
1570093151,2019-10-03 08:59:11.767,16168,1.571283E1,0,9,0,62,42,
