Time(longsecs),Time(UTC),GPS Satellite Acquisition Flag 1,GPS Satellite Acquisition Flag 2,GPS Satellite Acquisition Flag 3,GPS Satellite Acquisition Flag 4,GPS Satellite Acquisition Flag 5,GPS Satellite Acquisition Flag 6,GPS Satellite Acquisition Flag 7,GPS Satellite Acquisition Flag 8,GPS Satellite Acquisition Flag 9,GPS Satellite Acquisition Flag 10,GPS Satellite Acquisition Flag 11,GPS Satellite Acquisition Flag 12,GPS Satellite Azimuth 1(Degrees),GPS Satellite Azimuth 2(Degrees),GPS Satellite Azimuth 3(Degrees),GPS Satellite Azimuth 4(Degrees),GPS Satellite Azimuth 5(Degrees),GPS Satellite Azimuth 6(Degrees),GPS Satellite Azimuth 7(Degrees),GPS Satellite Azimuth 8(Degrees),GPS Satellite Azimuth 9(Degrees),GPS Satellite Azimuth 10(Degrees),GPS Satellite Azimuth 11(Degrees),GPS Satellite Azimuth 12(Degrees),GPS Satellite Elevation 1(Degrees),GPS Satellite Elevation 2(Degrees),GPS Satellite Elevation 3(Degrees),GPS Satellite Elevation 4(Degrees),GPS Satellite Elevation 5(Degrees),GPS Satellite Elevation 6(Degrees),GPS Satellite Elevation 7(Degrees),GPS Satellite Elevation 8(Degrees),GPS Satellite Elevation 9(Degrees),GPS Satellite Elevation 10(Degrees),GPS Satellite Elevation 11(Degrees),GPS Satellite Elevation 12(Degrees),GPS Satellite PRN 1,GPS Satellite PRN 2,GPS Satellite PRN 3,GPS Satellite PRN 4,GPS Satellite PRN 5,GPS Satellite PRN 6,GPS Satellite PRN 7,GPS Satellite PRN 8,GPS Satellite PRN 9,GPS Satellite PRN 10,GPS Satellite PRN 11,GPS Satellite PRN 12,GPS Satellite Signal Level 1(AMU),GPS Satellite Signal Level 2(AMU),GPS Satellite Signal Level 3(AMU),GPS Satellite Signal Level 4(AMU),GPS Satellite Signal Level 5(AMU),GPS Satellite Signal Level 6(AMU),GPS Satellite Signal Level 7(AMU),GPS Satellite Signal Level 8(AMU),GPS Satellite Signal Level 9(AMU),GPS Satellite Signal Level 10(AMU),GPS Satellite Signal Level 11(AMU),GPS Satellite Signal Level 12(AMU),
1570100411,2019-10-03 11:00:11.767,Acquired,Acquired,Acquired,Acquired,Acquired,Acquired,Acquired,Acquired,Acquired,Acquired,Not acquired,,3.4523087999999996E2,2.34015344E2,1.67340048E2,1.71938128E2,8.1482192E1,3.15544192E2,9.5732824E1,2.31942768E2,2.78172256E2,5.2986396E1,1.8598004799999998E2,,8.1643624E1,4.934288E1,3.127321E1,8.0937024E1,4.1832696E1,2.1651398E1,6.606616E1,7.3474864E1,2.5360546E1,3.0008969999999998E1,5.3415099999999995E0,,1,3,8,11,14,17,18,22,28,32,23,,15,16,11,10,7,3,15,13,1,2,0,,
1570100471,2019-10-03 11:01:11.767,Acquired,Acquired,Acquired,Acquired,Acquired,Acquired,Acquired,Acquired,Acquired,Acquired,Not acquired,,3.4523087999999996E2,2.34015344E2,1.67340048E2,1.71938128E2,8.1482192E1,3.15544192E2,9.5732824E1,2.31942768E2,2.78172256E2,5.2986396E1,1.8598004799999998E2,,8.1643624E1,4.934288E1,3.127321E1,8.0937024E1,4.1832696E1,2.1651398E1,6.606616E1,7.3474864E1,2.5360546E1,3.0008969999999998E1,5.3415099999999995E0,,1,3,8,11,14,17,18,22,28,32,23,,15,16,11,10,7,3,15,13,1,2,0,,
1570100531,2019-10-03 11:02:11.767,Acquired,Acquired,Acquired,Acquired,Acquired,Acquired,Acquired,Acquired,Acquired,Acquired,Not acquired,,3.4523087999999996E2,2.34015344E2,1.67340048E2,1.71938128E2,8.1482192E1,3.15544192E2,9.5732824E1,2.31942768E2,2.78172256E2,5.2986396E1,1.8598004799999998E2,,8.1643624E1,4.934288E1,3.127321E1,8.0937024E1,4.1832696E1,2.1651398E1,6.606616E1,7.3474864E1,2.5360546E1,3.0008969999999998E1,5.3415099999999995E0,,1,3,8,11,14,17,18,22,28,32,23,,15,16,11,10,7,3,15,13,1,2,0,,
1570100591,2019-10-03 11:03:11.767,Acquired,Acquired,Acquired,Acquired,Acquired,Acquired,Acquired,Acquired,Acquired,Acquired,Not acquired,,3.4523087999999996E2,2.34015344E2,1.67340048E2,1.71938128E2,8.1482192E1,3.15544192E2,9.5732824E1,2.31942768E2,2.78172256E2,5.2986396E1,1.8598004799999998E2,,8.1643624E1,4.934288E1,3.127321E1,8.0937024E1,4.1832696E1,2.1651398E1,6.606616E1,7.3474864E1,2.5360546E1,3.0008969999999998E1,5.3415099999999995E0,,1,3,8,11,14,17,18,22,28,32,23,,15,16,11,10,7,3,15,13,1,2,0,,
1570100651,2019-10-03 11:04:11.767,Acquired,Acquired,Acquired,Acquired,Acquired,Acquired,Acquired,Acquired,Acquired,Acquired,Not acquired,,3.4523087999999996E2,2.34015344E2,1.67340048E2,1.71938128E2,8.1482192E1,3.15544192E2,9.5732824E1,2.31942768E2,2.78172256E2,5.2986396E1,1.8598004799999998E2,,8.1643624E1,4.934288E1,3.127321E1,8.0937024E1,4.1832696E1,2.1651398E1,6.606616E1,7.3474864E1,2.5360546E1,3.0008969999999998E1,5.3415099999999995E0,,1,3,8,11,14,17,18,22,28,32,23,,15,16,11,10,7,3,15,13,1,2,0,,
1570100711,2019-10-03 11:05:11.767,Acquired,Acquired,Acquired,Acquired,Acquired,Acquired,Acquired,Acquired,Acquired,Acquired,Not acquired,,3.4523087999999996E2,2.34015344E2,1.67340048E2,1.71938128E2,8.1482192E1,3.15544192E2,9.5732824E1,2.31942768E2,2.78172256E2,5.2986396E1,1.8598004799999998E2,,8.1643624E1,4.934288E1,3.127321E1,8.0937024E1,4.1832696E1,2.1651398E1,6.606616E1,7.3474864E1,2.5360546E1,3.0008969999999998E1,5.3415099999999995E0,,1,3,8,11,14,17,18,22,28,32,23,,15,16,11,10,7,3,15,13,1,2,0,,
1570100771,2019-10-03 11:06:11.767,Acquired,Acquired,Acquired,Acquired,Acquired,Acquired,Acquired,Acquired,Acquired,Acquired,Not acquired,,3.4523087999999996E2,2.34015344E2,1.67340048E2,1.71938128E2,8.1482192E1,3.15544192E2,9.5732824E1,2.31942768E2,2.78172256E2,5.2986396E1,1.8598004799999998E2,,8.1643624E1,4.934288E1,3.127321E1,8.0937024E1,4.1832696E1,2.1651398E1,6.606616E1,7.3474864E1,2.5360546E1,3.0008969999999998E1,5.3415099999999995E0,,1,3,8,11,14,17,18,22,28,32,23,,15,16,11,10,7,3,15,13,1,2,0,,
1570100831,2019-10-03 11:07:11.768,Acquired,Acquired,Acquired,Acquired,Acquired,Acquired,Acquired,Acquired,Acquired,Acquired,Not acquired,,3.4523087999999996E2,2.34015344E2,1.67340048E2,1.71938128E2,8.1482192E1,3.15544192E2,9.5732824E1,2.31942768E2,2.78172256E2,5.2986396E1,1.8598004799999998E2,,8.1643624E1,4.934288E1,3.127321E1,8.0937024E1,4.1832696E1,2.1651398E1,6.606616E1,7.3474864E1,2.5360546E1,3.0008969999999998E1,5.3415099999999995E0,,1,3,8,11,14,17,18,22,28,32,23,,15,16,11,10,7,3,15,13,1,2,0,,
1570100891,2019-10-03 11:08:11.785,Acquired,Acquired,Acquired,Acquired,Acquired,Acquired,Acquired,Acquired,Acquired,Acquired,Not acquired,,3.4523087999999996E2,2.34015344E2,1.67340048E2,1.71938128E2,8.1482192E1,3.15544192E2,9.5732824E1,2.31942768E2,2.78172256E2,5.2986396E1,1.8598004799999998E2,,8.1643624E1,4.934288E1,3.127321E1,8.0937024E1,4.1832696E1,2.1651398E1,6.606616E1,7.3474864E1,2.5360546E1,3.0008969999999998E1,5.3415099999999995E0,,1,3,8,11,14,17,18,22,28,32,23,,15,16,11,10,7,3,15,13,1,2,0,,
1570100951,2019-10-03 11:09:11.767,Acquired,Acquired,Acquired,Acquired,Acquired,Acquired,Acquired,Acquired,Acquired,Acquired,Not acquired,,3.4523087999999996E2,2.34015344E2,1.67340048E2,1.71938128E2,8.1482192E1,3.15544192E2,9.5732824E1,2.31942768E2,2.78172256E2,5.2986396E1,1.8598004799999998E2,,8.1643624E1,4.934288E1,3.127321E1,8.0937024E1,4.1832696E1,2.1651398E1,6.606616E1,7.3474864E1,2.5360546E1,3.0008969999999998E1,5.3415099999999995E0,,1,3,8,11,14,17,18,22,28,32,23,,15,16,11,10,7,3,15,13,1,2,0,,
1570101011,2019-10-03 11:10:11.767,Acquired,Acquired,Acquired,Acquired,Acquired,Acquired,Acquired,Acquired,Acquired,Acquired,Not acquired,,3.4523087999999996E2,2.34015344E2,1.67340048E2,1.71938128E2,8.1482192E1,3.15544192E2,9.5732824E1,2.31942768E2,2.78172256E2,5.2986396E1,1.8598004799999998E2,,8.1643624E1,4.934288E1,3.127321E1,8.0937024E1,4.1832696E1,2.1651398E1,6.606616E1,7.3474864E1,2.5360546E1,3.0008969999999998E1,5.3415099999999995E0,,1,3,8,11,14,17,18,22,28,32,23,,15,16,11,10,7,3,15,13,1,2,0,,
1570101071,2019-10-03 11:11:11.796,Acquired,Acquired,Acquired,Acquired,Acquired,Acquired,Acquired,Acquired,Acquired,Acquired,Not acquired,,3.4523087999999996E2,2.34015344E2,1.67340048E2,1.71938128E2,8.1482192E1,3.15544192E2,9.5732824E1,2.31942768E2,2.78172256E2,5.2986396E1,1.8598004799999998E2,,8.1643624E1,4.934288E1,3.127321E1,8.0937024E1,4.1832696E1,2.1651398E1,6.606616E1,7.3474864E1,2.5360546E1,3.0008969999999998E1,5.3415099999999995E0,,1,3,8,11,14,17,18,22,28,32,23,,15,16,11,10,7,3,15,13,1,2,0,,
1570101131,2019-10-03 11:12:11.767,Acquired,Acquired,Acquired,Acquired,Acquired,Acquired,Acquired,Acquired,Acquired,Acquired,Not acquired,,3.4523087999999996E2,2.34015344E2,1.67340048E2,1.71938128E2,8.1482192E1,3.15544192E2,9.5732824E1,2.31942768E2,2.78172256E2,5.2986396E1,1.8598004799999998E2,,8.1643624E1,4.934288E1,3.127321E1,8.0937024E1,4.1832696E1,2.1651398E1,6.606616E1,7.3474864E1,2.5360546E1,3.0008969999999998E1,5.3415099999999995E0,,1,3,8,11,14,17,18,22,28,32,23,,15,16,11,10,7,3,15,13,1,2,0,,
1570101191,2019-10-03 11:13:11.767,Acquired,Acquired,Acquired,Acquired,Acquired,Acquired,Acquired,Acquired,Acquired,Acquired,Not acquired,,3.4523087999999996E2,2.34015344E2,1.67340048E2,1.71938128E2,8.1482192E1,3.15544192E2,9.5732824E1,2.31942768E2,2.78172256E2,5.2986396E1,1.8598004799999998E2,,8.1643624E1,4.934288E1,3.127321E1,8.0937024E1,4.1832696E1,2.1651398E1,6.606616E1,7.3474864E1,2.5360546E1,3.0008969999999998E1,5.3415099999999995E0,,1,3,8,11,14,17,18,22,28,32,23,,15,16,11,10,7,3,15,13,1,2,0,,
1570101251,2019-10-03 11:14:11.767,Acquired,Acquired,Acquired,Acquired,Acquired,Acquired,Acquired,Acquired,Acquired,Acquired,Not acquired,,3.4523087999999996E2,2.34015344E2,1.67340048E2,1.71938128E2,8.1482192E1,3.15544192E2,9.5732824E1,2.31942768E2,2.78172256E2,5.2986396E1,1.8598004799999998E2,,8.1643624E1,4.934288E1,3.127321E1,8.0937024E1,4.1832696E1,2.1651398E1,6.606616E1,7.3474864E1,2.5360546E1,3.0008969999999998E1,5.3415099999999995E0,,1,3,8,11,14,17,18,22,28,32,23,,15,16,11,10,7,3,15,13,1,2,0,,
1570101311,2019-10-03 11:15:11.768,Acquired,Acquired,Acquired,Acquired,Acquired,Acquired,Acquired,Acquired,Acquired,Acquired,Not acquired,,3.4523087999999996E2,2.34015344E2,1.67340048E2,1.71938128E2,8.1482192E1,3.15544192E2,9.5732824E1,2.31942768E2,2.78172256E2,5.2986396E1,1.8598004799999998E2,,8.1643624E1,4.934288E1,3.127321E1,8.0937024E1,4.1832696E1,2.1651398E1,6.606616E1,7.3474864E1,2.5360546E1,3.0008969999999998E1,5.3415099999999995E0,,1,3,8,11,14,17,18,22,28,32,23,,15,16,11,10,7,3,15,13,1,2,0,,
1570101371,2019-10-03 11:16:11.767,Acquired,Acquired,Acquired,Acquired,Acquired,Acquired,Acquired,Acquired,Acquired,Acquired,Not acquired,,3.48066368E2,2.3430900799999998E2,1.67378944E2,1.70309792E2,8.088332E1,3.15453248E2,9.6306376E1,2.3222518399999998E2,2.77727776E2,5.2601208E1,1.8592368E2,,8.19074E1,4.9796907999999995E1,3.0803378E1,8.05112E1,4.1839316E1,2.2030748E1,6.563024399999999E1,7.394401599999999E1,2.5189595999999998E1,2.9766792E1,5.745188E0,,1,3,8,11,14,17,18,22,28,32,23,,15,15,11,9,7,3,14,13,2,6,0,,
1570101431,2019-10-03 11:17:11.767,Acquired,Acquired,Acquired,Acquired,Acquired,Not acquired,Acquired,Not acquired,Acquired,Acquired,Not acquired,Not acquired,7.8582904E1,2.4372833599999998E2,1.68240512E2,1.54926752E2,6.558825999999999E1,3.11191712E2,1.0857168E2,3.19213664E2,2.4766457599999998E2,1.84777376E2,2.66609056E2,4.414204E1,7.9727784E1,6.2070048E1,1.8459176E1,6.7511376E1,3.9635628E1,3.1970029999999998E1,5.37741E1,1.4751937999999999E1,8.6466472E1,1.7062842E1,1.9267262E1,2.201185E1,1,3,8,11,14,17,18,19,22,23,28,32,15,14,9,13,6,0,9,0,14,13,0,0,
1570101491,2019-10-03 11:18:11.767,Acquired,Acquired,Acquired,Acquired,Acquired,Acquired,Acquired,Not acquired,Acquired,Acquired,Not acquired,Acquired,8.0390288E1,2.44137744E2,1.68261696E2,1.54796976E2,6.5093676E1,3.1096544E2,1.08932656E2,3.19127616E2,2.4963639999999998E2,1.84745968E2,2.66243456E2,4.3906644E1,7.9386296E1,6.2508115999999994E1,1.8029868E1,6.702633999999999E1,3.9476652E1,3.2309486E1,5.3349467999999995E1,1.5131950999999999E1,8.690104E1,1.7479568E1,1.9016071999999998E1,2.1699196E1,1,3,8,11,14,17,18,19,22,23,28,32,15,15,8,14,5,3,8,0,13,14,1,2,
1570101551,2019-10-03 11:19:11.805,Acquired,Acquired,Acquired,Acquired,Acquired,Acquired,Acquired,Not acquired,Acquired,Acquired,Not acquired,Acquired,8.0390288E1,2.44137744E2,1.68261696E2,1.54796976E2,6.5093676E1,3.1096544E2,1.08932656E2,3.19127616E2,2.4963639999999998E2,1.84745968E2,2.66243456E2,4.3906644E1,7.9386296E1,6.2508115999999994E1,1.8029868E1,6.702633999999999E1,3.9476652E1,3.2309486E1,5.3349467999999995E1,1.5131950999999999E1,8.690104E1,1.7479568E1,1.9016071999999998E1,2.1699196E1,1,3,8,11,14,17,18,19,22,23,28,32,15,15,8,14,5,3,8,0,13,14,1,2,
1570101611,2019-10-03 11:20:11.767,Acquired,Acquired,Acquired,Acquired,Acquired,Acquired,Acquired,Not acquired,Acquired,Acquired,Not acquired,Acquired,8.0390288E1,2.44137744E2,1.68261696E2,1.54796976E2,6.5093676E1,3.1096544E2,1.08932656E2,3.19127616E2,2.4963639999999998E2,1.84745968E2,2.66243456E2,4.3906644E1,7.9386296E1,6.2508115999999994E1,1.8029868E1,6.702633999999999E1,3.9476652E1,3.2309486E1,5.3349467999999995E1,1.5131950999999999E1,8.690104E1,1.7479568E1,1.9016071999999998E1,2.1699196E1,1,3,8,11,14,17,18,19,22,23,28,32,15,15,8,14,5,3,8,0,13,14,1,2,
1570101671,2019-10-03 11:21:11.767,Acquired,Acquired,Acquired,Acquired,Acquired,Acquired,Acquired,Not acquired,Acquired,Acquired,Not acquired,Acquired,8.0390288E1,2.44137744E2,1.68261696E2,1.54796976E2,6.5093676E1,3.1096544E2,1.08932656E2,3.19127616E2,2.4963639999999998E2,1.84745968E2,2.66243456E2,4.3906644E1,7.9386296E1,6.2508115999999994E1,1.8029868E1,6.702633999999999E1,3.9476652E1,3.2309486E1,5.3349467999999995E1,1.5131950999999999E1,8.690104E1,1.7479568E1,1.9016071999999998E1,2.1699196E1,1,3,8,11,14,17,18,19,22,23,28,32,15,15,8,14,5,3,8,0,13,14,1,2,
1570101731,2019-10-03 11:22:11.767,Acquired,Acquired,Acquired,Acquired,Acquired,Acquired,Acquired,Not acquired,Acquired,Acquired,Not acquired,Acquired,8.0390288E1,2.44137744E2,1.68261696E2,1.54796976E2,6.5093676E1,3.1096544E2,1.08932656E2,3.19127616E2,2.4963639999999998E2,1.84745968E2,2.66243456E2,4.3906644E1,7.9386296E1,6.2508115999999994E1,1.8029868E1,6.702633999999999E1,3.9476652E1,3.2309486E1,5.3349467999999995E1,1.5131950999999999E1,8.690104E1,1.7479568E1,1.9016071999999998E1,2.1699196E1,1,3,8,11,14,17,18,19,22,23,28,32,15,15,8,14,5,3,8,0,13,14,1,2,
1570101791,2019-10-03 11:23:11.769,Acquired,Acquired,Acquired,Acquired,Acquired,Acquired,Acquired,Not acquired,Acquired,Acquired,Not acquired,Acquired,8.0390288E1,2.44137744E2,1.68261696E2,1.54796976E2,6.5093676E1,3.1096544E2,1.08932656E2,3.19127616E2,2.4963639999999998E2,1.84745968E2,2.66243456E2,4.3906644E1,7.9386296E1,6.2508115999999994E1,1.8029868E1,6.702633999999999E1,3.9476652E1,3.2309486E1,5.3349467999999995E1,1.5131950999999999E1,8.690104E1,1.7479568E1,1.9016071999999998E1,2.1699196E1,1,3,8,11,14,17,18,19,22,23,28,32,15,15,8,14,5,3,8,0,13,14,1,2,
1570101851,2019-10-03 11:24:11.772,Acquired,Acquired,Acquired,Acquired,Acquired,Acquired,Acquired,Not acquired,Acquired,Acquired,Not acquired,Acquired,8.0390288E1,2.44137744E2,1.68261696E2,1.54796976E2,6.5093676E1,3.1096544E2,1.08932656E2,3.19127616E2,2.4963639999999998E2,1.84745968E2,2.66243456E2,4.3906644E1,7.9386296E1,6.2508115999999994E1,1.8029868E1,6.702633999999999E1,3.9476652E1,3.2309486E1,5.3349467999999995E1,1.5131950999999999E1,8.690104E1,1.7479568E1,1.9016071999999998E1,2.1699196E1,1,3,8,11,14,17,18,19,22,23,28,32,15,15,8,14,5,3,8,0,13,14,1,2,
1570101911,2019-10-03 11:25:11.767,Acquired,Acquired,Acquired,Acquired,Acquired,Acquired,Acquired,Not acquired,Acquired,Acquired,Not acquired,Acquired,8.0390288E1,2.44137744E2,1.68261696E2,1.54796976E2,6.5093676E1,3.1096544E2,1.08932656E2,3.19127616E2,2.4963639999999998E2,1.84745968E2,2.66243456E2,4.3906644E1,7.9386296E1,6.2508115999999994E1,1.8029868E1,6.702633999999999E1,3.9476652E1,3.2309486E1,5.3349467999999995E1,1.5131950999999999E1,8.690104E1,1.7479568E1,1.9016071999999998E1,2.1699196E1,1,3,8,11,14,17,18,19,22,23,28,32,15,15,8,14,5,3,8,0,13,14,1,2,
1570101971,2019-10-03 11:26:11.767,Acquired,Acquired,Acquired,Acquired,Acquired,Acquired,Acquired,Not acquired,Acquired,Acquired,Not acquired,Acquired,8.0390288E1,2.44137744E2,1.68261696E2,1.54796976E2,6.5093676E1,3.1096544E2,1.08932656E2,3.19127616E2,2.4963639999999998E2,1.84745968E2,2.66243456E2,4.3906644E1,7.9386296E1,6.2508115999999994E1,1.8029868E1,6.702633999999999E1,3.9476652E1,3.2309486E1,5.3349467999999995E1,1.5131950999999999E1,8.690104E1,1.7479568E1,1.9016071999999998E1,2.1699196E1,1,3,8,11,14,17,18,19,22,23,28,32,15,15,8,14,5,3,8,0,13,14,1,2,
1570102031,2019-10-03 11:27:11.769,Acquired,Acquired,Acquired,Acquired,Acquired,Acquired,Acquired,Not acquired,Acquired,Acquired,Not acquired,Acquired,8.0390288E1,2.44137744E2,1.68261696E2,1.54796976E2,6.5093676E1,3.1096544E2,1.08932656E2,3.19127616E2,2.4963639999999998E2,1.84745968E2,2.66243456E2,4.3906644E1,7.9386296E1,6.2508115999999994E1,1.8029868E1,6.702633999999999E1,3.9476652E1,3.2309486E1,5.3349467999999995E1,1.5131950999999999E1,8.690104E1,1.7479568E1,1.9016071999999998E1,2.1699196E1,1,3,8,11,14,17,18,19,22,23,28,32,15,15,8,14,5,3,8,0,13,14,1,2,
1570102091,2019-10-03 11:28:11.769,Acquired,Acquired,Acquired,Acquired,Acquired,Acquired,Acquired,Not acquired,Acquired,Acquired,Not acquired,Acquired,8.0390288E1,2.44137744E2,1.68261696E2,1.54796976E2,6.5093676E1,3.1096544E2,1.08932656E2,3.19127616E2,2.4963639999999998E2,1.84745968E2,2.66243456E2,4.3906644E1,7.9386296E1,6.2508115999999994E1,1.8029868E1,6.702633999999999E1,3.9476652E1,3.2309486E1,5.3349467999999995E1,1.5131950999999999E1,8.690104E1,1.7479568E1,1.9016071999999998E1,2.1699196E1,1,3,8,11,14,17,18,19,22,23,28,32,15,15,8,14,5,3,8,0,13,14,1,2,
1570102151,2019-10-03 11:29:11.799,Acquired,Acquired,Acquired,Acquired,Acquired,Acquired,Acquired,Not acquired,Acquired,Acquired,Not acquired,Acquired,8.0390288E1,2.44137744E2,1.68261696E2,1.54796976E2,6.5093676E1,3.1096544E2,1.08932656E2,3.19127616E2,2.4963639999999998E2,1.84745968E2,2.66243456E2,4.3906644E1,7.9386296E1,6.2508115999999994E1,1.8029868E1,6.702633999999999E1,3.9476652E1,3.2309486E1,5.3349467999999995E1,1.5131950999999999E1,8.690104E1,1.7479568E1,1.9016071999999998E1,2.1699196E1,1,3,8,11,14,17,18,19,22,23,28,32,15,15,8,14,5,3,8,0,13,14,1,2,
1570102211,2019-10-03 11:30:11.767,Acquired,Acquired,Acquired,Acquired,Acquired,Acquired,Acquired,Not acquired,Acquired,Acquired,Not acquired,Acquired,8.0390288E1,2.44137744E2,1.68261696E2,1.54796976E2,6.5093676E1,3.1096544E2,1.08932656E2,3.19127616E2,2.4963639999999998E2,1.84745968E2,2.66243456E2,4.3906644E1,7.9386296E1,6.2508115999999994E1,1.8029868E1,6.702633999999999E1,3.9476652E1,3.2309486E1,5.3349467999999995E1,1.5131950999999999E1,8.690104E1,1.7479568E1,1.9016071999999998E1,2.1699196E1,1,3,8,11,14,17,18,19,22,23,28,32,15,15,8,14,5,3,8,0,13,14,1,2,
1570102271,2019-10-03 11:31:11.773,Acquired,Acquired,Acquired,Acquired,Acquired,Acquired,Acquired,Not acquired,Acquired,Acquired,Not acquired,Acquired,8.0390288E1,2.44137744E2,1.68261696E2,1.54796976E2,6.5093676E1,3.1096544E2,1.08932656E2,3.19127616E2,2.4963639999999998E2,1.84745968E2,2.66243456E2,4.3906644E1,7.9386296E1,6.2508115999999994E1,1.8029868E1,6.702633999999999E1,3.9476652E1,3.2309486E1,5.3349467999999995E1,1.5131950999999999E1,8.690104E1,1.7479568E1,1.9016071999999998E1,2.1699196E1,1,3,8,11,14,17,18,19,22,23,28,32,15,15,8,14,5,3,8,0,13,14,1,2,
1570102331,2019-10-03 11:32:11.767,Acquired,Acquired,Acquired,Acquired,Acquired,Acquired,Acquired,Not acquired,Acquired,Acquired,Not acquired,Acquired,8.0390288E1,2.44137744E2,1.68261696E2,1.54796976E2,6.5093676E1,3.1096544E2,1.08932656E2,3.19127616E2,2.4963639999999998E2,1.84745968E2,2.66243456E2,4.3906644E1,7.9386296E1,6.2508115999999994E1,1.8029868E1,6.702633999999999E1,3.9476652E1,3.2309486E1,5.3349467999999995E1,1.5131950999999999E1,8.690104E1,1.7479568E1,1.9016071999999998E1,2.1699196E1,1,3,8,11,14,17,18,19,22,23,28,32,15,15,8,14,5,3,8,0,13,14,1,2,
1570102391,2019-10-03 11:33:11.767,Acquired,Acquired,Acquired,Acquired,Acquired,Acquired,Acquired,Not acquired,Acquired,Acquired,Not acquired,Acquired,8.0390288E1,2.44137744E2,1.68261696E2,1.54796976E2,6.5093676E1,3.1096544E2,1.08932656E2,3.19127616E2,2.4963639999999998E2,1.84745968E2,2.66243456E2,4.3906644E1,7.9386296E1,6.2508115999999994E1,1.8029868E1,6.702633999999999E1,3.9476652E1,3.2309486E1,5.3349467999999995E1,1.5131950999999999E1,8.690104E1,1.7479568E1,1.9016071999999998E1,2.1699196E1,1,3,8,11,14,17,18,19,22,23,28,32,15,15,8,14,5,3,8,0,13,14,1,2,
1570102451,2019-10-03 11:34:11.769,Acquired,Acquired,Acquired,Acquired,Acquired,Acquired,Acquired,Not acquired,Acquired,Acquired,Not acquired,Acquired,8.0390288E1,2.44137744E2,1.68261696E2,1.54796976E2,6.5093676E1,3.1096544E2,1.08932656E2,3.19127616E2,2.4963639999999998E2,1.84745968E2,2.66243456E2,4.3906644E1,7.9386296E1,6.2508115999999994E1,1.8029868E1,6.702633999999999E1,3.9476652E1,3.2309486E1,5.3349467999999995E1,1.5131950999999999E1,8.690104E1,1.7479568E1,1.9016071999999998E1,2.1699196E1,1,3,8,11,14,17,18,19,22,23,28,32,15,15,8,14,5,3,8,0,13,14,1,2,
1570102511,2019-10-03 11:35:11.767,Acquired,Acquired,Acquired,Acquired,Acquired,Acquired,Acquired,Not acquired,Acquired,Acquired,Not acquired,Acquired,8.0390288E1,2.44137744E2,1.68261696E2,1.54796976E2,6.5093676E1,3.1096544E2,1.08932656E2,3.19127616E2,2.4963639999999998E2,1.84745968E2,2.66243456E2,4.3906644E1,7.9386296E1,6.2508115999999994E1,1.8029868E1,6.702633999999999E1,3.9476652E1,3.2309486E1,5.3349467999999995E1,1.5131950999999999E1,8.690104E1,1.7479568E1,1.9016071999999998E1,2.1699196E1,1,3,8,11,14,17,18,19,22,23,28,32,15,15,8,14,5,3,8,0,13,14,1,2,
1570102571,2019-10-03 11:36:11.767,Acquired,Acquired,Acquired,Acquired,Acquired,Acquired,Acquired,Not acquired,Acquired,Acquired,Not acquired,Acquired,8.0390288E1,2.44137744E2,1.68261696E2,1.54796976E2,6.5093676E1,3.1096544E2,1.08932656E2,3.19127616E2,2.4963639999999998E2,1.84745968E2,2.66243456E2,4.3906644E1,7.9386296E1,6.2508115999999994E1,1.8029868E1,6.702633999999999E1,3.9476652E1,3.2309486E1,5.3349467999999995E1,1.5131950999999999E1,8.690104E1,1.7479568E1,1.9016071999999998E1,2.1699196E1,1,3,8,11,14,17,18,19,22,23,28,32,15,15,8,14,5,3,8,0,13,14,1,2,
1570102631,2019-10-03 11:37:11.767,Acquired,Acquired,Acquired,Acquired,Acquired,Acquired,Acquired,Not acquired,Acquired,Acquired,Not acquired,Acquired,8.0390288E1,2.44137744E2,1.68261696E2,1.54796976E2,6.5093676E1,3.1096544E2,1.08932656E2,3.19127616E2,2.4963639999999998E2,1.84745968E2,2.66243456E2,4.3906644E1,7.9386296E1,6.2508115999999994E1,1.8029868E1,6.702633999999999E1,3.9476652E1,3.2309486E1,5.3349467999999995E1,1.5131950999999999E1,8.690104E1,1.7479568E1,1.9016071999999998E1,2.1699196E1,1,3,8,11,14,17,18,19,22,23,28,32,15,15,8,14,5,3,8,0,13,14,1,2,
1570102691,2019-10-03 11:38:11.767,Acquired,Acquired,Acquired,Acquired,Acquired,Acquired,Acquired,Not acquired,Acquired,Acquired,Not acquired,Acquired,8.0390288E1,2.44137744E2,1.68261696E2,1.54796976E2,6.5093676E1,3.1096544E2,1.08932656E2,3.19127616E2,2.4963639999999998E2,1.84745968E2,2.66243456E2,4.3906644E1,7.9386296E1,6.2508115999999994E1,1.8029868E1,6.702633999999999E1,3.9476652E1,3.2309486E1,5.3349467999999995E1,1.5131950999999999E1,8.690104E1,1.7479568E1,1.9016071999999998E1,2.1699196E1,1,3,8,11,14,17,18,19,22,23,28,32,15,15,8,14,5,3,8,0,13,14,1,2,
1570102751,2019-10-03 11:39:11.767,Acquired,Acquired,Acquired,Acquired,Acquired,Acquired,Acquired,Not acquired,Acquired,Acquired,Not acquired,Acquired,8.0390288E1,2.44137744E2,1.68261696E2,1.54796976E2,6.5093676E1,3.1096544E2,1.08932656E2,3.19127616E2,2.4963639999999998E2,1.84745968E2,2.66243456E2,4.3906644E1,7.9386296E1,6.2508115999999994E1,1.8029868E1,6.702633999999999E1,3.9476652E1,3.2309486E1,5.3349467999999995E1,1.5131950999999999E1,8.690104E1,1.7479568E1,1.9016071999999998E1,2.1699196E1,1,3,8,11,14,17,18,19,22,23,28,32,15,15,8,14,5,3,8,0,13,14,1,2,
1570102811,2019-10-03 11:40:11.773,Acquired,Acquired,Acquired,Acquired,Acquired,Acquired,Acquired,Not acquired,Acquired,Acquired,Not acquired,Acquired,8.0390288E1,2.44137744E2,1.68261696E2,1.54796976E2,6.5093676E1,3.1096544E2,1.08932656E2,3.19127616E2,2.4963639999999998E2,1.84745968E2,2.66243456E2,4.3906644E1,7.9386296E1,6.2508115999999994E1,1.8029868E1,6.702633999999999E1,3.9476652E1,3.2309486E1,5.3349467999999995E1,1.5131950999999999E1,8.690104E1,1.7479568E1,1.9016071999999998E1,2.1699196E1,1,3,8,11,14,17,18,19,22,23,28,32,15,15,8,14,5,3,8,0,13,14,1,2,
1570102871,2019-10-03 11:41:11.767,Acquired,Acquired,Acquired,Acquired,Acquired,Acquired,Acquired,Not acquired,Acquired,Acquired,Not acquired,Acquired,8.0390288E1,2.44137744E2,1.68261696E2,1.54796976E2,6.5093676E1,3.1096544E2,1.08932656E2,3.19127616E2,2.4963639999999998E2,1.84745968E2,2.66243456E2,4.3906644E1,7.9386296E1,6.2508115999999994E1,1.8029868E1,6.702633999999999E1,3.9476652E1,3.2309486E1,5.3349467999999995E1,1.5131950999999999E1,8.690104E1,1.7479568E1,1.9016071999999998E1,2.1699196E1,1,3,8,11,14,17,18,19,22,23,28,32,15,15,8,14,5,3,8,0,13,14,1,2,
1570102931,2019-10-03 11:42:11.777,Acquired,Acquired,Acquired,Acquired,Acquired,Acquired,Acquired,Not acquired,Acquired,Acquired,Not acquired,Acquired,8.0390288E1,2.44137744E2,1.68261696E2,1.54796976E2,6.5093676E1,3.1096544E2,1.08932656E2,3.19127616E2,2.4963639999999998E2,1.84745968E2,2.66243456E2,4.3906644E1,7.9386296E1,6.2508115999999994E1,1.8029868E1,6.702633999999999E1,3.9476652E1,3.2309486E1,5.3349467999999995E1,1.5131950999999999E1,8.690104E1,1.7479568E1,1.9016071999999998E1,2.1699196E1,1,3,8,11,14,17,18,19,22,23,28,32,15,15,8,14,5,3,8,0,13,14,1,2,
1570102991,2019-10-03 11:43:11.805,Acquired,Acquired,Acquired,Acquired,Acquired,Acquired,Acquired,Not acquired,Acquired,Acquired,Not acquired,Acquired,8.0390288E1,2.44137744E2,1.68261696E2,1.54796976E2,6.5093676E1,3.1096544E2,1.08932656E2,3.19127616E2,2.4963639999999998E2,1.84745968E2,2.66243456E2,4.3906644E1,7.9386296E1,6.2508115999999994E1,1.8029868E1,6.702633999999999E1,3.9476652E1,3.2309486E1,5.3349467999999995E1,1.5131950999999999E1,8.690104E1,1.7479568E1,1.9016071999999998E1,2.1699196E1,1,3,8,11,14,17,18,19,22,23,28,32,15,15,8,14,5,3,8,0,13,14,1,2,
1570103051,2019-10-03 11:44:11.768,Acquired,Acquired,Acquired,Acquired,Acquired,Acquired,Acquired,Not acquired,Acquired,Acquired,Not acquired,Acquired,8.0390288E1,2.44137744E2,1.68261696E2,1.54796976E2,6.5093676E1,3.1096544E2,1.08932656E2,3.19127616E2,2.4963639999999998E2,1.84745968E2,2.66243456E2,4.3906644E1,7.9386296E1,6.2508115999999994E1,1.8029868E1,6.702633999999999E1,3.9476652E1,3.2309486E1,5.3349467999999995E1,1.5131950999999999E1,8.690104E1,1.7479568E1,1.9016071999999998E1,2.1699196E1,1,3,8,11,14,17,18,19,22,23,28,32,15,15,8,14,5,3,8,0,13,14,1,2,
1570103111,2019-10-03 11:45:11.767,Acquired,Acquired,Acquired,Acquired,Acquired,Acquired,Acquired,Not acquired,Acquired,Acquired,Not acquired,Acquired,8.0390288E1,2.44137744E2,1.68261696E2,1.54796976E2,6.5093676E1,3.1096544E2,1.08932656E2,3.19127616E2,2.4963639999999998E2,1.84745968E2,2.66243456E2,4.3906644E1,7.9386296E1,6.2508115999999994E1,1.8029868E1,6.702633999999999E1,3.9476652E1,3.2309486E1,5.3349467999999995E1,1.5131950999999999E1,8.690104E1,1.7479568E1,1.9016071999999998E1,2.1699196E1,1,3,8,11,14,17,18,19,22,23,28,32,15,15,8,14,5,3,8,0,13,14,1,2,
1570103171,2019-10-03 11:46:11.782,Acquired,Acquired,Acquired,Acquired,Acquired,Acquired,Acquired,Not acquired,Acquired,Acquired,Not acquired,Acquired,8.0390288E1,2.44137744E2,1.68261696E2,1.54796976E2,6.5093676E1,3.1096544E2,1.08932656E2,3.19127616E2,2.4963639999999998E2,1.84745968E2,2.66243456E2,4.3906644E1,7.9386296E1,6.2508115999999994E1,1.8029868E1,6.702633999999999E1,3.9476652E1,3.2309486E1,5.3349467999999995E1,1.5131950999999999E1,8.690104E1,1.7479568E1,1.9016071999999998E1,2.1699196E1,1,3,8,11,14,17,18,19,22,23,28,32,15,15,8,14,5,3,8,0,13,14,1,2,
1570103231,2019-10-03 11:47:11.791,Acquired,Acquired,Acquired,Acquired,Acquired,Acquired,Acquired,Not acquired,Acquired,Acquired,Not acquired,Acquired,8.0390288E1,2.44137744E2,1.68261696E2,1.54796976E2,6.5093676E1,3.1096544E2,1.08932656E2,3.19127616E2,2.4963639999999998E2,1.84745968E2,2.66243456E2,4.3906644E1,7.9386296E1,6.2508115999999994E1,1.8029868E1,6.702633999999999E1,3.9476652E1,3.2309486E1,5.3349467999999995E1,1.5131950999999999E1,8.690104E1,1.7479568E1,1.9016071999999998E1,2.1699196E1,1,3,8,11,14,17,18,19,22,23,28,32,15,15,8,14,5,3,8,0,13,14,1,2,
1570103291,2019-10-03 11:48:11.767,Acquired,Acquired,Acquired,Acquired,Acquired,Acquired,Acquired,Not acquired,Acquired,Acquired,Not acquired,Acquired,8.0390288E1,2.44137744E2,1.68261696E2,1.54796976E2,6.5093676E1,3.1096544E2,1.08932656E2,3.19127616E2,2.4963639999999998E2,1.84745968E2,2.66243456E2,4.3906644E1,7.9386296E1,6.2508115999999994E1,1.8029868E1,6.702633999999999E1,3.9476652E1,3.2309486E1,5.3349467999999995E1,1.5131950999999999E1,8.690104E1,1.7479568E1,1.9016071999999998E1,2.1699196E1,1,3,8,11,14,17,18,19,22,23,28,32,15,15,8,14,5,3,8,0,13,14,1,2,
1570103351,2019-10-03 11:49:11.767,Acquired,Acquired,Acquired,Acquired,Acquired,Acquired,Acquired,Not acquired,Acquired,Acquired,Not acquired,Acquired,8.0390288E1,2.44137744E2,1.68261696E2,1.54796976E2,6.5093676E1,3.1096544E2,1.08932656E2,3.19127616E2,2.4963639999999998E2,1.84745968E2,2.66243456E2,4.3906644E1,7.9386296E1,6.2508115999999994E1,1.8029868E1,6.702633999999999E1,3.9476652E1,3.2309486E1,5.3349467999999995E1,1.5131950999999999E1,8.690104E1,1.7479568E1,1.9016071999999998E1,2.1699196E1,1,3,8,11,14,17,18,19,22,23,28,32,15,15,8,14,5,3,8,0,13,14,1,2,
1570103411,2019-10-03 11:50:11.767,Acquired,Acquired,Acquired,Acquired,Acquired,Acquired,Acquired,Not acquired,Acquired,Acquired,Not acquired,Acquired,8.0390288E1,2.44137744E2,1.68261696E2,1.54796976E2,6.5093676E1,3.1096544E2,1.08932656E2,3.19127616E2,2.4963639999999998E2,1.84745968E2,2.66243456E2,4.3906644E1,7.9386296E1,6.2508115999999994E1,1.8029868E1,6.702633999999999E1,3.9476652E1,3.2309486E1,5.3349467999999995E1,1.5131950999999999E1,8.690104E1,1.7479568E1,1.9016071999999998E1,2.1699196E1,1,3,8,11,14,17,18,19,22,23,28,32,15,15,8,14,5,3,8,0,13,14,1,2,
1570103471,2019-10-03 11:51:11.767,Acquired,Acquired,Acquired,Acquired,Acquired,Acquired,Acquired,Not acquired,Acquired,Acquired,Not acquired,Acquired,8.2187264E1,2.44576752E2,1.6828321599999998E2,1.54672864E2,6.457797599999999E1,3.10720896E2,1.09308816E2,3.1903296E2,2.5233424E2,1.84714304E2,2.6586088E2,4.3663495999999995E1,7.901848E1,6.2969199999999994E1,1.7578698E1,6.6515168E1,3.9303799999999995E1,3.2665182E1,5.290242E1,1.5531854999999998E1,8.7354096E1,1.7922245999999998E1,1.8749024E1,2.1367822E1,1,3,8,11,14,17,18,19,22,23,28,32,15,14,10,15,6,7,7,0,13,15,1,3,
1570103531,2019-10-03 11:52:11.767,Acquired,Acquired,Acquired,Not acquired,Acquired,Acquired,Acquired,Acquired,Acquired,Acquired,Not acquired,Not acquired,1.12044536E2,2.67431584E2,1.5431511999999998E2,5.1160467999999995E1,2.98905312E2,1.197676E2,3.13367072E2,6.0114224E1,1.83803072E2,7.9016312E1,2.5466131199999998E2,3.8210271999999996E1,6.5161228E1,7.7431936E1,5.0014696E1,3.1217736E1,4.2706024E1,3.8583812E1,2.8028758E1,7.7579424E1,3.2740752E1,1.3690226E1,9.128983E0,9.834074E0,1,3,11,14,17,18,19,22,23,31,28,32,15,15,11,1,9,5,4,13,13,3,0,1,
1570103591,2019-10-03 11:53:11.767,Acquired,Acquired,Acquired,Not acquired,Acquired,Acquired,Acquired,Acquired,Acquired,Acquired,Not acquired,Not acquired,1.12044536E2,2.67431584E2,1.5431511999999998E2,5.1160467999999995E1,2.98905312E2,1.197676E2,3.13367072E2,6.0114224E1,1.83803072E2,7.9016312E1,2.5466131199999998E2,3.8210271999999996E1,6.5161228E1,7.7431936E1,5.0014696E1,3.1217736E1,4.2706024E1,3.8583812E1,2.8028758E1,7.7579424E1,3.2740752E1,1.3690226E1,9.128983E0,9.834074E0,1,3,11,14,17,18,19,22,23,31,28,32,15,15,11,1,9,5,4,13,13,3,0,1,
1570103651,2019-10-03 11:54:11.799,Acquired,Acquired,Acquired,Not acquired,Acquired,Acquired,Acquired,Acquired,Acquired,Acquired,Not acquired,Not acquired,1.12044536E2,2.67431584E2,1.5431511999999998E2,5.1160467999999995E1,2.98905312E2,1.197676E2,3.13367072E2,6.0114224E1,1.83803072E2,7.9016312E1,2.5466131199999998E2,3.8210271999999996E1,6.5161228E1,7.7431936E1,5.0014696E1,3.1217736E1,4.2706024E1,3.8583812E1,2.8028758E1,7.7579424E1,3.2740752E1,1.3690226E1,9.128983E0,9.834074E0,1,3,11,14,17,18,19,22,23,31,28,32,15,15,11,1,9,5,4,13,13,3,0,1,
1570103711,2019-10-03 11:55:11.767,Acquired,Acquired,Acquired,Not acquired,Acquired,Acquired,Acquired,Acquired,Acquired,Acquired,Not acquired,Not acquired,1.12044536E2,2.67431584E2,1.5431511999999998E2,5.1160467999999995E1,2.98905312E2,1.197676E2,3.13367072E2,6.0114224E1,1.83803072E2,7.9016312E1,2.5466131199999998E2,3.8210271999999996E1,6.5161228E1,7.7431936E1,5.0014696E1,3.1217736E1,4.2706024E1,3.8583812E1,2.8028758E1,7.7579424E1,3.2740752E1,1.3690226E1,9.128983E0,9.834074E0,1,3,11,14,17,18,19,22,23,31,28,32,15,15,11,1,9,5,4,13,13,3,0,1,
1570103771,2019-10-03 11:56:11.767,Acquired,Acquired,Acquired,Not acquired,Acquired,Acquired,Acquired,Acquired,Acquired,Acquired,Not acquired,Not acquired,1.12044536E2,2.67431584E2,1.5431511999999998E2,5.1160467999999995E1,2.98905312E2,1.197676E2,3.13367072E2,6.0114224E1,1.83803072E2,7.9016312E1,2.5466131199999998E2,3.8210271999999996E1,6.5161228E1,7.7431936E1,5.0014696E1,3.1217736E1,4.2706024E1,3.8583812E1,2.8028758E1,7.7579424E1,3.2740752E1,1.3690226E1,9.128983E0,9.834074E0,1,3,11,14,17,18,19,22,23,31,28,32,15,15,11,1,9,5,4,13,13,3,0,1,
1570103831,2019-10-03 11:57:11.767,Acquired,Acquired,Acquired,Not acquired,Acquired,Acquired,Acquired,Acquired,Acquired,Acquired,Not acquired,Not acquired,1.12044536E2,2.67431584E2,1.5431511999999998E2,5.1160467999999995E1,2.98905312E2,1.197676E2,3.13367072E2,6.0114224E1,1.83803072E2,7.9016312E1,2.5466131199999998E2,3.8210271999999996E1,6.5161228E1,7.7431936E1,5.0014696E1,3.1217736E1,4.2706024E1,3.8583812E1,2.8028758E1,7.7579424E1,3.2740752E1,1.3690226E1,9.128983E0,9.834074E0,1,3,11,14,17,18,19,22,23,31,28,32,15,15,11,1,9,5,4,13,13,3,0,1,
1570103891,2019-10-03 11:58:11.767,Acquired,Acquired,Acquired,Not acquired,Acquired,Acquired,Acquired,Acquired,Acquired,Acquired,Not acquired,Not acquired,1.12044536E2,2.67431584E2,1.5431511999999998E2,5.1160467999999995E1,2.98905312E2,1.197676E2,3.13367072E2,6.0114224E1,1.83803072E2,7.9016312E1,2.5466131199999998E2,3.8210271999999996E1,6.5161228E1,7.7431936E1,5.0014696E1,3.1217736E1,4.2706024E1,3.8583812E1,2.8028758E1,7.7579424E1,3.2740752E1,1.3690226E1,9.128983E0,9.834074E0,1,3,11,14,17,18,19,22,23,31,28,32,15,15,11,1,9,5,4,13,13,3,0,1,
1570103951,2019-10-03 11:59:11.767,Acquired,Acquired,Acquired,Not acquired,Acquired,Acquired,Acquired,Acquired,Acquired,Acquired,Not acquired,Not acquired,1.12044536E2,2.67431584E2,1.5431511999999998E2,5.1160467999999995E1,2.98905312E2,1.197676E2,3.13367072E2,6.0114224E1,1.83803072E2,7.9016312E1,2.5466131199999998E2,3.8210271999999996E1,6.5161228E1,7.7431936E1,5.0014696E1,3.1217736E1,4.2706024E1,3.8583812E1,2.8028758E1,7.7579424E1,3.2740752E1,1.3690226E1,9.128983E0,9.834074E0,1,3,11,14,17,18,19,22,23,31,28,32,15,15,11,1,9,5,4,13,13,3,0,1,
