Time(longsecs),Time(UTC),Earth Location,GPS Receiver Status,GPS Satellites Used,GPS PDOP,GPS TDOP,Timing Status,Timing Phase Lock,Timing Uncertainty(ns),DAC Count,Timing Error(ns),GPS Last Update Time,
1570143611,2019-10-03 23:00:11.767,47.651114N 0.578109E 183m,Off,6,5.8035655,4.2826257,Time OK,Free running,44200,8512,0,2019-10-03 22:14:15.000000000,
1570143671,2019-10-03 23:01:11.767,47.651114N 0.578109E 183m,Off,6,5.8035655,4.2826257,Time OK,Free running,45000,8512,0,2019-10-03 22:14:15.000000000,
1570143731,2019-10-03 23:02:11.796,47.651114N 0.578109E 183m,Off,6,5.8035655,4.2826257,Time OK,Free running,46000,8512,0,2019-10-03 22:14:15.000000000,
1570143791,2019-10-03 23:03:11.767,47.651114N 0.578109E 183m,Off,6,5.8035655,4.2826257,Time OK,Free running,47000,8512,0,2019-10-03 22:14:15.000000000,
1570143851,2019-10-03 23:04:11.767,47.651114N 0.578109E 183m,Off,6,5.8035655,4.2826257,Time OK,Free running,48000,8512,0,2019-10-03 22:14:15.000000000,
1570143911,2019-10-03 23:05:11.767,47.651114N 0.578109E 183m,Off,6,5.8035655,4.2826257,Time OK,Free running,49000,8512,0,2019-10-03 22:14:15.000000000,
1570143971,2019-10-03 23:06:11.767,47.651114N 0.578109E 183m,Off,6,5.8035655,4.2826257,Time OK,Free running,49800,8512,0,2019-10-03 22:14:15.000000000,
1570144031,2019-10-03 23:07:11.767,47.651114N 0.578109E 183m,Off,6,5.8035655,4.2826257,Time OK,Free running,50700,8512,0,2019-10-03 22:14:15.000000000,
1570144091,2019-10-03 23:08:11.767,47.651114N 0.578109E 183m,Doing fixes,5,2.3265667,1.2310046,Time OK,Coarse lock,100,8556,-208,2019-10-03 23:08:10.000000000,
1570144151,2019-10-03 23:09:11.770,47.651114N 0.578109E 183m,Doing fixes,5,2.7813296,1.7076416,Time OK,Fine lock,100,8512,0,2019-10-03 23:09:10.000000000,
1570144211,2019-10-03 23:10:11.767,47.651114N 0.578109E 183m,Off,5,2.7759323,1.703261,Time OK,Free running,500,8512,0,2019-10-03 23:09:35.000000000,
1570144271,2019-10-03 23:11:11.767,47.651114N 0.578109E 183m,Off,5,2.7759323,1.703261,Time OK,Free running,1400,8512,0,2019-10-03 23:09:35.000000000,
1570144331,2019-10-03 23:12:11.767,47.651114N 0.578109E 183m,Off,5,2.7759323,1.703261,Time OK,Free running,2300,8512,0,2019-10-03 23:09:35.000000000,
1570144391,2019-10-03 23:13:11.767,47.651114N 0.578109E 183m,Off,5,2.7759323,1.703261,Time OK,Free running,3400,8512,0,2019-10-03 23:09:35.000000000,
1570144451,2019-10-03 23:14:11.767,47.651114N 0.578109E 183m,Off,5,2.7759323,1.703261,Time OK,Free running,4500,8512,0,2019-10-03 23:09:35.000000000,
1570144511,2019-10-03 23:15:11.767,47.651114N 0.578109E 183m,Off,5,2.7759323,1.703261,Time OK,Free running,5700,8512,0,2019-10-03 23:09:35.000000000,
1570144571,2019-10-03 23:16:11.767,47.651114N 0.578109E 183m,Off,5,2.7759323,1.703261,Time OK,Free running,6600,8512,0,2019-10-03 23:09:35.000000000,
1570144631,2019-10-03 23:17:11.767,47.651114N 0.578109E 183m,Off,5,2.7759323,1.703261,Time OK,Free running,7500,8512,0,2019-10-03 23:09:35.000000000,
1570144691,2019-10-03 23:18:11.767,47.651114N 0.578109E 183m,Off,5,2.7759323,1.703261,Time OK,Free running,8500,8512,0,2019-10-03 23:09:35.000000000,
1570144751,2019-10-03 23:19:11.767,47.651114N 0.578109E 183m,Off,5,2.7759323,1.703261,Time OK,Free running,9400,8512,0,2019-10-03 23:09:35.000000000,
1570144811,2019-10-03 23:20:11.767,47.651114N 0.578109E 183m,Off,5,2.7759323,1.703261,Time OK,Free running,10300,8512,0,2019-10-03 23:09:35.000000000,
1570144871,2019-10-03 23:21:11.767,47.651114N 0.578109E 183m,Off,5,2.7759323,1.703261,Time OK,Free running,11200,8512,0,2019-10-03 23:09:35.000000000,
1570144931,2019-10-03 23:22:11.767,47.651114N 0.578109E 183m,Off,5,2.7759323,1.703261,Time OK,Free running,12100,8512,0,2019-10-03 23:09:35.000000000,
1570144991,2019-10-03 23:23:11.769,47.651114N 0.578109E 183m,Off,5,2.7759323,1.703261,Time OK,Free running,13000,8512,0,2019-10-03 23:09:35.000000000,
1570145051,2019-10-03 23:24:11.799,47.651114N 0.578109E 183m,Off,5,2.7759323,1.703261,Time OK,Free running,14000,8512,0,2019-10-03 23:09:35.000000000,
1570145111,2019-10-03 23:25:11.767,47.651114N 0.578109E 183m,Off,5,2.7759323,1.703261,Time OK,Free running,15000,8512,0,2019-10-03 23:09:35.000000000,
1570145171,2019-10-03 23:26:11.767,47.651114N 0.578109E 183m,Off,5,2.7759323,1.703261,Time OK,Free running,16100,8512,0,2019-10-03 23:09:35.000000000,
1570145231,2019-10-03 23:27:11.767,47.651114N 0.578109E 183m,Off,5,2.7759323,1.703261,Time OK,Free running,17300,8512,0,2019-10-03 23:09:35.000000000,
1570145291,2019-10-03 23:28:11.767,47.651114N 0.578109E 183m,Off,5,2.7759323,1.703261,Time OK,Free running,18400,8512,0,2019-10-03 23:09:35.000000000,
1570145351,2019-10-03 23:29:11.767,47.651114N 0.578109E 183m,Off,5,2.7759323,1.703261,Time OK,Free running,19400,8512,0,2019-10-03 23:09:35.000000000,
1570145411,2019-10-03 23:30:11.767,47.651114N 0.578109E 183m,Off,5,2.7759323,1.703261,Time OK,Free running,20400,8512,0,2019-10-03 23:09:35.000000000,
1570145471,2019-10-03 23:31:11.767,47.651114N 0.578109E 183m,Off,5,2.7759323,1.703261,Time OK,Free running,21400,8512,0,2019-10-03 23:09:35.000000000,
1570145531,2019-10-03 23:32:11.767,47.651114N 0.578109E 183m,Off,5,2.7759323,1.703261,Time OK,Free running,22500,8512,0,2019-10-03 23:09:35.000000000,
1570145591,2019-10-03 23:33:11.767,47.651114N 0.578109E 183m,Off,5,2.7759323,1.703261,Time OK,Free running,23600,8512,0,2019-10-03 23:09:35.000000000,
1570145651,2019-10-03 23:34:11.767,47.651114N 0.578109E 183m,Off,5,2.7759323,1.703261,Time OK,Free running,24600,8512,0,2019-10-03 23:09:35.000000000,
1570145711,2019-10-03 23:35:11.773,47.651114N 0.578109E 183m,Off,5,2.7759323,1.703261,Time OK,Free running,25600,8512,0,2019-10-03 23:09:35.000000000,
1570145771,2019-10-03 23:36:11.767,47.651114N 0.578109E 183m,Off,5,2.7759323,1.703261,Time OK,Free running,26700,8512,0,2019-10-03 23:09:35.000000000,
1570145831,2019-10-03 23:37:11.767,47.651114N 0.578109E 183m,Off,5,2.7759323,1.703261,Time OK,Free running,27700,8512,0,2019-10-03 23:09:35.000000000,
1570145891,2019-10-03 23:38:11.767,47.651114N 0.578109E 183m,Off,5,2.7759323,1.703261,Time OK,Free running,28700,8512,0,2019-10-03 23:09:35.000000000,
1570145951,2019-10-03 23:39:11.767,47.651114N 0.578109E 183m,Off,5,2.7759323,1.703261,Time OK,Free running,29800,8512,0,2019-10-03 23:09:35.000000000,
1570146011,2019-10-03 23:40:11.767,47.651114N 0.578109E 183m,Off,5,2.7759323,1.703261,Time OK,Free running,31000,8512,0,2019-10-03 23:09:35.000000000,
1570146071,2019-10-03 23:41:11.769,47.651114N 0.578109E 183m,Off,5,2.7759323,1.703261,Time OK,Free running,32400,8512,0,2019-10-03 23:09:35.000000000,
1570146131,2019-10-03 23:42:11.767,47.651114N 0.578109E 183m,Off,5,2.7759323,1.703261,Time OK,Free running,33900,8512,0,2019-10-03 23:09:35.000000000,
1570146191,2019-10-03 23:43:11.767,47.651114N 0.578109E 183m,Off,5,2.7759323,1.703261,Time OK,Free running,35300,8512,0,2019-10-03 23:09:35.000000000,
1570146251,2019-10-03 23:44:11.767,47.651114N 0.578109E 183m,Off,5,2.7759323,1.703261,Time OK,Free running,36600,8512,0,2019-10-03 23:09:35.000000000,
1570146311,2019-10-03 23:45:11.767,47.651114N 0.578109E 183m,Off,5,2.7759323,1.703261,Time OK,Free running,37600,8512,0,2019-10-03 23:09:35.000000000,
1570146371,2019-10-03 23:46:11.767,47.651114N 0.578109E 183m,Off,5,2.7759323,1.703261,Time OK,Free running,38800,8512,0,2019-10-03 23:09:35.000000000,
1570146431,2019-10-03 23:47:11.767,47.651114N 0.578109E 183m,Off,5,2.7759323,1.703261,Time OK,Free running,40300,8512,0,2019-10-03 23:09:35.000000000,
1570146491,2019-10-03 23:48:11.767,47.651114N 0.578109E 183m,Off,5,2.7759323,1.703261,Time OK,Free running,41700,8512,0,2019-10-03 23:09:35.000000000,
1570146551,2019-10-03 23:49:11.768,47.651114N 0.578109E 183m,Off,5,2.7759323,1.703261,Time OK,Free running,43000,8512,0,2019-10-03 23:09:35.000000000,
1570146611,2019-10-03 23:50:11.799,47.651114N 0.578109E 183m,Off,5,2.7759323,1.703261,Time OK,Free running,44100,8512,0,2019-10-03 23:09:35.000000000,
1570146671,2019-10-03 23:51:11.767,47.651114N 0.578109E 183m,Off,5,2.7759323,1.703261,Time OK,Free running,44900,8512,0,2019-10-03 23:09:35.000000000,
1570146731,2019-10-03 23:52:11.767,47.651114N 0.578109E 183m,Off,5,2.7759323,1.703261,Time OK,Free running,46000,8512,0,2019-10-03 23:09:35.000000000,
1570146791,2019-10-03 23:53:11.767,47.651114N 0.578109E 183m,Off,5,2.7759323,1.703261,Time OK,Free running,47600,8512,0,2019-10-03 23:09:35.000000000,
1570146851,2019-10-03 23:54:11.767,47.651114N 0.578109E 183m,Off,5,2.7759323,1.703261,Time OK,Free running,49100,8512,0,2019-10-03 23:09:35.000000000,
1570146911,2019-10-03 23:55:11.767,47.651114N 0.578109E 183m,Off,5,2.7759323,1.703261,Time OK,Free running,50300,8512,0,2019-10-03 23:09:35.000000000,
1570146971,2019-10-03 23:56:11.767,47.651114N 0.578109E 183m,Doing fixes,5,3.8449218,2.5669923,Time OK,Coarse lock,100,8339,3333,2019-10-03 23:56:10.000000000,
1570147031,2019-10-03 23:57:11.770,47.651114N 0.578109E 183m,Doing fixes,6,1.9912481,1.1011783,Time OK,Fine lock,100,8504,0,2019-10-03 23:57:10.000000000,
1570147091,2019-10-03 23:58:11.767,47.651114N 0.578109E 183m,Doing fixes,6,1.9944652,1.1041842,Time OK,Fine lock,100,8505,0,2019-10-03 23:58:10.000000000,
1570147151,2019-10-03 23:59:11.767,47.651114N 0.578109E 183m,Off,6,2.6495001,1.5907046,Time OK,Free running,100,8509,0,2019-10-03 23:59:05.000000000,
