Time(longsecs),Time(UTC),Earth Location,GPS Receiver Status,GPS Satellites Used,GPS PDOP,GPS TDOP,Timing Status,Timing Phase Lock,Timing Uncertainty(ns),DAC Count,Timing Error(ns),GPS Last Update Time,
1570082411,2019-10-03 06:00:11.767,47.65111N 0.57802E 179m,Off,6,3.5497687,2.555257,Time OK,Free running,1800,8361,0,2019-10-03 05:58:05.000000000,
1570082471,2019-10-03 06:01:11.767,47.65111N 0.57802E 179m,Off,6,3.5497687,2.555257,Time OK,Free running,2600,8361,0,2019-10-03 05:58:05.000000000,
1570082531,2019-10-03 06:02:11.767,47.65111N 0.57802E 179m,Off,6,3.5497687,2.555257,Time OK,Free running,3400,8361,0,2019-10-03 05:58:05.000000000,
1570082591,2019-10-03 06:03:11.805,47.65111N 0.57802E 179m,Off,6,3.5497687,2.555257,Time OK,Free running,4400,8361,0,2019-10-03 05:58:05.000000000,
1570082651,2019-10-03 06:04:11.767,47.65111N 0.57802E 179m,Off,6,3.5497687,2.555257,Time OK,Free running,5500,8361,0,2019-10-03 05:58:05.000000000,
1570082711,2019-10-03 06:05:11.799,47.65111N 0.57802E 179m,Off,6,3.5497687,2.555257,Time OK,Free running,6900,8361,0,2019-10-03 05:58:05.000000000,
1570082771,2019-10-03 06:06:11.767,47.65111N 0.57802E 179m,Off,6,3.5497687,2.555257,Time OK,Free running,8200,8361,0,2019-10-03 05:58:05.000000000,
1570082831,2019-10-03 06:07:11.767,47.65111N 0.57802E 179m,Off,6,3.5497687,2.555257,Time OK,Free running,9100,8361,0,2019-10-03 05:58:05.000000000,
1570082891,2019-10-03 06:08:11.767,47.65111N 0.57802E 179m,Off,6,3.5497687,2.555257,Time OK,Free running,9900,8361,0,2019-10-03 05:58:05.000000000,
1570082951,2019-10-03 06:09:11.767,47.65111N 0.57802E 179m,Off,6,3.5497687,2.555257,Time OK,Free running,10800,8361,0,2019-10-03 05:58:05.000000000,
1570083011,2019-10-03 06:10:11.767,47.65111N 0.57802E 179m,Off,6,3.5497687,2.555257,Time OK,Free running,11600,8361,0,2019-10-03 05:58:05.000000000,
1570083071,2019-10-03 06:11:11.767,47.65111N 0.57802E 179m,Off,6,3.5497687,2.555257,Time OK,Free running,12600,8361,0,2019-10-03 05:58:05.000000000,
1570083131,2019-10-03 06:12:11.767,47.65111N 0.57802E 179m,Off,6,3.5497687,2.555257,Time OK,Free running,13800,8361,0,2019-10-03 05:58:05.000000000,
1570083191,2019-10-03 06:13:11.767,47.65111N 0.57802E 179m,Off,6,3.5497687,2.555257,Time OK,Free running,14700,8361,0,2019-10-03 05:58:05.000000000,
1570083251,2019-10-03 06:14:11.767,47.65111N 0.57802E 179m,Off,6,3.5497687,2.555257,Time OK,Free running,15600,8361,0,2019-10-03 05:58:05.000000000,
1570083311,2019-10-03 06:15:11.796,47.65111N 0.57802E 179m,Off,6,3.5497687,2.555257,Time OK,Free running,16500,8361,0,2019-10-03 05:58:05.000000000,
1570083371,2019-10-03 06:16:11.767,47.65111N 0.57802E 179m,Off,6,3.5497687,2.555257,Time OK,Free running,17400,8361,0,2019-10-03 05:58:05.000000000,
1570083431,2019-10-03 06:17:11.767,47.65111N 0.57802E 179m,Off,6,3.5497687,2.555257,Time OK,Free running,18200,8361,0,2019-10-03 05:58:05.000000000,
1570083491,2019-10-03 06:18:11.769,47.65111N 0.57802E 179m,Off,6,3.5497687,2.555257,Time OK,Free running,19200,8361,0,2019-10-03 05:58:05.000000000,
1570083551,2019-10-03 06:19:11.767,47.65111N 0.57802E 179m,Off,6,3.5497687,2.555257,Time OK,Free running,20200,8361,0,2019-10-03 05:58:05.000000000,
1570083611,2019-10-03 06:20:11.767,47.65111N 0.57802E 179m,Off,6,3.5497687,2.555257,Time OK,Free running,21100,8361,0,2019-10-03 05:58:05.000000000,
1570083671,2019-10-03 06:21:11.796,47.65111N 0.57802E 179m,Off,6,3.5497687,2.555257,Time OK,Free running,22100,8361,0,2019-10-03 05:58:05.000000000,
1570083731,2019-10-03 06:22:11.767,47.65111N 0.57802E 179m,Off,6,3.5497687,2.555257,Time OK,Free running,22900,8361,0,2019-10-03 05:58:05.000000000,
1570083791,2019-10-03 06:23:11.767,47.65111N 0.57802E 179m,Off,6,3.5497687,2.555257,Time OK,Free running,23900,8361,0,2019-10-03 05:58:05.000000000,
1570083851,2019-10-03 06:24:11.767,47.65111N 0.57802E 179m,Off,6,3.5497687,2.555257,Time OK,Free running,25000,8361,0,2019-10-03 05:58:05.000000000,
1570083911,2019-10-03 06:25:11.767,47.65111N 0.57802E 179m,Off,6,3.5497687,2.555257,Time OK,Free running,25800,8361,0,2019-10-03 05:58:05.000000000,
1570083971,2019-10-03 06:26:11.767,47.65111N 0.57802E 179m,Off,6,3.5497687,2.555257,Time OK,Free running,26600,8361,0,2019-10-03 05:58:05.000000000,
1570084031,2019-10-03 06:27:11.767,47.65111N 0.57802E 179m,Off,6,3.5497687,2.555257,Time OK,Free running,27500,8361,0,2019-10-03 05:58:05.000000000,
1570084091,2019-10-03 06:28:11.767,47.65111N 0.57802E 179m,Off,6,3.5497687,2.555257,Time OK,Free running,28400,8361,0,2019-10-03 05:58:05.000000000,
1570084151,2019-10-03 06:29:11.767,47.65111N 0.57802E 179m,Off,6,3.5497687,2.555257,Time OK,Free running,29300,8361,0,2019-10-03 05:58:05.000000000,
1570084211,2019-10-03 06:30:11.799,47.65111N 0.57802E 179m,Off,6,3.5497687,2.555257,Time OK,Free running,30300,8361,0,2019-10-03 05:58:05.000000000,
1570084271,2019-10-03 06:31:11.767,47.65111N 0.57802E 179m,Off,6,3.5497687,2.555257,Time OK,Free running,31100,8361,0,2019-10-03 05:58:05.000000000,
1570084331,2019-10-03 06:32:11.767,47.65111N 0.57802E 179m,Off,6,3.5497687,2.555257,Time OK,Free running,32000,8361,0,2019-10-03 05:58:05.000000000,
1570084391,2019-10-03 06:33:11.767,47.65111N 0.57802E 179m,Off,6,3.5497687,2.555257,Time OK,Free running,32900,8361,0,2019-10-03 05:58:05.000000000,
1570084451,2019-10-03 06:34:11.767,47.65111N 0.57802E 179m,Off,6,3.5497687,2.555257,Time OK,Free running,33900,8361,0,2019-10-03 05:58:05.000000000,
1570084511,2019-10-03 06:35:11.767,47.65111N 0.57802E 179m,Off,6,3.5497687,2.555257,Time OK,Free running,34800,8361,0,2019-10-03 05:58:05.000000000,
1570084571,2019-10-03 06:36:11.768,47.65111N 0.57802E 179m,Off,6,3.5497687,2.555257,Time OK,Free running,35800,8361,0,2019-10-03 05:58:05.000000000,
1570084631,2019-10-03 06:37:11.767,47.65111N 0.57802E 179m,Off,6,3.5497687,2.555257,Time OK,Free running,36600,8361,0,2019-10-03 05:58:05.000000000,
1570084691,2019-10-03 06:38:11.767,47.65111N 0.57802E 179m,Off,6,3.5497687,2.555257,Time OK,Free running,37400,8361,0,2019-10-03 05:58:05.000000000,
1570084751,2019-10-03 06:39:11.769,47.65111N 0.57802E 179m,Off,6,3.5497687,2.555257,Time OK,Free running,38400,8361,0,2019-10-03 05:58:05.000000000,
1570084811,2019-10-03 06:40:11.769,47.65111N 0.57802E 179m,Off,6,3.5497687,2.555257,Time OK,Free running,39200,8361,0,2019-10-03 05:58:05.000000000,
1570084871,2019-10-03 06:41:11.769,47.65111N 0.57802E 179m,Off,6,3.5497687,2.555257,Time OK,Free running,40100,8361,0,2019-10-03 05:58:05.000000000,
1570084931,2019-10-03 06:42:11.799,47.65111N 0.57802E 179m,Off,6,3.5497687,2.555257,Time OK,Free running,41000,8361,0,2019-10-03 05:58:05.000000000,
1570084991,2019-10-03 06:43:11.767,47.65111N 0.57802E 179m,Off,6,3.5497687,2.555257,Time OK,Free running,41900,8361,0,2019-10-03 05:58:05.000000000,
1570085051,2019-10-03 06:44:11.767,47.65111N 0.57802E 179m,Off,6,3.5497687,2.555257,Time OK,Free running,42900,8361,0,2019-10-03 05:58:05.000000000,
1570085111,2019-10-03 06:45:11.767,47.65111N 0.57802E 179m,Off,6,3.5497687,2.555257,Time OK,Free running,43800,8361,0,2019-10-03 05:58:05.000000000,
1570085171,2019-10-03 06:46:11.767,47.65111N 0.57802E 179m,Off,6,3.5497687,2.555257,Time OK,Free running,44600,8361,0,2019-10-03 05:58:05.000000000,
1570085231,2019-10-03 06:47:11.776,47.65111N 0.57802E 179m,Off,6,3.5497687,2.555257,Time OK,Free running,45400,8361,0,2019-10-03 05:58:05.000000000,
1570085291,2019-10-03 06:48:11.767,47.65111N 0.57802E 179m,Off,6,3.5497687,2.555257,Time OK,Free running,46400,8361,0,2019-10-03 05:58:05.000000000,
1570085351,2019-10-03 06:49:11.769,47.65111N 0.57802E 179m,Off,6,3.5497687,2.555257,Time OK,Free running,47300,8361,0,2019-10-03 05:58:05.000000000,
1570085411,2019-10-03 06:50:11.767,47.65111N 0.57802E 179m,Off,6,3.5497687,2.555257,Time OK,Free running,48200,8361,0,2019-10-03 05:58:05.000000000,
1570085471,2019-10-03 06:51:11.767,47.65111N 0.57802E 179m,Off,6,3.5497687,2.555257,Time OK,Free running,49200,8361,0,2019-10-03 05:58:05.000000000,
1570085531,2019-10-03 06:52:11.767,47.65111N 0.57802E 179m,Off,6,3.5497687,2.555257,Time OK,Free running,50300,8361,0,2019-10-03 05:58:05.000000000,
1570085591,2019-10-03 06:53:11.767,47.65111N 0.57802E 179m,No GPS time,0,0.0,0.0,Time OK,Free running,51200,8361,0,2019-10-03 06:53:10.000000000,
1570085651,2019-10-03 06:54:11.767,47.65111N 0.57802E 179m,Doing fixes,7,2.788698,1.8616028,Time OK,Fine lock,100,8356,0,2019-10-03 06:54:10.000000000,
1570085711,2019-10-03 06:55:11.767,47.65111N 0.57802E 179m,Off,7,2.7869244,1.860358,Time OK,Free running,800,8356,0,2019-10-03 06:54:15.000000000,
1570085771,2019-10-03 06:56:11.796,47.65111N 0.57802E 179m,Off,7,2.7869244,1.860358,Time OK,Free running,1700,8356,0,2019-10-03 06:54:15.000000000,
1570085831,2019-10-03 06:57:11.767,47.65111N 0.57802E 179m,Off,7,2.7869244,1.860358,Time OK,Free running,2900,8356,0,2019-10-03 06:54:15.000000000,
1570085891,2019-10-03 06:58:11.767,47.65111N 0.57802E 179m,Off,7,2.7869244,1.860358,Time OK,Free running,4100,8356,0,2019-10-03 06:54:15.000000000,
1570085951,2019-10-03 06:59:11.767,47.65111N 0.57802E 179m,Off,7,2.7869244,1.860358,Time OK,Free running,5400,8356,0,2019-10-03 06:54:15.000000000,
