Time(longsecs),Time(UTC),External SOH Voltage 1(V),External SOH Voltage 2(V),External SOH Voltage 3(V),External SOH Voltage 4(V),Sensor SOH Voltage 1(V),Sensor SOH Voltage 2(V),Sensor SOH Voltage 3(V),
1570071611,2019-10-03 03:00:11.767,-1.2526512E-3,2.8920174E-3,-1.809597E-4,5.5713654E-3,2.137394E-1,2.1845436E-1,2.1250439E-1,
1570071671,2019-10-03 03:01:11.767,-6.6797733E-3,-1.1761189E-3,-4.5216084E-3,1.5275478E-3,1.968422E-1,1.9957829E-1,2.0354271E-1,
1570071731,2019-10-03 03:02:11.767,-6.131172E-3,-1.3029575E-3,-4.7860146E-3,1.572609E-3,1.9608307E-1,1.9782066E-1,1.9162369E-1,
1570071791,2019-10-03 03:03:11.769,-3.7703514E-3,1.2905598E-3,-2.0890236E-3,4.126072E-3,2.0068264E-1,2.0280552E-1,2.1129894E-1,
1570071851,2019-10-03 03:04:11.767,-6.366968E-3,-8.485317E-4,-4.57263E-3,1.2862682E-3,2.0105839E-1,2.024622E-1,1.998291E-1,
1570071911,2019-10-03 03:05:11.767,-6.519556E-3,-1.4896393E-3,-4.8191547E-3,1.206398E-3,2.0086002E-1,2.0402622E-1,1.960907E-1,
1570071971,2019-10-03 03:06:11.767,-3.8032532E-3,1.0659695E-3,-2.1028519E-3,3.6723614E-3,2.0821953E-1,2.0915699E-1,2.0990944E-1,
1570072031,2019-10-03 03:07:11.767,-6.4048767E-3,-1.4338493E-3,-4.4617653E-3,1.2321472E-3,1.9534111E-1,1.9959259E-1,1.9941044E-1,
1570072091,2019-10-03 03:08:11.767,-1.7473698E-3,3.2863617E-3,-4.6658516E-4,5.717516E-3,2.0921993E-1,2.120676E-1,1.9945431E-1,
1570072151,2019-10-03 03:09:11.767,-4.4181347E-3,9.1457367E-4,-2.691269E-3,3.2408237E-3,2.0838356E-1,2.1057224E-1,2.035141E-1,
1570072211,2019-10-03 03:10:11.805,-4.160404E-3,8.6164474E-4,-2.9318333E-3,3.0953884E-3,2.0720482E-1,2.1395874E-1,2.0779514E-1,
1570072271,2019-10-03 03:11:11.767,-3.9191246E-3,1.270771E-3,-2.136469E-3,3.8409233E-3,2.1041203E-1,2.1215057E-1,2.0061684E-1,
1570072331,2019-10-03 03:12:11.776,-4.0676594E-3,1.4994144E-3,-2.4149418E-3,4.1012764E-3,2.0793247E-1,2.1041489E-1,2.077446E-1,
1570072391,2019-10-03 03:13:11.767,-3.9253235E-3,9.925365E-4,-3.189087E-3,2.8429031E-3,2.0126438E-1,2.021265E-1,2.0530415E-1,
1570072451,2019-10-03 03:14:11.767,-4.7893524E-3,1.0764599E-3,-2.1779537E-3,2.7563572E-3,2.0281887E-1,2.0366096E-1,2.0439243E-1,
1570072511,2019-10-03 03:15:11.767,-2.465248E-3,3.0741692E-3,-2.8562546E-4,5.759716E-3,2.0990562E-1,2.1132469E-1,2.1270752E-1,
1570072571,2019-10-03 03:16:11.767,-4.3227673E-3,7.004738E-4,-2.5851727E-3,3.196478E-3,2.0246029E-1,2.0394802E-1,1.9333458E-1,
1570072631,2019-10-03 03:17:11.769,-4.531622E-3,3.5881996E-4,-2.9070377E-3,3.0839443E-3,2.0256042E-1,2.0441055E-1,2.008276E-1,
1570072691,2019-10-03 03:18:11.805,-3.4377575E-3,1.304388E-3,-2.08807E-3,3.856659E-3,2.0338726E-1,2.0580387E-1,2.0736885E-1,
1570072751,2019-10-03 03:19:11.767,-3.9463043E-3,1.3182163E-3,-1.9669533E-3,3.7441254E-3,2.02878E-1,2.0465851E-1,2.119646E-1,
1570072811,2019-10-03 03:20:11.767,-6.6006184E-3,-1.3532639E-3,-4.522562E-3,8.8119507E-4,1.9994354E-1,2.0308018E-1,1.9959736E-1,
1570072871,2019-10-03 03:21:11.767,-4.542589E-3,8.163452E-4,-2.5959015E-3,2.7544498E-3,2.1194744E-1,2.1220398E-1,2.1564198E-1,
1570072931,2019-10-03 03:22:11.767,-6.39534E-3,-1.3103485E-3,-4.5661926E-3,1.5358925E-3,2.0331001E-1,2.0423031E-1,1.9631386E-1,
1570072991,2019-10-03 03:23:11.767,-2.3548603E-3,3.1588078E-3,-6.3705444E-4,5.7303905E-3,2.1465111E-1,2.1614933E-1,2.1057606E-1,
1570073051,2019-10-03 03:24:11.777,-1.6071796E-3,2.9389858E-3,-8.018017E-4,5.805731E-3,2.1642399E-1,2.1793556E-1,2.2294998E-1,
1570073111,2019-10-03 03:25:11.767,-4.569769E-3,9.4890594E-4,-2.2230148E-3,3.5398006E-3,2.0390606E-1,2.0426846E-1,2.0566082E-1,
1570073171,2019-10-03 03:26:11.767,-1.5249252E-3,2.724409E-3,-6.9117546E-4,5.665779E-3,2.1588135E-1,2.1756172E-1,2.0987225E-1,
1570073231,2019-10-03 03:27:11.767,-1.534462E-3,3.1466484E-3,-1.9669533E-4,5.613804E-3,2.1301079E-1,2.1565342E-1,2.1756458E-1,
1570073291,2019-10-03 03:28:11.767,-4.315138E-3,7.1430206E-4,-2.5651455E-3,3.1356812E-3,2.032156E-1,2.0631123E-1,2.0777416E-1,
1570073351,2019-10-03 03:29:11.767,-4.1236877E-3,1.3136864E-3,-2.202034E-3,3.0238628E-3,2.0649338E-1,2.0883083E-1,2.111063E-1,
1570073411,2019-10-03 03:30:11.767,-5.580187E-3,-7.145405E-4,-4.5907497E-3,1.6949177E-3,1.9677734E-1,1.9835663E-1,2.0273685E-1,
1570073471,2019-10-03 03:31:11.767,-3.6945343E-3,1.1153221E-3,-2.2230148E-3,3.2961369E-3,2.099781E-1,2.1116924E-1,2.1077728E-1,
1570073531,2019-10-03 03:32:11.767,-4.3029785E-3,6.945133E-4,-2.503872E-3,3.3824444E-3,2.0662689E-1,2.0828533E-1,2.0757389E-1,
1570073591,2019-10-03 03:33:11.767,-3.5719872E-3,1.459837E-3,-2.1305084E-3,3.7565231E-3,2.067833E-1,2.0885944E-1,2.0702267E-1,
1570073651,2019-10-03 03:34:11.767,-4.5235157E-3,2.2554398E-4,-2.2554398E-3,3.2658577E-3,2.029171E-1,2.0594215E-1,1.9712257E-1,
1570073711,2019-10-03 03:35:11.767,-3.499508E-3,1.6748905E-3,-2.4015903E-3,3.7360191E-3,2.0401573E-1,2.0656776E-1,1.9847965E-1,
1570073771,2019-10-03 03:36:11.767,-3.6354065E-3,1.2905598E-3,-1.8150806E-3,3.7841797E-3,2.0436668E-1,2.066803E-1,2.0500565E-1,
1570073831,2019-10-03 03:37:11.767,-1.958847E-3,2.9482841E-3,-3.5381317E-4,5.7537556E-3,2.0903587E-1,2.1078396E-1,2.0966625E-1,
1570073891,2019-10-03 03:38:11.767,-6.7219734E-3,-1.131773E-3,-4.387617E-3,1.445055E-3,2.0269775E-1,2.0476246E-1,2.0455647E-1,
1570073951,2019-10-03 03:39:11.767,-5.980015E-3,-8.8739395E-4,-4.054308E-3,1.663208E-3,1.9639301E-1,1.987772E-1,1.9126892E-1,
1570074011,2019-10-03 03:40:11.767,-6.9532394E-3,-9.653568E-4,-4.5571327E-3,9.7060204E-4,2.0053768E-1,2.029171E-1,2.0039368E-1,
1570074071,2019-10-03 03:41:11.767,-2.0198822E-3,2.8395653E-3,-4.7588348E-4,5.400896E-3,2.1285057E-1,2.1526814E-1,2.1111012E-1,
1570074131,2019-10-03 03:42:11.767,-6.0806274E-3,-1.2054443E-3,-4.4882298E-3,1.3101101E-3,2.0173645E-1,2.0412254E-1,2.0457935E-1,
1570074191,2019-10-03 03:43:11.769,-1.688242E-3,3.0477047E-3,-4.2057037E-4,5.7878494E-3,2.1565628E-1,2.1872711E-1,2.2222614E-1,
1570074251,2019-10-03 03:44:11.769,-3.4530163E-3,1.5745163E-3,-2.326727E-3,3.791809E-3,2.102871E-1,2.1341324E-1,2.1664143E-1,
1570074311,2019-10-03 03:45:11.767,-1.7383099E-3,2.9342175E-3,-3.7431717E-4,5.815506E-3,2.161665E-1,2.1785927E-1,2.1959114E-1,
1570074371,2019-10-03 03:46:11.767,-6.033659E-3,-7.39336E-4,-4.736662E-3,1.2037754E-3,1.9681549E-1,2.0021534E-1,1.9706249E-1,
1570074431,2019-10-03 03:47:11.769,-6.321907E-3,-1.0807514E-3,-4.7729015E-3,1.4073849E-3,2.0291519E-1,2.0542812E-1,2.0516396E-1,
1570074491,2019-10-03 03:48:11.767,-3.7760735E-3,1.2106895E-3,-2.1448135E-3,3.7071705E-3,2.1111679E-1,2.1362305E-1,2.0350838E-1,
1570074551,2019-10-03 03:49:11.767,-3.922224E-3,1.0807514E-3,-2.7422905E-3,4.061699E-3,2.1153736E-1,2.1343994E-1,2.1124077E-1,
1570074611,2019-10-03 03:50:11.767,-5.990267E-3,-1.1558533E-3,-5.03397E-3,1.6989708E-3,2.0451736E-1,2.0458221E-1,1.9163418E-1,
1570074671,2019-10-03 03:51:11.767,-3.5529137E-3,1.4817715E-3,-2.5496483E-3,4.0192604E-3,2.0998478E-1,2.1160793E-1,2.1253395E-1,
1570074731,2019-10-03 03:52:11.767,-3.567934E-3,1.1744499E-3,-1.7352104E-3,4.192829E-3,2.0720959E-1,2.0857143E-1,2.1165276E-1,
1570074791,2019-10-03 03:53:11.767,-3.7884712E-3,1.4388561E-3,-2.197504E-3,3.8371086E-3,2.0923042E-1,2.1188545E-1,2.0131493E-1,
1570074851,2019-10-03 03:54:11.767,-4.211426E-3,8.0013275E-4,-2.4797916E-3,2.9962063E-3,2.1065807E-1,2.1133709E-1,2.0642471E-1,
1570074911,2019-10-03 03:55:11.767,-3.567934E-3,1.2280941E-3,-2.1665096E-3,3.715992E-3,2.1053696E-1,2.1366024E-1,2.0509338E-1,
1570074971,2019-10-03 03:56:11.767,-4.38118E-3,2.3722649E-4,-3.1859875E-3,2.817154E-3,2.083931E-1,2.1032047E-1,2.0932865E-1,
1570075031,2019-10-03 03:57:11.796,-4.113674E-3,7.047653E-4,-2.9900074E-3,3.5085678E-3,2.120533E-1,2.1094131E-1,2.1656609E-1,
1570075091,2019-10-03 03:58:11.767,-4.3218136E-3,6.5016747E-4,-2.5119781E-3,3.401041E-3,2.0996094E-1,2.107439E-1,2.0814991E-1,
1570075151,2019-10-03 03:59:11.767,-4.0032864E-3,8.49247E-4,-2.1793842E-3,3.484726E-3,2.0978165E-1,2.1158695E-1,2.1326637E-1,
