Time(longsecs),Time(UTC),Supply Voltage(mV),Temperature(&deg;C),NMX Bus Current(mA),Sensor Current(mA),Serial Port Current(mA),Controller Current(mA),Digitizer Current(mA),
1571770838,2019-10-22 19:00:38.746,12007,1.4143463E1,0,17,0,64,51,
1571770898,2019-10-22 19:01:38.746,12034,1.4062866E1,0,11,0,63,54,
1571770958,2019-10-22 19:02:38.746,11763,1.4296204E1,0,4,0,64,46,
1571771018,2019-10-22 19:03:38.748,11966,1.3922852E1,0,13,0,73,50,
1571771078,2019-10-22 19:04:38.746,12021,1.4111664E1,0,13,0,0,53,
1571771138,2019-10-22 19:05:38.746,11979,1.4009827E1,0,12,0,0,50,
1571771198,2019-10-22 19:06:38.751,11993,1.40321045E1,0,13,0,0,48,
1571771258,2019-10-22 19:07:38.746,12007,1.3957855E1,0,14,0,0,54,
1571771318,2019-10-22 19:08:38.746,11993,1.38125305E1,0,13,0,5,50,
1571771378,2019-10-22 19:09:38.746,12007,1.3905884E1,0,8,0,5,53,
1571771438,2019-10-22 19:10:38.746,12007,1.3883606E1,0,13,0,0,51,
1571771498,2019-10-22 19:11:38.746,12021,1.3992859E1,0,11,0,0,53,
1571771558,2019-10-22 19:12:38.746,12007,1.3678894E1,0,13,0,0,52,
1571771618,2019-10-22 19:13:38.746,12048,1.3826324E1,0,11,0,0,58,
1571771678,2019-10-22 19:14:38.746,12007,1.3819977E1,0,13,0,0,51,
1571771738,2019-10-22 19:15:38.746,12021,1.3819977E1,0,11,0,0,52,
1571771798,2019-10-22 19:16:38.746,12007,1.3825287E1,0,12,0,0,49,
1571771858,2019-10-22 19:17:38.746,12007,1.35494995E1,0,18,0,0,52,
1571771918,2019-10-22 19:18:38.746,12007,1.3692688E1,0,11,0,0,51,
1571771978,2019-10-22 19:19:38.746,12061,1.3746796E1,0,12,0,0,55,
1571772038,2019-10-22 19:20:38.746,12074,1.3484802E1,0,12,0,0,50,
1571772098,2019-10-22 19:21:38.746,12021,1.3564362E1,0,11,0,0,52,
1571772158,2019-10-22 19:22:38.746,11993,1.3634338E1,0,14,0,55,52,
1571772218,2019-10-22 19:23:38.746,11979,1.3736176E1,0,13,0,65,48,
1571772278,2019-10-22 19:24:38.746,11979,1.3806183E1,0,14,0,55,50,
1571772338,2019-10-22 19:25:38.746,11993,1.3914368E1,0,11,0,64,51,
1571772398,2019-10-22 19:26:38.746,11979,1.368634E1,0,13,0,63,53,
1571772458,2019-10-22 19:27:38.748,11939,1.3975891E1,0,17,0,99,49,
1571772518,2019-10-22 19:28:38.746,12034,1.3800873E1,0,11,0,64,51,
1571772578,2019-10-22 19:29:38.746,11966,1.3720276E1,0,14,0,64,53,
1571772638,2019-10-22 19:30:38.746,12021,1.3903748E1,0,13,0,76,53,
1571772698,2019-10-22 19:31:38.748,12007,1.4118011E1,0,12,0,0,50,
1571772758,2019-10-22 19:32:38.746,12021,1.4069214E1,0,11,0,0,53,
1571772818,2019-10-22 19:33:38.746,12021,1.392392E1,0,11,0,0,51,
1571772878,2019-10-22 19:34:38.746,12048,1.38316345E1,0,11,0,0,49,
1571772938,2019-10-22 19:35:38.746,11993,1.3789215E1,0,13,0,0,53,
1571772998,2019-10-22 19:36:38.746,12007,1.3721313E1,0,12,0,0,53,
1571773058,2019-10-22 19:37:38.746,12007,1.3722382E1,0,13,0,0,58,
1571773118,2019-10-22 19:38:38.746,12007,1.3589813E1,0,11,0,0,53,
1571773178,2019-10-22 19:39:38.746,12048,1.3662994E1,0,13,0,0,52,
1571773238,2019-10-22 19:40:38.746,12007,1.3334198E1,0,15,0,0,52,
1571773298,2019-10-22 19:41:38.746,12021,1.3765869E1,0,13,0,0,53,
1571773358,2019-10-22 19:42:38.746,12007,1.3556915E1,0,13,0,0,50,
1571773418,2019-10-22 19:43:38.746,12007,1.3578125E1,0,13,0,0,53,
1571773478,2019-10-22 19:44:38.746,12007,1.3536774E1,0,13,0,0,53,
1571773538,2019-10-22 19:45:38.748,12007,1.3118866E1,0,12,0,0,50,
1571773598,2019-10-22 19:46:38.746,12007,1.3460419E1,0,14,0,0,51,
1571773658,2019-10-22 19:47:38.748,12021,1.35336E1,0,13,0,0,51,
1571773718,2019-10-22 19:48:38.746,12007,1.3606781E1,0,11,0,0,60,
1571773778,2019-10-22 19:49:38.746,12007,1.3377686E1,0,13,0,0,53,
1571773838,2019-10-22 19:50:38.746,12007,1.3454041E1,0,11,0,0,51,
1571773898,2019-10-22 19:51:38.747,12007,1.334903E1,0,8,0,5,52,
1571773958,2019-10-22 19:52:38.746,11966,1.35303955E1,0,12,0,74,64,
1571774018,2019-10-22 19:53:38.746,11952,1.3511322E1,0,10,0,79,64,
1571774078,2019-10-22 19:54:38.746,11966,1.3511322E1,0,13,0,61,64,
1571774138,2019-10-22 19:55:38.746,11952,1.3745728E1,0,13,0,64,66,
1571774198,2019-10-22 19:56:38.746,11952,1.4020447E1,0,12,0,60,66,
1571774258,2019-10-22 19:57:38.752,11952,1.4015137E1,0,11,0,56,66,
1571774318,2019-10-22 19:58:38.746,11952,1.3705414E1,0,13,0,63,65,
1571774378,2019-10-22 19:59:38.746,11952,1.3850739E1,0,9,0,61,63,
