Time(longsecs),Time(UTC),External SOH Voltage 1(V),External SOH Voltage 2(V),External SOH Voltage 3(V),External SOH Voltage 4(V),Sensor SOH Voltage 1(V),Sensor SOH Voltage 2(V),Sensor SOH Voltage 3(V),
1571724038,2019-10-22 06:00:38.694,-4.864931E-3,-3.0243397E-3,-5.1071644E-3,4.3201447E-3,4.258318E-1,4.3282127E-1,4.3099117E-1,
1571724098,2019-10-22 06:01:38.648,-1.9612312E-3,-4.427433E-4,-2.4869442E-3,7.1935654E-3,4.3368912E-1,4.393072E-1,4.381323E-1,
1571724158,2019-10-22 06:02:38.646,-4.855156E-3,-3.3700466E-3,-5.0501823E-3,4.6010017E-3,4.2585754E-1,4.3160725E-1,4.2809296E-1,
1571724218,2019-10-22 06:03:38.647,-1.7595291E-3,-1.4519691E-4,-2.5179386E-3,6.9880486E-3,4.3318272E-1,4.3924904E-1,4.37706E-1,
1571724278,2019-10-22 06:04:38.646,-2.7298927E-3,-1.0175705E-3,-2.9437542E-3,6.488085E-3,4.3296337E-1,4.3888092E-1,4.362421E-1,
1571724338,2019-10-22 06:05:38.646,-1.9853115E-3,-3.8194656E-4,-2.4638176E-3,7.070303E-3,4.3525696E-1,4.405794E-1,4.3819237E-1,
1571724398,2019-10-22 06:06:38.646,-2.9611588E-3,-1.3017654E-3,-3.0224323E-3,6.5989494E-3,4.298525E-1,4.365883E-1,4.3558407E-1,
1571724458,2019-10-22 06:07:38.646,-9.4890594E-5,1.7440319E-3,-4.8089027E-4,9.242535E-3,4.378252E-1,4.453516E-1,4.465971E-1,
1571724518,2019-10-22 06:08:38.646,6.2942505E-5,1.9013882E-3,-4.5990944E-4,9.150028E-3,4.3975544E-1,4.4573307E-1,4.4445705E-1,
1571724578,2019-10-22 06:09:38.646,-2.1643639E-3,-5.891323E-4,-2.4330616E-3,7.27129E-3,4.326086E-1,4.389143E-1,4.3768787E-1,
1571724638,2019-10-22 06:10:38.646,-2.5629997E-3,-1.0969639E-3,-3.0744076E-3,6.515503E-3,4.3082047E-1,4.3820477E-1,4.3686485E-1,
1571724698,2019-10-22 06:11:38.646,-2.2542477E-3,-1.6593933E-4,-2.3667812E-3,7.149935E-3,4.3152714E-1,4.3857384E-1,4.3783188E-1,
1571724758,2019-10-22 06:12:38.646,-2.1224022E-3,1.039505E-4,-2.3319721E-3,7.099867E-3,4.3443298E-1,4.388256E-1,4.3651104E-1,
1571724818,2019-10-22 06:13:38.648,2.7418137E-5,1.789093E-3,-4.0006638E-4,9.182215E-3,4.3941784E-1,4.4969082E-1,4.4850636E-1,
1571724878,2019-10-22 06:14:38.656,-5.109787E-3,-2.9981136E-3,-5.0621033E-3,4.5804977E-3,4.2847347E-1,4.3201733E-1,4.3094158E-1,
1571724938,2019-10-22 06:15:38.646,-1.4925003E-4,1.5194416E-3,-3.3712387E-4,9.16934E-3,4.4012165E-1,4.4434166E-1,4.4243622E-1,
1571724998,2019-10-22 06:16:38.648,-2.6681423E-3,-8.4996223E-4,-2.8481483E-3,6.5169334E-3,4.3241978E-1,4.3857384E-1,4.3708038E-1,
1571725058,2019-10-22 06:17:38.646,-2.136469E-3,-1.8072128E-4,-2.3005009E-3,7.1685314E-3,4.359398E-1,4.4181442E-1,4.403534E-1,
1571725118,2019-10-22 06:18:38.646,-4.805565E-3,-3.0312538E-3,-5.004406E-3,4.3907166E-3,4.2612743E-1,4.3229103E-1,4.3015957E-1,
1571725178,2019-10-22 06:19:38.647,-8.916855E-5,1.7254353E-3,-3.0755997E-4,9.290934E-3,4.37562E-1,4.4613266E-1,4.4390965E-1,
1571725238,2019-10-22 06:20:38.679,-2.3572445E-3,-1.4281273E-4,-2.2773743E-3,7.1771145E-3,4.3388176E-1,4.402628E-1,4.3880463E-1,
1571725298,2019-10-22 06:21:38.675,1.8334389E-4,1.7931461E-3,-3.5381317E-4,9.22513E-3,4.4019318E-1,4.4669056E-1,4.44479E-1,
1571725358,2019-10-22 06:22:38.646,-4.947901E-3,-3.4806728E-3,-5.0320625E-3,4.398823E-3,4.2399025E-1,4.3221092E-1,4.2988682E-1,
1571725418,2019-10-22 06:23:38.648,-1.8978119E-4,1.7595291E-3,-3.3068657E-4,9.1199875E-3,4.4002914E-1,4.4398308E-1,4.4213963E-1,
1571725478,2019-10-22 06:24:38.646,-2.9785633E-3,-1.2462139E-3,-3.191948E-3,6.399393E-3,4.323101E-1,4.364462E-1,4.3540573E-1,
1571725538,2019-10-22 06:25:38.646,-5.004406E-3,-3.1893253E-3,-4.977703E-3,4.746914E-3,4.2649937E-1,4.3055916E-1,4.290161E-1,
1571725598,2019-10-22 06:26:38.646,-2.146244E-3,-4.3797493E-4,-2.5529861E-3,7.2305202E-3,4.336939E-1,4.4000435E-1,4.3824387E-1,
1571725658,2019-10-22 06:27:38.678,1.7023087E-3,1.7774105E-3,-4.887581E-4,9.296656E-3,4.394493E-1,4.4598675E-1,4.4435024E-1,
1571725718,2019-10-22 06:28:38.646,-2.0167828E-3,-4.041195E-4,-2.4216175E-3,7.214308E-3,4.3210888E-1,4.393568E-1,4.3794537E-1,
1571725778,2019-10-22 06:29:38.684,-2.08354E-3,-2.837181E-4,-2.4895668E-3,7.2727203E-3,4.3401718E-1,4.404459E-1,4.3843842E-1,
1571725838,2019-10-22 06:30:38.646,-2.0580292E-3,-3.900528E-4,-2.5100708E-3,7.1582794E-3,4.3188E-1,4.3940163E-1,4.3769836E-1,
1571725898,2019-10-22 06:31:38.646,-5.087614E-3,-3.0822754E-3,-5.098343E-3,4.3263435E-3,4.2657757E-1,4.3218136E-1,4.3023205E-1,
1571725958,2019-10-22 06:32:38.646,-2.1913052E-3,-2.965927E-4,-2.4416447E-3,7.3850155E-3,4.3338013E-1,4.379158E-1,4.3657207E-1,
1571726018,2019-10-22 06:33:38.648,-2.8059483E-3,-9.0813637E-4,-2.8374195E-3,6.5784454E-3,4.345579E-1,4.36903E-1,4.364338E-1,
1571726078,2019-10-22 06:34:38.646,-2.9242039E-3,-1.0485649E-3,-3.0272007E-3,6.431341E-3,4.3311787E-1,4.4159222E-1,4.404421E-1,
1571726138,2019-10-22 06:35:38.646,-5.053997E-3,-3.3848286E-3,-5.17869E-3,4.6412945E-3,4.2622757E-1,4.321766E-1,4.3123055E-1,
1571726198,2019-10-22 06:36:38.646,-1.7762184E-4,1.8222332E-3,-3.209114E-4,8.998632E-3,4.3827534E-1,4.4569016E-1,4.445591E-1,
1571726258,2019-10-22 06:37:38.646,-2.5293827E-3,-1.308918E-3,-2.8438568E-3,6.555319E-3,4.325266E-1,4.3847656E-1,4.3722916E-1,
1571726318,2019-10-22 06:38:38.646,-4.853487E-3,-2.922058E-3,-5.073309E-3,4.3792725E-3,4.2435074E-1,4.3299484E-1,4.3080997E-1,
1571726378,2019-10-22 06:39:38.646,2.0503998E-5,1.7101765E-3,-4.6253204E-4,9.48E-3,4.3790722E-1,4.4601536E-1,4.4426155E-1,
1571726438,2019-10-22 06:40:38.646,-2.7673244E-3,-1.128912E-3,-2.850771E-3,6.464243E-3,4.3235588E-1,4.4098186E-1,4.3902493E-1,
1571726498,2019-10-22 06:41:38.646,-2.3462772E-3,-7.0786476E-4,-2.7747154E-3,6.6571236E-3,4.3532276E-1,4.3915367E-1,4.3740845E-1,
1571726558,2019-10-22 06:42:38.646,-2.5732517E-3,-1.0466576E-3,-2.9652119E-3,6.755352E-3,4.3466282E-1,4.3752766E-1,4.3525887E-1,
1571726618,2019-10-22 06:43:38.646,-2.3930073E-3,-9.95636E-4,-2.8722286E-3,6.6566467E-3,4.3392944E-1,4.3871307E-1,4.3764782E-1,
1571726678,2019-10-22 06:44:38.646,-2.7799606E-3,-9.6559525E-4,-2.6097298E-3,6.7522526E-3,4.3275452E-1,4.387102E-1,4.3783188E-1,
1571726738,2019-10-22 06:45:38.679,-5.0168037E-3,-2.9652119E-3,-4.9653053E-3,4.1458607E-3,4.2685795E-1,4.3299866E-1,4.310608E-1,
1571726798,2019-10-22 06:46:38.648,-5.178213E-3,-3.1707287E-3,-5.304575E-3,4.1935444E-3,4.2749882E-1,4.3275166E-1,4.3073273E-1,
1571726858,2019-10-22 06:47:38.646,-4.7855377E-3,-2.9900074E-3,-5.0065517E-3,4.4384003E-3,4.2610073E-1,4.3263626E-1,4.3125057E-1,
1571726918,2019-10-22 06:48:38.646,-2.5513172E-3,-1.1672974E-3,-3.007412E-3,6.267071E-3,4.3365765E-1,4.3885708E-1,4.3776703E-1,
1571726978,2019-10-22 06:49:38.646,-4.7700405E-3,-3.2076836E-3,-4.9672127E-3,4.31633E-3,4.2504692E-1,4.3207836E-1,4.314537E-1,
1571727038,2019-10-22 06:50:38.646,-2.067089E-3,-3.7527084E-4,-2.5119781E-3,7.140398E-3,4.3268967E-1,4.3961525E-1,4.3836117E-1,
1571727098,2019-10-22 06:51:38.646,-4.921198E-3,-2.9246807E-3,-4.8367977E-3,4.172325E-3,4.2632008E-1,4.3235302E-1,4.3083096E-1,
1571727158,2019-10-22 06:52:38.646,-2.640009E-3,-1.0786057E-3,-2.8398037E-3,6.4225197E-3,4.3205547E-1,4.3687725E-1,4.357853E-1,
1571727218,2019-10-22 06:53:38.649,1.16586685E-4,1.6829967E-3,5.6266785E-5,9.453297E-3,4.4413185E-1,4.50428E-1,4.4839764E-1,
1571727278,2019-10-22 06:54:38.658,-5.0210953E-3,-3.162384E-3,-5.0866604E-3,4.1885376E-3,4.234562E-1,4.2985535E-1,4.2859364E-1,
1571727338,2019-10-22 06:55:38.646,-2.4785995E-3,-9.083748E-5,-2.8953552E-3,6.6506863E-3,4.348688E-1,4.3964958E-1,4.3744755E-1,
1571727398,2019-10-22 06:56:38.646,-2.7401447E-3,-1.0175705E-3,-3.1604767E-3,6.5915585E-3,4.324236E-1,4.3868542E-1,4.3754292E-1,
1571727458,2019-10-22 06:57:38.647,-2.267599E-3,7.247925E-5,-2.2640228E-3,7.025957E-3,4.3484402E-1,4.4219112E-1,4.4088936E-1,
1571727518,2019-10-22 06:58:38.646,-1.9967556E-3,3.669262E-4,-2.3770332E-3,7.0614815E-3,4.3366337E-1,4.3962955E-1,4.3828392E-1,
1571727578,2019-10-22 06:59:38.646,-4.8913956E-3,-3.3817291E-3,-5.0828457E-3,4.4896603E-3,4.260769E-1,4.321766E-1,4.3144608E-1,
