Time(longsecs),Time(UTC),External SOH Voltage 1(V),External SOH Voltage 2(V),External SOH Voltage 3(V),External SOH Voltage 4(V),Sensor SOH Voltage 1(V),Sensor SOH Voltage 2(V),Sensor SOH Voltage 3(V),
1570363211,2019-10-06 12:00:11.767,-1.8262863E-3,3.2188892E-3,2.0575523E-4,5.506277E-3,2.0851898E-1,2.1079636E-1,2.0667458E-1,
1570363271,2019-10-06 12:01:11.767,-3.7400723E-3,1.3234615E-3,-1.8520355E-3,3.7653446E-3,1.9992161E-1,2.008915E-1,1.9894695E-1,
1570363331,2019-10-06 12:02:11.793,-6.149292E-3,-1.2171268E-3,-3.9391518E-3,1.2254715E-3,1.8677902E-1,1.8883038E-1,1.9259453E-1,
1570363391,2019-10-06 12:03:11.769,-6.436348E-3,-1.250267E-3,-4.8205853E-3,1.1227131E-3,1.8694878E-1,1.8893528E-1,1.8490887E-1,
1570363451,2019-10-06 12:04:11.803,-5.9952736E-3,-1.2936592E-3,-4.4765472E-3,1.0504723E-3,1.9074535E-1,1.91329E-1,1.9276047E-1,
1570363511,2019-10-06 12:05:11.767,-4.62389E-3,1.0166168E-3,-2.0372868E-3,3.426075E-3,2.0126152E-1,2.0861244E-1,1.9853592E-1,
1570363571,2019-10-06 12:06:11.767,-1.8444061E-3,2.7210712E-3,-1.7881393E-4,4.946232E-3,2.0280457E-1,2.0514202E-1,2.0187187E-1,
1570363631,2019-10-06 12:07:11.767,-2.049446E-3,3.2162666E-3,-3.4570694E-4,5.3112507E-3,2.0316029E-1,2.052679E-1,2.0337868E-1,
1570363691,2019-10-06 12:08:11.767,-4.3723583E-3,2.2530556E-4,-2.7635098E-3,2.7303696E-3,1.9667816E-1,1.9804382E-1,1.9416237E-1,
1570363751,2019-10-06 12:09:11.768,-6.534815E-3,-1.1641979E-3,-4.247904E-3,5.657673E-4,1.9057941E-1,1.9226074E-1,1.8779278E-1,
1570363811,2019-10-06 12:10:11.767,-6.544113E-3,-1.6040802E-3,-4.6072006E-3,1.0056496E-3,1.920824E-1,1.9456673E-1,1.9137383E-1,
1570363871,2019-10-06 12:11:11.767,-6.242752E-3,-1.2083054E-3,-4.631281E-3,9.996891E-4,1.9072247E-1,1.927681E-1,1.904726E-1,
1570363931,2019-10-06 12:12:11.767,-3.904581E-3,9.2434883E-4,-2.23732E-3,3.7250519E-3,1.9714355E-1,1.9857788E-1,1.9736862E-1,
1570363991,2019-10-06 12:13:11.767,-6.2015057E-3,-1.2543201E-3,-4.279852E-3,6.3705444E-4,1.9089508E-1,1.9252682E-1,1.9066525E-1,
1570364051,2019-10-06 12:14:11.767,-4.4157505E-3,7.5387955E-4,-2.3932457E-3,3.2351017E-3,1.9851398E-1,2.0048141E-1,1.9942093E-1,
1570364111,2019-10-06 12:15:11.767,-4.3640137E-3,9.505749E-4,-2.1777153E-3,2.7661324E-3,2.0008373E-1,2.0223427E-1,1.971798E-1,
1570364171,2019-10-06 12:16:11.767,-4.433632E-3,7.8344345E-4,-2.464056E-3,2.8305054E-3,1.9905376E-1,2.0082188E-1,1.9801903E-1,
1570364231,2019-10-06 12:17:11.767,-6.075859E-3,-1.3523102E-3,-4.3144226E-3,8.985996E-4,1.930952E-1,1.9399261E-1,1.8983269E-1,
1570364291,2019-10-06 12:18:11.767,-3.7679672E-3,1.0223389E-3,-1.9299984E-3,4.048109E-3,2.0106411E-1,2.0164013E-1,2.0040798E-1,
1570364351,2019-10-06 12:19:11.767,-6.102085E-3,-1.3096333E-3,-4.668474E-3,1.2962818E-3,1.9091892E-1,1.9280052E-1,1.8902588E-1,
1570364411,2019-10-06 12:20:11.768,-6.58679E-3,-1.3451576E-3,-4.187107E-3,8.289814E-4,1.9089508E-1,1.9360828E-1,1.9126892E-1,
1570364471,2019-10-06 12:21:11.767,-4.6072006E-3,6.0391426E-4,-2.4080276E-3,3.3738613E-3,1.9787598E-1,2.00634E-1,1.9491196E-1,
1570364531,2019-10-06 12:22:11.767,-6.0822964E-3,-1.5010834E-3,-4.4875145E-3,1.2190342E-3,1.9305134E-1,1.9464684E-1,1.9167042E-1,
1570364591,2019-10-06 12:23:11.767,-1.7037392E-3,2.8672218E-3,-2.8395653E-4,5.4297447E-3,1.9898033E-1,2.0055294E-1,1.9643211E-1,
1570364651,2019-10-06 12:24:11.767,-3.7662983E-3,4.813671E-4,-2.4707317E-3,3.1917095E-3,1.9688511E-1,1.9980526E-1,1.9745827E-1,
1570364711,2019-10-06 12:25:11.767,-6.5619946E-3,-1.3999939E-3,-4.32086E-3,1.0633469E-3,1.9122982E-1,1.9222069E-1,1.8685627E-1,
1570364771,2019-10-06 12:26:11.767,-6.0551167E-3,-1.2164116E-3,-4.433632E-3,1.2874603E-3,1.9138145E-1,1.9362545E-1,1.8980217E-1,
1570364831,2019-10-06 12:27:11.767,-2.2230148E-3,2.6993752E-3,-2.272129E-4,5.144596E-3,2.0527172E-1,2.0619488E-1,2.0233059E-1,
1570364891,2019-10-06 12:28:11.767,-6.355524E-3,-1.3759136E-3,-4.3594837E-3,8.2707405E-4,1.8842125E-1,1.92276E-1,1.8916416E-1,
1570364951,2019-10-06 12:29:11.767,-3.8290024E-3,1.3489723E-3,-1.8503666E-3,3.5071373E-3,1.9540405E-1,2.0006084E-1,1.9621468E-1,
1570365011,2019-10-06 12:30:11.767,-6.231308E-3,-1.2414455E-3,-4.1701794E-3,8.8977814E-4,1.9129276E-1,1.9522095E-1,1.8915176E-1,
1570365071,2019-10-06 12:31:11.767,-2.0604134E-3,2.5441647E-3,-5.8412552E-5,5.1858425E-3,2.038889E-1,2.0450974E-1,2.0204544E-1,
1570365131,2019-10-06 12:32:11.767,-5.9001446E-3,-1.6109943E-3,-4.3985844E-3,1.455307E-3,1.9009972E-1,1.9310093E-1,1.8925667E-1,
1570365191,2019-10-06 12:33:11.773,-1.7483234E-3,3.0961037E-3,8.72612E-5,5.4838657E-3,2.038889E-1,2.0600605E-1,2.0129967E-1,
1570365251,2019-10-06 12:34:11.767,-1.988411E-3,2.9568672E-3,-3.6239624E-5,5.615473E-3,2.0274162E-1,2.0530796E-1,2.0298386E-1,
1570365311,2019-10-06 12:35:11.767,-5.9432983E-3,-1.278162E-3,-4.513502E-3,1.3570786E-3,1.8770123E-1,1.896925E-1,1.8695164E-1,
1570365371,2019-10-06 12:36:11.767,-6.6018105E-3,-1.4452934E-3,-4.3218136E-3,9.868145E-4,1.8942165E-1,1.9227982E-1,1.888094E-1,
1570365431,2019-10-06 12:37:11.767,-1.9612312E-3,2.9096603E-3,-2.59161E-4,5.1760674E-3,2.0025349E-1,2.0288086E-1,1.9740868E-1,
1570365491,2019-10-06 12:38:11.767,-3.6616325E-3,1.5852451E-3,-1.4734268E-3,3.2730103E-3,1.9975376E-1,1.9776821E-1,1.9580364E-1,
1570365551,2019-10-06 12:39:11.767,-6.562948E-3,-1.4138222E-3,-4.219055E-3,1.3680458E-3,1.9059086E-1,1.9303417E-1,1.899128E-1,
1570365611,2019-10-06 12:40:11.767,-3.4322739E-3,1.206398E-3,-1.6903877E-3,3.856659E-3,1.9817734E-1,1.9992542E-1,1.9412994E-1,
1570365671,2019-10-06 12:41:11.767,-3.944397E-3,1.292944E-3,-1.9366741E-3,3.6017895E-3,1.9918346E-1,2.0176983E-1,2.0207405E-1,
1570365731,2019-10-06 12:42:11.769,-6.0896873E-3,-1.2586117E-3,-4.3632984E-3,9.4628334E-4,1.9067383E-1,1.9367218E-1,1.8979168E-1,
1570365791,2019-10-06 12:43:11.785,-6.1228275E-3,-1.0979176E-3,-4.6551228E-3,4.451275E-4,1.9004726E-1,1.9207382E-1,1.855793E-1,
1570365851,2019-10-06 12:44:11.777,-3.6206245E-3,1.0187626E-3,-2.444744E-3,3.5369396E-3,2.0006084E-1,2.0073223E-1,1.9699383E-1,
1570365911,2019-10-06 12:45:11.768,-4.5466423E-3,9.8228455E-5,-2.6564598E-3,3.2446384E-3,1.9642639E-1,1.9884682E-1,1.9603634E-1,
1570365971,2019-10-06 12:46:11.767,-1.642704E-3,3.30019E-3,-5.8412552E-5,5.124092E-3,2.0501614E-1,2.0756817E-1,2.0564365E-1,
1570366031,2019-10-06 12:47:11.767,-3.2327175E-3,1.2075901E-3,-1.9218922E-3,3.414631E-3,1.9603062E-1,1.9959736E-1,1.970129E-1,
1570366091,2019-10-06 12:48:11.767,-4.2569637E-3,4.5919418E-4,-2.4867058E-3,3.29113E-3,1.9610977E-1,1.9924355E-1,1.9796658E-1,
1570366151,2019-10-06 12:49:11.767,-6.213188E-3,-1.303196E-3,-4.351139E-3,1.0859966E-3,1.9079876E-1,1.9253445E-1,1.8903923E-1,
1570366211,2019-10-06 12:50:11.767,-6.3405037E-3,-1.3682842E-3,-4.3632984E-3,6.2704086E-4,1.8661594E-1,1.8924809E-1,1.8540955E-1,
1570366271,2019-10-06 12:51:11.799,-3.644228E-3,1.5704632E-3,-1.8479824E-3,3.643036E-3,1.9916058E-1,2.0170975E-1,1.9273281E-1,
1570366331,2019-10-06 12:52:11.767,-6.5279007E-3,-1.3036728E-3,-4.3251514E-3,1.0590553E-3,1.9109535E-1,1.9444847E-1,1.8887138E-1,
1570366391,2019-10-06 12:53:11.767,-1.8796921E-3,2.8808117E-3,-2.6011467E-4,5.3696632E-3,2.0357895E-1,2.0807266E-1,2.0406818E-1,
1570366451,2019-10-06 12:54:11.767,-3.9212704E-3,1.0056496E-3,-1.7614365E-3,3.8671494E-3,1.9751358E-1,2.0010853E-1,1.9230938E-1,
1570366511,2019-10-06 12:55:11.769,-3.783226E-3,1.0976791E-3,-1.7900467E-3,3.3004284E-3,1.9629955E-1,1.9862843E-1,1.9362545E-1,
1570366571,2019-10-06 12:56:11.767,-3.852129E-3,1.2567043E-3,-2.0263195E-3,3.4270287E-3,1.988926E-1,2.0200253E-1,1.9596767E-1,
1570366631,2019-10-06 12:57:11.767,-6.108761E-3,-1.5013218E-3,-4.080057E-3,1.1012554E-3,1.8613052E-1,1.874361E-1,1.8465424E-1,
1570366691,2019-10-06 12:58:11.767,-4.450798E-3,6.3705444E-4,-2.5391579E-3,3.1120777E-3,1.9793606E-1,2.0026779E-1,1.9850254E-1,
1570366751,2019-10-06 12:59:11.767,-4.187107E-3,8.5926056E-4,-2.8018951E-3,2.450943E-3,1.9591904E-1,1.9821072E-1,1.9419003E-1,
