Time(longsecs),Time(UTC),Earth Location,GPS Receiver Status,GPS Satellites Used,GPS PDOP,GPS TDOP,Timing Status,Timing Phase Lock,Timing Uncertainty(ns),DAC Count,Timing Error(ns),GPS Last Update Time,
1570150845,2019-10-04 01:00:45.722,47.644942N 0.58686E 196m,Off,7,2.6026034,1.6105955,Time OK,Free running,10500,8887,0,2019-10-04 00:49:33.000000000,
1570150905,2019-10-04 01:01:45.722,47.644942N 0.58686E 196m,Off,7,2.6026034,1.6105955,Time OK,Free running,11300,8887,0,2019-10-04 00:49:33.000000000,
1570150965,2019-10-04 01:02:45.723,47.644942N 0.58686E 196m,Off,7,2.6026034,1.6105955,Time OK,Free running,12200,8887,0,2019-10-04 00:49:33.000000000,
1570151025,2019-10-04 01:03:45.761,47.644942N 0.58686E 196m,Off,7,2.6026034,1.6105955,Time OK,Free running,13200,8887,0,2019-10-04 00:49:33.000000000,
1570151085,2019-10-04 01:04:45.722,47.644942N 0.58686E 196m,Off,7,2.6026034,1.6105955,Time OK,Free running,14100,8887,0,2019-10-04 00:49:33.000000000,
1570151145,2019-10-04 01:05:45.724,47.644942N 0.58686E 196m,Off,7,2.6026034,1.6105955,Time OK,Free running,15200,8887,0,2019-10-04 00:49:33.000000000,
1570151205,2019-10-04 01:06:45.722,47.644942N 0.58686E 196m,Off,7,2.6026034,1.6105955,Time OK,Free running,16400,8887,0,2019-10-04 00:49:33.000000000,
1570151265,2019-10-04 01:07:45.722,47.644942N 0.58686E 196m,Off,7,2.6026034,1.6105955,Time OK,Free running,17600,8887,0,2019-10-04 00:49:33.000000000,
1570151325,2019-10-04 01:08:45.722,47.644942N 0.58686E 196m,Off,7,2.6026034,1.6105955,Time OK,Free running,18400,8887,0,2019-10-04 00:49:33.000000000,
1570151385,2019-10-04 01:09:45.722,47.644942N 0.58686E 196m,Off,7,2.6026034,1.6105955,Time OK,Free running,19300,8887,0,2019-10-04 00:49:33.000000000,
1570151445,2019-10-04 01:10:45.723,47.644942N 0.58686E 196m,Off,7,2.6026034,1.6105955,Time OK,Free running,20200,8887,0,2019-10-04 00:49:33.000000000,
1570151505,2019-10-04 01:11:45.722,47.644942N 0.58686E 196m,Off,7,2.6026034,1.6105955,Time OK,Free running,21200,8887,0,2019-10-04 00:49:33.000000000,
1570151565,2019-10-04 01:12:45.724,47.644942N 0.58686E 196m,Off,7,2.6026034,1.6105955,Time OK,Free running,22100,8887,0,2019-10-04 00:49:33.000000000,
1570151625,2019-10-04 01:13:45.722,47.644942N 0.58686E 196m,Off,7,2.6026034,1.6105955,Time OK,Free running,22900,8887,0,2019-10-04 00:49:33.000000000,
1570151685,2019-10-04 01:14:45.722,47.644942N 0.58686E 196m,Off,7,2.6026034,1.6105955,Time OK,Free running,23900,8887,0,2019-10-04 00:49:33.000000000,
1570151745,2019-10-04 01:15:45.722,47.644942N 0.58686E 196m,Off,7,2.6026034,1.6105955,Time OK,Free running,24800,8887,0,2019-10-04 00:49:33.000000000,
1570151805,2019-10-04 01:16:45.722,47.644942N 0.58686E 196m,Off,7,2.6026034,1.6105955,Time OK,Free running,25600,8887,0,2019-10-04 00:49:33.000000000,
1570151865,2019-10-04 01:17:45.722,47.644942N 0.58686E 196m,Off,7,2.6026034,1.6105955,Time OK,Free running,26500,8887,0,2019-10-04 00:49:33.000000000,
1570151925,2019-10-04 01:18:45.722,47.644942N 0.58686E 196m,Off,7,2.6026034,1.6105955,Time OK,Free running,27400,8887,0,2019-10-04 00:49:33.000000000,
1570151985,2019-10-04 01:19:45.722,47.644942N 0.58686E 196m,Off,7,2.6026034,1.6105955,Time OK,Free running,28400,8887,0,2019-10-04 00:49:33.000000000,
1570152045,2019-10-04 01:20:45.722,47.644942N 0.58686E 196m,Off,7,2.6026034,1.6105955,Time OK,Free running,29400,8887,0,2019-10-04 00:49:33.000000000,
1570152105,2019-10-04 01:21:45.722,47.644942N 0.58686E 196m,Off,7,2.6026034,1.6105955,Time OK,Free running,30400,8887,0,2019-10-04 00:49:33.000000000,
1570152165,2019-10-04 01:22:45.761,47.644942N 0.58686E 196m,Off,7,2.6026034,1.6105955,Time OK,Free running,31400,8887,0,2019-10-04 00:49:33.000000000,
1570152225,2019-10-04 01:23:45.722,47.644942N 0.58686E 196m,Off,7,2.6026034,1.6105955,Time OK,Free running,32600,8887,0,2019-10-04 00:49:33.000000000,
1570152285,2019-10-04 01:24:45.722,47.644942N 0.58686E 196m,Off,7,2.6026034,1.6105955,Time OK,Free running,33800,8887,0,2019-10-04 00:49:33.000000000,
1570152345,2019-10-04 01:25:45.722,47.644942N 0.58686E 196m,Off,7,2.6026034,1.6105955,Time OK,Free running,34900,8887,0,2019-10-04 00:49:33.000000000,
1570152405,2019-10-04 01:26:45.722,47.644942N 0.58686E 196m,Off,7,2.6026034,1.6105955,Time OK,Free running,36000,8887,0,2019-10-04 00:49:33.000000000,
1570152465,2019-10-04 01:27:45.722,47.644942N 0.58686E 196m,Off,7,2.6026034,1.6105955,Time OK,Free running,37200,8887,0,2019-10-04 00:49:33.000000000,
1570152525,2019-10-04 01:28:45.722,47.644942N 0.58686E 196m,Off,7,2.6026034,1.6105955,Time OK,Free running,38300,8887,0,2019-10-04 00:49:33.000000000,
1570152585,2019-10-04 01:29:45.722,47.644942N 0.58686E 196m,Off,7,2.6026034,1.6105955,Time OK,Free running,39300,8887,0,2019-10-04 00:49:33.000000000,
1570152645,2019-10-04 01:30:45.724,47.644942N 0.58686E 196m,Off,7,2.6026034,1.6105955,Time OK,Free running,40300,8887,0,2019-10-04 00:49:33.000000000,
1570152705,2019-10-04 01:31:45.723,47.644942N 0.58686E 196m,Off,7,2.6026034,1.6105955,Time OK,Free running,41400,8887,0,2019-10-04 00:49:33.000000000,
1570152765,2019-10-04 01:32:45.724,47.644942N 0.58686E 196m,Off,7,2.6026034,1.6105955,Time OK,Free running,42300,8887,0,2019-10-04 00:49:33.000000000,
1570152825,2019-10-04 01:33:45.722,47.644942N 0.58686E 196m,Off,7,2.6026034,1.6105955,Time OK,Free running,43200,8887,0,2019-10-04 00:49:33.000000000,
1570152885,2019-10-04 01:34:45.722,47.644942N 0.58686E 196m,Off,7,2.6026034,1.6105955,Time OK,Free running,44300,8887,0,2019-10-04 00:49:33.000000000,
1570152945,2019-10-04 01:35:45.722,47.644942N 0.58686E 196m,Off,7,2.6026034,1.6105955,Time OK,Free running,45400,8887,0,2019-10-04 00:49:33.000000000,
1570153005,2019-10-04 01:36:45.722,47.644942N 0.58686E 196m,Off,7,2.6026034,1.6105955,Time OK,Free running,46300,8887,0,2019-10-04 00:49:33.000000000,
1570153065,2019-10-04 01:37:45.722,47.644942N 0.58686E 196m,Off,7,2.6026034,1.6105955,Time OK,Free running,47100,8887,0,2019-10-04 00:49:33.000000000,
1570153125,2019-10-04 01:38:45.722,47.644942N 0.58686E 196m,Off,7,2.6026034,1.6105955,Time OK,Free running,47900,8887,0,2019-10-04 00:49:33.000000000,
1570153185,2019-10-04 01:39:45.722,47.644942N 0.58686E 196m,Off,7,2.6026034,1.6105955,Time OK,Free running,48800,8887,0,2019-10-04 00:49:33.000000000,
1570153245,2019-10-04 01:40:45.754,47.644942N 0.58686E 196m,Off,7,2.6026034,1.6105955,Time OK,Free running,49700,8887,0,2019-10-04 00:49:33.000000000,
1570153305,2019-10-04 01:41:45.722,47.644942N 0.58686E 196m,Off,7,2.6026034,1.6105955,Time OK,Free running,50500,8887,0,2019-10-04 00:49:33.000000000,
1570153365,2019-10-04 01:42:45.722,47.644942N 0.58686E 196m,No GPS time,5,1.8102344,0.6803351,Time OK,Free running,51400,8887,0,2019-10-04 01:42:42.000000000,
1570153425,2019-10-04 01:43:45.751,47.644942N 0.58686E 196m,Doing fixes,6,2.7543902,1.6776766,Time OK,Fine lock,100,8875,104,2019-10-04 01:43:42.000000000,
1570153485,2019-10-04 01:44:45.725,47.644942N 0.58686E 196m,Doing fixes,6,2.7372892,1.6556513,Time OK,Fine lock,100,8887,0,2019-10-04 01:44:42.000000000,
1570153545,2019-10-04 01:45:45.722,47.644942N 0.58686E 196m,Off,6,2.5967762,1.4899064,Time OK,Free running,800,8887,0,2019-10-04 01:44:52.000000000,
1570153605,2019-10-04 01:46:45.722,47.644942N 0.58686E 196m,Off,6,2.5967762,1.4899064,Time OK,Free running,1600,8887,0,2019-10-04 01:44:52.000000000,
1570153665,2019-10-04 01:47:45.722,47.644942N 0.58686E 196m,Off,6,2.5967762,1.4899064,Time OK,Free running,2400,8887,0,2019-10-04 01:44:52.000000000,
1570153725,2019-10-04 01:48:45.722,47.644942N 0.58686E 196m,Off,6,2.5967762,1.4899064,Time OK,Free running,3300,8887,0,2019-10-04 01:44:52.000000000,
1570153785,2019-10-04 01:49:45.722,47.644942N 0.58686E 196m,Off,6,2.5967762,1.4899064,Time OK,Free running,4200,8887,0,2019-10-04 01:44:52.000000000,
1570153845,2019-10-04 01:50:45.722,47.644942N 0.58686E 196m,Off,6,2.5967762,1.4899064,Time OK,Free running,5200,8887,0,2019-10-04 01:44:52.000000000,
1570153905,2019-10-04 01:51:45.722,47.644942N 0.58686E 196m,Off,6,2.5967762,1.4899064,Time OK,Free running,6100,8887,0,2019-10-04 01:44:52.000000000,
1570153965,2019-10-04 01:52:45.722,47.644942N 0.58686E 196m,Off,6,2.5967762,1.4899064,Time OK,Free running,7000,8887,0,2019-10-04 01:44:52.000000000,
1570154025,2019-10-04 01:53:45.722,47.644942N 0.58686E 196m,Off,6,2.5967762,1.4899064,Time OK,Free running,7800,8887,0,2019-10-04 01:44:52.000000000,
1570154085,2019-10-04 01:54:45.722,47.644942N 0.58686E 196m,Off,6,2.5967762,1.4899064,Time OK,Free running,8900,8887,0,2019-10-04 01:44:52.000000000,
1570154145,2019-10-04 01:55:45.722,47.644942N 0.58686E 196m,Off,6,2.5967762,1.4899064,Time OK,Free running,9700,8887,0,2019-10-04 01:44:52.000000000,
1570154205,2019-10-04 01:56:45.722,47.644942N 0.58686E 196m,Off,6,2.5967762,1.4899064,Time OK,Free running,10600,8887,0,2019-10-04 01:44:52.000000000,
1570154265,2019-10-04 01:57:45.722,47.644942N 0.58686E 196m,Off,6,2.5967762,1.4899064,Time OK,Free running,11600,8887,0,2019-10-04 01:44:52.000000000,
1570154325,2019-10-04 01:58:45.722,47.644942N 0.58686E 196m,Off,6,2.5967762,1.4899064,Time OK,Free running,12500,8887,0,2019-10-04 01:44:52.000000000,
1570154385,2019-10-04 01:59:45.722,47.644942N 0.58686E 196m,Off,6,2.5967762,1.4899064,Time OK,Free running,13300,8887,0,2019-10-04 01:44:52.000000000,
