Time(longsecs),Time(UTC),Supply Voltage(mV),Temperature(&deg;C),NMX Bus Current(mA),Sensor Current(mA),Serial Port Current(mA),Controller Current(mA),Digitizer Current(mA),
1570165245,2019-10-04 05:00:45.722,16231,2.0044922E1,0,7,0,30,38,
1570165305,2019-10-04 05:01:45.722,16231,2.018451E1,0,2,0,33,35,
1570165365,2019-10-04 05:02:45.722,16218,2.0220734E1,0,11,0,64,35,
1570165425,2019-10-04 05:03:45.732,16218,2.012909E1,0,7,0,57,43,
1570165485,2019-10-04 05:04:45.724,16218,2.0039612E1,35,9,0,66,35,
1570165545,2019-10-04 05:05:45.722,16218,2.0247375E1,0,8,0,51,36,
1570165605,2019-10-04 05:06:45.723,16218,2.0160004E1,0,9,0,48,36,
1570165665,2019-10-04 05:07:45.722,16231,2.0187714E1,0,6,0,46,36,
1570165725,2019-10-04 05:08:45.722,16231,2.0115265E1,0,10,0,38,37,
1570165785,2019-10-04 05:09:45.722,16272,2.0133362E1,0,9,0,36,37,
1570165845,2019-10-04 05:10:45.722,16231,2.0243103E1,0,5,0,33,35,
1570165905,2019-10-04 05:11:45.722,16231,2.012909E1,0,8,0,33,38,
1570165965,2019-10-04 05:12:45.722,16231,2.0088623E1,0,11,0,38,36,
1570166025,2019-10-04 05:13:45.723,16205,2.0318756E1,0,4,46,37,35,
1570166085,2019-10-04 05:14:45.722,16231,2.0161072E1,0,8,0,37,37,
1570166145,2019-10-04 05:15:45.724,16245,2.017279E1,0,11,0,32,34,
1570166205,2019-10-04 05:16:45.722,16231,2.0135498E1,0,18,0,31,36,
1570166265,2019-10-04 05:17:45.722,16218,2.0303833E1,0,8,0,37,39,
1570166325,2019-10-04 05:18:45.722,16231,2.01568E1,0,6,0,37,38,
1570166385,2019-10-04 05:19:45.722,16218,2.0229248E1,0,5,0,38,37,
1570166445,2019-10-04 05:20:45.754,16231,2.0223938E1,0,4,0,32,36,
1570166505,2019-10-04 05:21:45.722,16218,2.0122711E1,0,9,0,33,39,
1570166565,2019-10-04 05:22:45.722,16136,2.0103516E1,0,9,0,37,36,
1570166625,2019-10-04 05:23:45.722,16218,2.031662E1,0,7,0,32,46,
1570166685,2019-10-04 05:24:45.722,16218,2.0194092E1,0,2,0,37,38,
1570166745,2019-10-04 05:25:45.722,16245,2.0057709E1,0,10,0,33,37,
1570166805,2019-10-04 05:26:45.722,16136,2.0120575E1,0,13,0,33,36,
1570166865,2019-10-04 05:27:45.722,16218,2.0069427E1,0,9,0,33,37,
1570166925,2019-10-04 05:28:45.722,16163,2.0164276E1,0,6,0,38,38,
1570166985,2019-10-04 05:29:45.727,16218,2.005664E1,0,9,0,37,36,
1570167045,2019-10-04 05:30:45.722,16231,2.0138702E1,0,6,0,33,39,
1570167105,2019-10-04 05:31:45.726,16191,2.0292114E1,0,9,0,34,36,
1570167165,2019-10-04 05:32:45.722,16218,2.0137634E1,0,9,0,36,35,
1570167225,2019-10-04 05:33:45.722,16218,2.0447693E1,0,6,0,38,41,
1570167285,2019-10-04 05:34:45.722,16205,1.9975677E1,0,6,0,33,39,
1570167345,2019-10-04 05:35:45.722,16218,2.0175995E1,0,8,0,32,36,
1570167405,2019-10-04 05:36:45.722,16218,2.030066E1,0,9,0,35,45,
1570167465,2019-10-04 05:37:45.722,16205,2.0067291E1,0,9,1,33,37,
1570167525,2019-10-04 05:38:45.722,16218,2.0244171E1,0,11,0,38,38,
1570167585,2019-10-04 05:39:45.722,16218,2.0121643E1,0,10,0,38,36,
1570167645,2019-10-04 05:40:45.722,16205,2.0223938E1,0,8,0,33,37,
1570167705,2019-10-04 05:41:45.722,16218,2.02005E1,0,9,0,31,38,
1570167765,2019-10-04 05:42:45.722,16218,2.0268677E1,0,13,0,35,31,
1570167825,2019-10-04 05:43:45.722,16205,2.033902E1,0,6,0,38,36,
1570167885,2019-10-04 05:44:45.722,16245,2.0319824E1,0,9,0,37,39,
1570167945,2019-10-04 05:45:45.722,16218,2.0335815E1,0,11,0,32,35,
1570168005,2019-10-04 05:46:45.722,16218,2.018451E1,0,11,0,32,38,
1570168065,2019-10-04 05:47:45.722,16205,2.0133362E1,0,10,0,38,38,
1570168125,2019-10-04 05:48:45.722,16218,1.9958618E1,0,4,0,33,37,
1570168185,2019-10-04 05:49:45.722,16218,2.0054504E1,0,9,0,38,39,
1570168245,2019-10-04 05:50:45.722,16205,2.005664E1,0,7,0,38,39,
1570168305,2019-10-04 05:51:45.722,16218,1.9910675E1,0,13,0,32,37,
1570168365,2019-10-04 05:52:45.722,16163,1.9912811E1,0,13,0,38,40,
1570168425,2019-10-04 05:53:45.732,16231,2.0244171E1,0,9,0,37,39,
1570168485,2019-10-04 05:54:45.722,16177,2.0312378E1,0,9,0,37,39,
1570168545,2019-10-04 05:55:45.722,16218,2.000232E1,0,10,0,32,36,
1570168605,2019-10-04 05:56:45.722,16218,2.0064117E1,0,5,0,32,36,
1570168665,2019-10-04 05:57:45.723,16205,2.0114197E1,0,7,0,38,34,
1570168725,2019-10-04 05:58:45.758,16245,1.99469E1,0,9,0,37,38,
1570168785,2019-10-04 05:59:45.722,16205,1.9927734E1,0,5,0,38,37,
