Time(longsecs),Time(UTC),Supply Voltage(mV),Temperature(&deg;C),NMX Bus Current(mA),Sensor Current(mA),Serial Port Current(mA),Controller Current(mA),Digitizer Current(mA),
1570183245,2019-10-04 10:00:45.722,16529,2.303366E1,0,11,0,32,33,
1570183305,2019-10-04 10:01:45.722,16542,2.3272339E1,0,10,0,32,37,
1570183365,2019-10-04 10:02:45.722,16475,2.2997437E1,0,9,0,36,36,
1570183425,2019-10-04 10:03:45.722,16542,2.3138092E1,0,10,0,38,35,
1570183485,2019-10-04 10:04:45.772,16502,2.316153E1,0,9,0,32,38,
1570183545,2019-10-04 10:05:45.724,16515,2.3242523E1,0,10,0,45,41,
1570183605,2019-10-04 10:06:45.722,16529,2.340979E1,0,13,0,32,35,
1570183665,2019-10-04 10:07:45.722,16515,2.3368225E1,0,7,0,40,40,
1570183725,2019-10-04 10:08:45.722,16448,2.328299E1,0,9,0,36,38,
1570183785,2019-10-04 10:09:45.723,16502,2.3728394E1,0,8,0,33,37,
1570183845,2019-10-04 10:10:45.722,16502,2.3682556E1,0,7,0,32,34,
1570183905,2019-10-04 10:11:45.722,16529,2.3684692E1,0,8,0,31,37,
1570183965,2019-10-04 10:12:45.722,16515,2.3936157E1,0,9,0,36,45,
1570184025,2019-10-04 10:13:45.722,16502,2.3588806E1,0,7,0,36,40,
1570184085,2019-10-04 10:14:45.722,16515,2.372519E1,0,8,0,40,34,
1570184145,2019-10-04 10:15:45.722,16488,2.4053345E1,0,10,0,36,35,
1570184205,2019-10-04 10:16:45.723,16529,2.374649E1,0,9,0,38,38,
1570184265,2019-10-04 10:17:45.722,16475,2.3820007E1,0,12,0,41,37,
1570184325,2019-10-04 10:18:45.722,16461,2.405655E1,0,10,0,36,38,
1570184385,2019-10-04 10:19:45.722,16515,2.4136475E1,0,9,0,32,36,
1570184445,2019-10-04 10:20:45.722,16502,2.421637E1,0,8,0,38,38,
1570184505,2019-10-04 10:21:45.722,16542,2.4207855E1,0,9,0,31,34,
1570184565,2019-10-04 10:22:45.723,16529,2.4395386E1,0,7,4,33,38,
1570184625,2019-10-04 10:23:45.722,16529,2.4278168E1,0,11,0,31,34,
1570184685,2019-10-04 10:24:45.722,16529,2.4389008E1,0,6,0,39,36,
1570184745,2019-10-04 10:25:45.722,16515,2.4429474E1,0,9,0,37,40,
1570184805,2019-10-04 10:26:45.722,16515,2.4285645E1,0,9,0,38,34,
1570184865,2019-10-04 10:27:45.722,16488,2.459784E1,0,10,0,36,36,
1570184925,2019-10-04 10:28:45.722,16515,2.4749146E1,0,9,0,31,33,
1570184985,2019-10-04 10:29:45.723,16515,2.466388E1,0,9,0,36,35,
1570185045,2019-10-04 10:30:45.723,16515,2.4623413E1,0,9,0,34,36,
1570185105,2019-10-04 10:31:45.722,16542,2.4675629E1,0,6,0,32,40,
1570185165,2019-10-04 10:32:45.722,16502,2.4713959E1,0,9,0,37,35,
1570185225,2019-10-04 10:33:45.724,16502,2.4836517E1,0,9,0,37,37,
1570185285,2019-10-04 10:34:45.722,16502,2.476831E1,0,10,0,35,34,
1570185345,2019-10-04 10:35:45.722,16515,2.4885529E1,0,8,0,31,35,
1570185405,2019-10-04 10:36:45.724,16488,2.4937714E1,0,8,0,41,36,
1570185465,2019-10-04 10:37:45.722,16502,2.487912E1,0,11,0,37,34,
1570185525,2019-10-04 10:38:45.722,16515,2.505066E1,0,11,0,36,39,
1570185585,2019-10-04 10:39:45.722,16502,2.4961182E1,0,6,0,37,39,
1570185645,2019-10-04 10:40:45.722,16515,2.5009125E1,0,8,0,31,38,
1570185705,2019-10-04 10:41:45.723,16542,2.507306E1,0,12,0,43,36,
1570185765,2019-10-04 10:42:45.722,16515,2.508902E1,0,8,0,45,41,
1570185825,2019-10-04 10:43:45.722,16515,2.5282959E1,0,8,0,45,36,
1570185885,2019-10-04 10:44:45.722,16529,2.5338348E1,0,11,0,37,35,
1570185945,2019-10-04 10:45:45.722,16420,2.5324493E1,0,6,0,31,35,
1570186005,2019-10-04 10:46:45.724,16515,2.53927E1,0,9,0,33,40,
1570186065,2019-10-04 10:47:45.722,16488,2.5419342E1,0,9,0,28,34,
1570186125,2019-10-04 10:48:45.722,16488,2.5371399E1,0,7,0,31,34,
1570186185,2019-10-04 10:49:45.722,16529,2.5622833E1,0,7,0,37,40,
1570186245,2019-10-04 10:50:45.722,16529,2.5211548E1,0,6,0,32,36,
1570186305,2019-10-04 10:51:45.722,16515,2.5244598E1,0,9,0,32,37,
1570186365,2019-10-04 10:52:45.756,16515,2.5404419E1,0,9,0,38,40,
1570186425,2019-10-04 10:53:45.724,16515,2.566333E1,0,11,0,37,35,
1570186485,2019-10-04 10:54:45.722,16556,2.5384186E1,0,1,0,32,34,
1570186545,2019-10-04 10:55:45.722,16529,2.5498169E1,0,7,0,31,37,
1570186605,2019-10-04 10:56:45.722,16515,2.5383118E1,0,8,0,31,35,
1570186665,2019-10-04 10:57:45.722,16529,2.5716614E1,0,12,0,37,39,
1570186725,2019-10-04 10:58:45.723,16515,2.5618591E1,0,8,0,38,40,
1570186785,2019-10-04 10:59:45.722,16529,2.578479E1,0,8,0,38,39,
