Time(longsecs),Time(UTC),Supply Voltage(mV),Temperature(&deg;C),NMX Bus Current(mA),Sensor Current(mA),Serial Port Current(mA),Controller Current(mA),Digitizer Current(mA),
1572487258,2019-10-31 02:00:58.669,11627,1.3194183E1,0,14,0,65,58,
1572487318,2019-10-31 02:01:58.669,11599,1.312204E1,0,9,0,66,57,
1572487378,2019-10-31 02:02:58.669,11599,1.3118866E1,0,13,0,64,62,
1572487438,2019-10-31 02:03:58.669,11599,1.2997955E1,0,15,0,63,60,
1572487498,2019-10-31 02:04:58.701,11599,1.3115692E1,0,9,0,54,59,
1572487558,2019-10-31 02:05:58.669,11599,1.31910095E1,0,13,0,54,61,
1572487618,2019-10-31 02:06:58.680,11614,1.3185699E1,0,12,28,70,58,
1572487678,2019-10-31 02:07:58.669,11641,1.336496E1,0,13,0,64,59,
1572487738,2019-10-31 02:08:58.669,11614,1.3034027E1,0,13,0,64,61,
1572487798,2019-10-31 02:09:58.669,11654,1.3066895E1,0,15,0,55,58,
1572487858,2019-10-31 02:10:58.671,11599,1.310614E1,0,13,0,59,57,
1572487918,2019-10-31 02:11:58.669,11599,1.3069031E1,0,12,0,64,62,
1572487978,2019-10-31 02:12:58.669,11654,1.3250397E1,0,11,0,59,59,
1572488038,2019-10-31 02:13:58.669,11599,1.3259949E1,0,2,0,63,58,
1572488098,2019-10-31 02:14:58.669,11599,1.3060547E1,0,17,0,63,60,
1572488158,2019-10-31 02:15:58.669,11627,1.2960846E1,0,13,0,55,57,
1572488218,2019-10-31 02:16:58.669,11599,1.3293884E1,0,13,0,63,54,
1572488278,2019-10-31 02:17:58.669,11599,1.328009E1,0,13,0,54,56,
1572488338,2019-10-31 02:18:58.669,11599,1.3018097E1,0,15,0,70,60,
1572488398,2019-10-31 02:19:58.669,11599,1.3140076E1,0,13,0,56,57,
1572488458,2019-10-31 02:20:58.682,11599,1.3192047E1,0,13,0,56,60,
1572488518,2019-10-31 02:21:58.669,11599,1.3197357E1,0,14,0,67,60,
1572488578,2019-10-31 02:22:58.671,11614,1.307431E1,0,11,0,65,61,
1572488638,2019-10-31 02:23:58.669,11586,1.3136902E1,0,20,0,63,59,
1572488698,2019-10-31 02:24:58.669,11599,1.3041443E1,0,14,0,55,56,
1572488758,2019-10-31 02:25:58.669,11599,1.2989471E1,0,14,0,64,55,
1572488818,2019-10-31 02:26:58.669,11586,1.333313E1,0,23,0,63,63,
1572488878,2019-10-31 02:27:58.669,11627,1.2776276E1,0,14,0,64,58,
1572488938,2019-10-31 02:28:58.669,11599,1.3037201E1,0,15,0,63,57,
1572488998,2019-10-31 02:29:58.669,11599,1.2996887E1,0,13,0,54,60,
1572489058,2019-10-31 02:30:58.669,11599,1.316449E1,0,26,0,59,55,
1572489118,2019-10-31 02:31:58.669,11599,1.3065826E1,0,12,0,62,58,
1572489178,2019-10-31 02:32:58.669,11599,1.3066895E1,0,11,0,65,61,
1572489238,2019-10-31 02:33:58.669,11599,1.3123108E1,0,13,0,55,57,
1572489298,2019-10-31 02:34:58.669,11599,1.3169769E1,0,13,1,56,57,
1572489358,2019-10-31 02:35:58.669,11599,1.330661E1,0,11,0,54,62,
1572489418,2019-10-31 02:36:58.669,11599,1.3039307E1,0,10,0,70,59,
1572489478,2019-10-31 02:37:58.669,11599,1.3203735E1,0,11,0,63,57,
1572489538,2019-10-31 02:38:58.669,11586,1.299054E1,0,15,0,63,65,
1572489598,2019-10-31 02:39:58.669,11599,1.2965088E1,0,14,0,57,62,
1572489658,2019-10-31 02:40:58.669,11599,1.3197357E1,0,15,0,54,61,
1572489718,2019-10-31 02:41:58.669,11599,1.2881287E1,0,14,0,63,58,
1572489778,2019-10-31 02:42:58.669,11586,1.3082794E1,0,18,0,59,61,
1572489838,2019-10-31 02:43:58.669,11586,1.3107208E1,0,13,0,79,60,
1572489898,2019-10-31 02:44:58.669,11586,1.3034027E1,0,13,0,66,62,
1572489958,2019-10-31 02:45:58.669,11599,1.3066895E1,0,15,0,55,58,
1572490018,2019-10-31 02:46:58.671,11599,1.3160248E1,0,12,0,70,57,
1572490078,2019-10-31 02:47:58.705,11586,1.3245087E1,0,13,0,63,58,
1572490138,2019-10-31 02:48:58.669,11599,1.3058411E1,0,11,0,64,63,
1572490198,2019-10-31 02:49:58.669,11599,1.3316162E1,0,13,0,56,58,
1572490258,2019-10-31 02:50:58.669,11627,1.3303436E1,0,12,0,65,59,
1572490318,2019-10-31 02:51:58.669,11599,1.3022339E1,0,10,0,70,61,
1572490378,2019-10-31 02:52:58.669,11586,1.3253571E1,0,13,0,64,63,
1572490438,2019-10-31 02:53:58.669,11614,1.3030823E1,0,13,0,64,61,
1572490498,2019-10-31 02:54:58.669,11599,1.3008575E1,0,15,0,59,61,
1572490558,2019-10-31 02:55:58.669,11614,1.3210083E1,0,6,0,59,64,
1572490618,2019-10-31 02:56:58.669,11614,1.3059479E1,0,14,0,64,60,
1572490678,2019-10-31 02:57:58.669,11586,1.3319336E1,0,12,0,71,56,
1572490738,2019-10-31 02:58:58.693,11599,1.313797E1,0,24,0,64,59,
1572490798,2019-10-31 02:59:58.669,11599,1.3109314E1,0,10,0,56,59,
