Time(longsecs),Time(UTC),Earth Location,GPS Receiver Status,GPS Satellites Used,GPS PDOP,GPS TDOP,Timing Status,Timing Phase Lock,Timing Uncertainty(ns),DAC Count,Timing Error(ns),GPS Last Update Time,
1572505258,2019-10-31 07:00:58.671,47.651902N 0.543122E 187m,Off,4,5.8769417,2.5262241,Time OK,Free running,28800,8919,0,2019-10-31 06:31:05.000000000,
1572505318,2019-10-31 07:01:58.670,47.651902N 0.543122E 187m,Off,4,5.8769417,2.5262241,Time OK,Free running,29900,8919,0,2019-10-31 06:31:05.000000000,
1572505378,2019-10-31 07:02:58.669,47.651902N 0.543122E 187m,Off,4,5.8769417,2.5262241,Time OK,Free running,30700,8919,0,2019-10-31 06:31:05.000000000,
1572505438,2019-10-31 07:03:58.669,47.651902N 0.543122E 187m,Off,4,5.8769417,2.5262241,Time OK,Free running,31500,8919,0,2019-10-31 06:31:05.000000000,
1572505498,2019-10-31 07:04:58.669,47.651902N 0.543122E 187m,Off,4,5.8769417,2.5262241,Time OK,Free running,32600,8919,0,2019-10-31 06:31:05.000000000,
1572505558,2019-10-31 07:05:58.669,47.651902N 0.543122E 187m,Off,4,5.8769417,2.5262241,Time OK,Free running,33600,8919,0,2019-10-31 06:31:05.000000000,
1572505618,2019-10-31 07:06:58.669,47.651902N 0.543122E 187m,Off,4,5.8769417,2.5262241,Time OK,Free running,34700,8919,0,2019-10-31 06:31:05.000000000,
1572505678,2019-10-31 07:07:58.669,47.651902N 0.543122E 187m,Off,4,5.8769417,2.5262241,Time OK,Free running,36000,8919,0,2019-10-31 06:31:05.000000000,
1572505738,2019-10-31 07:08:58.669,47.651902N 0.543122E 187m,Off,4,5.8769417,2.5262241,Time OK,Free running,37000,8919,0,2019-10-31 06:31:05.000000000,
1572505798,2019-10-31 07:09:58.669,47.651902N 0.543122E 187m,Off,4,5.8769417,2.5262241,Time OK,Free running,38000,8919,0,2019-10-31 06:31:05.000000000,
1572505858,2019-10-31 07:10:58.701,47.651902N 0.543122E 187m,Off,4,5.8769417,2.5262241,Time OK,Free running,39200,8919,0,2019-10-31 06:31:05.000000000,
1572505918,2019-10-31 07:11:58.671,47.651902N 0.543122E 187m,Off,4,5.8769417,2.5262241,Time OK,Free running,40000,8919,0,2019-10-31 06:31:05.000000000,
1572505978,2019-10-31 07:12:58.669,47.651902N 0.543122E 187m,Off,4,5.8769417,2.5262241,Time OK,Free running,41100,8919,0,2019-10-31 06:31:05.000000000,
1572506038,2019-10-31 07:13:58.669,47.651902N 0.543122E 187m,Off,4,5.8769417,2.5262241,Time OK,Free running,42200,8919,0,2019-10-31 06:31:05.000000000,
1572506098,2019-10-31 07:14:58.669,47.651902N 0.543122E 187m,Off,4,5.8769417,2.5262241,Time OK,Free running,43000,8919,0,2019-10-31 06:31:05.000000000,
1572506158,2019-10-31 07:15:58.669,47.651902N 0.543122E 187m,Off,4,5.8769417,2.5262241,Time OK,Free running,43900,8919,0,2019-10-31 06:31:05.000000000,
1572506218,2019-10-31 07:16:58.669,47.651902N 0.543122E 187m,Off,4,5.8769417,2.5262241,Time OK,Free running,45000,8919,0,2019-10-31 06:31:05.000000000,
1572506278,2019-10-31 07:17:58.669,47.651902N 0.543122E 187m,Off,4,5.8769417,2.5262241,Time OK,Free running,46100,8919,0,2019-10-31 06:31:05.000000000,
1572506338,2019-10-31 07:18:58.669,47.651902N 0.543122E 187m,Off,4,5.8769417,2.5262241,Time OK,Free running,47100,8919,0,2019-10-31 06:31:05.000000000,
1572506398,2019-10-31 07:19:58.669,47.651902N 0.543122E 187m,Off,4,5.8769417,2.5262241,Time OK,Free running,48000,8919,0,2019-10-31 06:31:05.000000000,
1572506458,2019-10-31 07:20:58.669,47.651902N 0.543122E 187m,Off,4,5.8769417,2.5262241,Time OK,Free running,49000,8919,0,2019-10-31 06:31:05.000000000,
1572506518,2019-10-31 07:21:58.671,47.651902N 0.543122E 187m,Off,4,5.8769417,2.5262241,Time OK,Free running,50200,8919,0,2019-10-31 06:31:05.000000000,
1572506578,2019-10-31 07:22:58.669,47.651902N 0.543122E 187m,Doing fixes,6,3.8827817,1.9919945,Time OK,Coarse lock,100,9004,-1145,2019-10-31 07:22:55.000000000,
1572506638,2019-10-31 07:23:58.670,47.651902N 0.543122E 187m,Doing fixes,7,2.4573033,1.443576,Time OK,Fine lock,100,8913,104,2019-10-31 07:23:55.000000000,
1572506698,2019-10-31 07:24:58.699,47.651902N 0.543122E 187m,Doing fixes,5,3.381859,1.9007776,Time OK,Fine lock,100,8920,0,2019-10-31 07:24:55.000000000,
1572506758,2019-10-31 07:25:58.702,47.651902N 0.543122E 187m,Off,6,3.1191235,1.6195993,Time OK,Free running,300,8919,0,2019-10-31 07:25:35.000000000,
1572506818,2019-10-31 07:26:58.669,47.651902N 0.543122E 187m,Off,6,3.1191235,1.6195993,Time OK,Free running,1300,8919,0,2019-10-31 07:25:35.000000000,
1572506878,2019-10-31 07:27:58.669,47.651902N 0.543122E 187m,Off,6,3.1191235,1.6195993,Time OK,Free running,2200,8919,0,2019-10-31 07:25:35.000000000,
1572506938,2019-10-31 07:28:58.669,47.651902N 0.543122E 187m,Off,6,3.1191235,1.6195993,Time OK,Free running,3100,8919,0,2019-10-31 07:25:35.000000000,
1572506998,2019-10-31 07:29:58.698,47.651902N 0.543122E 187m,Off,6,3.1191235,1.6195993,Time OK,Free running,4000,8919,0,2019-10-31 07:25:35.000000000,
1572507058,2019-10-31 07:30:58.669,47.651902N 0.543122E 187m,Off,6,3.1191235,1.6195993,Time OK,Free running,4800,8919,0,2019-10-31 07:25:35.000000000,
1572507118,2019-10-31 07:31:58.669,47.651902N 0.543122E 187m,Off,6,3.1191235,1.6195993,Time OK,Free running,5600,8919,0,2019-10-31 07:25:35.000000000,
1572507178,2019-10-31 07:32:58.670,47.651902N 0.543122E 187m,Off,6,3.1191235,1.6195993,Time OK,Free running,6500,8919,0,2019-10-31 07:25:35.000000000,
1572507238,2019-10-31 07:33:58.669,47.651902N 0.543122E 187m,Off,6,3.1191235,1.6195993,Time OK,Free running,7300,8919,0,2019-10-31 07:25:35.000000000,
1572507298,2019-10-31 07:34:58.669,47.651902N 0.543122E 187m,Off,6,3.1191235,1.6195993,Time OK,Free running,8100,8919,0,2019-10-31 07:25:35.000000000,
1572507358,2019-10-31 07:35:58.669,47.651902N 0.543122E 187m,Off,6,3.1191235,1.6195993,Time OK,Free running,9100,8919,0,2019-10-31 07:25:35.000000000,
1572507418,2019-10-31 07:36:58.669,47.651902N 0.543122E 187m,Off,6,3.1191235,1.6195993,Time OK,Free running,10000,8919,0,2019-10-31 07:25:35.000000000,
1572507478,2019-10-31 07:37:58.669,47.651902N 0.543122E 187m,Off,6,3.1191235,1.6195993,Time OK,Free running,10800,8919,0,2019-10-31 07:25:35.000000000,
1572507538,2019-10-31 07:38:58.669,47.651902N 0.543122E 187m,Off,6,3.1191235,1.6195993,Time OK,Free running,11700,8919,0,2019-10-31 07:25:35.000000000,
1572507598,2019-10-31 07:39:58.669,47.651902N 0.543122E 187m,Off,6,3.1191235,1.6195993,Time OK,Free running,12700,8919,0,2019-10-31 07:25:35.000000000,
1572507658,2019-10-31 07:40:58.669,47.651902N 0.543122E 187m,Off,6,3.1191235,1.6195993,Time OK,Free running,13900,8919,0,2019-10-31 07:25:35.000000000,
1572507718,2019-10-31 07:41:58.669,47.651902N 0.543122E 187m,Off,6,3.1191235,1.6195993,Time OK,Free running,15000,8919,0,2019-10-31 07:25:35.000000000,
1572507778,2019-10-31 07:42:58.669,47.651902N 0.543122E 187m,Off,6,3.1191235,1.6195993,Time OK,Free running,16000,8919,0,2019-10-31 07:25:35.000000000,
1572507838,2019-10-31 07:43:58.669,47.651902N 0.543122E 187m,Off,6,3.1191235,1.6195993,Time OK,Free running,17000,8919,0,2019-10-31 07:25:35.000000000,
1572507898,2019-10-31 07:44:58.669,47.651902N 0.543122E 187m,Off,6,3.1191235,1.6195993,Time OK,Free running,18000,8919,0,2019-10-31 07:25:35.000000000,
1572507958,2019-10-31 07:45:58.671,47.651902N 0.543122E 187m,Off,6,3.1191235,1.6195993,Time OK,Free running,18800,8919,0,2019-10-31 07:25:35.000000000,
1572508018,2019-10-31 07:46:58.669,47.651902N 0.543122E 187m,Off,6,3.1191235,1.6195993,Time OK,Free running,19700,8919,0,2019-10-31 07:25:35.000000000,
1572508078,2019-10-31 07:47:58.669,47.651902N 0.543122E 187m,Off,6,3.1191235,1.6195993,Time OK,Free running,20600,8919,0,2019-10-31 07:25:35.000000000,
1572508138,2019-10-31 07:48:58.669,47.651902N 0.543122E 187m,Off,6,3.1191235,1.6195993,Time OK,Free running,21400,8919,0,2019-10-31 07:25:35.000000000,
1572508198,2019-10-31 07:49:58.669,47.651902N 0.543122E 187m,Off,6,3.1191235,1.6195993,Time OK,Free running,22300,8919,0,2019-10-31 07:25:35.000000000,
1572508258,2019-10-31 07:50:58.669,47.651902N 0.543122E 187m,Off,6,3.1191235,1.6195993,Time OK,Free running,23200,8919,0,2019-10-31 07:25:35.000000000,
1572508318,2019-10-31 07:51:58.669,47.651902N 0.543122E 187m,Off,6,3.1191235,1.6195993,Time OK,Free running,24000,8919,0,2019-10-31 07:25:35.000000000,
1572508378,2019-10-31 07:52:58.669,47.651902N 0.543122E 187m,Off,6,3.1191235,1.6195993,Time OK,Free running,25000,8919,0,2019-10-31 07:25:35.000000000,
1572508438,2019-10-31 07:53:58.670,47.651902N 0.543122E 187m,Off,6,3.1191235,1.6195993,Time OK,Free running,26000,8919,0,2019-10-31 07:25:35.000000000,
1572508498,2019-10-31 07:54:58.670,47.651902N 0.543122E 187m,Off,6,3.1191235,1.6195993,Time OK,Free running,26800,8919,0,2019-10-31 07:25:35.000000000,
1572508558,2019-10-31 07:55:58.671,47.651902N 0.543122E 187m,Off,6,3.1191235,1.6195993,Time OK,Free running,27700,8919,0,2019-10-31 07:25:35.000000000,
1572508618,2019-10-31 07:56:58.671,47.651902N 0.543122E 187m,Off,6,3.1191235,1.6195993,Time OK,Free running,28800,8919,0,2019-10-31 07:25:35.000000000,
1572508678,2019-10-31 07:57:58.670,47.651902N 0.543122E 187m,Off,6,3.1191235,1.6195993,Time OK,Free running,29800,8919,0,2019-10-31 07:25:35.000000000,
1572508738,2019-10-31 07:58:58.670,47.651902N 0.543122E 187m,Off,6,3.1191235,1.6195993,Time OK,Free running,30600,8919,0,2019-10-31 07:25:35.000000000,
1572508798,2019-10-31 07:59:58.670,47.651902N 0.543122E 187m,Off,6,3.1191235,1.6195993,Time OK,Free running,31700,8919,0,2019-10-31 07:25:35.000000000,
