Time(longsecs),Time(UTC),GPS Satellite Acquisition Flag 1,GPS Satellite Acquisition Flag 2,GPS Satellite Acquisition Flag 3,GPS Satellite Acquisition Flag 4,GPS Satellite Acquisition Flag 5,GPS Satellite Acquisition Flag 6,GPS Satellite Acquisition Flag 7,GPS Satellite Acquisition Flag 8,GPS Satellite Acquisition Flag 9,GPS Satellite Acquisition Flag 10,GPS Satellite Acquisition Flag 11,GPS Satellite Acquisition Flag 12,GPS Satellite Azimuth 1(Degrees),GPS Satellite Azimuth 2(Degrees),GPS Satellite Azimuth 3(Degrees),GPS Satellite Azimuth 4(Degrees),GPS Satellite Azimuth 5(Degrees),GPS Satellite Azimuth 6(Degrees),GPS Satellite Azimuth 7(Degrees),GPS Satellite Azimuth 8(Degrees),GPS Satellite Azimuth 9(Degrees),GPS Satellite Azimuth 10(Degrees),GPS Satellite Azimuth 11(Degrees),GPS Satellite Azimuth 12(Degrees),GPS Satellite Elevation 1(Degrees),GPS Satellite Elevation 2(Degrees),GPS Satellite Elevation 3(Degrees),GPS Satellite Elevation 4(Degrees),GPS Satellite Elevation 5(Degrees),GPS Satellite Elevation 6(Degrees),GPS Satellite Elevation 7(Degrees),GPS Satellite Elevation 8(Degrees),GPS Satellite Elevation 9(Degrees),GPS Satellite Elevation 10(Degrees),GPS Satellite Elevation 11(Degrees),GPS Satellite Elevation 12(Degrees),GPS Satellite PRN 1,GPS Satellite PRN 2,GPS Satellite PRN 3,GPS Satellite PRN 4,GPS Satellite PRN 5,GPS Satellite PRN 6,GPS Satellite PRN 7,GPS Satellite PRN 8,GPS Satellite PRN 9,GPS Satellite PRN 10,GPS Satellite PRN 11,GPS Satellite PRN 12,GPS Satellite Signal Level 1(AMU),GPS Satellite Signal Level 2(AMU),GPS Satellite Signal Level 3(AMU),GPS Satellite Signal Level 4(AMU),GPS Satellite Signal Level 5(AMU),GPS Satellite Signal Level 6(AMU),GPS Satellite Signal Level 7(AMU),GPS Satellite Signal Level 8(AMU),GPS Satellite Signal Level 9(AMU),GPS Satellite Signal Level 10(AMU),GPS Satellite Signal Level 11(AMU),GPS Satellite Signal Level 12(AMU),
1572552058,2019-10-31 20:00:58.678,,Acquired,Acquired,Acquired,Acquired,Acquired,Acquired,Acquired,Acquired,,,,,2.12714608E2,1.40677552E2,1.79432512E2,7.8398288E1,1.05335776E2,2.73129344E2,2.88596928E2,4.8092692E1,,,,,3.7310227999999995E1,3.3364402E1,5.9631372E1,3.3868344E1,3.1899673999999997E1,2.504531E1,6.508886799999999E1,2.0101271999999998E1,,,,,12,13,15,17,19,20,24,28,,,,,8,1,5,2,7,13,7,2,,,,
1572552118,2019-10-31 20:01:58.669,,Acquired,Acquired,Acquired,Acquired,Acquired,Acquired,Acquired,Acquired,,,,,2.12714608E2,1.40677552E2,1.79432512E2,7.8398288E1,1.05335776E2,2.73129344E2,2.88596928E2,4.8092692E1,,,,,3.7310227999999995E1,3.3364402E1,5.9631372E1,3.3868344E1,3.1899673999999997E1,2.504531E1,6.508886799999999E1,2.0101271999999998E1,,,,,12,13,15,17,19,20,24,28,,,,,8,1,5,2,7,13,7,2,,,,
1572552178,2019-10-31 20:02:58.669,,Acquired,Acquired,Acquired,Acquired,Acquired,Acquired,Acquired,Acquired,,,,,2.12714608E2,1.40677552E2,1.79432512E2,7.8398288E1,1.05335776E2,2.73129344E2,2.88596928E2,4.8092692E1,,,,,3.7310227999999995E1,3.3364402E1,5.9631372E1,3.3868344E1,3.1899673999999997E1,2.504531E1,6.508886799999999E1,2.0101271999999998E1,,,,,12,13,15,17,19,20,24,28,,,,,8,1,5,2,7,13,7,2,,,,
1572552238,2019-10-31 20:03:58.669,,Acquired,Acquired,Acquired,Acquired,Acquired,Acquired,Acquired,Acquired,,,,,2.12714608E2,1.40677552E2,1.79432512E2,7.8398288E1,1.05335776E2,2.73129344E2,2.88596928E2,4.8092692E1,,,,,3.7310227999999995E1,3.3364402E1,5.9631372E1,3.3868344E1,3.1899673999999997E1,2.504531E1,6.508886799999999E1,2.0101271999999998E1,,,,,12,13,15,17,19,20,24,28,,,,,8,1,5,2,7,13,7,2,,,,
1572552298,2019-10-31 20:04:58.669,,Acquired,Acquired,Acquired,Acquired,Acquired,Acquired,Acquired,Acquired,,,,,2.12714608E2,1.40677552E2,1.79432512E2,7.8398288E1,1.05335776E2,2.73129344E2,2.88596928E2,4.8092692E1,,,,,3.7310227999999995E1,3.3364402E1,5.9631372E1,3.3868344E1,3.1899673999999997E1,2.504531E1,6.508886799999999E1,2.0101271999999998E1,,,,,12,13,15,17,19,20,24,28,,,,,8,1,5,2,7,13,7,2,,,,
1572552358,2019-10-31 20:05:58.680,,Acquired,Acquired,Acquired,Acquired,Acquired,Acquired,Acquired,Acquired,,,,,2.12714608E2,1.40677552E2,1.79432512E2,7.8398288E1,1.05335776E2,2.73129344E2,2.88596928E2,4.8092692E1,,,,,3.7310227999999995E1,3.3364402E1,5.9631372E1,3.3868344E1,3.1899673999999997E1,2.504531E1,6.508886799999999E1,2.0101271999999998E1,,,,,12,13,15,17,19,20,24,28,,,,,8,1,5,2,7,13,7,2,,,,
1572552418,2019-10-31 20:06:58.669,,Acquired,Acquired,Acquired,Acquired,Acquired,Acquired,Acquired,Acquired,,,,,2.12714608E2,1.40677552E2,1.79432512E2,7.8398288E1,1.05335776E2,2.73129344E2,2.88596928E2,4.8092692E1,,,,,3.7310227999999995E1,3.3364402E1,5.9631372E1,3.3868344E1,3.1899673999999997E1,2.504531E1,6.508886799999999E1,2.0101271999999998E1,,,,,12,13,15,17,19,20,24,28,,,,,8,1,5,2,7,13,7,2,,,,
1572552478,2019-10-31 20:07:58.669,,Acquired,Acquired,Acquired,Acquired,Acquired,Acquired,Acquired,Acquired,,,,,2.12714608E2,1.40677552E2,1.79432512E2,7.8398288E1,1.05335776E2,2.73129344E2,2.88596928E2,4.8092692E1,,,,,3.7310227999999995E1,3.3364402E1,5.9631372E1,3.3868344E1,3.1899673999999997E1,2.504531E1,6.508886799999999E1,2.0101271999999998E1,,,,,12,13,15,17,19,20,24,28,,,,,8,1,5,2,7,13,7,2,,,,
1572552538,2019-10-31 20:08:58.669,,Acquired,Acquired,Acquired,Acquired,Acquired,Acquired,Acquired,Acquired,,,,,2.12714608E2,1.40677552E2,1.79432512E2,7.8398288E1,1.05335776E2,2.73129344E2,2.88596928E2,4.8092692E1,,,,,3.7310227999999995E1,3.3364402E1,5.9631372E1,3.3868344E1,3.1899673999999997E1,2.504531E1,6.508886799999999E1,2.0101271999999998E1,,,,,12,13,15,17,19,20,24,28,,,,,8,1,5,2,7,13,7,2,,,,
1572552598,2019-10-31 20:09:58.669,,Acquired,Acquired,Acquired,Acquired,Acquired,Acquired,Acquired,Acquired,,,,,2.12714608E2,1.40677552E2,1.79432512E2,7.8398288E1,1.05335776E2,2.73129344E2,2.88596928E2,4.8092692E1,,,,,3.7310227999999995E1,3.3364402E1,5.9631372E1,3.3868344E1,3.1899673999999997E1,2.504531E1,6.508886799999999E1,2.0101271999999998E1,,,,,12,13,15,17,19,20,24,28,,,,,8,1,5,2,7,13,7,2,,,,
1572552658,2019-10-31 20:10:58.669,,Acquired,Acquired,Acquired,Acquired,Acquired,Acquired,Acquired,Acquired,,,,,2.12714608E2,1.40677552E2,1.79432512E2,7.8398288E1,1.05335776E2,2.73129344E2,2.88596928E2,4.8092692E1,,,,,3.7310227999999995E1,3.3364402E1,5.9631372E1,3.3868344E1,3.1899673999999997E1,2.504531E1,6.508886799999999E1,2.0101271999999998E1,,,,,12,13,15,17,19,20,24,28,,,,,8,1,5,2,7,13,7,2,,,,
1572552718,2019-10-31 20:11:58.669,,Acquired,Acquired,Acquired,Acquired,Acquired,Acquired,Acquired,Acquired,,,,,2.12714608E2,1.40677552E2,1.79432512E2,7.8398288E1,1.05335776E2,2.73129344E2,2.88596928E2,4.8092692E1,,,,,3.7310227999999995E1,3.3364402E1,5.9631372E1,3.3868344E1,3.1899673999999997E1,2.504531E1,6.508886799999999E1,2.0101271999999998E1,,,,,12,13,15,17,19,20,24,28,,,,,8,1,5,2,7,13,7,2,,,,
1572552778,2019-10-31 20:12:58.669,,Acquired,Acquired,Acquired,Acquired,Acquired,Acquired,Acquired,Acquired,,,,,2.12714608E2,1.40677552E2,1.79432512E2,7.8398288E1,1.05335776E2,2.73129344E2,2.88596928E2,4.8092692E1,,,,,3.7310227999999995E1,3.3364402E1,5.9631372E1,3.3868344E1,3.1899673999999997E1,2.504531E1,6.508886799999999E1,2.0101271999999998E1,,,,,12,13,15,17,19,20,24,28,,,,,8,1,5,2,7,13,7,2,,,,
1572552838,2019-10-31 20:13:58.669,,Acquired,Acquired,Acquired,Acquired,Acquired,Acquired,Acquired,Acquired,,,,,2.12714608E2,1.40677552E2,1.79432512E2,7.8398288E1,1.05335776E2,2.73129344E2,2.88596928E2,4.8092692E1,,,,,3.7310227999999995E1,3.3364402E1,5.9631372E1,3.3868344E1,3.1899673999999997E1,2.504531E1,6.508886799999999E1,2.0101271999999998E1,,,,,12,13,15,17,19,20,24,28,,,,,8,1,5,2,7,13,7,2,,,,
1572552898,2019-10-31 20:14:58.669,,Acquired,Acquired,Acquired,Acquired,Acquired,Acquired,Acquired,Acquired,,,,,2.12714608E2,1.40677552E2,1.79432512E2,7.8398288E1,1.05335776E2,2.73129344E2,2.88596928E2,4.8092692E1,,,,,3.7310227999999995E1,3.3364402E1,5.9631372E1,3.3868344E1,3.1899673999999997E1,2.504531E1,6.508886799999999E1,2.0101271999999998E1,,,,,12,13,15,17,19,20,24,28,,,,,8,1,5,2,7,13,7,2,,,,
1572552958,2019-10-31 20:15:58.669,,Acquired,Acquired,Acquired,Acquired,Acquired,Acquired,Acquired,Acquired,,,,,2.12714608E2,1.40677552E2,1.79432512E2,7.8398288E1,1.05335776E2,2.73129344E2,2.88596928E2,4.8092692E1,,,,,3.7310227999999995E1,3.3364402E1,5.9631372E1,3.3868344E1,3.1899673999999997E1,2.504531E1,6.508886799999999E1,2.0101271999999998E1,,,,,12,13,15,17,19,20,24,28,,,,,8,1,5,2,7,13,7,2,,,,
1572553018,2019-10-31 20:16:58.669,,Acquired,Acquired,Acquired,Acquired,Acquired,Acquired,Acquired,Acquired,,,,,2.12714608E2,1.40677552E2,1.79432512E2,7.8398288E1,1.05335776E2,2.73129344E2,2.88596928E2,4.8092692E1,,,,,3.7310227999999995E1,3.3364402E1,5.9631372E1,3.3868344E1,3.1899673999999997E1,2.504531E1,6.508886799999999E1,2.0101271999999998E1,,,,,12,13,15,17,19,20,24,28,,,,,8,1,5,2,7,13,7,2,,,,
1572553078,2019-10-31 20:17:58.669,,Acquired,Acquired,Acquired,Acquired,Acquired,Acquired,Acquired,Acquired,,,,,2.12714608E2,1.40677552E2,1.79432512E2,7.8398288E1,1.05335776E2,2.73129344E2,2.88596928E2,4.8092692E1,,,,,3.7310227999999995E1,3.3364402E1,5.9631372E1,3.3868344E1,3.1899673999999997E1,2.504531E1,6.508886799999999E1,2.0101271999999998E1,,,,,12,13,15,17,19,20,24,28,,,,,8,1,5,2,7,13,7,2,,,,
1572553138,2019-10-31 20:18:58.669,,Acquired,Acquired,Acquired,Acquired,Acquired,Acquired,Acquired,Acquired,,,,,2.12714608E2,1.40677552E2,1.79432512E2,7.8398288E1,1.05335776E2,2.73129344E2,2.88596928E2,4.8092692E1,,,,,3.7310227999999995E1,3.3364402E1,5.9631372E1,3.3868344E1,3.1899673999999997E1,2.504531E1,6.508886799999999E1,2.0101271999999998E1,,,,,12,13,15,17,19,20,24,28,,,,,8,1,5,2,7,13,7,2,,,,
1572553198,2019-10-31 20:19:58.669,,Acquired,Acquired,Acquired,Acquired,Acquired,Acquired,Acquired,Acquired,,,,,2.12714608E2,1.40677552E2,1.79432512E2,7.8398288E1,1.05335776E2,2.73129344E2,2.88596928E2,4.8092692E1,,,,,3.7310227999999995E1,3.3364402E1,5.9631372E1,3.3868344E1,3.1899673999999997E1,2.504531E1,6.508886799999999E1,2.0101271999999998E1,,,,,12,13,15,17,19,20,24,28,,,,,8,1,5,2,7,13,7,2,,,,
1572553258,2019-10-31 20:20:58.669,,Acquired,Acquired,Acquired,Acquired,Acquired,Acquired,Acquired,Acquired,,,,,2.12714608E2,1.40677552E2,1.79432512E2,7.8398288E1,1.05335776E2,2.73129344E2,2.88596928E2,4.8092692E1,,,,,3.7310227999999995E1,3.3364402E1,5.9631372E1,3.3868344E1,3.1899673999999997E1,2.504531E1,6.508886799999999E1,2.0101271999999998E1,,,,,12,13,15,17,19,20,24,28,,,,,8,1,5,2,7,13,7,2,,,,
1572553318,2019-10-31 20:21:58.669,,Acquired,Acquired,Acquired,Acquired,Acquired,Acquired,Acquired,Acquired,,,,,2.12714608E2,1.40677552E2,1.79432512E2,7.8398288E1,1.05335776E2,2.73129344E2,2.88596928E2,4.8092692E1,,,,,3.7310227999999995E1,3.3364402E1,5.9631372E1,3.3868344E1,3.1899673999999997E1,2.504531E1,6.508886799999999E1,2.0101271999999998E1,,,,,12,13,15,17,19,20,24,28,,,,,8,1,5,2,7,13,7,2,,,,
1572553378,2019-10-31 20:22:58.669,,Acquired,Acquired,Acquired,Acquired,Acquired,Acquired,Acquired,Acquired,,,,,2.12714608E2,1.40677552E2,1.79432512E2,7.8398288E1,1.05335776E2,2.73129344E2,2.88596928E2,4.8092692E1,,,,,3.7310227999999995E1,3.3364402E1,5.9631372E1,3.3868344E1,3.1899673999999997E1,2.504531E1,6.508886799999999E1,2.0101271999999998E1,,,,,12,13,15,17,19,20,24,28,,,,,8,1,5,2,7,13,7,2,,,,
1572553438,2019-10-31 20:23:58.669,,Acquired,Acquired,Acquired,Acquired,Acquired,Acquired,Acquired,Acquired,,,,,2.12714608E2,1.40677552E2,1.79432512E2,7.8398288E1,1.05335776E2,2.73129344E2,2.88596928E2,4.8092692E1,,,,,3.7310227999999995E1,3.3364402E1,5.9631372E1,3.3868344E1,3.1899673999999997E1,2.504531E1,6.508886799999999E1,2.0101271999999998E1,,,,,12,13,15,17,19,20,24,28,,,,,8,1,5,2,7,13,7,2,,,,
1572553498,2019-10-31 20:24:58.669,,Acquired,Acquired,Acquired,Acquired,Acquired,Acquired,Acquired,Acquired,,,,,2.12714608E2,1.40677552E2,1.79432512E2,7.8398288E1,1.05335776E2,2.73129344E2,2.88596928E2,4.8092692E1,,,,,3.7310227999999995E1,3.3364402E1,5.9631372E1,3.3868344E1,3.1899673999999997E1,2.504531E1,6.508886799999999E1,2.0101271999999998E1,,,,,12,13,15,17,19,20,24,28,,,,,8,1,5,2,7,13,7,2,,,,
1572553558,2019-10-31 20:25:58.669,,Acquired,Acquired,Acquired,Acquired,Acquired,Acquired,Acquired,Acquired,,,,,2.12714608E2,1.40677552E2,1.79432512E2,7.8398288E1,1.05335776E2,2.73129344E2,2.88596928E2,4.8092692E1,,,,,3.7310227999999995E1,3.3364402E1,5.9631372E1,3.3868344E1,3.1899673999999997E1,2.504531E1,6.508886799999999E1,2.0101271999999998E1,,,,,12,13,15,17,19,20,24,28,,,,,8,1,5,2,7,13,7,2,,,,
1572553618,2019-10-31 20:26:58.669,,Acquired,Acquired,Acquired,Acquired,Acquired,Acquired,Acquired,Acquired,,,,,2.12714608E2,1.40677552E2,1.79432512E2,7.8398288E1,1.05335776E2,2.73129344E2,2.88596928E2,4.8092692E1,,,,,3.7310227999999995E1,3.3364402E1,5.9631372E1,3.3868344E1,3.1899673999999997E1,2.504531E1,6.508886799999999E1,2.0101271999999998E1,,,,,12,13,15,17,19,20,24,28,,,,,8,1,5,2,7,13,7,2,,,,
1572553678,2019-10-31 20:27:58.669,,Acquired,Acquired,Acquired,Acquired,Acquired,Acquired,Acquired,Acquired,,,,,2.12714608E2,1.40677552E2,1.79432512E2,7.8398288E1,1.05335776E2,2.73129344E2,2.88596928E2,4.8092692E1,,,,,3.7310227999999995E1,3.3364402E1,5.9631372E1,3.3868344E1,3.1899673999999997E1,2.504531E1,6.508886799999999E1,2.0101271999999998E1,,,,,12,13,15,17,19,20,24,28,,,,,8,1,5,2,7,13,7,2,,,,
1572553738,2019-10-31 20:28:58.669,,Acquired,Acquired,Acquired,Acquired,Acquired,Acquired,Acquired,Acquired,,,,,2.12714608E2,1.40677552E2,1.79432512E2,7.8398288E1,1.05335776E2,2.73129344E2,2.88596928E2,4.8092692E1,,,,,3.7310227999999995E1,3.3364402E1,5.9631372E1,3.3868344E1,3.1899673999999997E1,2.504531E1,6.508886799999999E1,2.0101271999999998E1,,,,,12,13,15,17,19,20,24,28,,,,,8,1,5,2,7,13,7,2,,,,
1572553798,2019-10-31 20:29:58.671,,Acquired,Acquired,Acquired,Acquired,Acquired,Acquired,Acquired,Acquired,,,,,2.12714608E2,1.40677552E2,1.79432512E2,7.8398288E1,1.05335776E2,2.73129344E2,2.88596928E2,4.8092692E1,,,,,3.7310227999999995E1,3.3364402E1,5.9631372E1,3.3868344E1,3.1899673999999997E1,2.504531E1,6.508886799999999E1,2.0101271999999998E1,,,,,12,13,15,17,19,20,24,28,,,,,8,1,5,2,7,13,7,2,,,,
1572553858,2019-10-31 20:30:58.669,,Acquired,Acquired,Acquired,Acquired,Acquired,Acquired,Acquired,Acquired,,,,,2.12714608E2,1.40677552E2,1.79432512E2,7.8398288E1,1.05335776E2,2.73129344E2,2.88596928E2,4.8092692E1,,,,,3.7310227999999995E1,3.3364402E1,5.9631372E1,3.3868344E1,3.1899673999999997E1,2.504531E1,6.508886799999999E1,2.0101271999999998E1,,,,,12,13,15,17,19,20,24,28,,,,,8,1,5,2,7,13,7,2,,,,
1572553918,2019-10-31 20:31:58.682,,Acquired,Acquired,Acquired,Acquired,Acquired,Acquired,Acquired,Acquired,,,,,2.12714608E2,1.40677552E2,1.79432512E2,7.8398288E1,1.05335776E2,2.73129344E2,2.88596928E2,4.8092692E1,,,,,3.7310227999999995E1,3.3364402E1,5.9631372E1,3.3868344E1,3.1899673999999997E1,2.504531E1,6.508886799999999E1,2.0101271999999998E1,,,,,12,13,15,17,19,20,24,28,,,,,8,1,5,2,7,13,7,2,,,,
1572553978,2019-10-31 20:32:58.669,,Acquired,Acquired,Acquired,Acquired,Acquired,Acquired,Acquired,Acquired,,,,,2.12714608E2,1.40677552E2,1.79432512E2,7.8398288E1,1.05335776E2,2.73129344E2,2.88596928E2,4.8092692E1,,,,,3.7310227999999995E1,3.3364402E1,5.9631372E1,3.3868344E1,3.1899673999999997E1,2.504531E1,6.508886799999999E1,2.0101271999999998E1,,,,,12,13,15,17,19,20,24,28,,,,,8,1,5,2,7,13,7,2,,,,
1572554038,2019-10-31 20:33:58.669,,Acquired,Acquired,Acquired,Acquired,Acquired,Acquired,Acquired,Acquired,,,,,2.12714608E2,1.40677552E2,1.79432512E2,7.8398288E1,1.05335776E2,2.73129344E2,2.88596928E2,4.8092692E1,,,,,3.7310227999999995E1,3.3364402E1,5.9631372E1,3.3868344E1,3.1899673999999997E1,2.504531E1,6.508886799999999E1,2.0101271999999998E1,,,,,12,13,15,17,19,20,24,28,,,,,8,1,5,2,7,13,7,2,,,,
1572554098,2019-10-31 20:34:58.669,,Acquired,Acquired,Acquired,Acquired,Acquired,Acquired,Acquired,Acquired,,,,,2.12714608E2,1.40677552E2,1.79432512E2,7.8398288E1,1.05335776E2,2.73129344E2,2.88596928E2,4.8092692E1,,,,,3.7310227999999995E1,3.3364402E1,5.9631372E1,3.3868344E1,3.1899673999999997E1,2.504531E1,6.508886799999999E1,2.0101271999999998E1,,,,,12,13,15,17,19,20,24,28,,,,,8,1,5,2,7,13,7,2,,,,
1572554158,2019-10-31 20:35:58.669,,Acquired,Acquired,Acquired,Acquired,Acquired,Acquired,Acquired,Acquired,,,,,2.12714608E2,1.40677552E2,1.79432512E2,7.8398288E1,1.05335776E2,2.73129344E2,2.88596928E2,4.8092692E1,,,,,3.7310227999999995E1,3.3364402E1,5.9631372E1,3.3868344E1,3.1899673999999997E1,2.504531E1,6.508886799999999E1,2.0101271999999998E1,,,,,12,13,15,17,19,20,24,28,,,,,8,1,5,2,7,13,7,2,,,,
1572554218,2019-10-31 20:36:58.669,,Acquired,Acquired,Acquired,Acquired,Acquired,Acquired,Acquired,Acquired,,,,,2.12714608E2,1.40677552E2,1.79432512E2,7.8398288E1,1.05335776E2,2.73129344E2,2.88596928E2,4.8092692E1,,,,,3.7310227999999995E1,3.3364402E1,5.9631372E1,3.3868344E1,3.1899673999999997E1,2.504531E1,6.508886799999999E1,2.0101271999999998E1,,,,,12,13,15,17,19,20,24,28,,,,,8,1,5,2,7,13,7,2,,,,
1572554278,2019-10-31 20:37:58.669,,Acquired,Acquired,Acquired,Acquired,Acquired,Acquired,Acquired,Acquired,,,,,2.12714608E2,1.40677552E2,1.79432512E2,7.8398288E1,1.05335776E2,2.73129344E2,2.88596928E2,4.8092692E1,,,,,3.7310227999999995E1,3.3364402E1,5.9631372E1,3.3868344E1,3.1899673999999997E1,2.504531E1,6.508886799999999E1,2.0101271999999998E1,,,,,12,13,15,17,19,20,24,28,,,,,8,1,5,2,7,13,7,2,,,,
1572554338,2019-10-31 20:38:58.669,,Acquired,Acquired,Acquired,Acquired,Acquired,Acquired,Acquired,Acquired,,,,,2.12714608E2,1.40677552E2,1.79432512E2,7.8398288E1,1.05335776E2,2.73129344E2,2.88596928E2,4.8092692E1,,,,,3.7310227999999995E1,3.3364402E1,5.9631372E1,3.3868344E1,3.1899673999999997E1,2.504531E1,6.508886799999999E1,2.0101271999999998E1,,,,,12,13,15,17,19,20,24,28,,,,,8,1,5,2,7,13,7,2,,,,
1572554398,2019-10-31 20:39:58.669,,Acquired,Acquired,Acquired,Acquired,Acquired,Acquired,Acquired,Acquired,,,,,2.12714608E2,1.40677552E2,1.79432512E2,7.8398288E1,1.05335776E2,2.73129344E2,2.88596928E2,4.8092692E1,,,,,3.7310227999999995E1,3.3364402E1,5.9631372E1,3.3868344E1,3.1899673999999997E1,2.504531E1,6.508886799999999E1,2.0101271999999998E1,,,,,12,13,15,17,19,20,24,28,,,,,8,1,5,2,7,13,7,2,,,,
1572554458,2019-10-31 20:40:58.669,,Acquired,Acquired,Acquired,Acquired,Acquired,Acquired,Acquired,Acquired,,,,,2.12714608E2,1.40677552E2,1.79432512E2,7.8398288E1,1.05335776E2,2.73129344E2,2.88596928E2,4.8092692E1,,,,,3.7310227999999995E1,3.3364402E1,5.9631372E1,3.3868344E1,3.1899673999999997E1,2.504531E1,6.508886799999999E1,2.0101271999999998E1,,,,,12,13,15,17,19,20,24,28,,,,,8,1,5,2,7,13,7,2,,,,
1572554518,2019-10-31 20:41:58.669,,Acquired,Acquired,Acquired,Acquired,Acquired,Acquired,Acquired,Acquired,,,,,2.12714608E2,1.40677552E2,1.79432512E2,7.8398288E1,1.05335776E2,2.73129344E2,2.88596928E2,4.8092692E1,,,,,3.7310227999999995E1,3.3364402E1,5.9631372E1,3.3868344E1,3.1899673999999997E1,2.504531E1,6.508886799999999E1,2.0101271999999998E1,,,,,12,13,15,17,19,20,24,28,,,,,8,1,5,2,7,13,7,2,,,,
1572554578,2019-10-31 20:42:58.669,,Acquired,Acquired,Acquired,Acquired,Acquired,Acquired,Acquired,Acquired,,,,,2.12714608E2,1.40677552E2,1.79432512E2,7.8398288E1,1.05335776E2,2.73129344E2,2.88596928E2,4.8092692E1,,,,,3.7310227999999995E1,3.3364402E1,5.9631372E1,3.3868344E1,3.1899673999999997E1,2.504531E1,6.508886799999999E1,2.0101271999999998E1,,,,,12,13,15,17,19,20,24,28,,,,,8,1,5,2,7,13,7,2,,,,
1572554638,2019-10-31 20:43:58.669,,Acquired,Acquired,Acquired,Acquired,Acquired,Acquired,Acquired,Acquired,,,,,2.12714608E2,1.40677552E2,1.79432512E2,7.8398288E1,1.05335776E2,2.73129344E2,2.88596928E2,4.8092692E1,,,,,3.7310227999999995E1,3.3364402E1,5.9631372E1,3.3868344E1,3.1899673999999997E1,2.504531E1,6.508886799999999E1,2.0101271999999998E1,,,,,12,13,15,17,19,20,24,28,,,,,8,1,5,2,7,13,7,2,,,,
1572554698,2019-10-31 20:44:58.669,,Acquired,Acquired,Acquired,Acquired,Acquired,Acquired,Acquired,Acquired,,,,,2.12714608E2,1.40677552E2,1.79432512E2,7.8398288E1,1.05335776E2,2.73129344E2,2.88596928E2,4.8092692E1,,,,,3.7310227999999995E1,3.3364402E1,5.9631372E1,3.3868344E1,3.1899673999999997E1,2.504531E1,6.508886799999999E1,2.0101271999999998E1,,,,,12,13,15,17,19,20,24,28,,,,,8,1,5,2,7,13,7,2,,,,
1572554758,2019-10-31 20:45:58.669,Acquired,Acquired,Acquired,Acquired,Acquired,Acquired,Acquired,Acquired,Not acquired,,,,3.0497904E2,2.1288456E2,1.40870608E2,1.79175104E2,7.786752E1,1.04868712E2,2.7266652799999997E2,2.89024832E2,4.8099328E1,,,,2.4047532E1,3.7790456E1,3.2909093999999996E1,5.9152271999999996E1,3.39451E1,3.2175357999999996E1,2.4875809999999998E1,6.5527444E1,1.9712509999999998E1,,,,10,12,13,15,17,19,20,24,28,,,,11,9,2,5,2,4,10,5,1,,,,
1572554818,2019-10-31 20:46:58.669,Acquired,Acquired,Acquired,Acquired,Acquired,Acquired,Not acquired,Acquired,Not acquired,Acquired,,,2.80383328E2,2.2460913599999998E2,1.73994848E2,5.1729952E1,7.5037256E1,1.7427205999999998E1,2.3420888E2,3.15693632E2,1.48767744E2,2.5196505599999998E2,,,2.1631522E1,6.3621579999999994E1,3.4124116E1,3.0022886E1,3.9493124E1,8.6071248E1,1.906982E1,1.7652732E1,1.0015175E1,1.1942979E1,,,10,12,15,17,19,24,25,32,13,20,,,6,6,7,1,6,5,1,14,0,3,,,
1572554878,2019-10-31 20:47:58.669,Acquired,Acquired,Acquired,Acquired,Acquired,Acquired,Not acquired,Acquired,Not acquired,Acquired,,,2.80383328E2,2.2460913599999998E2,1.73994848E2,5.1729952E1,7.5037256E1,1.7427205999999998E1,2.3420888E2,3.15693632E2,1.48767744E2,2.5196505599999998E2,,,2.1631522E1,6.3621579999999994E1,3.4124116E1,3.0022886E1,3.9493124E1,8.6071248E1,1.906982E1,1.7652732E1,1.0015175E1,1.1942979E1,,,10,12,15,17,19,24,25,32,13,20,,,6,6,7,1,6,5,1,14,0,3,,,
1572554938,2019-10-31 20:48:58.669,Acquired,Acquired,Acquired,Acquired,Acquired,Acquired,Not acquired,Acquired,Not acquired,Acquired,,,2.80383328E2,2.2460913599999998E2,1.73994848E2,5.1729952E1,7.5037256E1,1.7427205999999998E1,2.3420888E2,3.15693632E2,1.48767744E2,2.5196505599999998E2,,,2.1631522E1,6.3621579999999994E1,3.4124116E1,3.0022886E1,3.9493124E1,8.6071248E1,1.906982E1,1.7652732E1,1.0015175E1,1.1942979E1,,,10,12,15,17,19,24,25,32,13,20,,,6,6,7,1,6,5,1,14,0,3,,,
1572554998,2019-10-31 20:49:58.668,Acquired,Acquired,Acquired,Acquired,Acquired,Acquired,Not acquired,Acquired,Not acquired,Acquired,,,2.80383328E2,2.2460913599999998E2,1.73994848E2,5.1729952E1,7.5037256E1,1.7427205999999998E1,2.3420888E2,3.15693632E2,1.48767744E2,2.5196505599999998E2,,,2.1631522E1,6.3621579999999994E1,3.4124116E1,3.0022886E1,3.9493124E1,8.6071248E1,1.906982E1,1.7652732E1,1.0015175E1,1.1942979E1,,,10,12,15,17,19,24,25,32,13,20,,,6,6,7,1,6,5,1,14,0,3,,,
1572555058,2019-10-31 20:50:58.671,Acquired,Acquired,Acquired,Acquired,Acquired,Acquired,Not acquired,Acquired,Not acquired,Acquired,,,2.80383328E2,2.2460913599999998E2,1.73994848E2,5.1729952E1,7.5037256E1,1.7427205999999998E1,2.3420888E2,3.15693632E2,1.48767744E2,2.5196505599999998E2,,,2.1631522E1,6.3621579999999994E1,3.4124116E1,3.0022886E1,3.9493124E1,8.6071248E1,1.906982E1,1.7652732E1,1.0015175E1,1.1942979E1,,,10,12,15,17,19,24,25,32,13,20,,,6,6,7,1,6,5,1,14,0,3,,,
1572555118,2019-10-31 20:51:58.671,Acquired,Acquired,Acquired,Acquired,Acquired,Acquired,Not acquired,Acquired,Not acquired,Acquired,,,2.80383328E2,2.2460913599999998E2,1.73994848E2,5.1729952E1,7.5037256E1,1.7427205999999998E1,2.3420888E2,3.15693632E2,1.48767744E2,2.5196505599999998E2,,,2.1631522E1,6.3621579999999994E1,3.4124116E1,3.0022886E1,3.9493124E1,8.6071248E1,1.906982E1,1.7652732E1,1.0015175E1,1.1942979E1,,,10,12,15,17,19,24,25,32,13,20,,,6,6,7,1,6,5,1,14,0,3,,,
1572555178,2019-10-31 20:52:58.669,Acquired,Acquired,Acquired,Acquired,Acquired,Acquired,Not acquired,Acquired,Not acquired,Acquired,,,2.80383328E2,2.2460913599999998E2,1.73994848E2,5.1729952E1,7.5037256E1,1.7427205999999998E1,2.3420888E2,3.15693632E2,1.48767744E2,2.5196505599999998E2,,,2.1631522E1,6.3621579999999994E1,3.4124116E1,3.0022886E1,3.9493124E1,8.6071248E1,1.906982E1,1.7652732E1,1.0015175E1,1.1942979E1,,,10,12,15,17,19,24,25,32,13,20,,,6,6,7,1,6,5,1,14,0,3,,,
1572555238,2019-10-31 20:53:58.669,Acquired,Acquired,Acquired,Acquired,Acquired,Acquired,Not acquired,Acquired,Not acquired,Acquired,,,2.80383328E2,2.2460913599999998E2,1.73994848E2,5.1729952E1,7.5037256E1,1.7427205999999998E1,2.3420888E2,3.15693632E2,1.48767744E2,2.5196505599999998E2,,,2.1631522E1,6.3621579999999994E1,3.4124116E1,3.0022886E1,3.9493124E1,8.6071248E1,1.906982E1,1.7652732E1,1.0015175E1,1.1942979E1,,,10,12,15,17,19,24,25,32,13,20,,,6,6,7,1,6,5,1,14,0,3,,,
1572555298,2019-10-31 20:54:58.669,Acquired,Acquired,Acquired,Acquired,Acquired,Acquired,Not acquired,Acquired,Not acquired,Acquired,,,2.80383328E2,2.2460913599999998E2,1.73994848E2,5.1729952E1,7.5037256E1,1.7427205999999998E1,2.3420888E2,3.15693632E2,1.48767744E2,2.5196505599999998E2,,,2.1631522E1,6.3621579999999994E1,3.4124116E1,3.0022886E1,3.9493124E1,8.6071248E1,1.906982E1,1.7652732E1,1.0015175E1,1.1942979E1,,,10,12,15,17,19,24,25,32,13,20,,,6,6,7,1,6,5,1,14,0,3,,,
1572555358,2019-10-31 20:55:58.669,Acquired,Acquired,Acquired,Acquired,Acquired,Acquired,Not acquired,Acquired,Not acquired,Acquired,,,2.80383328E2,2.2460913599999998E2,1.73994848E2,5.1729952E1,7.5037256E1,1.7427205999999998E1,2.3420888E2,3.15693632E2,1.48767744E2,2.5196505599999998E2,,,2.1631522E1,6.3621579999999994E1,3.4124116E1,3.0022886E1,3.9493124E1,8.6071248E1,1.906982E1,1.7652732E1,1.0015175E1,1.1942979E1,,,10,12,15,17,19,24,25,32,13,20,,,6,6,7,1,6,5,1,14,0,3,,,
1572555418,2019-10-31 20:56:58.669,Acquired,Acquired,Acquired,Acquired,Acquired,Acquired,Not acquired,Acquired,Not acquired,Acquired,,,2.80383328E2,2.2460913599999998E2,1.73994848E2,5.1729952E1,7.5037256E1,1.7427205999999998E1,2.3420888E2,3.15693632E2,1.48767744E2,2.5196505599999998E2,,,2.1631522E1,6.3621579999999994E1,3.4124116E1,3.0022886E1,3.9493124E1,8.6071248E1,1.906982E1,1.7652732E1,1.0015175E1,1.1942979E1,,,10,12,15,17,19,24,25,32,13,20,,,6,6,7,1,6,5,1,14,0,3,,,
1572555478,2019-10-31 20:57:58.702,Acquired,Acquired,Acquired,Acquired,Acquired,Acquired,Not acquired,Acquired,Not acquired,Acquired,,,2.80383328E2,2.2460913599999998E2,1.73994848E2,5.1729952E1,7.5037256E1,1.7427205999999998E1,2.3420888E2,3.15693632E2,1.48767744E2,2.5196505599999998E2,,,2.1631522E1,6.3621579999999994E1,3.4124116E1,3.0022886E1,3.9493124E1,8.6071248E1,1.906982E1,1.7652732E1,1.0015175E1,1.1942979E1,,,10,12,15,17,19,24,25,32,13,20,,,6,6,7,1,6,5,1,14,0,3,,,
1572555538,2019-10-31 20:58:58.671,Acquired,Acquired,Acquired,Acquired,Acquired,Acquired,Not acquired,Acquired,Not acquired,Acquired,,,2.80383328E2,2.2460913599999998E2,1.73994848E2,5.1729952E1,7.5037256E1,1.7427205999999998E1,2.3420888E2,3.15693632E2,1.48767744E2,2.5196505599999998E2,,,2.1631522E1,6.3621579999999994E1,3.4124116E1,3.0022886E1,3.9493124E1,8.6071248E1,1.906982E1,1.7652732E1,1.0015175E1,1.1942979E1,,,10,12,15,17,19,24,25,32,13,20,,,6,6,7,1,6,5,1,14,0,3,,,
1572555598,2019-10-31 20:59:58.669,Acquired,Acquired,Acquired,Acquired,Acquired,Acquired,Not acquired,Acquired,Not acquired,Acquired,,,2.80383328E2,2.2460913599999998E2,1.73994848E2,5.1729952E1,7.5037256E1,1.7427205999999998E1,2.3420888E2,3.15693632E2,1.48767744E2,2.5196505599999998E2,,,2.1631522E1,6.3621579999999994E1,3.4124116E1,3.0022886E1,3.9493124E1,8.6071248E1,1.906982E1,1.7652732E1,1.0015175E1,1.1942979E1,,,10,12,15,17,19,24,25,32,13,20,,,6,6,7,1,6,5,1,14,0,3,,,
