Time(longsecs),Time(UTC),Supply Voltage(mV),Temperature(&deg;C),NMX Bus Current(mA),Sensor Current(mA),Serial Port Current(mA),Controller Current(mA),Digitizer Current(mA),
1572530458,2019-10-31 14:00:58.669,11857,1.574295E1,0,12,0,89,59,
1572530518,2019-10-31 14:01:58.669,11749,1.59253845E1,0,12,0,89,61,
1572530578,2019-10-31 14:02:58.669,11844,1.5597626E1,0,2,0,91,56,
1572530638,2019-10-31 14:03:58.707,11872,1.603888E1,0,13,0,91,59,
1572530698,2019-10-31 14:04:58.669,11681,1.573764E1,0,10,0,92,60,
1572530758,2019-10-31 14:05:58.715,11830,1.5850067E1,0,11,0,90,60,
1572530818,2019-10-31 14:06:58.669,11830,1.5857513E1,0,9,0,97,60,
1572530878,2019-10-31 14:07:58.669,11803,1.5781128E1,0,22,0,88,57,
1572530938,2019-10-31 14:08:58.700,11885,1.5902039E1,0,9,0,87,58,
1572530998,2019-10-31 14:09:58.669,11830,1.5788544E1,0,18,0,91,59,
1572531058,2019-10-31 14:10:58.669,11830,1.5913727E1,0,9,0,89,60,
1572531118,2019-10-31 14:11:58.669,11817,1.5861755E1,0,13,0,87,61,
1572531178,2019-10-31 14:12:58.669,11817,1.6055847E1,0,11,0,90,58,
1572531238,2019-10-31 14:13:58.669,11817,1.6147064E1,0,13,0,92,58,
1572531298,2019-10-31 14:14:58.669,11817,1.6158722E1,0,11,0,88,59,
1572531358,2019-10-31 14:15:58.669,11817,1.5972046E1,0,10,0,85,61,
1572531418,2019-10-31 14:16:58.680,11817,1.627539E1,0,11,0,91,59,
1572531478,2019-10-31 14:17:58.669,11817,1.62807E1,0,11,0,87,58,
1572531538,2019-10-31 14:18:58.669,11817,1.6417542E1,0,11,0,80,59,
1572531598,2019-10-31 14:19:58.669,11803,1.6107819E1,0,11,0,91,58,
1572531658,2019-10-31 14:20:58.669,11817,1.6139648E1,0,13,0,90,63,
1572531718,2019-10-31 14:21:58.669,11817,1.6199036E1,0,13,0,89,63,
1572531778,2019-10-31 14:22:58.669,11817,1.614917E1,0,12,0,90,62,
1572531838,2019-10-31 14:23:58.669,11817,1.634433E1,0,13,0,87,64,
1572531898,2019-10-31 14:24:58.669,11817,1.6314636E1,0,13,0,89,64,
1572531958,2019-10-31 14:25:58.669,11817,1.6435547E1,0,15,0,85,62,
1572532018,2019-10-31 14:26:58.671,11830,1.6379333E1,0,11,0,88,60,
1572532078,2019-10-31 14:27:58.669,11817,1.632843E1,0,16,0,88,63,
1572532138,2019-10-31 14:28:58.669,11803,1.6124786E1,0,14,0,89,59,
1572532198,2019-10-31 14:29:58.669,11803,1.6179932E1,0,27,0,90,55,
1572532258,2019-10-31 14:30:58.669,11803,1.6331604E1,0,11,0,90,59,
1572532318,2019-10-31 14:31:58.669,11803,1.6230865E1,0,13,0,91,63,
1572532378,2019-10-31 14:32:58.669,11817,1.6356018E1,0,13,0,81,58,
1572532438,2019-10-31 14:33:58.669,11830,1.6468445E1,0,18,0,96,61,
1572532498,2019-10-31 14:34:58.669,11763,1.6324188E1,0,10,0,89,56,
1572532558,2019-10-31 14:35:58.669,11790,1.6559662E1,0,21,0,87,67,
1572532618,2019-10-31 14:36:58.671,11803,1.6505554E1,0,13,0,98,57,
1572532678,2019-10-31 14:37:58.669,11803,1.6662537E1,0,14,0,89,61,
1572532738,2019-10-31 14:38:58.669,11790,1.6606323E1,0,8,0,106,62,
1572532798,2019-10-31 14:39:58.669,11817,1.6367676E1,0,17,0,102,58,
1572532858,2019-10-31 14:40:58.669,11790,1.659253E1,0,22,0,99,54,
1572532918,2019-10-31 14:41:58.669,11803,1.676648E1,0,11,0,106,59,
1572532978,2019-10-31 14:42:58.669,11803,1.6679504E1,0,13,0,91,60,
1572533038,2019-10-31 14:43:58.669,11776,1.6637085E1,0,13,0,90,59,
1572533098,2019-10-31 14:44:58.669,11803,1.6595734E1,0,25,0,91,58,
1572533158,2019-10-31 14:45:58.701,11803,1.6633911E1,0,14,0,90,61,
1572533218,2019-10-31 14:46:58.669,11803,1.6428131E1,0,13,0,91,61,
1572533278,2019-10-31 14:47:58.671,11817,1.6748444E1,0,12,0,80,62,
1572533338,2019-10-31 14:48:58.669,11803,1.6519348E1,0,13,0,87,60,
1572533398,2019-10-31 14:49:58.669,11803,1.6794067E1,0,11,0,89,57,
1572533458,2019-10-31 14:50:58.669,11803,1.6938324E1,0,11,0,91,56,
1572533518,2019-10-31 14:51:58.701,11803,1.673996E1,0,13,0,87,59,
1572533578,2019-10-31 14:52:58.668,11803,1.661905E1,0,17,0,88,61,
1572533638,2019-10-31 14:53:58.707,11803,1.6872559E1,0,13,0,78,63,
1572533698,2019-10-31 14:54:58.670,11803,1.6886353E1,0,18,0,85,56,
1572533758,2019-10-31 14:55:58.669,11790,1.6591492E1,30,13,0,90,61,
1572533818,2019-10-31 14:56:58.669,11790,1.6957397E1,0,15,0,98,63,
1572533878,2019-10-31 14:57:58.669,11803,1.7019989E1,0,15,0,82,62,
1572533938,2019-10-31 14:58:58.669,11790,1.6912872E1,0,17,0,92,64,
1572533998,2019-10-31 14:59:58.669,11790,1.6873627E1,0,11,0,87,60,
