Time(longsecs),Time(UTC),Earth Location,GPS Receiver Status,GPS Satellites Used,GPS PDOP,GPS TDOP,Timing Status,Timing Phase Lock,Timing Uncertainty(ns),DAC Count,Timing Error(ns),GPS Last Update Time,
1572519658,2019-10-31 11:00:58.669,47.652046N 0.543167E 176m,Off,7,3.146094,1.660374,Time OK,Free running,46700,8931,0,2019-10-31 10:11:45.000000000,
1572519718,2019-10-31 11:01:58.701,47.652046N 0.543167E 176m,Off,7,3.146094,1.660374,Time OK,Free running,47900,8931,0,2019-10-31 10:11:45.000000000,
1572519778,2019-10-31 11:02:58.669,47.652046N 0.543167E 176m,Off,7,3.146094,1.660374,Time OK,Free running,49200,8931,0,2019-10-31 10:11:45.000000000,
1572519838,2019-10-31 11:03:58.669,47.652046N 0.543167E 176m,Off,7,3.146094,1.660374,Time OK,Free running,50600,8931,0,2019-10-31 10:11:45.000000000,
1572519898,2019-10-31 11:04:58.669,47.652046N 0.543167E 176m,No GPS time,2,0.0,0.0,Time OK,Free running,52000,8931,0,2019-10-31 11:04:55.000000000,
1572519958,2019-10-31 11:05:58.669,47.652046N 0.543167E 176m,Doing fixes,6,3.6445744,2.139319,Time OK,Coarse lock,100,9048,-833,2019-10-31 11:05:55.000000000,
1572520018,2019-10-31 11:06:58.670,47.652046N 0.543167E 176m,Doing fixes,8,2.860336,1.7910762,Time OK,Fine lock,100,8937,0,2019-10-31 11:06:55.000000000,
1572520078,2019-10-31 11:07:58.669,47.652046N 0.543167E 176m,Off,8,2.8606596,1.7910379,Time OK,Free running,800,8937,0,2019-10-31 11:07:05.000000000,
1572520138,2019-10-31 11:08:58.669,47.652046N 0.543167E 176m,Off,8,2.8606596,1.7910379,Time OK,Free running,1700,8937,0,2019-10-31 11:07:05.000000000,
1572520198,2019-10-31 11:09:58.669,47.652046N 0.543167E 176m,Off,8,2.8606596,1.7910379,Time OK,Free running,2700,8937,0,2019-10-31 11:07:05.000000000,
1572520258,2019-10-31 11:10:58.669,47.652046N 0.543167E 176m,Off,8,2.8606596,1.7910379,Time OK,Free running,3800,8937,0,2019-10-31 11:07:05.000000000,
1572520318,2019-10-31 11:11:58.669,47.652046N 0.543167E 176m,Off,8,2.8606596,1.7910379,Time OK,Free running,4600,8937,0,2019-10-31 11:07:05.000000000,
1572520378,2019-10-31 11:12:58.669,47.652046N 0.543167E 176m,Off,8,2.8606596,1.7910379,Time OK,Free running,5500,8937,0,2019-10-31 11:07:05.000000000,
1572520438,2019-10-31 11:13:58.669,47.652046N 0.543167E 176m,Off,8,2.8606596,1.7910379,Time OK,Free running,6500,8937,0,2019-10-31 11:07:05.000000000,
1572520498,2019-10-31 11:14:58.669,47.652046N 0.543167E 176m,Off,8,2.8606596,1.7910379,Time OK,Free running,7600,8937,0,2019-10-31 11:07:05.000000000,
1572520558,2019-10-31 11:15:58.669,47.652046N 0.543167E 176m,Off,8,2.8606596,1.7910379,Time OK,Free running,8700,8937,0,2019-10-31 11:07:05.000000000,
1572520618,2019-10-31 11:16:58.669,47.652046N 0.543167E 176m,Off,8,2.8606596,1.7910379,Time OK,Free running,9800,8937,0,2019-10-31 11:07:05.000000000,
1572520678,2019-10-31 11:17:58.669,47.652046N 0.543167E 176m,Off,8,2.8606596,1.7910379,Time OK,Free running,10800,8937,0,2019-10-31 11:07:05.000000000,
1572520738,2019-10-31 11:18:58.669,47.652046N 0.543167E 176m,Off,8,2.8606596,1.7910379,Time OK,Free running,11900,8937,0,2019-10-31 11:07:05.000000000,
1572520798,2019-10-31 11:19:58.669,47.652046N 0.543167E 176m,Off,8,2.8606596,1.7910379,Time OK,Free running,12900,8937,0,2019-10-31 11:07:05.000000000,
1572520858,2019-10-31 11:20:58.669,47.652046N 0.543167E 176m,Off,8,2.8606596,1.7910379,Time OK,Free running,13700,8937,0,2019-10-31 11:07:05.000000000,
1572520918,2019-10-31 11:21:58.669,47.652046N 0.543167E 176m,Off,8,2.8606596,1.7910379,Time OK,Free running,14500,8937,0,2019-10-31 11:07:05.000000000,
1572520978,2019-10-31 11:22:58.669,47.652046N 0.543167E 176m,Off,8,2.8606596,1.7910379,Time OK,Free running,15500,8937,0,2019-10-31 11:07:05.000000000,
1572521038,2019-10-31 11:23:58.669,47.652046N 0.543167E 176m,Off,8,2.8606596,1.7910379,Time OK,Free running,16300,8937,0,2019-10-31 11:07:05.000000000,
1572521098,2019-10-31 11:24:58.669,47.652046N 0.543167E 176m,Off,8,2.8606596,1.7910379,Time OK,Free running,17200,8937,0,2019-10-31 11:07:05.000000000,
1572521158,2019-10-31 11:25:58.669,47.652046N 0.543167E 176m,Off,8,2.8606596,1.7910379,Time OK,Free running,18300,8937,0,2019-10-31 11:07:05.000000000,
1572521218,2019-10-31 11:26:58.669,47.652046N 0.543167E 176m,Off,8,2.8606596,1.7910379,Time OK,Free running,19200,8937,0,2019-10-31 11:07:05.000000000,
1572521278,2019-10-31 11:27:58.669,47.652046N 0.543167E 176m,Off,8,2.8606596,1.7910379,Time OK,Free running,20200,8937,0,2019-10-31 11:07:05.000000000,
1572521338,2019-10-31 11:28:58.669,47.652046N 0.543167E 176m,Off,8,2.8606596,1.7910379,Time OK,Free running,21300,8937,0,2019-10-31 11:07:05.000000000,
1572521398,2019-10-31 11:29:58.669,47.652046N 0.543167E 176m,Off,8,2.8606596,1.7910379,Time OK,Free running,22400,8937,0,2019-10-31 11:07:05.000000000,
1572521458,2019-10-31 11:30:58.669,47.652046N 0.543167E 176m,Off,8,2.8606596,1.7910379,Time OK,Free running,23500,8937,0,2019-10-31 11:07:05.000000000,
1572521518,2019-10-31 11:31:58.701,47.652046N 0.543167E 176m,Off,8,2.8606596,1.7910379,Time OK,Free running,24600,8937,0,2019-10-31 11:07:05.000000000,
1572521578,2019-10-31 11:32:58.669,47.652046N 0.543167E 176m,Off,8,2.8606596,1.7910379,Time OK,Free running,25400,8937,0,2019-10-31 11:07:05.000000000,
1572521638,2019-10-31 11:33:58.669,47.652046N 0.543167E 176m,Off,8,2.8606596,1.7910379,Time OK,Free running,26300,8937,0,2019-10-31 11:07:05.000000000,
1572521698,2019-10-31 11:34:58.669,47.652046N 0.543167E 176m,Off,8,2.8606596,1.7910379,Time OK,Free running,27500,8937,0,2019-10-31 11:07:05.000000000,
1572521758,2019-10-31 11:35:58.669,47.652046N 0.543167E 176m,Off,8,2.8606596,1.7910379,Time OK,Free running,28600,8937,0,2019-10-31 11:07:05.000000000,
1572521818,2019-10-31 11:36:58.671,47.652046N 0.543167E 176m,Off,8,2.8606596,1.7910379,Time OK,Free running,29700,8937,0,2019-10-31 11:07:05.000000000,
1572521878,2019-10-31 11:37:58.669,47.652046N 0.543167E 176m,Off,8,2.8606596,1.7910379,Time OK,Free running,30900,8937,0,2019-10-31 11:07:05.000000000,
1572521938,2019-10-31 11:38:58.669,47.652046N 0.543167E 176m,Off,8,2.8606596,1.7910379,Time OK,Free running,32200,8937,0,2019-10-31 11:07:05.000000000,
1572521998,2019-10-31 11:39:58.669,47.652046N 0.543167E 176m,Off,8,2.8606596,1.7910379,Time OK,Free running,33500,8937,0,2019-10-31 11:07:05.000000000,
1572522058,2019-10-31 11:40:58.669,47.652046N 0.543167E 176m,Off,8,2.8606596,1.7910379,Time OK,Free running,34800,8937,0,2019-10-31 11:07:05.000000000,
1572522118,2019-10-31 11:41:58.671,47.652046N 0.543167E 176m,Off,8,2.8606596,1.7910379,Time OK,Free running,36000,8937,0,2019-10-31 11:07:05.000000000,
1572522178,2019-10-31 11:42:58.669,47.652046N 0.543167E 176m,Off,8,2.8606596,1.7910379,Time OK,Free running,37100,8937,0,2019-10-31 11:07:05.000000000,
1572522238,2019-10-31 11:43:58.669,47.652046N 0.543167E 176m,Off,8,2.8606596,1.7910379,Time OK,Free running,38400,8937,0,2019-10-31 11:07:05.000000000,
1572522298,2019-10-31 11:44:58.669,47.652046N 0.543167E 176m,Off,8,2.8606596,1.7910379,Time OK,Free running,39700,8937,0,2019-10-31 11:07:05.000000000,
1572522358,2019-10-31 11:45:58.669,47.652046N 0.543167E 176m,Off,8,2.8606596,1.7910379,Time OK,Free running,40700,8937,0,2019-10-31 11:07:05.000000000,
1572522418,2019-10-31 11:46:58.669,47.652046N 0.543167E 176m,Off,8,2.8606596,1.7910379,Time OK,Free running,41800,8937,0,2019-10-31 11:07:05.000000000,
1572522478,2019-10-31 11:47:58.669,47.652046N 0.543167E 176m,Off,8,2.8606596,1.7910379,Time OK,Free running,43000,8937,0,2019-10-31 11:07:05.000000000,
1572522538,2019-10-31 11:48:58.669,47.652046N 0.543167E 176m,Off,8,2.8606596,1.7910379,Time OK,Free running,43900,8937,0,2019-10-31 11:07:05.000000000,
1572522598,2019-10-31 11:49:58.685,47.652046N 0.543167E 176m,Off,8,2.8606596,1.7910379,Time OK,Free running,45000,8937,0,2019-10-31 11:07:05.000000000,
1572522658,2019-10-31 11:50:58.669,47.652046N 0.543167E 176m,Off,8,2.8606596,1.7910379,Time OK,Free running,46500,8937,0,2019-10-31 11:07:05.000000000,
1572522718,2019-10-31 11:51:58.669,47.652046N 0.543167E 176m,Off,8,2.8606596,1.7910379,Time OK,Free running,48000,8937,0,2019-10-31 11:07:05.000000000,
1572522778,2019-10-31 11:52:58.669,47.652046N 0.543167E 176m,Off,8,2.8606596,1.7910379,Time OK,Free running,49300,8937,0,2019-10-31 11:07:05.000000000,
1572522838,2019-10-31 11:53:58.669,47.652046N 0.543167E 176m,Off,8,2.8606596,1.7910379,Time OK,Free running,50500,8937,0,2019-10-31 11:07:05.000000000,
1572522898,2019-10-31 11:54:58.669,47.652046N 0.543167E 176m,Doing fixes,6,3.82198,2.7959232,Time OK,Coarse lock,100,9310,-3541,2019-10-31 11:54:55.000000000,
1572522958,2019-10-31 11:55:58.671,47.652046N 0.543167E 176m,Doing fixes,7,2.6433408,1.7036029,Time OK,Fine lock,100,8947,0,2019-10-31 11:55:55.000000000,
1572523018,2019-10-31 11:56:58.669,47.652046N 0.543167E 176m,Off,6,3.8119016,2.7918777,Time OK,Free running,500,8942,0,2019-10-31 11:56:25.000000000,
1572523078,2019-10-31 11:57:58.669,47.652046N 0.543167E 176m,Off,6,3.8119016,2.7918777,Time OK,Free running,1400,8942,0,2019-10-31 11:56:25.000000000,
1572523138,2019-10-31 11:58:58.669,47.652046N 0.543167E 176m,Off,6,3.8119016,2.7918777,Time OK,Free running,2400,8942,0,2019-10-31 11:56:25.000000000,
1572523198,2019-10-31 11:59:58.669,47.652046N 0.543167E 176m,Off,6,3.8119016,2.7918777,Time OK,Free running,3500,8942,0,2019-10-31 11:56:25.000000000,
