Time(longsecs),Time(UTC),External SOH Voltage 1(V),External SOH Voltage 2(V),External SOH Voltage 3(V),External SOH Voltage 4(V),Sensor SOH Voltage 1(V),Sensor SOH Voltage 2(V),Sensor SOH Voltage 3(V),
1570096826,2019-10-03 10:00:26.438,-4.207611E-3,-3.320694E-3,5.2251816E-3,-1.2228489E-3,4.593811E-1,4.5744228E-1,4.5441055E-1,
1570096886,2019-10-03 10:01:26.438,-4.2669773E-3,-3.3605099E-3,5.1772594E-3,-1.3210773E-3,4.5973015E-1,4.597435E-1,4.566269E-1,
1570096946,2019-10-03 10:02:26.438,-4.2061806E-3,-3.3595562E-3,5.1527023E-3,-1.5795231E-3,4.615078E-1,4.6067333E-1,4.5737553E-1,
1570097006,2019-10-03 10:03:26.438,-1.9721985E-3,-1.2965202E-3,7.2319508E-3,5.5766106E-4,4.6959972E-1,4.6910095E-1,4.63171E-1,
1570097066,2019-10-03 10:04:26.438,-4.8668385E-3,-3.7679672E-3,4.3144226E-3,-2.1817684E-3,4.5864582E-1,4.5851135E-1,4.502163E-1,
1570097126,2019-10-03 10:05:26.438,-2.2468567E-3,-1.3659E-3,7.1275234E-3,7.80344E-4,4.7136688E-1,4.7139454E-1,4.653206E-1,
1570097186,2019-10-03 10:06:26.438,-4.664421E-3,-3.846407E-3,4.504919E-3,-2.5398731E-3,4.5977688E-1,4.5851135E-1,4.6003628E-1,
1570097246,2019-10-03 10:07:26.438,-4.8327446E-3,-3.721714E-3,4.395485E-3,-1.982212E-3,4.5538998E-1,4.5489693E-1,4.5932484E-1,
1570097306,2019-10-03 10:08:26.439,-5.2421093E-3,-4.395008E-3,4.2960644E-3,-2.2485256E-3,4.612589E-1,4.5904255E-1,4.5541573E-1,
1570097366,2019-10-03 10:09:26.441,-4.4887066E-3,-3.8354397E-3,5.133629E-3,1.5807152E-3,4.5984364E-1,4.6294975E-1,4.5952415E-1,
1570097426,2019-10-03 10:10:26.439,-4.914522E-3,-3.5254955E-3,4.587412E-3,-1.8262863E-3,4.5871735E-1,4.584732E-1,4.5360088E-1,
1570097486,2019-10-03 10:11:26.439,-6.7029E-3,-5.830288E-3,2.7353764E-3,-4.1012764E-3,4.5215893E-1,4.5320225E-1,4.519186E-1,
1570097546,2019-10-03 10:12:26.439,-6.616831E-3,-5.8054924E-3,2.8476715E-3,-4.16708E-3,4.5518112E-1,4.5376015E-1,4.5064545E-1,
1570097606,2019-10-03 10:13:26.438,-4.315853E-3,-3.8824081E-3,4.6367645E-3,-1.7733574E-3,4.5409298E-1,4.527893E-1,4.5777035E-1,
1570097666,2019-10-03 10:14:26.438,-6.763935E-3,-6.2525272E-3,2.8047562E-3,-4.0154457E-3,4.5463562E-1,4.5427513E-1,4.5244312E-1,
1570097726,2019-10-03 10:15:26.438,-4.9450397E-3,-3.6873817E-3,4.5723915E-3,-2.0003319E-3,4.5837307E-1,4.5798492E-1,4.5188046E-1,
1570097786,2019-10-03 10:16:26.451,-6.423235E-3,-5.351782E-3,2.9797554E-3,-4.1151047E-3,4.546585E-1,4.5344543E-1,4.466114E-1,
1570097846,2019-10-03 10:17:26.438,-6.4110756E-3,-5.74708E-3,2.658844E-3,-4.198551E-3,4.4792652E-1,4.469738E-1,4.5577812E-1,
1570097906,2019-10-03 10:18:26.438,-6.6888332E-3,-6.0470104E-3,2.52676E-3,-4.20022E-3,4.4782734E-1,4.478855E-1,4.5001793E-1,
1570097966,2019-10-03 10:19:26.441,-2.5084019E-3,-1.2907982E-3,6.864071E-3,5.300045E-4,4.669628E-1,4.6382046E-1,4.5434952E-1,
1570098026,2019-10-03 10:20:26.438,-6.364107E-3,-5.6991577E-3,2.7768612E-3,-3.6871433E-3,4.5293522E-1,4.5267105E-1,4.5072842E-1,
1570098086,2019-10-03 10:21:26.438,-2.3913383E-3,-1.3096333E-3,7.2495937E-3,7.226467E-4,4.6726704E-1,4.650421E-1,4.6294785E-1,
1570098146,2019-10-03 10:22:26.438,-4.6966076E-3,-3.8900375E-3,4.6277046E-3,6.158352E-4,4.549656E-1,4.5695686E-1,4.5438194E-1,
1570098206,2019-10-03 10:23:26.438,-6.811857E-3,-5.552292E-3,2.2771358E-3,-4.0569305E-3,4.5256042E-1,4.5240402E-1,4.5277596E-1,
1570098266,2019-10-03 10:24:26.438,-4.6560764E-3,-3.0674934E-3,4.8861504E-3,-1.7769337E-3,4.536476E-1,4.522419E-1,4.567213E-1,
1570098326,2019-10-03 10:25:26.438,-6.643772E-3,-5.3913593E-3,2.7148724E-3,-3.909111E-3,4.5331192E-1,4.5320797E-1,4.468994E-1,
1570098386,2019-10-03 10:26:26.438,-4.0118694E-3,-3.2083988E-3,5.340576E-3,-1.1208057E-3,4.588833E-1,4.585886E-1,4.5230484E-1,
1570098446,2019-10-03 10:27:26.438,-4.8172474E-3,-3.3795834E-3,4.8422813E-3,-2.614975E-3,4.6480846E-1,4.6382046E-1,4.54854E-1,
1570098506,2019-10-03 10:28:26.478,-6.554365E-3,-5.6927204E-3,2.7916431E-3,-5.16963E-3,4.4831657E-1,4.55472E-1,4.5411777E-1,
1570098566,2019-10-03 10:29:26.438,-4.6331882E-3,-4.0659904E-3,4.351616E-3,-2.1238327E-3,4.5122528E-1,4.5024586E-1,4.5118332E-1,
1570098626,2019-10-03 10:30:26.438,-4.073143E-3,-2.9232502E-3,5.311489E-3,-1.7895699E-3,4.597435E-1,4.5954037E-1,4.5159912E-1,
1570098686,2019-10-03 10:31:26.438,-6.5944195E-3,-6.146431E-3,2.509594E-3,-4.007101E-3,4.528618E-1,4.5100117E-1,4.4933033E-1,
1570098746,2019-10-03 10:32:26.450,-6.716013E-3,-5.7196617E-3,2.7604103E-3,-3.1847954E-3,4.4896126E-1,4.486885E-1,4.473467E-1,
1570098806,2019-10-03 10:33:26.439,-4.343748E-3,-3.6873817E-3,5.145073E-3,-1.6069412E-3,4.5505142E-1,4.553461E-1,4.5749092E-1,
1570098866,2019-10-03 10:34:26.439,-4.080057E-3,-3.0214787E-3,4.961252E-3,-1.9648075E-3,4.5962238E-1,4.6000862E-1,4.5317268E-1,
1570098926,2019-10-03 10:35:26.438,-4.4014454E-3,-3.0536652E-3,5.066395E-3,-1.3716221E-3,4.6000862E-1,4.5893478E-1,4.5154762E-1,
1570098986,2019-10-03 10:36:26.441,-2.6483536E-3,-1.2395382E-3,7.3051453E-3,3.5190582E-4,4.6195602E-1,4.5995522E-1,4.6442223E-1,
1570099046,2019-10-03 10:37:26.439,-6.730795E-3,-5.866766E-3,2.6910305E-3,-3.7555695E-3,4.4888973E-1,4.4869328E-1,4.4325352E-1,
1570099106,2019-10-03 10:38:26.438,-2.4263859E-3,-1.4791489E-3,6.8838596E-3,2.7799606E-4,4.691782E-1,4.6895504E-1,4.578495E-1,
1570099166,2019-10-03 10:39:26.438,-2.3152828E-3,-1.6875267E-3,6.774187E-3,5.891323E-4,4.6084213E-1,4.607439E-1,4.6261024E-1,
1570099226,2019-10-03 10:40:26.439,-5.346298E-3,-3.8044453E-3,4.3911934E-3,-2.1586418E-3,4.5313263E-1,4.5216942E-1,4.5539856E-1,
1570099286,2019-10-03 10:41:26.438,-3.95751E-3,-3.2703876E-3,5.071163E-3,-1.4696121E-3,4.6003246E-1,4.5827198E-1,4.5747185E-1,
1570099346,2019-10-03 10:42:26.438,-4.3354034E-3,-2.9273033E-3,5.1243305E-3,-1.7111301E-3,4.5597172E-1,4.5455837E-1,4.5625687E-1,
1570099406,2019-10-03 10:43:26.438,-4.1270256E-3,-2.935648E-3,5.233288E-3,-1.0092258E-3,4.5557404E-1,4.5426464E-1,4.5224667E-1,
1570099466,2019-10-03 10:44:26.438,-6.4048767E-3,-5.489588E-3,2.7947426E-3,-4.254341E-3,4.482708E-1,4.4838333E-1,4.4612312E-1,
1570099526,2019-10-03 10:45:26.438,-6.213188E-3,-5.6271553E-3,2.8915405E-3,-3.6861897E-3,4.4753265E-1,4.4965363E-1,4.420786E-1,
1570099586,2019-10-03 10:46:26.438,-4.1701794E-3,-3.1013489E-3,5.3198338E-3,-1.1496544E-3,4.5394707E-1,4.5437717E-1,4.5236874E-1,
1570099646,2019-10-03 10:47:26.439,-7.087946E-3,-5.92494E-3,2.888441E-3,-4.1122437E-3,4.4838047E-1,4.4796467E-1,4.4787407E-1,
1570099706,2019-10-03 10:48:26.438,-4.7364235E-3,-3.5789013E-3,4.45652E-3,-2.1162033E-3,4.5531273E-1,4.550495E-1,4.504223E-1,
1570099766,2019-10-03 10:49:26.438,-6.6006184E-3,-5.8226585E-3,2.441883E-3,-4.0442944E-3,4.5580864E-1,4.5627594E-1,4.5026493E-1,
1570099826,2019-10-03 10:50:26.438,-6.462574E-3,-6.276846E-3,2.786398E-3,-3.9405823E-3,4.4799232E-1,4.483204E-1,4.5121288E-1,
1570099886,2019-10-03 10:51:26.438,-3.924608E-3,-3.1149387E-3,4.8060417E-3,-1.5826225E-3,4.5080853E-1,4.5105457E-1,4.5980072E-1,
1570099946,2019-10-03 10:52:26.438,-6.5891743E-3,-5.772352E-3,2.7985573E-3,-4.1952133E-3,4.4890976E-1,4.4788933E-1,4.4297218E-1,
1570100006,2019-10-03 10:53:26.438,-3.5376549E-3,-3.2975674E-3,5.356312E-3,-1.9059181E-3,4.59507E-1,4.5864296E-1,4.5432281E-1,
1570100066,2019-10-03 10:54:26.438,-4.9188137E-3,-3.9913654E-3,4.400015E-3,-1.77598E-3,4.5514584E-1,4.5473766E-1,4.5219707E-1,
1570100126,2019-10-03 10:55:26.440,-7.1163177E-3,-5.4233074E-3,2.3767948E-3,-4.5616627E-3,4.4911766E-1,4.4622803E-1,4.4544697E-1,
1570100186,2019-10-03 10:56:26.439,-7.0049763E-3,-5.545616E-3,2.5811195E-3,-3.7975311E-3,4.4756985E-1,4.4744968E-1,4.464512E-1,
1570100246,2019-10-03 10:57:26.439,-4.8000813E-3,-3.7755966E-3,4.5700073E-3,-2.068758E-3,4.552784E-1,4.548149E-1,4.52343E-1,
1570100306,2019-10-03 10:58:26.438,-7.021427E-3,-5.432844E-3,2.6140213E-3,-4.4157505E-3,4.4701195E-1,4.458151E-1,4.447937E-1,
1570100366,2019-10-03 10:59:26.441,-4.4887066E-3,-2.9330254E-3,5.2011013E-3,-1.4617443E-3,4.5474434E-1,4.5365715E-1,4.4924736E-1,
