Time(longsecs),Time(UTC),Earth Location,GPS Receiver Status,GPS Satellites Used,GPS PDOP,GPS TDOP,Timing Status,Timing Phase Lock,Timing Uncertainty(ns),DAC Count,Timing Error(ns),GPS Last Update Time,
1570114826,2019-10-03 15:00:26.438,47.63873N 0.5491E 174m,Off,6,2.4620852,1.5275791,Time OK,Free running,23800,8964,0,2019-10-03 14:42:42.000000000,
1570114886,2019-10-03 15:01:26.471,47.63873N 0.5491E 174m,Off,6,2.4620852,1.5275791,Time OK,Free running,25600,8964,0,2019-10-03 14:42:42.000000000,
1570114946,2019-10-03 15:02:26.438,47.63873N 0.5491E 174m,Off,6,2.4620852,1.5275791,Time OK,Free running,27600,8964,0,2019-10-03 14:42:42.000000000,
1570115006,2019-10-03 15:03:26.438,47.63873N 0.5491E 174m,Off,6,2.4620852,1.5275791,Time OK,Free running,30000,8964,0,2019-10-03 14:42:42.000000000,
1570115066,2019-10-03 15:04:26.438,47.63873N 0.5491E 174m,Off,6,2.4620852,1.5275791,Time OK,Free running,32600,8964,0,2019-10-03 14:42:42.000000000,
1570115126,2019-10-03 15:05:26.438,47.63873N 0.5491E 174m,Off,6,2.4620852,1.5275791,Time OK,Free running,34800,8964,0,2019-10-03 14:42:42.000000000,
1570115186,2019-10-03 15:06:26.438,47.63873N 0.5491E 174m,Off,6,2.4620852,1.5275791,Time OK,Free running,36900,8964,0,2019-10-03 14:42:42.000000000,
1570115246,2019-10-03 15:07:26.438,47.63873N 0.5491E 174m,Off,6,2.4620852,1.5275791,Time OK,Free running,39200,8964,0,2019-10-03 14:42:42.000000000,
1570115306,2019-10-03 15:08:26.438,47.63873N 0.5491E 174m,Off,6,2.4620852,1.5275791,Time OK,Free running,41800,8964,0,2019-10-03 14:42:42.000000000,
1570115366,2019-10-03 15:09:26.438,47.63873N 0.5491E 174m,Off,6,2.4620852,1.5275791,Time OK,Free running,44400,8964,0,2019-10-03 14:42:42.000000000,
1570115426,2019-10-03 15:10:26.438,47.63873N 0.5491E 174m,Off,6,2.4620852,1.5275791,Time OK,Free running,47000,8964,0,2019-10-03 14:42:42.000000000,
1570115486,2019-10-03 15:11:26.439,47.63873N 0.5491E 174m,Off,6,2.4620852,1.5275791,Time OK,Free running,49900,8964,0,2019-10-03 14:42:42.000000000,
1570115546,2019-10-03 15:12:26.438,47.63873N 0.5491E 174m,Off,6,2.4620852,1.5275791,Time OK,Free running,52500,8964,0,2019-10-03 14:42:42.000000000,
1570115606,2019-10-03 15:13:26.439,47.63873N 0.5491E 174m,Doing fixes,7,1.6381772,0.78794754,Time OK,Coarse lock,100,9873,-5208,2019-10-03 15:13:23.000000000,
1570115666,2019-10-03 15:14:26.439,47.63873N 0.5491E 174m,Doing fixes,9,1.3637146,0.60067976,Time OK,Fine lock,100,9002,0,2019-10-03 15:14:23.000000000,
1570115726,2019-10-03 15:15:26.439,47.63873N 0.5491E 174m,Doing fixes,7,1.6391758,0.78401554,Time OK,Fine lock,100,9005,0,2019-10-03 15:15:23.000000000,
1570115786,2019-10-03 15:16:26.438,47.63873N 0.5491E 174m,Off,8,1.7628751,0.8929952,Time OK,Free running,200,9005,0,2019-10-03 15:16:13.000000000,
1570115846,2019-10-03 15:17:26.438,47.63873N 0.5491E 174m,Off,8,1.7628751,0.8929952,Time OK,Free running,1100,9005,0,2019-10-03 15:16:13.000000000,
1570115906,2019-10-03 15:18:26.438,47.63873N 0.5491E 174m,Off,8,1.7628751,0.8929952,Time OK,Free running,2100,9005,0,2019-10-03 15:16:13.000000000,
1570115966,2019-10-03 15:19:26.441,47.63873N 0.5491E 174m,Off,8,1.7628751,0.8929952,Time OK,Free running,3000,9005,0,2019-10-03 15:16:13.000000000,
1570116026,2019-10-03 15:20:26.438,47.63873N 0.5491E 174m,Off,8,1.7628751,0.8929952,Time OK,Free running,3900,9005,0,2019-10-03 15:16:13.000000000,
1570116086,2019-10-03 15:21:26.438,47.63873N 0.5491E 174m,Off,8,1.7628751,0.8929952,Time OK,Free running,4800,9005,0,2019-10-03 15:16:13.000000000,
1570116146,2019-10-03 15:22:26.438,47.63873N 0.5491E 174m,Off,8,1.7628751,0.8929952,Time OK,Free running,5700,9005,0,2019-10-03 15:16:13.000000000,
1570116206,2019-10-03 15:23:26.438,47.63873N 0.5491E 174m,Off,8,1.7628751,0.8929952,Time OK,Free running,6700,9005,0,2019-10-03 15:16:13.000000000,
1570116266,2019-10-03 15:24:26.438,47.63873N 0.5491E 174m,Off,8,1.7628751,0.8929952,Time OK,Free running,7800,9005,0,2019-10-03 15:16:13.000000000,
1570116326,2019-10-03 15:25:26.438,47.63873N 0.5491E 174m,Off,8,1.7628751,0.8929952,Time OK,Free running,8700,9005,0,2019-10-03 15:16:13.000000000,
1570116386,2019-10-03 15:26:26.438,47.63873N 0.5491E 174m,Off,8,1.7628751,0.8929952,Time OK,Free running,9500,9005,0,2019-10-03 15:16:13.000000000,
1570116446,2019-10-03 15:27:26.439,47.63873N 0.5491E 174m,Off,8,1.7628751,0.8929952,Time OK,Free running,10700,9005,0,2019-10-03 15:16:13.000000000,
1570116506,2019-10-03 15:28:26.438,47.63873N 0.5491E 174m,Off,8,1.7628751,0.8929952,Time OK,Free running,11700,9005,0,2019-10-03 15:16:13.000000000,
1570116566,2019-10-03 15:29:26.438,47.63873N 0.5491E 174m,Off,8,1.7628751,0.8929952,Time OK,Free running,12800,9005,0,2019-10-03 15:16:13.000000000,
1570116626,2019-10-03 15:30:26.438,47.63873N 0.5491E 174m,Off,8,1.7628751,0.8929952,Time OK,Free running,14200,9005,0,2019-10-03 15:16:13.000000000,
1570116686,2019-10-03 15:31:26.438,47.63873N 0.5491E 174m,Off,8,1.7628751,0.8929952,Time OK,Free running,15300,9005,0,2019-10-03 15:16:13.000000000,
1570116746,2019-10-03 15:32:26.438,47.63873N 0.5491E 174m,Off,8,1.7628751,0.8929952,Time OK,Free running,16200,9005,0,2019-10-03 15:16:13.000000000,
1570116806,2019-10-03 15:33:26.438,47.63873N 0.5491E 174m,Off,8,1.7628751,0.8929952,Time OK,Free running,17500,9005,0,2019-10-03 15:16:13.000000000,
1570116866,2019-10-03 15:34:26.438,47.63873N 0.5491E 174m,Off,8,1.7628751,0.8929952,Time OK,Free running,19100,9005,0,2019-10-03 15:16:13.000000000,
1570116926,2019-10-03 15:35:26.438,47.63873N 0.5491E 174m,Off,8,1.7628751,0.8929952,Time OK,Free running,20400,9005,0,2019-10-03 15:16:13.000000000,
1570116986,2019-10-03 15:36:26.438,47.63873N 0.5491E 174m,Off,8,1.7628751,0.8929952,Time OK,Free running,21500,9005,0,2019-10-03 15:16:13.000000000,
1570117046,2019-10-03 15:37:26.471,47.63873N 0.5491E 174m,Off,8,1.7628751,0.8929952,Time OK,Free running,22800,9005,0,2019-10-03 15:16:13.000000000,
1570117106,2019-10-03 15:38:26.478,47.63873N 0.5491E 174m,Off,8,1.7628751,0.8929952,Time OK,Free running,24200,9005,0,2019-10-03 15:16:13.000000000,
1570117166,2019-10-03 15:39:26.441,47.63873N 0.5491E 174m,Off,8,1.7628751,0.8929952,Time OK,Free running,25700,9005,0,2019-10-03 15:16:13.000000000,
1570117226,2019-10-03 15:40:26.439,47.63873N 0.5491E 174m,Off,8,1.7628751,0.8929952,Time OK,Free running,27300,9005,0,2019-10-03 15:16:13.000000000,
1570117286,2019-10-03 15:41:26.438,47.63873N 0.5491E 174m,Off,8,1.7628751,0.8929952,Time OK,Free running,28800,9005,0,2019-10-03 15:16:13.000000000,
1570117346,2019-10-03 15:42:26.441,47.63873N 0.5491E 174m,Off,8,1.7628751,0.8929952,Time OK,Free running,30400,9005,0,2019-10-03 15:16:13.000000000,
1570117406,2019-10-03 15:43:26.438,47.63873N 0.5491E 174m,Off,8,1.7628751,0.8929952,Time OK,Free running,32000,9005,0,2019-10-03 15:16:13.000000000,
1570117466,2019-10-03 15:44:26.441,47.63873N 0.5491E 174m,Off,8,1.7628751,0.8929952,Time OK,Free running,33600,9005,0,2019-10-03 15:16:13.000000000,
1570117526,2019-10-03 15:45:26.438,47.63873N 0.5491E 174m,Off,8,1.7628751,0.8929952,Time OK,Free running,35300,9005,0,2019-10-03 15:16:13.000000000,
1570117586,2019-10-03 15:46:26.438,47.63873N 0.5491E 174m,Off,8,1.7628751,0.8929952,Time OK,Free running,37200,9005,0,2019-10-03 15:16:13.000000000,
1570117646,2019-10-03 15:47:26.438,47.63873N 0.5491E 174m,Off,8,1.7628751,0.8929952,Time OK,Free running,39000,9005,0,2019-10-03 15:16:13.000000000,
1570117706,2019-10-03 15:48:26.438,47.63873N 0.5491E 174m,Off,8,1.7628751,0.8929952,Time OK,Free running,40800,9005,0,2019-10-03 15:16:13.000000000,
1570117766,2019-10-03 15:49:26.438,47.63873N 0.5491E 174m,Off,8,1.7628751,0.8929952,Time OK,Free running,42600,9005,0,2019-10-03 15:16:13.000000000,
1570117826,2019-10-03 15:50:26.438,47.63873N 0.5491E 174m,Off,8,1.7628751,0.8929952,Time OK,Free running,44400,9005,0,2019-10-03 15:16:13.000000000,
1570117886,2019-10-03 15:51:26.439,47.63873N 0.5491E 174m,Off,8,1.7628751,0.8929952,Time OK,Free running,46300,9005,0,2019-10-03 15:16:13.000000000,
1570117946,2019-10-03 15:52:26.473,47.63873N 0.5491E 174m,Off,8,1.7628751,0.8929952,Time OK,Free running,48200,9005,0,2019-10-03 15:16:13.000000000,
1570118006,2019-10-03 15:53:26.457,47.63873N 0.5491E 174m,Off,8,1.7628751,0.8929952,Time OK,Free running,50000,9005,0,2019-10-03 15:16:13.000000000,
1570118066,2019-10-03 15:54:26.438,47.63873N 0.5491E 174m,Off,8,1.7628751,0.8929952,Time OK,Free running,52100,9005,0,2019-10-03 15:16:13.000000000,
1570118126,2019-10-03 15:55:26.439,47.63873N 0.5491E 174m,No GPS time,0,0.0,0.0,Time OK,Free running,54300,9005,0,2019-10-03 15:55:22.000000000,
1570118186,2019-10-03 15:56:26.439,47.63873N 0.5491E 174m,Doing fixes,8,2.1980762,1.0755539,Time OK,Coarse lock,100,9006,312,2019-10-03 15:56:23.000000000,
1570118246,2019-10-03 15:57:26.439,47.63873N 0.5491E 174m,Doing fixes,8,2.2131155,1.0845754,Time OK,Fine lock,100,9023,0,2019-10-03 15:57:23.000000000,
1570118306,2019-10-03 15:58:26.438,47.63873N 0.5491E 174m,Off,8,2.2152572,1.0858682,Time OK,Free running,800,9023,0,2019-10-03 15:57:33.000000000,
1570118366,2019-10-03 15:59:26.471,47.63873N 0.5491E 174m,Off,8,2.2152572,1.0858682,Time OK,Free running,1700,9023,0,2019-10-03 15:57:33.000000000,
