Time(longsecs),Time(UTC),GPS Satellite Acquisition Flag 1,GPS Satellite Acquisition Flag 2,GPS Satellite Acquisition Flag 3,GPS Satellite Acquisition Flag 4,GPS Satellite Acquisition Flag 5,GPS Satellite Acquisition Flag 6,GPS Satellite Acquisition Flag 7,GPS Satellite Acquisition Flag 8,GPS Satellite Acquisition Flag 9,GPS Satellite Acquisition Flag 10,GPS Satellite Acquisition Flag 11,GPS Satellite Acquisition Flag 12,GPS Satellite Azimuth 1(Degrees),GPS Satellite Azimuth 2(Degrees),GPS Satellite Azimuth 3(Degrees),GPS Satellite Azimuth 4(Degrees),GPS Satellite Azimuth 5(Degrees),GPS Satellite Azimuth 6(Degrees),GPS Satellite Azimuth 7(Degrees),GPS Satellite Azimuth 8(Degrees),GPS Satellite Azimuth 9(Degrees),GPS Satellite Azimuth 10(Degrees),GPS Satellite Azimuth 11(Degrees),GPS Satellite Azimuth 12(Degrees),GPS Satellite Elevation 1(Degrees),GPS Satellite Elevation 2(Degrees),GPS Satellite Elevation 3(Degrees),GPS Satellite Elevation 4(Degrees),GPS Satellite Elevation 5(Degrees),GPS Satellite Elevation 6(Degrees),GPS Satellite Elevation 7(Degrees),GPS Satellite Elevation 8(Degrees),GPS Satellite Elevation 9(Degrees),GPS Satellite Elevation 10(Degrees),GPS Satellite Elevation 11(Degrees),GPS Satellite Elevation 12(Degrees),GPS Satellite PRN 1,GPS Satellite PRN 2,GPS Satellite PRN 3,GPS Satellite PRN 4,GPS Satellite PRN 5,GPS Satellite PRN 6,GPS Satellite PRN 7,GPS Satellite PRN 8,GPS Satellite PRN 9,GPS Satellite PRN 10,GPS Satellite PRN 11,GPS Satellite PRN 12,GPS Satellite Signal Level 1(AMU),GPS Satellite Signal Level 2(AMU),GPS Satellite Signal Level 3(AMU),GPS Satellite Signal Level 4(AMU),GPS Satellite Signal Level 5(AMU),GPS Satellite Signal Level 6(AMU),GPS Satellite Signal Level 7(AMU),GPS Satellite Signal Level 8(AMU),GPS Satellite Signal Level 9(AMU),GPS Satellite Signal Level 10(AMU),GPS Satellite Signal Level 11(AMU),GPS Satellite Signal Level 12(AMU),
1570086026,2019-10-03 07:00:26.438,Acquired,Acquired,Acquired,Acquired,Not acquired,Acquired,Acquired,Acquired,Acquired,Acquired,,,3.07425472E2,2.9132048E2,1.34725056E2,1.83585136E2,9.1189848E1,6.1238111999999994E1,1.69595664E2,3.10953504E2,4.909786E1,2.3948676799999998E2,,,1.6658102E1,3.4600248E1,4.5106823999999996E1,5.8224576E1,5.0183603999999995E1,3.6942623999999995E1,3.1385227999999998E1,7.3492504E1,6.9220809999999995E0,1.0698728E1,,,7,8,10,16,20,21,26,27,15,18,,,6,5,8,7,0,6,1,8,14,4,,,
1570086086,2019-10-03 07:01:26.438,Acquired,Acquired,Acquired,Acquired,Not acquired,Acquired,Acquired,Acquired,Acquired,Acquired,,,3.07425472E2,2.9132048E2,1.34725056E2,1.83585136E2,9.1189848E1,6.1238111999999994E1,1.69595664E2,3.10953504E2,4.909786E1,2.3948676799999998E2,,,1.6658102E1,3.4600248E1,4.5106823999999996E1,5.8224576E1,5.0183603999999995E1,3.6942623999999995E1,3.1385227999999998E1,7.3492504E1,6.9220809999999995E0,1.0698728E1,,,7,8,10,16,20,21,26,27,15,18,,,6,5,8,7,0,6,1,8,14,4,,,
1570086146,2019-10-03 07:02:26.438,Acquired,Acquired,Acquired,Acquired,Not acquired,Acquired,Acquired,Acquired,Acquired,Acquired,,,3.07425472E2,2.9132048E2,1.34725056E2,1.83585136E2,9.1189848E1,6.1238111999999994E1,1.69595664E2,3.10953504E2,4.909786E1,2.3948676799999998E2,,,1.6658102E1,3.4600248E1,4.5106823999999996E1,5.8224576E1,5.0183603999999995E1,3.6942623999999995E1,3.1385227999999998E1,7.3492504E1,6.9220809999999995E0,1.0698728E1,,,7,8,10,16,20,21,26,27,15,18,,,6,5,8,7,0,6,1,8,14,4,,,
1570086206,2019-10-03 07:03:26.438,Acquired,Acquired,Acquired,Acquired,Not acquired,Acquired,Acquired,Acquired,Acquired,Acquired,,,3.07425472E2,2.9132048E2,1.34725056E2,1.83585136E2,9.1189848E1,6.1238111999999994E1,1.69595664E2,3.10953504E2,4.909786E1,2.3948676799999998E2,,,1.6658102E1,3.4600248E1,4.5106823999999996E1,5.8224576E1,5.0183603999999995E1,3.6942623999999995E1,3.1385227999999998E1,7.3492504E1,6.9220809999999995E0,1.0698728E1,,,7,8,10,16,20,21,26,27,15,18,,,6,5,8,7,0,6,1,8,14,4,,,
1570086266,2019-10-03 07:04:26.438,Acquired,Acquired,Acquired,Acquired,Not acquired,Acquired,Acquired,Acquired,Acquired,Acquired,,,3.07425472E2,2.9132048E2,1.34725056E2,1.83585136E2,9.1189848E1,6.1238111999999994E1,1.69595664E2,3.10953504E2,4.909786E1,2.3948676799999998E2,,,1.6658102E1,3.4600248E1,4.5106823999999996E1,5.8224576E1,5.0183603999999995E1,3.6942623999999995E1,3.1385227999999998E1,7.3492504E1,6.9220809999999995E0,1.0698728E1,,,7,8,10,16,20,21,26,27,15,18,,,6,5,8,7,0,6,1,8,14,4,,,
1570086326,2019-10-03 07:05:26.438,Acquired,Acquired,Acquired,Acquired,Not acquired,Acquired,Acquired,Acquired,Acquired,Acquired,,,3.07425472E2,2.9132048E2,1.34725056E2,1.83585136E2,9.1189848E1,6.1238111999999994E1,1.69595664E2,3.10953504E2,4.909786E1,2.3948676799999998E2,,,1.6658102E1,3.4600248E1,4.5106823999999996E1,5.8224576E1,5.0183603999999995E1,3.6942623999999995E1,3.1385227999999998E1,7.3492504E1,6.9220809999999995E0,1.0698728E1,,,7,8,10,16,20,21,26,27,15,18,,,6,5,8,7,0,6,1,8,14,4,,,
1570086386,2019-10-03 07:06:26.439,Acquired,Acquired,Acquired,Acquired,Not acquired,Acquired,Acquired,Acquired,Acquired,Acquired,,,3.07425472E2,2.9132048E2,1.34725056E2,1.83585136E2,9.1189848E1,6.1238111999999994E1,1.69595664E2,3.10953504E2,4.909786E1,2.3948676799999998E2,,,1.6658102E1,3.4600248E1,4.5106823999999996E1,5.8224576E1,5.0183603999999995E1,3.6942623999999995E1,3.1385227999999998E1,7.3492504E1,6.9220809999999995E0,1.0698728E1,,,7,8,10,16,20,21,26,27,15,18,,,6,5,8,7,0,6,1,8,14,4,,,
1570086446,2019-10-03 07:07:26.438,Acquired,Acquired,Acquired,Acquired,Not acquired,Acquired,Acquired,Acquired,Acquired,Acquired,,,3.07425472E2,2.9132048E2,1.34725056E2,1.83585136E2,9.1189848E1,6.1238111999999994E1,1.69595664E2,3.10953504E2,4.909786E1,2.3948676799999998E2,,,1.6658102E1,3.4600248E1,4.5106823999999996E1,5.8224576E1,5.0183603999999995E1,3.6942623999999995E1,3.1385227999999998E1,7.3492504E1,6.9220809999999995E0,1.0698728E1,,,7,8,10,16,20,21,26,27,15,18,,,6,5,8,7,0,6,1,8,14,4,,,
1570086506,2019-10-03 07:08:26.441,Acquired,Acquired,Acquired,Acquired,Not acquired,Acquired,Acquired,Acquired,Acquired,Acquired,,,3.07425472E2,2.9132048E2,1.34725056E2,1.83585136E2,9.1189848E1,6.1238111999999994E1,1.69595664E2,3.10953504E2,4.909786E1,2.3948676799999998E2,,,1.6658102E1,3.4600248E1,4.5106823999999996E1,5.8224576E1,5.0183603999999995E1,3.6942623999999995E1,3.1385227999999998E1,7.3492504E1,6.9220809999999995E0,1.0698728E1,,,7,8,10,16,20,21,26,27,15,18,,,6,5,8,7,0,6,1,8,14,4,,,
1570086566,2019-10-03 07:09:26.438,Acquired,Acquired,Acquired,Acquired,Not acquired,Acquired,Acquired,Acquired,Acquired,Acquired,,,3.07425472E2,2.9132048E2,1.34725056E2,1.83585136E2,9.1189848E1,6.1238111999999994E1,1.69595664E2,3.10953504E2,4.909786E1,2.3948676799999998E2,,,1.6658102E1,3.4600248E1,4.5106823999999996E1,5.8224576E1,5.0183603999999995E1,3.6942623999999995E1,3.1385227999999998E1,7.3492504E1,6.9220809999999995E0,1.0698728E1,,,7,8,10,16,20,21,26,27,15,18,,,6,5,8,7,0,6,1,8,14,4,,,
1570086626,2019-10-03 07:10:26.438,Acquired,Acquired,Acquired,Acquired,Not acquired,Acquired,Acquired,Acquired,Acquired,Acquired,,,3.07425472E2,2.9132048E2,1.34725056E2,1.83585136E2,9.1189848E1,6.1238111999999994E1,1.69595664E2,3.10953504E2,4.909786E1,2.3948676799999998E2,,,1.6658102E1,3.4600248E1,4.5106823999999996E1,5.8224576E1,5.0183603999999995E1,3.6942623999999995E1,3.1385227999999998E1,7.3492504E1,6.9220809999999995E0,1.0698728E1,,,7,8,10,16,20,21,26,27,15,18,,,6,5,8,7,0,6,1,8,14,4,,,
1570086686,2019-10-03 07:11:26.439,Acquired,Acquired,Acquired,Acquired,Not acquired,Acquired,Acquired,Acquired,Acquired,Acquired,,,3.07425472E2,2.9132048E2,1.34725056E2,1.83585136E2,9.1189848E1,6.1238111999999994E1,1.69595664E2,3.10953504E2,4.909786E1,2.3948676799999998E2,,,1.6658102E1,3.4600248E1,4.5106823999999996E1,5.8224576E1,5.0183603999999995E1,3.6942623999999995E1,3.1385227999999998E1,7.3492504E1,6.9220809999999995E0,1.0698728E1,,,7,8,10,16,20,21,26,27,15,18,,,6,5,8,7,0,6,1,8,14,4,,,
1570086746,2019-10-03 07:12:26.438,Acquired,Acquired,Acquired,Acquired,Not acquired,Acquired,Acquired,Acquired,Acquired,Acquired,,,3.07425472E2,2.9132048E2,1.34725056E2,1.83585136E2,9.1189848E1,6.1238111999999994E1,1.69595664E2,3.10953504E2,4.909786E1,2.3948676799999998E2,,,1.6658102E1,3.4600248E1,4.5106823999999996E1,5.8224576E1,5.0183603999999995E1,3.6942623999999995E1,3.1385227999999998E1,7.3492504E1,6.9220809999999995E0,1.0698728E1,,,7,8,10,16,20,21,26,27,15,18,,,6,5,8,7,0,6,1,8,14,4,,,
1570086806,2019-10-03 07:13:26.438,Acquired,Acquired,Acquired,Acquired,Not acquired,Acquired,Acquired,Acquired,Acquired,Acquired,,,3.07425472E2,2.9132048E2,1.34725056E2,1.83585136E2,9.1189848E1,6.1238111999999994E1,1.69595664E2,3.10953504E2,4.909786E1,2.3948676799999998E2,,,1.6658102E1,3.4600248E1,4.5106823999999996E1,5.8224576E1,5.0183603999999995E1,3.6942623999999995E1,3.1385227999999998E1,7.3492504E1,6.9220809999999995E0,1.0698728E1,,,7,8,10,16,20,21,26,27,15,18,,,6,5,8,7,0,6,1,8,14,4,,,
1570086866,2019-10-03 07:14:26.438,Acquired,Acquired,Acquired,Acquired,Not acquired,Acquired,Acquired,Acquired,Acquired,Acquired,,,3.07425472E2,2.9132048E2,1.34725056E2,1.83585136E2,9.1189848E1,6.1238111999999994E1,1.69595664E2,3.10953504E2,4.909786E1,2.3948676799999998E2,,,1.6658102E1,3.4600248E1,4.5106823999999996E1,5.8224576E1,5.0183603999999995E1,3.6942623999999995E1,3.1385227999999998E1,7.3492504E1,6.9220809999999995E0,1.0698728E1,,,7,8,10,16,20,21,26,27,15,18,,,6,5,8,7,0,6,1,8,14,4,,,
1570086926,2019-10-03 07:15:26.438,Acquired,Acquired,Acquired,Acquired,Not acquired,Acquired,Acquired,Acquired,Acquired,Acquired,,,3.07425472E2,2.9132048E2,1.34725056E2,1.83585136E2,9.1189848E1,6.1238111999999994E1,1.69595664E2,3.10953504E2,4.909786E1,2.3948676799999998E2,,,1.6658102E1,3.4600248E1,4.5106823999999996E1,5.8224576E1,5.0183603999999995E1,3.6942623999999995E1,3.1385227999999998E1,7.3492504E1,6.9220809999999995E0,1.0698728E1,,,7,8,10,16,20,21,26,27,15,18,,,6,5,8,7,0,6,1,8,14,4,,,
1570086986,2019-10-03 07:16:26.438,Acquired,Acquired,Acquired,Acquired,Not acquired,Acquired,Acquired,Acquired,Acquired,Acquired,,,3.07425472E2,2.9132048E2,1.34725056E2,1.83585136E2,9.1189848E1,6.1238111999999994E1,1.69595664E2,3.10953504E2,4.909786E1,2.3948676799999998E2,,,1.6658102E1,3.4600248E1,4.5106823999999996E1,5.8224576E1,5.0183603999999995E1,3.6942623999999995E1,3.1385227999999998E1,7.3492504E1,6.9220809999999995E0,1.0698728E1,,,7,8,10,16,20,21,26,27,15,18,,,6,5,8,7,0,6,1,8,14,4,,,
1570087046,2019-10-03 07:17:26.438,Acquired,Acquired,Acquired,Acquired,Not acquired,Acquired,Acquired,Acquired,Acquired,Acquired,,,3.07425472E2,2.9132048E2,1.34725056E2,1.83585136E2,9.1189848E1,6.1238111999999994E1,1.69595664E2,3.10953504E2,4.909786E1,2.3948676799999998E2,,,1.6658102E1,3.4600248E1,4.5106823999999996E1,5.8224576E1,5.0183603999999995E1,3.6942623999999995E1,3.1385227999999998E1,7.3492504E1,6.9220809999999995E0,1.0698728E1,,,7,8,10,16,20,21,26,27,15,18,,,6,5,8,7,0,6,1,8,14,4,,,
1570087106,2019-10-03 07:18:26.438,Acquired,Acquired,Acquired,Acquired,Not acquired,Acquired,Acquired,Acquired,Acquired,Acquired,,,3.07425472E2,2.9132048E2,1.34725056E2,1.83585136E2,9.1189848E1,6.1238111999999994E1,1.69595664E2,3.10953504E2,4.909786E1,2.3948676799999998E2,,,1.6658102E1,3.4600248E1,4.5106823999999996E1,5.8224576E1,5.0183603999999995E1,3.6942623999999995E1,3.1385227999999998E1,7.3492504E1,6.9220809999999995E0,1.0698728E1,,,7,8,10,16,20,21,26,27,15,18,,,6,5,8,7,0,6,1,8,14,4,,,
1570087166,2019-10-03 07:19:26.438,Acquired,Acquired,Acquired,Acquired,Not acquired,Acquired,Acquired,Acquired,Acquired,Acquired,,,3.07425472E2,2.9132048E2,1.34725056E2,1.83585136E2,9.1189848E1,6.1238111999999994E1,1.69595664E2,3.10953504E2,4.909786E1,2.3948676799999998E2,,,1.6658102E1,3.4600248E1,4.5106823999999996E1,5.8224576E1,5.0183603999999995E1,3.6942623999999995E1,3.1385227999999998E1,7.3492504E1,6.9220809999999995E0,1.0698728E1,,,7,8,10,16,20,21,26,27,15,18,,,6,5,8,7,0,6,1,8,14,4,,,
1570087226,2019-10-03 07:20:26.438,Acquired,Acquired,Acquired,Acquired,Not acquired,Acquired,Acquired,Acquired,Acquired,Acquired,,,3.07425472E2,2.9132048E2,1.34725056E2,1.83585136E2,9.1189848E1,6.1238111999999994E1,1.69595664E2,3.10953504E2,4.909786E1,2.3948676799999998E2,,,1.6658102E1,3.4600248E1,4.5106823999999996E1,5.8224576E1,5.0183603999999995E1,3.6942623999999995E1,3.1385227999999998E1,7.3492504E1,6.9220809999999995E0,1.0698728E1,,,7,8,10,16,20,21,26,27,15,18,,,6,5,8,7,0,6,1,8,14,4,,,
1570087286,2019-10-03 07:21:26.438,Acquired,Acquired,Acquired,Acquired,Not acquired,Acquired,Acquired,Acquired,Acquired,Acquired,,,3.07425472E2,2.9132048E2,1.34725056E2,1.83585136E2,9.1189848E1,6.1238111999999994E1,1.69595664E2,3.10953504E2,4.909786E1,2.3948676799999998E2,,,1.6658102E1,3.4600248E1,4.5106823999999996E1,5.8224576E1,5.0183603999999995E1,3.6942623999999995E1,3.1385227999999998E1,7.3492504E1,6.9220809999999995E0,1.0698728E1,,,7,8,10,16,20,21,26,27,15,18,,,6,5,8,7,0,6,1,8,14,4,,,
1570087346,2019-10-03 07:22:26.438,Acquired,Acquired,Acquired,Acquired,Not acquired,Acquired,Acquired,Acquired,Acquired,Acquired,,,3.07425472E2,2.9132048E2,1.34725056E2,1.83585136E2,9.1189848E1,6.1238111999999994E1,1.69595664E2,3.10953504E2,4.909786E1,2.3948676799999998E2,,,1.6658102E1,3.4600248E1,4.5106823999999996E1,5.8224576E1,5.0183603999999995E1,3.6942623999999995E1,3.1385227999999998E1,7.3492504E1,6.9220809999999995E0,1.0698728E1,,,7,8,10,16,20,21,26,27,15,18,,,6,5,8,7,0,6,1,8,14,4,,,
1570087406,2019-10-03 07:23:26.438,Acquired,Acquired,Acquired,Acquired,Not acquired,Acquired,Acquired,Acquired,Acquired,Acquired,,,3.07425472E2,2.9132048E2,1.34725056E2,1.83585136E2,9.1189848E1,6.1238111999999994E1,1.69595664E2,3.10953504E2,4.909786E1,2.3948676799999998E2,,,1.6658102E1,3.4600248E1,4.5106823999999996E1,5.8224576E1,5.0183603999999995E1,3.6942623999999995E1,3.1385227999999998E1,7.3492504E1,6.9220809999999995E0,1.0698728E1,,,7,8,10,16,20,21,26,27,15,18,,,6,5,8,7,0,6,1,8,14,4,,,
1570087466,2019-10-03 07:24:26.438,Acquired,Acquired,Acquired,Acquired,Not acquired,Acquired,Acquired,Acquired,Acquired,Acquired,,,3.07425472E2,2.9132048E2,1.34725056E2,1.83585136E2,9.1189848E1,6.1238111999999994E1,1.69595664E2,3.10953504E2,4.909786E1,2.3948676799999998E2,,,1.6658102E1,3.4600248E1,4.5106823999999996E1,5.8224576E1,5.0183603999999995E1,3.6942623999999995E1,3.1385227999999998E1,7.3492504E1,6.9220809999999995E0,1.0698728E1,,,7,8,10,16,20,21,26,27,15,18,,,6,5,8,7,0,6,1,8,14,4,,,
1570087526,2019-10-03 07:25:26.438,Acquired,Acquired,Acquired,Acquired,Not acquired,Acquired,Acquired,Acquired,Acquired,Acquired,,,3.07425472E2,2.9132048E2,1.34725056E2,1.83585136E2,9.1189848E1,6.1238111999999994E1,1.69595664E2,3.10953504E2,4.909786E1,2.3948676799999998E2,,,1.6658102E1,3.4600248E1,4.5106823999999996E1,5.8224576E1,5.0183603999999995E1,3.6942623999999995E1,3.1385227999999998E1,7.3492504E1,6.9220809999999995E0,1.0698728E1,,,7,8,10,16,20,21,26,27,15,18,,,6,5,8,7,0,6,1,8,14,4,,,
1570087586,2019-10-03 07:26:26.439,Acquired,Acquired,Acquired,Acquired,Not acquired,Acquired,Acquired,Acquired,Acquired,Acquired,,,3.07425472E2,2.9132048E2,1.34725056E2,1.83585136E2,9.1189848E1,6.1238111999999994E1,1.69595664E2,3.10953504E2,4.909786E1,2.3948676799999998E2,,,1.6658102E1,3.4600248E1,4.5106823999999996E1,5.8224576E1,5.0183603999999995E1,3.6942623999999995E1,3.1385227999999998E1,7.3492504E1,6.9220809999999995E0,1.0698728E1,,,7,8,10,16,20,21,26,27,15,18,,,6,5,8,7,0,6,1,8,14,4,,,
1570087646,2019-10-03 07:27:26.469,Acquired,Acquired,Acquired,Acquired,Not acquired,Acquired,Acquired,Acquired,Acquired,,Not acquired,,3.070048E2,2.91533408E2,1.34281104E2,1.8336831999999998E2,9.0470176E1,6.132564E1,1.69607792E2,3.11670976E2,4.8701332E1,,3.3524188799999996E2,,1.6656782E1,3.5000887999999996E1,4.5475547999999996E1,5.773748E1,5.0175528E1,3.655532E1,3.0922287999999998E1,7.3920648E1,6.995572E0,,5.028264E0,,7,8,10,16,20,21,26,27,15,,30,,5,6,7,6,0,8,2,9,15,,0,,
1570087706,2019-10-03 07:28:26.438,Not acquired,Acquired,Acquired,Acquired,Acquired,Acquired,Acquired,Acquired,Acquired,Acquired,Acquired,Acquired,2.92662528E2,2.97936992E2,1.1341543999999999E2,1.79612224E2,2.47905216E2,6.8584816E1,6.5723576E1,1.69850992E2,3.5840016E1,2.6638768E2,3.5189499999999995E1,3.2303391999999997E2,1.414668E1,4.9230452E1,5.5483104E1,4.1063579999999995E1,2.4207952E1,4.5542392E1,2.3711527999999998E1,1.5645482E1,8.5267816E1,9.383123E0,7.26274E0,8.898807E0,7,8,10,16,18,20,21,26,27,11,15,30,2,11,6,9,7,7,6,2,10,5,9,5,
1570087766,2019-10-03 07:29:26.438,Not acquired,Acquired,Acquired,Acquired,Acquired,Acquired,Acquired,Acquired,Acquired,Acquired,Acquired,Acquired,2.92662528E2,2.97936992E2,1.1341543999999999E2,1.79612224E2,2.47905216E2,6.8584816E1,6.5723576E1,1.69850992E2,3.5840016E1,2.6638768E2,3.5189499999999995E1,3.2303391999999997E2,1.414668E1,4.9230452E1,5.5483104E1,4.1063579999999995E1,2.4207952E1,4.5542392E1,2.3711527999999998E1,1.5645482E1,8.5267816E1,9.383123E0,7.26274E0,8.898807E0,7,8,10,16,18,20,21,26,27,11,15,30,2,11,6,9,7,7,6,2,10,5,9,5,
1570087826,2019-10-03 07:30:26.438,Not acquired,Acquired,Acquired,Acquired,Acquired,Acquired,Acquired,Acquired,Acquired,Acquired,Acquired,Acquired,2.92662528E2,2.97936992E2,1.1341543999999999E2,1.79612224E2,2.47905216E2,6.8584816E1,6.5723576E1,1.69850992E2,3.5840016E1,2.6638768E2,3.5189499999999995E1,3.2303391999999997E2,1.414668E1,4.9230452E1,5.5483104E1,4.1063579999999995E1,2.4207952E1,4.5542392E1,2.3711527999999998E1,1.5645482E1,8.5267816E1,9.383123E0,7.26274E0,8.898807E0,7,8,10,16,18,20,21,26,27,11,15,30,2,11,6,9,7,7,6,2,10,5,9,5,
1570087886,2019-10-03 07:31:26.438,Not acquired,Acquired,Acquired,Acquired,Acquired,Acquired,Acquired,Acquired,Acquired,Acquired,Acquired,Acquired,2.92662528E2,2.97936992E2,1.1341543999999999E2,1.79612224E2,2.47905216E2,6.8584816E1,6.5723576E1,1.69850992E2,3.5840016E1,2.6638768E2,3.5189499999999995E1,3.2303391999999997E2,1.414668E1,4.9230452E1,5.5483104E1,4.1063579999999995E1,2.4207952E1,4.5542392E1,2.3711527999999998E1,1.5645482E1,8.5267816E1,9.383123E0,7.26274E0,8.898807E0,7,8,10,16,18,20,21,26,27,11,15,30,2,11,6,9,7,7,6,2,10,5,9,5,
1570087946,2019-10-03 07:32:26.438,Not acquired,Acquired,Acquired,Acquired,Acquired,Acquired,Acquired,Acquired,Acquired,Acquired,Acquired,Acquired,2.92662528E2,2.97936992E2,1.1341543999999999E2,1.79612224E2,2.47905216E2,6.8584816E1,6.5723576E1,1.69850992E2,3.5840016E1,2.6638768E2,3.5189499999999995E1,3.2303391999999997E2,1.414668E1,4.9230452E1,5.5483104E1,4.1063579999999995E1,2.4207952E1,4.5542392E1,2.3711527999999998E1,1.5645482E1,8.5267816E1,9.383123E0,7.26274E0,8.898807E0,7,8,10,16,18,20,21,26,27,11,15,30,2,11,6,9,7,7,6,2,10,5,9,5,
1570088006,2019-10-03 07:33:26.438,Not acquired,Acquired,Acquired,Acquired,Acquired,Acquired,Acquired,Acquired,Acquired,Acquired,Acquired,Acquired,2.92662528E2,2.97936992E2,1.1341543999999999E2,1.79612224E2,2.47905216E2,6.8584816E1,6.5723576E1,1.69850992E2,3.5840016E1,2.6638768E2,3.5189499999999995E1,3.2303391999999997E2,1.414668E1,4.9230452E1,5.5483104E1,4.1063579999999995E1,2.4207952E1,4.5542392E1,2.3711527999999998E1,1.5645482E1,8.5267816E1,9.383123E0,7.26274E0,8.898807E0,7,8,10,16,18,20,21,26,27,11,15,30,2,11,6,9,7,7,6,2,10,5,9,5,
1570088066,2019-10-03 07:34:26.439,Not acquired,Acquired,Acquired,Acquired,Acquired,Acquired,Acquired,Acquired,Acquired,Acquired,Acquired,Acquired,2.92662528E2,2.97936992E2,1.1341543999999999E2,1.79612224E2,2.47905216E2,6.8584816E1,6.5723576E1,1.69850992E2,3.5840016E1,2.6638768E2,3.5189499999999995E1,3.2303391999999997E2,1.414668E1,4.9230452E1,5.5483104E1,4.1063579999999995E1,2.4207952E1,4.5542392E1,2.3711527999999998E1,1.5645482E1,8.5267816E1,9.383123E0,7.26274E0,8.898807E0,7,8,10,16,18,20,21,26,27,11,15,30,2,11,6,9,7,7,6,2,10,5,9,5,
1570088126,2019-10-03 07:35:26.438,Not acquired,Acquired,Acquired,Acquired,Acquired,Acquired,Acquired,Acquired,Acquired,Acquired,Acquired,Acquired,2.92662528E2,2.97936992E2,1.1341543999999999E2,1.79612224E2,2.47905216E2,6.8584816E1,6.5723576E1,1.69850992E2,3.5840016E1,2.6638768E2,3.5189499999999995E1,3.2303391999999997E2,1.414668E1,4.9230452E1,5.5483104E1,4.1063579999999995E1,2.4207952E1,4.5542392E1,2.3711527999999998E1,1.5645482E1,8.5267816E1,9.383123E0,7.26274E0,8.898807E0,7,8,10,16,18,20,21,26,27,11,15,30,2,11,6,9,7,7,6,2,10,5,9,5,
1570088186,2019-10-03 07:36:26.438,Not acquired,Acquired,Acquired,Acquired,Acquired,Acquired,Acquired,Acquired,Acquired,Acquired,Acquired,Acquired,2.92662528E2,2.97936992E2,1.1341543999999999E2,1.79612224E2,2.47905216E2,6.8584816E1,6.5723576E1,1.69850992E2,3.5840016E1,2.6638768E2,3.5189499999999995E1,3.2303391999999997E2,1.414668E1,4.9230452E1,5.5483104E1,4.1063579999999995E1,2.4207952E1,4.5542392E1,2.3711527999999998E1,1.5645482E1,8.5267816E1,9.383123E0,7.26274E0,8.898807E0,7,8,10,16,18,20,21,26,27,11,15,30,2,11,6,9,7,7,6,2,10,5,9,5,
1570088246,2019-10-03 07:37:26.439,Not acquired,Acquired,Acquired,Acquired,Acquired,Acquired,Acquired,Acquired,Acquired,Acquired,Acquired,Acquired,2.92662528E2,2.97936992E2,1.1341543999999999E2,1.79612224E2,2.47905216E2,6.8584816E1,6.5723576E1,1.69850992E2,3.5840016E1,2.6638768E2,3.5189499999999995E1,3.2303391999999997E2,1.414668E1,4.9230452E1,5.5483104E1,4.1063579999999995E1,2.4207952E1,4.5542392E1,2.3711527999999998E1,1.5645482E1,8.5267816E1,9.383123E0,7.26274E0,8.898807E0,7,8,10,16,18,20,21,26,27,11,15,30,2,11,6,9,7,7,6,2,10,5,9,5,
1570088306,2019-10-03 07:38:26.438,Not acquired,Acquired,Acquired,Acquired,Acquired,Acquired,Acquired,Acquired,Acquired,Acquired,Acquired,Acquired,2.92662528E2,2.97936992E2,1.1341543999999999E2,1.79612224E2,2.47905216E2,6.8584816E1,6.5723576E1,1.69850992E2,3.5840016E1,2.6638768E2,3.5189499999999995E1,3.2303391999999997E2,1.414668E1,4.9230452E1,5.5483104E1,4.1063579999999995E1,2.4207952E1,4.5542392E1,2.3711527999999998E1,1.5645482E1,8.5267816E1,9.383123E0,7.26274E0,8.898807E0,7,8,10,16,18,20,21,26,27,11,15,30,2,11,6,9,7,7,6,2,10,5,9,5,
1570088366,2019-10-03 07:39:26.438,Not acquired,Acquired,Acquired,Acquired,Acquired,Acquired,Acquired,Acquired,Acquired,Acquired,Acquired,Acquired,2.92662528E2,2.97936992E2,1.1341543999999999E2,1.79612224E2,2.47905216E2,6.8584816E1,6.5723576E1,1.69850992E2,3.5840016E1,2.6638768E2,3.5189499999999995E1,3.2303391999999997E2,1.414668E1,4.9230452E1,5.5483104E1,4.1063579999999995E1,2.4207952E1,4.5542392E1,2.3711527999999998E1,1.5645482E1,8.5267816E1,9.383123E0,7.26274E0,8.898807E0,7,8,10,16,18,20,21,26,27,11,15,30,2,11,6,9,7,7,6,2,10,5,9,5,
1570088426,2019-10-03 07:40:26.438,Not acquired,Acquired,Acquired,Acquired,Acquired,Acquired,Acquired,Acquired,Acquired,Acquired,Acquired,Acquired,2.92662528E2,2.97936992E2,1.1341543999999999E2,1.79612224E2,2.47905216E2,6.8584816E1,6.5723576E1,1.69850992E2,3.5840016E1,2.6638768E2,3.5189499999999995E1,3.2303391999999997E2,1.414668E1,4.9230452E1,5.5483104E1,4.1063579999999995E1,2.4207952E1,4.5542392E1,2.3711527999999998E1,1.5645482E1,8.5267816E1,9.383123E0,7.26274E0,8.898807E0,7,8,10,16,18,20,21,26,27,11,15,30,2,11,6,9,7,7,6,2,10,5,9,5,
1570088486,2019-10-03 07:41:26.441,Not acquired,Acquired,Acquired,Acquired,Acquired,Acquired,Acquired,Acquired,Acquired,Acquired,Acquired,Acquired,2.92662528E2,2.97936992E2,1.1341543999999999E2,1.79612224E2,2.47905216E2,6.8584816E1,6.5723576E1,1.69850992E2,3.5840016E1,2.6638768E2,3.5189499999999995E1,3.2303391999999997E2,1.414668E1,4.9230452E1,5.5483104E1,4.1063579999999995E1,2.4207952E1,4.5542392E1,2.3711527999999998E1,1.5645482E1,8.5267816E1,9.383123E0,7.26274E0,8.898807E0,7,8,10,16,18,20,21,26,27,11,15,30,2,11,6,9,7,7,6,2,10,5,9,5,
1570088546,2019-10-03 07:42:26.438,Not acquired,Acquired,Acquired,Acquired,Acquired,Acquired,Acquired,Acquired,Acquired,Acquired,Acquired,Acquired,2.92662528E2,2.97936992E2,1.1341543999999999E2,1.79612224E2,2.47905216E2,6.8584816E1,6.5723576E1,1.69850992E2,3.5840016E1,2.6638768E2,3.5189499999999995E1,3.2303391999999997E2,1.414668E1,4.9230452E1,5.5483104E1,4.1063579999999995E1,2.4207952E1,4.5542392E1,2.3711527999999998E1,1.5645482E1,8.5267816E1,9.383123E0,7.26274E0,8.898807E0,7,8,10,16,18,20,21,26,27,11,15,30,2,11,6,9,7,7,6,2,10,5,9,5,
1570088606,2019-10-03 07:43:26.438,Not acquired,Acquired,Acquired,Acquired,Acquired,Acquired,Acquired,Acquired,Acquired,Acquired,Acquired,Acquired,2.92662528E2,2.97936992E2,1.1341543999999999E2,1.79612224E2,2.47905216E2,6.8584816E1,6.5723576E1,1.69850992E2,3.5840016E1,2.6638768E2,3.5189499999999995E1,3.2303391999999997E2,1.414668E1,4.9230452E1,5.5483104E1,4.1063579999999995E1,2.4207952E1,4.5542392E1,2.3711527999999998E1,1.5645482E1,8.5267816E1,9.383123E0,7.26274E0,8.898807E0,7,8,10,16,18,20,21,26,27,11,15,30,2,11,6,9,7,7,6,2,10,5,9,5,
1570088666,2019-10-03 07:44:26.438,Not acquired,Acquired,Acquired,Acquired,Acquired,Acquired,Acquired,Acquired,Acquired,Acquired,Acquired,Acquired,2.92662528E2,2.97936992E2,1.1341543999999999E2,1.79612224E2,2.47905216E2,6.8584816E1,6.5723576E1,1.69850992E2,3.5840016E1,2.6638768E2,3.5189499999999995E1,3.2303391999999997E2,1.414668E1,4.9230452E1,5.5483104E1,4.1063579999999995E1,2.4207952E1,4.5542392E1,2.3711527999999998E1,1.5645482E1,8.5267816E1,9.383123E0,7.26274E0,8.898807E0,7,8,10,16,18,20,21,26,27,11,15,30,2,11,6,9,7,7,6,2,10,5,9,5,
1570088726,2019-10-03 07:45:26.438,Not acquired,Acquired,Acquired,Acquired,Acquired,Acquired,Acquired,Acquired,Acquired,Acquired,Acquired,Acquired,2.92662528E2,2.97936992E2,1.1341543999999999E2,1.79612224E2,2.47905216E2,6.8584816E1,6.5723576E1,1.69850992E2,3.5840016E1,2.6638768E2,3.5189499999999995E1,3.2303391999999997E2,1.414668E1,4.9230452E1,5.5483104E1,4.1063579999999995E1,2.4207952E1,4.5542392E1,2.3711527999999998E1,1.5645482E1,8.5267816E1,9.383123E0,7.26274E0,8.898807E0,7,8,10,16,18,20,21,26,27,11,15,30,2,11,6,9,7,7,6,2,10,5,9,5,
1570088786,2019-10-03 07:46:26.438,Not acquired,Acquired,Acquired,Acquired,Acquired,Acquired,Acquired,Acquired,Acquired,Acquired,Acquired,Acquired,2.92662528E2,2.97936992E2,1.1341543999999999E2,1.79612224E2,2.47905216E2,6.8584816E1,6.5723576E1,1.69850992E2,3.5840016E1,2.6638768E2,3.5189499999999995E1,3.2303391999999997E2,1.414668E1,4.9230452E1,5.5483104E1,4.1063579999999995E1,2.4207952E1,4.5542392E1,2.3711527999999998E1,1.5645482E1,8.5267816E1,9.383123E0,7.26274E0,8.898807E0,7,8,10,16,18,20,21,26,27,11,15,30,2,11,6,9,7,7,6,2,10,5,9,5,
1570088846,2019-10-03 07:47:26.454,Not acquired,Acquired,Acquired,Acquired,Acquired,Acquired,Acquired,Acquired,Acquired,Acquired,Acquired,Acquired,2.92662528E2,2.97936992E2,1.1341543999999999E2,1.79612224E2,2.47905216E2,6.8584816E1,6.5723576E1,1.69850992E2,3.5840016E1,2.6638768E2,3.5189499999999995E1,3.2303391999999997E2,1.414668E1,4.9230452E1,5.5483104E1,4.1063579999999995E1,2.4207952E1,4.5542392E1,2.3711527999999998E1,1.5645482E1,8.5267816E1,9.383123E0,7.26274E0,8.898807E0,7,8,10,16,18,20,21,26,27,11,15,30,2,11,6,9,7,7,6,2,10,5,9,5,
1570088906,2019-10-03 07:48:26.438,Not acquired,Acquired,Acquired,Acquired,Acquired,Acquired,Acquired,Acquired,Acquired,Acquired,Acquired,Acquired,2.92662528E2,2.97936992E2,1.1341543999999999E2,1.79612224E2,2.47905216E2,6.8584816E1,6.5723576E1,1.69850992E2,3.5840016E1,2.6638768E2,3.5189499999999995E1,3.2303391999999997E2,1.414668E1,4.9230452E1,5.5483104E1,4.1063579999999995E1,2.4207952E1,4.5542392E1,2.3711527999999998E1,1.5645482E1,8.5267816E1,9.383123E0,7.26274E0,8.898807E0,7,8,10,16,18,20,21,26,27,11,15,30,2,11,6,9,7,7,6,2,10,5,9,5,
1570088966,2019-10-03 07:49:26.438,Not acquired,Acquired,Acquired,Acquired,Acquired,Acquired,Acquired,Acquired,Acquired,Acquired,Acquired,Acquired,2.92662528E2,2.97936992E2,1.1341543999999999E2,1.79612224E2,2.47905216E2,6.8584816E1,6.5723576E1,1.69850992E2,3.5840016E1,2.6638768E2,3.5189499999999995E1,3.2303391999999997E2,1.414668E1,4.9230452E1,5.5483104E1,4.1063579999999995E1,2.4207952E1,4.5542392E1,2.3711527999999998E1,1.5645482E1,8.5267816E1,9.383123E0,7.26274E0,8.898807E0,7,8,10,16,18,20,21,26,27,11,15,30,2,11,6,9,7,7,6,2,10,5,9,5,
1570089026,2019-10-03 07:50:26.438,Not acquired,Acquired,Acquired,Acquired,Acquired,Acquired,Acquired,Acquired,Acquired,Acquired,Acquired,Acquired,2.92662528E2,2.97936992E2,1.1341543999999999E2,1.79612224E2,2.47905216E2,6.8584816E1,6.5723576E1,1.69850992E2,3.5840016E1,2.6638768E2,3.5189499999999995E1,3.2303391999999997E2,1.414668E1,4.9230452E1,5.5483104E1,4.1063579999999995E1,2.4207952E1,4.5542392E1,2.3711527999999998E1,1.5645482E1,8.5267816E1,9.383123E0,7.26274E0,8.898807E0,7,8,10,16,18,20,21,26,27,11,15,30,2,11,6,9,7,7,6,2,10,5,9,5,
1570089086,2019-10-03 07:51:26.438,Not acquired,Acquired,Acquired,Acquired,Acquired,Acquired,Acquired,Acquired,Acquired,Acquired,Acquired,Acquired,2.92662528E2,2.97936992E2,1.1341543999999999E2,1.79612224E2,2.47905216E2,6.8584816E1,6.5723576E1,1.69850992E2,3.5840016E1,2.6638768E2,3.5189499999999995E1,3.2303391999999997E2,1.414668E1,4.9230452E1,5.5483104E1,4.1063579999999995E1,2.4207952E1,4.5542392E1,2.3711527999999998E1,1.5645482E1,8.5267816E1,9.383123E0,7.26274E0,8.898807E0,7,8,10,16,18,20,21,26,27,11,15,30,2,11,6,9,7,7,6,2,10,5,9,5,
1570089146,2019-10-03 07:52:26.441,Not acquired,Acquired,Acquired,Acquired,Acquired,Acquired,Acquired,Acquired,Acquired,Acquired,Acquired,Acquired,2.92662528E2,2.97936992E2,1.1341543999999999E2,1.79612224E2,2.47905216E2,6.8584816E1,6.5723576E1,1.69850992E2,3.5840016E1,2.6638768E2,3.5189499999999995E1,3.2303391999999997E2,1.414668E1,4.9230452E1,5.5483104E1,4.1063579999999995E1,2.4207952E1,4.5542392E1,2.3711527999999998E1,1.5645482E1,8.5267816E1,9.383123E0,7.26274E0,8.898807E0,7,8,10,16,18,20,21,26,27,11,15,30,2,11,6,9,7,7,6,2,10,5,9,5,
1570089206,2019-10-03 07:53:26.439,Not acquired,Acquired,Acquired,Acquired,Acquired,Acquired,Acquired,Acquired,Acquired,Acquired,Acquired,Acquired,2.92662528E2,2.97936992E2,1.1341543999999999E2,1.79612224E2,2.47905216E2,6.8584816E1,6.5723576E1,1.69850992E2,3.5840016E1,2.6638768E2,3.5189499999999995E1,3.2303391999999997E2,1.414668E1,4.9230452E1,5.5483104E1,4.1063579999999995E1,2.4207952E1,4.5542392E1,2.3711527999999998E1,1.5645482E1,8.5267816E1,9.383123E0,7.26274E0,8.898807E0,7,8,10,16,18,20,21,26,27,11,15,30,2,11,6,9,7,7,6,2,10,5,9,5,
1570089266,2019-10-03 07:54:26.438,Not acquired,Acquired,Acquired,Acquired,Acquired,Acquired,Acquired,Acquired,Acquired,Acquired,Acquired,Acquired,2.92662528E2,2.97936992E2,1.1341543999999999E2,1.79612224E2,2.47905216E2,6.8584816E1,6.5723576E1,1.69850992E2,3.5840016E1,2.6638768E2,3.5189499999999995E1,3.2303391999999997E2,1.414668E1,4.9230452E1,5.5483104E1,4.1063579999999995E1,2.4207952E1,4.5542392E1,2.3711527999999998E1,1.5645482E1,8.5267816E1,9.383123E0,7.26274E0,8.898807E0,7,8,10,16,18,20,21,26,27,11,15,30,2,11,6,9,7,7,6,2,10,5,9,5,
1570089326,2019-10-03 07:55:26.438,Not acquired,Acquired,Acquired,Acquired,Acquired,Acquired,Acquired,Acquired,Acquired,Acquired,Acquired,Acquired,2.92662528E2,2.97936992E2,1.1341543999999999E2,1.79612224E2,2.47905216E2,6.8584816E1,6.5723576E1,1.69850992E2,3.5840016E1,2.6638768E2,3.5189499999999995E1,3.2303391999999997E2,1.414668E1,4.9230452E1,5.5483104E1,4.1063579999999995E1,2.4207952E1,4.5542392E1,2.3711527999999998E1,1.5645482E1,8.5267816E1,9.383123E0,7.26274E0,8.898807E0,7,8,10,16,18,20,21,26,27,11,15,30,2,11,6,9,7,7,6,2,10,5,9,5,
1570089386,2019-10-03 07:56:26.438,Not acquired,Acquired,Acquired,Acquired,Acquired,Acquired,Acquired,Acquired,Acquired,Acquired,Acquired,Acquired,2.92662528E2,2.97936992E2,1.1341543999999999E2,1.79612224E2,2.47905216E2,6.8584816E1,6.5723576E1,1.69850992E2,3.5840016E1,2.6638768E2,3.5189499999999995E1,3.2303391999999997E2,1.414668E1,4.9230452E1,5.5483104E1,4.1063579999999995E1,2.4207952E1,4.5542392E1,2.3711527999999998E1,1.5645482E1,8.5267816E1,9.383123E0,7.26274E0,8.898807E0,7,8,10,16,18,20,21,26,27,11,15,30,2,11,6,9,7,7,6,2,10,5,9,5,
1570089446,2019-10-03 07:57:26.438,Not acquired,Acquired,Acquired,Acquired,Acquired,Acquired,Acquired,Acquired,Acquired,Acquired,Acquired,Acquired,2.92662528E2,2.97936992E2,1.1341543999999999E2,1.79612224E2,2.47905216E2,6.8584816E1,6.5723576E1,1.69850992E2,3.5840016E1,2.6638768E2,3.5189499999999995E1,3.2303391999999997E2,1.414668E1,4.9230452E1,5.5483104E1,4.1063579999999995E1,2.4207952E1,4.5542392E1,2.3711527999999998E1,1.5645482E1,8.5267816E1,9.383123E0,7.26274E0,8.898807E0,7,8,10,16,18,20,21,26,27,11,15,30,2,11,6,9,7,7,6,2,10,5,9,5,
1570089506,2019-10-03 07:58:26.438,Not acquired,Acquired,Acquired,Acquired,Acquired,Acquired,Acquired,Acquired,Acquired,Acquired,Acquired,Acquired,2.92662528E2,2.97936992E2,1.1341543999999999E2,1.79612224E2,2.47905216E2,6.8584816E1,6.5723576E1,1.69850992E2,3.5840016E1,2.6638768E2,3.5189499999999995E1,3.2303391999999997E2,1.414668E1,4.9230452E1,5.5483104E1,4.1063579999999995E1,2.4207952E1,4.5542392E1,2.3711527999999998E1,1.5645482E1,8.5267816E1,9.383123E0,7.26274E0,8.898807E0,7,8,10,16,18,20,21,26,27,11,15,30,2,11,6,9,7,7,6,2,10,5,9,5,
1570089566,2019-10-03 07:59:26.439,Not acquired,Acquired,Acquired,Acquired,Acquired,Acquired,Acquired,Acquired,Acquired,Acquired,Acquired,Acquired,2.92662528E2,2.97936992E2,1.1341543999999999E2,1.79612224E2,2.47905216E2,6.8584816E1,6.5723576E1,1.69850992E2,3.5840016E1,2.6638768E2,3.5189499999999995E1,3.2303391999999997E2,1.414668E1,4.9230452E1,5.5483104E1,4.1063579999999995E1,2.4207952E1,4.5542392E1,2.3711527999999998E1,1.5645482E1,8.5267816E1,9.383123E0,7.26274E0,8.898807E0,7,8,10,16,18,20,21,26,27,11,15,30,2,11,6,9,7,7,6,2,10,5,9,5,
