Time(longsecs),Time(UTC),Supply Voltage(mV),Temperature(&deg;C),NMX Bus Current(mA),Sensor Current(mA),Serial Port Current(mA),Controller Current(mA),Digitizer Current(mA),
1572116420,2019-10-26 19:00:20.664,16406,2.5044281E1,0,11,0,40,40,
1572116480,2019-10-26 19:01:20.664,16433,2.503894E1,0,13,0,46,36,
1572116540,2019-10-26 19:02:20.664,16448,2.5060272E1,0,9,0,35,40,
1572116600,2019-10-26 19:03:20.696,16433,2.5079437E1,0,11,0,36,41,
1572116660,2019-10-26 19:04:20.663,16448,2.4859955E1,0,8,0,38,34,
1572116720,2019-10-26 19:05:20.663,16393,2.5003784E1,0,9,0,35,37,
1572116780,2019-10-26 19:06:20.664,16420,2.4742737E1,0,9,0,37,36,
1572116840,2019-10-26 19:07:20.663,16420,2.4981415E1,0,7,0,36,41,
1572116900,2019-10-26 19:08:20.663,16433,2.4857819E1,0,8,0,37,36,
1572116960,2019-10-26 19:09:20.673,16433,2.4842896E1,0,9,0,37,39,
1572117020,2019-10-26 19:10:20.663,16433,2.480133E1,0,10,0,38,37,
1572117080,2019-10-26 19:11:20.698,16420,2.474701E1,0,9,0,37,36,
1572117140,2019-10-26 19:12:20.663,16433,2.4849304E1,0,11,0,32,35,
1572117200,2019-10-26 19:13:20.663,16433,2.460849E1,0,11,0,36,41,
1572117260,2019-10-26 19:14:20.663,16433,2.4728882E1,0,9,0,31,40,
1572117320,2019-10-26 19:15:20.663,16433,2.464151E1,0,9,0,33,38,
1572117380,2019-10-26 19:16:20.663,16420,2.470224E1,0,11,0,36,39,
1572117440,2019-10-26 19:17:20.663,16433,2.4498749E1,0,9,0,36,36,
1572117500,2019-10-26 19:18:20.663,16461,2.4672424E1,0,5,0,36,35,
1572117560,2019-10-26 19:19:20.664,16353,2.465857E1,0,9,0,36,36,
1572117620,2019-10-26 19:20:20.663,16433,2.452005E1,0,6,0,32,36,
1572117680,2019-10-26 19:21:20.663,16433,2.4620209E1,0,7,0,37,42,
1572117740,2019-10-26 19:22:20.663,16393,2.4395386E1,0,5,0,36,37,
1572117800,2019-10-26 19:23:20.663,16433,2.4585052E1,0,7,0,32,36,
1572117860,2019-10-26 19:24:20.678,16420,2.4415619E1,0,9,0,36,36,
1572117920,2019-10-26 19:25:20.663,16393,2.445398E1,0,7,0,31,36,
1572117980,2019-10-26 19:26:20.663,16420,2.4333588E1,0,7,0,37,37,
1572118040,2019-10-26 19:27:20.663,16433,2.428244E1,0,9,0,36,39,
1572118100,2019-10-26 19:28:20.663,16420,2.42995E1,0,9,0,36,34,
1572118160,2019-10-26 19:29:20.663,16433,2.4308014E1,0,7,0,32,43,
1572118220,2019-10-26 19:30:20.663,16433,2.4317596E1,0,9,0,38,34,
1572118280,2019-10-26 19:31:20.663,16433,2.4379395E1,0,9,0,37,36,
1572118340,2019-10-26 19:32:20.663,16433,2.4256866E1,0,6,0,35,36,
1572118400,2019-10-26 19:33:20.665,16433,2.44263E1,0,6,0,36,37,
1572118460,2019-10-26 19:34:20.664,16420,2.4113037E1,0,8,0,45,39,
1572118520,2019-10-26 19:35:20.664,16433,2.4268585E1,0,7,0,41,40,
1572118580,2019-10-26 19:36:20.665,16433,2.4250488E1,0,8,0,37,39,
1572118640,2019-10-26 19:37:20.663,16420,2.40672E1,0,9,0,37,39,
1572118700,2019-10-26 19:38:20.663,16420,2.4124756E1,0,9,0,36,42,
1572118760,2019-10-26 19:39:20.663,16393,2.4015015E1,0,8,0,37,38,
1572118820,2019-10-26 19:40:20.663,16433,2.4095978E1,0,9,0,31,40,
1572118880,2019-10-26 19:41:20.663,16420,2.411728E1,0,11,0,37,35,
1572118940,2019-10-26 19:42:20.663,16420,2.3875427E1,0,9,0,36,35,
1572119000,2019-10-26 19:43:20.663,16393,2.4010742E1,0,4,0,38,40,
1572119060,2019-10-26 19:44:20.697,16420,2.4189758E1,0,8,0,35,34,
1572119120,2019-10-26 19:45:20.663,16433,2.391803E1,0,16,0,32,39,
1572119180,2019-10-26 19:46:20.665,16420,2.4154572E1,0,6,0,33,36,
1572119240,2019-10-26 19:47:20.663,16420,2.39628E1,0,9,0,36,36,
1572119300,2019-10-26 19:48:20.663,16420,2.3805084E1,0,6,0,38,41,
1572119360,2019-10-26 19:49:20.663,16393,2.395108E1,0,11,0,37,40,
1572119420,2019-10-26 19:50:20.665,16433,2.3822144E1,0,8,0,33,38,
1572119480,2019-10-26 19:51:20.663,16420,2.380191E1,0,11,0,37,37,
1572119540,2019-10-26 19:52:20.663,16420,2.3948944E1,0,7,0,37,40,
1572119600,2019-10-26 19:53:20.663,16433,2.369748E1,0,9,0,31,39,
1572119660,2019-10-26 19:54:20.663,16420,2.3820007E1,0,6,0,37,39,
1572119720,2019-10-26 19:55:20.663,16433,2.3859436E1,0,9,0,32,33,
1572119780,2019-10-26 19:56:20.663,16448,2.3731567E1,0,9,0,37,39,
1572119840,2019-10-26 19:57:20.663,16420,2.3631409E1,0,7,0,37,38,
1572119900,2019-10-26 19:58:20.663,16420,2.3972382E1,0,7,0,37,39,
1572119960,2019-10-26 19:59:20.663,16420,2.3704926E1,0,11,0,37,38,
