Time(longsecs),Time(UTC),External SOH Voltage 1(V),External SOH Voltage 2(V),External SOH Voltage 3(V),External SOH Voltage 4(V),Sensor SOH Voltage 1(V),Sensor SOH Voltage 2(V),Sensor SOH Voltage 3(V),
1572105620,2019-10-26 16:00:20.663,1.4734268E-4,-7.927418E-3,-8.368492E-4,-1.8975735E-3,3.9696693E-1,3.91984E-1,4.0018845E-1,
1572105680,2019-10-26 16:01:20.663,-6.1059E-4,-8.668423E-3,-1.9738674E-3,-2.1846294E-3,3.9194107E-1,3.864956E-1,3.9480114E-1,
1572105740,2019-10-26 16:02:20.663,-4.4488907E-4,-8.324146E-3,-1.6987324E-3,-2.1381378E-3,3.9330864E-1,3.880024E-1,3.9565563E-1,
1572105800,2019-10-26 16:03:20.663,-6.0868263E-4,-7.852316E-3,-1.3723373E-3,-2.2075176E-3,3.9215946E-1,3.8831425E-1,3.9565754E-1,
1572105860,2019-10-26 16:04:20.664,1.2469292E-4,-7.795334E-3,-1.1777878E-3,-1.5501976E-3,3.9386368E-1,3.8912964E-1,3.965168E-1,
1572105920,2019-10-26 16:05:20.663,1.7881393E-3,-6.0830116E-3,1.0836124E-3,6.9761276E-4,3.9423847E-1,3.8880157E-1,3.9719772E-1,
1572105980,2019-10-26 16:06:20.663,-5.404949E-4,-8.144617E-3,-1.958847E-3,-1.9135475E-3,3.9230728E-1,3.8783932E-1,3.9564323E-1,
1572106040,2019-10-26 16:07:20.663,2.7656555E-5,-7.647991E-3,-1.5659332E-3,-1.5592575E-3,3.955202E-1,3.894472E-1,3.9813614E-1,
1572106100,2019-10-26 16:08:20.664,2.110958E-3,-5.56612E-3,4.5871735E-4,1.7213821E-4,3.9604282E-1,3.8926506E-1,3.9791393E-1,
1572106160,2019-10-26 16:09:20.664,-2.2964478E-3,-9.791136E-3,-3.3643246E-3,-4.2409897E-3,3.8666153E-1,3.8224125E-1,3.8967705E-1,
1572106220,2019-10-26 16:10:20.663,2.6464462E-5,-8.000612E-3,-1.16539E-3,-1.2645721E-3,3.936634E-1,3.8790607E-1,3.973713E-1,
1572106280,2019-10-26 16:11:20.663,1.9564629E-3,-5.7709217E-3,8.535385E-5,2.6392937E-4,4.023676E-1,3.9709473E-1,4.0671062E-1,
1572106340,2019-10-26 16:12:20.663,2.2468567E-3,-4.8151016E-3,8.85725E-4,7.7199936E-4,4.0231228E-1,3.9594746E-1,4.0547085E-1,
1572106400,2019-10-26 16:13:20.663,-8.0513954E-4,-8.497715E-3,-1.7483234E-3,-1.8744469E-3,3.931036E-1,3.8845348E-1,3.9477444E-1,
1572106460,2019-10-26 16:14:20.663,1.3165474E-3,-5.8088303E-3,4.887581E-4,-3.027916E-5,3.9939022E-1,3.9361668E-1,4.0252018E-1,
1572106520,2019-10-26 16:15:20.663,-4.0507317E-4,-7.7097416E-3,-1.1787415E-3,-1.4064312E-3,3.9420605E-1,3.89369E-1,3.9561367E-1,
1572106580,2019-10-26 16:16:20.663,1.5087128E-3,-6.1740875E-3,5.877018E-4,1.3899803E-4,3.9925003E-1,3.9540195E-1,4.017315E-1,
1572106640,2019-10-26 16:17:20.663,1.20162964E-4,-7.2631836E-3,-1.6229153E-3,-1.868248E-3,3.8972664E-1,3.8440323E-1,3.9198875E-1,
1572106700,2019-10-26 16:18:20.663,1.837492E-3,-5.7008266E-3,6.31094E-4,3.8838387E-4,3.9369106E-1,3.8738346E-1,3.9605427E-1,
1572106760,2019-10-26 16:19:20.663,-7.338524E-4,-8.37636E-3,-1.6822815E-3,-2.4421215E-3,3.92622E-1,3.8735008E-1,3.9610672E-1,
1572106820,2019-10-26 16:20:20.663,-8.08239E-5,-7.5132847E-3,-1.019001E-3,-1.1110306E-3,3.948593E-1,3.8858604E-1,3.9734554E-1,
1572106880,2019-10-26 16:21:20.663,1.9454956E-4,-7.012844E-3,-1.2214184E-3,-1.5525818E-3,3.9784718E-1,3.9321804E-1,4.0144348E-1,
1572106940,2019-10-26 16:22:20.663,-4.5847893E-4,-8.694172E-3,-1.8789768E-3,-2.430439E-3,3.8790035E-1,3.845892E-1,3.9100742E-1,
1572107000,2019-10-26 16:23:20.663,-3.2496452E-4,-7.2596073E-3,-8.416176E-4,-1.513958E-3,3.9293003E-1,3.89019E-1,3.963108E-1,
1572107060,2019-10-26 16:24:20.663,-8.7046623E-4,-7.941723E-3,-1.563549E-3,-2.2156239E-3,3.9225388E-1,3.8801956E-1,3.948841E-1,
1572107120,2019-10-26 16:25:20.663,-5.683899E-4,-8.595228E-3,-2.0318031E-3,-1.9438267E-3,3.8816547E-1,3.8428116E-1,3.911724E-1,
1572107180,2019-10-26 16:26:20.663,-4.635811E-3,-1.0091782E-2,-3.4229755E-3,-3.8580894E-3,3.8302994E-1,3.7806225E-1,3.8488674E-1,
1572107240,2019-10-26 16:27:20.665,1.1205673E-5,-7.6868534E-3,-1.2972355E-3,-1.6334057E-3,3.9381218E-1,3.889475E-1,3.9653492E-1,
1572107300,2019-10-26 16:28:20.663,1.5864372E-3,-6.1631203E-3,6.36816E-4,-7.4625015E-5,4.0169907E-1,3.962946E-1,4.042883E-1,
1572107360,2019-10-26 16:29:20.663,1.8818378E-3,-5.8915615E-3,3.259182E-4,-9.4890594E-5,3.9919472E-1,3.9333344E-1,4.0191078E-1,
1572107420,2019-10-26 16:30:20.663,-2.5129318E-3,-1.006341E-2,-3.2675266E-3,-4.383087E-3,3.8675976E-1,3.8050365E-1,3.8909912E-1,
1572107480,2019-10-26 16:31:20.665,-2.7565956E-3,-1.0084152E-2,-3.7457943E-3,-3.8149357E-3,3.8221455E-1,3.777151E-1,3.845539E-1,
1572107540,2019-10-26 16:32:20.663,1.692772E-5,-7.3547363E-3,-1.3253689E-3,-1.4159679E-3,3.8990307E-1,3.8492203E-1,3.9274883E-1,
1572107600,2019-10-26 16:33:20.663,-5.605221E-4,-8.518934E-3,-1.6641617E-3,-2.1982193E-3,3.8869667E-1,3.8279915E-1,3.9167976E-1,
1572107660,2019-10-26 16:34:20.676,2.207756E-4,-7.247448E-3,-1.4910698E-3,-1.6565323E-3,3.9371777E-1,3.8854027E-1,3.950405E-1,
1572107720,2019-10-26 16:35:20.664,-8.6545944E-5,-7.7781677E-3,-1.2624264E-3,-1.4679432E-3,3.933773E-1,3.8816452E-1,3.972311E-1,
1572107780,2019-10-26 16:36:20.664,-2.4163723E-3,-1.0033369E-2,-3.6010742E-3,-4.139662E-3,3.8688374E-1,3.8120365E-1,3.8925838E-1,
1572107840,2019-10-26 16:37:20.663,-1.4162064E-4,-7.7872276E-3,-1.1398792E-3,-1.3885498E-3,3.9533806E-1,3.9049911E-1,3.981638E-1,
1572107900,2019-10-26 16:38:20.663,-2.5849342E-3,-1.0080099E-2,-3.815174E-3,-3.8900375E-3,3.8059235E-1,3.7596893E-1,3.830881E-1,
1572107960,2019-10-26 16:39:20.666,1.6860962E-3,-5.6438446E-3,2.7751923E-4,3.4499168E-4,3.9446735E-1,3.88669E-1,3.985119E-1,
1572108020,2019-10-26 16:40:20.663,1.7266273E-3,-6.147623E-3,5.891323E-4,6.659031E-4,4.0075874E-1,3.9555264E-1,4.0334415E-1,
1572108080,2019-10-26 16:41:20.663,1.5125275E-3,-5.690098E-3,3.900528E-4,2.9873848E-4,3.9510727E-1,3.89719E-1,3.9893913E-1,
1572108140,2019-10-26 16:42:20.663,-9.0408325E-4,-8.048296E-3,-2.0318031E-3,-2.0003319E-3,3.934679E-1,3.8700867E-1,3.9503288E-1,
1572108200,2019-10-26 16:43:20.663,-2.522707E-3,-1.0257959E-2,-3.597021E-3,-4.255295E-3,3.8756752E-1,3.816433E-1,3.88937E-1,
1572108260,2019-10-26 16:44:20.663,2.2506714E-4,-7.6584816E-3,-1.6102791E-3,-1.6303062E-3,3.89143E-1,3.8454914E-1,3.9231873E-1,
1572108320,2019-10-26 16:45:20.663,-9.613037E-4,-8.499622E-3,-1.8029213E-3,-1.901865E-3,3.935995E-1,3.8793278E-1,3.9488602E-1,
1572108380,2019-10-26 16:46:20.663,-9.4747543E-4,-8.386612E-3,-2.085209E-3,-1.8522739E-3,3.8796425E-1,3.833847E-1,3.9055538E-1,
1572108440,2019-10-26 16:47:20.663,3.1614304E-4,-7.3275566E-3,-8.8739395E-4,-1.3349056E-3,3.885212E-1,3.829031E-1,3.912201E-1,
1572108500,2019-10-26 16:48:20.663,1.6667843E-3,-6.069422E-3,5.38826E-4,3.3283234E-4,3.922243E-1,3.8808823E-1,3.9580345E-1,
1572108560,2019-10-26 16:49:20.663,2.057314E-3,-5.914688E-3,7.946491E-4,4.1007996E-4,3.986082E-1,3.9446163E-1,4.031391E-1,
1572108620,2019-10-26 16:50:20.668,-7.748604E-5,-7.809162E-3,-1.5053749E-3,-1.6007423E-3,3.877592E-1,3.8292885E-1,3.9088917E-1,
1572108680,2019-10-26 16:51:20.663,1.7411709E-3,-6.0458183E-3,5.340576E-5,2.0337105E-4,3.9519978E-1,3.8934612E-1,3.9762497E-1,
1572108740,2019-10-26 16:52:20.663,-1.2660027E-4,-7.7815056E-3,-1.3165474E-3,-1.2373924E-3,3.8878727E-1,3.837576E-1,3.9215183E-1,
1572108800,2019-10-26 16:53:20.663,-2.2742748E-3,-1.0069132E-2,-3.7257671E-3,-3.793478E-3,3.8582802E-1,3.8124084E-1,3.887329E-1,
1572108860,2019-10-26 16:54:20.663,-1.835823E-4,-7.5671673E-3,-1.049757E-3,-1.2497902E-3,3.9336205E-1,3.8902187E-1,3.9772415E-1,
1572108920,2019-10-26 16:55:20.665,-5.1498413E-5,-7.871628E-3,-1.5776157E-3,-1.6450882E-3,3.8925362E-1,3.8382053E-1,3.9319897E-1,
1572108980,2019-10-26 16:56:20.663,-2.7151108E-3,-1.0231972E-2,-3.5617352E-3,-3.875494E-3,3.7986755E-1,3.7552547E-1,3.8347912E-1,
1572109040,2019-10-26 16:57:20.663,5.660057E-4,-8.032322E-3,-1.1572838E-3,-1.5277863E-3,3.8682938E-1,3.831339E-1,3.911543E-1,
1572109100,2019-10-26 16:58:20.665,-2.5494099E-3,-9.88102E-3,-3.2873154E-3,-3.6067963E-3,3.836279E-1,3.777542E-1,3.8634396E-1,
1572109160,2019-10-26 16:59:20.663,-3.9672852E-4,-8.190155E-3,-2.0515919E-3,-2.111435E-3,3.8971615E-1,3.838997E-1,3.927107E-1,
