Time(longsecs),Time(UTC),Supply Voltage(mV),Temperature(&deg;C),NMX Bus Current(mA),Sensor Current(mA),Serial Port Current(mA),Controller Current(mA),Digitizer Current(mA),
1570132845,2019-10-03 20:00:45.722,16420,2.031662E1,0,12,0,31,33,
1570132905,2019-10-03 20:01:45.722,16393,2.0479645E1,0,9,0,31,34,
1570132965,2019-10-03 20:02:45.722,16420,2.03667E1,0,8,0,36,36,
1570133025,2019-10-03 20:03:45.722,16420,2.0490295E1,0,9,0,36,36,
1570133085,2019-10-03 20:04:45.722,16420,2.0270813E1,0,7,0,38,40,
1570133145,2019-10-03 20:05:45.722,16420,2.0514801E1,0,14,0,38,34,
1570133205,2019-10-03 20:06:45.722,16420,2.0462616E1,0,9,0,32,35,
1570133265,2019-10-03 20:07:45.722,16420,2.0336884E1,0,11,0,37,35,
1570133325,2019-10-03 20:08:45.722,16420,2.0578735E1,0,9,0,36,33,
1570133385,2019-10-03 20:09:45.722,16406,2.0473267E1,0,9,0,39,38,
1570133445,2019-10-03 20:10:45.722,16433,2.0478577E1,14,9,0,31,39,
1570133505,2019-10-03 20:11:45.722,16393,2.0287872E1,0,9,0,31,37,
1570133565,2019-10-03 20:12:45.722,16420,2.0249512E1,0,9,0,36,39,
1570133625,2019-10-03 20:13:45.722,16406,2.0295319E1,0,9,0,37,36,
1570133685,2019-10-03 20:14:45.754,16420,2.0268677E1,0,10,0,36,35,
1570133745,2019-10-03 20:15:45.722,16420,2.0210083E1,0,5,0,33,38,
1570133805,2019-10-03 20:16:45.722,16420,2.0403992E1,0,11,0,33,34,
1570133865,2019-10-03 20:17:45.722,16406,2.0154663E1,0,9,0,37,35,
1570133925,2019-10-03 20:18:45.722,16406,2.0429565E1,0,13,0,45,36,
1570133985,2019-10-03 20:19:45.722,16406,2.0144012E1,0,6,0,45,38,
1570134045,2019-10-03 20:20:45.722,16420,2.0197296E1,0,8,0,31,41,
1570134105,2019-10-03 20:21:45.723,16406,2.0392273E1,0,7,0,33,42,
1570134165,2019-10-03 20:22:45.722,16406,2.0209015E1,0,6,0,36,40,
1570134225,2019-10-03 20:23:45.722,16448,2.027826E1,0,8,0,36,39,
1570134285,2019-10-03 20:24:45.722,16406,2.0128021E1,0,5,0,38,35,
1570134345,2019-10-03 20:25:45.722,16406,2.0279327E1,0,13,0,32,35,
1570134405,2019-10-03 20:26:45.722,16406,2.03891E1,0,10,0,35,39,
1570134465,2019-10-03 20:27:45.722,16406,2.032727E1,0,9,0,38,40,
1570134525,2019-10-03 20:28:45.722,16406,2.0121643E1,0,9,0,38,39,
1570134585,2019-10-03 20:29:45.723,16406,2.023352E1,0,9,0,36,40,
1570134645,2019-10-03 20:30:45.722,16406,2.0161072E1,0,6,0,31,36,
1570134705,2019-10-03 20:31:45.722,16406,2.0088623E1,0,8,0,31,39,
1570134765,2019-10-03 20:32:45.722,16406,2.0406128E1,0,8,0,38,36,
1570134825,2019-10-03 20:33:45.722,16406,2.0132294E1,0,9,0,38,39,
1570134885,2019-10-03 20:34:45.724,16406,2.02005E1,0,8,0,38,40,
1570134945,2019-10-03 20:35:45.723,16406,2.0275085E1,0,9,0,36,36,
1570135005,2019-10-03 20:36:45.722,16326,2.0196228E1,0,9,0,32,39,
1570135065,2019-10-03 20:37:45.724,16406,2.0202606E1,0,10,0,38,34,
1570135125,2019-10-03 20:38:45.722,16406,2.0131226E1,0,9,0,36,35,
1570135185,2019-10-03 20:39:45.722,16393,2.0081146E1,0,7,0,36,37,
1570135245,2019-10-03 20:40:45.722,16406,2.0247375E1,0,9,0,38,33,
1570135305,2019-10-03 20:41:45.722,16406,1.9905334E1,0,8,0,31,39,
1570135365,2019-10-03 20:42:45.722,16406,1.995755E1,0,9,0,29,38,
1570135425,2019-10-03 20:43:45.722,16406,2.0221802E1,0,11,0,38,38,
1570135485,2019-10-03 20:44:45.722,16406,2.0168518E1,0,9,0,36,33,
1570135545,2019-10-03 20:45:45.722,16406,2.0141876E1,0,9,0,35,42,
1570135605,2019-10-03 20:46:45.722,16420,2.0183441E1,0,12,0,35,36,
1570135665,2019-10-03 20:47:45.722,16393,1.9953308E1,0,9,0,36,36,
1570135725,2019-10-03 20:48:45.723,16393,2.0331543E1,0,9,0,35,36,
1570135785,2019-10-03 20:49:45.722,16393,2.0199432E1,0,4,0,38,35,
1570135845,2019-10-03 20:50:45.722,16393,1.9859528E1,0,9,0,28,37,
1570135905,2019-10-03 20:51:45.722,16420,2.0052399E1,0,5,0,38,37,
1570135965,2019-10-03 20:52:45.722,16393,2.0097137E1,0,10,0,37,37,
1570136025,2019-10-03 20:53:45.722,16448,2.0050262E1,0,8,0,31,39,
1570136085,2019-10-03 20:54:45.723,16393,1.9790283E1,0,8,0,31,36,
1570136145,2019-10-03 20:55:45.722,16393,2.018451E1,0,10,0,31,42,
1570136205,2019-10-03 20:56:45.722,16406,2.0136566E1,0,7,0,33,36,
1570136265,2019-10-03 20:57:45.722,16448,2.0254822E1,0,8,0,31,38,
1570136325,2019-10-03 20:58:45.722,16393,2.0122711E1,0,3,0,37,34,
1570136385,2019-10-03 20:59:45.722,16406,1.9807312E1,0,4,0,37,37,
