Time(longsecs),Time(UTC),External SOH Voltage 1(V),External SOH Voltage 2(V),External SOH Voltage 3(V),External SOH Voltage 4(V),Sensor SOH Voltage 1(V),Sensor SOH Voltage 2(V),Sensor SOH Voltage 3(V),
1571151602,2019-10-15 15:00:02.472,-2.8192997E-3,-1.0373592E-3,-3.0674934E-3,6.3664913E-3,3.9203548E-1,3.9826202E-1,3.9649773E-1,
1571151662,2019-10-15 15:01:02.473,-1.9145012E-3,-3.4236908E-4,-2.8238297E-3,6.6871643E-3,3.911295E-1,3.9838982E-1,3.963766E-1,
1571151722,2019-10-15 15:02:02.472,-1.9216537E-3,-4.3296814E-4,-2.3348331E-3,7.2727203E-3,3.9415646E-1,3.9918995E-1,3.9779758E-1,
1571151782,2019-10-15 15:03:02.472,-2.5494099E-3,-9.2720985E-4,-2.9764175E-3,6.206274E-3,3.925085E-1,3.9654827E-1,3.96245E-1,
1571151842,2019-10-15 15:04:02.472,-4.822731E-3,-2.9964447E-3,-5.1112175E-3,4.554987E-3,3.840351E-1,3.9225483E-1,3.8950348E-1,
1571151902,2019-10-15 15:05:02.472,-2.5732517E-3,-1.0697842E-3,-2.6910305E-3,6.717682E-3,3.9246464E-1,3.986578E-1,3.972597E-1,
1571151962,2019-10-15 15:06:02.472,-4.9037933E-3,-3.1235218E-3,-4.992485E-3,4.297495E-3,3.8832855E-1,3.9455318E-1,3.9223576E-1,
1571152022,2019-10-15 15:07:02.472,-4.7063828E-3,-2.93684E-3,-4.92692E-3,4.245758E-3,3.861494E-1,3.8983822E-1,3.8903236E-1,
1571152082,2019-10-15 15:08:02.472,-2.612114E-3,-1.4002323E-3,-3.0386448E-3,6.0596466E-3,3.920231E-1,3.992777E-1,3.968668E-1,
1571152142,2019-10-15 15:09:02.472,-2.1381378E-3,-4.3797493E-4,-2.22373E-3,7.207155E-3,3.9181805E-1,3.9764786E-1,3.963995E-1,
1571152202,2019-10-15 15:10:02.472,-2.4621487E-3,-1.1520386E-3,-2.8438568E-3,6.4537525E-3,3.94248E-1,3.966999E-1,3.9473724E-1,
1571152262,2019-10-15 15:11:02.472,-4.7593117E-3,-3.2641888E-3,-5.307436E-3,4.4851303E-3,3.8345623E-1,3.897972E-1,3.8818264E-1,
1571152322,2019-10-15 15:12:02.472,6.580353E-5,1.7857552E-3,-2.6273727E-4,9.140968E-3,3.9947605E-1,4.0820217E-1,4.066286E-1,
1571152382,2019-10-15 15:13:02.472,-4.77314E-3,-2.9530525E-3,-5.117893E-3,4.71735E-3,3.862524E-1,3.9291286E-1,3.8958454E-1,
1571152442,2019-10-15 15:14:02.473,-7.9631805E-5,1.6820431E-3,-1.1920929E-4,9.379387E-3,3.9953232E-1,4.060793E-1,4.0414715E-1,
1571152502,2019-10-15 15:15:02.472,-2.6152134E-3,-9.5677376E-4,-3.005743E-3,6.305933E-3,3.9136314E-1,3.9885044E-1,3.9690304E-1,
1571152562,2019-10-15 15:16:02.472,4.386902E-5,1.8410683E-3,-3.4284592E-4,9.153366E-3,3.975916E-1,4.0563774E-1,4.04006E-1,
1571152622,2019-10-15 15:17:02.511,-7.4863434E-5,1.7883778E-3,-3.1232834E-4,9.233475E-3,3.9103317E-1,3.9796925E-1,3.9610195E-1,
1571152682,2019-10-15 15:18:02.472,-4.9204826E-3,-3.3459663E-3,-4.9951077E-3,4.2049885E-3,3.863325E-1,3.939314E-1,3.9221E-1,
1571152742,2019-10-15 15:19:02.472,-2.1021366E-3,-3.1733513E-4,-2.2978783E-3,7.1902275E-3,3.9300346E-1,3.9931297E-1,3.9781666E-1,
1571152802,2019-10-15 15:20:02.472,-4.6343803E-3,-2.8464794E-3,-5.04303E-3,4.2176247E-3,3.8440132E-1,3.9223576E-1,3.90172E-1,
1571152862,2019-10-15 15:21:02.473,-4.7171116E-3,-3.3097267E-3,-5.025625E-3,4.493952E-3,3.8632774E-1,3.9229584E-1,3.914318E-1,
1571152922,2019-10-15 15:22:02.473,-4.596472E-3,-3.026247E-3,-5.05352E-3,4.369974E-3,3.870716E-1,3.908949E-1,3.883562E-1,
1571152982,2019-10-15 15:23:02.472,-2.124548E-3,-3.3307076E-4,-2.4766922E-3,7.291794E-3,3.937788E-1,3.9742565E-1,3.961296E-1,
1571153042,2019-10-15 15:24:02.472,2.5987625E-4,1.6903877E-3,-1.6307831E-4,8.943796E-3,3.9765358E-1,4.0515614E-1,4.0435314E-1,
1571153102,2019-10-15 15:25:02.472,-1.9831657E-3,-4.5728683E-4,-2.0987988E-3,7.200241E-3,3.943882E-1,3.9967823E-1,3.9882374E-1,
1571153162,2019-10-15 15:26:02.472,-2.0768642E-3,-3.9958954E-4,-2.439022E-3,7.094145E-3,3.9121437E-1,3.9825916E-1,3.9578056E-1,
1571153222,2019-10-15 15:27:02.472,-2.785921E-3,-9.3984604E-4,-3.0970573E-3,6.476879E-3,3.9233875E-1,3.9864254E-1,3.975029E-1,
1571153282,2019-10-15 15:28:02.473,-4.537344E-3,-3.2274723E-3,-5.2523613E-3,4.3668747E-3,3.8717747E-1,3.8943386E-1,3.8889694E-1,
1571153342,2019-10-15 15:29:02.472,1.4734268E-4,1.7538071E-3,-1.2373924E-4,8.99601E-3,3.9804268E-1,4.0366745E-1,4.020958E-1,
1571153402,2019-10-15 15:30:02.472,2.9087067E-5,1.5852451E-3,-2.9349327E-4,8.9383125E-3,3.980856E-1,4.0534878E-1,4.0405083E-1,
1571153462,2019-10-15 15:31:02.472,-4.682064E-3,-3.2410622E-3,-4.8367977E-3,4.377842E-3,3.8559914E-1,3.9140987E-1,3.9096642E-1,
1571153522,2019-10-15 15:32:02.473,-2.5923252E-3,-9.67741E-4,-2.6855469E-3,6.406307E-3,3.921299E-1,3.991375E-1,3.9707088E-1,
1571153582,2019-10-15 15:33:02.472,-4.836321E-3,-3.2622814E-3,-5.1898956E-3,4.2128563E-3,3.8373756E-1,3.8963604E-1,3.883953E-1,
1571153642,2019-10-15 15:34:02.472,-4.8265457E-3,-3.0715466E-3,-5.1500797E-3,4.283428E-3,3.8380337E-1,3.8953876E-1,3.8849926E-1,
1571153702,2019-10-15 15:35:02.472,-2.1791458E-3,-1.4162064E-4,-2.3009777E-3,7.0841312E-3,3.931017E-1,3.9982796E-1,3.9819145E-1,
1571153762,2019-10-15 15:36:02.472,-2.7184486E-3,-1.008749E-3,-3.0765533E-3,6.579876E-3,3.9264488E-1,3.9828205E-1,3.973837E-1,
1571153822,2019-10-15 15:37:02.510,-4.5256615E-3,-3.311634E-3,-5.051136E-3,5.115032E-3,3.8599682E-1,3.9289093E-1,3.9090347E-1,
1571153882,2019-10-15 15:38:02.472,3.6239624E-5,1.8293858E-3,-2.2673607E-4,9.131432E-3,4.0032387E-1,4.060011E-1,4.0461063E-1,
1571153942,2019-10-15 15:39:02.505,-2.7828217E-3,-9.6559525E-4,-2.903223E-3,6.399393E-3,3.9065266E-1,3.9692783E-1,3.9388084E-1,
1571154002,2019-10-15 15:40:02.472,-5.0263405E-3,-3.105402E-3,-5.2366257E-3,4.321575E-3,3.8730717E-1,3.931713E-1,3.9271736E-1,
1571154062,2019-10-15 15:41:02.472,-2.1817684E-3,-2.0194054E-4,-2.2919178E-3,7.1241856E-3,3.9327526E-1,3.9885712E-1,3.976822E-1,
1571154122,2019-10-15 15:42:02.472,-1.4543533E-5,1.6493797E-3,-2.1910667E-4,9.2020035E-3,3.9830685E-1,4.0396786E-1,4.0236568E-1,
1571154182,2019-10-15 15:43:02.472,-2.5024414E-3,-1.201868E-3,-3.0920506E-3,6.4201355E-3,3.9221954E-1,3.986864E-1,3.9704418E-1,
1571154242,2019-10-15 15:44:02.472,-1.835823E-4,1.3728142E-3,-7.3194504E-4,9.070158E-3,3.9941025E-1,4.0529442E-1,4.0310955E-1,
1571154302,2019-10-15 15:45:02.473,-4.0769577E-5,1.6629696E-3,-2.720356E-4,8.889675E-3,3.9779186E-1,4.0397835E-1,4.0319347E-1,
1571154362,2019-10-15 15:46:02.472,7.43866E-5,1.5616417E-3,-4.0912628E-4,9.027481E-3,3.976717E-1,4.041729E-1,4.0235806E-1,
1571154422,2019-10-15 15:47:02.472,-2.6299953E-3,-1.1451244E-3,-3.0739307E-3,6.181717E-3,3.923273E-1,3.9863682E-1,3.9772892E-1,
1571154482,2019-10-15 15:48:02.472,-2.1903515E-3,-4.0984154E-4,-2.298832E-3,7.207632E-3,3.913803E-1,3.9827633E-1,3.9654255E-1,
1571154542,2019-10-15 15:49:02.472,3.0994415E-5,1.3406277E-3,-2.7108192E-4,9.133577E-3,4.0115833E-1,4.0781498E-1,4.060068E-1,
1571154602,2019-10-15 15:50:02.472,-2.6946068E-3,-8.3470345E-4,-2.8305054E-3,6.2115192E-3,3.9080715E-1,3.972807E-1,3.9462185E-1,
1571154662,2019-10-15 15:51:02.497,-4.8422813E-3,-2.7430058E-3,-4.928112E-3,6.454468E-3,3.8409996E-1,3.9058208E-1,3.8854218E-1,
1571154722,2019-10-15 15:52:02.472,-1.9993782E-3,-3.0827522E-4,-2.5167465E-3,7.2102547E-3,3.9434147E-1,3.9979553E-1,3.984356E-1,
1571154782,2019-10-15 15:53:02.472,8.249283E-5,1.4772415E-3,-4.1747093E-4,8.897781E-3,3.9432144E-1,3.998232E-1,3.9859962E-1,
1571154842,2019-10-15 15:54:02.472,-2.6993752E-3,-1.2528896E-3,-2.7785301E-3,6.7088604E-3,3.9258003E-1,3.982458E-1,3.9662075E-1,
1571154902,2019-10-15 15:55:02.472,-4.743099E-3,-2.904892E-3,-5.0427914E-3,4.3315887E-3,3.862505E-1,3.922844E-1,3.907671E-1,
1571154962,2019-10-15 15:56:02.511,-3.33786E-5,1.7745495E-3,-3.4165382E-4,9.305477E-3,3.9982033E-1,4.057989E-1,4.0347195E-1,
1571155022,2019-10-15 15:57:02.472,-4.6355724E-3,-3.096342E-3,-4.8208237E-3,5.6345463E-3,3.8010025E-1,3.8597202E-1,3.8417435E-1,
1571155082,2019-10-15 15:58:02.473,-4.778862E-3,-3.0548573E-3,-5.040407E-3,4.103899E-3,3.8601875E-1,3.9208412E-1,3.8998413E-1,
1571155142,2019-10-15 15:59:02.475,-2.6357174E-3,-9.2458725E-4,-2.744913E-3,6.4833164E-3,3.918209E-1,3.9858246E-1,3.9617252E-1,
