Time(longsecs),Time(UTC),Supply Voltage(mV),Temperature(&deg;C),NMX Bus Current(mA),Sensor Current(mA),Serial Port Current(mA),Controller Current(mA),Digitizer Current(mA),
1571148002,2019-10-15 14:00:02.473,12685,2.2299957E1,0,14,0,82,55,
1571148062,2019-10-15 14:01:02.475,12699,2.2321167E1,0,8,0,52,57,
1571148122,2019-10-15 14:02:02.475,12712,2.2010406E1,0,13,0,50,55,
1571148182,2019-10-15 14:03:02.472,12712,2.2333893E1,0,16,0,56,56,
1571148242,2019-10-15 14:04:02.482,12712,2.2157837E1,0,11,0,68,54,
1571148302,2019-10-15 14:05:02.475,12712,2.2236328E1,0,9,0,61,57,
1571148362,2019-10-15 14:06:02.472,12712,2.2269196E1,0,7,0,56,55,
1571148422,2019-10-15 14:07:02.472,12712,2.2218292E1,0,11,0,50,55,
1571148482,2019-10-15 14:08:02.472,12712,2.2051758E1,0,7,0,61,52,
1571148542,2019-10-15 14:09:02.472,12712,2.2185425E1,0,11,0,64,56,
1571148602,2019-10-15 14:10:02.510,12699,2.1934021E1,0,13,0,59,56,
1571148662,2019-10-15 14:11:02.472,12712,2.2276642E1,0,11,0,50,55,
1571148722,2019-10-15 14:12:02.504,12712,2.2095245E1,0,10,0,51,54,
1571148782,2019-10-15 14:13:02.472,12712,2.2096313E1,0,11,0,59,55,
1571148842,2019-10-15 14:14:02.472,12712,2.2185425E1,0,2,0,59,50,
1571148902,2019-10-15 14:15:02.472,12712,2.2007233E1,0,14,0,59,54,
1571148962,2019-10-15 14:16:02.472,12712,2.2363586E1,0,10,0,57,56,
1571149022,2019-10-15 14:17:02.472,12726,2.2005096E1,0,11,0,51,59,
1571149082,2019-10-15 14:18:02.472,12712,2.2011475E1,0,4,0,57,56,
1571149142,2019-10-15 14:19:02.472,12712,2.2115417E1,0,18,0,59,55,
1571149202,2019-10-15 14:20:02.472,12712,2.1961609E1,0,20,0,50,56,
1571149262,2019-10-15 14:21:02.472,12712,2.2228912E1,0,14,0,60,52,
1571149322,2019-10-15 14:22:02.472,12712,2.2226776E1,8,13,0,54,55,
1571149382,2019-10-15 14:23:02.472,12712,2.2101624E1,0,13,0,60,54,
1571149442,2019-10-15 14:24:02.472,12712,2.2092072E1,0,11,0,59,58,
1571149502,2019-10-15 14:25:02.472,12712,2.1909637E1,0,13,0,57,56,
1571149562,2019-10-15 14:26:02.472,12712,2.199237E1,0,11,0,50,58,
1571149622,2019-10-15 14:27:02.472,12712,2.2028442E1,0,13,0,60,53,
1571149682,2019-10-15 14:28:02.472,12712,2.1856598E1,0,11,0,58,57,
1571149742,2019-10-15 14:29:02.472,12712,2.1761139E1,0,27,0,56,53,
1571149802,2019-10-15 14:30:02.472,12712,2.2149353E1,0,11,0,59,53,
1571149862,2019-10-15 14:31:02.472,12712,2.2014648E1,0,9,0,51,56,
1571149922,2019-10-15 14:32:02.473,12712,2.2044342E1,0,13,0,61,52,
1571149982,2019-10-15 14:33:02.473,12699,2.1725098E1,0,10,0,62,56,
1571150042,2019-10-15 14:34:02.472,12712,2.1979645E1,0,11,0,50,57,
1571150102,2019-10-15 14:35:02.472,12712,2.1955261E1,0,12,0,58,56,
1571150162,2019-10-15 14:36:02.475,12712,2.205072E1,0,13,0,50,54,
1571150222,2019-10-15 14:37:02.472,12712,2.1864044E1,0,13,0,50,53,
1571150282,2019-10-15 14:38:02.474,12712,2.1948883E1,0,4,0,50,57,
1571150342,2019-10-15 14:39:02.474,12712,2.1815247E1,0,18,0,59,51,
1571150402,2019-10-15 14:40:02.474,12712,2.1830078E1,0,9,0,58,57,
1571150462,2019-10-15 14:41:02.474,12712,2.198706E1,0,12,0,50,58,
1571150522,2019-10-15 14:42:02.475,12726,2.1835388E1,0,11,0,51,50,
1571150582,2019-10-15 14:43:02.474,12712,2.1803558E1,0,11,0,57,51,
1571150642,2019-10-15 14:44:02.475,12712,2.1943573E1,0,13,0,52,55,
1571150702,2019-10-15 14:45:02.474,12712,2.169751E1,0,11,0,60,52,
1571150762,2019-10-15 14:46:02.474,12712,2.2138733E1,0,13,0,50,57,
1571150822,2019-10-15 14:47:02.474,12712,2.1900085E1,0,6,0,50,55,
1571150882,2019-10-15 14:48:02.474,12712,2.2011475E1,0,10,0,59,56,
1571150942,2019-10-15 14:49:02.474,12712,2.1835388E1,0,9,0,59,58,
1571151002,2019-10-15 14:50:02.476,12712,2.1911774E1,0,0,0,61,55,
1571151062,2019-10-15 14:51:02.474,12726,2.1759033E1,0,13,0,50,53,
1571151122,2019-10-15 14:52:02.474,12726,2.1849182E1,0,9,0,50,56,
1571151182,2019-10-15 14:53:02.474,12712,2.17919E1,0,11,0,59,56,
1571151242,2019-10-15 14:54:02.476,12712,2.1678406E1,0,13,0,60,52,
1571151302,2019-10-15 14:55:02.474,12712,2.1772827E1,0,13,0,58,54,
1571151362,2019-10-15 14:56:02.474,12712,2.1752655E1,0,12,0,50,56,
1571151422,2019-10-15 14:57:02.472,12726,2.1856598E1,0,11,0,51,53,
1571151482,2019-10-15 14:58:02.472,12794,2.161795E1,0,18,0,54,52,
1571151542,2019-10-15 14:59:02.472,12508,2.1806763E1,0,13,0,59,55,
