Time(longsecs),Time(UTC),Supply Voltage(mV),Temperature(&deg;C),NMX Bus Current(mA),Sensor Current(mA),Serial Port Current(mA),Controller Current(mA),Digitizer Current(mA),
1571151602,2019-10-15 15:00:02.472,12712,2.1735687E1,0,14,0,58,53,
1571151662,2019-10-15 15:01:02.473,12712,2.1682648E1,0,13,0,60,57,
1571151722,2019-10-15 15:02:02.472,12672,2.176538E1,0,12,0,50,56,
1571151782,2019-10-15 15:03:02.472,12712,2.1798279E1,0,1,0,57,53,
1571151842,2019-10-15 15:04:02.472,12712,2.1733582E1,0,11,0,59,52,
1571151902,2019-10-15 15:05:02.472,12753,2.1562805E1,0,11,0,59,54,
1571151962,2019-10-15 15:06:02.472,12495,2.181311E1,0,10,0,50,55,
1571152022,2019-10-15 15:07:02.472,12848,2.1712341E1,0,13,0,50,55,
1571152082,2019-10-15 15:08:02.472,12753,2.1350677E1,0,11,0,58,57,
1571152142,2019-10-15 15:09:02.472,12726,2.1457794E1,0,22,0,52,51,
1571152202,2019-10-15 15:10:02.472,12645,2.1587189E1,0,12,0,59,56,
1571152262,2019-10-15 15:11:02.472,12726,2.1499176E1,0,7,0,51,55,
1571152322,2019-10-15 15:12:02.472,12726,2.1572357E1,0,4,0,50,57,
1571152382,2019-10-15 15:13:02.472,12699,2.151825E1,0,11,0,58,56,
1571152442,2019-10-15 15:14:02.473,12712,2.1559631E1,0,11,0,50,55,
1571152502,2019-10-15 15:15:02.472,12712,2.139096E1,0,11,0,58,52,
1571152562,2019-10-15 15:16:02.472,12604,2.1309296E1,0,11,0,50,54,
1571152622,2019-10-15 15:17:02.511,12739,2.1404755E1,0,13,0,50,53,
1571152682,2019-10-15 15:18:02.472,12712,2.1695374E1,0,9,0,58,53,
1571152742,2019-10-15 15:19:02.472,12712,2.147583E1,0,15,0,52,56,
1571152802,2019-10-15 15:20:02.472,12712,2.142279E1,0,13,0,60,53,
1571152862,2019-10-15 15:21:02.473,12712,2.1441895E1,0,11,0,59,52,
1571152922,2019-10-15 15:22:02.473,12699,2.1458862E1,0,12,0,61,57,
1571152982,2019-10-15 15:23:02.472,12712,2.1295502E1,0,13,0,56,57,
1571153042,2019-10-15 15:24:02.472,12712,2.1336884E1,0,5,0,59,51,
1571153102,2019-10-15 15:25:02.472,12712,2.1365509E1,0,11,27,59,55,
1571153162,2019-10-15 15:26:02.472,12712,2.1244598E1,0,11,0,54,50,
1571153222,2019-10-15 15:27:02.472,12712,2.1191559E1,0,12,0,52,55,
1571153282,2019-10-15 15:28:02.473,12712,2.140158E1,0,13,0,50,51,
1571153342,2019-10-15 15:29:02.472,12712,2.130719E1,0,15,0,50,55,
1571153402,2019-10-15 15:30:02.472,12712,2.1368713E1,0,11,0,59,54,
1571153462,2019-10-15 15:31:02.472,12712,2.1202179E1,0,12,0,50,53,
1571153522,2019-10-15 15:32:02.473,12712,2.1193695E1,0,11,0,62,54,
1571153582,2019-10-15 15:33:02.472,12712,2.1202179E1,0,9,0,61,53,
1571153642,2019-10-15 15:34:02.472,12712,2.1087616E1,0,13,0,59,53,
1571153702,2019-10-15 15:35:02.472,12712,2.1252014E1,0,13,0,59,54,
1571153762,2019-10-15 15:36:02.472,12726,2.1289154E1,0,13,0,50,55,
1571153822,2019-10-15 15:37:02.510,12726,2.0966705E1,0,11,0,50,52,
1571153882,2019-10-15 15:38:02.472,12712,2.1107788E1,0,7,0,58,57,
1571153942,2019-10-15 15:39:02.505,12712,2.114914E1,0,12,0,59,56,
1571154002,2019-10-15 15:40:02.472,12726,2.1247772E1,0,9,0,58,51,
1571154062,2019-10-15 15:41:02.472,12712,2.1113068E1,0,11,0,50,51,
1571154122,2019-10-15 15:42:02.472,12712,2.0864899E1,0,15,0,60,53,
1571154182,2019-10-15 15:43:02.472,12712,2.100064E1,0,11,8,59,51,
1571154242,2019-10-15 15:44:02.472,12726,2.1056854E1,0,11,0,50,50,
1571154302,2019-10-15 15:45:02.473,12712,2.1068542E1,0,12,0,55,54,
1571154362,2019-10-15 15:46:02.472,12712,2.1087616E1,0,11,0,50,59,
1571154422,2019-10-15 15:47:02.472,12712,2.1109894E1,0,9,0,50,52,
1571154482,2019-10-15 15:48:02.472,12712,2.081717E1,0,11,0,63,53,
1571154542,2019-10-15 15:49:02.472,12726,2.0876556E1,0,13,0,58,55,
1571154602,2019-10-15 15:50:02.472,12699,2.101233E1,0,15,0,58,57,
1571154662,2019-10-15 15:51:02.497,12726,2.0834137E1,0,11,0,50,55,
1571154722,2019-10-15 15:52:02.472,12699,2.0992157E1,0,13,0,50,52,
1571154782,2019-10-15 15:53:02.472,12712,2.065274E1,0,11,0,61,55,
1571154842,2019-10-15 15:54:02.472,12712,2.072699E1,0,18,0,59,54,
1571154902,2019-10-15 15:55:02.472,12712,2.0920044E1,0,20,0,60,53,
1571154962,2019-10-15 15:56:02.511,12712,2.0715332E1,0,11,0,61,52,
1571155022,2019-10-15 15:57:02.472,12739,2.0902008E1,0,10,0,50,55,
1571155082,2019-10-15 15:58:02.473,12712,2.0662292E1,0,10,0,61,52,
1571155142,2019-10-15 15:59:02.475,12712,2.0794891E1,0,15,0,73,56,
