Time(longsecs),Time(UTC),GPS Satellite Acquisition Flag 1,GPS Satellite Acquisition Flag 2,GPS Satellite Acquisition Flag 3,GPS Satellite Acquisition Flag 4,GPS Satellite Acquisition Flag 5,GPS Satellite Acquisition Flag 6,GPS Satellite Acquisition Flag 7,GPS Satellite Acquisition Flag 8,GPS Satellite Acquisition Flag 9,GPS Satellite Acquisition Flag 10,GPS Satellite Acquisition Flag 11,GPS Satellite Acquisition Flag 12,GPS Satellite Azimuth 1(Degrees),GPS Satellite Azimuth 2(Degrees),GPS Satellite Azimuth 3(Degrees),GPS Satellite Azimuth 4(Degrees),GPS Satellite Azimuth 5(Degrees),GPS Satellite Azimuth 6(Degrees),GPS Satellite Azimuth 7(Degrees),GPS Satellite Azimuth 8(Degrees),GPS Satellite Azimuth 9(Degrees),GPS Satellite Azimuth 10(Degrees),GPS Satellite Azimuth 11(Degrees),GPS Satellite Azimuth 12(Degrees),GPS Satellite Elevation 1(Degrees),GPS Satellite Elevation 2(Degrees),GPS Satellite Elevation 3(Degrees),GPS Satellite Elevation 4(Degrees),GPS Satellite Elevation 5(Degrees),GPS Satellite Elevation 6(Degrees),GPS Satellite Elevation 7(Degrees),GPS Satellite Elevation 8(Degrees),GPS Satellite Elevation 9(Degrees),GPS Satellite Elevation 10(Degrees),GPS Satellite Elevation 11(Degrees),GPS Satellite Elevation 12(Degrees),GPS Satellite PRN 1,GPS Satellite PRN 2,GPS Satellite PRN 3,GPS Satellite PRN 4,GPS Satellite PRN 5,GPS Satellite PRN 6,GPS Satellite PRN 7,GPS Satellite PRN 8,GPS Satellite PRN 9,GPS Satellite PRN 10,GPS Satellite PRN 11,GPS Satellite PRN 12,GPS Satellite Signal Level 1(AMU),GPS Satellite Signal Level 2(AMU),GPS Satellite Signal Level 3(AMU),GPS Satellite Signal Level 4(AMU),GPS Satellite Signal Level 5(AMU),GPS Satellite Signal Level 6(AMU),GPS Satellite Signal Level 7(AMU),GPS Satellite Signal Level 8(AMU),GPS Satellite Signal Level 9(AMU),GPS Satellite Signal Level 10(AMU),GPS Satellite Signal Level 11(AMU),GPS Satellite Signal Level 12(AMU),
1572408058,2019-10-30 04:00:58.669,Acquired,Acquired,Acquired,Acquired,Acquired,Acquired,Not acquired,Not acquired,,,,,2.99106112E2,1.39989744E2,9.7611696E1,1.9658295999999999E2,2.71768736E2,7.6723008E1,1.9687488E2,2.7509642E1,,,,,6.4262E1,2.4272546E1,7.2537352E1,7.850206399999999E1,3.2262772E1,2.1798513999999997E1,1.5971879999999999E1,6.8787899999999995E0,,,,,16,20,21,26,27,29,31,5,,,,,7,2,3,6,8,2,1,0,,,,,
1572408118,2019-10-30 04:01:58.669,Acquired,Acquired,Acquired,Acquired,Acquired,Acquired,Not acquired,Not acquired,,,,,2.99106112E2,1.39989744E2,9.7611696E1,1.9658295999999999E2,2.71768736E2,7.6723008E1,1.9687488E2,2.7509642E1,,,,,6.4262E1,2.4272546E1,7.2537352E1,7.850206399999999E1,3.2262772E1,2.1798513999999997E1,1.5971879999999999E1,6.8787899999999995E0,,,,,16,20,21,26,27,29,31,5,,,,,7,2,3,6,8,2,1,0,,,,,
1572408178,2019-10-30 04:02:58.669,Acquired,Acquired,Acquired,Acquired,Acquired,Acquired,Not acquired,Not acquired,,,,,2.99106112E2,1.39989744E2,9.7611696E1,1.9658295999999999E2,2.71768736E2,7.6723008E1,1.9687488E2,2.7509642E1,,,,,6.4262E1,2.4272546E1,7.2537352E1,7.850206399999999E1,3.2262772E1,2.1798513999999997E1,1.5971879999999999E1,6.8787899999999995E0,,,,,16,20,21,26,27,29,31,5,,,,,7,2,3,6,8,2,1,0,,,,,
1572408238,2019-10-30 04:03:58.669,Acquired,Acquired,Acquired,Acquired,Acquired,Acquired,Not acquired,Not acquired,,,,,2.99106112E2,1.39989744E2,9.7611696E1,1.9658295999999999E2,2.71768736E2,7.6723008E1,1.9687488E2,2.7509642E1,,,,,6.4262E1,2.4272546E1,7.2537352E1,7.850206399999999E1,3.2262772E1,2.1798513999999997E1,1.5971879999999999E1,6.8787899999999995E0,,,,,16,20,21,26,27,29,31,5,,,,,7,2,3,6,8,2,1,0,,,,,
1572408298,2019-10-30 04:04:58.669,Acquired,Acquired,Acquired,Acquired,Acquired,Acquired,Not acquired,Not acquired,,,,,2.99106112E2,1.39989744E2,9.7611696E1,1.9658295999999999E2,2.71768736E2,7.6723008E1,1.9687488E2,2.7509642E1,,,,,6.4262E1,2.4272546E1,7.2537352E1,7.850206399999999E1,3.2262772E1,2.1798513999999997E1,1.5971879999999999E1,6.8787899999999995E0,,,,,16,20,21,26,27,29,31,5,,,,,7,2,3,6,8,2,1,0,,,,,
1572408358,2019-10-30 04:05:58.669,Acquired,Acquired,Acquired,Acquired,Acquired,Acquired,Not acquired,Not acquired,,,,,2.99106112E2,1.39989744E2,9.7611696E1,1.9658295999999999E2,2.71768736E2,7.6723008E1,1.9687488E2,2.7509642E1,,,,,6.4262E1,2.4272546E1,7.2537352E1,7.850206399999999E1,3.2262772E1,2.1798513999999997E1,1.5971879999999999E1,6.8787899999999995E0,,,,,16,20,21,26,27,29,31,5,,,,,7,2,3,6,8,2,1,0,,,,,
1572408418,2019-10-30 04:06:58.669,Acquired,Acquired,Acquired,Acquired,Acquired,Acquired,Not acquired,Not acquired,,,,,2.99106112E2,1.39989744E2,9.7611696E1,1.9658295999999999E2,2.71768736E2,7.6723008E1,1.9687488E2,2.7509642E1,,,,,6.4262E1,2.4272546E1,7.2537352E1,7.850206399999999E1,3.2262772E1,2.1798513999999997E1,1.5971879999999999E1,6.8787899999999995E0,,,,,16,20,21,26,27,29,31,5,,,,,7,2,3,6,8,2,1,0,,,,,
1572408478,2019-10-30 04:07:58.669,Acquired,Acquired,Acquired,Acquired,Acquired,Acquired,Not acquired,Not acquired,,,,,2.99106112E2,1.39989744E2,9.7611696E1,1.9658295999999999E2,2.71768736E2,7.6723008E1,1.9687488E2,2.7509642E1,,,,,6.4262E1,2.4272546E1,7.2537352E1,7.850206399999999E1,3.2262772E1,2.1798513999999997E1,1.5971879999999999E1,6.8787899999999995E0,,,,,16,20,21,26,27,29,31,5,,,,,7,2,3,6,8,2,1,0,,,,,
1572408538,2019-10-30 04:08:58.669,Acquired,Acquired,Acquired,Acquired,Acquired,Acquired,Not acquired,Not acquired,,,,,2.99106112E2,1.39989744E2,9.7611696E1,1.9658295999999999E2,2.71768736E2,7.6723008E1,1.9687488E2,2.7509642E1,,,,,6.4262E1,2.4272546E1,7.2537352E1,7.850206399999999E1,3.2262772E1,2.1798513999999997E1,1.5971879999999999E1,6.8787899999999995E0,,,,,16,20,21,26,27,29,31,5,,,,,7,2,3,6,8,2,1,0,,,,,
1572408598,2019-10-30 04:09:58.671,Acquired,Acquired,Acquired,Acquired,Acquired,Acquired,Not acquired,Not acquired,,,,,2.99106112E2,1.39989744E2,9.7611696E1,1.9658295999999999E2,2.71768736E2,7.6723008E1,1.9687488E2,2.7509642E1,,,,,6.4262E1,2.4272546E1,7.2537352E1,7.850206399999999E1,3.2262772E1,2.1798513999999997E1,1.5971879999999999E1,6.8787899999999995E0,,,,,16,20,21,26,27,29,31,5,,,,,7,2,3,6,8,2,1,0,,,,,
1572408658,2019-10-30 04:10:58.669,Acquired,Acquired,Acquired,Acquired,Acquired,Acquired,Not acquired,Not acquired,,,,,2.99106112E2,1.39989744E2,9.7611696E1,1.9658295999999999E2,2.71768736E2,7.6723008E1,1.9687488E2,2.7509642E1,,,,,6.4262E1,2.4272546E1,7.2537352E1,7.850206399999999E1,3.2262772E1,2.1798513999999997E1,1.5971879999999999E1,6.8787899999999995E0,,,,,16,20,21,26,27,29,31,5,,,,,7,2,3,6,8,2,1,0,,,,,
1572408718,2019-10-30 04:11:58.669,Acquired,Acquired,Acquired,Acquired,Acquired,Acquired,Not acquired,Not acquired,,,,,2.99106112E2,1.39989744E2,9.7611696E1,1.9658295999999999E2,2.71768736E2,7.6723008E1,1.9687488E2,2.7509642E1,,,,,6.4262E1,2.4272546E1,7.2537352E1,7.850206399999999E1,3.2262772E1,2.1798513999999997E1,1.5971879999999999E1,6.8787899999999995E0,,,,,16,20,21,26,27,29,31,5,,,,,7,2,3,6,8,2,1,0,,,,,
1572408778,2019-10-30 04:12:58.669,Acquired,Acquired,Acquired,Acquired,Acquired,Acquired,Not acquired,Not acquired,,,,,2.99106112E2,1.39989744E2,9.7611696E1,1.9658295999999999E2,2.71768736E2,7.6723008E1,1.9687488E2,2.7509642E1,,,,,6.4262E1,2.4272546E1,7.2537352E1,7.850206399999999E1,3.2262772E1,2.1798513999999997E1,1.5971879999999999E1,6.8787899999999995E0,,,,,16,20,21,26,27,29,31,5,,,,,7,2,3,6,8,2,1,0,,,,,
1572408838,2019-10-30 04:13:58.671,Acquired,Acquired,Acquired,Acquired,Acquired,Acquired,Not acquired,Not acquired,,,,,2.99106112E2,1.39989744E2,9.7611696E1,1.9658295999999999E2,2.71768736E2,7.6723008E1,1.9687488E2,2.7509642E1,,,,,6.4262E1,2.4272546E1,7.2537352E1,7.850206399999999E1,3.2262772E1,2.1798513999999997E1,1.5971879999999999E1,6.8787899999999995E0,,,,,16,20,21,26,27,29,31,5,,,,,7,2,3,6,8,2,1,0,,,,,
1572408898,2019-10-30 04:14:58.669,Acquired,Acquired,Acquired,Acquired,Acquired,Acquired,Not acquired,Not acquired,,,,,2.99106112E2,1.39989744E2,9.7611696E1,1.9658295999999999E2,2.71768736E2,7.6723008E1,1.9687488E2,2.7509642E1,,,,,6.4262E1,2.4272546E1,7.2537352E1,7.850206399999999E1,3.2262772E1,2.1798513999999997E1,1.5971879999999999E1,6.8787899999999995E0,,,,,16,20,21,26,27,29,31,5,,,,,7,2,3,6,8,2,1,0,,,,,
1572408958,2019-10-30 04:15:58.669,Acquired,Acquired,Acquired,Acquired,Acquired,Acquired,Not acquired,Not acquired,,,,,2.99106112E2,1.39989744E2,9.7611696E1,1.9658295999999999E2,2.71768736E2,7.6723008E1,1.9687488E2,2.7509642E1,,,,,6.4262E1,2.4272546E1,7.2537352E1,7.850206399999999E1,3.2262772E1,2.1798513999999997E1,1.5971879999999999E1,6.8787899999999995E0,,,,,16,20,21,26,27,29,31,5,,,,,7,2,3,6,8,2,1,0,,,,,
1572409018,2019-10-30 04:16:58.702,Acquired,Acquired,Acquired,Acquired,Acquired,Acquired,Not acquired,Not acquired,,,,,2.99106112E2,1.39989744E2,9.7611696E1,1.9658295999999999E2,2.71768736E2,7.6723008E1,1.9687488E2,2.7509642E1,,,,,6.4262E1,2.4272546E1,7.2537352E1,7.850206399999999E1,3.2262772E1,2.1798513999999997E1,1.5971879999999999E1,6.8787899999999995E0,,,,,16,20,21,26,27,29,31,5,,,,,7,2,3,6,8,2,1,0,,,,,
1572409078,2019-10-30 04:17:58.671,Acquired,Acquired,Acquired,Acquired,Acquired,Acquired,Not acquired,Not acquired,Not acquired,,,,2.98790304E2,1.3972355199999998E2,9.617515999999999E1,1.9488567999999998E2,2.72075136E2,7.6979888E1,1.9673972799999999E2,2.72151E1,1.5848952E2,,,,6.471823599999999E1,2.4653878E1,7.2390072E1,7.814760799999999E1,3.2654621999999996E1,2.142549E1,1.5556310999999999E1,6.636696E0,5.217635E0,,,,16,20,21,26,27,29,31,5,10,,,,5,2,5,6,10,3,1,1,0,,,,
1572409138,2019-10-30 04:18:58.669,,Acquired,Acquired,Acquired,Acquired,Acquired,Acquired,Acquired,,,,,,1.4828476799999999E2,2.16855808E2,1.18838104E2,6.1388935999999994E1,1.7002704E2,2.90184288E2,3.25112096E2,,,,,,2.7354422E1,7.680611999999999E1,4.3656223999999995E1,5.4025552E1,5.2562812E1,5.4858503999999996E1,1.2313293999999999E1,,,,,,10,16,20,21,26,27,7,,,,,,1,3,2,5,4,11,9,,,,,
1572409198,2019-10-30 04:19:58.669,,Acquired,Acquired,Acquired,Acquired,Acquired,Acquired,Acquired,,,,,,1.4828476799999999E2,2.16855808E2,1.18838104E2,6.1388935999999994E1,1.7002704E2,2.90184288E2,3.25112096E2,,,,,,2.7354422E1,7.680611999999999E1,4.3656223999999995E1,5.4025552E1,5.2562812E1,5.4858503999999996E1,1.2313293999999999E1,,,,,,10,16,20,21,26,27,7,,,,,,1,3,2,5,4,11,9,,,,,
1572409258,2019-10-30 04:20:58.669,,Acquired,Acquired,Acquired,Acquired,Acquired,Acquired,Acquired,,,,,,1.4828476799999999E2,2.16855808E2,1.18838104E2,6.1388935999999994E1,1.7002704E2,2.90184288E2,3.25112096E2,,,,,,2.7354422E1,7.680611999999999E1,4.3656223999999995E1,5.4025552E1,5.2562812E1,5.4858503999999996E1,1.2313293999999999E1,,,,,,10,16,20,21,26,27,7,,,,,,1,3,2,5,4,11,9,,,,,
1572409318,2019-10-30 04:21:58.669,,Acquired,Acquired,Acquired,Acquired,Acquired,Acquired,Acquired,,,,,,1.4828476799999999E2,2.16855808E2,1.18838104E2,6.1388935999999994E1,1.7002704E2,2.90184288E2,3.25112096E2,,,,,,2.7354422E1,7.680611999999999E1,4.3656223999999995E1,5.4025552E1,5.2562812E1,5.4858503999999996E1,1.2313293999999999E1,,,,,,10,16,20,21,26,27,7,,,,,,1,3,2,5,4,11,9,,,,,
1572409378,2019-10-30 04:22:58.671,,Acquired,Acquired,Acquired,Acquired,Acquired,Acquired,Acquired,,,,,,1.4828476799999999E2,2.16855808E2,1.18838104E2,6.1388935999999994E1,1.7002704E2,2.90184288E2,3.25112096E2,,,,,,2.7354422E1,7.680611999999999E1,4.3656223999999995E1,5.4025552E1,5.2562812E1,5.4858503999999996E1,1.2313293999999999E1,,,,,,10,16,20,21,26,27,7,,,,,,1,3,2,5,4,11,9,,,,,
1572409438,2019-10-30 04:23:58.685,,Acquired,Acquired,Acquired,Acquired,Acquired,Acquired,Acquired,,,,,,1.4828476799999999E2,2.16855808E2,1.18838104E2,6.1388935999999994E1,1.7002704E2,2.90184288E2,3.25112096E2,,,,,,2.7354422E1,7.680611999999999E1,4.3656223999999995E1,5.4025552E1,5.2562812E1,5.4858503999999996E1,1.2313293999999999E1,,,,,,10,16,20,21,26,27,7,,,,,,1,3,2,5,4,11,9,,,,,
1572409498,2019-10-30 04:24:58.669,,Acquired,Acquired,Acquired,Acquired,Acquired,Acquired,Acquired,,,,,,1.4828476799999999E2,2.16855808E2,1.18838104E2,6.1388935999999994E1,1.7002704E2,2.90184288E2,3.25112096E2,,,,,,2.7354422E1,7.680611999999999E1,4.3656223999999995E1,5.4025552E1,5.2562812E1,5.4858503999999996E1,1.2313293999999999E1,,,,,,10,16,20,21,26,27,7,,,,,,1,3,2,5,4,11,9,,,,,
1572409558,2019-10-30 04:25:58.669,,Acquired,Acquired,Acquired,Acquired,Acquired,Acquired,Acquired,,,,,,1.4828476799999999E2,2.16855808E2,1.18838104E2,6.1388935999999994E1,1.7002704E2,2.90184288E2,3.25112096E2,,,,,,2.7354422E1,7.680611999999999E1,4.3656223999999995E1,5.4025552E1,5.2562812E1,5.4858503999999996E1,1.2313293999999999E1,,,,,,10,16,20,21,26,27,7,,,,,,1,3,2,5,4,11,9,,,,,
1572409618,2019-10-30 04:26:58.669,,Acquired,Acquired,Acquired,Acquired,Acquired,Acquired,Acquired,,,,,,1.4828476799999999E2,2.16855808E2,1.18838104E2,6.1388935999999994E1,1.7002704E2,2.90184288E2,3.25112096E2,,,,,,2.7354422E1,7.680611999999999E1,4.3656223999999995E1,5.4025552E1,5.2562812E1,5.4858503999999996E1,1.2313293999999999E1,,,,,,10,16,20,21,26,27,7,,,,,,1,3,2,5,4,11,9,,,,,
1572409678,2019-10-30 04:27:58.669,,Acquired,Acquired,Acquired,Acquired,Acquired,Acquired,Acquired,,,,,,1.4828476799999999E2,2.16855808E2,1.18838104E2,6.1388935999999994E1,1.7002704E2,2.90184288E2,3.25112096E2,,,,,,2.7354422E1,7.680611999999999E1,4.3656223999999995E1,5.4025552E1,5.2562812E1,5.4858503999999996E1,1.2313293999999999E1,,,,,,10,16,20,21,26,27,7,,,,,,1,3,2,5,4,11,9,,,,,
1572409738,2019-10-30 04:28:58.669,,Acquired,Acquired,Acquired,Acquired,Acquired,Acquired,Acquired,,,,,,1.4828476799999999E2,2.16855808E2,1.18838104E2,6.1388935999999994E1,1.7002704E2,2.90184288E2,3.25112096E2,,,,,,2.7354422E1,7.680611999999999E1,4.3656223999999995E1,5.4025552E1,5.2562812E1,5.4858503999999996E1,1.2313293999999999E1,,,,,,10,16,20,21,26,27,7,,,,,,1,3,2,5,4,11,9,,,,,
1572409798,2019-10-30 04:29:58.669,,Acquired,Acquired,Acquired,Acquired,Acquired,Acquired,Acquired,,,,,,1.4828476799999999E2,2.16855808E2,1.18838104E2,6.1388935999999994E1,1.7002704E2,2.90184288E2,3.25112096E2,,,,,,2.7354422E1,7.680611999999999E1,4.3656223999999995E1,5.4025552E1,5.2562812E1,5.4858503999999996E1,1.2313293999999999E1,,,,,,10,16,20,21,26,27,7,,,,,,1,3,2,5,4,11,9,,,,,
1572409858,2019-10-30 04:30:58.669,,Acquired,Acquired,Acquired,Acquired,Acquired,Acquired,Acquired,,,,,,1.4828476799999999E2,2.16855808E2,1.18838104E2,6.1388935999999994E1,1.7002704E2,2.90184288E2,3.25112096E2,,,,,,2.7354422E1,7.680611999999999E1,4.3656223999999995E1,5.4025552E1,5.2562812E1,5.4858503999999996E1,1.2313293999999999E1,,,,,,10,16,20,21,26,27,7,,,,,,1,3,2,5,4,11,9,,,,,
1572409918,2019-10-30 04:31:58.671,,Acquired,Acquired,Acquired,Acquired,Acquired,Acquired,Acquired,,,,,,1.4828476799999999E2,2.16855808E2,1.18838104E2,6.1388935999999994E1,1.7002704E2,2.90184288E2,3.25112096E2,,,,,,2.7354422E1,7.680611999999999E1,4.3656223999999995E1,5.4025552E1,5.2562812E1,5.4858503999999996E1,1.2313293999999999E1,,,,,,10,16,20,21,26,27,7,,,,,,1,3,2,5,4,11,9,,,,,
1572409978,2019-10-30 04:32:58.669,,Acquired,Acquired,Acquired,Acquired,Acquired,Acquired,Acquired,,,,,,1.4828476799999999E2,2.16855808E2,1.18838104E2,6.1388935999999994E1,1.7002704E2,2.90184288E2,3.25112096E2,,,,,,2.7354422E1,7.680611999999999E1,4.3656223999999995E1,5.4025552E1,5.2562812E1,5.4858503999999996E1,1.2313293999999999E1,,,,,,10,16,20,21,26,27,7,,,,,,1,3,2,5,4,11,9,,,,,
1572410038,2019-10-30 04:33:58.669,,Acquired,Acquired,Acquired,Acquired,Acquired,Acquired,Acquired,,,,,,1.4828476799999999E2,2.16855808E2,1.18838104E2,6.1388935999999994E1,1.7002704E2,2.90184288E2,3.25112096E2,,,,,,2.7354422E1,7.680611999999999E1,4.3656223999999995E1,5.4025552E1,5.2562812E1,5.4858503999999996E1,1.2313293999999999E1,,,,,,10,16,20,21,26,27,7,,,,,,1,3,2,5,4,11,9,,,,,
1572410098,2019-10-30 04:34:58.669,,Acquired,Acquired,Acquired,Acquired,Acquired,Acquired,Acquired,,,,,,1.4828476799999999E2,2.16855808E2,1.18838104E2,6.1388935999999994E1,1.7002704E2,2.90184288E2,3.25112096E2,,,,,,2.7354422E1,7.680611999999999E1,4.3656223999999995E1,5.4025552E1,5.2562812E1,5.4858503999999996E1,1.2313293999999999E1,,,,,,10,16,20,21,26,27,7,,,,,,1,3,2,5,4,11,9,,,,,
1572410158,2019-10-30 04:35:58.669,,Acquired,Acquired,Acquired,Acquired,Acquired,Acquired,Acquired,,,,,,1.4828476799999999E2,2.16855808E2,1.18838104E2,6.1388935999999994E1,1.7002704E2,2.90184288E2,3.25112096E2,,,,,,2.7354422E1,7.680611999999999E1,4.3656223999999995E1,5.4025552E1,5.2562812E1,5.4858503999999996E1,1.2313293999999999E1,,,,,,10,16,20,21,26,27,7,,,,,,1,3,2,5,4,11,9,,,,,
1572410218,2019-10-30 04:36:58.669,,Acquired,Acquired,Acquired,Acquired,Acquired,Acquired,Acquired,,,,,,1.4828476799999999E2,2.16855808E2,1.18838104E2,6.1388935999999994E1,1.7002704E2,2.90184288E2,3.25112096E2,,,,,,2.7354422E1,7.680611999999999E1,4.3656223999999995E1,5.4025552E1,5.2562812E1,5.4858503999999996E1,1.2313293999999999E1,,,,,,10,16,20,21,26,27,7,,,,,,1,3,2,5,4,11,9,,,,,
1572410278,2019-10-30 04:37:58.669,,Acquired,Acquired,Acquired,Acquired,Acquired,Acquired,Acquired,,,,,,1.4828476799999999E2,2.16855808E2,1.18838104E2,6.1388935999999994E1,1.7002704E2,2.90184288E2,3.25112096E2,,,,,,2.7354422E1,7.680611999999999E1,4.3656223999999995E1,5.4025552E1,5.2562812E1,5.4858503999999996E1,1.2313293999999999E1,,,,,,10,16,20,21,26,27,7,,,,,,1,3,2,5,4,11,9,,,,,
1572410338,2019-10-30 04:38:58.669,,Acquired,Acquired,Acquired,Acquired,Acquired,Acquired,Acquired,,,,,,1.4828476799999999E2,2.16855808E2,1.18838104E2,6.1388935999999994E1,1.7002704E2,2.90184288E2,3.25112096E2,,,,,,2.7354422E1,7.680611999999999E1,4.3656223999999995E1,5.4025552E1,5.2562812E1,5.4858503999999996E1,1.2313293999999999E1,,,,,,10,16,20,21,26,27,7,,,,,,1,3,2,5,4,11,9,,,,,
1572410398,2019-10-30 04:39:58.669,,Acquired,Acquired,Acquired,Acquired,Acquired,Acquired,Acquired,,,,,,1.4828476799999999E2,2.16855808E2,1.18838104E2,6.1388935999999994E1,1.7002704E2,2.90184288E2,3.25112096E2,,,,,,2.7354422E1,7.680611999999999E1,4.3656223999999995E1,5.4025552E1,5.2562812E1,5.4858503999999996E1,1.2313293999999999E1,,,,,,10,16,20,21,26,27,7,,,,,,1,3,2,5,4,11,9,,,,,
1572410458,2019-10-30 04:40:58.669,,Acquired,Acquired,Acquired,Acquired,Acquired,Acquired,Acquired,,,,,,1.4828476799999999E2,2.16855808E2,1.18838104E2,6.1388935999999994E1,1.7002704E2,2.90184288E2,3.25112096E2,,,,,,2.7354422E1,7.680611999999999E1,4.3656223999999995E1,5.4025552E1,5.2562812E1,5.4858503999999996E1,1.2313293999999999E1,,,,,,10,16,20,21,26,27,7,,,,,,1,3,2,5,4,11,9,,,,,
1572410518,2019-10-30 04:41:58.669,,Acquired,Acquired,Acquired,Acquired,Acquired,Acquired,Acquired,,,,,,1.4828476799999999E2,2.16855808E2,1.18838104E2,6.1388935999999994E1,1.7002704E2,2.90184288E2,3.25112096E2,,,,,,2.7354422E1,7.680611999999999E1,4.3656223999999995E1,5.4025552E1,5.2562812E1,5.4858503999999996E1,1.2313293999999999E1,,,,,,10,16,20,21,26,27,7,,,,,,1,3,2,5,4,11,9,,,,,
1572410578,2019-10-30 04:42:58.669,,Acquired,Acquired,Acquired,Acquired,Acquired,Acquired,Acquired,,,,,,1.4828476799999999E2,2.16855808E2,1.18838104E2,6.1388935999999994E1,1.7002704E2,2.90184288E2,3.25112096E2,,,,,,2.7354422E1,7.680611999999999E1,4.3656223999999995E1,5.4025552E1,5.2562812E1,5.4858503999999996E1,1.2313293999999999E1,,,,,,10,16,20,21,26,27,7,,,,,,1,3,2,5,4,11,9,,,,,
1572410638,2019-10-30 04:43:58.669,,Acquired,Acquired,Acquired,Acquired,Acquired,Acquired,Acquired,,,,,,1.4828476799999999E2,2.16855808E2,1.18838104E2,6.1388935999999994E1,1.7002704E2,2.90184288E2,3.25112096E2,,,,,,2.7354422E1,7.680611999999999E1,4.3656223999999995E1,5.4025552E1,5.2562812E1,5.4858503999999996E1,1.2313293999999999E1,,,,,,10,16,20,21,26,27,7,,,,,,1,3,2,5,4,11,9,,,,,
1572410698,2019-10-30 04:44:58.669,,Acquired,Acquired,Acquired,Acquired,Acquired,Acquired,Acquired,,,,,,1.4828476799999999E2,2.16855808E2,1.18838104E2,6.1388935999999994E1,1.7002704E2,2.90184288E2,3.25112096E2,,,,,,2.7354422E1,7.680611999999999E1,4.3656223999999995E1,5.4025552E1,5.2562812E1,5.4858503999999996E1,1.2313293999999999E1,,,,,,10,16,20,21,26,27,7,,,,,,1,3,2,5,4,11,9,,,,,
1572410758,2019-10-30 04:45:58.669,,Acquired,Acquired,Acquired,Acquired,Acquired,Acquired,Acquired,,,,,,1.4828476799999999E2,2.16855808E2,1.18838104E2,6.1388935999999994E1,1.7002704E2,2.90184288E2,3.25112096E2,,,,,,2.7354422E1,7.680611999999999E1,4.3656223999999995E1,5.4025552E1,5.2562812E1,5.4858503999999996E1,1.2313293999999999E1,,,,,,10,16,20,21,26,27,7,,,,,,1,3,2,5,4,11,9,,,,,
1572410818,2019-10-30 04:46:58.668,,Acquired,Acquired,Acquired,Acquired,Acquired,Acquired,Acquired,,,,,,1.4828476799999999E2,2.16855808E2,1.18838104E2,6.1388935999999994E1,1.7002704E2,2.90184288E2,3.25112096E2,,,,,,2.7354422E1,7.680611999999999E1,4.3656223999999995E1,5.4025552E1,5.2562812E1,5.4858503999999996E1,1.2313293999999999E1,,,,,,10,16,20,21,26,27,7,,,,,,1,3,2,5,4,11,9,,,,,
1572410878,2019-10-30 04:47:58.669,,Acquired,Acquired,Acquired,Acquired,Acquired,Acquired,Acquired,,,,,,1.4828476799999999E2,2.16855808E2,1.18838104E2,6.1388935999999994E1,1.7002704E2,2.90184288E2,3.25112096E2,,,,,,2.7354422E1,7.680611999999999E1,4.3656223999999995E1,5.4025552E1,5.2562812E1,5.4858503999999996E1,1.2313293999999999E1,,,,,,10,16,20,21,26,27,7,,,,,,1,3,2,5,4,11,9,,,,,
1572410938,2019-10-30 04:48:58.672,,Acquired,Acquired,Acquired,Acquired,Acquired,Acquired,Acquired,,,,,,1.4828476799999999E2,2.16855808E2,1.18838104E2,6.1388935999999994E1,1.7002704E2,2.90184288E2,3.25112096E2,,,,,,2.7354422E1,7.680611999999999E1,4.3656223999999995E1,5.4025552E1,5.2562812E1,5.4858503999999996E1,1.2313293999999999E1,,,,,,10,16,20,21,26,27,7,,,,,,1,3,2,5,4,11,9,,,,,
1572410998,2019-10-30 04:49:58.669,,Acquired,Acquired,Acquired,Acquired,Acquired,Acquired,Acquired,,,,,,1.4828476799999999E2,2.16855808E2,1.18838104E2,6.1388935999999994E1,1.7002704E2,2.90184288E2,3.25112096E2,,,,,,2.7354422E1,7.680611999999999E1,4.3656223999999995E1,5.4025552E1,5.2562812E1,5.4858503999999996E1,1.2313293999999999E1,,,,,,10,16,20,21,26,27,7,,,,,,1,3,2,5,4,11,9,,,,,
1572411058,2019-10-30 04:50:58.669,,Acquired,Acquired,Acquired,Acquired,Acquired,Acquired,Acquired,,,,,,1.4828476799999999E2,2.16855808E2,1.18838104E2,6.1388935999999994E1,1.7002704E2,2.90184288E2,3.25112096E2,,,,,,2.7354422E1,7.680611999999999E1,4.3656223999999995E1,5.4025552E1,5.2562812E1,5.4858503999999996E1,1.2313293999999999E1,,,,,,10,16,20,21,26,27,7,,,,,,1,3,2,5,4,11,9,,,,,
1572411118,2019-10-30 04:51:58.680,,Acquired,Acquired,Acquired,Acquired,Acquired,Acquired,Acquired,,,,,,1.4828476799999999E2,2.16855808E2,1.18838104E2,6.1388935999999994E1,1.7002704E2,2.90184288E2,3.25112096E2,,,,,,2.7354422E1,7.680611999999999E1,4.3656223999999995E1,5.4025552E1,5.2562812E1,5.4858503999999996E1,1.2313293999999999E1,,,,,,10,16,20,21,26,27,7,,,,,,1,3,2,5,4,11,9,,,,,
1572411178,2019-10-30 04:52:58.669,,Acquired,Acquired,Acquired,Acquired,Acquired,Acquired,Acquired,,,,,,1.4828476799999999E2,2.16855808E2,1.18838104E2,6.1388935999999994E1,1.7002704E2,2.90184288E2,3.25112096E2,,,,,,2.7354422E1,7.680611999999999E1,4.3656223999999995E1,5.4025552E1,5.2562812E1,5.4858503999999996E1,1.2313293999999999E1,,,,,,10,16,20,21,26,27,7,,,,,,1,3,2,5,4,11,9,,,,,
1572411238,2019-10-30 04:53:58.669,,Acquired,Acquired,Acquired,Acquired,Acquired,Acquired,Acquired,,,,,,1.4828476799999999E2,2.16855808E2,1.18838104E2,6.1388935999999994E1,1.7002704E2,2.90184288E2,3.25112096E2,,,,,,2.7354422E1,7.680611999999999E1,4.3656223999999995E1,5.4025552E1,5.2562812E1,5.4858503999999996E1,1.2313293999999999E1,,,,,,10,16,20,21,26,27,7,,,,,,1,3,2,5,4,11,9,,,,,
1572411298,2019-10-30 04:54:58.669,,Acquired,Acquired,Acquired,Acquired,Acquired,Acquired,Acquired,,,,,,1.4828476799999999E2,2.16855808E2,1.18838104E2,6.1388935999999994E1,1.7002704E2,2.90184288E2,3.25112096E2,,,,,,2.7354422E1,7.680611999999999E1,4.3656223999999995E1,5.4025552E1,5.2562812E1,5.4858503999999996E1,1.2313293999999999E1,,,,,,10,16,20,21,26,27,7,,,,,,1,3,2,5,4,11,9,,,,,
1572411358,2019-10-30 04:55:58.669,,Acquired,Acquired,Acquired,Acquired,Acquired,Acquired,Acquired,,,,,,1.4828476799999999E2,2.16855808E2,1.18838104E2,6.1388935999999994E1,1.7002704E2,2.90184288E2,3.25112096E2,,,,,,2.7354422E1,7.680611999999999E1,4.3656223999999995E1,5.4025552E1,5.2562812E1,5.4858503999999996E1,1.2313293999999999E1,,,,,,10,16,20,21,26,27,7,,,,,,1,3,2,5,4,11,9,,,,,
1572411418,2019-10-30 04:56:58.669,,Acquired,Acquired,Acquired,Acquired,Acquired,Acquired,Acquired,,,,,,1.4828476799999999E2,2.16855808E2,1.18838104E2,6.1388935999999994E1,1.7002704E2,2.90184288E2,3.25112096E2,,,,,,2.7354422E1,7.680611999999999E1,4.3656223999999995E1,5.4025552E1,5.2562812E1,5.4858503999999996E1,1.2313293999999999E1,,,,,,10,16,20,21,26,27,7,,,,,,1,3,2,5,4,11,9,,,,,
1572411478,2019-10-30 04:57:58.669,,Acquired,Acquired,Acquired,Acquired,Acquired,Acquired,Acquired,,,,,,1.4828476799999999E2,2.16855808E2,1.18838104E2,6.1388935999999994E1,1.7002704E2,2.90184288E2,3.25112096E2,,,,,,2.7354422E1,7.680611999999999E1,4.3656223999999995E1,5.4025552E1,5.2562812E1,5.4858503999999996E1,1.2313293999999999E1,,,,,,10,16,20,21,26,27,7,,,,,,1,3,2,5,4,11,9,,,,,
1572411538,2019-10-30 04:58:58.671,,Acquired,Acquired,Acquired,Acquired,Acquired,Acquired,Acquired,,,,,,1.4828476799999999E2,2.16855808E2,1.18838104E2,6.1388935999999994E1,1.7002704E2,2.90184288E2,3.25112096E2,,,,,,2.7354422E1,7.680611999999999E1,4.3656223999999995E1,5.4025552E1,5.2562812E1,5.4858503999999996E1,1.2313293999999999E1,,,,,,10,16,20,21,26,27,7,,,,,,1,3,2,5,4,11,9,,,,,
1572411598,2019-10-30 04:59:58.698,,Acquired,Acquired,Acquired,Acquired,Acquired,Acquired,Acquired,,,,,,1.4828476799999999E2,2.16855808E2,1.18838104E2,6.1388935999999994E1,1.7002704E2,2.90184288E2,3.25112096E2,,,,,,2.7354422E1,7.680611999999999E1,4.3656223999999995E1,5.4025552E1,5.2562812E1,5.4858503999999996E1,1.2313293999999999E1,,,,,,10,16,20,21,26,27,7,,,,,,1,3,2,5,4,11,9,,,,,
