Time(longsecs),Time(UTC),Supply Voltage(mV),Temperature(&deg;C),NMX Bus Current(mA),Sensor Current(mA),Serial Port Current(mA),Controller Current(mA),Digitizer Current(mA),
1572408058,2019-10-30 04:00:58.669,11532,1.2767792E1,0,14,0,65,59,
1572408118,2019-10-30 04:01:58.669,11545,1.2792175E1,0,8,0,66,60,
1572408178,2019-10-30 04:02:58.669,11532,1.276355E1,0,15,0,64,59,
1572408238,2019-10-30 04:03:58.669,11532,1.2834625E1,0,13,0,66,61,
1572408298,2019-10-30 04:04:58.669,11532,1.2869629E1,0,15,0,66,59,
1572408358,2019-10-30 04:05:58.669,11545,1.2882355E1,0,10,0,55,61,
1572408418,2019-10-30 04:06:58.669,11532,1.2730682E1,0,9,0,65,67,
1572408478,2019-10-30 04:07:58.669,11532,1.2843109E1,0,11,0,64,60,
1572408538,2019-10-30 04:08:58.669,11545,1.2924774E1,0,13,0,64,59,
1572408598,2019-10-30 04:09:58.671,11545,1.2882355E1,0,6,0,55,59,
1572408658,2019-10-30 04:10:58.669,11532,1.2897186E1,0,14,0,55,57,
1572408718,2019-10-30 04:11:58.669,11545,1.29088745E1,0,12,0,56,62,
1572408778,2019-10-30 04:12:58.669,11532,1.2801727E1,0,11,0,66,60,
1572408838,2019-10-30 04:13:58.671,11545,1.2707336E1,0,18,0,66,62,
1572408898,2019-10-30 04:14:58.669,11545,1.2645813E1,0,11,0,56,59,
1572408958,2019-10-30 04:15:58.669,11545,1.2783691E1,0,13,0,55,61,
1572409018,2019-10-30 04:16:58.702,11532,1.2487762E1,0,13,0,77,58,
1572409078,2019-10-30 04:17:58.671,11532,1.2794312E1,0,9,0,81,59,
1572409138,2019-10-30 04:18:58.669,11532,1.2765686E1,0,20,0,64,56,
1572409198,2019-10-30 04:19:58.669,11545,1.2804901E1,0,13,0,57,58,
1572409258,2019-10-30 04:20:58.669,11545,1.2760376E1,0,15,0,55,61,
1572409318,2019-10-30 04:21:58.669,11450,1.276355E1,0,11,0,55,63,
1572409378,2019-10-30 04:22:58.671,11545,1.2797485E1,0,15,0,64,60,
1572409438,2019-10-30 04:23:58.685,11545,1.2805969E1,0,13,0,64,59,
1572409498,2019-10-30 04:24:58.669,11532,1.258429E1,0,7,0,56,59,
1572409558,2019-10-30 04:25:58.669,11532,1.2764618E1,0,14,0,64,66,
1572409618,2019-10-30 04:26:58.669,11545,1.259491E1,0,7,0,56,63,
1572409678,2019-10-30 04:27:58.669,11532,1.2653229E1,0,15,0,64,59,
1572409738,2019-10-30 04:28:58.669,11532,1.2885529E1,0,15,0,66,58,
1572409798,2019-10-30 04:29:58.669,11545,1.2757172E1,0,17,0,56,57,
1572409858,2019-10-30 04:30:58.669,11545,1.2808105E1,0,17,0,55,56,
1572409918,2019-10-30 04:31:58.671,11545,1.277417E1,0,14,0,65,56,
1572409978,2019-10-30 04:32:58.669,11532,1.2681885E1,0,14,0,60,65,
1572410038,2019-10-30 04:33:58.669,11532,1.272644E1,0,13,0,59,60,
1572410098,2019-10-30 04:34:58.669,11532,1.2664917E1,0,13,0,55,65,
1572410158,2019-10-30 04:35:58.669,11532,1.2753998E1,0,11,0,56,58,
1572410218,2019-10-30 04:36:58.669,11532,1.2915222E1,0,18,0,66,61,
1572410278,2019-10-30 04:37:58.669,11532,1.2732788E1,0,13,0,64,63,
1572410338,2019-10-30 04:38:58.669,11545,1.2842041E1,0,22,0,66,56,
1572410398,2019-10-30 04:39:58.669,11599,1.2766724E1,0,13,0,56,59,
1572410458,2019-10-30 04:40:58.669,11545,1.2689301E1,0,12,0,56,63,
1572410518,2019-10-30 04:41:58.669,11532,1.2836731E1,0,15,0,58,60,
1572410578,2019-10-30 04:42:58.669,11532,1.2750824E1,0,12,0,64,59,
1572410638,2019-10-30 04:43:58.669,11532,1.2799622E1,0,13,0,68,61,
1572410698,2019-10-30 04:44:58.669,11532,1.2816589E1,0,13,0,56,62,
1572410758,2019-10-30 04:45:58.669,11545,1.2746582E1,0,14,0,56,59,
1572410818,2019-10-30 04:46:58.668,11505,1.2496277E1,0,16,0,56,60,
1572410878,2019-10-30 04:47:58.669,11532,1.279538E1,0,21,0,65,61,
1572410938,2019-10-30 04:48:58.672,11599,1.2484589E1,0,11,0,61,60,
1572410998,2019-10-30 04:49:58.669,11532,1.2678711E1,0,7,0,66,61,
1572411058,2019-10-30 04:50:58.669,11545,1.2723236E1,0,17,0,56,61,
1572411118,2019-10-30 04:51:58.680,11532,1.2746582E1,0,18,0,66,61,
1572411178,2019-10-30 04:52:58.669,11532,1.2709442E1,0,3,0,66,61,
1572411238,2019-10-30 04:53:58.669,11532,1.2904633E1,0,13,0,58,59,
1572411298,2019-10-30 04:54:58.669,11545,1.2663849E1,0,13,0,56,57,
1572411358,2019-10-30 04:55:58.669,11545,1.2591736E1,0,18,0,56,60,
1572411418,2019-10-30 04:56:58.669,11532,1.2670197E1,0,13,0,64,59,
1572411478,2019-10-30 04:57:58.669,11532,1.2654297E1,0,13,0,69,58,
1572411538,2019-10-30 04:58:58.671,11532,1.2458069E1,0,13,0,66,59,
1572411598,2019-10-30 04:59:58.698,11545,1.2812347E1,0,14,0,56,59,
