Time(longsecs),Time(UTC),Supply Voltage(mV),Temperature(&deg;C),NMX Bus Current(mA),Sensor Current(mA),Serial Port Current(mA),Controller Current(mA),Digitizer Current(mA),
1572447658,2019-10-30 15:00:58.682,11885,1.615448E1,0,13,0,62,58,
1572447718,2019-10-30 15:01:58.669,11885,1.6293427E1,0,13,0,64,59,
1572447778,2019-10-30 15:02:58.669,11872,1.6185242E1,0,13,0,63,58,
1572447838,2019-10-30 15:03:58.671,11872,1.5994324E1,0,13,0,63,60,
1572447898,2019-10-30 15:04:58.669,11857,1.5807648E1,0,10,0,64,60,
1572447958,2019-10-30 15:05:58.669,11857,1.598053E1,0,14,0,64,60,
1572448018,2019-10-30 15:06:58.669,11844,1.5955078E1,0,13,0,62,58,
1572448078,2019-10-30 15:07:58.669,11857,1.6103577E1,0,10,0,63,59,
1572448138,2019-10-30 15:08:58.669,11844,1.5820374E1,0,14,0,65,58,
1572448198,2019-10-30 15:09:58.678,11857,1.6176758E1,0,11,0,62,58,
1572448258,2019-10-30 15:10:58.680,11844,1.5869171E1,0,5,0,76,60,
1572448318,2019-10-30 15:11:58.669,11844,1.5836273E1,0,14,0,76,56,
1572448378,2019-10-30 15:12:58.671,11844,1.5994324E1,0,13,0,65,58,
1572448438,2019-10-30 15:13:58.669,11844,1.6189484E1,0,6,0,65,57,
1572448498,2019-10-30 15:14:58.669,11830,1.5856445E1,0,14,0,63,56,
1572448558,2019-10-30 15:15:58.669,11830,1.584903E1,0,11,0,65,55,
1572448618,2019-10-30 15:16:58.685,11830,1.5911591E1,0,13,0,63,59,
1572448678,2019-10-30 15:17:58.669,11830,1.5888245E1,0,13,0,56,55,
1572448738,2019-10-30 15:18:58.707,11817,1.5956146E1,0,12,0,63,57,
1572448798,2019-10-30 15:19:58.669,11817,1.5945526E1,0,9,0,63,56,
1572448858,2019-10-30 15:20:58.671,11817,1.5898865E1,0,13,0,64,55,
1572448918,2019-10-30 15:21:58.669,11817,1.604419E1,0,14,0,63,60,
1572448978,2019-10-30 15:22:58.669,11817,1.6003876E1,0,14,0,64,59,
1572449038,2019-10-30 15:23:58.669,11803,1.6084473E1,0,13,0,63,59,
1572449098,2019-10-30 15:24:58.669,11817,1.6059021E1,0,13,0,63,58,
1572449158,2019-10-30 15:25:58.671,11817,1.5893555E1,0,11,0,64,59,
1572449218,2019-10-30 15:26:58.669,11817,1.6029327E1,0,14,0,63,57,
1572449278,2019-10-30 15:27:58.669,11803,1.5928558E1,0,13,0,63,57,
1572449338,2019-10-30 15:28:58.669,11817,1.6199036E1,0,6,0,59,62,
1572449398,2019-10-30 15:29:58.668,11803,1.5686737E1,0,15,0,61,60,
1572449458,2019-10-30 15:30:58.669,11803,1.5899933E1,11,15,0,62,59,
1572449518,2019-10-30 15:31:58.669,11803,1.5874481E1,0,29,0,64,57,
1572449578,2019-10-30 15:32:58.669,11803,1.6039948E1,0,9,0,63,59,
1572449638,2019-10-30 15:33:58.669,11803,1.5961456E1,0,15,0,63,60,
1572449698,2019-10-30 15:34:58.669,11803,1.5944489E1,0,14,0,61,61,
1572449758,2019-10-30 15:35:58.669,11803,1.5905243E1,0,13,0,62,64,
1572449818,2019-10-30 15:36:58.669,11803,1.6020844E1,0,18,0,59,59,
1572449878,2019-10-30 15:37:58.669,11803,1.5826752E1,0,11,0,64,60,
1572449938,2019-10-30 15:38:58.669,11790,1.5862793E1,0,2,0,63,55,
1572449998,2019-10-30 15:39:58.701,11790,1.5999634E1,8,11,0,64,57,
1572450058,2019-10-30 15:40:58.669,11790,1.5763092E1,0,13,0,62,58,
1572450118,2019-10-30 15:41:58.669,11790,1.5949768E1,0,11,0,64,56,
1572450178,2019-10-30 15:42:58.669,11790,1.6002808E1,0,13,0,56,57,
1572450238,2019-10-30 15:43:58.669,11790,1.59328E1,0,21,0,61,59,
1572450298,2019-10-30 15:44:58.669,11790,1.5884003E1,0,14,0,64,58,
1572450358,2019-10-30 15:45:58.670,11790,1.594342E1,0,16,0,59,59,
1572450418,2019-10-30 15:46:58.701,11790,1.5749298E1,0,11,0,62,57,
1572450478,2019-10-30 15:47:58.669,11790,1.5791748E1,0,13,0,64,59,
1572450538,2019-10-30 15:48:58.669,11790,1.5771576E1,0,4,0,68,63,
1572450598,2019-10-30 15:49:58.680,11790,1.5876587E1,0,22,0,54,61,
1572450658,2019-10-30 15:50:58.669,11776,1.5830994E1,0,15,0,64,60,
1572450718,2019-10-30 15:51:58.669,11776,1.5707947E1,0,13,0,64,60,
1572450778,2019-10-30 15:52:58.669,11776,1.5794922E1,0,13,0,63,60,
1572450838,2019-10-30 15:53:58.671,11776,1.5756744E1,0,13,0,64,63,
1572450898,2019-10-30 15:54:58.669,11776,1.5717499E1,0,7,0,64,57,
1572450958,2019-10-30 15:55:58.669,11776,1.5585968E1,0,13,0,63,65,
1572451018,2019-10-30 15:56:58.669,11776,1.562204E1,0,10,0,64,61,
1572451078,2019-10-30 15:57:58.669,11776,1.5852203E1,0,20,0,58,60,
1572451138,2019-10-30 15:58:58.669,11776,1.56336975E1,0,10,0,64,59,
1572451198,2019-10-30 15:59:58.669,11776,1.5658081E1,0,13,0,65,58,
