Time(longsecs),Time(UTC),GPS Satellite Acquisition Flag 1,GPS Satellite Acquisition Flag 2,GPS Satellite Acquisition Flag 3,GPS Satellite Acquisition Flag 4,GPS Satellite Acquisition Flag 5,GPS Satellite Acquisition Flag 6,GPS Satellite Acquisition Flag 7,GPS Satellite Acquisition Flag 8,GPS Satellite Acquisition Flag 9,GPS Satellite Acquisition Flag 10,GPS Satellite Acquisition Flag 11,GPS Satellite Acquisition Flag 12,GPS Satellite Azimuth 1(Degrees),GPS Satellite Azimuth 2(Degrees),GPS Satellite Azimuth 3(Degrees),GPS Satellite Azimuth 4(Degrees),GPS Satellite Azimuth 5(Degrees),GPS Satellite Azimuth 6(Degrees),GPS Satellite Azimuth 7(Degrees),GPS Satellite Azimuth 8(Degrees),GPS Satellite Azimuth 9(Degrees),GPS Satellite Azimuth 10(Degrees),GPS Satellite Azimuth 11(Degrees),GPS Satellite Azimuth 12(Degrees),GPS Satellite Elevation 1(Degrees),GPS Satellite Elevation 2(Degrees),GPS Satellite Elevation 3(Degrees),GPS Satellite Elevation 4(Degrees),GPS Satellite Elevation 5(Degrees),GPS Satellite Elevation 6(Degrees),GPS Satellite Elevation 7(Degrees),GPS Satellite Elevation 8(Degrees),GPS Satellite Elevation 9(Degrees),GPS Satellite Elevation 10(Degrees),GPS Satellite Elevation 11(Degrees),GPS Satellite Elevation 12(Degrees),GPS Satellite PRN 1,GPS Satellite PRN 2,GPS Satellite PRN 3,GPS Satellite PRN 4,GPS Satellite PRN 5,GPS Satellite PRN 6,GPS Satellite PRN 7,GPS Satellite PRN 8,GPS Satellite PRN 9,GPS Satellite PRN 10,GPS Satellite PRN 11,GPS Satellite PRN 12,GPS Satellite Signal Level 1(AMU),GPS Satellite Signal Level 2(AMU),GPS Satellite Signal Level 3(AMU),GPS Satellite Signal Level 4(AMU),GPS Satellite Signal Level 5(AMU),GPS Satellite Signal Level 6(AMU),GPS Satellite Signal Level 7(AMU),GPS Satellite Signal Level 8(AMU),GPS Satellite Signal Level 9(AMU),GPS Satellite Signal Level 10(AMU),GPS Satellite Signal Level 11(AMU),GPS Satellite Signal Level 12(AMU),
1570924811,2019-10-13 00:00:11.767,Acquired,Acquired,Acquired,Not acquired,Acquired,Acquired,Acquired,Acquired,Not acquired,Not acquired,,,2.56364016E2,1.7346044799999999E2,3.8812408E1,5.19972E1,1.1298248E2,2.4580632E2,3.0704384E2,8.3531632E1,2.62997168E2,3.20482976E2,,,8.4016168E1,1.5294578E1,1.813746E1,3.2303104E1,6.9674536E1,3.7208344E1,3.3140962E1,1.0669986E1,1.1329816E1,1.1665146E1,,,12,15,17,19,24,25,32,6,10,14,,,15,7,1,1,15,15,3,1,0,0,,,
1570924871,2019-10-13 00:01:11.767,Acquired,Acquired,Acquired,Not acquired,Acquired,Acquired,Acquired,Acquired,Not acquired,Not acquired,,,2.56364016E2,1.7346044799999999E2,3.8812408E1,5.19972E1,1.1298248E2,2.4580632E2,3.0704384E2,8.3531632E1,2.62997168E2,3.20482976E2,,,8.4016168E1,1.5294578E1,1.813746E1,3.2303104E1,6.9674536E1,3.7208344E1,3.3140962E1,1.0669986E1,1.1329816E1,1.1665146E1,,,12,15,17,19,24,25,32,6,10,14,,,15,7,1,1,15,15,3,1,0,0,,,
1570924931,2019-10-13 00:02:11.767,Acquired,Acquired,Acquired,Not acquired,Acquired,Acquired,Acquired,Acquired,Not acquired,Not acquired,,,2.56364016E2,1.7346044799999999E2,3.8812408E1,5.19972E1,1.1298248E2,2.4580632E2,3.0704384E2,8.3531632E1,2.62997168E2,3.20482976E2,,,8.4016168E1,1.5294578E1,1.813746E1,3.2303104E1,6.9674536E1,3.7208344E1,3.3140962E1,1.0669986E1,1.1329816E1,1.1665146E1,,,12,15,17,19,24,25,32,6,10,14,,,15,7,1,1,15,15,3,1,0,0,,,
1570924991,2019-10-13 00:03:11.767,Acquired,Acquired,Acquired,Not acquired,Acquired,Acquired,Acquired,Acquired,Not acquired,Not acquired,,,2.56364016E2,1.7346044799999999E2,3.8812408E1,5.19972E1,1.1298248E2,2.4580632E2,3.0704384E2,8.3531632E1,2.62997168E2,3.20482976E2,,,8.4016168E1,1.5294578E1,1.813746E1,3.2303104E1,6.9674536E1,3.7208344E1,3.3140962E1,1.0669986E1,1.1329816E1,1.1665146E1,,,12,15,17,19,24,25,32,6,10,14,,,15,7,1,1,15,15,3,1,0,0,,,
1570925051,2019-10-13 00:04:11.767,Acquired,Acquired,Acquired,Not acquired,Acquired,Acquired,Acquired,Acquired,Not acquired,Not acquired,,,2.56364016E2,1.7346044799999999E2,3.8812408E1,5.19972E1,1.1298248E2,2.4580632E2,3.0704384E2,8.3531632E1,2.62997168E2,3.20482976E2,,,8.4016168E1,1.5294578E1,1.813746E1,3.2303104E1,6.9674536E1,3.7208344E1,3.3140962E1,1.0669986E1,1.1329816E1,1.1665146E1,,,12,15,17,19,24,25,32,6,10,14,,,15,7,1,1,15,15,3,1,0,0,,,
1570925111,2019-10-13 00:05:11.798,Acquired,Acquired,Acquired,Not acquired,Acquired,Acquired,Acquired,Acquired,Not acquired,Not acquired,,,2.56364016E2,1.7346044799999999E2,3.8812408E1,5.19972E1,1.1298248E2,2.4580632E2,3.0704384E2,8.3531632E1,2.62997168E2,3.20482976E2,,,8.4016168E1,1.5294578E1,1.813746E1,3.2303104E1,6.9674536E1,3.7208344E1,3.3140962E1,1.0669986E1,1.1329816E1,1.1665146E1,,,12,15,17,19,24,25,32,6,10,14,,,15,7,1,1,15,15,3,1,0,0,,,
1570925171,2019-10-13 00:06:11.767,Acquired,Acquired,Acquired,Not acquired,Acquired,Acquired,Acquired,Acquired,Not acquired,Not acquired,,,2.56364016E2,1.7346044799999999E2,3.8812408E1,5.19972E1,1.1298248E2,2.4580632E2,3.0704384E2,8.3531632E1,2.62997168E2,3.20482976E2,,,8.4016168E1,1.5294578E1,1.813746E1,3.2303104E1,6.9674536E1,3.7208344E1,3.3140962E1,1.0669986E1,1.1329816E1,1.1665146E1,,,12,15,17,19,24,25,32,6,10,14,,,15,7,1,1,15,15,3,1,0,0,,,
1570925231,2019-10-13 00:07:11.767,Acquired,Acquired,Acquired,Not acquired,Acquired,Acquired,Acquired,Acquired,Not acquired,Not acquired,,,2.56364016E2,1.7346044799999999E2,3.8812408E1,5.19972E1,1.1298248E2,2.4580632E2,3.0704384E2,8.3531632E1,2.62997168E2,3.20482976E2,,,8.4016168E1,1.5294578E1,1.813746E1,3.2303104E1,6.9674536E1,3.7208344E1,3.3140962E1,1.0669986E1,1.1329816E1,1.1665146E1,,,12,15,17,19,24,25,32,6,10,14,,,15,7,1,1,15,15,3,1,0,0,,,
1570925291,2019-10-13 00:08:11.798,Acquired,Acquired,Acquired,Not acquired,Acquired,Acquired,Acquired,Acquired,Not acquired,Not acquired,,,2.56364016E2,1.7346044799999999E2,3.8812408E1,5.19972E1,1.1298248E2,2.4580632E2,3.0704384E2,8.3531632E1,2.62997168E2,3.20482976E2,,,8.4016168E1,1.5294578E1,1.813746E1,3.2303104E1,6.9674536E1,3.7208344E1,3.3140962E1,1.0669986E1,1.1329816E1,1.1665146E1,,,12,15,17,19,24,25,32,6,10,14,,,15,7,1,1,15,15,3,1,0,0,,,
1570925351,2019-10-13 00:09:11.770,Acquired,Acquired,Acquired,Not acquired,Acquired,Acquired,Acquired,Acquired,Not acquired,Not acquired,,,2.56364016E2,1.7346044799999999E2,3.8812408E1,5.19972E1,1.1298248E2,2.4580632E2,3.0704384E2,8.3531632E1,2.62997168E2,3.20482976E2,,,8.4016168E1,1.5294578E1,1.813746E1,3.2303104E1,6.9674536E1,3.7208344E1,3.3140962E1,1.0669986E1,1.1329816E1,1.1665146E1,,,12,15,17,19,24,25,32,6,10,14,,,15,7,1,1,15,15,3,1,0,0,,,
1570925411,2019-10-13 00:10:11.767,Acquired,Acquired,Acquired,Acquired,Acquired,Acquired,Acquired,Acquired,Acquired,Acquired,,,1.1022128E2,6.9215808E1,4.4055147999999996E1,3.14633152E2,4.1530131999999995E1,1.2561124799999999E2,2.5818343999999996E2,1.9301798399999998E2,2.91100288E2,3.4120056E1,,,1.5848498E1,1.7754331999999998E1,7.7621952E1,2.4066319999999997E1,2.040708E1,5.339882E1,5.2498143999999996E1,1.3683216999999999E1,4.199176E1,5.466653E0,,,2,6,12,14,19,24,25,29,32,17,,,3,1,15,3,1,10,16,1,9,2,,,
1570925471,2019-10-13 00:11:11.767,Acquired,Not acquired,Acquired,Acquired,Acquired,Acquired,Acquired,Acquired,Acquired,,,,9.266701599999999E1,4.8900259999999996E1,6.4084052E1,2.97907168E2,1.36178528E2,2.84748064E2,1.95225088E2,3.0421551999999997E2,2.62584112E2,,,,2.8130063999999997E1,1.9488346E1,5.7022687999999995E1,3.5630967999999996E1,3.3072172E1,7.169112E1,3.4956196E1,2.1457608E1,4.2212376E1,,,,2,6,12,14,24,25,29,31,32,,,,3,0,6,2,7,15,13,2,8,,,,
1570925531,2019-10-13 00:12:11.767,Acquired,Not acquired,Acquired,Acquired,Acquired,Acquired,Acquired,Acquired,Acquired,,,,9.266701599999999E1,4.8900259999999996E1,6.4084052E1,2.97907168E2,1.36178528E2,2.84748064E2,1.95225088E2,3.0421551999999997E2,2.62584112E2,,,,2.8130063999999997E1,1.9488346E1,5.7022687999999995E1,3.5630967999999996E1,3.3072172E1,7.169112E1,3.4956196E1,2.1457608E1,4.2212376E1,,,,2,6,12,14,24,25,29,31,32,,,,3,0,6,2,7,15,13,2,8,,,,
1570925591,2019-10-13 00:13:11.767,Acquired,Not acquired,Acquired,Acquired,Acquired,Acquired,Acquired,Acquired,Acquired,,,,9.266701599999999E1,4.8900259999999996E1,6.4084052E1,2.97907168E2,1.36178528E2,2.84748064E2,1.95225088E2,3.0421551999999997E2,2.62584112E2,,,,2.8130063999999997E1,1.9488346E1,5.7022687999999995E1,3.5630967999999996E1,3.3072172E1,7.169112E1,3.4956196E1,2.1457608E1,4.2212376E1,,,,2,6,12,14,24,25,29,31,32,,,,3,0,6,2,7,15,13,2,8,,,,
1570925651,2019-10-13 00:14:11.800,Acquired,Not acquired,Acquired,Acquired,Acquired,Acquired,Acquired,Acquired,Acquired,,,,9.266701599999999E1,4.8900259999999996E1,6.4084052E1,2.97907168E2,1.36178528E2,2.84748064E2,1.95225088E2,3.0421551999999997E2,2.62584112E2,,,,2.8130063999999997E1,1.9488346E1,5.7022687999999995E1,3.5630967999999996E1,3.3072172E1,7.169112E1,3.4956196E1,2.1457608E1,4.2212376E1,,,,2,6,12,14,24,25,29,31,32,,,,3,0,6,2,7,15,13,2,8,,,,
1570925711,2019-10-13 00:15:11.767,Acquired,Not acquired,Acquired,Acquired,Acquired,Acquired,Acquired,Acquired,Acquired,,,,9.266701599999999E1,4.8900259999999996E1,6.4084052E1,2.97907168E2,1.36178528E2,2.84748064E2,1.95225088E2,3.0421551999999997E2,2.62584112E2,,,,2.8130063999999997E1,1.9488346E1,5.7022687999999995E1,3.5630967999999996E1,3.3072172E1,7.169112E1,3.4956196E1,2.1457608E1,4.2212376E1,,,,2,6,12,14,24,25,29,31,32,,,,3,0,6,2,7,15,13,2,8,,,,
1570925771,2019-10-13 00:16:11.798,Acquired,Not acquired,Acquired,Acquired,Acquired,Acquired,Acquired,Acquired,Acquired,,,,9.266701599999999E1,4.8900259999999996E1,6.4084052E1,2.97907168E2,1.36178528E2,2.84748064E2,1.95225088E2,3.0421551999999997E2,2.62584112E2,,,,2.8130063999999997E1,1.9488346E1,5.7022687999999995E1,3.5630967999999996E1,3.3072172E1,7.169112E1,3.4956196E1,2.1457608E1,4.2212376E1,,,,2,6,12,14,24,25,29,31,32,,,,3,0,6,2,7,15,13,2,8,,,,
1570925831,2019-10-13 00:17:11.767,Acquired,Not acquired,Acquired,Acquired,Acquired,Acquired,Acquired,Acquired,Acquired,,,,9.266701599999999E1,4.8900259999999996E1,6.4084052E1,2.97907168E2,1.36178528E2,2.84748064E2,1.95225088E2,3.0421551999999997E2,2.62584112E2,,,,2.8130063999999997E1,1.9488346E1,5.7022687999999995E1,3.5630967999999996E1,3.3072172E1,7.169112E1,3.4956196E1,2.1457608E1,4.2212376E1,,,,2,6,12,14,24,25,29,31,32,,,,3,0,6,2,7,15,13,2,8,,,,
1570925891,2019-10-13 00:18:11.767,Acquired,Not acquired,Acquired,Acquired,Acquired,Acquired,Acquired,Acquired,Acquired,,,,9.266701599999999E1,4.8900259999999996E1,6.4084052E1,2.97907168E2,1.36178528E2,2.84748064E2,1.95225088E2,3.0421551999999997E2,2.62584112E2,,,,2.8130063999999997E1,1.9488346E1,5.7022687999999995E1,3.5630967999999996E1,3.3072172E1,7.169112E1,3.4956196E1,2.1457608E1,4.2212376E1,,,,2,6,12,14,24,25,29,31,32,,,,3,0,6,2,7,15,13,2,8,,,,
1570925951,2019-10-13 00:19:11.769,Acquired,Not acquired,Acquired,Acquired,Acquired,Acquired,Acquired,Acquired,Acquired,,,,9.266701599999999E1,4.8900259999999996E1,6.4084052E1,2.97907168E2,1.36178528E2,2.84748064E2,1.95225088E2,3.0421551999999997E2,2.62584112E2,,,,2.8130063999999997E1,1.9488346E1,5.7022687999999995E1,3.5630967999999996E1,3.3072172E1,7.169112E1,3.4956196E1,2.1457608E1,4.2212376E1,,,,2,6,12,14,24,25,29,31,32,,,,3,0,6,2,7,15,13,2,8,,,,
1570926011,2019-10-13 00:20:11.767,Acquired,Not acquired,Acquired,Acquired,Acquired,Acquired,Acquired,Acquired,Acquired,,,,9.266701599999999E1,4.8900259999999996E1,6.4084052E1,2.97907168E2,1.36178528E2,2.84748064E2,1.95225088E2,3.0421551999999997E2,2.62584112E2,,,,2.8130063999999997E1,1.9488346E1,5.7022687999999995E1,3.5630967999999996E1,3.3072172E1,7.169112E1,3.4956196E1,2.1457608E1,4.2212376E1,,,,2,6,12,14,24,25,29,31,32,,,,3,0,6,2,7,15,13,2,8,,,,
1570926071,2019-10-13 00:21:11.767,Acquired,Not acquired,Acquired,Acquired,Acquired,Acquired,Acquired,Acquired,Acquired,,,,9.266701599999999E1,4.8900259999999996E1,6.4084052E1,2.97907168E2,1.36178528E2,2.84748064E2,1.95225088E2,3.0421551999999997E2,2.62584112E2,,,,2.8130063999999997E1,1.9488346E1,5.7022687999999995E1,3.5630967999999996E1,3.3072172E1,7.169112E1,3.4956196E1,2.1457608E1,4.2212376E1,,,,2,6,12,14,24,25,29,31,32,,,,3,0,6,2,7,15,13,2,8,,,,
1570926131,2019-10-13 00:22:11.778,Acquired,Not acquired,Acquired,Acquired,Acquired,Acquired,Acquired,Acquired,Acquired,,,,9.266701599999999E1,4.8900259999999996E1,6.4084052E1,2.97907168E2,1.36178528E2,2.84748064E2,1.95225088E2,3.0421551999999997E2,2.62584112E2,,,,2.8130063999999997E1,1.9488346E1,5.7022687999999995E1,3.5630967999999996E1,3.3072172E1,7.169112E1,3.4956196E1,2.1457608E1,4.2212376E1,,,,2,6,12,14,24,25,29,31,32,,,,3,0,6,2,7,15,13,2,8,,,,
1570926191,2019-10-13 00:23:11.767,Acquired,Not acquired,Acquired,Acquired,Acquired,Acquired,Acquired,Acquired,Acquired,,,,9.266701599999999E1,4.8900259999999996E1,6.4084052E1,2.97907168E2,1.36178528E2,2.84748064E2,1.95225088E2,3.0421551999999997E2,2.62584112E2,,,,2.8130063999999997E1,1.9488346E1,5.7022687999999995E1,3.5630967999999996E1,3.3072172E1,7.169112E1,3.4956196E1,2.1457608E1,4.2212376E1,,,,2,6,12,14,24,25,29,31,32,,,,3,0,6,2,7,15,13,2,8,,,,
1570926251,2019-10-13 00:24:11.767,Acquired,Not acquired,Acquired,Acquired,Acquired,Acquired,Acquired,Acquired,Acquired,,,,9.266701599999999E1,4.8900259999999996E1,6.4084052E1,2.97907168E2,1.36178528E2,2.84748064E2,1.95225088E2,3.0421551999999997E2,2.62584112E2,,,,2.8130063999999997E1,1.9488346E1,5.7022687999999995E1,3.5630967999999996E1,3.3072172E1,7.169112E1,3.4956196E1,2.1457608E1,4.2212376E1,,,,2,6,12,14,24,25,29,31,32,,,,3,0,6,2,7,15,13,2,8,,,,
1570926311,2019-10-13 00:25:11.767,Acquired,Not acquired,Acquired,Acquired,Acquired,Acquired,Acquired,Acquired,Acquired,,,,9.266701599999999E1,4.8900259999999996E1,6.4084052E1,2.97907168E2,1.36178528E2,2.84748064E2,1.95225088E2,3.0421551999999997E2,2.62584112E2,,,,2.8130063999999997E1,1.9488346E1,5.7022687999999995E1,3.5630967999999996E1,3.3072172E1,7.169112E1,3.4956196E1,2.1457608E1,4.2212376E1,,,,2,6,12,14,24,25,29,31,32,,,,3,0,6,2,7,15,13,2,8,,,,
1570926371,2019-10-13 00:26:11.769,Acquired,Not acquired,Acquired,Acquired,Acquired,Acquired,Acquired,Acquired,Acquired,,,,9.266701599999999E1,4.8900259999999996E1,6.4084052E1,2.97907168E2,1.36178528E2,2.84748064E2,1.95225088E2,3.0421551999999997E2,2.62584112E2,,,,2.8130063999999997E1,1.9488346E1,5.7022687999999995E1,3.5630967999999996E1,3.3072172E1,7.169112E1,3.4956196E1,2.1457608E1,4.2212376E1,,,,2,6,12,14,24,25,29,31,32,,,,3,0,6,2,7,15,13,2,8,,,,
1570926431,2019-10-13 00:27:11.767,Acquired,Not acquired,Acquired,Acquired,Acquired,Acquired,Acquired,Acquired,Acquired,,,,9.266701599999999E1,4.8900259999999996E1,6.4084052E1,2.97907168E2,1.36178528E2,2.84748064E2,1.95225088E2,3.0421551999999997E2,2.62584112E2,,,,2.8130063999999997E1,1.9488346E1,5.7022687999999995E1,3.5630967999999996E1,3.3072172E1,7.169112E1,3.4956196E1,2.1457608E1,4.2212376E1,,,,2,6,12,14,24,25,29,31,32,,,,3,0,6,2,7,15,13,2,8,,,,
1570926491,2019-10-13 00:28:11.767,Acquired,Not acquired,Acquired,Acquired,Acquired,Acquired,Acquired,Acquired,Acquired,,,,9.266701599999999E1,4.8900259999999996E1,6.4084052E1,2.97907168E2,1.36178528E2,2.84748064E2,1.95225088E2,3.0421551999999997E2,2.62584112E2,,,,2.8130063999999997E1,1.9488346E1,5.7022687999999995E1,3.5630967999999996E1,3.3072172E1,7.169112E1,3.4956196E1,2.1457608E1,4.2212376E1,,,,2,6,12,14,24,25,29,31,32,,,,3,0,6,2,7,15,13,2,8,,,,
1570926551,2019-10-13 00:29:11.796,Acquired,Not acquired,Acquired,Acquired,Acquired,Acquired,Acquired,Acquired,Acquired,,,,9.266701599999999E1,4.8900259999999996E1,6.4084052E1,2.97907168E2,1.36178528E2,2.84748064E2,1.95225088E2,3.0421551999999997E2,2.62584112E2,,,,2.8130063999999997E1,1.9488346E1,5.7022687999999995E1,3.5630967999999996E1,3.3072172E1,7.169112E1,3.4956196E1,2.1457608E1,4.2212376E1,,,,2,6,12,14,24,25,29,31,32,,,,3,0,6,2,7,15,13,2,8,,,,
1570926611,2019-10-13 00:30:11.768,Acquired,Not acquired,Acquired,Acquired,Acquired,Acquired,Acquired,Acquired,Acquired,,,,9.266701599999999E1,4.8900259999999996E1,6.4084052E1,2.97907168E2,1.36178528E2,2.84748064E2,1.95225088E2,3.0421551999999997E2,2.62584112E2,,,,2.8130063999999997E1,1.9488346E1,5.7022687999999995E1,3.5630967999999996E1,3.3072172E1,7.169112E1,3.4956196E1,2.1457608E1,4.2212376E1,,,,2,6,12,14,24,25,29,31,32,,,,3,0,6,2,7,15,13,2,8,,,,
1570926671,2019-10-13 00:31:11.767,Acquired,Not acquired,Acquired,Acquired,Acquired,Acquired,Acquired,Acquired,Acquired,,,,9.266701599999999E1,4.8900259999999996E1,6.4084052E1,2.97907168E2,1.36178528E2,2.84748064E2,1.95225088E2,3.0421551999999997E2,2.62584112E2,,,,2.8130063999999997E1,1.9488346E1,5.7022687999999995E1,3.5630967999999996E1,3.3072172E1,7.169112E1,3.4956196E1,2.1457608E1,4.2212376E1,,,,2,6,12,14,24,25,29,31,32,,,,3,0,6,2,7,15,13,2,8,,,,
1570926731,2019-10-13 00:32:11.767,Acquired,Not acquired,Acquired,Acquired,Acquired,Acquired,Acquired,Acquired,Acquired,,,,9.266701599999999E1,4.8900259999999996E1,6.4084052E1,2.97907168E2,1.36178528E2,2.84748064E2,1.95225088E2,3.0421551999999997E2,2.62584112E2,,,,2.8130063999999997E1,1.9488346E1,5.7022687999999995E1,3.5630967999999996E1,3.3072172E1,7.169112E1,3.4956196E1,2.1457608E1,4.2212376E1,,,,2,6,12,14,24,25,29,31,32,,,,3,0,6,2,7,15,13,2,8,,,,
1570926791,2019-10-13 00:33:11.781,Acquired,Not acquired,Acquired,Acquired,Acquired,Acquired,Acquired,Acquired,Acquired,,,,9.266701599999999E1,4.8900259999999996E1,6.4084052E1,2.97907168E2,1.36178528E2,2.84748064E2,1.95225088E2,3.0421551999999997E2,2.62584112E2,,,,2.8130063999999997E1,1.9488346E1,5.7022687999999995E1,3.5630967999999996E1,3.3072172E1,7.169112E1,3.4956196E1,2.1457608E1,4.2212376E1,,,,2,6,12,14,24,25,29,31,32,,,,3,0,6,2,7,15,13,2,8,,,,
1570926851,2019-10-13 00:34:11.767,Acquired,Not acquired,Acquired,Acquired,Acquired,Acquired,Acquired,Acquired,Acquired,,,,9.266701599999999E1,4.8900259999999996E1,6.4084052E1,2.97907168E2,1.36178528E2,2.84748064E2,1.95225088E2,3.0421551999999997E2,2.62584112E2,,,,2.8130063999999997E1,1.9488346E1,5.7022687999999995E1,3.5630967999999996E1,3.3072172E1,7.169112E1,3.4956196E1,2.1457608E1,4.2212376E1,,,,2,6,12,14,24,25,29,31,32,,,,3,0,6,2,7,15,13,2,8,,,,
1570926911,2019-10-13 00:35:11.767,Acquired,Not acquired,Acquired,Acquired,Acquired,Acquired,Acquired,Acquired,Acquired,,,,9.266701599999999E1,4.8900259999999996E1,6.4084052E1,2.97907168E2,1.36178528E2,2.84748064E2,1.95225088E2,3.0421551999999997E2,2.62584112E2,,,,2.8130063999999997E1,1.9488346E1,5.7022687999999995E1,3.5630967999999996E1,3.3072172E1,7.169112E1,3.4956196E1,2.1457608E1,4.2212376E1,,,,2,6,12,14,24,25,29,31,32,,,,3,0,6,2,7,15,13,2,8,,,,
1570926971,2019-10-13 00:36:11.767,Acquired,Not acquired,Acquired,Acquired,Acquired,Acquired,Acquired,Acquired,Acquired,,,,9.266701599999999E1,4.8900259999999996E1,6.4084052E1,2.97907168E2,1.36178528E2,2.84748064E2,1.95225088E2,3.0421551999999997E2,2.62584112E2,,,,2.8130063999999997E1,1.9488346E1,5.7022687999999995E1,3.5630967999999996E1,3.3072172E1,7.169112E1,3.4956196E1,2.1457608E1,4.2212376E1,,,,2,6,12,14,24,25,29,31,32,,,,3,0,6,2,7,15,13,2,8,,,,
1570927031,2019-10-13 00:37:11.767,Acquired,Not acquired,Acquired,Acquired,Acquired,Acquired,Acquired,Acquired,Acquired,,,,9.266701599999999E1,4.8900259999999996E1,6.4084052E1,2.97907168E2,1.36178528E2,2.84748064E2,1.95225088E2,3.0421551999999997E2,2.62584112E2,,,,2.8130063999999997E1,1.9488346E1,5.7022687999999995E1,3.5630967999999996E1,3.3072172E1,7.169112E1,3.4956196E1,2.1457608E1,4.2212376E1,,,,2,6,12,14,24,25,29,31,32,,,,3,0,6,2,7,15,13,2,8,,,,
1570927091,2019-10-13 00:38:11.769,Acquired,Not acquired,Acquired,Acquired,Acquired,Acquired,Acquired,Acquired,Acquired,,,,9.266701599999999E1,4.8900259999999996E1,6.4084052E1,2.97907168E2,1.36178528E2,2.84748064E2,1.95225088E2,3.0421551999999997E2,2.62584112E2,,,,2.8130063999999997E1,1.9488346E1,5.7022687999999995E1,3.5630967999999996E1,3.3072172E1,7.169112E1,3.4956196E1,2.1457608E1,4.2212376E1,,,,2,6,12,14,24,25,29,31,32,,,,3,0,6,2,7,15,13,2,8,,,,
1570927151,2019-10-13 00:39:11.775,Acquired,Not acquired,Acquired,Acquired,Acquired,Acquired,Acquired,Acquired,Acquired,,,,9.266701599999999E1,4.8900259999999996E1,6.4084052E1,2.97907168E2,1.36178528E2,2.84748064E2,1.95225088E2,3.0421551999999997E2,2.62584112E2,,,,2.8130063999999997E1,1.9488346E1,5.7022687999999995E1,3.5630967999999996E1,3.3072172E1,7.169112E1,3.4956196E1,2.1457608E1,4.2212376E1,,,,2,6,12,14,24,25,29,31,32,,,,3,0,6,2,7,15,13,2,8,,,,
1570927211,2019-10-13 00:40:11.767,Acquired,Not acquired,Acquired,Acquired,Acquired,Acquired,Acquired,Acquired,Acquired,,,,9.266701599999999E1,4.8900259999999996E1,6.4084052E1,2.97907168E2,1.36178528E2,2.84748064E2,1.95225088E2,3.0421551999999997E2,2.62584112E2,,,,2.8130063999999997E1,1.9488346E1,5.7022687999999995E1,3.5630967999999996E1,3.3072172E1,7.169112E1,3.4956196E1,2.1457608E1,4.2212376E1,,,,2,6,12,14,24,25,29,31,32,,,,3,0,6,2,7,15,13,2,8,,,,
1570927271,2019-10-13 00:41:11.767,Acquired,Not acquired,Acquired,Acquired,Acquired,Acquired,Acquired,Acquired,Acquired,,,,9.266701599999999E1,4.8900259999999996E1,6.4084052E1,2.97907168E2,1.36178528E2,2.84748064E2,1.95225088E2,3.0421551999999997E2,2.62584112E2,,,,2.8130063999999997E1,1.9488346E1,5.7022687999999995E1,3.5630967999999996E1,3.3072172E1,7.169112E1,3.4956196E1,2.1457608E1,4.2212376E1,,,,2,6,12,14,24,25,29,31,32,,,,3,0,6,2,7,15,13,2,8,,,,
1570927331,2019-10-13 00:42:11.767,Acquired,Not acquired,Acquired,Acquired,Acquired,Acquired,Acquired,Acquired,Acquired,,,,9.266701599999999E1,4.8900259999999996E1,6.4084052E1,2.97907168E2,1.36178528E2,2.84748064E2,1.95225088E2,3.0421551999999997E2,2.62584112E2,,,,2.8130063999999997E1,1.9488346E1,5.7022687999999995E1,3.5630967999999996E1,3.3072172E1,7.169112E1,3.4956196E1,2.1457608E1,4.2212376E1,,,,2,6,12,14,24,25,29,31,32,,,,3,0,6,2,7,15,13,2,8,,,,
1570927391,2019-10-13 00:43:11.767,Acquired,Not acquired,Acquired,Acquired,Acquired,Acquired,Acquired,Acquired,Acquired,,,,9.266701599999999E1,4.8900259999999996E1,6.4084052E1,2.97907168E2,1.36178528E2,2.84748064E2,1.95225088E2,3.0421551999999997E2,2.62584112E2,,,,2.8130063999999997E1,1.9488346E1,5.7022687999999995E1,3.5630967999999996E1,3.3072172E1,7.169112E1,3.4956196E1,2.1457608E1,4.2212376E1,,,,2,6,12,14,24,25,29,31,32,,,,3,0,6,2,7,15,13,2,8,,,,
1570927451,2019-10-13 00:44:11.767,Acquired,Not acquired,Acquired,Acquired,Acquired,Acquired,Acquired,Acquired,Acquired,,,,9.266701599999999E1,4.8900259999999996E1,6.4084052E1,2.97907168E2,1.36178528E2,2.84748064E2,1.95225088E2,3.0421551999999997E2,2.62584112E2,,,,2.8130063999999997E1,1.9488346E1,5.7022687999999995E1,3.5630967999999996E1,3.3072172E1,7.169112E1,3.4956196E1,2.1457608E1,4.2212376E1,,,,2,6,12,14,24,25,29,31,32,,,,3,0,6,2,7,15,13,2,8,,,,
1570927511,2019-10-13 00:45:11.767,Acquired,Not acquired,Acquired,Acquired,Acquired,Acquired,Acquired,Acquired,Acquired,,,,9.266701599999999E1,4.8900259999999996E1,6.4084052E1,2.97907168E2,1.36178528E2,2.84748064E2,1.95225088E2,3.0421551999999997E2,2.62584112E2,,,,2.8130063999999997E1,1.9488346E1,5.7022687999999995E1,3.5630967999999996E1,3.3072172E1,7.169112E1,3.4956196E1,2.1457608E1,4.2212376E1,,,,2,6,12,14,24,25,29,31,32,,,,3,0,6,2,7,15,13,2,8,,,,
1570927571,2019-10-13 00:46:11.767,Acquired,Not acquired,Acquired,Acquired,Acquired,Acquired,Acquired,Acquired,Acquired,,,,9.266701599999999E1,4.8900259999999996E1,6.4084052E1,2.97907168E2,1.36178528E2,2.84748064E2,1.95225088E2,3.0421551999999997E2,2.62584112E2,,,,2.8130063999999997E1,1.9488346E1,5.7022687999999995E1,3.5630967999999996E1,3.3072172E1,7.169112E1,3.4956196E1,2.1457608E1,4.2212376E1,,,,2,6,12,14,24,25,29,31,32,,,,3,0,6,2,7,15,13,2,8,,,,
1570927631,2019-10-13 00:47:11.767,Acquired,Not acquired,Acquired,Acquired,Acquired,Acquired,Acquired,Acquired,Acquired,,,,9.266701599999999E1,4.8900259999999996E1,6.4084052E1,2.97907168E2,1.36178528E2,2.84748064E2,1.95225088E2,3.0421551999999997E2,2.62584112E2,,,,2.8130063999999997E1,1.9488346E1,5.7022687999999995E1,3.5630967999999996E1,3.3072172E1,7.169112E1,3.4956196E1,2.1457608E1,4.2212376E1,,,,2,6,12,14,24,25,29,31,32,,,,3,0,6,2,7,15,13,2,8,,,,
1570927691,2019-10-13 00:48:11.767,Acquired,Not acquired,Acquired,Acquired,Acquired,Acquired,Acquired,Acquired,Acquired,,,,9.266701599999999E1,4.8900259999999996E1,6.4084052E1,2.97907168E2,1.36178528E2,2.84748064E2,1.95225088E2,3.0421551999999997E2,2.62584112E2,,,,2.8130063999999997E1,1.9488346E1,5.7022687999999995E1,3.5630967999999996E1,3.3072172E1,7.169112E1,3.4956196E1,2.1457608E1,4.2212376E1,,,,2,6,12,14,24,25,29,31,32,,,,3,0,6,2,7,15,13,2,8,,,,
1570927751,2019-10-13 00:49:11.773,Acquired,Not acquired,Acquired,Acquired,Acquired,Acquired,Acquired,Acquired,Acquired,,,,9.266701599999999E1,4.8900259999999996E1,6.4084052E1,2.97907168E2,1.36178528E2,2.84748064E2,1.95225088E2,3.0421551999999997E2,2.62584112E2,,,,2.8130063999999997E1,1.9488346E1,5.7022687999999995E1,3.5630967999999996E1,3.3072172E1,7.169112E1,3.4956196E1,2.1457608E1,4.2212376E1,,,,2,6,12,14,24,25,29,31,32,,,,3,0,6,2,7,15,13,2,8,,,,
1570927811,2019-10-13 00:50:11.767,Acquired,Not acquired,Acquired,Acquired,Acquired,Acquired,Acquired,Acquired,Acquired,,,,9.266701599999999E1,4.8900259999999996E1,6.4084052E1,2.97907168E2,1.36178528E2,2.84748064E2,1.95225088E2,3.0421551999999997E2,2.62584112E2,,,,2.8130063999999997E1,1.9488346E1,5.7022687999999995E1,3.5630967999999996E1,3.3072172E1,7.169112E1,3.4956196E1,2.1457608E1,4.2212376E1,,,,2,6,12,14,24,25,29,31,32,,,,3,0,6,2,7,15,13,2,8,,,,
1570927871,2019-10-13 00:51:11.767,Acquired,Not acquired,Acquired,Acquired,Acquired,Acquired,Acquired,Acquired,Acquired,,,,9.266701599999999E1,4.8900259999999996E1,6.4084052E1,2.97907168E2,1.36178528E2,2.84748064E2,1.95225088E2,3.0421551999999997E2,2.62584112E2,,,,2.8130063999999997E1,1.9488346E1,5.7022687999999995E1,3.5630967999999996E1,3.3072172E1,7.169112E1,3.4956196E1,2.1457608E1,4.2212376E1,,,,2,6,12,14,24,25,29,31,32,,,,3,0,6,2,7,15,13,2,8,,,,
1570927931,2019-10-13 00:52:11.769,Acquired,Not acquired,Acquired,Acquired,Acquired,Acquired,Acquired,Acquired,Acquired,,,,9.266701599999999E1,4.8900259999999996E1,6.4084052E1,2.97907168E2,1.36178528E2,2.84748064E2,1.95225088E2,3.0421551999999997E2,2.62584112E2,,,,2.8130063999999997E1,1.9488346E1,5.7022687999999995E1,3.5630967999999996E1,3.3072172E1,7.169112E1,3.4956196E1,2.1457608E1,4.2212376E1,,,,2,6,12,14,24,25,29,31,32,,,,3,0,6,2,7,15,13,2,8,,,,
1570927991,2019-10-13 00:53:11.767,Acquired,Not acquired,Acquired,Acquired,Acquired,Acquired,Acquired,Acquired,Acquired,,,,9.266701599999999E1,4.8900259999999996E1,6.4084052E1,2.97907168E2,1.36178528E2,2.84748064E2,1.95225088E2,3.0421551999999997E2,2.62584112E2,,,,2.8130063999999997E1,1.9488346E1,5.7022687999999995E1,3.5630967999999996E1,3.3072172E1,7.169112E1,3.4956196E1,2.1457608E1,4.2212376E1,,,,2,6,12,14,24,25,29,31,32,,,,3,0,6,2,7,15,13,2,8,,,,
1570928051,2019-10-13 00:54:11.768,Acquired,Not acquired,Acquired,Acquired,Acquired,Acquired,Acquired,Acquired,Acquired,,,,9.266701599999999E1,4.8900259999999996E1,6.4084052E1,2.97907168E2,1.36178528E2,2.84748064E2,1.95225088E2,3.0421551999999997E2,2.62584112E2,,,,2.8130063999999997E1,1.9488346E1,5.7022687999999995E1,3.5630967999999996E1,3.3072172E1,7.169112E1,3.4956196E1,2.1457608E1,4.2212376E1,,,,2,6,12,14,24,25,29,31,32,,,,3,0,6,2,7,15,13,2,8,,,,
1570928111,2019-10-13 00:55:11.773,Acquired,Not acquired,Acquired,Acquired,Acquired,Acquired,Acquired,Acquired,Acquired,,,,9.266701599999999E1,4.8900259999999996E1,6.4084052E1,2.97907168E2,1.36178528E2,2.84748064E2,1.95225088E2,3.0421551999999997E2,2.62584112E2,,,,2.8130063999999997E1,1.9488346E1,5.7022687999999995E1,3.5630967999999996E1,3.3072172E1,7.169112E1,3.4956196E1,2.1457608E1,4.2212376E1,,,,2,6,12,14,24,25,29,31,32,,,,3,0,6,2,7,15,13,2,8,,,,
1570928171,2019-10-13 00:56:11.777,Acquired,Not acquired,Acquired,Acquired,Acquired,Acquired,Acquired,Acquired,Acquired,,,,9.266701599999999E1,4.8900259999999996E1,6.4084052E1,2.97907168E2,1.36178528E2,2.84748064E2,1.95225088E2,3.0421551999999997E2,2.62584112E2,,,,2.8130063999999997E1,1.9488346E1,5.7022687999999995E1,3.5630967999999996E1,3.3072172E1,7.169112E1,3.4956196E1,2.1457608E1,4.2212376E1,,,,2,6,12,14,24,25,29,31,32,,,,3,0,6,2,7,15,13,2,8,,,,
1570928231,2019-10-13 00:57:11.767,Acquired,Not acquired,Acquired,Acquired,Acquired,Acquired,Acquired,Acquired,Acquired,,,,9.266701599999999E1,4.8900259999999996E1,6.4084052E1,2.97907168E2,1.36178528E2,2.84748064E2,1.95225088E2,3.0421551999999997E2,2.62584112E2,,,,2.8130063999999997E1,1.9488346E1,5.7022687999999995E1,3.5630967999999996E1,3.3072172E1,7.169112E1,3.4956196E1,2.1457608E1,4.2212376E1,,,,2,6,12,14,24,25,29,31,32,,,,3,0,6,2,7,15,13,2,8,,,,
1570928291,2019-10-13 00:58:11.767,Acquired,Not acquired,Acquired,Acquired,Acquired,Acquired,Acquired,Acquired,Acquired,,,,9.266701599999999E1,4.8900259999999996E1,6.4084052E1,2.97907168E2,1.36178528E2,2.84748064E2,1.95225088E2,3.0421551999999997E2,2.62584112E2,,,,2.8130063999999997E1,1.9488346E1,5.7022687999999995E1,3.5630967999999996E1,3.3072172E1,7.169112E1,3.4956196E1,2.1457608E1,4.2212376E1,,,,2,6,12,14,24,25,29,31,32,,,,3,0,6,2,7,15,13,2,8,,,,
1570928351,2019-10-13 00:59:11.767,Acquired,Not acquired,Acquired,Acquired,Acquired,Acquired,Acquired,Acquired,Acquired,,,,9.266701599999999E1,4.8900259999999996E1,6.4084052E1,2.97907168E2,1.36178528E2,2.84748064E2,1.95225088E2,3.0421551999999997E2,2.62584112E2,,,,2.8130063999999997E1,1.9488346E1,5.7022687999999995E1,3.5630967999999996E1,3.3072172E1,7.169112E1,3.4956196E1,2.1457608E1,4.2212376E1,,,,2,6,12,14,24,25,29,31,32,,,,3,0,6,2,7,15,13,2,8,,,,
