Time(longsecs),Time(UTC),Supply Voltage(mV),Temperature(&deg;C),NMX Bus Current(mA),Sensor Current(mA),Serial Port Current(mA),Controller Current(mA),Digitizer Current(mA),
1571684430,2019-10-21 19:00:30.925,16387,2.23266E1,0,9,0,59,42,
1571684490,2019-10-21 19:01:30.925,16374,2.2219696E1,0,9,0,65,46,
1571684550,2019-10-21 19:02:30.925,16387,2.2199402E1,0,14,0,59,42,
1571684610,2019-10-21 19:03:30.925,16374,2.2358673E1,0,9,0,57,42,
1571684670,2019-10-21 19:04:30.925,16387,2.2362946E1,0,10,0,57,42,
1571684730,2019-10-21 19:05:30.926,16387,2.225177E1,0,13,0,59,41,
1571684790,2019-10-21 19:06:30.925,16374,2.2290253E1,0,14,0,58,40,
1571684850,2019-10-21 19:07:30.958,16374,2.2247498E1,0,11,14,70,39,
1571684910,2019-10-21 19:08:30.925,16374,2.2290253E1,0,13,0,66,44,
1571684970,2019-10-21 19:09:30.927,16387,2.2436737E1,0,10,0,56,42,
1571685030,2019-10-21 19:10:30.964,16374,2.2386475E1,0,13,0,59,42,
1571685090,2019-10-21 19:11:30.926,16374,2.2328735E1,0,9,0,56,42,
1571685150,2019-10-21 19:12:30.925,16414,2.2025146E1,0,13,0,58,42,
1571685210,2019-10-21 19:13:30.925,16374,2.2219696E1,0,11,0,57,42,
1571685270,2019-10-21 19:14:30.925,16387,2.2087128E1,0,15,0,58,45,
1571685330,2019-10-21 19:15:30.925,16374,2.2098907E1,0,9,0,58,42,
1571685390,2019-10-21 19:16:30.925,16387,2.2088226E1,0,10,0,58,45,
1571685450,2019-10-21 19:17:30.925,16374,2.2082855E1,0,9,0,57,46,
1571685510,2019-10-21 19:18:30.925,16374,2.2059357E1,0,9,0,56,40,
1571685570,2019-10-21 19:19:30.926,16360,2.2342651E1,0,11,0,57,45,
1571685630,2019-10-21 19:20:30.927,16374,2.2283844E1,0,13,0,57,43,
1571685690,2019-10-21 19:21:30.925,16360,2.2052948E1,0,9,0,72,41,
1571685750,2019-10-21 19:22:30.925,16374,2.2203674E1,0,13,0,58,41,
1571685810,2019-10-21 19:23:30.925,16374,2.1900055E1,0,10,0,57,40,
1571685870,2019-10-21 19:24:30.925,16374,2.2071106E1,0,8,0,58,44,
1571685930,2019-10-21 19:25:30.925,16374,2.2096771E1,0,8,0,59,44,
1571685990,2019-10-21 19:26:30.925,16374,2.2203674E1,0,11,0,58,42,
1571686050,2019-10-21 19:27:30.925,16374,2.189151E1,0,9,0,57,41,
1571686110,2019-10-21 19:28:30.925,16374,2.218335E1,0,10,0,57,41,
1571686170,2019-10-21 19:29:30.925,16360,2.174826E1,0,6,0,60,41,
1571686230,2019-10-21 19:30:30.925,16374,2.1956726E1,0,19,0,56,41,
1571686290,2019-10-21 19:31:30.926,16374,2.2046509E1,0,9,0,56,41,
1571686350,2019-10-21 19:32:30.925,16374,2.1907532E1,0,9,0,58,40,
1571686410,2019-10-21 19:33:30.925,16360,2.1917175E1,0,13,0,57,43,
1571686470,2019-10-21 19:34:30.925,16360,2.200589E1,0,10,0,58,42,
1571686530,2019-10-21 19:35:30.925,16360,2.1910736E1,0,11,0,59,47,
1571686590,2019-10-21 19:36:30.925,16374,2.2009094E1,0,5,0,58,40,
1571686650,2019-10-21 19:37:30.925,16374,2.1861572E1,0,18,0,58,42,
1571686710,2019-10-21 19:38:30.925,16374,2.1878662E1,0,8,0,59,41,
1571686770,2019-10-21 19:39:30.925,16360,2.1815613E1,0,9,0,58,41,
1571686830,2019-10-21 19:40:30.925,16387,2.1965271E1,0,6,0,62,44,
1571686890,2019-10-21 19:41:30.925,16360,2.1964203E1,0,8,0,57,43,
1571686950,2019-10-21 19:42:30.935,16360,2.1609283E1,0,11,0,59,39,
1571687010,2019-10-21 19:43:30.925,16374,2.1955658E1,0,14,0,58,45,
1571687070,2019-10-21 19:44:30.925,16387,2.1761078E1,0,11,0,59,43,
1571687130,2019-10-21 19:45:30.925,16360,2.1955658E1,0,10,0,58,44,
1571687190,2019-10-21 19:46:30.927,16374,2.1758942E1,0,7,0,58,43,
1571687250,2019-10-21 19:47:30.925,16428,2.1661652E1,0,11,0,59,41,
1571687310,2019-10-21 19:48:30.926,16374,2.1831635E1,0,9,0,67,43,
1571687370,2019-10-21 19:49:30.926,16468,2.1893646E1,0,6,0,68,42,
1571687430,2019-10-21 19:50:30.925,16360,2.1655243E1,0,10,0,58,41,
1571687490,2019-10-21 19:51:30.925,16387,2.1718323E1,0,11,0,59,42,
1571687550,2019-10-21 19:52:30.958,16346,2.1552612E1,0,7,0,60,41,
1571687610,2019-10-21 19:53:30.925,16292,2.1624237E1,0,9,0,59,45,
1571687670,2019-10-21 19:54:30.925,16481,2.1639221E1,0,2,0,58,39,
1571687730,2019-10-21 19:55:30.927,16387,2.173648E1,0,13,0,57,44,
1571687790,2019-10-21 19:56:30.935,16360,2.1554749E1,0,8,0,58,43,
1571687850,2019-10-21 19:57:30.925,16360,2.1625305E1,0,9,0,59,40,
1571687910,2019-10-21 19:58:30.925,16360,2.1509857E1,0,9,0,58,43,
1571687970,2019-10-21 19:59:30.927,16360,2.1523743E1,0,7,0,58,43,
