Time(longsecs),Time(UTC),GPS Satellite Acquisition Flag 1,GPS Satellite Acquisition Flag 2,GPS Satellite Acquisition Flag 3,GPS Satellite Acquisition Flag 4,GPS Satellite Acquisition Flag 5,GPS Satellite Acquisition Flag 6,GPS Satellite Acquisition Flag 7,GPS Satellite Acquisition Flag 8,GPS Satellite Acquisition Flag 9,GPS Satellite Acquisition Flag 10,GPS Satellite Acquisition Flag 11,GPS Satellite Acquisition Flag 12,GPS Satellite Azimuth 1(Degrees),GPS Satellite Azimuth 2(Degrees),GPS Satellite Azimuth 3(Degrees),GPS Satellite Azimuth 4(Degrees),GPS Satellite Azimuth 5(Degrees),GPS Satellite Azimuth 6(Degrees),GPS Satellite Azimuth 7(Degrees),GPS Satellite Azimuth 8(Degrees),GPS Satellite Azimuth 9(Degrees),GPS Satellite Azimuth 10(Degrees),GPS Satellite Azimuth 11(Degrees),GPS Satellite Azimuth 12(Degrees),GPS Satellite Elevation 1(Degrees),GPS Satellite Elevation 2(Degrees),GPS Satellite Elevation 3(Degrees),GPS Satellite Elevation 4(Degrees),GPS Satellite Elevation 5(Degrees),GPS Satellite Elevation 6(Degrees),GPS Satellite Elevation 7(Degrees),GPS Satellite Elevation 8(Degrees),GPS Satellite Elevation 9(Degrees),GPS Satellite Elevation 10(Degrees),GPS Satellite Elevation 11(Degrees),GPS Satellite Elevation 12(Degrees),GPS Satellite PRN 1,GPS Satellite PRN 2,GPS Satellite PRN 3,GPS Satellite PRN 4,GPS Satellite PRN 5,GPS Satellite PRN 6,GPS Satellite PRN 7,GPS Satellite PRN 8,GPS Satellite PRN 9,GPS Satellite PRN 10,GPS Satellite PRN 11,GPS Satellite PRN 12,GPS Satellite Signal Level 1(AMU),GPS Satellite Signal Level 2(AMU),GPS Satellite Signal Level 3(AMU),GPS Satellite Signal Level 4(AMU),GPS Satellite Signal Level 5(AMU),GPS Satellite Signal Level 6(AMU),GPS Satellite Signal Level 7(AMU),GPS Satellite Signal Level 8(AMU),GPS Satellite Signal Level 9(AMU),GPS Satellite Signal Level 10(AMU),GPS Satellite Signal Level 11(AMU),GPS Satellite Signal Level 12(AMU),
1571619630,2019-10-21 01:00:30.926,,Acquired,Acquired,Not acquired,Acquired,Acquired,Acquired,Acquired,Acquired,,,,,7.9290976E1,2.7158416E2,1.43880416E2,3.3826744E1,1.97927168E2,3.03624672E2,2.38443184E2,3.0807798E1,,,,,3.6469732E1,3.6535052E1,1.2551788E1,7.972466399999999E1,5.94026E1,4.170324E1,2.9307447999999997E1,1.12042E1,,,,,12,14,24,25,29,31,32,6,,,,,15,9,1,15,16,15,12,5,,,,
1571619690,2019-10-21 01:01:30.925,,Acquired,Acquired,Not acquired,Acquired,Acquired,Acquired,Acquired,Acquired,,,,,7.9290976E1,2.7158416E2,1.43880416E2,3.3826744E1,1.97927168E2,3.03624672E2,2.38443184E2,3.0807798E1,,,,,3.6469732E1,3.6535052E1,1.2551788E1,7.972466399999999E1,5.94026E1,4.170324E1,2.9307447999999997E1,1.12042E1,,,,,12,14,24,25,29,31,32,6,,,,,15,9,1,15,16,15,12,5,,,,
1571619750,2019-10-21 01:02:30.925,,Acquired,Acquired,Not acquired,Acquired,Acquired,Acquired,Acquired,Acquired,,,,,7.9290976E1,2.7158416E2,1.43880416E2,3.3826744E1,1.97927168E2,3.03624672E2,2.38443184E2,3.0807798E1,,,,,3.6469732E1,3.6535052E1,1.2551788E1,7.972466399999999E1,5.94026E1,4.170324E1,2.9307447999999997E1,1.12042E1,,,,,12,14,24,25,29,31,32,6,,,,,15,9,1,15,16,15,12,5,,,,
1571619810,2019-10-21 01:03:30.925,,Acquired,Acquired,Not acquired,Acquired,Acquired,Acquired,Acquired,Acquired,,,,,7.9290976E1,2.7158416E2,1.43880416E2,3.3826744E1,1.97927168E2,3.03624672E2,2.38443184E2,3.0807798E1,,,,,3.6469732E1,3.6535052E1,1.2551788E1,7.972466399999999E1,5.94026E1,4.170324E1,2.9307447999999997E1,1.12042E1,,,,,12,14,24,25,29,31,32,6,,,,,15,9,1,15,16,15,12,5,,,,
1571619870,2019-10-21 01:04:30.925,,Acquired,Acquired,Not acquired,Acquired,Acquired,Acquired,Acquired,Acquired,,,,,7.9290976E1,2.7158416E2,1.43880416E2,3.3826744E1,1.97927168E2,3.03624672E2,2.38443184E2,3.0807798E1,,,,,3.6469732E1,3.6535052E1,1.2551788E1,7.972466399999999E1,5.94026E1,4.170324E1,2.9307447999999997E1,1.12042E1,,,,,12,14,24,25,29,31,32,6,,,,,15,9,1,15,16,15,12,5,,,,
1571619930,2019-10-21 01:05:30.926,,Acquired,Acquired,Not acquired,Acquired,Acquired,Acquired,Acquired,Acquired,,,,,7.9290976E1,2.7158416E2,1.43880416E2,3.3826744E1,1.97927168E2,3.03624672E2,2.38443184E2,3.0807798E1,,,,,3.6469732E1,3.6535052E1,1.2551788E1,7.972466399999999E1,5.94026E1,4.170324E1,2.9307447999999997E1,1.12042E1,,,,,12,14,24,25,29,31,32,6,,,,,15,9,1,15,16,15,12,5,,,,
1571619990,2019-10-21 01:06:30.926,Acquired,Acquired,Acquired,,,Acquired,Acquired,Acquired,Acquired,,,,6.7768272E1,7.9589344E1,2.7103072E2,,,1.97944944E2,3.0348352E2,2.3806856E2,3.0512884E1,,,,3.2523404E1,3.6074968E1,3.6408964E1,,,5.9919596E1,4.2125264E1,2.8961474E1,1.0945179999999999E1,,,,2,12,14,,,29,31,32,6,,,,11,13,9,,,15,14,12,5,,,,
1571620050,2019-10-21 01:07:30.925,Acquired,Acquired,,Acquired,Acquired,Acquired,Acquired,Acquired,Acquired,,,,5.0746752E1,9.080788E1,,8.0827472E1,2.830824E2,1.89063088E2,2.90490816E2,2.2610366399999998E2,1.7930497599999998E2,,,,2.7345257999999998E1,2.1419618E1,,6.534513199999999E1,1.9116108E1,7.9559024E1,5.7112235999999996E1,1.4878247E1,7.112451999999999E0,,,,2,12,,25,26,29,31,32,21,,,,12,7,,15,5,15,14,9,7,,,,
1571620110,2019-10-21 01:08:30.925,Acquired,Acquired,,Acquired,Acquired,Acquired,Acquired,Acquired,Acquired,,,,5.0746752E1,9.080788E1,,8.0827472E1,2.830824E2,1.89063088E2,2.90490816E2,2.2610366399999998E2,1.7930497599999998E2,,,,2.7345257999999998E1,2.1419618E1,,6.534513199999999E1,1.9116108E1,7.9559024E1,5.7112235999999996E1,1.4878247E1,7.112451999999999E0,,,,2,12,,25,26,29,31,32,21,,,,12,7,,15,5,15,14,9,7,,,,
1571620170,2019-10-21 01:09:30.928,Acquired,Acquired,,Acquired,Acquired,Acquired,Acquired,Acquired,Acquired,,,,5.0746752E1,9.080788E1,,8.0827472E1,2.830824E2,1.89063088E2,2.90490816E2,2.2610366399999998E2,1.7930497599999998E2,,,,2.7345257999999998E1,2.1419618E1,,6.534513199999999E1,1.9116108E1,7.9559024E1,5.7112235999999996E1,1.4878247E1,7.112451999999999E0,,,,2,12,,25,26,29,31,32,21,,,,12,7,,15,5,15,14,9,7,,,,
1571620230,2019-10-21 01:10:30.925,Acquired,Acquired,,Acquired,Acquired,Acquired,Acquired,Acquired,Acquired,,,,5.0746752E1,9.080788E1,,8.0827472E1,2.830824E2,1.89063088E2,2.90490816E2,2.2610366399999998E2,1.7930497599999998E2,,,,2.7345257999999998E1,2.1419618E1,,6.534513199999999E1,1.9116108E1,7.9559024E1,5.7112235999999996E1,1.4878247E1,7.112451999999999E0,,,,2,12,,25,26,29,31,32,21,,,,12,7,,15,5,15,14,9,7,,,,
1571620290,2019-10-21 01:11:30.925,Acquired,Acquired,,Acquired,Acquired,Acquired,Acquired,Acquired,Acquired,,,,5.0746752E1,9.080788E1,,8.0827472E1,2.830824E2,1.89063088E2,2.90490816E2,2.2610366399999998E2,1.7930497599999998E2,,,,2.7345257999999998E1,2.1419618E1,,6.534513199999999E1,1.9116108E1,7.9559024E1,5.7112235999999996E1,1.4878247E1,7.112451999999999E0,,,,2,12,,25,26,29,31,32,21,,,,12,7,,15,5,15,14,9,7,,,,
1571620350,2019-10-21 01:12:30.928,Acquired,Acquired,,Acquired,Acquired,Acquired,Acquired,Acquired,Acquired,,,,5.0746752E1,9.080788E1,,8.0827472E1,2.830824E2,1.89063088E2,2.90490816E2,2.2610366399999998E2,1.7930497599999998E2,,,,2.7345257999999998E1,2.1419618E1,,6.534513199999999E1,1.9116108E1,7.9559024E1,5.7112235999999996E1,1.4878247E1,7.112451999999999E0,,,,2,12,,25,26,29,31,32,21,,,,12,7,,15,5,15,14,9,7,,,,
1571620410,2019-10-21 01:13:30.927,Acquired,Acquired,,Acquired,Acquired,Acquired,Acquired,Acquired,Acquired,,,,5.0746752E1,9.080788E1,,8.0827472E1,2.830824E2,1.89063088E2,2.90490816E2,2.2610366399999998E2,1.7930497599999998E2,,,,2.7345257999999998E1,2.1419618E1,,6.534513199999999E1,1.9116108E1,7.9559024E1,5.7112235999999996E1,1.4878247E1,7.112451999999999E0,,,,2,12,,25,26,29,31,32,21,,,,12,7,,15,5,15,14,9,7,,,,
1571620470,2019-10-21 01:14:30.925,Acquired,Acquired,,Acquired,Acquired,Acquired,Acquired,Acquired,Acquired,,,,5.0746752E1,9.080788E1,,8.0827472E1,2.830824E2,1.89063088E2,2.90490816E2,2.2610366399999998E2,1.7930497599999998E2,,,,2.7345257999999998E1,2.1419618E1,,6.534513199999999E1,1.9116108E1,7.9559024E1,5.7112235999999996E1,1.4878247E1,7.112451999999999E0,,,,2,12,,25,26,29,31,32,21,,,,12,7,,15,5,15,14,9,7,,,,
1571620530,2019-10-21 01:15:30.925,Acquired,Acquired,,Acquired,Acquired,Acquired,Acquired,Acquired,Acquired,,,,5.0746752E1,9.080788E1,,8.0827472E1,2.830824E2,1.89063088E2,2.90490816E2,2.2610366399999998E2,1.7930497599999998E2,,,,2.7345257999999998E1,2.1419618E1,,6.534513199999999E1,1.9116108E1,7.9559024E1,5.7112235999999996E1,1.4878247E1,7.112451999999999E0,,,,2,12,,25,26,29,31,32,21,,,,12,7,,15,5,15,14,9,7,,,,
1571620590,2019-10-21 01:16:30.926,Acquired,Acquired,,Acquired,Acquired,Acquired,Acquired,Acquired,Acquired,,,,5.0746752E1,9.080788E1,,8.0827472E1,2.830824E2,1.89063088E2,2.90490816E2,2.2610366399999998E2,1.7930497599999998E2,,,,2.7345257999999998E1,2.1419618E1,,6.534513199999999E1,1.9116108E1,7.9559024E1,5.7112235999999996E1,1.4878247E1,7.112451999999999E0,,,,2,12,,25,26,29,31,32,21,,,,12,7,,15,5,15,14,9,7,,,,
1571620650,2019-10-21 01:17:30.925,Acquired,Acquired,,Acquired,Acquired,Acquired,Acquired,Acquired,Acquired,,,,5.0746752E1,9.080788E1,,8.0827472E1,2.830824E2,1.89063088E2,2.90490816E2,2.2610366399999998E2,1.7930497599999998E2,,,,2.7345257999999998E1,2.1419618E1,,6.534513199999999E1,1.9116108E1,7.9559024E1,5.7112235999999996E1,1.4878247E1,7.112451999999999E0,,,,2,12,,25,26,29,31,32,21,,,,12,7,,15,5,15,14,9,7,,,,
1571620710,2019-10-21 01:18:30.925,Acquired,Acquired,,Acquired,Acquired,Acquired,Acquired,Acquired,Acquired,,,,5.0746752E1,9.080788E1,,8.0827472E1,2.830824E2,1.89063088E2,2.90490816E2,2.2610366399999998E2,1.7930497599999998E2,,,,2.7345257999999998E1,2.1419618E1,,6.534513199999999E1,1.9116108E1,7.9559024E1,5.7112235999999996E1,1.4878247E1,7.112451999999999E0,,,,2,12,,25,26,29,31,32,21,,,,12,7,,15,5,15,14,9,7,,,,
1571620770,2019-10-21 01:19:30.925,Acquired,Acquired,,Acquired,Acquired,Acquired,Acquired,Acquired,Acquired,,,,5.0746752E1,9.080788E1,,8.0827472E1,2.830824E2,1.89063088E2,2.90490816E2,2.2610366399999998E2,1.7930497599999998E2,,,,2.7345257999999998E1,2.1419618E1,,6.534513199999999E1,1.9116108E1,7.9559024E1,5.7112235999999996E1,1.4878247E1,7.112451999999999E0,,,,2,12,,25,26,29,31,32,21,,,,12,7,,15,5,15,14,9,7,,,,
1571620830,2019-10-21 01:20:30.925,Acquired,Acquired,,Acquired,Acquired,Acquired,Acquired,Acquired,Acquired,,,,5.0746752E1,9.080788E1,,8.0827472E1,2.830824E2,1.89063088E2,2.90490816E2,2.2610366399999998E2,1.7930497599999998E2,,,,2.7345257999999998E1,2.1419618E1,,6.534513199999999E1,1.9116108E1,7.9559024E1,5.7112235999999996E1,1.4878247E1,7.112451999999999E0,,,,2,12,,25,26,29,31,32,21,,,,12,7,,15,5,15,14,9,7,,,,
1571620890,2019-10-21 01:21:30.925,Acquired,Acquired,,Acquired,Acquired,Acquired,Acquired,Acquired,Acquired,,,,5.0746752E1,9.080788E1,,8.0827472E1,2.830824E2,1.89063088E2,2.90490816E2,2.2610366399999998E2,1.7930497599999998E2,,,,2.7345257999999998E1,2.1419618E1,,6.534513199999999E1,1.9116108E1,7.9559024E1,5.7112235999999996E1,1.4878247E1,7.112451999999999E0,,,,2,12,,25,26,29,31,32,21,,,,12,7,,15,5,15,14,9,7,,,,
1571620950,2019-10-21 01:22:30.925,Acquired,Acquired,,Acquired,Acquired,Acquired,Acquired,Acquired,Acquired,,,,5.0746752E1,9.080788E1,,8.0827472E1,2.830824E2,1.89063088E2,2.90490816E2,2.2610366399999998E2,1.7930497599999998E2,,,,2.7345257999999998E1,2.1419618E1,,6.534513199999999E1,1.9116108E1,7.9559024E1,5.7112235999999996E1,1.4878247E1,7.112451999999999E0,,,,2,12,,25,26,29,31,32,21,,,,12,7,,15,5,15,14,9,7,,,,
1571621010,2019-10-21 01:23:30.925,Acquired,Acquired,,Acquired,Acquired,Acquired,Acquired,Acquired,Acquired,,,,5.0746752E1,9.080788E1,,8.0827472E1,2.830824E2,1.89063088E2,2.90490816E2,2.2610366399999998E2,1.7930497599999998E2,,,,2.7345257999999998E1,2.1419618E1,,6.534513199999999E1,1.9116108E1,7.9559024E1,5.7112235999999996E1,1.4878247E1,7.112451999999999E0,,,,2,12,,25,26,29,31,32,21,,,,12,7,,15,5,15,14,9,7,,,,
1571621070,2019-10-21 01:24:30.925,Acquired,Acquired,,Acquired,Acquired,Acquired,Acquired,Acquired,Acquired,,,,5.0746752E1,9.080788E1,,8.0827472E1,2.830824E2,1.89063088E2,2.90490816E2,2.2610366399999998E2,1.7930497599999998E2,,,,2.7345257999999998E1,2.1419618E1,,6.534513199999999E1,1.9116108E1,7.9559024E1,5.7112235999999996E1,1.4878247E1,7.112451999999999E0,,,,2,12,,25,26,29,31,32,21,,,,12,7,,15,5,15,14,9,7,,,,
1571621130,2019-10-21 01:25:30.925,Acquired,Acquired,,Acquired,Acquired,Acquired,Acquired,Acquired,Acquired,,,,5.0746752E1,9.080788E1,,8.0827472E1,2.830824E2,1.89063088E2,2.90490816E2,2.2610366399999998E2,1.7930497599999998E2,,,,2.7345257999999998E1,2.1419618E1,,6.534513199999999E1,1.9116108E1,7.9559024E1,5.7112235999999996E1,1.4878247E1,7.112451999999999E0,,,,2,12,,25,26,29,31,32,21,,,,12,7,,15,5,15,14,9,7,,,,
1571621190,2019-10-21 01:26:30.925,Acquired,Acquired,,Acquired,Acquired,Acquired,Acquired,Acquired,Acquired,,,,5.0746752E1,9.080788E1,,8.0827472E1,2.830824E2,1.89063088E2,2.90490816E2,2.2610366399999998E2,1.7930497599999998E2,,,,2.7345257999999998E1,2.1419618E1,,6.534513199999999E1,1.9116108E1,7.9559024E1,5.7112235999999996E1,1.4878247E1,7.112451999999999E0,,,,2,12,,25,26,29,31,32,21,,,,12,7,,15,5,15,14,9,7,,,,
1571621250,2019-10-21 01:27:30.927,Acquired,Acquired,,Acquired,Acquired,Acquired,Acquired,Acquired,Acquired,,,,5.0746752E1,9.080788E1,,8.0827472E1,2.830824E2,1.89063088E2,2.90490816E2,2.2610366399999998E2,1.7930497599999998E2,,,,2.7345257999999998E1,2.1419618E1,,6.534513199999999E1,1.9116108E1,7.9559024E1,5.7112235999999996E1,1.4878247E1,7.112451999999999E0,,,,2,12,,25,26,29,31,32,21,,,,12,7,,15,5,15,14,9,7,,,,
1571621310,2019-10-21 01:28:30.925,Acquired,Acquired,,Acquired,Acquired,Acquired,Acquired,Acquired,Acquired,,,,5.0746752E1,9.080788E1,,8.0827472E1,2.830824E2,1.89063088E2,2.90490816E2,2.2610366399999998E2,1.7930497599999998E2,,,,2.7345257999999998E1,2.1419618E1,,6.534513199999999E1,1.9116108E1,7.9559024E1,5.7112235999999996E1,1.4878247E1,7.112451999999999E0,,,,2,12,,25,26,29,31,32,21,,,,12,7,,15,5,15,14,9,7,,,,
1571621370,2019-10-21 01:29:30.928,Acquired,Acquired,,Acquired,Acquired,Acquired,Acquired,Acquired,Acquired,,,,5.0746752E1,9.080788E1,,8.0827472E1,2.830824E2,1.89063088E2,2.90490816E2,2.2610366399999998E2,1.7930497599999998E2,,,,2.7345257999999998E1,2.1419618E1,,6.534513199999999E1,1.9116108E1,7.9559024E1,5.7112235999999996E1,1.4878247E1,7.112451999999999E0,,,,2,12,,25,26,29,31,32,21,,,,12,7,,15,5,15,14,9,7,,,,
1571621430,2019-10-21 01:30:30.925,Acquired,Acquired,,Acquired,Acquired,Acquired,Acquired,Acquired,Acquired,,,,5.0746752E1,9.080788E1,,8.0827472E1,2.830824E2,1.89063088E2,2.90490816E2,2.2610366399999998E2,1.7930497599999998E2,,,,2.7345257999999998E1,2.1419618E1,,6.534513199999999E1,1.9116108E1,7.9559024E1,5.7112235999999996E1,1.4878247E1,7.112451999999999E0,,,,2,12,,25,26,29,31,32,21,,,,12,7,,15,5,15,14,9,7,,,,
1571621490,2019-10-21 01:31:30.926,Acquired,Acquired,,Acquired,Acquired,Acquired,Acquired,Acquired,Acquired,,,,5.0746752E1,9.080788E1,,8.0827472E1,2.830824E2,1.89063088E2,2.90490816E2,2.2610366399999998E2,1.7930497599999998E2,,,,2.7345257999999998E1,2.1419618E1,,6.534513199999999E1,1.9116108E1,7.9559024E1,5.7112235999999996E1,1.4878247E1,7.112451999999999E0,,,,2,12,,25,26,29,31,32,21,,,,12,7,,15,5,15,14,9,7,,,,
1571621550,2019-10-21 01:32:30.925,Acquired,Acquired,,Acquired,Acquired,Acquired,Acquired,Acquired,Acquired,,,,5.0746752E1,9.080788E1,,8.0827472E1,2.830824E2,1.89063088E2,2.90490816E2,2.2610366399999998E2,1.7930497599999998E2,,,,2.7345257999999998E1,2.1419618E1,,6.534513199999999E1,1.9116108E1,7.9559024E1,5.7112235999999996E1,1.4878247E1,7.112451999999999E0,,,,2,12,,25,26,29,31,32,21,,,,12,7,,15,5,15,14,9,7,,,,
1571621610,2019-10-21 01:33:30.925,Acquired,Acquired,,Acquired,Acquired,Acquired,Acquired,Acquired,Acquired,,,,5.0746752E1,9.080788E1,,8.0827472E1,2.830824E2,1.89063088E2,2.90490816E2,2.2610366399999998E2,1.7930497599999998E2,,,,2.7345257999999998E1,2.1419618E1,,6.534513199999999E1,1.9116108E1,7.9559024E1,5.7112235999999996E1,1.4878247E1,7.112451999999999E0,,,,2,12,,25,26,29,31,32,21,,,,12,7,,15,5,15,14,9,7,,,,
1571621670,2019-10-21 01:34:30.926,Acquired,Acquired,,Acquired,Acquired,Acquired,Acquired,Acquired,Acquired,,,,5.0746752E1,9.080788E1,,8.0827472E1,2.830824E2,1.89063088E2,2.90490816E2,2.2610366399999998E2,1.7930497599999998E2,,,,2.7345257999999998E1,2.1419618E1,,6.534513199999999E1,1.9116108E1,7.9559024E1,5.7112235999999996E1,1.4878247E1,7.112451999999999E0,,,,2,12,,25,26,29,31,32,21,,,,12,7,,15,5,15,14,9,7,,,,
1571621730,2019-10-21 01:35:30.927,Acquired,Acquired,,Acquired,Acquired,Acquired,Acquired,Acquired,Acquired,,,,5.0746752E1,9.080788E1,,8.0827472E1,2.830824E2,1.89063088E2,2.90490816E2,2.2610366399999998E2,1.7930497599999998E2,,,,2.7345257999999998E1,2.1419618E1,,6.534513199999999E1,1.9116108E1,7.9559024E1,5.7112235999999996E1,1.4878247E1,7.112451999999999E0,,,,2,12,,25,26,29,31,32,21,,,,12,7,,15,5,15,14,9,7,,,,
1571621790,2019-10-21 01:36:30.925,Acquired,Acquired,,Acquired,Acquired,Acquired,Acquired,Acquired,Acquired,,,,5.0746752E1,9.080788E1,,8.0827472E1,2.830824E2,1.89063088E2,2.90490816E2,2.2610366399999998E2,1.7930497599999998E2,,,,2.7345257999999998E1,2.1419618E1,,6.534513199999999E1,1.9116108E1,7.9559024E1,5.7112235999999996E1,1.4878247E1,7.112451999999999E0,,,,2,12,,25,26,29,31,32,21,,,,12,7,,15,5,15,14,9,7,,,,
1571621850,2019-10-21 01:37:30.925,Acquired,Acquired,,Acquired,Acquired,Acquired,Acquired,Acquired,Acquired,,,,5.0746752E1,9.080788E1,,8.0827472E1,2.830824E2,1.89063088E2,2.90490816E2,2.2610366399999998E2,1.7930497599999998E2,,,,2.7345257999999998E1,2.1419618E1,,6.534513199999999E1,1.9116108E1,7.9559024E1,5.7112235999999996E1,1.4878247E1,7.112451999999999E0,,,,2,12,,25,26,29,31,32,21,,,,12,7,,15,5,15,14,9,7,,,,
1571621910,2019-10-21 01:38:30.925,Acquired,Acquired,,Acquired,Acquired,Acquired,Acquired,Acquired,Acquired,,,,5.0746752E1,9.080788E1,,8.0827472E1,2.830824E2,1.89063088E2,2.90490816E2,2.2610366399999998E2,1.7930497599999998E2,,,,2.7345257999999998E1,2.1419618E1,,6.534513199999999E1,1.9116108E1,7.9559024E1,5.7112235999999996E1,1.4878247E1,7.112451999999999E0,,,,2,12,,25,26,29,31,32,21,,,,12,7,,15,5,15,14,9,7,,,,
1571621970,2019-10-21 01:39:30.925,Acquired,Acquired,,Acquired,Acquired,Acquired,Acquired,Acquired,Acquired,,,,5.0746752E1,9.080788E1,,8.0827472E1,2.830824E2,1.89063088E2,2.90490816E2,2.2610366399999998E2,1.7930497599999998E2,,,,2.7345257999999998E1,2.1419618E1,,6.534513199999999E1,1.9116108E1,7.9559024E1,5.7112235999999996E1,1.4878247E1,7.112451999999999E0,,,,2,12,,25,26,29,31,32,21,,,,12,7,,15,5,15,14,9,7,,,,
1571622030,2019-10-21 01:40:30.926,Acquired,Acquired,,Acquired,Acquired,Acquired,Acquired,Acquired,Acquired,,,,5.0746752E1,9.080788E1,,8.0827472E1,2.830824E2,1.89063088E2,2.90490816E2,2.2610366399999998E2,1.7930497599999998E2,,,,2.7345257999999998E1,2.1419618E1,,6.534513199999999E1,1.9116108E1,7.9559024E1,5.7112235999999996E1,1.4878247E1,7.112451999999999E0,,,,2,12,,25,26,29,31,32,21,,,,12,7,,15,5,15,14,9,7,,,,
1571622090,2019-10-21 01:41:30.928,Acquired,Acquired,,Acquired,Acquired,Acquired,Acquired,Acquired,Acquired,,,,5.0746752E1,9.080788E1,,8.0827472E1,2.830824E2,1.89063088E2,2.90490816E2,2.2610366399999998E2,1.7930497599999998E2,,,,2.7345257999999998E1,2.1419618E1,,6.534513199999999E1,1.9116108E1,7.9559024E1,5.7112235999999996E1,1.4878247E1,7.112451999999999E0,,,,2,12,,25,26,29,31,32,21,,,,12,7,,15,5,15,14,9,7,,,,
1571622150,2019-10-21 01:42:30.925,Acquired,Acquired,,Acquired,Acquired,Acquired,Acquired,Acquired,Acquired,,,,5.0746752E1,9.080788E1,,8.0827472E1,2.830824E2,1.89063088E2,2.90490816E2,2.2610366399999998E2,1.7930497599999998E2,,,,2.7345257999999998E1,2.1419618E1,,6.534513199999999E1,1.9116108E1,7.9559024E1,5.7112235999999996E1,1.4878247E1,7.112451999999999E0,,,,2,12,,25,26,29,31,32,21,,,,12,7,,15,5,15,14,9,7,,,,
1571622210,2019-10-21 01:43:30.925,Acquired,Acquired,,Acquired,Acquired,Acquired,Acquired,Acquired,Acquired,,,,5.0746752E1,9.080788E1,,8.0827472E1,2.830824E2,1.89063088E2,2.90490816E2,2.2610366399999998E2,1.7930497599999998E2,,,,2.7345257999999998E1,2.1419618E1,,6.534513199999999E1,1.9116108E1,7.9559024E1,5.7112235999999996E1,1.4878247E1,7.112451999999999E0,,,,2,12,,25,26,29,31,32,21,,,,12,7,,15,5,15,14,9,7,,,,
1571622270,2019-10-21 01:44:30.925,Acquired,Acquired,,Acquired,Acquired,Acquired,Acquired,Acquired,Acquired,,,,5.0746752E1,9.080788E1,,8.0827472E1,2.830824E2,1.89063088E2,2.90490816E2,2.2610366399999998E2,1.7930497599999998E2,,,,2.7345257999999998E1,2.1419618E1,,6.534513199999999E1,1.9116108E1,7.9559024E1,5.7112235999999996E1,1.4878247E1,7.112451999999999E0,,,,2,12,,25,26,29,31,32,21,,,,12,7,,15,5,15,14,9,7,,,,
1571622330,2019-10-21 01:45:30.928,Acquired,Acquired,,Acquired,Acquired,Acquired,Acquired,Acquired,Acquired,,,,5.0746752E1,9.080788E1,,8.0827472E1,2.830824E2,1.89063088E2,2.90490816E2,2.2610366399999998E2,1.7930497599999998E2,,,,2.7345257999999998E1,2.1419618E1,,6.534513199999999E1,1.9116108E1,7.9559024E1,5.7112235999999996E1,1.4878247E1,7.112451999999999E0,,,,2,12,,25,26,29,31,32,21,,,,12,7,,15,5,15,14,9,7,,,,
1571622390,2019-10-21 01:46:30.958,Acquired,Acquired,Acquired,Acquired,Acquired,Acquired,Acquired,Acquired,Acquired,,,,5.0391943999999995E1,9.1083176E1,2.51811728E2,8.1426816E1,2.8330172799999997E2,1.8809032E2,2.89908192E2,2.25847424E2,1.79214048E2,,,,2.7131244E1,2.1062918E1,2.769015E1,6.494831599999999E1,1.9481972E1,8.0023376E1,5.7428399999999996E1,1.4517482E1,7.525875E0,,,,2,12,14,25,26,29,31,32,21,,,,12,7,9,15,4,15,14,9,5,,,,
1571622450,2019-10-21 01:47:30.925,Acquired,Acquired,Acquired,Acquired,Acquired,Acquired,Acquired,Acquired,Not acquired,Acquired,Acquired,,3.9702172E1,2.3822203199999998E2,1.75998144E2,9.956149599999999E1,2.91349984E2,6.127776E1,2.5461995199999998E2,7.8480368E1,1.01661744E2,2.85621888E2,3.3274188799999996E2,,1.6391703E1,1.5047749E1,2.480443E1,4.8997664E1,3.4657019999999996E1,7.846884E1,6.3856339999999996E1,6.1893139999999995E0,7.271039E0,8.421056E0,6.3821699999999995E0,,2,14,21,25,26,29,31,5,12,16,23,,9,6,10,15,9,14,15,2,0,6,7,,
1571622510,2019-10-21 01:48:30.925,Acquired,Acquired,Acquired,Acquired,Acquired,Acquired,Acquired,Acquired,Not acquired,Acquired,Acquired,,3.9702172E1,2.3822203199999998E2,1.75998144E2,9.956149599999999E1,2.91349984E2,6.127776E1,2.5461995199999998E2,7.8480368E1,1.01661744E2,2.85621888E2,3.3274188799999996E2,,1.6391703E1,1.5047749E1,2.480443E1,4.8997664E1,3.4657019999999996E1,7.846884E1,6.3856339999999996E1,6.1893139999999995E0,7.271039E0,8.421056E0,6.3821699999999995E0,,2,14,21,25,26,29,31,5,12,16,23,,9,6,10,15,9,14,15,2,0,6,7,,
1571622570,2019-10-21 01:49:30.925,Acquired,Acquired,Acquired,Acquired,Acquired,Acquired,Acquired,Acquired,Not acquired,Acquired,Acquired,,3.9702172E1,2.3822203199999998E2,1.75998144E2,9.956149599999999E1,2.91349984E2,6.127776E1,2.5461995199999998E2,7.8480368E1,1.01661744E2,2.85621888E2,3.3274188799999996E2,,1.6391703E1,1.5047749E1,2.480443E1,4.8997664E1,3.4657019999999996E1,7.846884E1,6.3856339999999996E1,6.1893139999999995E0,7.271039E0,8.421056E0,6.3821699999999995E0,,2,14,21,25,26,29,31,5,12,16,23,,9,6,10,15,9,14,15,2,0,6,7,,
1571622630,2019-10-21 01:50:30.925,Acquired,Acquired,Acquired,Acquired,Acquired,Acquired,Acquired,Acquired,Not acquired,Acquired,Acquired,,3.9702172E1,2.3822203199999998E2,1.75998144E2,9.956149599999999E1,2.91349984E2,6.127776E1,2.5461995199999998E2,7.8480368E1,1.01661744E2,2.85621888E2,3.3274188799999996E2,,1.6391703E1,1.5047749E1,2.480443E1,4.8997664E1,3.4657019999999996E1,7.846884E1,6.3856339999999996E1,6.1893139999999995E0,7.271039E0,8.421056E0,6.3821699999999995E0,,2,14,21,25,26,29,31,5,12,16,23,,9,6,10,15,9,14,15,2,0,6,7,,
1571622690,2019-10-21 01:51:30.927,Acquired,Acquired,Acquired,Acquired,Acquired,Acquired,Acquired,Acquired,Not acquired,Acquired,Acquired,,3.9702172E1,2.3822203199999998E2,1.75998144E2,9.956149599999999E1,2.91349984E2,6.127776E1,2.5461995199999998E2,7.8480368E1,1.01661744E2,2.85621888E2,3.3274188799999996E2,,1.6391703E1,1.5047749E1,2.480443E1,4.8997664E1,3.4657019999999996E1,7.846884E1,6.3856339999999996E1,6.1893139999999995E0,7.271039E0,8.421056E0,6.3821699999999995E0,,2,14,21,25,26,29,31,5,12,16,23,,9,6,10,15,9,14,15,2,0,6,7,,
1571622750,2019-10-21 01:52:30.928,Acquired,Acquired,Acquired,Acquired,Acquired,Acquired,Acquired,Acquired,Not acquired,Acquired,Acquired,,3.9702172E1,2.3822203199999998E2,1.75998144E2,9.956149599999999E1,2.91349984E2,6.127776E1,2.5461995199999998E2,7.8480368E1,1.01661744E2,2.85621888E2,3.3274188799999996E2,,1.6391703E1,1.5047749E1,2.480443E1,4.8997664E1,3.4657019999999996E1,7.846884E1,6.3856339999999996E1,6.1893139999999995E0,7.271039E0,8.421056E0,6.3821699999999995E0,,2,14,21,25,26,29,31,5,12,16,23,,9,6,10,15,9,14,15,2,0,6,7,,
1571622810,2019-10-21 01:53:30.925,Acquired,Acquired,Acquired,Acquired,Acquired,Acquired,Acquired,Acquired,Not acquired,Acquired,Acquired,,3.9702172E1,2.3822203199999998E2,1.75998144E2,9.956149599999999E1,2.91349984E2,6.127776E1,2.5461995199999998E2,7.8480368E1,1.01661744E2,2.85621888E2,3.3274188799999996E2,,1.6391703E1,1.5047749E1,2.480443E1,4.8997664E1,3.4657019999999996E1,7.846884E1,6.3856339999999996E1,6.1893139999999995E0,7.271039E0,8.421056E0,6.3821699999999995E0,,2,14,21,25,26,29,31,5,12,16,23,,9,6,10,15,9,14,15,2,0,6,7,,
1571622870,2019-10-21 01:54:30.925,Acquired,Acquired,Acquired,Acquired,Acquired,Acquired,Acquired,Acquired,Not acquired,Acquired,Acquired,,3.9702172E1,2.3822203199999998E2,1.75998144E2,9.956149599999999E1,2.91349984E2,6.127776E1,2.5461995199999998E2,7.8480368E1,1.01661744E2,2.85621888E2,3.3274188799999996E2,,1.6391703E1,1.5047749E1,2.480443E1,4.8997664E1,3.4657019999999996E1,7.846884E1,6.3856339999999996E1,6.1893139999999995E0,7.271039E0,8.421056E0,6.3821699999999995E0,,2,14,21,25,26,29,31,5,12,16,23,,9,6,10,15,9,14,15,2,0,6,7,,
1571622930,2019-10-21 01:55:30.925,Acquired,Acquired,Acquired,Acquired,Acquired,Acquired,Acquired,Acquired,Not acquired,Acquired,Acquired,,3.9702172E1,2.3822203199999998E2,1.75998144E2,9.956149599999999E1,2.91349984E2,6.127776E1,2.5461995199999998E2,7.8480368E1,1.01661744E2,2.85621888E2,3.3274188799999996E2,,1.6391703E1,1.5047749E1,2.480443E1,4.8997664E1,3.4657019999999996E1,7.846884E1,6.3856339999999996E1,6.1893139999999995E0,7.271039E0,8.421056E0,6.3821699999999995E0,,2,14,21,25,26,29,31,5,12,16,23,,9,6,10,15,9,14,15,2,0,6,7,,
1571622990,2019-10-21 01:56:30.925,Acquired,Acquired,Acquired,Acquired,Acquired,Acquired,Acquired,Acquired,Not acquired,Acquired,Acquired,,3.9702172E1,2.3822203199999998E2,1.75998144E2,9.956149599999999E1,2.91349984E2,6.127776E1,2.5461995199999998E2,7.8480368E1,1.01661744E2,2.85621888E2,3.3274188799999996E2,,1.6391703E1,1.5047749E1,2.480443E1,4.8997664E1,3.4657019999999996E1,7.846884E1,6.3856339999999996E1,6.1893139999999995E0,7.271039E0,8.421056E0,6.3821699999999995E0,,2,14,21,25,26,29,31,5,12,16,23,,9,6,10,15,9,14,15,2,0,6,7,,
1571623050,2019-10-21 01:57:30.925,Acquired,Acquired,Acquired,Acquired,Acquired,Acquired,Acquired,Acquired,Not acquired,Acquired,Acquired,,3.9702172E1,2.3822203199999998E2,1.75998144E2,9.956149599999999E1,2.91349984E2,6.127776E1,2.5461995199999998E2,7.8480368E1,1.01661744E2,2.85621888E2,3.3274188799999996E2,,1.6391703E1,1.5047749E1,2.480443E1,4.8997664E1,3.4657019999999996E1,7.846884E1,6.3856339999999996E1,6.1893139999999995E0,7.271039E0,8.421056E0,6.3821699999999995E0,,2,14,21,25,26,29,31,5,12,16,23,,9,6,10,15,9,14,15,2,0,6,7,,
1571623110,2019-10-21 01:58:30.928,Acquired,Acquired,Acquired,Acquired,Acquired,Acquired,Acquired,Acquired,Not acquired,Acquired,Acquired,,3.9702172E1,2.3822203199999998E2,1.75998144E2,9.956149599999999E1,2.91349984E2,6.127776E1,2.5461995199999998E2,7.8480368E1,1.01661744E2,2.85621888E2,3.3274188799999996E2,,1.6391703E1,1.5047749E1,2.480443E1,4.8997664E1,3.4657019999999996E1,7.846884E1,6.3856339999999996E1,6.1893139999999995E0,7.271039E0,8.421056E0,6.3821699999999995E0,,2,14,21,25,26,29,31,5,12,16,23,,9,6,10,15,9,14,15,2,0,6,7,,
1571623170,2019-10-21 01:59:30.955,Acquired,Acquired,Acquired,Acquired,Acquired,Acquired,Acquired,Acquired,Not acquired,Acquired,Acquired,,3.9702172E1,2.3822203199999998E2,1.75998144E2,9.956149599999999E1,2.91349984E2,6.127776E1,2.5461995199999998E2,7.8480368E1,1.01661744E2,2.85621888E2,3.3274188799999996E2,,1.6391703E1,1.5047749E1,2.480443E1,4.8997664E1,3.4657019999999996E1,7.846884E1,6.3856339999999996E1,6.1893139999999995E0,7.271039E0,8.421056E0,6.3821699999999995E0,,2,14,21,25,26,29,31,5,12,16,23,,9,6,10,15,9,14,15,2,0,6,7,,
