Time(longsecs),Time(UTC),GPS Satellite Acquisition Flag 1,GPS Satellite Acquisition Flag 2,GPS Satellite Acquisition Flag 3,GPS Satellite Acquisition Flag 4,GPS Satellite Acquisition Flag 5,GPS Satellite Acquisition Flag 6,GPS Satellite Acquisition Flag 7,GPS Satellite Acquisition Flag 8,GPS Satellite Acquisition Flag 9,GPS Satellite Acquisition Flag 10,GPS Satellite Acquisition Flag 11,GPS Satellite Acquisition Flag 12,GPS Satellite Azimuth 1(Degrees),GPS Satellite Azimuth 2(Degrees),GPS Satellite Azimuth 3(Degrees),GPS Satellite Azimuth 4(Degrees),GPS Satellite Azimuth 5(Degrees),GPS Satellite Azimuth 6(Degrees),GPS Satellite Azimuth 7(Degrees),GPS Satellite Azimuth 8(Degrees),GPS Satellite Azimuth 9(Degrees),GPS Satellite Azimuth 10(Degrees),GPS Satellite Azimuth 11(Degrees),GPS Satellite Azimuth 12(Degrees),GPS Satellite Elevation 1(Degrees),GPS Satellite Elevation 2(Degrees),GPS Satellite Elevation 3(Degrees),GPS Satellite Elevation 4(Degrees),GPS Satellite Elevation 5(Degrees),GPS Satellite Elevation 6(Degrees),GPS Satellite Elevation 7(Degrees),GPS Satellite Elevation 8(Degrees),GPS Satellite Elevation 9(Degrees),GPS Satellite Elevation 10(Degrees),GPS Satellite Elevation 11(Degrees),GPS Satellite Elevation 12(Degrees),GPS Satellite PRN 1,GPS Satellite PRN 2,GPS Satellite PRN 3,GPS Satellite PRN 4,GPS Satellite PRN 5,GPS Satellite PRN 6,GPS Satellite PRN 7,GPS Satellite PRN 8,GPS Satellite PRN 9,GPS Satellite PRN 10,GPS Satellite PRN 11,GPS Satellite PRN 12,GPS Satellite Signal Level 1(AMU),GPS Satellite Signal Level 2(AMU),GPS Satellite Signal Level 3(AMU),GPS Satellite Signal Level 4(AMU),GPS Satellite Signal Level 5(AMU),GPS Satellite Signal Level 6(AMU),GPS Satellite Signal Level 7(AMU),GPS Satellite Signal Level 8(AMU),GPS Satellite Signal Level 9(AMU),GPS Satellite Signal Level 10(AMU),GPS Satellite Signal Level 11(AMU),GPS Satellite Signal Level 12(AMU),
1571652030,2019-10-21 10:00:30.925,Acquired,Acquired,Acquired,Acquired,Acquired,Acquired,Acquired,Acquired,Acquired,Acquired,,,3.56216608E2,2.34891024E2,1.66970608E2,1.6976112E2,8.0585608E1,3.14985984E2,2.32864592E2,2.77183968E2,5.1578768E1,1.86100176E2,,,8.2420232E1,5.055546E1,2.9131515999999998E1,8.0064488E1,4.2035412E1,2.3418029999999998E1,7.4921016E1,2.485411E1,2.9018539999999998E1,6.1324939999999994E0,,,1,3,8,11,14,17,22,28,32,23,,,15,15,13,8,11,7,13,7,14,13,,,
1571652090,2019-10-21 10:01:30.925,Acquired,Acquired,Acquired,Acquired,Acquired,Acquired,Acquired,Acquired,Acquired,Acquired,,,3.56216608E2,2.34891024E2,1.66970608E2,1.6976112E2,8.0585608E1,3.14985984E2,2.32864592E2,2.77183968E2,5.1578768E1,1.86100176E2,,,8.2420232E1,5.055546E1,2.9131515999999998E1,8.0064488E1,4.2035412E1,2.3418029999999998E1,7.4921016E1,2.485411E1,2.9018539999999998E1,6.1324939999999994E0,,,1,3,8,11,14,17,22,28,32,23,,,15,15,13,8,11,7,13,7,14,13,,,
1571652150,2019-10-21 10:02:30.925,Acquired,Acquired,Acquired,Acquired,Acquired,Acquired,Acquired,Acquired,Acquired,Acquired,,,3.56216608E2,2.34891024E2,1.66970608E2,1.6976112E2,8.0585608E1,3.14985984E2,2.32864592E2,2.77183968E2,5.1578768E1,1.86100176E2,,,8.2420232E1,5.055546E1,2.9131515999999998E1,8.0064488E1,4.2035412E1,2.3418029999999998E1,7.4921016E1,2.485411E1,2.9018539999999998E1,6.1324939999999994E0,,,1,3,8,11,14,17,22,28,32,23,,,15,15,13,8,11,7,13,7,14,13,,,
1571652210,2019-10-21 10:03:30.925,Acquired,Acquired,Acquired,Acquired,Acquired,Acquired,Acquired,Acquired,Acquired,Acquired,,,3.56216608E2,2.34891024E2,1.66970608E2,1.6976112E2,8.0585608E1,3.14985984E2,2.32864592E2,2.77183968E2,5.1578768E1,1.86100176E2,,,8.2420232E1,5.055546E1,2.9131515999999998E1,8.0064488E1,4.2035412E1,2.3418029999999998E1,7.4921016E1,2.485411E1,2.9018539999999998E1,6.1324939999999994E0,,,1,3,8,11,14,17,22,28,32,23,,,15,15,13,8,11,7,13,7,14,13,,,
1571652270,2019-10-21 10:04:30.925,Acquired,Acquired,Acquired,Acquired,Acquired,Acquired,Acquired,Acquired,Acquired,Acquired,,,3.56216608E2,2.34891024E2,1.66970608E2,1.6976112E2,8.0585608E1,3.14985984E2,2.32864592E2,2.77183968E2,5.1578768E1,1.86100176E2,,,8.2420232E1,5.055546E1,2.9131515999999998E1,8.0064488E1,4.2035412E1,2.3418029999999998E1,7.4921016E1,2.485411E1,2.9018539999999998E1,6.1324939999999994E0,,,1,3,8,11,14,17,22,28,32,23,,,15,15,13,8,11,7,13,7,14,13,,,
1571652330,2019-10-21 10:05:30.925,Acquired,Acquired,Acquired,Acquired,Acquired,Acquired,Acquired,Acquired,Acquired,Acquired,,,3.56216608E2,2.34891024E2,1.66970608E2,1.6976112E2,8.0585608E1,3.14985984E2,2.32864592E2,2.77183968E2,5.1578768E1,1.86100176E2,,,8.2420232E1,5.055546E1,2.9131515999999998E1,8.0064488E1,4.2035412E1,2.3418029999999998E1,7.4921016E1,2.485411E1,2.9018539999999998E1,6.1324939999999994E0,,,1,3,8,11,14,17,22,28,32,23,,,15,15,13,8,11,7,13,7,14,13,,,
1571652390,2019-10-21 10:06:30.925,Acquired,Acquired,Acquired,Acquired,Acquired,Acquired,Acquired,Acquired,Acquired,Acquired,,,3.56216608E2,2.34891024E2,1.66970608E2,1.6976112E2,8.0585608E1,3.14985984E2,2.32864592E2,2.77183968E2,5.1578768E1,1.86100176E2,,,8.2420232E1,5.055546E1,2.9131515999999998E1,8.0064488E1,4.2035412E1,2.3418029999999998E1,7.4921016E1,2.485411E1,2.9018539999999998E1,6.1324939999999994E0,,,1,3,8,11,14,17,22,28,32,23,,,15,15,13,8,11,7,13,7,14,13,,,
1571652450,2019-10-21 10:07:30.925,Acquired,Acquired,Acquired,Acquired,Acquired,Acquired,Acquired,Acquired,Acquired,Acquired,,,3.56216608E2,2.34891024E2,1.66970608E2,1.6976112E2,8.0585608E1,3.14985984E2,2.32864592E2,2.77183968E2,5.1578768E1,1.86100176E2,,,8.2420232E1,5.055546E1,2.9131515999999998E1,8.0064488E1,4.2035412E1,2.3418029999999998E1,7.4921016E1,2.485411E1,2.9018539999999998E1,6.1324939999999994E0,,,1,3,8,11,14,17,22,28,32,23,,,15,15,13,8,11,7,13,7,14,13,,,
1571652510,2019-10-21 10:08:30.954,Acquired,Acquired,Acquired,Acquired,Acquired,Acquired,Acquired,Acquired,Acquired,Acquired,,,3.56216608E2,2.34891024E2,1.66970608E2,1.6976112E2,8.0585608E1,3.14985984E2,2.32864592E2,2.77183968E2,5.1578768E1,1.86100176E2,,,8.2420232E1,5.055546E1,2.9131515999999998E1,8.0064488E1,4.2035412E1,2.3418029999999998E1,7.4921016E1,2.485411E1,2.9018539999999998E1,6.1324939999999994E0,,,1,3,8,11,14,17,22,28,32,23,,,15,15,13,8,11,7,13,7,14,13,,,
1571652570,2019-10-21 10:09:30.939,Acquired,Acquired,Acquired,Acquired,Acquired,Acquired,Acquired,Acquired,Acquired,Acquired,,,3.56216608E2,2.34891024E2,1.66970608E2,1.6976112E2,8.0585608E1,3.14985984E2,2.32864592E2,2.77183968E2,5.1578768E1,1.86100176E2,,,8.2420232E1,5.055546E1,2.9131515999999998E1,8.0064488E1,4.2035412E1,2.3418029999999998E1,7.4921016E1,2.485411E1,2.9018539999999998E1,6.1324939999999994E0,,,1,3,8,11,14,17,22,28,32,23,,,15,15,13,8,11,7,13,7,14,13,,,
1571652630,2019-10-21 10:10:30.926,Acquired,Acquired,Acquired,Acquired,Acquired,Acquired,Acquired,Acquired,Acquired,Acquired,Acquired,,3.59633152E2,2.35194368E2,1.6701144E2,1.68400176E2,7.9985456E1,3.148784E2,2.33168016E2,2.76760672E2,5.122448E1,1.86049216E2,3.2021910399999996E2,,8.2611904E1,5.1009879999999995E1,2.8665913999999997E1,7.962503199999999E1,4.2030172E1,2.379554E1,7.5389776E1,2.467998E1,2.8772578E1,6.524659E0,5.370436E0,,1,3,8,11,14,17,22,28,32,23,19,,15,15,13,8,12,9,13,8,13,12,4,,
1571652690,2019-10-21 10:11:30.925,Acquired,Acquired,Acquired,Acquired,Acquired,Acquired,Acquired,Acquired,Acquired,Acquired,Acquired,Not acquired,9.1080192E1,2.47277168E2,1.6796096E2,1.54704128E2,6.2361348E1,3.08701664E2,3.18335744E2,3.4528380799999996E2,1.84838224E2,2.63970368E2,4.214864E1,8.942016E1,7.6470928E1,6.551135599999999E1,1.427463E1,6.403068E1,3.8600668E1,3.5317672E1,1.795922E1,8.9195208E1,2.0084526E1,1.7222406E1,1.9108098E1,7.219316999999999E0,1,3,8,11,14,17,19,22,23,28,32,31,15,15,9,13,13,10,7,15,6,7,7,0,
1571652750,2019-10-21 10:12:30.927,Acquired,Acquired,Acquired,Acquired,Acquired,Acquired,Acquired,Acquired,Acquired,Acquired,Acquired,Not acquired,9.1080192E1,2.47277168E2,1.6796096E2,1.54704128E2,6.2361348E1,3.08701664E2,3.18335744E2,3.4528380799999996E2,1.84838224E2,2.63970368E2,4.214864E1,8.942016E1,7.6470928E1,6.551135599999999E1,1.427463E1,6.403068E1,3.8600668E1,3.5317672E1,1.795922E1,8.9195208E1,2.0084526E1,1.7222406E1,1.9108098E1,7.219316999999999E0,1,3,8,11,14,17,19,22,23,28,32,31,15,15,9,13,13,10,7,15,6,7,7,0,
1571652810,2019-10-21 10:13:30.925,Acquired,Acquired,Acquired,Acquired,Acquired,Acquired,Acquired,Acquired,Acquired,Acquired,Acquired,Not acquired,9.1080192E1,2.47277168E2,1.6796096E2,1.54704128E2,6.2361348E1,3.08701664E2,3.18335744E2,3.4528380799999996E2,1.84838224E2,2.63970368E2,4.214864E1,8.942016E1,7.6470928E1,6.551135599999999E1,1.427463E1,6.403068E1,3.8600668E1,3.5317672E1,1.795922E1,8.9195208E1,2.0084526E1,1.7222406E1,1.9108098E1,7.219316999999999E0,1,3,8,11,14,17,19,22,23,28,32,31,15,15,9,13,13,10,7,15,6,7,7,0,
1571652870,2019-10-21 10:14:30.925,Acquired,Acquired,Acquired,Acquired,Acquired,Acquired,Acquired,Acquired,Acquired,Acquired,Acquired,Not acquired,9.1080192E1,2.47277168E2,1.6796096E2,1.54704128E2,6.2361348E1,3.08701664E2,3.18335744E2,3.4528380799999996E2,1.84838224E2,2.63970368E2,4.214864E1,8.942016E1,7.6470928E1,6.551135599999999E1,1.427463E1,6.403068E1,3.8600668E1,3.5317672E1,1.795922E1,8.9195208E1,2.0084526E1,1.7222406E1,1.9108098E1,7.219316999999999E0,1,3,8,11,14,17,19,22,23,28,32,31,15,15,9,13,13,10,7,15,6,7,7,0,
1571652930,2019-10-21 10:15:30.925,Acquired,Acquired,Acquired,Acquired,Acquired,Acquired,Acquired,Acquired,Acquired,Acquired,Acquired,Not acquired,9.1080192E1,2.47277168E2,1.6796096E2,1.54704128E2,6.2361348E1,3.08701664E2,3.18335744E2,3.4528380799999996E2,1.84838224E2,2.63970368E2,4.214864E1,8.942016E1,7.6470928E1,6.551135599999999E1,1.427463E1,6.403068E1,3.8600668E1,3.5317672E1,1.795922E1,8.9195208E1,2.0084526E1,1.7222406E1,1.9108098E1,7.219316999999999E0,1,3,8,11,14,17,19,22,23,28,32,31,15,15,9,13,13,10,7,15,6,7,7,0,
1571652990,2019-10-21 10:16:30.925,Acquired,Acquired,Acquired,Acquired,Acquired,Acquired,Acquired,Acquired,Acquired,Acquired,Acquired,Not acquired,9.1080192E1,2.47277168E2,1.6796096E2,1.54704128E2,6.2361348E1,3.08701664E2,3.18335744E2,3.4528380799999996E2,1.84838224E2,2.63970368E2,4.214864E1,8.942016E1,7.6470928E1,6.551135599999999E1,1.427463E1,6.403068E1,3.8600668E1,3.5317672E1,1.795922E1,8.9195208E1,2.0084526E1,1.7222406E1,1.9108098E1,7.219316999999999E0,1,3,8,11,14,17,19,22,23,28,32,31,15,15,9,13,13,10,7,15,6,7,7,0,
1571653050,2019-10-21 10:17:30.958,Acquired,Acquired,Acquired,Acquired,Acquired,Acquired,Acquired,Acquired,Acquired,Acquired,Acquired,Not acquired,9.1080192E1,2.47277168E2,1.6796096E2,1.54704128E2,6.2361348E1,3.08701664E2,3.18335744E2,3.4528380799999996E2,1.84838224E2,2.63970368E2,4.214864E1,8.942016E1,7.6470928E1,6.551135599999999E1,1.427463E1,6.403068E1,3.8600668E1,3.5317672E1,1.795922E1,8.9195208E1,2.0084526E1,1.7222406E1,1.9108098E1,7.219316999999999E0,1,3,8,11,14,17,19,22,23,28,32,31,15,15,9,13,13,10,7,15,6,7,7,0,
1571653110,2019-10-21 10:18:30.925,Acquired,Acquired,Acquired,Acquired,Acquired,Acquired,Acquired,Acquired,Acquired,Acquired,Acquired,Not acquired,9.1080192E1,2.47277168E2,1.6796096E2,1.54704128E2,6.2361348E1,3.08701664E2,3.18335744E2,3.4528380799999996E2,1.84838224E2,2.63970368E2,4.214864E1,8.942016E1,7.6470928E1,6.551135599999999E1,1.427463E1,6.403068E1,3.8600668E1,3.5317672E1,1.795922E1,8.9195208E1,2.0084526E1,1.7222406E1,1.9108098E1,7.219316999999999E0,1,3,8,11,14,17,19,22,23,28,32,31,15,15,9,13,13,10,7,15,6,7,7,0,
1571653170,2019-10-21 10:19:30.925,Acquired,Acquired,Acquired,Acquired,Acquired,Acquired,Acquired,Acquired,Acquired,Acquired,Acquired,Not acquired,9.1080192E1,2.47277168E2,1.6796096E2,1.54704128E2,6.2361348E1,3.08701664E2,3.18335744E2,3.4528380799999996E2,1.84838224E2,2.63970368E2,4.214864E1,8.942016E1,7.6470928E1,6.551135599999999E1,1.427463E1,6.403068E1,3.8600668E1,3.5317672E1,1.795922E1,8.9195208E1,2.0084526E1,1.7222406E1,1.9108098E1,7.219316999999999E0,1,3,8,11,14,17,19,22,23,28,32,31,15,15,9,13,13,10,7,15,6,7,7,0,
1571653230,2019-10-21 10:20:30.925,Acquired,Acquired,Acquired,Acquired,Acquired,Acquired,Acquired,Acquired,Acquired,Acquired,Acquired,Not acquired,9.1080192E1,2.47277168E2,1.6796096E2,1.54704128E2,6.2361348E1,3.08701664E2,3.18335744E2,3.4528380799999996E2,1.84838224E2,2.63970368E2,4.214864E1,8.942016E1,7.6470928E1,6.551135599999999E1,1.427463E1,6.403068E1,3.8600668E1,3.5317672E1,1.795922E1,8.9195208E1,2.0084526E1,1.7222406E1,1.9108098E1,7.219316999999999E0,1,3,8,11,14,17,19,22,23,28,32,31,15,15,9,13,13,10,7,15,6,7,7,0,
1571653290,2019-10-21 10:21:30.926,Acquired,Acquired,Acquired,Acquired,Acquired,Acquired,Acquired,Acquired,Acquired,Acquired,Acquired,Not acquired,9.1080192E1,2.47277168E2,1.6796096E2,1.54704128E2,6.2361348E1,3.08701664E2,3.18335744E2,3.4528380799999996E2,1.84838224E2,2.63970368E2,4.214864E1,8.942016E1,7.6470928E1,6.551135599999999E1,1.427463E1,6.403068E1,3.8600668E1,3.5317672E1,1.795922E1,8.9195208E1,2.0084526E1,1.7222406E1,1.9108098E1,7.219316999999999E0,1,3,8,11,14,17,19,22,23,28,32,31,15,15,9,13,13,10,7,15,6,7,7,0,
1571653350,2019-10-21 10:22:30.925,Acquired,Acquired,Acquired,Acquired,Acquired,Acquired,Acquired,Acquired,Acquired,Acquired,Acquired,Not acquired,9.1080192E1,2.47277168E2,1.6796096E2,1.54704128E2,6.2361348E1,3.08701664E2,3.18335744E2,3.4528380799999996E2,1.84838224E2,2.63970368E2,4.214864E1,8.942016E1,7.6470928E1,6.551135599999999E1,1.427463E1,6.403068E1,3.8600668E1,3.5317672E1,1.795922E1,8.9195208E1,2.0084526E1,1.7222406E1,1.9108098E1,7.219316999999999E0,1,3,8,11,14,17,19,22,23,28,32,31,15,15,9,13,13,10,7,15,6,7,7,0,
1571653410,2019-10-21 10:23:30.925,Acquired,Acquired,Acquired,Acquired,Acquired,Acquired,Acquired,Acquired,Acquired,Acquired,Acquired,Not acquired,9.1080192E1,2.47277168E2,1.6796096E2,1.54704128E2,6.2361348E1,3.08701664E2,3.18335744E2,3.4528380799999996E2,1.84838224E2,2.63970368E2,4.214864E1,8.942016E1,7.6470928E1,6.551135599999999E1,1.427463E1,6.403068E1,3.8600668E1,3.5317672E1,1.795922E1,8.9195208E1,2.0084526E1,1.7222406E1,1.9108098E1,7.219316999999999E0,1,3,8,11,14,17,19,22,23,28,32,31,15,15,9,13,13,10,7,15,6,7,7,0,
1571653470,2019-10-21 10:24:30.925,Acquired,Acquired,Acquired,Acquired,Acquired,Acquired,Acquired,Acquired,Acquired,Acquired,Acquired,Not acquired,9.1080192E1,2.47277168E2,1.6796096E2,1.54704128E2,6.2361348E1,3.08701664E2,3.18335744E2,3.4528380799999996E2,1.84838224E2,2.63970368E2,4.214864E1,8.942016E1,7.6470928E1,6.551135599999999E1,1.427463E1,6.403068E1,3.8600668E1,3.5317672E1,1.795922E1,8.9195208E1,2.0084526E1,1.7222406E1,1.9108098E1,7.219316999999999E0,1,3,8,11,14,17,19,22,23,28,32,31,15,15,9,13,13,10,7,15,6,7,7,0,
1571653530,2019-10-21 10:25:30.925,Acquired,Acquired,Acquired,Acquired,Acquired,Acquired,Acquired,Acquired,Acquired,Acquired,Acquired,Not acquired,9.1080192E1,2.47277168E2,1.6796096E2,1.54704128E2,6.2361348E1,3.08701664E2,3.18335744E2,3.4528380799999996E2,1.84838224E2,2.63970368E2,4.214864E1,8.942016E1,7.6470928E1,6.551135599999999E1,1.427463E1,6.403068E1,3.8600668E1,3.5317672E1,1.795922E1,8.9195208E1,2.0084526E1,1.7222406E1,1.9108098E1,7.219316999999999E0,1,3,8,11,14,17,19,22,23,28,32,31,15,15,9,13,13,10,7,15,6,7,7,0,
1571653590,2019-10-21 10:26:30.925,Acquired,Acquired,Acquired,Acquired,Acquired,Acquired,Acquired,Acquired,Acquired,Acquired,Acquired,Not acquired,9.1080192E1,2.47277168E2,1.6796096E2,1.54704128E2,6.2361348E1,3.08701664E2,3.18335744E2,3.4528380799999996E2,1.84838224E2,2.63970368E2,4.214864E1,8.942016E1,7.6470928E1,6.551135599999999E1,1.427463E1,6.403068E1,3.8600668E1,3.5317672E1,1.795922E1,8.9195208E1,2.0084526E1,1.7222406E1,1.9108098E1,7.219316999999999E0,1,3,8,11,14,17,19,22,23,28,32,31,15,15,9,13,13,10,7,15,6,7,7,0,
1571653650,2019-10-21 10:27:30.925,Acquired,Acquired,Acquired,Acquired,Acquired,Acquired,Acquired,Acquired,Acquired,Acquired,Acquired,Not acquired,9.1080192E1,2.47277168E2,1.6796096E2,1.54704128E2,6.2361348E1,3.08701664E2,3.18335744E2,3.4528380799999996E2,1.84838224E2,2.63970368E2,4.214864E1,8.942016E1,7.6470928E1,6.551135599999999E1,1.427463E1,6.403068E1,3.8600668E1,3.5317672E1,1.795922E1,8.9195208E1,2.0084526E1,1.7222406E1,1.9108098E1,7.219316999999999E0,1,3,8,11,14,17,19,22,23,28,32,31,15,15,9,13,13,10,7,15,6,7,7,0,
1571653710,2019-10-21 10:28:30.925,Acquired,Acquired,Acquired,Acquired,Acquired,Acquired,Acquired,Acquired,Acquired,Acquired,Acquired,Not acquired,9.1080192E1,2.47277168E2,1.6796096E2,1.54704128E2,6.2361348E1,3.08701664E2,3.18335744E2,3.4528380799999996E2,1.84838224E2,2.63970368E2,4.214864E1,8.942016E1,7.6470928E1,6.551135599999999E1,1.427463E1,6.403068E1,3.8600668E1,3.5317672E1,1.795922E1,8.9195208E1,2.0084526E1,1.7222406E1,1.9108098E1,7.219316999999999E0,1,3,8,11,14,17,19,22,23,28,32,31,15,15,9,13,13,10,7,15,6,7,7,0,
1571653770,2019-10-21 10:29:30.925,Acquired,Acquired,Acquired,Acquired,Acquired,Acquired,Acquired,Acquired,Acquired,Acquired,Acquired,Not acquired,9.1080192E1,2.47277168E2,1.6796096E2,1.54704128E2,6.2361348E1,3.08701664E2,3.18335744E2,3.4528380799999996E2,1.84838224E2,2.63970368E2,4.214864E1,8.942016E1,7.6470928E1,6.551135599999999E1,1.427463E1,6.403068E1,3.8600668E1,3.5317672E1,1.795922E1,8.9195208E1,2.0084526E1,1.7222406E1,1.9108098E1,7.219316999999999E0,1,3,8,11,14,17,19,22,23,28,32,31,15,15,9,13,13,10,7,15,6,7,7,0,
1571653830,2019-10-21 10:30:30.925,Acquired,Acquired,Acquired,Acquired,Acquired,Acquired,Acquired,Acquired,Acquired,Acquired,Acquired,Not acquired,9.1080192E1,2.47277168E2,1.6796096E2,1.54704128E2,6.2361348E1,3.08701664E2,3.18335744E2,3.4528380799999996E2,1.84838224E2,2.63970368E2,4.214864E1,8.942016E1,7.6470928E1,6.551135599999999E1,1.427463E1,6.403068E1,3.8600668E1,3.5317672E1,1.795922E1,8.9195208E1,2.0084526E1,1.7222406E1,1.9108098E1,7.219316999999999E0,1,3,8,11,14,17,19,22,23,28,32,31,15,15,9,13,13,10,7,15,6,7,7,0,
1571653890,2019-10-21 10:31:30.927,Acquired,Acquired,Acquired,Acquired,Acquired,Acquired,Acquired,Acquired,Acquired,Acquired,Acquired,Not acquired,9.1080192E1,2.47277168E2,1.6796096E2,1.54704128E2,6.2361348E1,3.08701664E2,3.18335744E2,3.4528380799999996E2,1.84838224E2,2.63970368E2,4.214864E1,8.942016E1,7.6470928E1,6.551135599999999E1,1.427463E1,6.403068E1,3.8600668E1,3.5317672E1,1.795922E1,8.9195208E1,2.0084526E1,1.7222406E1,1.9108098E1,7.219316999999999E0,1,3,8,11,14,17,19,22,23,28,32,31,15,15,9,13,13,10,7,15,6,7,7,0,
1571653950,2019-10-21 10:32:30.925,Acquired,Acquired,Acquired,Acquired,Acquired,Acquired,Acquired,Acquired,Acquired,Acquired,Acquired,Not acquired,9.1080192E1,2.47277168E2,1.6796096E2,1.54704128E2,6.2361348E1,3.08701664E2,3.18335744E2,3.4528380799999996E2,1.84838224E2,2.63970368E2,4.214864E1,8.942016E1,7.6470928E1,6.551135599999999E1,1.427463E1,6.403068E1,3.8600668E1,3.5317672E1,1.795922E1,8.9195208E1,2.0084526E1,1.7222406E1,1.9108098E1,7.219316999999999E0,1,3,8,11,14,17,19,22,23,28,32,31,15,15,9,13,13,10,7,15,6,7,7,0,
1571654010,2019-10-21 10:33:30.925,Acquired,Acquired,Acquired,Acquired,Acquired,Acquired,Acquired,Acquired,Acquired,Acquired,Acquired,Not acquired,9.1080192E1,2.47277168E2,1.6796096E2,1.54704128E2,6.2361348E1,3.08701664E2,3.18335744E2,3.4528380799999996E2,1.84838224E2,2.63970368E2,4.214864E1,8.942016E1,7.6470928E1,6.551135599999999E1,1.427463E1,6.403068E1,3.8600668E1,3.5317672E1,1.795922E1,8.9195208E1,2.0084526E1,1.7222406E1,1.9108098E1,7.219316999999999E0,1,3,8,11,14,17,19,22,23,28,32,31,15,15,9,13,13,10,7,15,6,7,7,0,
1571654070,2019-10-21 10:34:30.925,Acquired,Acquired,Acquired,Acquired,Acquired,Acquired,Acquired,Acquired,Acquired,Acquired,Acquired,Not acquired,9.1080192E1,2.47277168E2,1.6796096E2,1.54704128E2,6.2361348E1,3.08701664E2,3.18335744E2,3.4528380799999996E2,1.84838224E2,2.63970368E2,4.214864E1,8.942016E1,7.6470928E1,6.551135599999999E1,1.427463E1,6.403068E1,3.8600668E1,3.5317672E1,1.795922E1,8.9195208E1,2.0084526E1,1.7222406E1,1.9108098E1,7.219316999999999E0,1,3,8,11,14,17,19,22,23,28,32,31,15,15,9,13,13,10,7,15,6,7,7,0,
1571654130,2019-10-21 10:35:30.928,Acquired,Acquired,Acquired,Acquired,Acquired,Acquired,Acquired,Acquired,Acquired,Acquired,Acquired,Not acquired,9.1080192E1,2.47277168E2,1.6796096E2,1.54704128E2,6.2361348E1,3.08701664E2,3.18335744E2,3.4528380799999996E2,1.84838224E2,2.63970368E2,4.214864E1,8.942016E1,7.6470928E1,6.551135599999999E1,1.427463E1,6.403068E1,3.8600668E1,3.5317672E1,1.795922E1,8.9195208E1,2.0084526E1,1.7222406E1,1.9108098E1,7.219316999999999E0,1,3,8,11,14,17,19,22,23,28,32,31,15,15,9,13,13,10,7,15,6,7,7,0,
1571654190,2019-10-21 10:36:30.925,Acquired,Acquired,Acquired,Acquired,Acquired,Acquired,Acquired,Acquired,Acquired,Acquired,Acquired,Not acquired,9.1080192E1,2.47277168E2,1.6796096E2,1.54704128E2,6.2361348E1,3.08701664E2,3.18335744E2,3.4528380799999996E2,1.84838224E2,2.63970368E2,4.214864E1,8.942016E1,7.6470928E1,6.551135599999999E1,1.427463E1,6.403068E1,3.8600668E1,3.5317672E1,1.795922E1,8.9195208E1,2.0084526E1,1.7222406E1,1.9108098E1,7.219316999999999E0,1,3,8,11,14,17,19,22,23,28,32,31,15,15,9,13,13,10,7,15,6,7,7,0,
1571654250,2019-10-21 10:37:30.925,Acquired,Acquired,Acquired,Acquired,Acquired,Acquired,Acquired,Acquired,Acquired,Acquired,Acquired,Not acquired,9.1080192E1,2.47277168E2,1.6796096E2,1.54704128E2,6.2361348E1,3.08701664E2,3.18335744E2,3.4528380799999996E2,1.84838224E2,2.63970368E2,4.214864E1,8.942016E1,7.6470928E1,6.551135599999999E1,1.427463E1,6.403068E1,3.8600668E1,3.5317672E1,1.795922E1,8.9195208E1,2.0084526E1,1.7222406E1,1.9108098E1,7.219316999999999E0,1,3,8,11,14,17,19,22,23,28,32,31,15,15,9,13,13,10,7,15,6,7,7,0,
1571654310,2019-10-21 10:38:30.928,Acquired,Acquired,Acquired,Acquired,Acquired,Acquired,Acquired,Acquired,Acquired,Acquired,Acquired,Not acquired,9.1080192E1,2.47277168E2,1.6796096E2,1.54704128E2,6.2361348E1,3.08701664E2,3.18335744E2,3.4528380799999996E2,1.84838224E2,2.63970368E2,4.214864E1,8.942016E1,7.6470928E1,6.551135599999999E1,1.427463E1,6.403068E1,3.8600668E1,3.5317672E1,1.795922E1,8.9195208E1,2.0084526E1,1.7222406E1,1.9108098E1,7.219316999999999E0,1,3,8,11,14,17,19,22,23,28,32,31,15,15,9,13,13,10,7,15,6,7,7,0,
1571654370,2019-10-21 10:39:30.926,Acquired,Acquired,Acquired,Acquired,Acquired,Acquired,Acquired,Acquired,Acquired,Acquired,Acquired,Not acquired,9.229400799999999E1,2.4777539199999998E2,1.6797639999999998E2,1.5463419199999998E2,6.1879259999999995E1,3.08404832E2,3.18211488E2,1.0488964E1,1.84810736E2,2.6360447999999997E2,4.194112E1,8.906392E1,7.60646E1,6.596755999999999E1,1.3834162E1,6.3520444E1,3.8397856E1,3.5656003999999996E1,1.8354198E1,8.8953384E1,2.0531008E1,1.6943026E1,1.8765128E1,7.486025E0,1,3,8,11,14,17,19,22,23,28,32,31,15,15,8,12,13,10,8,15,6,7,8,0,
1571654430,2019-10-21 10:40:30.925,Acquired,Acquired,Acquired,Acquired,Acquired,Acquired,Acquired,Acquired,Acquired,Acquired,Acquired,,1.1295652E2,2.69735488E2,1.54732608E2,5.1026292E1,2.9720912E2,3.1276937599999997E2,6.0782024E1,1.8409168E2,7.8516728E1,2.54318032E2,3.7872968E1,,6.4017588E1,7.8096216E1,4.9527432E1,3.112758E1,4.3706116E1,2.8829914E1,7.6648304E1,3.3195724E1,1.4053204E1,8.620388E0,8.815588E0,,1,3,11,14,17,19,22,23,31,28,32,,15,15,4,9,14,9,12,7,12,2,4,,
1571654490,2019-10-21 10:41:30.925,Acquired,Acquired,Acquired,Acquired,Acquired,Acquired,Acquired,Acquired,Acquired,Acquired,Acquired,,1.1295652E2,2.69735488E2,1.54732608E2,5.1026292E1,2.9720912E2,3.1276937599999997E2,6.0782024E1,1.8409168E2,7.8516728E1,2.54318032E2,3.7872968E1,,6.4017588E1,7.8096216E1,4.9527432E1,3.112758E1,4.3706116E1,2.8829914E1,7.6648304E1,3.3195724E1,1.4053204E1,8.620388E0,8.815588E0,,1,3,11,14,17,19,22,23,31,28,32,,15,15,4,9,14,9,12,7,12,2,4,,
1571654550,2019-10-21 10:42:30.925,Acquired,Acquired,Acquired,Acquired,Acquired,Acquired,Acquired,Acquired,Acquired,Acquired,Acquired,,1.1295652E2,2.69735488E2,1.54732608E2,5.1026292E1,2.9720912E2,3.1276937599999997E2,6.0782024E1,1.8409168E2,7.8516728E1,2.54318032E2,3.7872968E1,,6.4017588E1,7.8096216E1,4.9527432E1,3.112758E1,4.3706116E1,2.8829914E1,7.6648304E1,3.3195724E1,1.4053204E1,8.620388E0,8.815588E0,,1,3,11,14,17,19,22,23,31,28,32,,15,15,4,9,14,9,12,7,12,2,4,,
1571654610,2019-10-21 10:43:30.925,Acquired,Acquired,Acquired,Acquired,Acquired,Acquired,Acquired,Acquired,Acquired,Acquired,Acquired,,1.1295652E2,2.69735488E2,1.54732608E2,5.1026292E1,2.9720912E2,3.1276937599999997E2,6.0782024E1,1.8409168E2,7.8516728E1,2.54318032E2,3.7872968E1,,6.4017588E1,7.8096216E1,4.9527432E1,3.112758E1,4.3706116E1,2.8829914E1,7.6648304E1,3.3195724E1,1.4053204E1,8.620388E0,8.815588E0,,1,3,11,14,17,19,22,23,31,28,32,,15,15,4,9,14,9,12,7,12,2,4,,
1571654670,2019-10-21 10:44:30.925,Acquired,Acquired,Acquired,Acquired,Acquired,Acquired,Acquired,Acquired,Acquired,Acquired,Acquired,,1.1295652E2,2.69735488E2,1.54732608E2,5.1026292E1,2.9720912E2,3.1276937599999997E2,6.0782024E1,1.8409168E2,7.8516728E1,2.54318032E2,3.7872968E1,,6.4017588E1,7.8096216E1,4.9527432E1,3.112758E1,4.3706116E1,2.8829914E1,7.6648304E1,3.3195724E1,1.4053204E1,8.620388E0,8.815588E0,,1,3,11,14,17,19,22,23,31,28,32,,15,15,4,9,14,9,12,7,12,2,4,,
1571654730,2019-10-21 10:45:30.928,Acquired,Acquired,Acquired,Acquired,Acquired,Acquired,Acquired,Acquired,Acquired,Acquired,Acquired,,1.1295652E2,2.69735488E2,1.54732608E2,5.1026292E1,2.9720912E2,3.1276937599999997E2,6.0782024E1,1.8409168E2,7.8516728E1,2.54318032E2,3.7872968E1,,6.4017588E1,7.8096216E1,4.9527432E1,3.112758E1,4.3706116E1,2.8829914E1,7.6648304E1,3.3195724E1,1.4053204E1,8.620388E0,8.815588E0,,1,3,11,14,17,19,22,23,31,28,32,,15,15,4,9,14,9,12,7,12,2,4,,
1571654790,2019-10-21 10:46:30.925,Acquired,Acquired,Acquired,Acquired,Acquired,Acquired,Acquired,Acquired,Acquired,Acquired,Acquired,,1.1295652E2,2.69735488E2,1.54732608E2,5.1026292E1,2.9720912E2,3.1276937599999997E2,6.0782024E1,1.8409168E2,7.8516728E1,2.54318032E2,3.7872968E1,,6.4017588E1,7.8096216E1,4.9527432E1,3.112758E1,4.3706116E1,2.8829914E1,7.6648304E1,3.3195724E1,1.4053204E1,8.620388E0,8.815588E0,,1,3,11,14,17,19,22,23,31,28,32,,15,15,4,9,14,9,12,7,12,2,4,,
1571654850,2019-10-21 10:47:30.925,Acquired,Acquired,Acquired,Acquired,Acquired,Acquired,Acquired,Acquired,Acquired,Acquired,Acquired,,1.1295652E2,2.69735488E2,1.54732608E2,5.1026292E1,2.9720912E2,3.1276937599999997E2,6.0782024E1,1.8409168E2,7.8516728E1,2.54318032E2,3.7872968E1,,6.4017588E1,7.8096216E1,4.9527432E1,3.112758E1,4.3706116E1,2.8829914E1,7.6648304E1,3.3195724E1,1.4053204E1,8.620388E0,8.815588E0,,1,3,11,14,17,19,22,23,31,28,32,,15,15,4,9,14,9,12,7,12,2,4,,
1571654910,2019-10-21 10:48:30.925,Acquired,Acquired,Acquired,Acquired,Acquired,Acquired,Acquired,Acquired,Acquired,Acquired,Acquired,,1.1295652E2,2.69735488E2,1.54732608E2,5.1026292E1,2.9720912E2,3.1276937599999997E2,6.0782024E1,1.8409168E2,7.8516728E1,2.54318032E2,3.7872968E1,,6.4017588E1,7.8096216E1,4.9527432E1,3.112758E1,4.3706116E1,2.8829914E1,7.6648304E1,3.3195724E1,1.4053204E1,8.620388E0,8.815588E0,,1,3,11,14,17,19,22,23,31,28,32,,15,15,4,9,14,9,12,7,12,2,4,,
1571654970,2019-10-21 10:49:30.925,Acquired,Acquired,Acquired,Acquired,Acquired,Acquired,Acquired,Acquired,Acquired,Acquired,Acquired,,1.1295652E2,2.69735488E2,1.54732608E2,5.1026292E1,2.9720912E2,3.1276937599999997E2,6.0782024E1,1.8409168E2,7.8516728E1,2.54318032E2,3.7872968E1,,6.4017588E1,7.8096216E1,4.9527432E1,3.112758E1,4.3706116E1,2.8829914E1,7.6648304E1,3.3195724E1,1.4053204E1,8.620388E0,8.815588E0,,1,3,11,14,17,19,22,23,31,28,32,,15,15,4,9,14,9,12,7,12,2,4,,
1571655030,2019-10-21 10:50:30.926,Acquired,Acquired,Acquired,Acquired,Acquired,Acquired,Acquired,Acquired,Acquired,Acquired,Acquired,,1.1295652E2,2.69735488E2,1.54732608E2,5.1026292E1,2.9720912E2,3.1276937599999997E2,6.0782024E1,1.8409168E2,7.8516728E1,2.54318032E2,3.7872968E1,,6.4017588E1,7.8096216E1,4.9527432E1,3.112758E1,4.3706116E1,2.8829914E1,7.6648304E1,3.3195724E1,1.4053204E1,8.620388E0,8.815588E0,,1,3,11,14,17,19,22,23,31,28,32,,15,15,4,9,14,9,12,7,12,2,4,,
1571655090,2019-10-21 10:51:30.925,Acquired,Acquired,Acquired,Acquired,Acquired,Acquired,Acquired,Acquired,Acquired,Acquired,Acquired,,1.1295652E2,2.69735488E2,1.54732608E2,5.1026292E1,2.9720912E2,3.1276937599999997E2,6.0782024E1,1.8409168E2,7.8516728E1,2.54318032E2,3.7872968E1,,6.4017588E1,7.8096216E1,4.9527432E1,3.112758E1,4.3706116E1,2.8829914E1,7.6648304E1,3.3195724E1,1.4053204E1,8.620388E0,8.815588E0,,1,3,11,14,17,19,22,23,31,28,32,,15,15,4,9,14,9,12,7,12,2,4,,
1571655150,2019-10-21 10:52:30.925,Acquired,Acquired,Acquired,Acquired,Acquired,Acquired,Acquired,Acquired,Acquired,Acquired,Acquired,,1.1295652E2,2.69735488E2,1.54732608E2,5.1026292E1,2.9720912E2,3.1276937599999997E2,6.0782024E1,1.8409168E2,7.8516728E1,2.54318032E2,3.7872968E1,,6.4017588E1,7.8096216E1,4.9527432E1,3.112758E1,4.3706116E1,2.8829914E1,7.6648304E1,3.3195724E1,1.4053204E1,8.620388E0,8.815588E0,,1,3,11,14,17,19,22,23,31,28,32,,15,15,4,9,14,9,12,7,12,2,4,,
1571655210,2019-10-21 10:53:30.925,Acquired,Acquired,Acquired,Acquired,Acquired,Acquired,Acquired,Acquired,Acquired,Acquired,Acquired,,1.1295652E2,2.69735488E2,1.54732608E2,5.1026292E1,2.9720912E2,3.1276937599999997E2,6.0782024E1,1.8409168E2,7.8516728E1,2.54318032E2,3.7872968E1,,6.4017588E1,7.8096216E1,4.9527432E1,3.112758E1,4.3706116E1,2.8829914E1,7.6648304E1,3.3195724E1,1.4053204E1,8.620388E0,8.815588E0,,1,3,11,14,17,19,22,23,31,28,32,,15,15,4,9,14,9,12,7,12,2,4,,
1571655270,2019-10-21 10:54:30.925,Acquired,Acquired,Acquired,Acquired,Acquired,Acquired,Acquired,Acquired,Acquired,Acquired,Acquired,,1.1295652E2,2.69735488E2,1.54732608E2,5.1026292E1,2.9720912E2,3.1276937599999997E2,6.0782024E1,1.8409168E2,7.8516728E1,2.54318032E2,3.7872968E1,,6.4017588E1,7.8096216E1,4.9527432E1,3.112758E1,4.3706116E1,2.8829914E1,7.6648304E1,3.3195724E1,1.4053204E1,8.620388E0,8.815588E0,,1,3,11,14,17,19,22,23,31,28,32,,15,15,4,9,14,9,12,7,12,2,4,,
1571655330,2019-10-21 10:55:30.925,Acquired,Acquired,Acquired,Acquired,Acquired,Acquired,Acquired,Acquired,Acquired,Acquired,Acquired,,1.1295652E2,2.69735488E2,1.54732608E2,5.1026292E1,2.9720912E2,3.1276937599999997E2,6.0782024E1,1.8409168E2,7.8516728E1,2.54318032E2,3.7872968E1,,6.4017588E1,7.8096216E1,4.9527432E1,3.112758E1,4.3706116E1,2.8829914E1,7.6648304E1,3.3195724E1,1.4053204E1,8.620388E0,8.815588E0,,1,3,11,14,17,19,22,23,31,28,32,,15,15,4,9,14,9,12,7,12,2,4,,
1571655390,2019-10-21 10:56:30.928,Acquired,Acquired,Acquired,Acquired,Acquired,Acquired,Acquired,Acquired,Acquired,Acquired,Acquired,,1.1295652E2,2.69735488E2,1.54732608E2,5.1026292E1,2.9720912E2,3.1276937599999997E2,6.0782024E1,1.8409168E2,7.8516728E1,2.54318032E2,3.7872968E1,,6.4017588E1,7.8096216E1,4.9527432E1,3.112758E1,4.3706116E1,2.8829914E1,7.6648304E1,3.3195724E1,1.4053204E1,8.620388E0,8.815588E0,,1,3,11,14,17,19,22,23,31,28,32,,15,15,4,9,14,9,12,7,12,2,4,,
1571655450,2019-10-21 10:57:30.925,Acquired,Acquired,Acquired,Acquired,Acquired,Acquired,Acquired,Acquired,Acquired,Acquired,Acquired,,1.1295652E2,2.69735488E2,1.54732608E2,5.1026292E1,2.9720912E2,3.1276937599999997E2,6.0782024E1,1.8409168E2,7.8516728E1,2.54318032E2,3.7872968E1,,6.4017588E1,7.8096216E1,4.9527432E1,3.112758E1,4.3706116E1,2.8829914E1,7.6648304E1,3.3195724E1,1.4053204E1,8.620388E0,8.815588E0,,1,3,11,14,17,19,22,23,31,28,32,,15,15,4,9,14,9,12,7,12,2,4,,
1571655510,2019-10-21 10:58:30.925,Acquired,Acquired,Acquired,Acquired,Acquired,Acquired,Acquired,Acquired,Acquired,Acquired,Acquired,,1.1295652E2,2.69735488E2,1.54732608E2,5.1026292E1,2.9720912E2,3.1276937599999997E2,6.0782024E1,1.8409168E2,7.8516728E1,2.54318032E2,3.7872968E1,,6.4017588E1,7.8096216E1,4.9527432E1,3.112758E1,4.3706116E1,2.8829914E1,7.6648304E1,3.3195724E1,1.4053204E1,8.620388E0,8.815588E0,,1,3,11,14,17,19,22,23,31,28,32,,15,15,4,9,14,9,12,7,12,2,4,,
1571655570,2019-10-21 10:59:30.925,Acquired,Acquired,Acquired,Acquired,Acquired,Acquired,Acquired,Acquired,Acquired,Acquired,Acquired,,1.1295652E2,2.69735488E2,1.54732608E2,5.1026292E1,2.9720912E2,3.1276937599999997E2,6.0782024E1,1.8409168E2,7.8516728E1,2.54318032E2,3.7872968E1,,6.4017588E1,7.8096216E1,4.9527432E1,3.112758E1,4.3706116E1,2.8829914E1,7.6648304E1,3.3195724E1,1.4053204E1,8.620388E0,8.815588E0,,1,3,11,14,17,19,22,23,31,28,32,,15,15,4,9,14,9,12,7,12,2,4,,
