Time(longsecs),Time(UTC),GPS Satellite Acquisition Flag 1,GPS Satellite Acquisition Flag 2,GPS Satellite Acquisition Flag 3,GPS Satellite Acquisition Flag 4,GPS Satellite Acquisition Flag 5,GPS Satellite Acquisition Flag 6,GPS Satellite Acquisition Flag 7,GPS Satellite Acquisition Flag 8,GPS Satellite Acquisition Flag 9,GPS Satellite Acquisition Flag 10,GPS Satellite Acquisition Flag 11,GPS Satellite Acquisition Flag 12,GPS Satellite Azimuth 1(Degrees),GPS Satellite Azimuth 2(Degrees),GPS Satellite Azimuth 3(Degrees),GPS Satellite Azimuth 4(Degrees),GPS Satellite Azimuth 5(Degrees),GPS Satellite Azimuth 6(Degrees),GPS Satellite Azimuth 7(Degrees),GPS Satellite Azimuth 8(Degrees),GPS Satellite Azimuth 9(Degrees),GPS Satellite Azimuth 10(Degrees),GPS Satellite Azimuth 11(Degrees),GPS Satellite Azimuth 12(Degrees),GPS Satellite Elevation 1(Degrees),GPS Satellite Elevation 2(Degrees),GPS Satellite Elevation 3(Degrees),GPS Satellite Elevation 4(Degrees),GPS Satellite Elevation 5(Degrees),GPS Satellite Elevation 6(Degrees),GPS Satellite Elevation 7(Degrees),GPS Satellite Elevation 8(Degrees),GPS Satellite Elevation 9(Degrees),GPS Satellite Elevation 10(Degrees),GPS Satellite Elevation 11(Degrees),GPS Satellite Elevation 12(Degrees),GPS Satellite PRN 1,GPS Satellite PRN 2,GPS Satellite PRN 3,GPS Satellite PRN 4,GPS Satellite PRN 5,GPS Satellite PRN 6,GPS Satellite PRN 7,GPS Satellite PRN 8,GPS Satellite PRN 9,GPS Satellite PRN 10,GPS Satellite PRN 11,GPS Satellite PRN 12,GPS Satellite Signal Level 1(AMU),GPS Satellite Signal Level 2(AMU),GPS Satellite Signal Level 3(AMU),GPS Satellite Signal Level 4(AMU),GPS Satellite Signal Level 5(AMU),GPS Satellite Signal Level 6(AMU),GPS Satellite Signal Level 7(AMU),GPS Satellite Signal Level 8(AMU),GPS Satellite Signal Level 9(AMU),GPS Satellite Signal Level 10(AMU),GPS Satellite Signal Level 11(AMU),GPS Satellite Signal Level 12(AMU),
1571662830,2019-10-21 13:00:30.925,Acquired,Acquired,Acquired,Acquired,Acquired,Acquired,Acquired,Acquired,Not acquired,Acquired,,,3.1444288E2,8.470208E1,2.98640992E2,2.10646256E2,2.3045129599999999E2,2.48184736E2,9.4357312E1,9.6797696E1,1.44702976E2,2.9918619999999997E1,,,1.3866216E1,4.7003471999999995E1,5.3525164E1,6.0896524E1,2.6350178E1,3.395868E1,2.7215234E1,7.7074072E1,1.1035905E1,8.75848E0,,,2,3,6,9,17,19,22,23,1,31,,,3,15,13,15,15,10,11,14,2,5,,,
1571662890,2019-10-21 13:01:30.925,Acquired,Acquired,Acquired,Acquired,Acquired,Acquired,Acquired,Acquired,Not acquired,Acquired,,,3.1444288E2,8.470208E1,2.98640992E2,2.10646256E2,2.3045129599999999E2,2.48184736E2,9.4357312E1,9.6797696E1,1.44702976E2,2.9918619999999997E1,,,1.3866216E1,4.7003471999999995E1,5.3525164E1,6.0896524E1,2.6350178E1,3.395868E1,2.7215234E1,7.7074072E1,1.1035905E1,8.75848E0,,,2,3,6,9,17,19,22,23,1,31,,,3,15,13,15,15,10,11,14,2,5,,,
1571662950,2019-10-21 13:02:30.925,Acquired,Acquired,Acquired,Acquired,Acquired,Acquired,Acquired,Acquired,Not acquired,Acquired,,,3.1444288E2,8.470208E1,2.98640992E2,2.10646256E2,2.3045129599999999E2,2.48184736E2,9.4357312E1,9.6797696E1,1.44702976E2,2.9918619999999997E1,,,1.3866216E1,4.7003471999999995E1,5.3525164E1,6.0896524E1,2.6350178E1,3.395868E1,2.7215234E1,7.7074072E1,1.1035905E1,8.75848E0,,,2,3,6,9,17,19,22,23,1,31,,,3,15,13,15,15,10,11,14,2,5,,,
1571663010,2019-10-21 13:03:30.925,Acquired,Acquired,Acquired,Acquired,Acquired,Acquired,Acquired,Acquired,Not acquired,Acquired,,,3.1444288E2,8.470208E1,2.98640992E2,2.10646256E2,2.3045129599999999E2,2.48184736E2,9.4357312E1,9.6797696E1,1.44702976E2,2.9918619999999997E1,,,1.3866216E1,4.7003471999999995E1,5.3525164E1,6.0896524E1,2.6350178E1,3.395868E1,2.7215234E1,7.7074072E1,1.1035905E1,8.75848E0,,,2,3,6,9,17,19,22,23,1,31,,,3,15,13,15,15,10,11,14,2,5,,,
1571663070,2019-10-21 13:04:30.925,Acquired,Acquired,Acquired,Acquired,Acquired,Acquired,Acquired,Acquired,Not acquired,Acquired,,,3.1444288E2,8.470208E1,2.98640992E2,2.10646256E2,2.3045129599999999E2,2.48184736E2,9.4357312E1,9.6797696E1,1.44702976E2,2.9918619999999997E1,,,1.3866216E1,4.7003471999999995E1,5.3525164E1,6.0896524E1,2.6350178E1,3.395868E1,2.7215234E1,7.7074072E1,1.1035905E1,8.75848E0,,,2,3,6,9,17,19,22,23,1,31,,,3,15,13,15,15,10,11,14,2,5,,,
1571663130,2019-10-21 13:05:30.925,Acquired,Acquired,Acquired,Acquired,Acquired,Acquired,Acquired,Acquired,Not acquired,Acquired,,,3.1444288E2,8.470208E1,2.98640992E2,2.10646256E2,2.3045129599999999E2,2.48184736E2,9.4357312E1,9.6797696E1,1.44702976E2,2.9918619999999997E1,,,1.3866216E1,4.7003471999999995E1,5.3525164E1,6.0896524E1,2.6350178E1,3.395868E1,2.7215234E1,7.7074072E1,1.1035905E1,8.75848E0,,,2,3,6,9,17,19,22,23,1,31,,,3,15,13,15,15,10,11,14,2,5,,,
1571663190,2019-10-21 13:06:30.925,Acquired,Acquired,Acquired,Acquired,Acquired,Acquired,Acquired,Acquired,Not acquired,Acquired,,,3.1444288E2,8.470208E1,2.98640992E2,2.10646256E2,2.3045129599999999E2,2.48184736E2,9.4357312E1,9.6797696E1,1.44702976E2,2.9918619999999997E1,,,1.3866216E1,4.7003471999999995E1,5.3525164E1,6.0896524E1,2.6350178E1,3.395868E1,2.7215234E1,7.7074072E1,1.1035905E1,8.75848E0,,,2,3,6,9,17,19,22,23,1,31,,,3,15,13,15,15,10,11,14,2,5,,,
1571663250,2019-10-21 13:07:30.925,Acquired,Acquired,Acquired,Acquired,Acquired,Acquired,Acquired,Acquired,Not acquired,Acquired,,,3.1444288E2,8.470208E1,2.98640992E2,2.10646256E2,2.3045129599999999E2,2.48184736E2,9.4357312E1,9.6797696E1,1.44702976E2,2.9918619999999997E1,,,1.3866216E1,4.7003471999999995E1,5.3525164E1,6.0896524E1,2.6350178E1,3.395868E1,2.7215234E1,7.7074072E1,1.1035905E1,8.75848E0,,,2,3,6,9,17,19,22,23,1,31,,,3,15,13,15,15,10,11,14,2,5,,,
1571663310,2019-10-21 13:08:30.925,Acquired,Acquired,Acquired,Acquired,Acquired,Acquired,Acquired,Acquired,Not acquired,Acquired,,,3.1444288E2,8.470208E1,2.98640992E2,2.10646256E2,2.3045129599999999E2,2.48184736E2,9.4357312E1,9.6797696E1,1.44702976E2,2.9918619999999997E1,,,1.3866216E1,4.7003471999999995E1,5.3525164E1,6.0896524E1,2.6350178E1,3.395868E1,2.7215234E1,7.7074072E1,1.1035905E1,8.75848E0,,,2,3,6,9,17,19,22,23,1,31,,,3,15,13,15,15,10,11,14,2,5,,,
1571663370,2019-10-21 13:09:30.925,Acquired,Acquired,Acquired,Acquired,Acquired,Acquired,Acquired,Acquired,Not acquired,Acquired,,,3.1444288E2,8.470208E1,2.98640992E2,2.10646256E2,2.3045129599999999E2,2.48184736E2,9.4357312E1,9.6797696E1,1.44702976E2,2.9918619999999997E1,,,1.3866216E1,4.7003471999999995E1,5.3525164E1,6.0896524E1,2.6350178E1,3.395868E1,2.7215234E1,7.7074072E1,1.1035905E1,8.75848E0,,,2,3,6,9,17,19,22,23,1,31,,,3,15,13,15,15,10,11,14,2,5,,,
1571663430,2019-10-21 13:10:30.925,Acquired,Acquired,Acquired,Acquired,Acquired,Acquired,Acquired,Acquired,Not acquired,Acquired,,,3.1444288E2,8.470208E1,2.98640992E2,2.10646256E2,2.3045129599999999E2,2.48184736E2,9.4357312E1,9.6797696E1,1.44702976E2,2.9918619999999997E1,,,1.3866216E1,4.7003471999999995E1,5.3525164E1,6.0896524E1,2.6350178E1,3.395868E1,2.7215234E1,7.7074072E1,1.1035905E1,8.75848E0,,,2,3,6,9,17,19,22,23,1,31,,,3,15,13,15,15,10,11,14,2,5,,,
1571663490,2019-10-21 13:11:30.925,Acquired,Acquired,Acquired,Acquired,Acquired,Acquired,Acquired,Acquired,Not acquired,Acquired,,,3.1444288E2,8.470208E1,2.98640992E2,2.10646256E2,2.3045129599999999E2,2.48184736E2,9.4357312E1,9.6797696E1,1.44702976E2,2.9918619999999997E1,,,1.3866216E1,4.7003471999999995E1,5.3525164E1,6.0896524E1,2.6350178E1,3.395868E1,2.7215234E1,7.7074072E1,1.1035905E1,8.75848E0,,,2,3,6,9,17,19,22,23,1,31,,,3,15,13,15,15,10,11,14,2,5,,,
1571663550,2019-10-21 13:12:30.927,Acquired,Acquired,Acquired,Acquired,Acquired,Acquired,Acquired,Acquired,Not acquired,Acquired,,,3.1444288E2,8.470208E1,2.98640992E2,2.10646256E2,2.3045129599999999E2,2.48184736E2,9.4357312E1,9.6797696E1,1.44702976E2,2.9918619999999997E1,,,1.3866216E1,4.7003471999999995E1,5.3525164E1,6.0896524E1,2.6350178E1,3.395868E1,2.7215234E1,7.7074072E1,1.1035905E1,8.75848E0,,,2,3,6,9,17,19,22,23,1,31,,,3,15,13,15,15,10,11,14,2,5,,,
1571663610,2019-10-21 13:13:30.925,Acquired,Acquired,Acquired,Acquired,Acquired,Acquired,Acquired,Acquired,Not acquired,Acquired,,,3.1444288E2,8.470208E1,2.98640992E2,2.10646256E2,2.3045129599999999E2,2.48184736E2,9.4357312E1,9.6797696E1,1.44702976E2,2.9918619999999997E1,,,1.3866216E1,4.7003471999999995E1,5.3525164E1,6.0896524E1,2.6350178E1,3.395868E1,2.7215234E1,7.7074072E1,1.1035905E1,8.75848E0,,,2,3,6,9,17,19,22,23,1,31,,,3,15,13,15,15,10,11,14,2,5,,,
1571663670,2019-10-21 13:14:30.925,Acquired,Acquired,Acquired,Acquired,Acquired,Acquired,Acquired,Acquired,Not acquired,Acquired,,,3.1444288E2,8.470208E1,2.98640992E2,2.10646256E2,2.3045129599999999E2,2.48184736E2,9.4357312E1,9.6797696E1,1.44702976E2,2.9918619999999997E1,,,1.3866216E1,4.7003471999999995E1,5.3525164E1,6.0896524E1,2.6350178E1,3.395868E1,2.7215234E1,7.7074072E1,1.1035905E1,8.75848E0,,,2,3,6,9,17,19,22,23,1,31,,,3,15,13,15,15,10,11,14,2,5,,,
1571663730,2019-10-21 13:15:30.925,Acquired,Acquired,Acquired,Acquired,Acquired,Acquired,Acquired,Acquired,Not acquired,Acquired,,,3.1444288E2,8.470208E1,2.98640992E2,2.10646256E2,2.3045129599999999E2,2.48184736E2,9.4357312E1,9.6797696E1,1.44702976E2,2.9918619999999997E1,,,1.3866216E1,4.7003471999999995E1,5.3525164E1,6.0896524E1,2.6350178E1,3.395868E1,2.7215234E1,7.7074072E1,1.1035905E1,8.75848E0,,,2,3,6,9,17,19,22,23,1,31,,,3,15,13,15,15,10,11,14,2,5,,,
1571663790,2019-10-21 13:16:30.926,Acquired,Acquired,Acquired,Acquired,Acquired,Acquired,Acquired,Acquired,Not acquired,Acquired,,,3.1444288E2,8.470208E1,2.98640992E2,2.10646256E2,2.3045129599999999E2,2.48184736E2,9.4357312E1,9.6797696E1,1.44702976E2,2.9918619999999997E1,,,1.3866216E1,4.7003471999999995E1,5.3525164E1,6.0896524E1,2.6350178E1,3.395868E1,2.7215234E1,7.7074072E1,1.1035905E1,8.75848E0,,,2,3,6,9,17,19,22,23,1,31,,,3,15,13,15,15,10,11,14,2,5,,,
1571663850,2019-10-21 13:17:30.944,Acquired,Acquired,Acquired,Acquired,Acquired,Acquired,Acquired,Acquired,Not acquired,Acquired,,,3.1444288E2,8.470208E1,2.98640992E2,2.10646256E2,2.3045129599999999E2,2.48184736E2,9.4357312E1,9.6797696E1,1.44702976E2,2.9918619999999997E1,,,1.3866216E1,4.7003471999999995E1,5.3525164E1,6.0896524E1,2.6350178E1,3.395868E1,2.7215234E1,7.7074072E1,1.1035905E1,8.75848E0,,,2,3,6,9,17,19,22,23,1,31,,,3,15,13,15,15,10,11,14,2,5,,,
1571663910,2019-10-21 13:18:30.925,Acquired,Acquired,Acquired,Acquired,Acquired,Acquired,Acquired,Acquired,Not acquired,Acquired,,,3.1444288E2,8.470208E1,2.98640992E2,2.10646256E2,2.3045129599999999E2,2.48184736E2,9.4357312E1,9.6797696E1,1.44702976E2,2.9918619999999997E1,,,1.3866216E1,4.7003471999999995E1,5.3525164E1,6.0896524E1,2.6350178E1,3.395868E1,2.7215234E1,7.7074072E1,1.1035905E1,8.75848E0,,,2,3,6,9,17,19,22,23,1,31,,,3,15,13,15,15,10,11,14,2,5,,,
1571663970,2019-10-21 13:19:30.925,Acquired,Acquired,Acquired,Acquired,Acquired,Acquired,Acquired,Acquired,Not acquired,Acquired,,,3.1444288E2,8.470208E1,2.98640992E2,2.10646256E2,2.3045129599999999E2,2.48184736E2,9.4357312E1,9.6797696E1,1.44702976E2,2.9918619999999997E1,,,1.3866216E1,4.7003471999999995E1,5.3525164E1,6.0896524E1,2.6350178E1,3.395868E1,2.7215234E1,7.7074072E1,1.1035905E1,8.75848E0,,,2,3,6,9,17,19,22,23,1,31,,,3,15,13,15,15,10,11,14,2,5,,,
1571664030,2019-10-21 13:20:30.925,Acquired,Acquired,Acquired,Acquired,Acquired,Acquired,Acquired,Acquired,Not acquired,Acquired,,,3.1444288E2,8.470208E1,2.98640992E2,2.10646256E2,2.3045129599999999E2,2.48184736E2,9.4357312E1,9.6797696E1,1.44702976E2,2.9918619999999997E1,,,1.3866216E1,4.7003471999999995E1,5.3525164E1,6.0896524E1,2.6350178E1,3.395868E1,2.7215234E1,7.7074072E1,1.1035905E1,8.75848E0,,,2,3,6,9,17,19,22,23,1,31,,,3,15,13,15,15,10,11,14,2,5,,,
1571664090,2019-10-21 13:21:30.935,Acquired,Acquired,Acquired,Acquired,Acquired,Acquired,Acquired,Acquired,Not acquired,Acquired,,,3.1444288E2,8.470208E1,2.98640992E2,2.10646256E2,2.3045129599999999E2,2.48184736E2,9.4357312E1,9.6797696E1,1.44702976E2,2.9918619999999997E1,,,1.3866216E1,4.7003471999999995E1,5.3525164E1,6.0896524E1,2.6350178E1,3.395868E1,2.7215234E1,7.7074072E1,1.1035905E1,8.75848E0,,,2,3,6,9,17,19,22,23,1,31,,,3,15,13,15,15,10,11,14,2,5,,,
1571664150,2019-10-21 13:22:30.926,Acquired,Acquired,Acquired,Acquired,Acquired,Acquired,Acquired,Acquired,Not acquired,Acquired,,,3.14425248E2,8.5042248E1,2.98249216E2,2.1075039999999998E2,2.3014582399999998E2,2.4773643199999998E2,9.4611392E1,9.494532E1,1.44844832E2,2.9646781999999998E1,,,1.4234745E1,4.6605764E1,5.391032E1,6.1391071999999994E1,2.5967043999999998E1,3.3655428E1,2.6844278E1,7.6850152E1,1.0615962999999999E1,8.479015E0,,,2,3,6,9,17,19,22,23,1,31,,,4,14,12,15,15,9,11,15,2,6,,,
1571664210,2019-10-21 13:23:30.925,Acquired,Acquired,Acquired,Acquired,Acquired,Acquired,Acquired,Acquired,Not acquired,,,,3.1068582399999997E2,9.763078399999999E1,2.68200224E2,1.6650431999999998E2,2.09681648E2,2.33317824E2,6.4343032E1,2.1977864E2,1.0443710399999999E2,,,,2.875901E1,3.1013782E1,6.504114E1,2.1322252E1,8.1181248E1,1.9824854E1,6.2103856E1,1.04252E1,1.2283268999999999E1,,,,2,3,6,7,9,19,23,17,22,,,,9,13,15,4,15,7,14,7,0,,,,
1571664270,2019-10-21 13:24:30.925,Acquired,Acquired,Acquired,Acquired,Acquired,Acquired,Acquired,Acquired,Not acquired,,,,3.1068582399999997E2,9.763078399999999E1,2.68200224E2,1.6650431999999998E2,2.09681648E2,2.33317824E2,6.4343032E1,2.1977864E2,1.0443710399999999E2,,,,2.875901E1,3.1013782E1,6.504114E1,2.1322252E1,8.1181248E1,1.9824854E1,6.2103856E1,1.04252E1,1.2283268999999999E1,,,,2,3,6,7,9,19,23,17,22,,,,9,13,15,4,15,7,14,7,0,,,,
1571664330,2019-10-21 13:25:30.925,Acquired,Acquired,Acquired,Acquired,Acquired,Acquired,Acquired,Acquired,Not acquired,,,,3.1068582399999997E2,9.763078399999999E1,2.68200224E2,1.6650431999999998E2,2.09681648E2,2.33317824E2,6.4343032E1,2.1977864E2,1.0443710399999999E2,,,,2.875901E1,3.1013782E1,6.504114E1,2.1322252E1,8.1181248E1,1.9824854E1,6.2103856E1,1.04252E1,1.2283268999999999E1,,,,2,3,6,7,9,19,23,17,22,,,,9,13,15,4,15,7,14,7,0,,,,
1571664390,2019-10-21 13:26:30.925,Acquired,Acquired,Acquired,Acquired,Acquired,Acquired,Acquired,Acquired,Not acquired,,,,3.1068582399999997E2,9.763078399999999E1,2.68200224E2,1.6650431999999998E2,2.09681648E2,2.33317824E2,6.4343032E1,2.1977864E2,1.0443710399999999E2,,,,2.875901E1,3.1013782E1,6.504114E1,2.1322252E1,8.1181248E1,1.9824854E1,6.2103856E1,1.04252E1,1.2283268999999999E1,,,,2,3,6,7,9,19,23,17,22,,,,9,13,15,4,15,7,14,7,0,,,,
1571664450,2019-10-21 13:27:30.925,Acquired,Acquired,Acquired,Acquired,Acquired,Acquired,Acquired,Acquired,Not acquired,,,,3.1068582399999997E2,9.763078399999999E1,2.68200224E2,1.6650431999999998E2,2.09681648E2,2.33317824E2,6.4343032E1,2.1977864E2,1.0443710399999999E2,,,,2.875901E1,3.1013782E1,6.504114E1,2.1322252E1,8.1181248E1,1.9824854E1,6.2103856E1,1.04252E1,1.2283268999999999E1,,,,2,3,6,7,9,19,23,17,22,,,,9,13,15,4,15,7,14,7,0,,,,
1571664510,2019-10-21 13:28:30.925,Acquired,Acquired,Acquired,Acquired,Acquired,Acquired,Acquired,Acquired,Not acquired,,,,3.1068582399999997E2,9.763078399999999E1,2.68200224E2,1.6650431999999998E2,2.09681648E2,2.33317824E2,6.4343032E1,2.1977864E2,1.0443710399999999E2,,,,2.875901E1,3.1013782E1,6.504114E1,2.1322252E1,8.1181248E1,1.9824854E1,6.2103856E1,1.04252E1,1.2283268999999999E1,,,,2,3,6,7,9,19,23,17,22,,,,9,13,15,4,15,7,14,7,0,,,,
1571664570,2019-10-21 13:29:30.925,Acquired,Acquired,Acquired,Acquired,Acquired,Acquired,Acquired,Acquired,Not acquired,,,,3.1068582399999997E2,9.763078399999999E1,2.68200224E2,1.6650431999999998E2,2.09681648E2,2.33317824E2,6.4343032E1,2.1977864E2,1.0443710399999999E2,,,,2.875901E1,3.1013782E1,6.504114E1,2.1322252E1,8.1181248E1,1.9824854E1,6.2103856E1,1.04252E1,1.2283268999999999E1,,,,2,3,6,7,9,19,23,17,22,,,,9,13,15,4,15,7,14,7,0,,,,
1571664630,2019-10-21 13:30:30.925,Acquired,Acquired,Acquired,Acquired,Acquired,Acquired,Acquired,Acquired,Not acquired,,,,3.1068582399999997E2,9.763078399999999E1,2.68200224E2,1.6650431999999998E2,2.09681648E2,2.33317824E2,6.4343032E1,2.1977864E2,1.0443710399999999E2,,,,2.875901E1,3.1013782E1,6.504114E1,2.1322252E1,8.1181248E1,1.9824854E1,6.2103856E1,1.04252E1,1.2283268999999999E1,,,,2,3,6,7,9,19,23,17,22,,,,9,13,15,4,15,7,14,7,0,,,,
1571664690,2019-10-21 13:31:30.925,Acquired,Acquired,Acquired,Acquired,Acquired,Acquired,Acquired,Acquired,Not acquired,,,,3.1068582399999997E2,9.763078399999999E1,2.68200224E2,1.6650431999999998E2,2.09681648E2,2.33317824E2,6.4343032E1,2.1977864E2,1.0443710399999999E2,,,,2.875901E1,3.1013782E1,6.504114E1,2.1322252E1,8.1181248E1,1.9824854E1,6.2103856E1,1.04252E1,1.2283268999999999E1,,,,2,3,6,7,9,19,23,17,22,,,,9,13,15,4,15,7,14,7,0,,,,
1571664750,2019-10-21 13:32:30.927,Acquired,Acquired,Acquired,Acquired,Acquired,Acquired,Acquired,Acquired,Not acquired,,,,3.1068582399999997E2,9.763078399999999E1,2.68200224E2,1.6650431999999998E2,2.09681648E2,2.33317824E2,6.4343032E1,2.1977864E2,1.0443710399999999E2,,,,2.875901E1,3.1013782E1,6.504114E1,2.1322252E1,8.1181248E1,1.9824854E1,6.2103856E1,1.04252E1,1.2283268999999999E1,,,,2,3,6,7,9,19,23,17,22,,,,9,13,15,4,15,7,14,7,0,,,,
1571664810,2019-10-21 13:33:30.959,Acquired,Acquired,Acquired,Acquired,Acquired,Acquired,Acquired,Acquired,Not acquired,,,,3.1068582399999997E2,9.763078399999999E1,2.68200224E2,1.6650431999999998E2,2.09681648E2,2.33317824E2,6.4343032E1,2.1977864E2,1.0443710399999999E2,,,,2.875901E1,3.1013782E1,6.504114E1,2.1322252E1,8.1181248E1,1.9824854E1,6.2103856E1,1.04252E1,1.2283268999999999E1,,,,2,3,6,7,9,19,23,17,22,,,,9,13,15,4,15,7,14,7,0,,,,
1571664870,2019-10-21 13:34:30.925,Acquired,Acquired,Acquired,Acquired,Acquired,Acquired,Acquired,Acquired,Not acquired,,,,3.1068582399999997E2,9.763078399999999E1,2.68200224E2,1.6650431999999998E2,2.09681648E2,2.33317824E2,6.4343032E1,2.1977864E2,1.0443710399999999E2,,,,2.875901E1,3.1013782E1,6.504114E1,2.1322252E1,8.1181248E1,1.9824854E1,6.2103856E1,1.04252E1,1.2283268999999999E1,,,,2,3,6,7,9,19,23,17,22,,,,9,13,15,4,15,7,14,7,0,,,,
1571664930,2019-10-21 13:35:30.925,Acquired,Acquired,Acquired,Acquired,Acquired,Acquired,Acquired,Acquired,Not acquired,,,,3.1068582399999997E2,9.763078399999999E1,2.68200224E2,1.6650431999999998E2,2.09681648E2,2.33317824E2,6.4343032E1,2.1977864E2,1.0443710399999999E2,,,,2.875901E1,3.1013782E1,6.504114E1,2.1322252E1,8.1181248E1,1.9824854E1,6.2103856E1,1.04252E1,1.2283268999999999E1,,,,2,3,6,7,9,19,23,17,22,,,,9,13,15,4,15,7,14,7,0,,,,
1571664990,2019-10-21 13:36:30.925,Acquired,Acquired,Acquired,Acquired,Acquired,Acquired,Acquired,Acquired,Not acquired,,,,3.1068582399999997E2,9.763078399999999E1,2.68200224E2,1.6650431999999998E2,2.09681648E2,2.33317824E2,6.4343032E1,2.1977864E2,1.0443710399999999E2,,,,2.875901E1,3.1013782E1,6.504114E1,2.1322252E1,8.1181248E1,1.9824854E1,6.2103856E1,1.04252E1,1.2283268999999999E1,,,,2,3,6,7,9,19,23,17,22,,,,9,13,15,4,15,7,14,7,0,,,,
1571665050,2019-10-21 13:37:30.925,Acquired,Acquired,Acquired,Acquired,Acquired,Acquired,Acquired,Acquired,Not acquired,,,,3.1068582399999997E2,9.763078399999999E1,2.68200224E2,1.6650431999999998E2,2.09681648E2,2.33317824E2,6.4343032E1,2.1977864E2,1.0443710399999999E2,,,,2.875901E1,3.1013782E1,6.504114E1,2.1322252E1,8.1181248E1,1.9824854E1,6.2103856E1,1.04252E1,1.2283268999999999E1,,,,2,3,6,7,9,19,23,17,22,,,,9,13,15,4,15,7,14,7,0,,,,
1571665110,2019-10-21 13:38:30.925,Acquired,Acquired,Acquired,Acquired,Acquired,Acquired,Acquired,Acquired,Not acquired,,,,3.1068582399999997E2,9.763078399999999E1,2.68200224E2,1.6650431999999998E2,2.09681648E2,2.33317824E2,6.4343032E1,2.1977864E2,1.0443710399999999E2,,,,2.875901E1,3.1013782E1,6.504114E1,2.1322252E1,8.1181248E1,1.9824854E1,6.2103856E1,1.04252E1,1.2283268999999999E1,,,,2,3,6,7,9,19,23,17,22,,,,9,13,15,4,15,7,14,7,0,,,,
1571665170,2019-10-21 13:39:30.925,Acquired,Acquired,Acquired,Acquired,Acquired,Acquired,Acquired,Acquired,Not acquired,,,,3.1068582399999997E2,9.763078399999999E1,2.68200224E2,1.6650431999999998E2,2.09681648E2,2.33317824E2,6.4343032E1,2.1977864E2,1.0443710399999999E2,,,,2.875901E1,3.1013782E1,6.504114E1,2.1322252E1,8.1181248E1,1.9824854E1,6.2103856E1,1.04252E1,1.2283268999999999E1,,,,2,3,6,7,9,19,23,17,22,,,,9,13,15,4,15,7,14,7,0,,,,
1571665230,2019-10-21 13:40:30.925,Acquired,Acquired,Acquired,Acquired,Acquired,Acquired,Acquired,Acquired,Not acquired,,,,3.1068582399999997E2,9.763078399999999E1,2.68200224E2,1.6650431999999998E2,2.09681648E2,2.33317824E2,6.4343032E1,2.1977864E2,1.0443710399999999E2,,,,2.875901E1,3.1013782E1,6.504114E1,2.1322252E1,8.1181248E1,1.9824854E1,6.2103856E1,1.04252E1,1.2283268999999999E1,,,,2,3,6,7,9,19,23,17,22,,,,9,13,15,4,15,7,14,7,0,,,,
1571665290,2019-10-21 13:41:30.954,Acquired,Acquired,Acquired,Acquired,Acquired,Acquired,Acquired,Acquired,Not acquired,,,,3.1068582399999997E2,9.763078399999999E1,2.68200224E2,1.6650431999999998E2,2.09681648E2,2.33317824E2,6.4343032E1,2.1977864E2,1.0443710399999999E2,,,,2.875901E1,3.1013782E1,6.504114E1,2.1322252E1,8.1181248E1,1.9824854E1,6.2103856E1,1.04252E1,1.2283268999999999E1,,,,2,3,6,7,9,19,23,17,22,,,,9,13,15,4,15,7,14,7,0,,,,
1571665350,2019-10-21 13:42:30.925,Acquired,Acquired,Acquired,Acquired,Acquired,Acquired,Acquired,Acquired,Not acquired,,,,3.1068582399999997E2,9.763078399999999E1,2.68200224E2,1.6650431999999998E2,2.09681648E2,2.33317824E2,6.4343032E1,2.1977864E2,1.0443710399999999E2,,,,2.875901E1,3.1013782E1,6.504114E1,2.1322252E1,8.1181248E1,1.9824854E1,6.2103856E1,1.04252E1,1.2283268999999999E1,,,,2,3,6,7,9,19,23,17,22,,,,9,13,15,4,15,7,14,7,0,,,,
1571665410,2019-10-21 13:43:30.934,Acquired,Acquired,Acquired,Acquired,Acquired,Acquired,Acquired,Acquired,Not acquired,,,,3.1068582399999997E2,9.763078399999999E1,2.68200224E2,1.6650431999999998E2,2.09681648E2,2.33317824E2,6.4343032E1,2.1977864E2,1.0443710399999999E2,,,,2.875901E1,3.1013782E1,6.504114E1,2.1322252E1,8.1181248E1,1.9824854E1,6.2103856E1,1.04252E1,1.2283268999999999E1,,,,2,3,6,7,9,19,23,17,22,,,,9,13,15,4,15,7,14,7,0,,,,
1571665470,2019-10-21 13:44:30.925,Acquired,Acquired,Acquired,Acquired,Acquired,Acquired,Acquired,Acquired,Not acquired,,,,3.1068582399999997E2,9.763078399999999E1,2.68200224E2,1.6650431999999998E2,2.09681648E2,2.33317824E2,6.4343032E1,2.1977864E2,1.0443710399999999E2,,,,2.875901E1,3.1013782E1,6.504114E1,2.1322252E1,8.1181248E1,1.9824854E1,6.2103856E1,1.04252E1,1.2283268999999999E1,,,,2,3,6,7,9,19,23,17,22,,,,9,13,15,4,15,7,14,7,0,,,,
1571665530,2019-10-21 13:45:30.925,Acquired,Acquired,Acquired,Acquired,Acquired,Acquired,Acquired,Acquired,Not acquired,,,,3.1068582399999997E2,9.763078399999999E1,2.68200224E2,1.6650431999999998E2,2.09681648E2,2.33317824E2,6.4343032E1,2.1977864E2,1.0443710399999999E2,,,,2.875901E1,3.1013782E1,6.504114E1,2.1322252E1,8.1181248E1,1.9824854E1,6.2103856E1,1.04252E1,1.2283268999999999E1,,,,2,3,6,7,9,19,23,17,22,,,,9,13,15,4,15,7,14,7,0,,,,
1571665590,2019-10-21 13:46:30.925,Acquired,Acquired,Acquired,Acquired,Acquired,Acquired,Acquired,Acquired,Not acquired,,,,3.1068582399999997E2,9.763078399999999E1,2.68200224E2,1.6650431999999998E2,2.09681648E2,2.33317824E2,6.4343032E1,2.1977864E2,1.0443710399999999E2,,,,2.875901E1,3.1013782E1,6.504114E1,2.1322252E1,8.1181248E1,1.9824854E1,6.2103856E1,1.04252E1,1.2283268999999999E1,,,,2,3,6,7,9,19,23,17,22,,,,9,13,15,4,15,7,14,7,0,,,,
1571665650,2019-10-21 13:47:30.925,Acquired,Acquired,Acquired,Acquired,Acquired,Acquired,Acquired,Acquired,Not acquired,,,,3.1068582399999997E2,9.763078399999999E1,2.68200224E2,1.6650431999999998E2,2.09681648E2,2.33317824E2,6.4343032E1,2.1977864E2,1.0443710399999999E2,,,,2.875901E1,3.1013782E1,6.504114E1,2.1322252E1,8.1181248E1,1.9824854E1,6.2103856E1,1.04252E1,1.2283268999999999E1,,,,2,3,6,7,9,19,23,17,22,,,,9,13,15,4,15,7,14,7,0,,,,
1571665710,2019-10-21 13:48:30.927,Acquired,Acquired,Acquired,Acquired,Acquired,Acquired,Acquired,Acquired,Not acquired,,,,3.1068582399999997E2,9.763078399999999E1,2.68200224E2,1.6650431999999998E2,2.09681648E2,2.33317824E2,6.4343032E1,2.1977864E2,1.0443710399999999E2,,,,2.875901E1,3.1013782E1,6.504114E1,2.1322252E1,8.1181248E1,1.9824854E1,6.2103856E1,1.04252E1,1.2283268999999999E1,,,,2,3,6,7,9,19,23,17,22,,,,9,13,15,4,15,7,14,7,0,,,,
1571665770,2019-10-21 13:49:30.925,Acquired,Acquired,Acquired,Acquired,Acquired,Acquired,Acquired,Acquired,Not acquired,,,,3.1068582399999997E2,9.763078399999999E1,2.68200224E2,1.6650431999999998E2,2.09681648E2,2.33317824E2,6.4343032E1,2.1977864E2,1.0443710399999999E2,,,,2.875901E1,3.1013782E1,6.504114E1,2.1322252E1,8.1181248E1,1.9824854E1,6.2103856E1,1.04252E1,1.2283268999999999E1,,,,2,3,6,7,9,19,23,17,22,,,,9,13,15,4,15,7,14,7,0,,,,
1571665830,2019-10-21 13:50:30.925,Acquired,Acquired,Acquired,Acquired,Acquired,Acquired,Acquired,Acquired,Not acquired,,,,3.1068582399999997E2,9.763078399999999E1,2.68200224E2,1.6650431999999998E2,2.09681648E2,2.33317824E2,6.4343032E1,2.1977864E2,1.0443710399999999E2,,,,2.875901E1,3.1013782E1,6.504114E1,2.1322252E1,8.1181248E1,1.9824854E1,6.2103856E1,1.04252E1,1.2283268999999999E1,,,,2,3,6,7,9,19,23,17,22,,,,9,13,15,4,15,7,14,7,0,,,,
1571665890,2019-10-21 13:51:30.925,Acquired,Acquired,Acquired,Acquired,Acquired,Acquired,Acquired,Acquired,Not acquired,,,,3.1068582399999997E2,9.763078399999999E1,2.68200224E2,1.6650431999999998E2,2.09681648E2,2.33317824E2,6.4343032E1,2.1977864E2,1.0443710399999999E2,,,,2.875901E1,3.1013782E1,6.504114E1,2.1322252E1,8.1181248E1,1.9824854E1,6.2103856E1,1.04252E1,1.2283268999999999E1,,,,2,3,6,7,9,19,23,17,22,,,,9,13,15,4,15,7,14,7,0,,,,
1571665950,2019-10-21 13:52:30.925,Acquired,Acquired,Acquired,Acquired,Acquired,Acquired,Acquired,Acquired,Not acquired,,,,3.1068582399999997E2,9.763078399999999E1,2.68200224E2,1.6650431999999998E2,2.09681648E2,2.33317824E2,6.4343032E1,2.1977864E2,1.0443710399999999E2,,,,2.875901E1,3.1013782E1,6.504114E1,2.1322252E1,8.1181248E1,1.9824854E1,6.2103856E1,1.04252E1,1.2283268999999999E1,,,,2,3,6,7,9,19,23,17,22,,,,9,13,15,4,15,7,14,7,0,,,,
1571666010,2019-10-21 13:53:30.925,Acquired,Acquired,Acquired,Acquired,Acquired,Acquired,Acquired,Acquired,Not acquired,,,,3.1068582399999997E2,9.763078399999999E1,2.68200224E2,1.6650431999999998E2,2.09681648E2,2.33317824E2,6.4343032E1,2.1977864E2,1.0443710399999999E2,,,,2.875901E1,3.1013782E1,6.504114E1,2.1322252E1,8.1181248E1,1.9824854E1,6.2103856E1,1.04252E1,1.2283268999999999E1,,,,2,3,6,7,9,19,23,17,22,,,,9,13,15,4,15,7,14,7,0,,,,
1571666070,2019-10-21 13:54:30.925,Acquired,Acquired,Acquired,Acquired,Acquired,Acquired,Acquired,Acquired,Not acquired,,,,3.1068582399999997E2,9.763078399999999E1,2.68200224E2,1.6650431999999998E2,2.09681648E2,2.33317824E2,6.4343032E1,2.1977864E2,1.0443710399999999E2,,,,2.875901E1,3.1013782E1,6.504114E1,2.1322252E1,8.1181248E1,1.9824854E1,6.2103856E1,1.04252E1,1.2283268999999999E1,,,,2,3,6,7,9,19,23,17,22,,,,9,13,15,4,15,7,14,7,0,,,,
1571666130,2019-10-21 13:55:30.926,Acquired,Acquired,Acquired,Acquired,Acquired,Acquired,Acquired,Acquired,Not acquired,,,,3.1068582399999997E2,9.763078399999999E1,2.68200224E2,1.6650431999999998E2,2.09681648E2,2.33317824E2,6.4343032E1,2.1977864E2,1.0443710399999999E2,,,,2.875901E1,3.1013782E1,6.504114E1,2.1322252E1,8.1181248E1,1.9824854E1,6.2103856E1,1.04252E1,1.2283268999999999E1,,,,2,3,6,7,9,19,23,17,22,,,,9,13,15,4,15,7,14,7,0,,,,
1571666190,2019-10-21 13:56:30.928,Acquired,Acquired,Acquired,Acquired,Acquired,Acquired,Acquired,Acquired,Not acquired,,,,3.1049868799999996E2,9.7928376E1,2.67061168E2,1.6638374399999998E2,2.0915337599999998E2,2.3302248E2,6.414766E1,2.19545264E2,1.0467582399999999E2,,,,2.9112828E1,3.0626147999999997E1,6.5145724E1,2.1757066E1,8.1673496E1,1.945058E1,6.1670871999999996E1,1.003627E1,1.1920249E1,,,,2,3,6,7,9,19,23,17,22,,,,9,10,15,6,15,7,14,5,0,,,,
1571666250,2019-10-21 13:57:30.927,Acquired,Acquired,Acquired,Acquired,Acquired,Acquired,Not acquired,Acquired,Acquired,Not acquired,,,3.01108E2,1.0706723199999999E2,2.30996624E2,1.61730896E2,6.2065107999999995E1,6.2903312E1,6.4559432E1,2.24484176E2,3.8898024E1,1.8459036799999998E2,,,3.9521564E1,1.8253912E1,6.1784231999999996E1,3.6283808E1,8.176396E1,4.7597187999999996E1,5.968978E0,7.349685E0,7.169658E0,1.0372957E1,,,2,3,6,7,9,23,16,19,26,30,,,11,5,13,15,15,13,0,9,7,0,,,
1571666310,2019-10-21 13:58:30.925,,,Acquired,Acquired,Acquired,Acquired,Not acquired,Acquired,Acquired,Acquired,,,,,2.30073536E2,1.61542544E2,6.1545939999999995E1,6.297228E1,6.415651199999999E1,2.24231808E2,3.8483152E1,1.8453761599999999E2,,,,,6.1484812E1,3.6757875999999996E1,8.1266184E1,4.7149992E1,6.180998E0,6.968336E0,7.195949E0,1.0811157E1,,,,,6,7,9,23,16,19,26,30,,,,,13,15,15,14,0,8,6,1,,,
1571666370,2019-10-21 13:59:30.925,,,Acquired,Acquired,Acquired,Acquired,Not acquired,Acquired,Acquired,Acquired,,,,,2.30073536E2,1.61542544E2,6.1545939999999995E1,6.297228E1,6.415651199999999E1,2.24231808E2,3.8483152E1,1.8453761599999999E2,,,,,6.1484812E1,3.6757875999999996E1,8.1266184E1,4.7149992E1,6.180998E0,6.968336E0,7.195949E0,1.0811157E1,,,,,6,7,9,23,16,19,26,30,,,,,13,15,15,14,0,8,6,1,,,
