Time(longsecs),Time(UTC),External SOH Voltage 1(V),External SOH Voltage 2(V),External SOH Voltage 3(V),External SOH Voltage 4(V),Sensor SOH Voltage 1(V),Sensor SOH Voltage 2(V),Sensor SOH Voltage 3(V),
1571608822,2019-10-20 22:00:22.354,-2.7959347E-3,-1.06089115E-2,-3.849268E-3,-3.8564205E-3,3.7932205E-1,3.7195873E-1,3.815527E-1,
1571608882,2019-10-20 22:01:22.352,2.1054745E-3,-5.908489E-3,-7.8201294E-5,2.322197E-4,3.9024258E-1,3.870964E-1,3.9490318E-1,
1571608942,2019-10-20 22:02:22.352,-5.662441E-4,-8.356333E-3,-1.2571812E-3,-2.5157928E-3,3.8437748E-1,3.7872124E-1,3.854456E-1,
1571609002,2019-10-20 22:03:22.352,-3.631115E-4,-7.806301E-3,-1.486063E-3,-1.4078617E-3,3.8522243E-1,3.7964725E-1,3.8834667E-1,
1571609062,2019-10-20 22:04:22.352,1.3797283E-3,-6.091833E-3,1.4543533E-4,5.698204E-4,3.915224E-1,3.8910103E-1,3.9739037E-1,
1571609122,2019-10-20 22:05:22.352,-8.559227E-4,-8.5430145E-3,-2.0592213E-3,-2.5775433E-3,3.8642883E-1,3.7941933E-1,3.8851166E-1,
1571609182,2019-10-20 22:06:22.352,-5.6934357E-4,-8.648396E-3,-1.7979145E-3,-2.4118423E-3,3.8501358E-1,3.7880135E-1,3.8611794E-1,
1571609242,2019-10-20 22:07:22.352,1.4407635E-3,-5.795002E-3,7.4005127E-4,1.950264E-4,3.9118385E-1,3.890028E-1,3.9487553E-1,
1571609302,2019-10-20 22:08:22.352,-1.2896061E-3,-8.315086E-3,-1.6591549E-3,-2.501011E-3,3.843174E-1,3.8240814E-1,3.892603E-1,
1571609362,2019-10-20 22:09:22.352,-7.097721E-4,-8.408308E-3,-2.1038055E-3,-2.0310879E-3,3.838148E-1,3.7919807E-1,3.8837147E-1,
1571609422,2019-10-20 22:10:22.352,1.9025803E-3,-6.3459873E-3,5.6648254E-4,3.5190582E-4,3.9247894E-1,3.868866E-1,3.9508915E-1,
1571609482,2019-10-20 22:11:22.352,1.904726E-3,-5.881071E-3,7.638931E-4,5.791187E-4,3.9239597E-1,3.8634396E-1,3.930521E-1,
1571609542,2019-10-20 22:12:22.352,1.8761158E-3,-5.6011677E-3,2.5773048E-4,2.9492378E-4,3.9322567E-1,3.8921738E-1,3.9582253E-1,
1571609602,2019-10-20 22:13:22.352,-1.2373924E-4,-7.7102184E-3,-1.6207695E-3,-1.7900467E-3,3.8567638E-1,3.826847E-1,3.8883114E-1,
1571609662,2019-10-20 22:14:22.356,-2.772808E-3,-1.0554314E-2,-3.8626194E-3,-4.185915E-3,3.7992096E-1,3.7570763E-1,3.816862E-1,
1571609722,2019-10-20 22:15:22.352,-4.1031837E-4,-8.031845E-3,-1.4562607E-3,-1.6124249E-3,3.8572598E-1,3.790636E-1,3.877411E-1,
1571609782,2019-10-20 22:16:22.354,1.6880035E-3,-6.1740875E-3,8.075237E-4,2.9587746E-4,3.916378E-1,3.8611126E-1,3.94845E-1,
1571609842,2019-10-20 22:17:22.352,-2.6340485E-3,-1.0201931E-2,-3.642559E-3,-4.03738E-3,3.8188648E-1,3.744955E-1,3.816824E-1,
1571609902,2019-10-20 22:18:22.354,-2.8994083E-3,-1.0180235E-2,-3.5262108E-3,-4.398823E-3,3.8300228E-1,3.727827E-1,3.7978745E-1,
1571609962,2019-10-20 22:19:22.352,-3.30925E-4,-7.93767E-3,-8.378029E-4,-1.6288757E-3,3.8874626E-1,3.8135815E-1,3.880129E-1,
1571610022,2019-10-20 22:20:22.352,-2.23732E-3,-1.0168076E-2,-3.4220219E-3,-3.7305355E-3,3.7938786E-1,3.6937714E-1,3.7689304E-1,
1571610082,2019-10-20 22:21:22.352,-2.7558804E-3,-1.008296E-2,-3.6222935E-3,-4.0991306E-3,3.8277912E-1,3.727169E-1,3.7966633E-1,
1571610142,2019-10-20 22:22:22.352,-2.858162E-3,-1.0311127E-2,-3.456831E-3,-3.7295818E-3,3.772583E-1,3.745451E-1,3.8218975E-1,
1571610202,2019-10-20 22:23:22.352,-8.826256E-4,-7.999182E-3,-1.6429424E-3,-1.9886494E-3,3.8462734E-1,3.817711E-1,3.9090538E-1,
1571610262,2019-10-20 22:24:22.352,-2.2325516E-3,-9.855032E-3,-4.1766167E-3,-4.198551E-3,3.8065815E-1,3.7271023E-1,3.8132858E-1,
1571610322,2019-10-20 22:25:22.352,1.9214153E-3,-6.0141087E-3,6.670952E-4,6.914139E-5,3.945198E-1,3.8533115E-1,3.940649E-1,
1571610382,2019-10-20 22:26:22.352,1.3844967E-3,-5.9833527E-3,7.271767E-5,1.08242035E-4,3.9152145E-1,3.8637638E-1,3.9415646E-1,
1571610442,2019-10-20 22:27:22.352,1.5332699E-3,-5.9833527E-3,5.1140785E-4,4.823208E-4,3.8929462E-1,3.856144E-1,3.9492416E-1,
1571610502,2019-10-20 22:28:22.352,1.9435883E-3,-5.8045387E-3,4.8470497E-4,6.0224533E-4,3.917532E-1,3.8598537E-1,3.9463902E-1,
1571610562,2019-10-20 22:29:22.353,-2.6750565E-3,-1.011467E-2,-3.2730103E-3,-4.1399E-3,3.7923145E-1,3.7243557E-1,3.802414E-1,
1571610622,2019-10-20 22:30:22.354,-1.1563301E-4,-7.636547E-3,-1.3408661E-3,-1.912117E-3,3.8545704E-1,3.7900734E-1,3.8794327E-1,
1571610682,2019-10-20 22:31:22.352,-2.2518635E-3,-1.0113478E-2,-3.4811497E-3,-3.7219524E-3,3.8019276E-1,3.742895E-1,3.819456E-1,
1571610742,2019-10-20 22:32:22.352,-2.4569035E-3,-1.0335684E-2,-3.373146E-3,-3.866434E-3,3.8197422E-1,3.7727165E-1,3.8374805E-1,
1571610802,2019-10-20 22:33:22.352,-2.9103756E-3,-1.0339975E-2,-3.3333302E-3,-3.7641525E-3,3.78088E-1,3.7458992E-1,3.8204098E-1,
1571610862,2019-10-20 22:34:22.367,9.584427E-5,-7.90143E-3,-1.6412735E-3,-1.739502E-3,3.8431358E-1,3.8123417E-1,3.8974857E-1,
1571610922,2019-10-20 22:35:22.352,-9.7346306E-4,-8.694172E-3,-1.632452E-3,-2.243042E-3,3.881178E-1,3.8241768E-1,3.905096E-1,
1571610982,2019-10-20 22:36:22.352,-8.8500977E-4,-8.36134E-3,-2.22826E-3,-1.8413067E-3,3.8563347E-1,3.7820435E-1,3.8538742E-1,
1571611042,2019-10-20 22:37:22.352,1.8024445E-4,-7.869959E-3,-1.2025833E-3,-1.4498234E-3,3.8668537E-1,3.8079834E-1,3.8962555E-1,
1571611102,2019-10-20 22:38:22.352,-4.107952E-4,-8.430004E-3,-1.802206E-3,-2.3918152E-3,3.8398552E-1,3.7803555E-1,3.8644886E-1,
1571611162,2019-10-20 22:39:22.352,-4.491806E-4,-8.577585E-3,-1.7454624E-3,-1.8899441E-3,3.8172913E-1,3.810053E-1,3.887539E-1,
1571611222,2019-10-20 22:40:22.352,2.9730797E-4,-7.324457E-3,-6.752014E-4,-1.3744831E-3,3.903904E-1,3.8359165E-1,3.9050388E-1,
1571611282,2019-10-20 22:41:22.352,1.6391277E-3,-6.157875E-3,3.4952164E-4,2.501011E-4,3.9163113E-1,3.8691425E-1,3.929777E-1,
1571611342,2019-10-20 22:42:22.352,1.4715195E-3,-6.247759E-3,6.432533E-4,-3.6478043E-4,3.9611244E-1,3.8869667E-1,3.965969E-1,
1571611402,2019-10-20 22:43:22.352,-2.534628E-3,-1.0248184E-2,-3.7624836E-3,-4.4841766E-3,3.8121128E-1,3.741703E-1,3.8229752E-1,
1571611462,2019-10-20 22:44:22.352,-2.2161007E-3,-1.0553598E-2,-3.6449432E-3,-3.8092136E-3,3.8291645E-1,3.764372E-1,3.8534927E-1,
1571611522,2019-10-20 22:45:22.352,-6.3610077E-4,-8.551359E-3,-1.5711784E-3,-1.9071102E-3,3.8783646E-1,3.81258E-1,3.8896084E-1,
1571611582,2019-10-20 22:46:22.352,-2.646923E-3,-1.0143518E-2,-3.699541E-3,-3.9055347E-3,3.82452E-1,3.7498283E-1,3.853073E-1,
1571611642,2019-10-20 22:47:22.355,2.3531914E-4,-7.6761246E-3,-9.651184E-4,-7.3456764E-4,3.868456E-1,3.8140774E-1,3.892641E-1,
1571611702,2019-10-20 22:48:22.352,1.922369E-3,-6.515503E-3,3.6740303E-4,3.6931038E-4,3.9237118E-1,3.844595E-1,3.933382E-1,
1571611762,2019-10-20 22:49:22.352,-1.847744E-4,-7.8058243E-3,-1.3241768E-3,-1.3239384E-3,3.8458824E-1,3.803606E-1,3.8871288E-1,
1571611822,2019-10-20 22:50:22.352,-2.722025E-3,-9.970665E-3,-3.8940907E-3,-3.982067E-3,3.7798595E-1,3.7296772E-1,3.8143444E-1,
1571611882,2019-10-20 22:51:22.352,1.563549E-3,-6.440401E-3,4.8542023E-4,2.617836E-4,3.962183E-1,3.8719177E-1,3.9550304E-1,
1571611942,2019-10-20 22:52:22.352,1.7139912E-3,-5.7046413E-3,2.7489662E-4,5.245209E-4,3.9084244E-1,3.8531017E-1,3.9316177E-1,
1571612002,2019-10-20 22:53:22.352,-2.7577877E-3,-9.816647E-3,-3.3905506E-3,-4.0442944E-3,3.8102913E-1,3.7558174E-1,3.8215065E-1,
1571612062,2019-10-20 22:54:22.352,-6.1416626E-4,-8.379459E-3,-1.8899441E-3,-1.9977093E-3,3.845539E-1,3.797922E-1,3.8803005E-1,
1571612122,2019-10-20 22:55:22.352,-2.4330616E-3,-1.0145426E-2,-3.7674904E-3,-4.2307377E-3,3.848982E-1,3.7793636E-1,3.8400173E-1,
1571612182,2019-10-20 22:56:22.352,1.4994144E-3,-5.7554245E-3,1.0228157E-3,5.8054924E-4,3.9399433E-1,3.9010906E-1,3.9677334E-1,
1571612242,2019-10-20 22:57:22.352,1.8057823E-3,-6.180048E-3,8.788109E-4,8.34465E-6,3.948784E-1,3.8766003E-1,3.9577866E-1,
1571612302,2019-10-20 22:58:22.352,-2.534628E-3,-9.954691E-3,-4.101515E-3,-4.071951E-3,3.8079834E-1,3.768015E-1,3.8459396E-1,
1571612362,2019-10-20 22:59:22.352,-1.0921955E-3,-8.211851E-3,-1.8239021E-3,-2.167225E-3,3.902998E-1,3.836422E-1,3.9196587E-1,
