Time(longsecs),Time(UTC),GPS Satellite Acquisition Flag 1,GPS Satellite Acquisition Flag 2,GPS Satellite Acquisition Flag 3,GPS Satellite Acquisition Flag 4,GPS Satellite Acquisition Flag 5,GPS Satellite Acquisition Flag 6,GPS Satellite Acquisition Flag 7,GPS Satellite Acquisition Flag 8,GPS Satellite Acquisition Flag 9,GPS Satellite Acquisition Flag 10,GPS Satellite Acquisition Flag 11,GPS Satellite Acquisition Flag 12,GPS Satellite Azimuth 1(Degrees),GPS Satellite Azimuth 2(Degrees),GPS Satellite Azimuth 3(Degrees),GPS Satellite Azimuth 4(Degrees),GPS Satellite Azimuth 5(Degrees),GPS Satellite Azimuth 6(Degrees),GPS Satellite Azimuth 7(Degrees),GPS Satellite Azimuth 8(Degrees),GPS Satellite Azimuth 9(Degrees),GPS Satellite Azimuth 10(Degrees),GPS Satellite Azimuth 11(Degrees),GPS Satellite Azimuth 12(Degrees),GPS Satellite Elevation 1(Degrees),GPS Satellite Elevation 2(Degrees),GPS Satellite Elevation 3(Degrees),GPS Satellite Elevation 4(Degrees),GPS Satellite Elevation 5(Degrees),GPS Satellite Elevation 6(Degrees),GPS Satellite Elevation 7(Degrees),GPS Satellite Elevation 8(Degrees),GPS Satellite Elevation 9(Degrees),GPS Satellite Elevation 10(Degrees),GPS Satellite Elevation 11(Degrees),GPS Satellite Elevation 12(Degrees),GPS Satellite PRN 1,GPS Satellite PRN 2,GPS Satellite PRN 3,GPS Satellite PRN 4,GPS Satellite PRN 5,GPS Satellite PRN 6,GPS Satellite PRN 7,GPS Satellite PRN 8,GPS Satellite PRN 9,GPS Satellite PRN 10,GPS Satellite PRN 11,GPS Satellite PRN 12,GPS Satellite Signal Level 1(AMU),GPS Satellite Signal Level 2(AMU),GPS Satellite Signal Level 3(AMU),GPS Satellite Signal Level 4(AMU),GPS Satellite Signal Level 5(AMU),GPS Satellite Signal Level 6(AMU),GPS Satellite Signal Level 7(AMU),GPS Satellite Signal Level 8(AMU),GPS Satellite Signal Level 9(AMU),GPS Satellite Signal Level 10(AMU),GPS Satellite Signal Level 11(AMU),GPS Satellite Signal Level 12(AMU),
1571558422,2019-10-20 08:00:22.352,Acquired,Acquired,Acquired,Acquired,Search,Acquired,Acquired,Acquired,Not acquired,Not acquired,Acquired,,2.65510464E2,2.548648E2,5.8610132E1,2.83501824E2,4.9541536E1,2.1080707199999998E2,1.33287648E2,1.11177432E2,1.33164904E2,1.77138304E2,3.26133632E2,,3.2770818E1,8.3858696E1,4.4829764E1,3.854466E1,1.7541946E1,1.737145E1,5.2455864E1,2.2024244E1,9.576597999999999E0,5.740533999999999E0,1.2552086E1,,1,8,10,11,20,22,27,32,14,16,28,,9,14,4,2,0,1,15,2,1,0,2,,
1571558482,2019-10-20 08:01:22.352,Acquired,Acquired,Acquired,Acquired,Search,Acquired,Acquired,Acquired,Not acquired,Not acquired,Acquired,,2.65510464E2,2.548648E2,5.8610132E1,2.83501824E2,4.9541536E1,2.1080707199999998E2,1.33287648E2,1.11177432E2,1.33164904E2,1.77138304E2,3.26133632E2,,3.2770818E1,8.3858696E1,4.4829764E1,3.854466E1,1.7541946E1,1.737145E1,5.2455864E1,2.2024244E1,9.576597999999999E0,5.740533999999999E0,1.2552086E1,,1,8,10,11,20,22,27,32,14,16,28,,9,14,4,2,0,1,15,2,1,0,2,,
1571558542,2019-10-20 08:02:22.352,Acquired,Acquired,Acquired,Acquired,Search,Acquired,Acquired,Acquired,Not acquired,Not acquired,Acquired,,2.65510464E2,2.548648E2,5.8610132E1,2.83501824E2,4.9541536E1,2.1080707199999998E2,1.33287648E2,1.11177432E2,1.33164904E2,1.77138304E2,3.26133632E2,,3.2770818E1,8.3858696E1,4.4829764E1,3.854466E1,1.7541946E1,1.737145E1,5.2455864E1,2.2024244E1,9.576597999999999E0,5.740533999999999E0,1.2552086E1,,1,8,10,11,20,22,27,32,14,16,28,,9,14,4,2,0,1,15,2,1,0,2,,
1571558602,2019-10-20 08:03:22.352,Acquired,Acquired,Acquired,Acquired,Search,Acquired,Acquired,Acquired,Not acquired,Not acquired,Acquired,,2.65510464E2,2.548648E2,5.8610132E1,2.83501824E2,4.9541536E1,2.1080707199999998E2,1.33287648E2,1.11177432E2,1.33164904E2,1.77138304E2,3.26133632E2,,3.2770818E1,8.3858696E1,4.4829764E1,3.854466E1,1.7541946E1,1.737145E1,5.2455864E1,2.2024244E1,9.576597999999999E0,5.740533999999999E0,1.2552086E1,,1,8,10,11,20,22,27,32,14,16,28,,9,14,4,2,0,1,15,2,1,0,2,,
1571558662,2019-10-20 08:04:22.353,Acquired,Acquired,Acquired,Acquired,Search,Acquired,Acquired,Acquired,Not acquired,Not acquired,Acquired,,2.65510464E2,2.548648E2,5.8610132E1,2.83501824E2,4.9541536E1,2.1080707199999998E2,1.33287648E2,1.11177432E2,1.33164904E2,1.77138304E2,3.26133632E2,,3.2770818E1,8.3858696E1,4.4829764E1,3.854466E1,1.7541946E1,1.737145E1,5.2455864E1,2.2024244E1,9.576597999999999E0,5.740533999999999E0,1.2552086E1,,1,8,10,11,20,22,27,32,14,16,28,,9,14,4,2,0,1,15,2,1,0,2,,
1571558722,2019-10-20 08:05:22.352,Acquired,Acquired,Acquired,Acquired,Search,Acquired,Acquired,Acquired,Not acquired,Not acquired,Acquired,,2.65510464E2,2.548648E2,5.8610132E1,2.83501824E2,4.9541536E1,2.1080707199999998E2,1.33287648E2,1.11177432E2,1.33164904E2,1.77138304E2,3.26133632E2,,3.2770818E1,8.3858696E1,4.4829764E1,3.854466E1,1.7541946E1,1.737145E1,5.2455864E1,2.2024244E1,9.576597999999999E0,5.740533999999999E0,1.2552086E1,,1,8,10,11,20,22,27,32,14,16,28,,9,14,4,2,0,1,15,2,1,0,2,,
1571558782,2019-10-20 08:06:22.352,Acquired,Acquired,Acquired,Acquired,Search,Acquired,Acquired,Acquired,Not acquired,Not acquired,Acquired,,2.65510464E2,2.548648E2,5.8610132E1,2.83501824E2,4.9541536E1,2.1080707199999998E2,1.33287648E2,1.11177432E2,1.33164904E2,1.77138304E2,3.26133632E2,,3.2770818E1,8.3858696E1,4.4829764E1,3.854466E1,1.7541946E1,1.737145E1,5.2455864E1,2.2024244E1,9.576597999999999E0,5.740533999999999E0,1.2552086E1,,1,8,10,11,20,22,27,32,14,16,28,,9,14,4,2,0,1,15,2,1,0,2,,
1571558842,2019-10-20 08:07:22.390,Acquired,Acquired,Acquired,Acquired,Search,Acquired,Acquired,Acquired,Not acquired,Not acquired,Acquired,,2.65510464E2,2.548648E2,5.8610132E1,2.83501824E2,4.9541536E1,2.1080707199999998E2,1.33287648E2,1.11177432E2,1.33164904E2,1.77138304E2,3.26133632E2,,3.2770818E1,8.3858696E1,4.4829764E1,3.854466E1,1.7541946E1,1.737145E1,5.2455864E1,2.2024244E1,9.576597999999999E0,5.740533999999999E0,1.2552086E1,,1,8,10,11,20,22,27,32,14,16,28,,9,14,4,2,0,1,15,2,1,0,2,,
1571558902,2019-10-20 08:08:22.352,Acquired,Acquired,Acquired,Acquired,Search,Acquired,Acquired,Acquired,Not acquired,Not acquired,Acquired,,2.65510464E2,2.548648E2,5.8610132E1,2.83501824E2,4.9541536E1,2.1080707199999998E2,1.33287648E2,1.11177432E2,1.33164904E2,1.77138304E2,3.26133632E2,,3.2770818E1,8.3858696E1,4.4829764E1,3.854466E1,1.7541946E1,1.737145E1,5.2455864E1,2.2024244E1,9.576597999999999E0,5.740533999999999E0,1.2552086E1,,1,8,10,11,20,22,27,32,14,16,28,,9,14,4,2,0,1,15,2,1,0,2,,
1571558962,2019-10-20 08:09:22.352,Acquired,Acquired,Acquired,Acquired,Search,Acquired,Acquired,Acquired,Not acquired,Not acquired,Acquired,,2.65510464E2,2.548648E2,5.8610132E1,2.83501824E2,4.9541536E1,2.1080707199999998E2,1.33287648E2,1.11177432E2,1.33164904E2,1.77138304E2,3.26133632E2,,3.2770818E1,8.3858696E1,4.4829764E1,3.854466E1,1.7541946E1,1.737145E1,5.2455864E1,2.2024244E1,9.576597999999999E0,5.740533999999999E0,1.2552086E1,,1,8,10,11,20,22,27,32,14,16,28,,9,14,4,2,0,1,15,2,1,0,2,,
1571559022,2019-10-20 08:10:22.352,Acquired,Acquired,Acquired,Acquired,Search,Acquired,Acquired,Acquired,Not acquired,Not acquired,Acquired,,2.65510464E2,2.548648E2,5.8610132E1,2.83501824E2,4.9541536E1,2.1080707199999998E2,1.33287648E2,1.11177432E2,1.33164904E2,1.77138304E2,3.26133632E2,,3.2770818E1,8.3858696E1,4.4829764E1,3.854466E1,1.7541946E1,1.737145E1,5.2455864E1,2.2024244E1,9.576597999999999E0,5.740533999999999E0,1.2552086E1,,1,8,10,11,20,22,27,32,14,16,28,,9,14,4,2,0,1,15,2,1,0,2,,
1571559082,2019-10-20 08:11:22.354,Acquired,Acquired,Acquired,Acquired,Search,Acquired,Acquired,Acquired,Not acquired,Not acquired,Acquired,,2.65510464E2,2.548648E2,5.8610132E1,2.83501824E2,4.9541536E1,2.1080707199999998E2,1.33287648E2,1.11177432E2,1.33164904E2,1.77138304E2,3.26133632E2,,3.2770818E1,8.3858696E1,4.4829764E1,3.854466E1,1.7541946E1,1.737145E1,5.2455864E1,2.2024244E1,9.576597999999999E0,5.740533999999999E0,1.2552086E1,,1,8,10,11,20,22,27,32,14,16,28,,9,14,4,2,0,1,15,2,1,0,2,,
1571559142,2019-10-20 08:12:22.352,Acquired,Acquired,Acquired,Acquired,Search,Acquired,Acquired,Acquired,Not acquired,Not acquired,Acquired,,2.65510464E2,2.548648E2,5.8610132E1,2.83501824E2,4.9541536E1,2.1080707199999998E2,1.33287648E2,1.11177432E2,1.33164904E2,1.77138304E2,3.26133632E2,,3.2770818E1,8.3858696E1,4.4829764E1,3.854466E1,1.7541946E1,1.737145E1,5.2455864E1,2.2024244E1,9.576597999999999E0,5.740533999999999E0,1.2552086E1,,1,8,10,11,20,22,27,32,14,16,28,,9,14,4,2,0,1,15,2,1,0,2,,
1571559202,2019-10-20 08:13:22.352,Acquired,Acquired,Acquired,Acquired,Search,Acquired,Acquired,Acquired,Not acquired,Not acquired,Acquired,,2.65510464E2,2.548648E2,5.8610132E1,2.83501824E2,4.9541536E1,2.1080707199999998E2,1.33287648E2,1.11177432E2,1.33164904E2,1.77138304E2,3.26133632E2,,3.2770818E1,8.3858696E1,4.4829764E1,3.854466E1,1.7541946E1,1.737145E1,5.2455864E1,2.2024244E1,9.576597999999999E0,5.740533999999999E0,1.2552086E1,,1,8,10,11,20,22,27,32,14,16,28,,9,14,4,2,0,1,15,2,1,0,2,,
1571559262,2019-10-20 08:14:22.352,Acquired,Acquired,Acquired,Acquired,Search,Acquired,Acquired,Acquired,Not acquired,Not acquired,Acquired,,2.65510464E2,2.548648E2,5.8610132E1,2.83501824E2,4.9541536E1,2.1080707199999998E2,1.33287648E2,1.11177432E2,1.33164904E2,1.77138304E2,3.26133632E2,,3.2770818E1,8.3858696E1,4.4829764E1,3.854466E1,1.7541946E1,1.737145E1,5.2455864E1,2.2024244E1,9.576597999999999E0,5.740533999999999E0,1.2552086E1,,1,8,10,11,20,22,27,32,14,16,28,,9,14,4,2,0,1,15,2,1,0,2,,
1571559322,2019-10-20 08:15:22.352,Acquired,Acquired,Acquired,Acquired,Search,Acquired,Acquired,Acquired,Not acquired,Not acquired,Acquired,,2.65510464E2,2.548648E2,5.8610132E1,2.83501824E2,4.9541536E1,2.1080707199999998E2,1.33287648E2,1.11177432E2,1.33164904E2,1.77138304E2,3.26133632E2,,3.2770818E1,8.3858696E1,4.4829764E1,3.854466E1,1.7541946E1,1.737145E1,5.2455864E1,2.2024244E1,9.576597999999999E0,5.740533999999999E0,1.2552086E1,,1,8,10,11,20,22,27,32,14,16,28,,9,14,4,2,0,1,15,2,1,0,2,,
1571559382,2019-10-20 08:16:22.352,Acquired,Acquired,Acquired,Acquired,Search,Acquired,Acquired,Acquired,Not acquired,Not acquired,Acquired,,2.65510464E2,2.548648E2,5.8610132E1,2.83501824E2,4.9541536E1,2.1080707199999998E2,1.33287648E2,1.11177432E2,1.33164904E2,1.77138304E2,3.26133632E2,,3.2770818E1,8.3858696E1,4.4829764E1,3.854466E1,1.7541946E1,1.737145E1,5.2455864E1,2.2024244E1,9.576597999999999E0,5.740533999999999E0,1.2552086E1,,1,8,10,11,20,22,27,32,14,16,28,,9,14,4,2,0,1,15,2,1,0,2,,
1571559442,2019-10-20 08:17:22.352,Acquired,Acquired,Acquired,Acquired,Search,Acquired,Acquired,Acquired,Not acquired,Not acquired,Acquired,,2.65510464E2,2.548648E2,5.8610132E1,2.83501824E2,4.9541536E1,2.1080707199999998E2,1.33287648E2,1.11177432E2,1.33164904E2,1.77138304E2,3.26133632E2,,3.2770818E1,8.3858696E1,4.4829764E1,3.854466E1,1.7541946E1,1.737145E1,5.2455864E1,2.2024244E1,9.576597999999999E0,5.740533999999999E0,1.2552086E1,,1,8,10,11,20,22,27,32,14,16,28,,9,14,4,2,0,1,15,2,1,0,2,,
1571559502,2019-10-20 08:18:22.356,Acquired,Acquired,Acquired,Acquired,Search,Acquired,Acquired,Acquired,Not acquired,Not acquired,Acquired,,2.65510464E2,2.548648E2,5.8610132E1,2.83501824E2,4.9541536E1,2.1080707199999998E2,1.33287648E2,1.11177432E2,1.33164904E2,1.77138304E2,3.26133632E2,,3.2770818E1,8.3858696E1,4.4829764E1,3.854466E1,1.7541946E1,1.737145E1,5.2455864E1,2.2024244E1,9.576597999999999E0,5.740533999999999E0,1.2552086E1,,1,8,10,11,20,22,27,32,14,16,28,,9,14,4,2,0,1,15,2,1,0,2,,
1571559562,2019-10-20 08:19:22.352,Acquired,Acquired,Acquired,Acquired,Search,Acquired,Acquired,Acquired,Not acquired,Not acquired,Acquired,,2.65510464E2,2.548648E2,5.8610132E1,2.83501824E2,4.9541536E1,2.1080707199999998E2,1.33287648E2,1.11177432E2,1.33164904E2,1.77138304E2,3.26133632E2,,3.2770818E1,8.3858696E1,4.4829764E1,3.854466E1,1.7541946E1,1.737145E1,5.2455864E1,2.2024244E1,9.576597999999999E0,5.740533999999999E0,1.2552086E1,,1,8,10,11,20,22,27,32,14,16,28,,9,14,4,2,0,1,15,2,1,0,2,,
1571559622,2019-10-20 08:20:22.352,Acquired,Acquired,Acquired,Acquired,Search,Acquired,Acquired,Acquired,Not acquired,Not acquired,Acquired,,2.65510464E2,2.548648E2,5.8610132E1,2.83501824E2,4.9541536E1,2.1080707199999998E2,1.33287648E2,1.11177432E2,1.33164904E2,1.77138304E2,3.26133632E2,,3.2770818E1,8.3858696E1,4.4829764E1,3.854466E1,1.7541946E1,1.737145E1,5.2455864E1,2.2024244E1,9.576597999999999E0,5.740533999999999E0,1.2552086E1,,1,8,10,11,20,22,27,32,14,16,28,,9,14,4,2,0,1,15,2,1,0,2,,
1571559682,2019-10-20 08:21:22.352,Acquired,Acquired,Acquired,Acquired,Search,Acquired,Acquired,Acquired,Not acquired,Not acquired,Acquired,,2.65510464E2,2.548648E2,5.8610132E1,2.83501824E2,4.9541536E1,2.1080707199999998E2,1.33287648E2,1.11177432E2,1.33164904E2,1.77138304E2,3.26133632E2,,3.2770818E1,8.3858696E1,4.4829764E1,3.854466E1,1.7541946E1,1.737145E1,5.2455864E1,2.2024244E1,9.576597999999999E0,5.740533999999999E0,1.2552086E1,,1,8,10,11,20,22,27,32,14,16,28,,9,14,4,2,0,1,15,2,1,0,2,,
1571559742,2019-10-20 08:22:22.352,Acquired,Acquired,Acquired,Acquired,Search,Acquired,Acquired,Acquired,Not acquired,Not acquired,Acquired,,2.65510464E2,2.548648E2,5.8610132E1,2.83501824E2,4.9541536E1,2.1080707199999998E2,1.33287648E2,1.11177432E2,1.33164904E2,1.77138304E2,3.26133632E2,,3.2770818E1,8.3858696E1,4.4829764E1,3.854466E1,1.7541946E1,1.737145E1,5.2455864E1,2.2024244E1,9.576597999999999E0,5.740533999999999E0,1.2552086E1,,1,8,10,11,20,22,27,32,14,16,28,,9,14,4,2,0,1,15,2,1,0,2,,
1571559802,2019-10-20 08:23:22.352,Acquired,Acquired,Acquired,Acquired,Search,Acquired,Acquired,Acquired,Not acquired,Not acquired,Acquired,,2.65510464E2,2.548648E2,5.8610132E1,2.83501824E2,4.9541536E1,2.1080707199999998E2,1.33287648E2,1.11177432E2,1.33164904E2,1.77138304E2,3.26133632E2,,3.2770818E1,8.3858696E1,4.4829764E1,3.854466E1,1.7541946E1,1.737145E1,5.2455864E1,2.2024244E1,9.576597999999999E0,5.740533999999999E0,1.2552086E1,,1,8,10,11,20,22,27,32,14,16,28,,9,14,4,2,0,1,15,2,1,0,2,,
1571559862,2019-10-20 08:24:22.358,,Acquired,Acquired,Acquired,Search,Acquired,Acquired,Acquired,Search,Not acquired,Not acquired,,,2.505736E2,5.8288376E1,2.83695616E2,4.9511292E1,2.10905856E2,1.33564504E2,1.1082118399999999E2,1.32915096E2,1.77088832E2,3.25938624E2,,,8.4021288E1,4.4466055999999995E1,3.8954823999999995E1,1.7153074E1,1.7799198E1,5.1995208E1,2.2329373999999998E1,9.929344E0,5.338303E0,1.286319E1,,,8,10,11,20,22,27,32,14,16,28,,,13,6,4,0,3,15,2,0,0,1,,
1571559922,2019-10-20 08:25:22.353,Acquired,Acquired,Acquired,Acquired,Acquired,Not acquired,Acquired,Acquired,Acquired,Acquired,,,2.8202783999999997E2,2.1805447999999998E2,1.6662063999999998E2,5.115862E1,2.9073648E2,1.1921919199999999E2,2.16928416E2,1.44030032E2,3.1220831999999996E2,9.0234528E1,,,5.2119319999999995E1,1.6461951E1,6.6966876E1,2.5865116E1,5.9467423999999994E1,2.6490645999999998E1,3.8737787999999995E1,3.0605953999999997E1,2.4855102E1,3.3712295999999995E1,,,1,3,8,10,11,14,22,27,28,32,,,5,5,15,3,6,0,15,10,1,2,,,
1571559982,2019-10-20 08:26:22.352,Acquired,Acquired,Acquired,,Acquired,Not acquired,Acquired,Acquired,Acquired,Acquired,,,2.8242752E2,2.18211152E2,1.66464272E2,,2.90810048E2,1.1886126399999999E2,2.17087728E2,1.44212448E2,3.1182694399999997E2,8.9724368E1,,,5.2542404E1,1.6894332E1,6.6457968E1,,5.9937287999999995E1,2.6828885999999997E1,3.9207484E1,3.0151221999999997E1,2.5031126E1,3.3860492E1,,,1,3,8,,11,14,22,27,28,32,,,8,6,15,,7,1,15,10,2,6,,,
1571560042,2019-10-20 08:27:22.352,Acquired,Acquired,Acquired,,Acquired,Not acquired,Acquired,Acquired,Acquired,Acquired,,,2.8242752E2,2.18211152E2,1.66464272E2,,2.90810048E2,1.1886126399999999E2,2.17087728E2,1.44212448E2,3.1182694399999997E2,8.9724368E1,,,5.2542404E1,1.6894332E1,6.6457968E1,,5.9937287999999995E1,2.6828885999999997E1,3.9207484E1,3.0151221999999997E1,2.5031126E1,3.3860492E1,,,1,3,8,,11,14,22,27,28,32,,,8,6,15,,7,1,15,10,2,6,,,
1571560102,2019-10-20 08:28:22.352,Acquired,Acquired,Acquired,,Acquired,Not acquired,Acquired,Acquired,Acquired,Acquired,,,2.8242752E2,2.18211152E2,1.66464272E2,,2.90810048E2,1.1886126399999999E2,2.17087728E2,1.44212448E2,3.1182694399999997E2,8.9724368E1,,,5.2542404E1,1.6894332E1,6.6457968E1,,5.9937287999999995E1,2.6828885999999997E1,3.9207484E1,3.0151221999999997E1,2.5031126E1,3.3860492E1,,,1,3,8,,11,14,22,27,28,32,,,8,6,15,,7,1,15,10,2,6,,,
1571560162,2019-10-20 08:29:22.354,Acquired,Acquired,Acquired,,Acquired,Not acquired,Acquired,Acquired,Acquired,Acquired,,,2.8242752E2,2.18211152E2,1.66464272E2,,2.90810048E2,1.1886126399999999E2,2.17087728E2,1.44212448E2,3.1182694399999997E2,8.9724368E1,,,5.2542404E1,1.6894332E1,6.6457968E1,,5.9937287999999995E1,2.6828885999999997E1,3.9207484E1,3.0151221999999997E1,2.5031126E1,3.3860492E1,,,1,3,8,,11,14,22,27,28,32,,,8,6,15,,7,1,15,10,2,6,,,
1571560222,2019-10-20 08:30:22.352,Acquired,Acquired,Acquired,,Acquired,Not acquired,Acquired,Acquired,Acquired,Acquired,,,2.8242752E2,2.18211152E2,1.66464272E2,,2.90810048E2,1.1886126399999999E2,2.17087728E2,1.44212448E2,3.1182694399999997E2,8.9724368E1,,,5.2542404E1,1.6894332E1,6.6457968E1,,5.9937287999999995E1,2.6828885999999997E1,3.9207484E1,3.0151221999999997E1,2.5031126E1,3.3860492E1,,,1,3,8,,11,14,22,27,28,32,,,8,6,15,,7,1,15,10,2,6,,,
1571560282,2019-10-20 08:31:22.352,Acquired,Acquired,Acquired,,Acquired,Not acquired,Acquired,Acquired,Acquired,Acquired,,,2.8242752E2,2.18211152E2,1.66464272E2,,2.90810048E2,1.1886126399999999E2,2.17087728E2,1.44212448E2,3.1182694399999997E2,8.9724368E1,,,5.2542404E1,1.6894332E1,6.6457968E1,,5.9937287999999995E1,2.6828885999999997E1,3.9207484E1,3.0151221999999997E1,2.5031126E1,3.3860492E1,,,1,3,8,,11,14,22,27,28,32,,,8,6,15,,7,1,15,10,2,6,,,
1571560342,2019-10-20 08:32:22.352,Acquired,Acquired,Acquired,,Acquired,Not acquired,Acquired,Acquired,Acquired,Acquired,,,2.8242752E2,2.18211152E2,1.66464272E2,,2.90810048E2,1.1886126399999999E2,2.17087728E2,1.44212448E2,3.1182694399999997E2,8.9724368E1,,,5.2542404E1,1.6894332E1,6.6457968E1,,5.9937287999999995E1,2.6828885999999997E1,3.9207484E1,3.0151221999999997E1,2.5031126E1,3.3860492E1,,,1,3,8,,11,14,22,27,28,32,,,8,6,15,,7,1,15,10,2,6,,,
1571560402,2019-10-20 08:33:22.352,Acquired,Acquired,Acquired,,Acquired,Not acquired,Acquired,Acquired,Acquired,Acquired,,,2.8242752E2,2.18211152E2,1.66464272E2,,2.90810048E2,1.1886126399999999E2,2.17087728E2,1.44212448E2,3.1182694399999997E2,8.9724368E1,,,5.2542404E1,1.6894332E1,6.6457968E1,,5.9937287999999995E1,2.6828885999999997E1,3.9207484E1,3.0151221999999997E1,2.5031126E1,3.3860492E1,,,1,3,8,,11,14,22,27,28,32,,,8,6,15,,7,1,15,10,2,6,,,
1571560462,2019-10-20 08:34:22.352,Acquired,Acquired,Acquired,,Acquired,Not acquired,Acquired,Acquired,Acquired,Acquired,,,2.8242752E2,2.18211152E2,1.66464272E2,,2.90810048E2,1.1886126399999999E2,2.17087728E2,1.44212448E2,3.1182694399999997E2,8.9724368E1,,,5.2542404E1,1.6894332E1,6.6457968E1,,5.9937287999999995E1,2.6828885999999997E1,3.9207484E1,3.0151221999999997E1,2.5031126E1,3.3860492E1,,,1,3,8,,11,14,22,27,28,32,,,8,6,15,,7,1,15,10,2,6,,,
1571560522,2019-10-20 08:35:22.352,Acquired,Acquired,Acquired,,Acquired,Not acquired,Acquired,Acquired,Acquired,Acquired,,,2.8242752E2,2.18211152E2,1.66464272E2,,2.90810048E2,1.1886126399999999E2,2.17087728E2,1.44212448E2,3.1182694399999997E2,8.9724368E1,,,5.2542404E1,1.6894332E1,6.6457968E1,,5.9937287999999995E1,2.6828885999999997E1,3.9207484E1,3.0151221999999997E1,2.5031126E1,3.3860492E1,,,1,3,8,,11,14,22,27,28,32,,,8,6,15,,7,1,15,10,2,6,,,
1571560582,2019-10-20 08:36:22.352,Acquired,Acquired,Acquired,,Acquired,Not acquired,Acquired,Acquired,Acquired,Acquired,,,2.8242752E2,2.18211152E2,1.66464272E2,,2.90810048E2,1.1886126399999999E2,2.17087728E2,1.44212448E2,3.1182694399999997E2,8.9724368E1,,,5.2542404E1,1.6894332E1,6.6457968E1,,5.9937287999999995E1,2.6828885999999997E1,3.9207484E1,3.0151221999999997E1,2.5031126E1,3.3860492E1,,,1,3,8,,11,14,22,27,28,32,,,8,6,15,,7,1,15,10,2,6,,,
1571560642,2019-10-20 08:37:22.352,Acquired,Acquired,Acquired,,Acquired,Not acquired,Acquired,Acquired,Acquired,Acquired,,,2.8242752E2,2.18211152E2,1.66464272E2,,2.90810048E2,1.1886126399999999E2,2.17087728E2,1.44212448E2,3.1182694399999997E2,8.9724368E1,,,5.2542404E1,1.6894332E1,6.6457968E1,,5.9937287999999995E1,2.6828885999999997E1,3.9207484E1,3.0151221999999997E1,2.5031126E1,3.3860492E1,,,1,3,8,,11,14,22,27,28,32,,,8,6,15,,7,1,15,10,2,6,,,
1571560702,2019-10-20 08:38:22.352,Acquired,Acquired,Acquired,,Acquired,Not acquired,Acquired,Acquired,Acquired,Acquired,,,2.8242752E2,2.18211152E2,1.66464272E2,,2.90810048E2,1.1886126399999999E2,2.17087728E2,1.44212448E2,3.1182694399999997E2,8.9724368E1,,,5.2542404E1,1.6894332E1,6.6457968E1,,5.9937287999999995E1,2.6828885999999997E1,3.9207484E1,3.0151221999999997E1,2.5031126E1,3.3860492E1,,,1,3,8,,11,14,22,27,28,32,,,8,6,15,,7,1,15,10,2,6,,,
1571560762,2019-10-20 08:39:22.355,Acquired,Acquired,Acquired,,Acquired,Not acquired,Acquired,Acquired,Acquired,Acquired,,,2.8242752E2,2.18211152E2,1.66464272E2,,2.90810048E2,1.1886126399999999E2,2.17087728E2,1.44212448E2,3.1182694399999997E2,8.9724368E1,,,5.2542404E1,1.6894332E1,6.6457968E1,,5.9937287999999995E1,2.6828885999999997E1,3.9207484E1,3.0151221999999997E1,2.5031126E1,3.3860492E1,,,1,3,8,,11,14,22,27,28,32,,,8,6,15,,7,1,15,10,2,6,,,
1571560822,2019-10-20 08:40:22.352,Acquired,Acquired,Acquired,,Acquired,Not acquired,Acquired,Acquired,Acquired,Acquired,,,2.8242752E2,2.18211152E2,1.66464272E2,,2.90810048E2,1.1886126399999999E2,2.17087728E2,1.44212448E2,3.1182694399999997E2,8.9724368E1,,,5.2542404E1,1.6894332E1,6.6457968E1,,5.9937287999999995E1,2.6828885999999997E1,3.9207484E1,3.0151221999999997E1,2.5031126E1,3.3860492E1,,,1,3,8,,11,14,22,27,28,32,,,8,6,15,,7,1,15,10,2,6,,,
1571560882,2019-10-20 08:41:22.352,Acquired,Acquired,Acquired,,Acquired,Not acquired,Acquired,Acquired,Acquired,Acquired,,,2.8242752E2,2.18211152E2,1.66464272E2,,2.90810048E2,1.1886126399999999E2,2.17087728E2,1.44212448E2,3.1182694399999997E2,8.9724368E1,,,5.2542404E1,1.6894332E1,6.6457968E1,,5.9937287999999995E1,2.6828885999999997E1,3.9207484E1,3.0151221999999997E1,2.5031126E1,3.3860492E1,,,1,3,8,,11,14,22,27,28,32,,,8,6,15,,7,1,15,10,2,6,,,
1571560942,2019-10-20 08:42:22.356,Acquired,Acquired,Acquired,,Acquired,Not acquired,Acquired,Acquired,Acquired,Acquired,,,2.8242752E2,2.18211152E2,1.66464272E2,,2.90810048E2,1.1886126399999999E2,2.17087728E2,1.44212448E2,3.1182694399999997E2,8.9724368E1,,,5.2542404E1,1.6894332E1,6.6457968E1,,5.9937287999999995E1,2.6828885999999997E1,3.9207484E1,3.0151221999999997E1,2.5031126E1,3.3860492E1,,,1,3,8,,11,14,22,27,28,32,,,8,6,15,,7,1,15,10,2,6,,,
1571561002,2019-10-20 08:43:22.352,Acquired,Acquired,Acquired,,Acquired,Not acquired,Acquired,Acquired,Acquired,Acquired,,,2.8242752E2,2.18211152E2,1.66464272E2,,2.90810048E2,1.1886126399999999E2,2.17087728E2,1.44212448E2,3.1182694399999997E2,8.9724368E1,,,5.2542404E1,1.6894332E1,6.6457968E1,,5.9937287999999995E1,2.6828885999999997E1,3.9207484E1,3.0151221999999997E1,2.5031126E1,3.3860492E1,,,1,3,8,,11,14,22,27,28,32,,,8,6,15,,7,1,15,10,2,6,,,
1571561062,2019-10-20 08:44:22.352,Acquired,Acquired,Acquired,,Acquired,Not acquired,Acquired,Acquired,Acquired,Acquired,,,2.8242752E2,2.18211152E2,1.66464272E2,,2.90810048E2,1.1886126399999999E2,2.17087728E2,1.44212448E2,3.1182694399999997E2,8.9724368E1,,,5.2542404E1,1.6894332E1,6.6457968E1,,5.9937287999999995E1,2.6828885999999997E1,3.9207484E1,3.0151221999999997E1,2.5031126E1,3.3860492E1,,,1,3,8,,11,14,22,27,28,32,,,8,6,15,,7,1,15,10,2,6,,,
1571561122,2019-10-20 08:45:22.352,Acquired,Acquired,Acquired,,Acquired,Not acquired,Acquired,Acquired,Acquired,Acquired,,,2.8242752E2,2.18211152E2,1.66464272E2,,2.90810048E2,1.1886126399999999E2,2.17087728E2,1.44212448E2,3.1182694399999997E2,8.9724368E1,,,5.2542404E1,1.6894332E1,6.6457968E1,,5.9937287999999995E1,2.6828885999999997E1,3.9207484E1,3.0151221999999997E1,2.5031126E1,3.3860492E1,,,1,3,8,,11,14,22,27,28,32,,,8,6,15,,7,1,15,10,2,6,,,
1571561182,2019-10-20 08:46:22.352,Acquired,Acquired,Acquired,,Acquired,Not acquired,Acquired,Acquired,Acquired,Acquired,,,2.8242752E2,2.18211152E2,1.66464272E2,,2.90810048E2,1.1886126399999999E2,2.17087728E2,1.44212448E2,3.1182694399999997E2,8.9724368E1,,,5.2542404E1,1.6894332E1,6.6457968E1,,5.9937287999999995E1,2.6828885999999997E1,3.9207484E1,3.0151221999999997E1,2.5031126E1,3.3860492E1,,,1,3,8,,11,14,22,27,28,32,,,8,6,15,,7,1,15,10,2,6,,,
1571561242,2019-10-20 08:47:22.352,Acquired,Acquired,Acquired,,Acquired,Not acquired,Acquired,Acquired,Acquired,Acquired,,,2.8242752E2,2.18211152E2,1.66464272E2,,2.90810048E2,1.1886126399999999E2,2.17087728E2,1.44212448E2,3.1182694399999997E2,8.9724368E1,,,5.2542404E1,1.6894332E1,6.6457968E1,,5.9937287999999995E1,2.6828885999999997E1,3.9207484E1,3.0151221999999997E1,2.5031126E1,3.3860492E1,,,1,3,8,,11,14,22,27,28,32,,,8,6,15,,7,1,15,10,2,6,,,
1571561302,2019-10-20 08:48:22.353,Acquired,Acquired,Acquired,,Acquired,Not acquired,Acquired,Acquired,Acquired,Acquired,,,2.8242752E2,2.18211152E2,1.66464272E2,,2.90810048E2,1.1886126399999999E2,2.17087728E2,1.44212448E2,3.1182694399999997E2,8.9724368E1,,,5.2542404E1,1.6894332E1,6.6457968E1,,5.9937287999999995E1,2.6828885999999997E1,3.9207484E1,3.0151221999999997E1,2.5031126E1,3.3860492E1,,,1,3,8,,11,14,22,27,28,32,,,8,6,15,,7,1,15,10,2,6,,,
1571561362,2019-10-20 08:49:22.352,Acquired,Acquired,Acquired,,Acquired,Not acquired,Acquired,Acquired,Acquired,Acquired,,,2.8242752E2,2.18211152E2,1.66464272E2,,2.90810048E2,1.1886126399999999E2,2.17087728E2,1.44212448E2,3.1182694399999997E2,8.9724368E1,,,5.2542404E1,1.6894332E1,6.6457968E1,,5.9937287999999995E1,2.6828885999999997E1,3.9207484E1,3.0151221999999997E1,2.5031126E1,3.3860492E1,,,1,3,8,,11,14,22,27,28,32,,,8,6,15,,7,1,15,10,2,6,,,
1571561422,2019-10-20 08:50:22.352,Acquired,Acquired,Acquired,,Acquired,Not acquired,Acquired,Acquired,Acquired,Acquired,,,2.8242752E2,2.18211152E2,1.66464272E2,,2.90810048E2,1.1886126399999999E2,2.17087728E2,1.44212448E2,3.1182694399999997E2,8.9724368E1,,,5.2542404E1,1.6894332E1,6.6457968E1,,5.9937287999999995E1,2.6828885999999997E1,3.9207484E1,3.0151221999999997E1,2.5031126E1,3.3860492E1,,,1,3,8,,11,14,22,27,28,32,,,8,6,15,,7,1,15,10,2,6,,,
1571561482,2019-10-20 08:51:22.352,Acquired,Acquired,Acquired,,Acquired,Not acquired,Acquired,Acquired,Acquired,Acquired,,,2.8242752E2,2.18211152E2,1.66464272E2,,2.90810048E2,1.1886126399999999E2,2.17087728E2,1.44212448E2,3.1182694399999997E2,8.9724368E1,,,5.2542404E1,1.6894332E1,6.6457968E1,,5.9937287999999995E1,2.6828885999999997E1,3.9207484E1,3.0151221999999997E1,2.5031126E1,3.3860492E1,,,1,3,8,,11,14,22,27,28,32,,,8,6,15,,7,1,15,10,2,6,,,
1571561542,2019-10-20 08:52:22.352,Acquired,Acquired,Acquired,,Acquired,Not acquired,Acquired,Acquired,Acquired,Acquired,,,2.8242752E2,2.18211152E2,1.66464272E2,,2.90810048E2,1.1886126399999999E2,2.17087728E2,1.44212448E2,3.1182694399999997E2,8.9724368E1,,,5.2542404E1,1.6894332E1,6.6457968E1,,5.9937287999999995E1,2.6828885999999997E1,3.9207484E1,3.0151221999999997E1,2.5031126E1,3.3860492E1,,,1,3,8,,11,14,22,27,28,32,,,8,6,15,,7,1,15,10,2,6,,,
1571561602,2019-10-20 08:53:22.352,Acquired,Acquired,Acquired,,Acquired,Not acquired,Acquired,Acquired,Acquired,Acquired,,,2.8242752E2,2.18211152E2,1.66464272E2,,2.90810048E2,1.1886126399999999E2,2.17087728E2,1.44212448E2,3.1182694399999997E2,8.9724368E1,,,5.2542404E1,1.6894332E1,6.6457968E1,,5.9937287999999995E1,2.6828885999999997E1,3.9207484E1,3.0151221999999997E1,2.5031126E1,3.3860492E1,,,1,3,8,,11,14,22,27,28,32,,,8,6,15,,7,1,15,10,2,6,,,
1571561662,2019-10-20 08:54:22.352,Acquired,Acquired,Acquired,,Acquired,Not acquired,Acquired,Acquired,Acquired,Acquired,,,2.8242752E2,2.18211152E2,1.66464272E2,,2.90810048E2,1.1886126399999999E2,2.17087728E2,1.44212448E2,3.1182694399999997E2,8.9724368E1,,,5.2542404E1,1.6894332E1,6.6457968E1,,5.9937287999999995E1,2.6828885999999997E1,3.9207484E1,3.0151221999999997E1,2.5031126E1,3.3860492E1,,,1,3,8,,11,14,22,27,28,32,,,8,6,15,,7,1,15,10,2,6,,,
1571561722,2019-10-20 08:55:22.352,Acquired,Acquired,Acquired,,Acquired,Not acquired,Acquired,Acquired,Acquired,Acquired,,,2.8242752E2,2.18211152E2,1.66464272E2,,2.90810048E2,1.1886126399999999E2,2.17087728E2,1.44212448E2,3.1182694399999997E2,8.9724368E1,,,5.2542404E1,1.6894332E1,6.6457968E1,,5.9937287999999995E1,2.6828885999999997E1,3.9207484E1,3.0151221999999997E1,2.5031126E1,3.3860492E1,,,1,3,8,,11,14,22,27,28,32,,,8,6,15,,7,1,15,10,2,6,,,
1571561782,2019-10-20 08:56:22.352,Acquired,Acquired,Acquired,,Acquired,Not acquired,Acquired,Acquired,Acquired,Acquired,,,2.8242752E2,2.18211152E2,1.66464272E2,,2.90810048E2,1.1886126399999999E2,2.17087728E2,1.44212448E2,3.1182694399999997E2,8.9724368E1,,,5.2542404E1,1.6894332E1,6.6457968E1,,5.9937287999999995E1,2.6828885999999997E1,3.9207484E1,3.0151221999999997E1,2.5031126E1,3.3860492E1,,,1,3,8,,11,14,22,27,28,32,,,8,6,15,,7,1,15,10,2,6,,,
1571561842,2019-10-20 08:57:22.352,Acquired,Acquired,Acquired,,Acquired,Not acquired,Acquired,Acquired,Acquired,Acquired,,,2.8242752E2,2.18211152E2,1.66464272E2,,2.90810048E2,1.1886126399999999E2,2.17087728E2,1.44212448E2,3.1182694399999997E2,8.9724368E1,,,5.2542404E1,1.6894332E1,6.6457968E1,,5.9937287999999995E1,2.6828885999999997E1,3.9207484E1,3.0151221999999997E1,2.5031126E1,3.3860492E1,,,1,3,8,,11,14,22,27,28,32,,,8,6,15,,7,1,15,10,2,6,,,
1571561902,2019-10-20 08:58:22.352,Acquired,Acquired,Acquired,,Acquired,Not acquired,Acquired,Acquired,Acquired,Acquired,,,2.8242752E2,2.18211152E2,1.66464272E2,,2.90810048E2,1.1886126399999999E2,2.17087728E2,1.44212448E2,3.1182694399999997E2,8.9724368E1,,,5.2542404E1,1.6894332E1,6.6457968E1,,5.9937287999999995E1,2.6828885999999997E1,3.9207484E1,3.0151221999999997E1,2.5031126E1,3.3860492E1,,,1,3,8,,11,14,22,27,28,32,,,8,6,15,,7,1,15,10,2,6,,,
1571561962,2019-10-20 08:59:22.390,Acquired,Acquired,Acquired,,Acquired,Not acquired,Acquired,Acquired,Acquired,Acquired,,,2.8242752E2,2.18211152E2,1.66464272E2,,2.90810048E2,1.1886126399999999E2,2.17087728E2,1.44212448E2,3.1182694399999997E2,8.9724368E1,,,5.2542404E1,1.6894332E1,6.6457968E1,,5.9937287999999995E1,2.6828885999999997E1,3.9207484E1,3.0151221999999997E1,2.5031126E1,3.3860492E1,,,1,3,8,,11,14,22,27,28,32,,,8,6,15,,7,1,15,10,2,6,,,
