Time(longsecs),Time(UTC),External SOH Voltage 1(V),External SOH Voltage 2(V),External SOH Voltage 3(V),External SOH Voltage 4(V),Sensor SOH Voltage 1(V),Sensor SOH Voltage 2(V),Sensor SOH Voltage 3(V),
1570888811,2019-10-12 14:00:11.805,-6.2332153E-3,-1.019001E-3,-5.0578117E-3,1.1940002E-3,1.9083023E-1,1.8844318E-1,1.9002914E-1,
1570888871,2019-10-12 14:01:11.768,-4.5113564E-3,2.5844574E-4,-2.4650097E-3,2.4664402E-3,1.9546032E-1,1.9830704E-1,1.9460869E-1,
1570888931,2019-10-12 14:02:11.767,-6.353855E-3,-1.3902187E-3,-4.5876503E-3,9.06229E-4,1.8717766E-1,1.8930244E-1,1.979065E-1,
1570888991,2019-10-12 14:03:11.794,-4.6412945E-3,2.708435E-4,-2.8824806E-3,3.196478E-3,1.9709206E-1,1.9900131E-1,1.9489098E-1,
1570889051,2019-10-12 14:04:11.767,-4.2066574E-3,5.431175E-4,-2.8715134E-3,2.972126E-3,1.9314384E-1,1.950283E-1,1.9352531E-1,
1570889111,2019-10-12 14:05:11.767,-4.753351E-3,5.49078E-4,-2.7210712E-3,2.9103756E-3,1.924572E-1,1.945982E-1,1.9946289E-1,
1570889171,2019-10-12 14:06:11.767,-6.366968E-3,-1.5826225E-3,-4.204273E-3,1.2865067E-3,1.9268894E-1,1.9469643E-1,1.8947029E-1,
1570889231,2019-10-12 14:07:11.767,-6.2100887E-3,-1.3301373E-3,-4.4412613E-3,8.559227E-4,1.8999004E-1,1.9400692E-1,1.9722748E-1,
1570889291,2019-10-12 14:08:11.769,-2.2108555E-3,3.0915737E-3,-1.9979477E-4,5.5384636E-3,2.005148E-1,2.0170593E-1,2.0076466E-1,
1570889351,2019-10-12 14:09:11.767,-6.4911842E-3,-1.3875961E-3,-4.2033195E-3,1.2197495E-3,1.8603611E-1,1.8940449E-1,1.8364048E-1,
1570889411,2019-10-12 14:10:11.767,-6.011486E-3,-1.4214516E-3,-4.3118E-3,9.422302E-4,1.8494415E-1,1.9332504E-1,1.8911839E-1,
1570889471,2019-10-12 14:11:11.767,-2.3753643E-3,2.9690266E-3,-3.1542778E-4,5.60236E-3,2.0191193E-1,2.0515251E-1,1.9340324E-1,
1570889531,2019-10-12 14:12:11.767,-6.2367916E-3,-1.2586117E-3,-4.4472218E-3,1.4913082E-3,1.8797874E-1,1.8976402E-1,1.9219398E-1,
1570889591,2019-10-12 14:13:11.767,-4.1644573E-3,1.0008812E-3,-2.5479794E-3,2.960682E-3,1.9618988E-1,1.9866848E-1,1.924305E-1,
1570889651,2019-10-12 14:14:11.767,-6.504774E-3,-1.282692E-3,-4.5375824E-3,8.6426735E-4,1.8660545E-1,1.8842125E-1,1.9197178E-1,
1570889711,2019-10-12 14:15:11.767,-6.215811E-3,-1.8773079E-3,-4.311323E-3,1.3217926E-3,1.8597794E-1,1.8851948E-1,1.8795013E-1,
1570889771,2019-10-12 14:16:11.767,-6.0203075E-3,-1.1680126E-3,-4.6229362E-3,9.4628334E-4,1.9146156E-1,1.9350243E-1,1.962614E-1,
1570889831,2019-10-12 14:17:11.767,-3.8173199E-3,1.458168E-3,-1.9423962E-3,3.2305717E-3,1.9367886E-1,1.9588661E-1,1.9811249E-1,
1570889891,2019-10-12 14:18:11.767,-3.3209324E-3,1.2495518E-3,-1.8582344E-3,3.7891865E-3,1.9342518E-1,1.956358E-1,1.9186497E-1,
1570889951,2019-10-12 14:19:11.767,-4.1258335E-3,3.0612946E-4,-2.8750896E-3,3.0519962E-3,1.9648361E-1,2.0016098E-1,1.9179726E-1,
1570890011,2019-10-12 14:20:11.767,-1.3496876E-3,2.986908E-3,-3.194809E-4,5.480528E-3,1.9929314E-1,2.0155716E-1,2.0140553E-1,
1570890071,2019-10-12 14:21:11.769,-6.4897537E-3,-1.116991E-3,-4.58169E-3,1.4772415E-3,1.865797E-1,1.8893242E-1,1.806612E-1,
1570890131,2019-10-12 14:22:11.767,-4.2476654E-3,1.1560917E-3,-1.9476414E-3,3.4692287E-3,1.9754314E-1,1.9974709E-1,1.9131756E-1,
1570890191,2019-10-12 14:23:11.767,-2.2280216E-3,3.1383038E-3,-2.3698807E-4,5.4073334E-3,2.0000172E-1,2.0164585E-1,1.9584942E-1,
1570890251,2019-10-12 14:24:11.779,-3.499508E-3,1.3546944E-3,-1.4855862E-3,3.8647652E-3,1.9861317E-1,1.9890499E-1,1.9325352E-1,
1570890311,2019-10-12 14:25:11.767,-6.305456E-3,-1.096487E-3,-4.4739246E-3,1.3828278E-3,1.9091892E-1,1.9340229E-1,1.7294407E-1,
1570890371,2019-10-12 14:26:11.769,-4.4162273E-3,2.48909E-4,-2.2497177E-3,3.0527115E-3,1.9263077E-1,1.9458103E-1,1.8198681E-1,
1570890431,2019-10-12 14:27:11.767,-4.4703484E-3,-4.6014786E-5,-2.300024E-3,3.1926632E-3,1.9650841E-1,1.9898605E-1,1.9464684E-1,
1570890491,2019-10-12 14:28:11.767,-4.1177273E-3,4.415512E-4,-2.6333332E-3,3.0765533E-3,1.9643497E-1,1.987381E-1,1.9489384E-1,
1570890551,2019-10-12 14:29:11.767,-1.8796921E-3,2.9735565E-3,-2.872944E-4,5.5623055E-3,1.9643688E-1,1.9893646E-1,2.0249653E-1,
1570890611,2019-10-12 14:30:11.767,-2.010107E-3,2.763033E-3,-2.1338463E-4,5.5351257E-3,1.99934E-1,2.0182991E-1,1.9287968E-1,
1570890671,2019-10-12 14:31:11.767,-5.915165E-3,-1.4345646E-3,-4.0962696E-3,1.0182858E-3,1.8712234E-1,1.955719E-1,1.9040108E-1,
1570890731,2019-10-12 14:32:11.767,-2.0689964E-3,3.058672E-3,-2.8324127E-4,5.0182343E-3,2.0343971E-1,2.0492458E-1,1.9575596E-1,
1570890791,2019-10-12 14:33:11.767,-4.0733814E-3,6.649494E-4,-2.3126602E-3,2.6285648E-3,1.9127274E-1,1.9222069E-1,1.9505787E-1,
1570890851,2019-10-12 14:34:11.767,-4.6789646E-3,5.7029724E-4,-2.4149418E-3,2.8402805E-3,1.9344902E-1,1.9486618E-1,1.9637394E-1,
1570890911,2019-10-12 14:35:11.769,-3.5841465E-3,1.2412071E-3,-1.6214848E-3,3.7686825E-3,1.912241E-1,1.9359684E-1,1.9272423E-1,
1570890971,2019-10-12 14:36:11.767,-6.5317154E-3,-1.6198158E-3,-4.5211315E-3,1.0187626E-3,1.9167042E-1,1.9461727E-1,1.902399E-1,
1570891031,2019-10-12 14:37:11.767,-3.960371E-3,1.2691021E-3,-1.5060902E-3,3.7481785E-3,1.9087124E-1,1.9459248E-1,1.9951248E-1,
1570891091,2019-10-12 14:38:11.769,-1.4023781E-3,3.0527115E-3,3.604889E-4,4.872322E-3,1.994791E-1,2.0203876E-1,1.986866E-1,
1570891151,2019-10-12 14:39:11.767,-1.6961098E-3,3.0782223E-3,8.058548E-5,5.4559708E-3,2.0257378E-1,2.0464516E-1,1.9729424E-1,
1570891211,2019-10-12 14:40:11.767,-4.2164326E-3,3.671646E-4,-2.7365685E-3,2.8476715E-3,1.9655228E-1,1.9871902E-1,1.8776226E-1,
1570891271,2019-10-12 14:41:11.805,-4.3118E-3,7.092953E-4,-2.6359558E-3,2.8603077E-3,1.893549E-1,1.8673038E-1,1.9210148E-1,
1570891331,2019-10-12 14:42:11.772,-6.386757E-3,-1.2214184E-3,-4.465103E-3,8.006096E-4,1.8710041E-1,1.8832588E-1,1.8587303E-1,
1570891391,2019-10-12 14:43:11.767,-6.0453415E-3,-1.4195442E-3,-4.0376186E-3,9.114742E-4,1.8717957E-1,1.887474E-1,1.7716217E-1,
1570891451,2019-10-12 14:44:11.767,-3.7653446E-3,1.2345314E-3,-1.8033981E-3,3.622055E-3,1.9159698E-1,1.9517136E-1,1.9138241E-1,
1570891511,2019-10-12 14:45:11.767,-4.275799E-3,3.5309792E-4,-2.9203892E-3,2.5060177E-3,1.9680691E-1,1.9892216E-1,2.0084667E-1,
1570891571,2019-10-12 14:46:11.767,-6.272793E-3,-1.5079975E-3,-4.4276714E-3,8.65221E-4,1.9000053E-1,1.9374561E-1,1.8961906E-1,
1570891631,2019-10-12 14:47:11.767,-4.2390823E-3,6.790161E-4,-1.8699169E-3,3.6017895E-3,1.9307518E-1,1.9544029E-1,1.9343281E-1,
1570891691,2019-10-12 14:48:11.767,-3.916502E-3,9.5915794E-4,-2.6929379E-3,3.227234E-3,1.9281101E-1,1.9589615E-1,1.8449116E-1,
1570891751,2019-10-12 14:49:11.767,-5.8608055E-3,-1.3077259E-3,-4.405737E-3,1.1849403E-3,1.8567562E-1,1.8779087E-1,1.8035316E-1,
1570891811,2019-10-12 14:50:11.767,-3.798008E-3,1.2567043E-3,-1.7740726E-3,3.267765E-3,1.9378185E-1,1.9573689E-1,1.9312763E-1,
1570891871,2019-10-12 14:51:11.767,-6.2265396E-3,-1.2388229E-3,-4.4739246E-3,1.0945797E-3,1.8502426E-1,1.8581486E-1,1.7903614E-1,
1570891931,2019-10-12 14:52:11.767,-3.6978722E-3,1.2617111E-3,-2.257824E-3,3.6213398E-3,1.9300175E-1,1.9568253E-1,1.9794178E-1,
1570891991,2019-10-12 14:53:11.767,-6.4451694E-3,-1.3887882E-3,-4.653454E-3,1.11413E-3,1.829567E-1,1.864605E-1,1.8928051E-1,
1570892051,2019-10-12 14:54:11.776,-6.2787533E-3,-1.3003349E-3,-4.3563843E-3,1.3523102E-3,1.8442059E-1,1.882801E-1,1.8914413E-1,
1570892111,2019-10-12 14:55:11.767,-3.679037E-3,1.2865067E-3,-2.1259785E-3,3.3752918E-3,1.9364452E-1,1.958332E-1,1.9147968E-1,
1570892171,2019-10-12 14:56:11.767,-6.1719418E-3,-1.3513565E-3,-4.2800903E-3,1.7004013E-3,1.8675518E-1,1.8862629E-1,1.9250393E-1,
1570892231,2019-10-12 14:57:11.767,-4.471302E-3,4.529953E-4,-2.4709702E-3,3.1208992E-3,1.9113445E-1,1.9195652E-1,1.8857288E-1,
1570892291,2019-10-12 14:58:11.767,-3.65901E-3,4.582405E-4,-2.0475388E-3,2.8123856E-3,1.9407558E-1,1.955061E-1,1.9003582E-1,
1570892351,2019-10-12 14:59:11.767,-3.2773018E-3,1.3275146E-3,-1.2288094E-3,3.6301613E-3,1.9119167E-1,1.9254494E-1,1.889162E-1,
