Time(longsecs),Time(UTC),External SOH Voltage 1(V),External SOH Voltage 2(V),External SOH Voltage 3(V),External SOH Voltage 4(V),Sensor SOH Voltage 1(V),Sensor SOH Voltage 2(V),Sensor SOH Voltage 3(V),
1570899611,2019-10-12 17:00:11.767,-4.2824745E-3,7.7438354E-4,-2.6180744E-3,3.2002926E-3,1.8409061E-1,1.8563843E-1,1.7486191E-1,
1570899671,2019-10-12 17:01:11.767,-3.8180351E-3,1.4014244E-3,-1.8789768E-3,3.5860538E-3,1.9029808E-1,1.9236183E-1,1.7662334E-1,
1570899731,2019-10-12 17:02:11.805,-5.8248043E-3,-1.1065006E-3,-4.5433044E-3,5.722046E-4,1.8275166E-1,1.7767048E-1,1.7536926E-1,
1570899791,2019-10-12 17:03:11.769,-3.623724E-3,1.147747E-3,-1.8730164E-3,3.8409233E-3,1.8687248E-1,1.9040108E-1,1.7925262E-1,
1570899851,2019-10-12 17:04:11.769,-4.2147636E-3,6.656647E-4,-2.2137165E-3,2.7267933E-3,1.8357754E-1,1.854229E-1,1.9124317E-1,
1570899911,2019-10-12 17:05:11.767,-3.856659E-3,1.6067028E-3,-1.7557144E-3,3.4565926E-3,1.8721294E-1,1.9065952E-1,1.8439865E-1,
1570899971,2019-10-12 17:06:11.767,-6.1810017E-3,-1.1937618E-3,-4.591942E-3,8.401871E-4,1.8247032E-1,1.8543339E-1,1.8104649E-1,
1570900031,2019-10-12 17:07:11.767,-2.4535656E-3,2.8886795E-3,-2.8800964E-4,5.9769154E-3,1.8799019E-1,1.9013882E-1,1.9499779E-1,
1570900091,2019-10-12 17:08:11.767,-1.881361E-3,3.0155182E-3,-4.477501E-4,5.582571E-3,1.9480038E-1,1.9612694E-1,1.9449615E-1,
1570900151,2019-10-12 17:09:11.777,-2.060175E-3,2.9530525E-3,-3.387928E-4,5.960703E-3,1.92626E-1,1.9571781E-1,1.9186401E-1,
1570900211,2019-10-12 17:10:11.767,-3.7252903E-3,1.2950897E-3,-2.108574E-3,3.772974E-3,1.9071674E-1,1.9221592E-1,1.9556713E-1,
1570900271,2019-10-12 17:11:11.767,-3.7124157E-3,1.7118454E-3,-2.029419E-3,3.9179325E-3,1.8514538E-1,1.8580818E-1,1.9273186E-1,
1570900331,2019-10-12 17:12:11.767,-1.7797947E-3,2.6841164E-3,-1.244545E-4,5.3286552E-3,1.9215012E-1,1.9564438E-1,1.8307018E-1,
1570900391,2019-10-12 17:13:11.767,-3.8089752E-3,8.2707405E-4,-2.086401E-3,3.3783913E-3,1.9026566E-1,1.9125843E-1,1.9356728E-1,
1570900451,2019-10-12 17:14:11.767,-4.168749E-3,1.003027E-3,-2.225399E-3,3.7596226E-3,1.8288517E-1,1.8549442E-1,1.7930412E-1,
1570900511,2019-10-12 17:15:11.767,-4.5292377E-3,6.453991E-4,-2.1398067E-3,3.0128956E-3,1.897974E-1,1.9146156E-1,1.6783237E-1,
1570900571,2019-10-12 17:16:11.767,-4.155636E-3,2.7275085E-4,-2.691269E-3,3.1638145E-3,1.9316673E-1,1.9604778E-1,1.9404411E-1,
1570900631,2019-10-12 17:17:11.767,-6.2668324E-3,-8.6021423E-4,-4.5158863E-3,9.636879E-4,1.8031406E-1,1.8339634E-1,1.774435E-1,
1570900691,2019-10-12 17:18:11.768,-4.281521E-3,7.3337555E-4,-2.1767616E-3,3.0398369E-3,1.8467331E-1,1.8564224E-1,1.8122101E-1,
1570900751,2019-10-12 17:19:11.777,-4.74E-3,5.021095E-4,-2.458334E-3,2.9363632E-3,1.8727398E-1,1.8818569E-1,1.8523312E-1,
1570900811,2019-10-12 17:20:11.767,-2.454996E-3,2.9258728E-3,-1.180172E-4,5.61738E-3,1.927681E-1,1.9440556E-1,1.9804382E-1,
1570900871,2019-10-12 17:21:11.767,-2.1679401E-3,2.7656555E-3,1.1277199E-4,5.645275E-3,1.8844604E-1,1.9120026E-1,2.0103836E-1,
1570900931,2019-10-12 17:22:11.767,-4.087925E-3,6.532669E-4,-2.5935173E-3,3.1125546E-3,1.867733E-1,1.893158E-1,1.908102E-1,
1570900991,2019-10-12 17:23:11.767,-3.850937E-3,1.1949539E-3,-2.0592213E-3,3.0288696E-3,1.8790436E-1,1.896553E-1,1.8959045E-1,
1570901051,2019-10-12 17:24:11.803,-3.8921833E-3,6.6804886E-4,-2.0689964E-3,3.9966106E-3,1.8309975E-1,1.8964005E-1,1.8920898E-1,
1570901111,2019-10-12 17:25:11.767,-6.2999725E-3,-1.3887882E-3,-4.2362213E-3,1.1556149E-3,1.7789078E-1,1.8015194E-1,1.786375E-1,
1570901171,2019-10-12 17:26:11.767,-6.039381E-3,-1.1167526E-3,-4.336357E-3,9.3078613E-4,1.7975998E-1,1.8333626E-1,1.8714142E-1,
1570901231,2019-10-12 17:27:11.767,-4.050255E-3,4.4727325E-4,-2.4650097E-3,2.8982162E-3,1.8233013E-1,1.8534279E-1,1.777029E-1,
1570901291,2019-10-12 17:28:11.767,-6.3586235E-3,-1.2607574E-3,-4.354E-3,9.171963E-4,1.7701912E-1,1.7710781E-1,1.7996883E-1,
1570901351,2019-10-12 17:29:11.767,-4.394293E-3,1.4083385E-3,-2.1352768E-3,3.7727356E-3,1.8431759E-1,1.8641663E-1,1.904459E-1,
1570901411,2019-10-12 17:30:11.767,-1.9361973E-3,3.344059E-3,-1.6379356E-4,5.4922104E-3,1.931858E-1,1.9521523E-1,1.8837547E-1,
1570901471,2019-10-12 17:31:11.767,-4.6560764E-3,-7.939339E-5,-2.8002262E-3,3.0281544E-3,1.852045E-1,1.8583107E-1,1.8007755E-1,
1570901531,2019-10-12 17:32:11.767,-3.2179356E-3,1.2228489E-3,-1.8904209E-3,3.394127E-3,1.8418694E-1,1.8692303E-1,1.869402E-1,
1570901591,2019-10-12 17:33:11.767,-4.4412613E-3,5.669594E-4,-2.6843548E-3,3.2105446E-3,1.8195248E-1,1.8698215E-1,1.9057465E-1,
1570901651,2019-10-12 17:34:11.770,-2.1557808E-3,2.9966831E-3,-3.619194E-4,5.5487156E-3,1.9520664E-1,1.9845295E-1,1.8959808E-1,
1570901711,2019-10-12 17:35:11.767,-6.4280033E-3,-1.3933182E-3,-4.597664E-3,8.831024E-4,1.8093586E-1,1.8331432E-1,1.7767048E-1,
1570901771,2019-10-12 17:36:11.767,-4.276514E-3,1.265049E-3,-2.0534992E-3,3.4782887E-3,1.8347645E-1,1.8671894E-1,1.9011974E-1,
1570901831,2019-10-12 17:37:11.767,-3.6878586E-3,1.0428429E-3,-2.0017624E-3,3.5021305E-3,1.8264008E-1,1.8564701E-1,1.9645882E-1,
1570901891,2019-10-12 17:38:11.767,-6.3056946E-3,-1.1415482E-3,-4.7147274E-3,1.003027E-3,1.7723751E-1,1.788683E-1,1.8334198E-1,
1570901951,2019-10-12 17:39:11.767,-4.457712E-3,7.6055527E-4,-2.5622845E-3,2.9363632E-3,1.8562126E-1,1.8813896E-1,1.7593479E-1,
1570902011,2019-10-12 17:40:11.767,-3.8206577E-3,1.1720657E-3,-1.9910336E-3,3.5152435E-3,1.8194008E-1,1.8502903E-1,1.9078922E-1,
1570902071,2019-10-12 17:41:11.767,-2.4969578E-3,2.9227734E-3,-1.4162064E-4,5.440235E-3,1.8795013E-1,1.9031334E-1,1.9168949E-1,
1570902131,2019-10-12 17:42:11.767,-1.6543865E-3,2.9053688E-3,-1.5640259E-4,5.776882E-3,1.9289875E-1,1.9578552E-1,1.8591118E-1,
1570902191,2019-10-12 17:43:11.767,-1.7991066E-3,2.9673576E-3,5.9127808E-5,4.9226284E-3,1.9219685E-1,1.9746113E-1,1.7986202E-1,
1570902251,2019-10-12 17:44:11.768,-4.513979E-3,6.2298775E-4,-2.6006699E-3,2.9382706E-3,1.8390656E-1,1.8409443E-1,1.8876457E-1,
1570902311,2019-10-12 17:45:11.767,-4.232645E-3,1.1003017E-3,-2.1190643E-3,3.540039E-3,1.850977E-1,1.880722E-1,1.7796803E-1,
1570902371,2019-10-12 17:46:11.767,-4.9858093E-3,4.5514107E-4,-2.2928715E-3,2.6311874E-3,1.8644905E-1,1.8759823E-1,1.8339634E-1,
1570902431,2019-10-12 17:47:11.767,-6.174326E-3,-5.970001E-4,-4.3480396E-3,1.0428429E-3,1.7679977E-1,1.7923546E-1,1.8045998E-1,
1570902491,2019-10-12 17:48:11.767,-6.164551E-3,-9.5391273E-4,-4.2009354E-3,1.083374E-3,1.7782497E-1,1.7895603E-1,1.6933346E-1,
1570902551,2019-10-12 17:49:11.769,-6.6108704E-3,-1.1415482E-3,-4.39167E-3,1.3489723E-3,1.8047905E-1,1.821909E-1,1.772232E-1,
1570902611,2019-10-12 17:50:11.767,-3.3113956E-3,1.032114E-3,-2.1409988E-3,3.5078526E-3,1.8933964E-1,1.908226E-1,1.8939781E-1,
1570902671,2019-10-12 17:51:11.767,-4.4944286E-3,6.418228E-4,-2.2039413E-3,2.9406548E-3,1.8354225E-1,1.8486118E-1,1.866064E-1,
1570902731,2019-10-12 17:52:11.767,-6.366253E-3,-1.5029907E-3,-4.238367E-3,1.0485649E-3,1.7581749E-1,1.7790985E-1,1.7148972E-1,
1570902791,2019-10-12 17:53:11.767,-4.095316E-3,1.1022091E-3,-2.0275116E-3,3.4518242E-3,1.8710136E-1,1.900034E-1,1.8206406E-1,
1570902851,2019-10-12 17:54:11.767,-1.983881E-3,3.0601025E-3,-1.4567375E-4,5.304575E-3,1.890583E-1,1.9129467E-1,1.9314194E-1,
1570902911,2019-10-12 17:55:11.767,-3.6725998E-3,5.450249E-4,-2.6113987E-3,2.9981136E-3,1.8635845E-1,1.8869495E-1,1.7879105E-1,
1570902971,2019-10-12 17:56:11.767,-6.769657E-3,-1.1456013E-3,-4.130125E-3,1.3811588E-3,1.7720413E-1,1.7744923E-1,1.7651653E-1,
1570903031,2019-10-12 17:57:11.767,-3.8411617E-3,1.0995865E-3,-2.1646023E-3,3.6399364E-3,1.8740559E-1,1.8860054E-1,1.878109E-1,
1570903091,2019-10-12 17:58:11.767,-4.1680336E-3,7.917881E-4,-2.2873878E-3,3.3619404E-3,1.8085003E-1,1.8329144E-1,1.8816853E-1,
1570903151,2019-10-12 17:59:11.767,-1.7294884E-3,3.19767E-3,-6.0009956E-4,5.4650307E-3,1.9289875E-1,1.9569492E-1,1.8532372E-1,
