Time(longsecs),Time(UTC),External SOH Voltage 1(V),External SOH Voltage 2(V),External SOH Voltage 3(V),External SOH Voltage 4(V),Sensor SOH Voltage 1(V),Sensor SOH Voltage 2(V),Sensor SOH Voltage 3(V),
1571176818,2019-10-15 22:00:18.807,-7.452011E-3,3.1840801E-3,-1.2879372E-3,-6.0009956E-4,2.2543812E-1,2.2718811E-1,2.2753716E-1,
1571176878,2019-10-15 22:01:18.806,-7.6334476E-3,3.144741E-3,-1.1534691E-3,-4.8804283E-4,2.2395992E-1,2.270956E-1,2.2665787E-1,
1571176938,2019-10-15 22:02:18.806,-7.9295635E-3,3.4937859E-3,-1.291275E-3,-4.5609474E-4,2.2348118E-1,2.252369E-1,2.2564697E-1,
1571176998,2019-10-15 22:03:18.807,-7.680416E-3,3.1793118E-3,-1.2028217E-3,-4.6491623E-4,2.2299862E-1,2.2335052E-1,2.2716236E-1,
1571177058,2019-10-15 22:04:18.806,-9.782314E-3,8.137226E-4,-3.0317307E-3,-2.988577E-3,2.2027111E-1,2.2168827E-1,2.1715641E-1,
1571177118,2019-10-15 22:05:18.806,-1.0197401E-2,1.1188984E-3,-3.0169487E-3,-2.6664734E-3,2.1733093E-1,2.208786E-1,2.1932697E-1,
1571177178,2019-10-15 22:06:18.806,-1.2358904E-2,-1.3213158E-3,-5.101919E-3,-4.5182705E-3,2.1510983E-1,2.1792984E-1,2.1869469E-1,
1571177238,2019-10-15 22:07:18.806,-9.704828E-3,1.1472702E-3,-3.2804012E-3,-2.2177696E-3,2.1988869E-1,2.214489E-1,2.232008E-1,
1571177298,2019-10-15 22:08:18.806,-7.606983E-3,2.8054714E-3,-1.2087822E-3,-4.2533875E-4,2.2598839E-1,2.2836494E-1,2.2798347E-1,
1571177358,2019-10-15 22:09:18.806,-1.19121075E-2,-1.2705326E-3,-5.2843094E-3,-4.588127E-3,2.14962E-1,2.1753597E-1,2.1732521E-1,
1571177418,2019-10-15 22:10:18.839,-7.962465E-3,2.7525425E-3,-1.1303425E-3,-7.202625E-4,2.2557735E-1,2.2855663E-1,2.271843E-1,
1571177478,2019-10-15 22:11:18.806,-7.6913834E-3,2.8710365E-3,-9.4652176E-4,-5.4073334E-4,2.2494507E-1,2.2794628E-1,2.2711086E-1,
1571177538,2019-10-15 22:12:18.806,-9.75585E-3,1.4185905E-3,-2.868414E-3,-2.6483536E-3,2.1999073E-1,2.2212315E-1,2.2319221E-1,
1571177598,2019-10-15 22:13:18.806,-1.2304783E-2,-1.2614727E-3,-4.6453476E-3,-4.597664E-3,2.1376228E-1,2.1592999E-1,2.16362E-1,
1571177658,2019-10-15 22:14:18.806,-1.2002468E-2,-1.0535717E-3,-5.1100254E-3,-5.0361156E-3,2.1897507E-1,2.2305775E-1,2.1956062E-1,
1571177718,2019-10-15 22:15:18.809,-1.1785269E-2,-1.0740757E-3,-5.133152E-3,-4.610777E-3,2.1924496E-1,2.2244072E-1,2.2077179E-1,
1571177778,2019-10-15 22:16:18.806,-1.0302782E-2,5.6028366E-4,-3.3361912E-3,-2.9542446E-3,2.1894836E-1,2.226572E-1,2.1996975E-1,
1571177838,2019-10-15 22:17:18.812,-9.465694E-3,1.4996529E-3,-3.2866E-3,-2.5658607E-3,2.2220993E-1,2.2720146E-1,2.2376633E-1,
1571177898,2019-10-15 22:18:18.836,-1.2067795E-2,-9.5391273E-4,-4.971981E-3,-4.7688484E-3,2.1579552E-1,2.1825981E-1,2.1750355E-1,
1571177958,2019-10-15 22:19:18.840,-9.9003315E-3,6.053448E-4,-3.4935474E-3,-3.102541E-3,2.1973133E-1,2.228527E-1,2.2196579E-1,
1571178018,2019-10-15 22:20:18.806,-7.6856613E-3,3.1106472E-3,-1.1286736E-3,-2.4580956E-4,2.2406006E-1,2.2473049E-1,2.2354317E-1,
1571178078,2019-10-15 22:21:18.806,-9.569168E-3,1.4076233E-3,-2.8767586E-3,-2.575636E-3,2.2101688E-1,2.2250557E-1,2.2367382E-1,
1571178138,2019-10-15 22:22:18.806,-1.2079954E-2,-8.456707E-4,-5.6180954E-3,-4.732132E-3,2.1415615E-1,2.1652222E-1,2.1565056E-1,
1571178198,2019-10-15 22:23:18.806,-9.715557E-3,1.5387535E-3,-3.0186176E-3,-1.965046E-3,2.2285652E-1,2.2387218E-1,2.243452E-1,
1571178258,2019-10-15 22:24:18.806,-7.7052116E-3,2.9501915E-3,-1.4276505E-3,-6.6185E-4,2.2542858E-1,2.2802258E-1,2.2736645E-1,
1571178318,2019-10-15 22:25:18.806,-7.939339E-3,3.1325817E-3,-9.7060204E-4,-5.903244E-4,2.2515678E-1,2.2774792E-1,2.2830296E-1,
1571178378,2019-10-15 22:26:18.806,-7.7281E-3,3.0231476E-3,-1.424551E-3,-6.16312E-4,2.2769356E-1,2.3029327E-1,2.305851E-1,
1571178438,2019-10-15 22:27:18.806,-9.387255E-3,1.5099049E-3,-2.5639534E-3,-1.718998E-3,2.2080708E-1,2.2385216E-1,2.224884E-1,
1571178498,2019-10-15 22:28:18.806,-1.0071039E-2,6.72102E-4,-3.0965805E-3,-3.0677319E-3,2.2424316E-1,2.2775364E-1,2.2655201E-1,
1571178558,2019-10-15 22:29:18.806,-7.661581E-3,2.8736591E-3,-1.1923313E-3,-6.098747E-4,2.2752857E-1,2.303772E-1,2.2883987E-1,
1571178618,2019-10-15 22:30:18.806,-1.008296E-2,5.51939E-4,-3.5140514E-3,-3.140211E-3,2.1916771E-1,2.2233582E-1,2.2321701E-1,
1571178678,2019-10-15 22:31:18.806,-7.828236E-3,2.9678345E-3,-1.0249615E-3,-2.9826164E-4,2.3188019E-1,2.3447418E-1,2.3325348E-1,
1571178738,2019-10-15 22:32:18.806,-1.1884689E-2,-1.045227E-3,-5.1229E-3,-5.025387E-3,2.1573448E-1,2.1863747E-1,2.1728039E-1,
1571178798,2019-10-15 22:33:18.806,-9.679079E-3,1.761198E-3,-3.04842E-3,-2.612114E-3,2.2237015E-1,2.2555828E-1,2.2442532E-1,
1571178858,2019-10-15 22:34:18.806,-7.5700283E-3,3.0946732E-3,-1.2509823E-3,-2.6130676E-4,2.2487068E-1,2.2986889E-1,2.2592163E-1,
1571178918,2019-10-15 22:35:18.806,-1.0126591E-2,5.891323E-4,-3.2923222E-3,-3.1266212E-3,2.2160625E-1,2.236414E-1,2.232256E-1,
1571178978,2019-10-15 22:36:18.806,-9.872198E-3,7.5125694E-4,-3.403902E-3,-3.0310154E-3,2.212677E-1,2.2366524E-1,2.2299862E-1,
1571179038,2019-10-15 22:37:18.825,-7.722616E-3,3.0798912E-3,-7.686615E-4,-5.786419E-4,2.2587013E-1,2.3230553E-1,2.2784424E-1,
1571179098,2019-10-15 22:38:18.806,-9.578705E-3,1.7073154E-3,-3.0169487E-3,-2.1133423E-3,2.2072792E-1,2.2326088E-1,2.2341442E-1,
1571179158,2019-10-15 22:39:18.806,-1.0174036E-2,6.945133E-4,-3.246069E-3,-2.9408932E-3,2.2117901E-1,2.2465038E-1,2.2314262E-1,
1571179218,2019-10-15 22:40:18.806,-7.7648163E-3,3.0169487E-3,-9.069443E-4,-4.7540665E-4,2.2576714E-1,2.2796345E-1,2.267561E-1,
1571179278,2019-10-15 22:41:18.809,-9.8359585E-3,1.1765957E-3,-2.7544498E-3,-1.8904209E-3,2.1939659E-1,2.177782E-1,2.2329426E-1,
1571179338,2019-10-15 22:42:18.840,-1.1940241E-2,-1.0435581E-3,-5.2728653E-3,-4.8234463E-3,2.1372128E-1,2.157917E-1,2.1617317E-1,
1571179398,2019-10-15 22:43:18.806,-9.739161E-3,1.1298656E-3,-2.8567314E-3,-2.4909973E-3,2.2595978E-1,2.2776699E-1,2.260704E-1,
1571179458,2019-10-15 22:44:18.806,-9.865761E-3,6.506443E-4,-3.2553673E-3,-2.748251E-3,2.2104645E-1,2.2410297E-1,2.248621E-1,
1571179518,2019-10-15 22:45:18.806,-1.1949301E-2,-1.2540817E-3,-5.233288E-3,-4.762411E-3,2.158413E-1,2.1806145E-1,2.160511E-1,
1571179578,2019-10-15 22:46:18.806,-1.042223E-2,3.2806396E-4,-3.6313534E-3,-2.9261112E-3,2.209835E-1,2.2453213E-1,2.238388E-1,
1571179638,2019-10-15 22:47:18.806,-1.2166023E-2,-7.77483E-4,-5.521536E-3,-4.9011707E-3,2.1585083E-1,2.1924496E-1,2.1794128E-1,
1571179698,2019-10-15 22:48:18.807,-9.609699E-3,1.4622211E-3,-2.732277E-3,-2.4216175E-3,2.2026539E-1,2.2439957E-1,2.2354317E-1,
1571179758,2019-10-15 22:49:18.807,-1.2115002E-2,-8.3231926E-4,-5.3858757E-3,-4.2414665E-3,2.1584511E-1,2.1840572E-1,2.1803284E-1,
1571179818,2019-10-15 22:50:18.809,-1.2036562E-2,-8.573532E-4,-5.1095486E-3,-4.72188E-3,2.1425247E-1,2.144661E-1,2.1590233E-1,
1571179878,2019-10-15 22:51:18.807,-9.540319E-3,1.2905598E-3,-2.62928E-3,-2.4175644E-3,2.2275639E-1,2.25811E-1,2.2340202E-1,
1571179938,2019-10-15 22:52:18.807,-7.458687E-3,2.995491E-3,-1.1589527E-3,-5.82695E-4,2.2665882E-1,2.2835922E-1,2.2746754E-1,
1571179998,2019-10-15 22:53:18.807,-1.0002136E-2,7.841587E-4,-3.7169456E-3,-2.9044151E-3,2.1784496E-1,2.196331E-1,2.1986389E-1,
1571180058,2019-10-15 22:54:18.806,-9.402275E-3,1.0941029E-3,-3.129959E-3,-2.224207E-3,2.2155285E-1,2.2558784E-1,2.252369E-1,
1571180118,2019-10-15 22:55:18.806,-9.516001E-3,1.2814999E-3,-2.7635098E-3,-2.8049946E-3,2.2267532E-1,2.2561073E-1,2.239523E-1,
1571180178,2019-10-15 22:56:18.807,-1.1971235E-2,-8.904934E-4,-5.3858757E-3,-4.543066E-3,2.1448898E-1,2.1612549E-1,2.1665573E-1,
1571180238,2019-10-15 22:57:18.806,-9.552956E-3,1.0635853E-3,-2.8858185E-3,-1.982212E-3,2.2599316E-1,2.2744465E-1,2.2801495E-1,
1571180298,2019-10-15 22:58:18.846,-1.0103941E-2,9.887218E-4,-3.3152103E-3,-2.8772354E-3,2.215395E-1,2.244997E-1,2.2611332E-1,
1571180358,2019-10-15 22:59:18.806,-7.7917576E-3,3.3626556E-3,-1.4436245E-3,-5.533695E-4,2.2709942E-1,2.290411E-1,2.2917557E-1,
