Time(longsecs),Time(UTC),External SOH Voltage 1(V),External SOH Voltage 2(V),External SOH Voltage 3(V),External SOH Voltage 4(V),Sensor SOH Voltage 1(V),Sensor SOH Voltage 2(V),Sensor SOH Voltage 3(V),
1571180418,2019-10-15 23:00:18.806,-1.2081146E-2,-1.0099411E-3,-5.0053596E-3,-4.569292E-3,2.1587753E-1,2.1762753E-1,2.1754551E-1,
1571180478,2019-10-15 23:01:18.806,-7.7209473E-3,3.1571388E-3,-1.1072159E-3,-1.0488033E-3,2.272234E-1,2.2746849E-1,2.3150826E-1,
1571180538,2019-10-15 23:02:18.806,-1.0107994E-2,6.070137E-4,-3.5908222E-3,-2.758503E-3,2.2083855E-1,2.2189426E-1,2.2262096E-1,
1571180598,2019-10-15 23:03:18.806,-1.1964083E-2,-1.3272762E-3,-5.5143833E-3,-4.872322E-3,2.1962261E-1,2.2244167E-1,2.1971607E-1,
1571180658,2019-10-15 23:04:18.806,-1.2047052E-2,-8.985996E-4,-5.316496E-3,-4.4953823E-3,2.2170258E-1,2.2008324E-1,2.2274494E-1,
1571180718,2019-10-15 23:05:18.806,-9.379625E-3,1.4233589E-3,-2.5835037E-3,-1.9266605E-3,2.2276878E-1,2.258606E-1,2.2520351E-1,
1571180778,2019-10-15 23:06:18.806,-1.20100975E-2,-9.34124E-4,-5.0807E-3,-4.417181E-3,2.14015E-1,2.1739674E-1,2.1602726E-1,
1571180838,2019-10-15 23:07:18.806,-9.481907E-3,1.3465881E-3,-2.8600693E-3,-2.1643639E-3,2.2231483E-1,2.2759342E-1,2.2439957E-1,
1571180898,2019-10-15 23:08:18.806,-7.905483E-3,3.1745434E-3,-1.096487E-3,-3.2234192E-4,2.3181343E-1,2.3303509E-1,2.314434E-1,
1571180958,2019-10-15 23:09:18.806,-1.0195494E-2,7.009506E-4,-3.3159256E-3,-2.853632E-3,2.2029114E-1,2.2505474E-1,2.2288227E-1,
1571181018,2019-10-15 23:10:18.806,-9.175301E-3,1.3530254E-3,-2.3374557E-3,-2.1796227E-3,2.2297478E-1,2.2699451E-1,2.2346783E-1,
1571181078,2019-10-15 23:11:18.806,-9.6066E-3,1.1396408E-3,-2.7787685E-3,-2.1045208E-3,2.2589397E-1,2.3085976E-1,2.2920895E-1,
1571181138,2019-10-15 23:12:18.806,-1.1868954E-2,-1.162529E-3,-5.2206516E-3,-4.7667027E-3,2.155571E-1,2.1760368E-1,2.1466732E-1,
1571181198,2019-10-15 23:13:18.806,-1.1801481E-2,-9.627342E-4,-4.641056E-3,-5.2695274E-3,2.1539688E-1,2.2047424E-1,2.1751404E-1,
1571181258,2019-10-15 23:14:18.806,-7.739544E-3,3.2331944E-3,-8.2063675E-4,-1.1384487E-3,2.3161697E-1,2.318716E-1,2.3198509E-1,
1571181318,2019-10-15 23:15:18.806,-1.0304928E-2,1.0211468E-3,-3.2527447E-3,-3.063202E-3,2.1936035E-1,2.2408104E-1,2.2205639E-1,
1571181378,2019-10-15 23:16:18.806,-1.0132551E-2,4.7922134E-4,-3.433466E-3,-3.4604073E-3,2.2501087E-1,2.2847462E-1,2.2402E-1,
1571181438,2019-10-15 23:17:18.806,-9.55534E-3,1.8453598E-3,-2.7623177E-3,-2.0897388E-3,2.2646427E-1,2.2909832E-1,2.2561741E-1,
1571181498,2019-10-15 23:18:18.806,-1.0202646E-2,8.0013275E-4,-3.5116673E-3,-3.1766891E-3,2.2443104E-1,2.2884083E-1,2.3014164E-1,
1571181558,2019-10-15 23:19:18.806,-1.0002136E-2,7.1668625E-4,-3.481865E-3,-2.879858E-3,2.2048855E-1,2.2420406E-1,2.2356033E-1,
1571181618,2019-10-15 23:20:18.806,-9.506702E-3,1.147747E-3,-3.049612E-3,-1.9624233E-3,2.2244453E-1,2.2470188E-1,2.2206306E-1,
1571181678,2019-10-15 23:21:18.806,-1.0357618E-2,6.8950653E-4,-3.7827492E-3,-2.9449463E-3,2.188263E-1,2.2048473E-1,2.2260189E-1,
1571181738,2019-10-15 23:22:18.806,-7.944584E-3,3.0961037E-3,-1.465559E-3,-6.8831444E-4,2.2672462E-1,2.2658157E-1,2.308979E-1,
1571181798,2019-10-15 23:23:18.806,-9.9852085E-3,8.740425E-4,-3.4003258E-3,-3.063202E-3,2.2164917E-1,2.189703E-1,2.2370243E-1,
1571181858,2019-10-15 23:24:18.806,-1.020956E-2,6.4587593E-4,-3.5130978E-3,-2.9013157E-3,2.2570515E-1,2.2866058E-1,2.2728252E-1,
1571181918,2019-10-15 23:25:18.806,-1.2247562E-2,-1.1816025E-3,-5.041361E-3,-4.751444E-3,2.1953392E-1,2.2230434E-1,2.2282219E-1,
1571181978,2019-10-15 23:26:18.806,-7.7564716E-3,3.033638E-3,-1.0745525E-3,-2.0933151E-4,2.2593784E-1,2.305212E-1,2.3331165E-1,
1571182038,2019-10-15 23:27:18.806,-9.672642E-3,1.521349E-3,-2.739668E-3,-2.4981499E-3,2.2615337E-1,2.2993755E-1,2.2292137E-1,
1571182098,2019-10-15 23:28:18.806,-7.420063E-3,3.19767E-3,-7.1644783E-4,-2.8443336E-4,2.2669792E-1,2.2723675E-1,2.2972393E-1,
1571182158,2019-10-15 23:29:18.809,-1.0395765E-2,6.120205E-4,-3.6025047E-3,-2.9246807E-3,2.202549E-1,2.2289467E-1,2.2698021E-1,
1571182218,2019-10-15 23:30:18.806,-7.8098774E-3,3.0097961E-3,-1.0693073E-3,-4.3177605E-4,2.3093033E-1,2.352848E-1,2.3357582E-1,
1571182278,2019-10-15 23:31:18.806,-7.2972775E-3,3.44491E-3,-7.6007843E-4,-7.8582764E-4,2.3188305E-1,2.3479652E-1,2.3398209E-1,
1571182338,2019-10-15 23:32:18.806,-9.439945E-3,1.3375282E-3,-2.7730465E-3,-2.3596287E-3,2.2805977E-1,2.3225117E-1,2.2307682E-1,
1571182398,2019-10-15 23:33:18.809,-1.2063742E-2,-1.2226105E-3,-5.037546E-3,-4.7593117E-3,2.1586895E-1,2.1435452E-1,2.2068119E-1,
1571182458,2019-10-15 23:34:18.806,-9.910822E-3,8.4900856E-4,-3.3369064E-3,-2.865076E-3,2.2539902E-1,2.271347E-1,2.2823524E-1,
1571182518,2019-10-15 23:35:18.806,-7.816792E-3,2.7427673E-3,-1.3399124E-3,-4.336834E-4,2.3159122E-1,2.3383331E-1,2.3361874E-1,
1571182578,2019-10-15 23:36:18.806,-1.1913776E-2,-1.0740757E-3,-5.126238E-3,-4.6088696E-3,2.1546078E-1,2.1721745E-1,2.184496E-1,
1571182638,2019-10-15 23:37:18.806,-7.7679157E-3,3.2424927E-3,-1.0089874E-3,-4.966259E-4,2.3147869E-1,2.3359203E-1,2.3414707E-1,
1571182698,2019-10-15 23:38:18.806,-1.2167215E-2,-1.2843609E-3,-5.6905746E-3,-5.202532E-3,2.1505833E-1,2.1825123E-1,2.2101212E-1,
1571182758,2019-10-15 23:39:18.809,-1.208353E-2,-1.0480881E-3,-5.159855E-3,-5.3577423E-3,2.1350288E-1,2.2086811E-1,2.2536278E-1,
1571182818,2019-10-15 23:40:18.806,-1.061821E-2,7.634163E-4,-3.7305355E-3,-2.6490688E-3,2.2060871E-1,2.242794E-1,2.2779751E-1,
1571182878,2019-10-15 23:41:18.806,-7.8988075E-3,2.910614E-3,-1.4023781E-3,-8.1539154E-4,2.3067474E-1,2.3098087E-1,2.3274136E-1,
1571182938,2019-10-15 23:42:18.806,-8.255959E-3,3.0124187E-3,-1.2025833E-3,-9.069443E-4,2.3141766E-1,2.3496056E-1,2.2922802E-1,
1571182998,2019-10-15 23:43:18.806,-9.750128E-3,1.7426014E-3,-2.9575825E-3,-2.2921562E-3,2.2205067E-1,2.2566605E-1,2.2500896E-1,
1571183058,2019-10-15 23:44:18.806,-1.2039185E-2,-1.1994839E-3,-5.2206516E-3,-4.7369003E-3,2.215805E-1,2.258234E-1,2.1729946E-1,
1571183118,2019-10-15 23:45:18.807,-9.324789E-3,1.395464E-3,-2.575159E-3,-2.0282269E-3,2.2670078E-1,2.3125839E-1,2.3081017E-1,
1571183178,2019-10-15 23:46:18.807,-1.170373E-2,-9.06229E-4,-4.9853325E-3,-4.5793056E-3,2.1589375E-1,2.1518898E-1,2.2159195E-1,
1571183238,2019-10-15 23:47:18.806,-1.1995077E-2,-1.0809898E-3,-5.243063E-3,-4.8007965E-3,2.1944332E-1,2.2252083E-1,2.16815E-1,
1571183298,2019-10-15 23:48:18.806,-9.53126E-3,1.2803078E-3,-2.4621487E-3,-2.1231174E-3,2.2638893E-1,2.290659E-1,2.2369862E-1,
1571183358,2019-10-15 23:49:18.806,-7.735014E-3,3.0491352E-3,-9.841919E-4,-9.2077255E-4,2.2846031E-1,2.3019695E-1,2.303896E-1,
1571183418,2019-10-15 23:50:18.806,-1.2028217E-2,-1.2252331E-3,-5.043268E-3,-4.73094E-3,2.1981144E-1,2.2225189E-1,2.2053528E-1,
1571183478,2019-10-15 23:51:18.806,-1.2223005E-2,-1.0957718E-3,-5.093336E-3,-5.0928593E-3,2.1988869E-1,2.2285938E-1,2.219019E-1,
1571183538,2019-10-15 23:52:18.813,-1.2035608E-2,-1.2876987E-3,-5.017042E-3,-4.5564175E-3,2.1921444E-1,2.2651005E-1,2.214899E-1,
1571183598,2019-10-15 23:53:18.806,-1.1771917E-2,-7.5268745E-4,-5.21183E-3,-4.552841E-3,2.2071171E-1,2.2278786E-1,2.1687508E-1,
1571183658,2019-10-15 23:54:18.806,-9.36985E-3,1.427412E-3,-2.499342E-3,-2.1238327E-3,2.2590065E-1,2.2923374E-1,2.207632E-1,
1571183718,2019-10-15 23:55:18.806,-9.542942E-3,1.3310909E-3,-2.6524067E-3,-2.7313232E-3,2.2550106E-1,2.2890854E-1,2.2779942E-1,
1571183778,2019-10-15 23:56:18.806,-9.39393E-3,1.3933182E-3,-2.9280186E-3,-2.4704933E-3,2.2254372E-1,2.2583008E-1,2.226448E-1,
1571183838,2019-10-15 23:57:18.806,-9.759665E-3,1.376152E-3,-3.128767E-3,-2.5565624E-3,2.2569942E-1,2.3033142E-1,2.2809029E-1,
1571183898,2019-10-15 23:58:18.806,-9.716272E-3,1.7929077E-3,-2.9871464E-3,-2.4125576E-3,2.2707367E-1,2.298975E-1,2.2636604E-1,
1571183958,2019-10-15 23:59:18.806,-1.1921644E-2,-1.210928E-3,-5.1448345E-3,-4.5802593E-3,2.2092247E-1,2.2440338E-1,2.2085762E-1,
