Time(longsecs),Time(UTC),Supply Voltage(mV),Temperature(&deg;C),NMX Bus Current(mA),Sensor Current(mA),Serial Port Current(mA),Controller Current(mA),Digitizer Current(mA),
1571115613,2019-10-15 05:00:13.464,12788,2.235379E1,0,11,0,63,52,
1571115673,2019-10-15 05:01:13.464,12774,2.2107483E1,0,12,0,73,48,
1571115733,2019-10-15 05:02:13.467,12774,2.2354858E1,0,10,0,74,52,
1571115793,2019-10-15 05:03:13.464,12774,2.2119385E1,0,11,0,73,51,
1571115853,2019-10-15 05:04:13.464,12774,2.214746E1,0,11,0,82,51,
1571115913,2019-10-15 05:05:13.464,12788,2.2274933E1,0,9,0,64,48,
1571115973,2019-10-15 05:06:13.464,12774,2.2362427E1,0,13,0,74,51,
1571116033,2019-10-15 05:07:13.464,12774,2.2322449E1,0,9,0,71,50,
1571116093,2019-10-15 05:08:13.464,12774,2.2354858E1,0,9,0,75,52,
1571116153,2019-10-15 05:09:13.464,12801,2.2363495E1,0,9,0,68,51,
1571116213,2019-10-15 05:10:13.464,12774,2.2320282E1,0,11,0,83,48,
1571116273,2019-10-15 05:11:13.467,12774,2.21669E1,0,9,0,73,47,
1571116333,2019-10-15 05:12:13.464,12788,2.2243591E1,0,9,0,73,49,
1571116393,2019-10-15 05:13:13.464,12815,2.230194E1,0,9,0,74,52,
1571116453,2019-10-15 05:14:13.465,12788,2.251474E1,0,7,0,53,48,
1571116513,2019-10-15 05:15:13.464,12774,2.2105316E1,0,8,0,64,49,
1571116573,2019-10-15 05:16:13.514,12774,2.2441284E1,0,9,0,75,48,
1571116633,2019-10-15 05:17:13.464,12788,2.2220917E1,0,10,0,77,49,
1571116693,2019-10-15 05:18:13.464,12774,2.2364594E1,0,6,0,74,47,
1571116753,2019-10-15 05:19:13.464,12788,2.225763E1,0,11,0,64,50,
1571116813,2019-10-15 05:20:13.465,12774,2.2236023E1,0,11,0,75,48,
1571116873,2019-10-15 05:21:13.465,12760,2.2169067E1,0,9,0,85,51,
1571116933,2019-10-15 05:22:13.467,12760,2.2317047E1,0,5,0,111,51,
1571116993,2019-10-15 05:23:13.465,12774,2.2239288E1,0,9,0,71,55,
1571117053,2019-10-15 05:24:13.464,12774,2.2232788E1,0,9,0,92,51,
1571117113,2019-10-15 05:25:13.466,12788,2.219284E1,0,8,0,64,48,
1571117173,2019-10-15 05:26:13.464,12774,2.225763E1,0,10,0,75,54,
1571117233,2019-10-15 05:27:13.464,12774,2.2172302E1,0,10,0,76,51,
1571117293,2019-10-15 05:28:13.467,12774,2.2126923E1,0,9,0,73,53,
1571117353,2019-10-15 05:29:13.464,12788,2.2233887E1,0,10,0,64,53,
1571117413,2019-10-15 05:30:13.464,12774,2.1997314E1,0,10,0,63,48,
1571117473,2019-10-15 05:31:13.464,12774,2.2203644E1,0,12,0,80,48,
1571117533,2019-10-15 05:32:13.497,12774,2.222522E1,0,13,0,74,50,
1571117593,2019-10-15 05:33:13.464,12828,2.2445587E1,0,4,0,73,47,
1571117653,2019-10-15 05:34:13.465,12774,2.214746E1,0,6,0,63,51,
1571117713,2019-10-15 05:35:13.464,12788,2.2143127E1,0,10,0,100,52,
1571117773,2019-10-15 05:36:13.464,12760,2.2200378E1,0,11,0,102,48,
1571117833,2019-10-15 05:37:13.464,12774,2.2196075E1,0,13,0,75,49,
1571117893,2019-10-15 05:38:13.467,12774,2.2234955E1,0,9,0,78,49,
1571117953,2019-10-15 05:39:13.464,12788,2.2224152E1,0,13,0,63,50,
1571118013,2019-10-15 05:40:13.464,12774,2.2255493E1,0,11,0,63,49,
1571118073,2019-10-15 05:41:13.464,12774,2.223172E1,0,6,0,74,51,
1571118133,2019-10-15 05:42:13.464,12774,2.2053467E1,0,9,0,75,50,
1571118193,2019-10-15 05:43:13.464,12774,2.2050232E1,0,10,0,73,49,
1571118253,2019-10-15 05:44:13.464,12774,2.2099915E1,0,12,0,64,48,
1571118313,2019-10-15 05:45:13.464,12774,2.2086975E1,0,9,0,73,50,
1571118373,2019-10-15 05:46:13.464,12774,2.2265198E1,0,5,0,76,49,
1571118433,2019-10-15 05:47:13.465,12774,2.2048065E1,0,8,0,71,46,
1571118493,2019-10-15 05:48:13.464,12774,2.212262E1,0,12,0,75,49,
1571118553,2019-10-15 05:49:13.464,12774,2.2363495E1,0,11,0,81,50,
1571118613,2019-10-15 05:50:13.464,12788,2.2104248E1,0,6,0,72,48,
1571118673,2019-10-15 05:51:13.464,12760,2.1954102E1,0,11,0,111,49,
1571118733,2019-10-15 05:52:13.465,12774,2.21669E1,0,11,0,71,48,
1571118793,2019-10-15 05:53:13.464,12774,2.1992981E1,0,10,0,73,49,
1571118853,2019-10-15 05:54:13.464,12774,2.219284E1,0,9,0,66,46,
1571118913,2019-10-15 05:55:13.467,12774,2.2143127E1,0,11,0,64,48,
1571118973,2019-10-15 05:56:13.464,12760,2.2165833E1,0,11,0,85,50,
1571119033,2019-10-15 05:57:13.464,12774,2.2233887E1,0,15,0,71,51,
1571119093,2019-10-15 05:58:13.467,12774,2.199408E1,0,13,0,73,51,
1571119153,2019-10-15 05:59:13.464,12774,2.207724E1,0,8,0,63,52,
