Time(longsecs),Time(UTC),Supply Voltage(mV),Temperature(&deg;C),NMX Bus Current(mA),Sensor Current(mA),Serial Port Current(mA),Controller Current(mA),Digitizer Current(mA),
1571875220,2019-10-24 00:00:20.701,16448,1.7539917E1,0,9,0,32,38,
1571875280,2019-10-24 00:01:20.663,16448,1.7640076E1,0,9,0,36,39,
1571875340,2019-10-24 00:02:20.663,16448,1.7728516E1,0,8,0,36,37,
1571875400,2019-10-24 00:03:20.664,16448,1.761026E1,0,7,0,34,40,
1571875460,2019-10-24 00:04:20.663,16448,1.7796722E1,0,2,0,37,36,
1571875520,2019-10-24 00:05:20.663,16448,1.7785004E1,0,9,0,37,37,
1571875580,2019-10-24 00:06:20.663,16461,1.7569763E1,0,6,0,31,39,
1571875640,2019-10-24 00:07:20.663,16448,1.7618774E1,0,9,0,36,36,
1571875700,2019-10-24 00:08:20.675,16448,1.7691223E1,0,14,0,32,35,
1571875760,2019-10-24 00:09:20.663,16433,1.7484528E1,0,9,3,31,34,
1571875820,2019-10-24 00:10:20.663,16448,1.7465332E1,0,11,0,37,34,
1571875880,2019-10-24 00:11:20.663,16448,1.7479187E1,0,9,0,37,34,
1571875940,2019-10-24 00:12:20.663,16448,1.753247E1,0,12,0,40,35,
1571876000,2019-10-24 00:13:20.696,16448,1.7667786E1,0,9,0,40,37,
1571876060,2019-10-24 00:14:20.664,16420,1.7608124E1,0,9,0,42,37,
1571876120,2019-10-24 00:15:20.664,16433,1.772638E1,0,1,0,46,32,
1571876180,2019-10-24 00:16:20.663,16448,1.7680573E1,0,8,0,36,34,
1571876240,2019-10-24 00:17:20.663,16433,1.7576141E1,0,9,0,37,35,
1571876300,2019-10-24 00:18:20.673,16488,1.7810547E1,0,11,0,36,40,
1571876360,2019-10-24 00:19:20.665,16448,1.7579346E1,0,12,0,32,35,
1571876420,2019-10-24 00:20:20.663,16448,1.7551636E1,0,6,0,31,34,
1571876480,2019-10-24 00:21:20.663,16448,1.75932E1,0,6,0,37,35,
1571876540,2019-10-24 00:22:20.663,16448,1.7727448E1,0,9,0,36,35,
1571876600,2019-10-24 00:23:20.663,16475,1.762622E1,0,6,0,36,37,
1571876660,2019-10-24 00:24:20.665,16448,1.759851E1,0,9,0,36,34,
1571876720,2019-10-24 00:25:20.663,16448,1.766034E1,0,9,0,31,36,
1571876780,2019-10-24 00:26:20.663,16448,1.7545258E1,0,9,0,37,35,
1571876840,2019-10-24 00:27:20.709,16448,1.7682709E1,0,5,0,36,39,
1571876900,2019-10-24 00:28:20.664,16488,1.7450409E1,0,10,0,32,38,
1571876960,2019-10-24 00:29:20.663,16461,1.7567627E1,0,6,0,33,38,
1571877020,2019-10-24 00:30:20.663,16461,1.7321503E1,0,9,0,31,37,
1571877080,2019-10-24 00:31:20.663,16448,1.7564423E1,0,8,0,36,34,
1571877140,2019-10-24 00:32:20.665,16448,1.759851E1,0,9,0,37,36,
1571877200,2019-10-24 00:33:20.663,16448,1.7667786E1,0,9,0,40,36,
1571877260,2019-10-24 00:34:20.663,16448,1.7555908E1,0,9,0,36,38,
1571877320,2019-10-24 00:35:20.663,16448,1.7412048E1,0,6,0,37,35,
1571877380,2019-10-24 00:36:20.665,16433,1.7247986E1,0,6,0,36,36,
1571877440,2019-10-24 00:37:20.663,16433,1.7569763E1,0,9,0,38,34,
1571877500,2019-10-24 00:38:20.663,16406,1.7436554E1,0,9,0,36,35,
1571877560,2019-10-24 00:39:20.663,16448,1.7645416E1,0,10,0,37,35,
1571877620,2019-10-24 00:40:20.663,16448,1.7534607E1,0,9,0,32,38,
1571877680,2019-10-24 00:41:20.663,16448,1.732788E1,0,13,0,31,38,
1571877740,2019-10-24 00:42:20.663,16448,1.7540985E1,0,9,0,31,37,
1571877800,2019-10-24 00:43:20.663,16433,1.7564423E1,0,6,0,35,40,
1571877860,2019-10-24 00:44:20.663,16448,1.7558044E1,0,9,0,36,38,
1571877920,2019-10-24 00:45:20.663,16448,1.736731E1,0,9,1,31,34,
1571877980,2019-10-24 00:46:20.663,16448,1.7534607E1,0,4,0,36,36,
1571878040,2019-10-24 00:47:20.663,16448,1.7481323E1,0,10,0,37,36,
1571878100,2019-10-24 00:48:20.663,16475,1.7470673E1,0,6,0,38,37,
1571878160,2019-10-24 00:49:20.663,16433,1.7659271E1,0,8,0,36,35,
1571878220,2019-10-24 00:50:20.663,16393,1.7328949E1,0,13,0,31,39,
1571878280,2019-10-24 00:51:20.663,16433,1.7513275E1,0,10,0,39,36,
1571878340,2019-10-24 00:52:20.663,16433,1.753778E1,0,15,0,37,37,
1571878400,2019-10-24 00:53:20.670,16448,1.7472809E1,0,9,0,34,35,
1571878460,2019-10-24 00:54:20.663,16433,1.7453613E1,0,9,0,37,36,
1571878520,2019-10-24 00:55:20.663,16448,1.7621979E1,0,8,0,31,40,
1571878580,2019-10-24 00:56:20.663,16433,1.7296997E1,0,9,0,36,39,
1571878640,2019-10-24 00:57:20.663,16433,1.7363037E1,0,14,0,37,38,
1571878700,2019-10-24 00:58:20.663,16448,1.7296997E1,0,8,0,36,38,
1571878760,2019-10-24 00:59:20.664,16433,1.7343872E1,0,7,0,45,36,
