Time(longsecs),Time(UTC),Supply Voltage(mV),Temperature(&deg;C),NMX Bus Current(mA),Sensor Current(mA),Serial Port Current(mA),Controller Current(mA),Digitizer Current(mA),
1571940020,2019-10-24 18:00:20.663,16461,2.1583527E1,0,9,0,32,35,
1571940080,2019-10-24 18:01:20.663,16488,2.1358704E1,0,9,0,36,35,
1571940140,2019-10-24 18:02:20.663,16475,2.1407715E1,1,8,0,38,39,
1571940200,2019-10-24 18:03:20.704,16475,2.1441803E1,0,10,0,39,41,
1571940260,2019-10-24 18:04:20.663,16488,2.1469513E1,0,5,0,37,37,
1571940320,2019-10-24 18:05:20.702,16461,2.148761E1,0,11,0,37,34,
1571940380,2019-10-24 18:06:20.663,16488,2.1321411E1,0,6,0,36,37,
1571940440,2019-10-24 18:07:20.665,16475,2.154834E1,0,9,0,31,40,
1571940500,2019-10-24 18:08:20.663,16488,2.1273468E1,0,6,0,31,37,
1571940560,2019-10-24 18:09:20.663,16488,2.1602692E1,0,11,0,31,38,
1571940620,2019-10-24 18:10:20.663,16488,2.1345917E1,0,9,0,37,40,
1571940680,2019-10-24 18:11:20.663,16475,2.1496155E1,0,9,0,37,33,
1571940740,2019-10-24 18:12:20.663,16475,2.1270264E1,0,10,0,36,37,
1571940800,2019-10-24 18:13:20.663,16475,2.1429016E1,0,8,0,37,38,
1571940860,2019-10-24 18:14:20.692,16475,2.1420502E1,0,7,0,36,34,
1571940920,2019-10-24 18:15:20.663,16488,2.1352295E1,0,9,0,34,38,
1571940980,2019-10-24 18:16:20.663,16488,2.117862E1,0,4,0,36,35,
1571941040,2019-10-24 18:17:20.663,16475,2.1278778E1,0,11,0,40,38,
1571941100,2019-10-24 18:18:20.663,16488,2.1328857E1,0,11,0,36,37,
1571941160,2019-10-24 18:19:20.663,16475,2.1147736E1,0,8,0,36,36,
1571941220,2019-10-24 18:20:20.663,16488,2.1209534E1,0,10,0,31,41,
1571941280,2019-10-24 18:21:20.663,16475,2.1312866E1,0,9,5,37,37,
1571941340,2019-10-24 18:22:20.663,16475,2.1125336E1,0,6,0,38,37,
1571941400,2019-10-24 18:23:20.663,16475,2.107846E1,0,8,0,36,39,
1571941460,2019-10-24 18:24:20.663,16475,2.1099762E1,0,4,0,37,38,
1571941520,2019-10-24 18:25:20.663,16488,2.123404E1,0,12,0,31,37,
1571941580,2019-10-24 18:26:20.664,16475,2.1027313E1,1,7,0,39,41,
1571941640,2019-10-24 18:27:20.664,16475,2.1344849E1,0,9,0,42,37,
1571941700,2019-10-24 18:28:20.663,16475,2.1065674E1,0,9,0,33,34,
1571941760,2019-10-24 18:29:20.663,16475,2.119992E1,0,8,0,39,38,
1571941820,2019-10-24 18:30:20.663,16488,2.1200989E1,0,9,0,38,35,
1571941880,2019-10-24 18:31:20.663,16475,2.1006012E1,0,9,0,36,35,
1571941940,2019-10-24 18:32:20.663,16475,2.113388E1,0,9,0,38,34,
1571942000,2019-10-24 18:33:20.663,16475,2.0988953E1,0,14,0,37,36,
1571942060,2019-10-24 18:34:20.663,16475,2.102414E1,0,9,0,35,35,
1571942120,2019-10-24 18:35:20.663,16475,2.1091248E1,0,9,0,38,39,
1571942180,2019-10-24 18:36:20.695,16448,2.07258E1,0,3,0,32,36,
1571942240,2019-10-24 18:37:20.663,16475,2.0904785E1,0,9,0,37,33,
1571942300,2019-10-24 18:38:20.663,16515,2.0902649E1,0,5,0,36,38,
1571942360,2019-10-24 18:39:20.663,16475,2.112323E1,0,11,0,39,35,
1571942420,2019-10-24 18:40:20.663,16475,2.092929E1,0,11,0,31,38,
1571942480,2019-10-24 18:41:20.663,16475,2.1033722E1,0,9,0,36,33,
1571942540,2019-10-24 18:42:20.663,16488,2.0939941E1,0,6,0,37,34,
1571942600,2019-10-24 18:43:20.663,16475,2.0817413E1,0,10,0,36,40,
1571942660,2019-10-24 18:44:20.663,16556,2.098471E1,0,8,1,36,37,
1571942720,2019-10-24 18:45:20.663,16475,2.0611786E1,0,10,0,32,37,
1571942780,2019-10-24 18:46:20.663,16475,2.0950592E1,0,7,0,36,35,
1571942840,2019-10-24 18:47:20.695,16475,2.0749237E1,0,11,0,31,37,
1571942900,2019-10-24 18:48:20.663,16488,2.0831268E1,0,11,0,36,41,
1571942960,2019-10-24 18:49:20.698,16475,2.1061432E1,0,7,0,38,38,
1571943020,2019-10-24 18:50:20.663,16475,2.077481E1,0,11,0,38,38,
1571943080,2019-10-24 18:51:20.663,16475,2.0811035E1,0,9,0,37,39,
1571943140,2019-10-24 18:52:20.702,16475,2.091864E1,0,9,0,33,34,
1571943200,2019-10-24 18:53:20.666,16475,2.0942078E1,0,9,0,37,37,
1571943260,2019-10-24 18:54:20.663,16475,2.0716187E1,0,12,0,36,37,
1571943320,2019-10-24 18:55:20.663,16475,2.0684235E1,0,7,0,31,40,
1571943380,2019-10-24 18:56:20.663,16475,2.0595795E1,0,9,0,37,36,
1571943440,2019-10-24 18:57:20.663,16461,2.069809E1,0,11,0,37,33,
1571943500,2019-10-24 18:58:20.673,16448,2.0844055E1,0,9,0,36,38,
1571943560,2019-10-24 18:59:20.664,16475,2.085257E1,0,11,0,45,34,
