Time(longsecs),Time(UTC),GPS Satellite Acquisition Flag 1,GPS Satellite Acquisition Flag 2,GPS Satellite Acquisition Flag 3,GPS Satellite Acquisition Flag 4,GPS Satellite Acquisition Flag 5,GPS Satellite Acquisition Flag 6,GPS Satellite Acquisition Flag 7,GPS Satellite Acquisition Flag 8,GPS Satellite Acquisition Flag 9,GPS Satellite Acquisition Flag 10,GPS Satellite Acquisition Flag 11,GPS Satellite Acquisition Flag 12,GPS Satellite Azimuth 1(Degrees),GPS Satellite Azimuth 2(Degrees),GPS Satellite Azimuth 3(Degrees),GPS Satellite Azimuth 4(Degrees),GPS Satellite Azimuth 5(Degrees),GPS Satellite Azimuth 6(Degrees),GPS Satellite Azimuth 7(Degrees),GPS Satellite Azimuth 8(Degrees),GPS Satellite Azimuth 9(Degrees),GPS Satellite Azimuth 10(Degrees),GPS Satellite Azimuth 11(Degrees),GPS Satellite Azimuth 12(Degrees),GPS Satellite Elevation 1(Degrees),GPS Satellite Elevation 2(Degrees),GPS Satellite Elevation 3(Degrees),GPS Satellite Elevation 4(Degrees),GPS Satellite Elevation 5(Degrees),GPS Satellite Elevation 6(Degrees),GPS Satellite Elevation 7(Degrees),GPS Satellite Elevation 8(Degrees),GPS Satellite Elevation 9(Degrees),GPS Satellite Elevation 10(Degrees),GPS Satellite Elevation 11(Degrees),GPS Satellite Elevation 12(Degrees),GPS Satellite PRN 1,GPS Satellite PRN 2,GPS Satellite PRN 3,GPS Satellite PRN 4,GPS Satellite PRN 5,GPS Satellite PRN 6,GPS Satellite PRN 7,GPS Satellite PRN 8,GPS Satellite PRN 9,GPS Satellite PRN 10,GPS Satellite PRN 11,GPS Satellite PRN 12,GPS Satellite Signal Level 1(AMU),GPS Satellite Signal Level 2(AMU),GPS Satellite Signal Level 3(AMU),GPS Satellite Signal Level 4(AMU),GPS Satellite Signal Level 5(AMU),GPS Satellite Signal Level 6(AMU),GPS Satellite Signal Level 7(AMU),GPS Satellite Signal Level 8(AMU),GPS Satellite Signal Level 9(AMU),GPS Satellite Signal Level 10(AMU),GPS Satellite Signal Level 11(AMU),GPS Satellite Signal Level 12(AMU),
1571878820,2019-10-24 01:00:20.663,Acquired,Acquired,Acquired,Acquired,Acquired,Acquired,Acquired,Not acquired,Acquired,Not acquired,,,6.7073604E1,7.997762399999999E1,2.70599712E2,3.8626487999999995E1,1.98055712E2,3.03341344E2,2.3764159999999998E2,3.0224867999999997E1,1.4417808E2,2.7429801599999996E2,,,3.2445838E1,3.5530699999999996E1,3.6230004E1,7.9188696E1,6.0444407999999996E1,4.2509403999999996E1,2.8542032E1,1.0692986999999999E1,1.1694802E1,5.464053E0,,,2,12,14,25,29,31,32,6,24,26,,,2,2,2,11,15,3,15,0,2,0,,,
1571878880,2019-10-24 01:01:20.663,Acquired,Acquired,Acquired,Acquired,Acquired,Acquired,Acquired,Not acquired,Acquired,Not acquired,,,6.7073604E1,7.997762399999999E1,2.70599712E2,3.8626487999999995E1,1.98055712E2,3.03341344E2,2.3764159999999998E2,3.0224867999999997E1,1.4417808E2,2.7429801599999996E2,,,3.2445838E1,3.5530699999999996E1,3.6230004E1,7.9188696E1,6.0444407999999996E1,4.2509403999999996E1,2.8542032E1,1.0692986999999999E1,1.1694802E1,5.464053E0,,,2,12,14,25,29,31,32,6,24,26,,,2,2,2,11,15,3,15,0,2,0,,,
1571878940,2019-10-24 01:02:20.663,Acquired,Acquired,Acquired,Acquired,Acquired,Acquired,Acquired,Not acquired,Acquired,Not acquired,,,6.7073604E1,7.997762399999999E1,2.70599712E2,3.8626487999999995E1,1.98055712E2,3.03341344E2,2.3764159999999998E2,3.0224867999999997E1,1.4417808E2,2.7429801599999996E2,,,3.2445838E1,3.5530699999999996E1,3.6230004E1,7.9188696E1,6.0444407999999996E1,4.2509403999999996E1,2.8542032E1,1.0692986999999999E1,1.1694802E1,5.464053E0,,,2,12,14,25,29,31,32,6,24,26,,,2,2,2,11,15,3,15,0,2,0,,,
1571879000,2019-10-24 01:03:20.663,Acquired,Acquired,Acquired,Acquired,Acquired,Acquired,Acquired,Not acquired,Acquired,Not acquired,,,6.7073604E1,7.997762399999999E1,2.70599712E2,3.8626487999999995E1,1.98055712E2,3.03341344E2,2.3764159999999998E2,3.0224867999999997E1,1.4417808E2,2.7429801599999996E2,,,3.2445838E1,3.5530699999999996E1,3.6230004E1,7.9188696E1,6.0444407999999996E1,4.2509403999999996E1,2.8542032E1,1.0692986999999999E1,1.1694802E1,5.464053E0,,,2,12,14,25,29,31,32,6,24,26,,,2,2,2,11,15,3,15,0,2,0,,,
1571879060,2019-10-24 01:04:20.663,Acquired,Acquired,Acquired,Acquired,Acquired,Acquired,Acquired,Not acquired,Acquired,Not acquired,,,6.7073604E1,7.997762399999999E1,2.70599712E2,3.8626487999999995E1,1.98055712E2,3.03341344E2,2.3764159999999998E2,3.0224867999999997E1,1.4417808E2,2.7429801599999996E2,,,3.2445838E1,3.5530699999999996E1,3.6230004E1,7.9188696E1,6.0444407999999996E1,4.2509403999999996E1,2.8542032E1,1.0692986999999999E1,1.1694802E1,5.464053E0,,,2,12,14,25,29,31,32,6,24,26,,,2,2,2,11,15,3,15,0,2,0,,,
1571879120,2019-10-24 01:05:20.663,Acquired,Acquired,Acquired,Acquired,Acquired,Acquired,Acquired,Not acquired,Acquired,Not acquired,,,6.7073604E1,7.997762399999999E1,2.70599712E2,3.8626487999999995E1,1.98055712E2,3.03341344E2,2.3764159999999998E2,3.0224867999999997E1,1.4417808E2,2.7429801599999996E2,,,3.2445838E1,3.5530699999999996E1,3.6230004E1,7.9188696E1,6.0444407999999996E1,4.2509403999999996E1,2.8542032E1,1.0692986999999999E1,1.1694802E1,5.464053E0,,,2,12,14,25,29,31,32,6,24,26,,,2,2,2,11,15,3,15,0,2,0,,,
1571879180,2019-10-24 01:06:20.665,Acquired,Acquired,Acquired,Acquired,Acquired,Acquired,Acquired,Not acquired,Acquired,Not acquired,,,6.7073604E1,7.997762399999999E1,2.70599712E2,3.8626487999999995E1,1.98055712E2,3.03341344E2,2.3764159999999998E2,3.0224867999999997E1,1.4417808E2,2.7429801599999996E2,,,3.2445838E1,3.5530699999999996E1,3.6230004E1,7.9188696E1,6.0444407999999996E1,4.2509403999999996E1,2.8542032E1,1.0692986999999999E1,1.1694802E1,5.464053E0,,,2,12,14,25,29,31,32,6,24,26,,,2,2,2,11,15,3,15,0,2,0,,,
1571879240,2019-10-24 01:07:20.663,Acquired,Acquired,Acquired,Acquired,Acquired,Acquired,Acquired,Not acquired,Acquired,Not acquired,,,6.7073604E1,7.997762399999999E1,2.70599712E2,3.8626487999999995E1,1.98055712E2,3.03341344E2,2.3764159999999998E2,3.0224867999999997E1,1.4417808E2,2.7429801599999996E2,,,3.2445838E1,3.5530699999999996E1,3.6230004E1,7.9188696E1,6.0444407999999996E1,4.2509403999999996E1,2.8542032E1,1.0692986999999999E1,1.1694802E1,5.464053E0,,,2,12,14,25,29,31,32,6,24,26,,,2,2,2,11,15,3,15,0,2,0,,,
1571879300,2019-10-24 01:08:20.663,Acquired,Acquired,Acquired,Acquired,Acquired,Acquired,Acquired,Not acquired,Acquired,Not acquired,,,6.7073604E1,7.997762399999999E1,2.70599712E2,3.8626487999999995E1,1.98055712E2,3.03341344E2,2.3764159999999998E2,3.0224867999999997E1,1.4417808E2,2.7429801599999996E2,,,3.2445838E1,3.5530699999999996E1,3.6230004E1,7.9188696E1,6.0444407999999996E1,4.2509403999999996E1,2.8542032E1,1.0692986999999999E1,1.1694802E1,5.464053E0,,,2,12,14,25,29,31,32,6,24,26,,,2,2,2,11,15,3,15,0,2,0,,,
1571879360,2019-10-24 01:09:20.663,Acquired,Acquired,Acquired,Acquired,Acquired,Acquired,Acquired,Not acquired,Acquired,Not acquired,,,6.7073604E1,7.997762399999999E1,2.70599712E2,3.8626487999999995E1,1.98055712E2,3.03341344E2,2.3764159999999998E2,3.0224867999999997E1,1.4417808E2,2.7429801599999996E2,,,3.2445838E1,3.5530699999999996E1,3.6230004E1,7.9188696E1,6.0444407999999996E1,4.2509403999999996E1,2.8542032E1,1.0692986999999999E1,1.1694802E1,5.464053E0,,,2,12,14,25,29,31,32,6,24,26,,,2,2,2,11,15,3,15,0,2,0,,,
1571879420,2019-10-24 01:10:20.663,Acquired,Acquired,Acquired,Acquired,Acquired,Acquired,Acquired,Not acquired,Acquired,Not acquired,,,6.7073604E1,7.997762399999999E1,2.70599712E2,3.8626487999999995E1,1.98055712E2,3.03341344E2,2.3764159999999998E2,3.0224867999999997E1,1.4417808E2,2.7429801599999996E2,,,3.2445838E1,3.5530699999999996E1,3.6230004E1,7.9188696E1,6.0444407999999996E1,4.2509403999999996E1,2.8542032E1,1.0692986999999999E1,1.1694802E1,5.464053E0,,,2,12,14,25,29,31,32,6,24,26,,,2,2,2,11,15,3,15,0,2,0,,,
1571879480,2019-10-24 01:11:20.663,Acquired,Acquired,Acquired,Acquired,Acquired,Acquired,Acquired,Not acquired,Acquired,Not acquired,,,6.7073604E1,7.997762399999999E1,2.70599712E2,3.8626487999999995E1,1.98055712E2,3.03341344E2,2.3764159999999998E2,3.0224867999999997E1,1.4417808E2,2.7429801599999996E2,,,3.2445838E1,3.5530699999999996E1,3.6230004E1,7.9188696E1,6.0444407999999996E1,4.2509403999999996E1,2.8542032E1,1.0692986999999999E1,1.1694802E1,5.464053E0,,,2,12,14,25,29,31,32,6,24,26,,,2,2,2,11,15,3,15,0,2,0,,,
1571879540,2019-10-24 01:12:20.663,Acquired,Acquired,Acquired,Acquired,Acquired,Acquired,Acquired,Not acquired,Acquired,Not acquired,,,6.7073604E1,7.997762399999999E1,2.70599712E2,3.8626487999999995E1,1.98055712E2,3.03341344E2,2.3764159999999998E2,3.0224867999999997E1,1.4417808E2,2.7429801599999996E2,,,3.2445838E1,3.5530699999999996E1,3.6230004E1,7.9188696E1,6.0444407999999996E1,4.2509403999999996E1,2.8542032E1,1.0692986999999999E1,1.1694802E1,5.464053E0,,,2,12,14,25,29,31,32,6,24,26,,,2,2,2,11,15,3,15,0,2,0,,,
1571879600,2019-10-24 01:13:20.663,Acquired,Acquired,Acquired,Acquired,Acquired,Acquired,Acquired,Not acquired,Acquired,Not acquired,,,6.7073604E1,7.997762399999999E1,2.70599712E2,3.8626487999999995E1,1.98055712E2,3.03341344E2,2.3764159999999998E2,3.0224867999999997E1,1.4417808E2,2.7429801599999996E2,,,3.2445838E1,3.5530699999999996E1,3.6230004E1,7.9188696E1,6.0444407999999996E1,4.2509403999999996E1,2.8542032E1,1.0692986999999999E1,1.1694802E1,5.464053E0,,,2,12,14,25,29,31,32,6,24,26,,,2,2,2,11,15,3,15,0,2,0,,,
1571879660,2019-10-24 01:14:20.663,Acquired,Acquired,Acquired,Acquired,Acquired,Acquired,Acquired,Not acquired,Acquired,Not acquired,,,6.7073604E1,7.997762399999999E1,2.70599712E2,3.8626487999999995E1,1.98055712E2,3.03341344E2,2.3764159999999998E2,3.0224867999999997E1,1.4417808E2,2.7429801599999996E2,,,3.2445838E1,3.5530699999999996E1,3.6230004E1,7.9188696E1,6.0444407999999996E1,4.2509403999999996E1,2.8542032E1,1.0692986999999999E1,1.1694802E1,5.464053E0,,,2,12,14,25,29,31,32,6,24,26,,,2,2,2,11,15,3,15,0,2,0,,,
1571879720,2019-10-24 01:15:20.663,Acquired,Acquired,Acquired,Acquired,Acquired,Acquired,Acquired,Not acquired,Acquired,Not acquired,,,6.7073604E1,7.997762399999999E1,2.70599712E2,3.8626487999999995E1,1.98055712E2,3.03341344E2,2.3764159999999998E2,3.0224867999999997E1,1.4417808E2,2.7429801599999996E2,,,3.2445838E1,3.5530699999999996E1,3.6230004E1,7.9188696E1,6.0444407999999996E1,4.2509403999999996E1,2.8542032E1,1.0692986999999999E1,1.1694802E1,5.464053E0,,,2,12,14,25,29,31,32,6,24,26,,,2,2,2,11,15,3,15,0,2,0,,,
1571879780,2019-10-24 01:16:20.664,Acquired,Acquired,Acquired,Acquired,Acquired,Acquired,Acquired,Not acquired,Acquired,Not acquired,,,6.7073604E1,7.997762399999999E1,2.70599712E2,3.8626487999999995E1,1.98055712E2,3.03341344E2,2.3764159999999998E2,3.0224867999999997E1,1.4417808E2,2.7429801599999996E2,,,3.2445838E1,3.5530699999999996E1,3.6230004E1,7.9188696E1,6.0444407999999996E1,4.2509403999999996E1,2.8542032E1,1.0692986999999999E1,1.1694802E1,5.464053E0,,,2,12,14,25,29,31,32,6,24,26,,,2,2,2,11,15,3,15,0,2,0,,,
1571879840,2019-10-24 01:17:20.663,Acquired,Acquired,Acquired,Acquired,Acquired,Acquired,Acquired,Not acquired,Acquired,Not acquired,,,6.7073604E1,7.997762399999999E1,2.70599712E2,3.8626487999999995E1,1.98055712E2,3.03341344E2,2.3764159999999998E2,3.0224867999999997E1,1.4417808E2,2.7429801599999996E2,,,3.2445838E1,3.5530699999999996E1,3.6230004E1,7.9188696E1,6.0444407999999996E1,4.2509403999999996E1,2.8542032E1,1.0692986999999999E1,1.1694802E1,5.464053E0,,,2,12,14,25,29,31,32,6,24,26,,,2,2,2,11,15,3,15,0,2,0,,,
1571879900,2019-10-24 01:18:20.663,Acquired,Acquired,Acquired,Acquired,Acquired,Acquired,Acquired,Not acquired,Acquired,Not acquired,,,6.7073604E1,7.997762399999999E1,2.70599712E2,3.8626487999999995E1,1.98055712E2,3.03341344E2,2.3764159999999998E2,3.0224867999999997E1,1.4417808E2,2.7429801599999996E2,,,3.2445838E1,3.5530699999999996E1,3.6230004E1,7.9188696E1,6.0444407999999996E1,4.2509403999999996E1,2.8542032E1,1.0692986999999999E1,1.1694802E1,5.464053E0,,,2,12,14,25,29,31,32,6,24,26,,,2,2,2,11,15,3,15,0,2,0,,,
1571879960,2019-10-24 01:19:20.663,Acquired,Acquired,Acquired,Acquired,Acquired,Acquired,Acquired,Not acquired,Acquired,Not acquired,,,6.7073604E1,7.997762399999999E1,2.70599712E2,3.8626487999999995E1,1.98055712E2,3.03341344E2,2.3764159999999998E2,3.0224867999999997E1,1.4417808E2,2.7429801599999996E2,,,3.2445838E1,3.5530699999999996E1,3.6230004E1,7.9188696E1,6.0444407999999996E1,4.2509403999999996E1,2.8542032E1,1.0692986999999999E1,1.1694802E1,5.464053E0,,,2,12,14,25,29,31,32,6,24,26,,,2,2,2,11,15,3,15,0,2,0,,,
1571880020,2019-10-24 01:20:20.665,Acquired,Acquired,Acquired,Acquired,Acquired,Acquired,Acquired,Not acquired,Acquired,Not acquired,,,6.7073604E1,7.997762399999999E1,2.70599712E2,3.8626487999999995E1,1.98055712E2,3.03341344E2,2.3764159999999998E2,3.0224867999999997E1,1.4417808E2,2.7429801599999996E2,,,3.2445838E1,3.5530699999999996E1,3.6230004E1,7.9188696E1,6.0444407999999996E1,4.2509403999999996E1,2.8542032E1,1.0692986999999999E1,1.1694802E1,5.464053E0,,,2,12,14,25,29,31,32,6,24,26,,,2,2,2,11,15,3,15,0,2,0,,,
1571880080,2019-10-24 01:21:20.663,Acquired,Acquired,Acquired,Acquired,Acquired,Acquired,Acquired,Not acquired,Acquired,Not acquired,,,6.7073604E1,7.997762399999999E1,2.70599712E2,3.8626487999999995E1,1.98055712E2,3.03341344E2,2.3764159999999998E2,3.0224867999999997E1,1.4417808E2,2.7429801599999996E2,,,3.2445838E1,3.5530699999999996E1,3.6230004E1,7.9188696E1,6.0444407999999996E1,4.2509403999999996E1,2.8542032E1,1.0692986999999999E1,1.1694802E1,5.464053E0,,,2,12,14,25,29,31,32,6,24,26,,,2,2,2,11,15,3,15,0,2,0,,,
1571880140,2019-10-24 01:22:20.663,Acquired,Acquired,Acquired,Acquired,Acquired,Acquired,Acquired,Not acquired,Acquired,Not acquired,,,6.7073604E1,7.997762399999999E1,2.70599712E2,3.8626487999999995E1,1.98055712E2,3.03341344E2,2.3764159999999998E2,3.0224867999999997E1,1.4417808E2,2.7429801599999996E2,,,3.2445838E1,3.5530699999999996E1,3.6230004E1,7.9188696E1,6.0444407999999996E1,4.2509403999999996E1,2.8542032E1,1.0692986999999999E1,1.1694802E1,5.464053E0,,,2,12,14,25,29,31,32,6,24,26,,,2,2,2,11,15,3,15,0,2,0,,,
1571880200,2019-10-24 01:23:20.665,Acquired,Acquired,Acquired,Acquired,Acquired,Acquired,Acquired,Not acquired,Acquired,Not acquired,,,6.7073604E1,7.997762399999999E1,2.70599712E2,3.8626487999999995E1,1.98055712E2,3.03341344E2,2.3764159999999998E2,3.0224867999999997E1,1.4417808E2,2.7429801599999996E2,,,3.2445838E1,3.5530699999999996E1,3.6230004E1,7.9188696E1,6.0444407999999996E1,4.2509403999999996E1,2.8542032E1,1.0692986999999999E1,1.1694802E1,5.464053E0,,,2,12,14,25,29,31,32,6,24,26,,,2,2,2,11,15,3,15,0,2,0,,,
1571880260,2019-10-24 01:24:20.663,Acquired,Acquired,Acquired,Acquired,Acquired,Acquired,Acquired,Not acquired,Acquired,Not acquired,,,6.7073604E1,7.997762399999999E1,2.70599712E2,3.8626487999999995E1,1.98055712E2,3.03341344E2,2.3764159999999998E2,3.0224867999999997E1,1.4417808E2,2.7429801599999996E2,,,3.2445838E1,3.5530699999999996E1,3.6230004E1,7.9188696E1,6.0444407999999996E1,4.2509403999999996E1,2.8542032E1,1.0692986999999999E1,1.1694802E1,5.464053E0,,,2,12,14,25,29,31,32,6,24,26,,,2,2,2,11,15,3,15,0,2,0,,,
1571880320,2019-10-24 01:25:20.663,Acquired,Acquired,Acquired,Acquired,Acquired,Acquired,Acquired,Not acquired,Acquired,Not acquired,,,6.7073604E1,7.997762399999999E1,2.70599712E2,3.8626487999999995E1,1.98055712E2,3.03341344E2,2.3764159999999998E2,3.0224867999999997E1,1.4417808E2,2.7429801599999996E2,,,3.2445838E1,3.5530699999999996E1,3.6230004E1,7.9188696E1,6.0444407999999996E1,4.2509403999999996E1,2.8542032E1,1.0692986999999999E1,1.1694802E1,5.464053E0,,,2,12,14,25,29,31,32,6,24,26,,,2,2,2,11,15,3,15,0,2,0,,,
1571880380,2019-10-24 01:26:20.663,Acquired,Acquired,Acquired,Acquired,Acquired,Acquired,Acquired,Not acquired,Acquired,Not acquired,,,6.7073604E1,7.997762399999999E1,2.70599712E2,3.8626487999999995E1,1.98055712E2,3.03341344E2,2.3764159999999998E2,3.0224867999999997E1,1.4417808E2,2.7429801599999996E2,,,3.2445838E1,3.5530699999999996E1,3.6230004E1,7.9188696E1,6.0444407999999996E1,4.2509403999999996E1,2.8542032E1,1.0692986999999999E1,1.1694802E1,5.464053E0,,,2,12,14,25,29,31,32,6,24,26,,,2,2,2,11,15,3,15,0,2,0,,,
1571880440,2019-10-24 01:27:20.663,Acquired,Acquired,Acquired,Acquired,Acquired,Acquired,Acquired,Not acquired,Acquired,Not acquired,,,6.7073604E1,7.997762399999999E1,2.70599712E2,3.8626487999999995E1,1.98055712E2,3.03341344E2,2.3764159999999998E2,3.0224867999999997E1,1.4417808E2,2.7429801599999996E2,,,3.2445838E1,3.5530699999999996E1,3.6230004E1,7.9188696E1,6.0444407999999996E1,4.2509403999999996E1,2.8542032E1,1.0692986999999999E1,1.1694802E1,5.464053E0,,,2,12,14,25,29,31,32,6,24,26,,,2,2,2,11,15,3,15,0,2,0,,,
1571880500,2019-10-24 01:28:20.663,Acquired,Acquired,Acquired,Acquired,Acquired,Acquired,Acquired,Not acquired,Acquired,Not acquired,,,6.7073604E1,7.997762399999999E1,2.70599712E2,3.8626487999999995E1,1.98055712E2,3.03341344E2,2.3764159999999998E2,3.0224867999999997E1,1.4417808E2,2.7429801599999996E2,,,3.2445838E1,3.5530699999999996E1,3.6230004E1,7.9188696E1,6.0444407999999996E1,4.2509403999999996E1,2.8542032E1,1.0692986999999999E1,1.1694802E1,5.464053E0,,,2,12,14,25,29,31,32,6,24,26,,,2,2,2,11,15,3,15,0,2,0,,,
1571880560,2019-10-24 01:29:20.663,Acquired,Acquired,Acquired,Acquired,Acquired,Acquired,Acquired,Not acquired,Acquired,Not acquired,,,6.7073604E1,7.997762399999999E1,2.70599712E2,3.8626487999999995E1,1.98055712E2,3.03341344E2,2.3764159999999998E2,3.0224867999999997E1,1.4417808E2,2.7429801599999996E2,,,3.2445838E1,3.5530699999999996E1,3.6230004E1,7.9188696E1,6.0444407999999996E1,4.2509403999999996E1,2.8542032E1,1.0692986999999999E1,1.1694802E1,5.464053E0,,,2,12,14,25,29,31,32,6,24,26,,,2,2,2,11,15,3,15,0,2,0,,,
1571880620,2019-10-24 01:30:20.663,Acquired,Acquired,Acquired,Acquired,Acquired,Acquired,Acquired,Not acquired,Acquired,Not acquired,,,6.7073604E1,7.997762399999999E1,2.70599712E2,3.8626487999999995E1,1.98055712E2,3.03341344E2,2.3764159999999998E2,3.0224867999999997E1,1.4417808E2,2.7429801599999996E2,,,3.2445838E1,3.5530699999999996E1,3.6230004E1,7.9188696E1,6.0444407999999996E1,4.2509403999999996E1,2.8542032E1,1.0692986999999999E1,1.1694802E1,5.464053E0,,,2,12,14,25,29,31,32,6,24,26,,,2,2,2,11,15,3,15,0,2,0,,,
1571880680,2019-10-24 01:31:20.663,Acquired,Acquired,Acquired,Acquired,Acquired,Acquired,Acquired,Not acquired,Acquired,Not acquired,,,6.7073604E1,7.997762399999999E1,2.70599712E2,3.8626487999999995E1,1.98055712E2,3.03341344E2,2.3764159999999998E2,3.0224867999999997E1,1.4417808E2,2.7429801599999996E2,,,3.2445838E1,3.5530699999999996E1,3.6230004E1,7.9188696E1,6.0444407999999996E1,4.2509403999999996E1,2.8542032E1,1.0692986999999999E1,1.1694802E1,5.464053E0,,,2,12,14,25,29,31,32,6,24,26,,,2,2,2,11,15,3,15,0,2,0,,,
1571880740,2019-10-24 01:32:20.663,Acquired,Acquired,Acquired,Acquired,Acquired,Acquired,Acquired,Not acquired,Acquired,Not acquired,,,6.7073604E1,7.997762399999999E1,2.70599712E2,3.8626487999999995E1,1.98055712E2,3.03341344E2,2.3764159999999998E2,3.0224867999999997E1,1.4417808E2,2.7429801599999996E2,,,3.2445838E1,3.5530699999999996E1,3.6230004E1,7.9188696E1,6.0444407999999996E1,4.2509403999999996E1,2.8542032E1,1.0692986999999999E1,1.1694802E1,5.464053E0,,,2,12,14,25,29,31,32,6,24,26,,,2,2,2,11,15,3,15,0,2,0,,,
1571880800,2019-10-24 01:33:20.663,Acquired,Acquired,Acquired,Acquired,Acquired,Acquired,Acquired,Not acquired,Acquired,Not acquired,,,6.7073604E1,7.997762399999999E1,2.70599712E2,3.8626487999999995E1,1.98055712E2,3.03341344E2,2.3764159999999998E2,3.0224867999999997E1,1.4417808E2,2.7429801599999996E2,,,3.2445838E1,3.5530699999999996E1,3.6230004E1,7.9188696E1,6.0444407999999996E1,4.2509403999999996E1,2.8542032E1,1.0692986999999999E1,1.1694802E1,5.464053E0,,,2,12,14,25,29,31,32,6,24,26,,,2,2,2,11,15,3,15,0,2,0,,,
1571880860,2019-10-24 01:34:20.663,Acquired,Acquired,Acquired,Acquired,Acquired,Acquired,Acquired,Not acquired,Acquired,Not acquired,,,6.7073604E1,7.997762399999999E1,2.70599712E2,3.8626487999999995E1,1.98055712E2,3.03341344E2,2.3764159999999998E2,3.0224867999999997E1,1.4417808E2,2.7429801599999996E2,,,3.2445838E1,3.5530699999999996E1,3.6230004E1,7.9188696E1,6.0444407999999996E1,4.2509403999999996E1,2.8542032E1,1.0692986999999999E1,1.1694802E1,5.464053E0,,,2,12,14,25,29,31,32,6,24,26,,,2,2,2,11,15,3,15,0,2,0,,,
1571880920,2019-10-24 01:35:20.663,Acquired,Acquired,Acquired,Acquired,Acquired,Acquired,Acquired,Not acquired,Acquired,Not acquired,,,6.7073604E1,7.997762399999999E1,2.70599712E2,3.8626487999999995E1,1.98055712E2,3.03341344E2,2.3764159999999998E2,3.0224867999999997E1,1.4417808E2,2.7429801599999996E2,,,3.2445838E1,3.5530699999999996E1,3.6230004E1,7.9188696E1,6.0444407999999996E1,4.2509403999999996E1,2.8542032E1,1.0692986999999999E1,1.1694802E1,5.464053E0,,,2,12,14,25,29,31,32,6,24,26,,,2,2,2,11,15,3,15,0,2,0,,,
1571880980,2019-10-24 01:36:20.663,Acquired,Acquired,Acquired,Acquired,Acquired,Acquired,Acquired,Not acquired,Acquired,Not acquired,,,6.7073604E1,7.997762399999999E1,2.70599712E2,3.8626487999999995E1,1.98055712E2,3.03341344E2,2.3764159999999998E2,3.0224867999999997E1,1.4417808E2,2.7429801599999996E2,,,3.2445838E1,3.5530699999999996E1,3.6230004E1,7.9188696E1,6.0444407999999996E1,4.2509403999999996E1,2.8542032E1,1.0692986999999999E1,1.1694802E1,5.464053E0,,,2,12,14,25,29,31,32,6,24,26,,,2,2,2,11,15,3,15,0,2,0,,,
1571881040,2019-10-24 01:37:20.663,Acquired,Acquired,Acquired,Acquired,Acquired,Acquired,Acquired,Not acquired,Acquired,Not acquired,,,6.7073604E1,7.997762399999999E1,2.70599712E2,3.8626487999999995E1,1.98055712E2,3.03341344E2,2.3764159999999998E2,3.0224867999999997E1,1.4417808E2,2.7429801599999996E2,,,3.2445838E1,3.5530699999999996E1,3.6230004E1,7.9188696E1,6.0444407999999996E1,4.2509403999999996E1,2.8542032E1,1.0692986999999999E1,1.1694802E1,5.464053E0,,,2,12,14,25,29,31,32,6,24,26,,,2,2,2,11,15,3,15,0,2,0,,,
1571881100,2019-10-24 01:38:20.663,Acquired,Acquired,Acquired,Acquired,Acquired,Acquired,Acquired,Not acquired,Acquired,Not acquired,,,6.7073604E1,7.997762399999999E1,2.70599712E2,3.8626487999999995E1,1.98055712E2,3.03341344E2,2.3764159999999998E2,3.0224867999999997E1,1.4417808E2,2.7429801599999996E2,,,3.2445838E1,3.5530699999999996E1,3.6230004E1,7.9188696E1,6.0444407999999996E1,4.2509403999999996E1,2.8542032E1,1.0692986999999999E1,1.1694802E1,5.464053E0,,,2,12,14,25,29,31,32,6,24,26,,,2,2,2,11,15,3,15,0,2,0,,,
1571881160,2019-10-24 01:39:20.665,Acquired,Acquired,Acquired,Acquired,Acquired,Acquired,Acquired,Not acquired,Acquired,Not acquired,,,6.7073604E1,7.997762399999999E1,2.70599712E2,3.8626487999999995E1,1.98055712E2,3.03341344E2,2.3764159999999998E2,3.0224867999999997E1,1.4417808E2,2.7429801599999996E2,,,3.2445838E1,3.5530699999999996E1,3.6230004E1,7.9188696E1,6.0444407999999996E1,4.2509403999999996E1,2.8542032E1,1.0692986999999999E1,1.1694802E1,5.464053E0,,,2,12,14,25,29,31,32,6,24,26,,,2,2,2,11,15,3,15,0,2,0,,,
1571881220,2019-10-24 01:40:20.665,Acquired,Acquired,Acquired,Acquired,Acquired,Acquired,Acquired,Not acquired,Acquired,Not acquired,,,6.7073604E1,7.997762399999999E1,2.70599712E2,3.8626487999999995E1,1.98055712E2,3.03341344E2,2.3764159999999998E2,3.0224867999999997E1,1.4417808E2,2.7429801599999996E2,,,3.2445838E1,3.5530699999999996E1,3.6230004E1,7.9188696E1,6.0444407999999996E1,4.2509403999999996E1,2.8542032E1,1.0692986999999999E1,1.1694802E1,5.464053E0,,,2,12,14,25,29,31,32,6,24,26,,,2,2,2,11,15,3,15,0,2,0,,,
1571881280,2019-10-24 01:41:20.663,Acquired,Acquired,Acquired,Acquired,Acquired,Acquired,Acquired,Not acquired,Acquired,Not acquired,,,6.7073604E1,7.997762399999999E1,2.70599712E2,3.8626487999999995E1,1.98055712E2,3.03341344E2,2.3764159999999998E2,3.0224867999999997E1,1.4417808E2,2.7429801599999996E2,,,3.2445838E1,3.5530699999999996E1,3.6230004E1,7.9188696E1,6.0444407999999996E1,4.2509403999999996E1,2.8542032E1,1.0692986999999999E1,1.1694802E1,5.464053E0,,,2,12,14,25,29,31,32,6,24,26,,,2,2,2,11,15,3,15,0,2,0,,,
1571881340,2019-10-24 01:42:20.663,Acquired,Acquired,Acquired,Acquired,Acquired,Acquired,Acquired,Not acquired,Acquired,Not acquired,,,6.7073604E1,7.997762399999999E1,2.70599712E2,3.8626487999999995E1,1.98055712E2,3.03341344E2,2.3764159999999998E2,3.0224867999999997E1,1.4417808E2,2.7429801599999996E2,,,3.2445838E1,3.5530699999999996E1,3.6230004E1,7.9188696E1,6.0444407999999996E1,4.2509403999999996E1,2.8542032E1,1.0692986999999999E1,1.1694802E1,5.464053E0,,,2,12,14,25,29,31,32,6,24,26,,,2,2,2,11,15,3,15,0,2,0,,,
1571881400,2019-10-24 01:43:20.663,Acquired,Acquired,Acquired,Acquired,Acquired,Acquired,Acquired,Not acquired,Acquired,Not acquired,,,6.7073604E1,7.997762399999999E1,2.70599712E2,3.8626487999999995E1,1.98055712E2,3.03341344E2,2.3764159999999998E2,3.0224867999999997E1,1.4417808E2,2.7429801599999996E2,,,3.2445838E1,3.5530699999999996E1,3.6230004E1,7.9188696E1,6.0444407999999996E1,4.2509403999999996E1,2.8542032E1,1.0692986999999999E1,1.1694802E1,5.464053E0,,,2,12,14,25,29,31,32,6,24,26,,,2,2,2,11,15,3,15,0,2,0,,,
1571881460,2019-10-24 01:44:20.663,Acquired,Acquired,Acquired,Acquired,Acquired,Acquired,Acquired,Not acquired,Acquired,Not acquired,,,6.7073604E1,7.997762399999999E1,2.70599712E2,3.8626487999999995E1,1.98055712E2,3.03341344E2,2.3764159999999998E2,3.0224867999999997E1,1.4417808E2,2.7429801599999996E2,,,3.2445838E1,3.5530699999999996E1,3.6230004E1,7.9188696E1,6.0444407999999996E1,4.2509403999999996E1,2.8542032E1,1.0692986999999999E1,1.1694802E1,5.464053E0,,,2,12,14,25,29,31,32,6,24,26,,,2,2,2,11,15,3,15,0,2,0,,,
1571881520,2019-10-24 01:45:20.663,Acquired,Acquired,Acquired,Acquired,Acquired,Acquired,Acquired,Not acquired,Acquired,Not acquired,,,6.7073604E1,7.997762399999999E1,2.70599712E2,3.8626487999999995E1,1.98055712E2,3.03341344E2,2.3764159999999998E2,3.0224867999999997E1,1.4417808E2,2.7429801599999996E2,,,3.2445838E1,3.5530699999999996E1,3.6230004E1,7.9188696E1,6.0444407999999996E1,4.2509403999999996E1,2.8542032E1,1.0692986999999999E1,1.1694802E1,5.464053E0,,,2,12,14,25,29,31,32,6,24,26,,,2,2,2,11,15,3,15,0,2,0,,,
1571881580,2019-10-24 01:46:20.663,Acquired,Acquired,Acquired,Acquired,Acquired,Acquired,Acquired,Not acquired,Acquired,Not acquired,,,6.7073604E1,7.997762399999999E1,2.70599712E2,3.8626487999999995E1,1.98055712E2,3.03341344E2,2.3764159999999998E2,3.0224867999999997E1,1.4417808E2,2.7429801599999996E2,,,3.2445838E1,3.5530699999999996E1,3.6230004E1,7.9188696E1,6.0444407999999996E1,4.2509403999999996E1,2.8542032E1,1.0692986999999999E1,1.1694802E1,5.464053E0,,,2,12,14,25,29,31,32,6,24,26,,,2,2,2,11,15,3,15,0,2,0,,,
1571881640,2019-10-24 01:47:20.663,Acquired,Acquired,Acquired,Acquired,Acquired,Acquired,Acquired,Not acquired,Acquired,Not acquired,,,6.7073604E1,7.997762399999999E1,2.70599712E2,3.8626487999999995E1,1.98055712E2,3.03341344E2,2.3764159999999998E2,3.0224867999999997E1,1.4417808E2,2.7429801599999996E2,,,3.2445838E1,3.5530699999999996E1,3.6230004E1,7.9188696E1,6.0444407999999996E1,4.2509403999999996E1,2.8542032E1,1.0692986999999999E1,1.1694802E1,5.464053E0,,,2,12,14,25,29,31,32,6,24,26,,,2,2,2,11,15,3,15,0,2,0,,,
1571881700,2019-10-24 01:48:20.663,Acquired,Acquired,Acquired,Acquired,Acquired,Acquired,Acquired,Not acquired,Acquired,Not acquired,,,6.7073604E1,7.997762399999999E1,2.70599712E2,3.8626487999999995E1,1.98055712E2,3.03341344E2,2.3764159999999998E2,3.0224867999999997E1,1.4417808E2,2.7429801599999996E2,,,3.2445838E1,3.5530699999999996E1,3.6230004E1,7.9188696E1,6.0444407999999996E1,4.2509403999999996E1,2.8542032E1,1.0692986999999999E1,1.1694802E1,5.464053E0,,,2,12,14,25,29,31,32,6,24,26,,,2,2,2,11,15,3,15,0,2,0,,,
1571881760,2019-10-24 01:49:20.663,Acquired,Acquired,Acquired,Acquired,Acquired,Acquired,Acquired,Not acquired,Acquired,Not acquired,,,6.7073604E1,7.997762399999999E1,2.70599712E2,3.8626487999999995E1,1.98055712E2,3.03341344E2,2.3764159999999998E2,3.0224867999999997E1,1.4417808E2,2.7429801599999996E2,,,3.2445838E1,3.5530699999999996E1,3.6230004E1,7.9188696E1,6.0444407999999996E1,4.2509403999999996E1,2.8542032E1,1.0692986999999999E1,1.1694802E1,5.464053E0,,,2,12,14,25,29,31,32,6,24,26,,,2,2,2,11,15,3,15,0,2,0,,,
1571881820,2019-10-24 01:50:20.663,Acquired,Acquired,Acquired,Acquired,Acquired,Acquired,Acquired,Not acquired,Acquired,Not acquired,,,6.7073604E1,7.997762399999999E1,2.70599712E2,3.8626487999999995E1,1.98055712E2,3.03341344E2,2.3764159999999998E2,3.0224867999999997E1,1.4417808E2,2.7429801599999996E2,,,3.2445838E1,3.5530699999999996E1,3.6230004E1,7.9188696E1,6.0444407999999996E1,4.2509403999999996E1,2.8542032E1,1.0692986999999999E1,1.1694802E1,5.464053E0,,,2,12,14,25,29,31,32,6,24,26,,,2,2,2,11,15,3,15,0,2,0,,,
1571881880,2019-10-24 01:51:20.663,Acquired,Acquired,Acquired,Acquired,Acquired,Acquired,Acquired,Not acquired,Acquired,Not acquired,,,6.7073604E1,7.997762399999999E1,2.70599712E2,3.8626487999999995E1,1.98055712E2,3.03341344E2,2.3764159999999998E2,3.0224867999999997E1,1.4417808E2,2.7429801599999996E2,,,3.2445838E1,3.5530699999999996E1,3.6230004E1,7.9188696E1,6.0444407999999996E1,4.2509403999999996E1,2.8542032E1,1.0692986999999999E1,1.1694802E1,5.464053E0,,,2,12,14,25,29,31,32,6,24,26,,,2,2,2,11,15,3,15,0,2,0,,,
1571881940,2019-10-24 01:52:20.663,Acquired,Acquired,Acquired,Acquired,Acquired,Acquired,Acquired,Not acquired,Acquired,Not acquired,,,6.7073604E1,7.997762399999999E1,2.70599712E2,3.8626487999999995E1,1.98055712E2,3.03341344E2,2.3764159999999998E2,3.0224867999999997E1,1.4417808E2,2.7429801599999996E2,,,3.2445838E1,3.5530699999999996E1,3.6230004E1,7.9188696E1,6.0444407999999996E1,4.2509403999999996E1,2.8542032E1,1.0692986999999999E1,1.1694802E1,5.464053E0,,,2,12,14,25,29,31,32,6,24,26,,,2,2,2,11,15,3,15,0,2,0,,,
1571882000,2019-10-24 01:53:20.694,Acquired,Acquired,Acquired,Acquired,Acquired,Acquired,Acquired,Not acquired,Acquired,Not acquired,,,6.7073604E1,7.997762399999999E1,2.70599712E2,3.8626487999999995E1,1.98055712E2,3.03341344E2,2.3764159999999998E2,3.0224867999999997E1,1.4417808E2,2.7429801599999996E2,,,3.2445838E1,3.5530699999999996E1,3.6230004E1,7.9188696E1,6.0444407999999996E1,4.2509403999999996E1,2.8542032E1,1.0692986999999999E1,1.1694802E1,5.464053E0,,,2,12,14,25,29,31,32,6,24,26,,,2,2,2,11,15,3,15,0,2,0,,,
1571882060,2019-10-24 01:54:20.663,Acquired,Acquired,Acquired,Acquired,Acquired,Acquired,Acquired,Not acquired,Acquired,Not acquired,,,6.7073604E1,7.997762399999999E1,2.70599712E2,3.8626487999999995E1,1.98055712E2,3.03341344E2,2.3764159999999998E2,3.0224867999999997E1,1.4417808E2,2.7429801599999996E2,,,3.2445838E1,3.5530699999999996E1,3.6230004E1,7.9188696E1,6.0444407999999996E1,4.2509403999999996E1,2.8542032E1,1.0692986999999999E1,1.1694802E1,5.464053E0,,,2,12,14,25,29,31,32,6,24,26,,,2,2,2,11,15,3,15,0,2,0,,,
1571882120,2019-10-24 01:55:20.664,Acquired,Acquired,Acquired,Acquired,Acquired,Acquired,Acquired,Not acquired,Acquired,Not acquired,,,6.7073604E1,7.997762399999999E1,2.70599712E2,3.8626487999999995E1,1.98055712E2,3.03341344E2,2.3764159999999998E2,3.0224867999999997E1,1.4417808E2,2.7429801599999996E2,,,3.2445838E1,3.5530699999999996E1,3.6230004E1,7.9188696E1,6.0444407999999996E1,4.2509403999999996E1,2.8542032E1,1.0692986999999999E1,1.1694802E1,5.464053E0,,,2,12,14,25,29,31,32,6,24,26,,,2,2,2,11,15,3,15,0,2,0,,,
1571882180,2019-10-24 01:56:20.664,Not acquired,Not acquired,Acquired,Acquired,Acquired,Acquired,Acquired,Not acquired,Acquired,,,,4.8499759999999995E1,9.2565496E1,2.4991943999999998E2,8.445901599999999E1,2.84447616E2,1.81209296E2,2.866664E2,1.78760096E2,2.2451944E2,,,,2.5878016E1,1.909958E1,2.6174803999999998E1,6.2863783999999995E1,2.1360827999999998E1,8.2330384E1,5.8920348E1,9.740605E0,1.2594114E1,,,,2,12,14,25,26,29,31,21,32,,,,0,0,7,16,2,15,12,0,4,,,,
1571882240,2019-10-24 01:57:20.664,Not acquired,Acquired,Acquired,Not acquired,Acquired,Acquired,Not acquired,Not acquired,Not acquired,Not acquired,,,2.906368E2,1.74005408E2,1.07268768E2,2.9498912E2,5.6006547999999995E1,2.32973952E2,3.631678E1,7.0348856E1,2.32090272E2,3.24845888E2,,,1.667604E1,3.5212648E1,3.9991868E1,4.3804624E1,6.8097008E1,6.0425323999999996E1,8.932356E0,1.0705331E1,7.417653E0,8.213277999999999E0,,,16,21,25,26,29,31,2,5,14,23,,,0,11,5,0,16,12,0,0,0,0,,,
1571882300,2019-10-24 01:58:20.664,Not acquired,Acquired,Acquired,Acquired,Acquired,Acquired,Not acquired,Not acquired,Not acquired,Not acquired,,,2.90850144E2,1.73899872E2,1.0758523199999999E2,2.95126976E2,5.6006356E1,2.32153216E2,3.6208391999999996E1,6.995962399999999E1,2.31823424E2,3.24474432E2,,,1.7055562E1,3.5678564E1,3.9592304E1,4.422576E1,6.7632824E1,6.0167924E1,8.591877E0,1.0876999999999999E1,7.077461E0,8.254873E0,,,16,21,25,26,29,31,2,5,14,23,,,0,10,4,3,15,13,0,0,0,0,,,
1571882360,2019-10-24 01:59:20.663,Not acquired,Acquired,Acquired,Acquired,Acquired,Acquired,Not acquired,Not acquired,Not acquired,Not acquired,,,2.90850144E2,1.73899872E2,1.0758523199999999E2,2.95126976E2,5.6006356E1,2.32153216E2,3.6208391999999996E1,6.995962399999999E1,2.31823424E2,3.24474432E2,,,1.7055562E1,3.5678564E1,3.9592304E1,4.422576E1,6.7632824E1,6.0167924E1,8.591877E0,1.0876999999999999E1,7.077461E0,8.254873E0,,,16,21,25,26,29,31,2,5,14,23,,,0,10,4,3,15,13,0,0,0,0,,,
