Time(longsecs),Time(UTC),Earth Location,GPS Receiver Status,GPS Satellites Used,GPS PDOP,GPS TDOP,Timing Status,Timing Phase Lock,Timing Uncertainty(ns),DAC Count,Timing Error(ns),GPS Last Update Time,
1571929220,2019-10-24 15:00:20.663,47.644946N 0.58683E 208m,Off,6,4.6432276,3.1689272,Time OK,Free running,9800,9182,0,2019-10-24 14:50:07.000000000,
1571929280,2019-10-24 15:01:20.663,47.644946N 0.58683E 208m,Off,6,4.6432276,3.1689272,Time OK,Free running,10700,9182,0,2019-10-24 14:50:07.000000000,
1571929340,2019-10-24 15:02:20.663,47.644946N 0.58683E 208m,Off,6,4.6432276,3.1689272,Time OK,Free running,11900,9182,0,2019-10-24 14:50:07.000000000,
1571929400,2019-10-24 15:03:20.663,47.644946N 0.58683E 208m,Off,6,4.6432276,3.1689272,Time OK,Free running,13100,9182,0,2019-10-24 14:50:07.000000000,
1571929460,2019-10-24 15:04:20.663,47.644946N 0.58683E 208m,Off,6,4.6432276,3.1689272,Time OK,Free running,14400,9182,0,2019-10-24 14:50:07.000000000,
1571929520,2019-10-24 15:05:20.663,47.644946N 0.58683E 208m,Off,6,4.6432276,3.1689272,Time OK,Free running,15700,9182,0,2019-10-24 14:50:07.000000000,
1571929580,2019-10-24 15:06:20.696,47.644946N 0.58683E 208m,Off,6,4.6432276,3.1689272,Time OK,Free running,16900,9182,0,2019-10-24 14:50:07.000000000,
1571929640,2019-10-24 15:07:20.663,47.644946N 0.58683E 208m,Off,6,4.6432276,3.1689272,Time OK,Free running,18300,9182,0,2019-10-24 14:50:07.000000000,
1571929700,2019-10-24 15:08:20.663,47.644946N 0.58683E 208m,Off,6,4.6432276,3.1689272,Time OK,Free running,19500,9182,0,2019-10-24 14:50:07.000000000,
1571929760,2019-10-24 15:09:20.663,47.644946N 0.58683E 208m,Off,6,4.6432276,3.1689272,Time OK,Free running,20500,9182,0,2019-10-24 14:50:07.000000000,
1571929820,2019-10-24 15:10:20.663,47.644946N 0.58683E 208m,Off,6,4.6432276,3.1689272,Time OK,Free running,21900,9182,0,2019-10-24 14:50:07.000000000,
1571929880,2019-10-24 15:11:20.663,47.644946N 0.58683E 208m,Off,6,4.6432276,3.1689272,Time OK,Free running,23600,9182,0,2019-10-24 14:50:07.000000000,
1571929940,2019-10-24 15:12:20.663,47.644946N 0.58683E 208m,Off,6,4.6432276,3.1689272,Time OK,Free running,25000,9182,0,2019-10-24 14:50:07.000000000,
1571930000,2019-10-24 15:13:20.663,47.644946N 0.58683E 208m,Off,6,4.6432276,3.1689272,Time OK,Free running,26400,9182,0,2019-10-24 14:50:07.000000000,
1571930060,2019-10-24 15:14:20.663,47.644946N 0.58683E 208m,Off,6,4.6432276,3.1689272,Time OK,Free running,27900,9182,0,2019-10-24 14:50:07.000000000,
1571930120,2019-10-24 15:15:20.663,47.644946N 0.58683E 208m,Off,6,4.6432276,3.1689272,Time OK,Free running,29600,9182,0,2019-10-24 14:50:07.000000000,
1571930180,2019-10-24 15:16:20.663,47.644946N 0.58683E 208m,Off,6,4.6432276,3.1689272,Time OK,Free running,31600,9182,0,2019-10-24 14:50:07.000000000,
1571930240,2019-10-24 15:17:20.663,47.644946N 0.58683E 208m,Off,6,4.6432276,3.1689272,Time OK,Free running,33500,9182,0,2019-10-24 14:50:07.000000000,
1571930300,2019-10-24 15:18:20.663,47.644946N 0.58683E 208m,Off,6,4.6432276,3.1689272,Time OK,Free running,35200,9182,0,2019-10-24 14:50:07.000000000,
1571930360,2019-10-24 15:19:20.663,47.644946N 0.58683E 208m,Off,6,4.6432276,3.1689272,Time OK,Free running,37000,9182,0,2019-10-24 14:50:07.000000000,
1571930420,2019-10-24 15:20:20.663,47.644946N 0.58683E 208m,Off,6,4.6432276,3.1689272,Time OK,Free running,38900,9182,0,2019-10-24 14:50:07.000000000,
1571930480,2019-10-24 15:21:20.663,47.644946N 0.58683E 208m,Off,6,4.6432276,3.1689272,Time OK,Free running,40700,9182,0,2019-10-24 14:50:07.000000000,
1571930540,2019-10-24 15:22:20.663,47.644946N 0.58683E 208m,Off,6,4.6432276,3.1689272,Time OK,Free running,42500,9182,0,2019-10-24 14:50:07.000000000,
1571930600,2019-10-24 15:23:20.663,47.644946N 0.58683E 208m,Off,6,4.6432276,3.1689272,Time OK,Free running,44300,9182,0,2019-10-24 14:50:07.000000000,
1571930660,2019-10-24 15:24:20.673,47.644946N 0.58683E 208m,Off,6,4.6432276,3.1689272,Time OK,Free running,46400,9182,0,2019-10-24 14:50:07.000000000,
1571930720,2019-10-24 15:25:20.697,47.644946N 0.58683E 208m,Off,6,4.6432276,3.1689272,Time OK,Free running,48700,9182,0,2019-10-24 14:50:07.000000000,
1571930780,2019-10-24 15:26:20.663,47.644946N 0.58683E 208m,Off,6,4.6432276,3.1689272,Time OK,Free running,50700,9182,0,2019-10-24 14:50:07.000000000,
1571930840,2019-10-24 15:27:20.664,47.644946N 0.58683E 208m,No GPS time,4,5.499082,4.1940184,Time OK,Free running,53200,9182,0,2019-10-24 15:27:17.000000000,
1571930900,2019-10-24 15:28:20.664,47.644946N 0.58683E 208m,Doing fixes,6,3.9954383,2.8766255,Time OK,Fine lock,100,9139,-208,2019-10-24 15:28:17.000000000,
1571930960,2019-10-24 15:29:20.664,47.644946N 0.58683E 208m,Doing fixes,6,2.666191,1.6906369,Time OK,Fine lock,100,9144,0,2019-10-24 15:29:17.000000000,
1571931020,2019-10-24 15:30:20.664,47.644946N 0.58683E 208m,Doing fixes,6,2.647729,1.6736037,Time OK,Fine lock,100,9144,0,2019-10-24 15:30:17.000000000,
1571931080,2019-10-24 15:31:20.663,47.644946N 0.58683E 208m,Off,6,2.641988,1.668206,Time OK,Free running,600,9142,0,2019-10-24 15:30:37.000000000,
1571931140,2019-10-24 15:32:20.673,47.644946N 0.58683E 208m,Off,6,2.641988,1.668206,Time OK,Free running,1500,9142,0,2019-10-24 15:30:37.000000000,
1571931200,2019-10-24 15:33:20.663,47.644946N 0.58683E 208m,Off,6,2.641988,1.668206,Time OK,Free running,2400,9142,0,2019-10-24 15:30:37.000000000,
1571931260,2019-10-24 15:34:20.702,47.644946N 0.58683E 208m,Off,6,2.641988,1.668206,Time OK,Free running,3500,9142,0,2019-10-24 15:30:37.000000000,
1571931320,2019-10-24 15:35:20.663,47.644946N 0.58683E 208m,Off,6,2.641988,1.668206,Time OK,Free running,4600,9142,0,2019-10-24 15:30:37.000000000,
1571931380,2019-10-24 15:36:20.663,47.644946N 0.58683E 208m,Off,6,2.641988,1.668206,Time OK,Free running,5800,9142,0,2019-10-24 15:30:37.000000000,
1571931440,2019-10-24 15:37:20.663,47.644946N 0.58683E 208m,Off,6,2.641988,1.668206,Time OK,Free running,7100,9142,0,2019-10-24 15:30:37.000000000,
1571931500,2019-10-24 15:38:20.664,47.644946N 0.58683E 208m,Off,6,2.641988,1.668206,Time OK,Free running,8300,9142,0,2019-10-24 15:30:37.000000000,
1571931560,2019-10-24 15:39:20.663,47.644946N 0.58683E 208m,Off,6,2.641988,1.668206,Time OK,Free running,9500,9142,0,2019-10-24 15:30:37.000000000,
1571931620,2019-10-24 15:40:20.663,47.644946N 0.58683E 208m,Off,6,2.641988,1.668206,Time OK,Free running,10600,9142,0,2019-10-24 15:30:37.000000000,
1571931680,2019-10-24 15:41:20.663,47.644946N 0.58683E 208m,Off,6,2.641988,1.668206,Time OK,Free running,12000,9142,0,2019-10-24 15:30:37.000000000,
1571931740,2019-10-24 15:42:20.663,47.644946N 0.58683E 208m,Off,6,2.641988,1.668206,Time OK,Free running,13700,9142,0,2019-10-24 15:30:37.000000000,
1571931800,2019-10-24 15:43:20.663,47.644946N 0.58683E 208m,Off,6,2.641988,1.668206,Time OK,Free running,15100,9142,0,2019-10-24 15:30:37.000000000,
1571931860,2019-10-24 15:44:20.663,47.644946N 0.58683E 208m,Off,6,2.641988,1.668206,Time OK,Free running,16600,9142,0,2019-10-24 15:30:37.000000000,
1571931920,2019-10-24 15:45:20.665,47.644946N 0.58683E 208m,Off,6,2.641988,1.668206,Time OK,Free running,18400,9142,0,2019-10-24 15:30:37.000000000,
1571931980,2019-10-24 15:46:20.663,47.644946N 0.58683E 208m,Off,6,2.641988,1.668206,Time OK,Free running,20200,9142,0,2019-10-24 15:30:37.000000000,
1571932040,2019-10-24 15:47:20.663,47.644946N 0.58683E 208m,Off,6,2.641988,1.668206,Time OK,Free running,21800,9142,0,2019-10-24 15:30:37.000000000,
1571932100,2019-10-24 15:48:20.663,47.644946N 0.58683E 208m,Off,6,2.641988,1.668206,Time OK,Free running,23500,9142,0,2019-10-24 15:30:37.000000000,
1571932160,2019-10-24 15:49:20.663,47.644946N 0.58683E 208m,Off,6,2.641988,1.668206,Time OK,Free running,25400,9142,0,2019-10-24 15:30:37.000000000,
1571932220,2019-10-24 15:50:20.663,47.644946N 0.58683E 208m,Off,6,2.641988,1.668206,Time OK,Free running,27400,9142,0,2019-10-24 15:30:37.000000000,
1571932280,2019-10-24 15:51:20.663,47.644946N 0.58683E 208m,Off,6,2.641988,1.668206,Time OK,Free running,29500,9142,0,2019-10-24 15:30:37.000000000,
1571932340,2019-10-24 15:52:20.663,47.644946N 0.58683E 208m,Off,6,2.641988,1.668206,Time OK,Free running,31500,9142,0,2019-10-24 15:30:37.000000000,
1571932400,2019-10-24 15:53:20.663,47.644946N 0.58683E 208m,Off,6,2.641988,1.668206,Time OK,Free running,33600,9142,0,2019-10-24 15:30:37.000000000,
1571932460,2019-10-24 15:54:20.663,47.644946N 0.58683E 208m,Off,6,2.641988,1.668206,Time OK,Free running,36000,9142,0,2019-10-24 15:30:37.000000000,
1571932520,2019-10-24 15:55:20.665,47.644946N 0.58683E 208m,Off,6,2.641988,1.668206,Time OK,Free running,38400,9142,0,2019-10-24 15:30:37.000000000,
1571932580,2019-10-24 15:56:20.663,47.644946N 0.58683E 208m,Off,6,2.641988,1.668206,Time OK,Free running,40600,9142,0,2019-10-24 15:30:37.000000000,
1571932640,2019-10-24 15:57:20.663,47.644946N 0.58683E 208m,Off,6,2.641988,1.668206,Time OK,Free running,42900,9142,0,2019-10-24 15:30:37.000000000,
1571932700,2019-10-24 15:58:20.663,47.644946N 0.58683E 208m,Off,6,2.641988,1.668206,Time OK,Free running,45100,9142,0,2019-10-24 15:30:37.000000000,
1571932760,2019-10-24 15:59:20.663,47.644946N 0.58683E 208m,Off,6,2.641988,1.668206,Time OK,Free running,47500,9142,0,2019-10-24 15:30:37.000000000,
