Time(longsecs),Time(UTC),Supply Voltage(mV),Temperature(&deg;C),NMX Bus Current(mA),Sensor Current(mA),Serial Port Current(mA),Controller Current(mA),Digitizer Current(mA),
1569891617,2019-10-01 01:00:17.385,16400,2.0708588E1,0,7,0,0,36,
1569891677,2019-10-01 01:01:17.385,16400,2.0838226E1,0,8,0,0,39,
1569891737,2019-10-01 01:02:17.385,16400,2.0904114E1,0,7,0,0,35,
1569891797,2019-10-01 01:03:17.385,16346,2.0826355E1,0,4,0,47,39,
1569891857,2019-10-01 01:04:17.385,16360,2.1075867E1,0,8,0,38,39,
1569891917,2019-10-01 01:05:17.385,16346,2.0934357E1,0,9,0,38,41,
1569891977,2019-10-01 01:06:17.385,16346,2.0967865E1,0,11,0,38,37,
1569892037,2019-10-01 01:07:17.385,16346,2.111908E1,0,11,0,41,36,
1569892097,2019-10-01 01:08:17.385,16346,2.1105042E1,0,9,0,38,41,
1569892157,2019-10-01 01:09:17.385,16346,2.116446E1,0,10,0,40,36,
1569892217,2019-10-01 01:10:17.385,16360,2.1277893E1,0,9,0,38,39,
1569892277,2019-10-01 01:11:17.385,16360,2.1243317E1,0,8,0,40,39,
1569892337,2019-10-01 01:12:17.385,16346,2.1351349E1,0,4,0,40,36,
1569892397,2019-10-01 01:13:17.385,16387,2.1076965E1,0,9,0,0,36,
1569892457,2019-10-01 01:14:17.385,16387,2.1205505E1,0,11,0,0,37,
1569892517,2019-10-01 01:15:17.385,16373,2.111261E1,0,5,0,0,42,
1569892577,2019-10-01 01:16:17.385,16400,2.106723E1,0,6,0,0,36,
1569892637,2019-10-01 01:17:17.385,16414,2.1137451E1,0,9,0,0,35,
1569892697,2019-10-01 01:18:17.385,16400,2.0966766E1,0,7,0,0,37,
1569892757,2019-10-01 01:19:17.385,16400,2.1240082E1,0,12,0,0,37,
1569892817,2019-10-01 01:20:17.385,16400,2.115149E1,0,8,0,0,39,
1569892877,2019-10-01 01:21:17.385,16400,2.0970001E1,0,7,0,0,38,
1569892937,2019-10-01 01:22:17.385,16400,2.1029419E1,84,9,0,0,38,
1569892997,2019-10-01 01:23:17.385,16400,2.0967865E1,0,9,0,0,36,
1569893057,2019-10-01 01:24:17.385,16400,2.0898712E1,0,10,0,0,35,
1569893117,2019-10-01 01:25:17.385,16400,2.0959198E1,0,6,0,0,37,
1569893177,2019-10-01 01:26:17.385,16387,2.1074799E1,0,8,0,0,41,
1569893237,2019-10-01 01:27:17.385,16346,2.0747498E1,0,5,0,42,36,
1569893297,2019-10-01 01:28:17.385,16346,2.097757E1,0,8,0,39,38,
1569893357,2019-10-01 01:29:17.391,16346,2.090628E1,0,3,0,34,38,
1569893417,2019-10-01 01:30:17.385,16346,2.1024017E1,0,9,0,39,36,
1569893477,2019-10-01 01:31:17.385,16346,2.1024017E1,0,7,0,39,36,
1569893537,2019-10-01 01:32:17.385,16332,2.1288666E1,0,7,0,40,36,
1569893597,2019-10-01 01:33:17.385,16346,2.1159058E1,0,6,0,38,40,
1569893657,2019-10-01 01:34:17.385,16346,2.127356E1,0,9,0,40,39,
1569893717,2019-10-01 01:35:17.385,16332,2.1359985E1,0,6,0,54,38,
1569893777,2019-10-01 01:36:17.385,16387,2.1236816E1,0,7,0,0,36,
1569893837,2019-10-01 01:37:17.387,16387,2.121524E1,0,7,0,0,35,
1569893897,2019-10-01 01:38:17.385,16387,2.101648E1,0,10,0,0,38,
1569893957,2019-10-01 01:39:17.387,16373,2.1222778E1,0,9,0,0,42,
1569894017,2019-10-01 01:40:17.385,16400,2.103592E1,0,8,0,0,35,
1569894077,2019-10-01 01:41:17.385,16387,2.1095306E1,0,7,0,0,40,
1569894137,2019-10-01 01:42:17.386,16373,2.0999176E1,0,5,0,3,39,
1569894197,2019-10-01 01:43:17.385,16387,2.1083435E1,0,8,0,2,37,
1569894257,2019-10-01 01:44:17.385,16387,2.0930054E1,0,6,0,0,38,
1569894317,2019-10-01 01:45:17.385,16387,2.1007812E1,0,9,0,0,38,
1569894377,2019-10-01 01:46:17.387,16400,2.0985138E1,0,7,0,0,35,
1569894437,2019-10-01 01:47:17.385,16400,2.0995941E1,0,7,0,0,43,
1569894497,2019-10-01 01:48:17.385,16387,2.0930054E1,0,7,0,0,39,
1569894557,2019-10-01 01:49:17.385,16387,2.0936523E1,0,4,0,0,39,
1569894617,2019-10-01 01:50:17.385,16373,2.0985138E1,0,8,0,0,40,
1569894677,2019-10-01 01:51:17.387,16387,2.0974335E1,0,6,0,0,36,
1569894737,2019-10-01 01:52:17.385,16387,2.0988373E1,0,5,0,0,37,
1569894797,2019-10-01 01:53:17.385,16332,2.0931122E1,0,6,0,40,39,
1569894857,2019-10-01 01:54:17.385,16346,2.110611E1,89,6,0,39,36,
1569894917,2019-10-01 01:55:17.425,16332,2.1250885E1,0,9,0,39,40,
1569894977,2019-10-01 01:56:17.385,16346,2.1004578E1,0,7,0,38,37,
1569895037,2019-10-01 01:57:17.430,16332,2.1130981E1,0,14,0,39,38,
1569895097,2019-10-01 01:58:17.385,16332,2.1290833E1,0,6,0,39,36,
1569895157,2019-10-01 01:59:17.385,16332,2.1142853E1,0,7,0,39,35,
