Time(longsecs),Time(UTC),Earth Location,GPS Receiver Status,GPS Satellites Used,GPS PDOP,GPS TDOP,Timing Status,Timing Phase Lock,Timing Uncertainty(ns),DAC Count,Timing Error(ns),GPS Last Update Time,
1571076026,2019-10-14 18:00:26.438,47.638734N 0.549084E 172m,Off,7,2.080021,1.1571383,Time OK,Free running,37500,8956,0,2019-10-14 17:40:22.000000000,
1571076086,2019-10-14 18:01:26.438,47.638734N 0.549084E 172m,Off,7,2.080021,1.1571383,Time OK,Free running,40800,8956,0,2019-10-14 17:40:22.000000000,
1571076146,2019-10-14 18:02:26.438,47.638734N 0.549084E 172m,Off,7,2.080021,1.1571383,Time OK,Free running,44100,8956,0,2019-10-14 17:40:22.000000000,
1571076206,2019-10-14 18:03:26.438,47.638734N 0.549084E 172m,Off,7,2.080021,1.1571383,Time OK,Free running,47200,8956,0,2019-10-14 17:40:22.000000000,
1571076266,2019-10-14 18:04:26.438,47.638734N 0.549084E 172m,Off,7,2.080021,1.1571383,Time OK,Free running,50400,8956,0,2019-10-14 17:40:22.000000000,
1571076326,2019-10-14 18:05:26.439,47.638734N 0.549084E 172m,No GPS time,7,2.080021,1.1571383,Time OK,Free running,53900,8956,0,2019-10-14 17:40:22.000000000,
1571076386,2019-10-14 18:06:26.439,47.638734N 0.549084E 172m,Doing fixes,8,2.3591464,1.3520029,Time OK,Coarse lock,100,8218,4062,2019-10-14 18:06:22.000000000,
1571076446,2019-10-14 18:07:26.439,47.638734N 0.549084E 172m,Doing fixes,8,2.3672147,1.3580883,Time OK,Fine lock,100,8900,0,2019-10-14 18:07:22.000000000,
1571076506,2019-10-14 18:08:26.439,47.638734N 0.549084E 172m,Doing fixes,8,2.3736863,1.3630449,Time OK,Fine lock,100,8896,0,2019-10-14 18:08:22.000000000,
1571076566,2019-10-14 18:09:26.439,47.638734N 0.549084E 172m,Off,8,2.3761108,1.3649341,Time OK,Free running,500,8896,0,2019-10-14 18:08:52.000000000,
1571076626,2019-10-14 18:10:26.438,47.638734N 0.549084E 172m,Off,8,2.3761108,1.3649341,Time OK,Free running,1600,8896,0,2019-10-14 18:08:52.000000000,
1571076686,2019-10-14 18:11:26.438,47.638734N 0.549084E 172m,Off,8,2.3761108,1.3649341,Time OK,Free running,2600,8896,0,2019-10-14 18:08:52.000000000,
1571076746,2019-10-14 18:12:26.438,47.638734N 0.549084E 172m,Off,8,2.3761108,1.3649341,Time OK,Free running,3800,8896,0,2019-10-14 18:08:52.000000000,
1571076806,2019-10-14 18:13:26.441,47.638734N 0.549084E 172m,Off,8,2.3761108,1.3649341,Time OK,Free running,5100,8896,0,2019-10-14 18:08:52.000000000,
1571076866,2019-10-14 18:14:26.438,47.638734N 0.549084E 172m,Off,8,2.3761108,1.3649341,Time OK,Free running,6200,8896,0,2019-10-14 18:08:52.000000000,
1571076926,2019-10-14 18:15:26.438,47.638734N 0.549084E 172m,Off,8,2.3761108,1.3649341,Time OK,Free running,7200,8896,0,2019-10-14 18:08:52.000000000,
1571076986,2019-10-14 18:16:26.438,47.638734N 0.549084E 172m,Off,8,2.3761108,1.3649341,Time OK,Free running,8300,8896,0,2019-10-14 18:08:52.000000000,
1571077046,2019-10-14 18:17:26.438,47.638734N 0.549084E 172m,Off,8,2.3761108,1.3649341,Time OK,Free running,9600,8896,0,2019-10-14 18:08:52.000000000,
1571077106,2019-10-14 18:18:26.439,47.638734N 0.549084E 172m,Off,8,2.3761108,1.3649341,Time OK,Free running,10900,8896,0,2019-10-14 18:08:52.000000000,
1571077166,2019-10-14 18:19:26.438,47.638734N 0.549084E 172m,Off,8,2.3761108,1.3649341,Time OK,Free running,12300,8896,0,2019-10-14 18:08:52.000000000,
1571077226,2019-10-14 18:20:26.441,47.638734N 0.549084E 172m,Off,8,2.3761108,1.3649341,Time OK,Free running,13900,8896,0,2019-10-14 18:08:52.000000000,
1571077286,2019-10-14 18:21:26.438,47.638734N 0.549084E 172m,Off,8,2.3761108,1.3649341,Time OK,Free running,15400,8896,0,2019-10-14 18:08:52.000000000,
1571077346,2019-10-14 18:22:26.438,47.638734N 0.549084E 172m,Off,8,2.3761108,1.3649341,Time OK,Free running,17000,8896,0,2019-10-14 18:08:52.000000000,
1571077406,2019-10-14 18:23:26.438,47.638734N 0.549084E 172m,Off,8,2.3761108,1.3649341,Time OK,Free running,18500,8896,0,2019-10-14 18:08:52.000000000,
1571077466,2019-10-14 18:24:26.439,47.638734N 0.549084E 172m,Off,8,2.3761108,1.3649341,Time OK,Free running,20100,8896,0,2019-10-14 18:08:52.000000000,
1571077526,2019-10-14 18:25:26.438,47.638734N 0.549084E 172m,Off,8,2.3761108,1.3649341,Time OK,Free running,22000,8896,0,2019-10-14 18:08:52.000000000,
1571077586,2019-10-14 18:26:26.438,47.638734N 0.549084E 172m,Off,8,2.3761108,1.3649341,Time OK,Free running,24100,8896,0,2019-10-14 18:08:52.000000000,
1571077646,2019-10-14 18:27:26.438,47.638734N 0.549084E 172m,Off,8,2.3761108,1.3649341,Time OK,Free running,26100,8896,0,2019-10-14 18:08:52.000000000,
1571077706,2019-10-14 18:28:26.456,47.638734N 0.549084E 172m,Off,8,2.3761108,1.3649341,Time OK,Free running,28000,8896,0,2019-10-14 18:08:52.000000000,
1571077766,2019-10-14 18:29:26.438,47.638734N 0.549084E 172m,Off,8,2.3761108,1.3649341,Time OK,Free running,30000,8896,0,2019-10-14 18:08:52.000000000,
1571077826,2019-10-14 18:30:26.438,47.638734N 0.549084E 172m,Off,8,2.3761108,1.3649341,Time OK,Free running,32200,8896,0,2019-10-14 18:08:52.000000000,
1571077886,2019-10-14 18:31:26.439,47.638734N 0.549084E 172m,Off,8,2.3761108,1.3649341,Time OK,Free running,34700,8896,0,2019-10-14 18:08:52.000000000,
1571077946,2019-10-14 18:32:26.439,47.638734N 0.549084E 172m,Off,8,2.3761108,1.3649341,Time OK,Free running,37400,8896,0,2019-10-14 18:08:52.000000000,
1571078006,2019-10-14 18:33:26.441,47.638734N 0.549084E 172m,Off,8,2.3761108,1.3649341,Time OK,Free running,40000,8896,0,2019-10-14 18:08:52.000000000,
1571078066,2019-10-14 18:34:26.438,47.638734N 0.549084E 172m,Off,8,2.3761108,1.3649341,Time OK,Free running,42400,8896,0,2019-10-14 18:08:52.000000000,
1571078126,2019-10-14 18:35:26.438,47.638734N 0.549084E 172m,Off,8,2.3761108,1.3649341,Time OK,Free running,45000,8896,0,2019-10-14 18:08:52.000000000,
1571078186,2019-10-14 18:36:26.438,47.638734N 0.549084E 172m,Off,8,2.3761108,1.3649341,Time OK,Free running,47900,8896,0,2019-10-14 18:08:52.000000000,
1571078246,2019-10-14 18:37:26.438,47.638734N 0.549084E 172m,Off,8,2.3761108,1.3649341,Time OK,Free running,50900,8896,0,2019-10-14 18:08:52.000000000,
1571078306,2019-10-14 18:38:26.439,47.638734N 0.549084E 172m,Doing fixes,7,2.2647934,1.3295228,Time OK,Free running,53900,8896,0,2019-10-14 18:38:22.000000000,
1571078366,2019-10-14 18:39:26.439,47.638734N 0.549084E 172m,Doing fixes,7,2.244677,1.3141103,Time OK,Coarse lock,100,8868,-520,2019-10-14 18:39:22.000000000,
1571078426,2019-10-14 18:40:26.438,47.638734N 0.549084E 172m,Off,7,2.2288873,1.3019335,Time OK,Free running,200,8841,0,2019-10-14 18:40:12.000000000,
1571078486,2019-10-14 18:41:26.438,47.638734N 0.549084E 172m,Off,7,2.2288873,1.3019335,Time OK,Free running,1200,8841,0,2019-10-14 18:40:12.000000000,
1571078546,2019-10-14 18:42:26.438,47.638734N 0.549084E 172m,Off,7,2.2288873,1.3019335,Time OK,Free running,2700,8841,0,2019-10-14 18:40:12.000000000,
1571078606,2019-10-14 18:43:26.438,47.638734N 0.549084E 172m,Off,7,2.2288873,1.3019335,Time OK,Free running,3900,8841,0,2019-10-14 18:40:12.000000000,
1571078666,2019-10-14 18:44:26.438,47.638734N 0.549084E 172m,Off,7,2.2288873,1.3019335,Time OK,Free running,4700,8841,0,2019-10-14 18:40:12.000000000,
1571078726,2019-10-14 18:45:26.438,47.638734N 0.549084E 172m,Off,7,2.2288873,1.3019335,Time OK,Free running,5700,8841,0,2019-10-14 18:40:12.000000000,
1571078786,2019-10-14 18:46:26.441,47.638734N 0.549084E 172m,Off,7,2.2288873,1.3019335,Time OK,Free running,6600,8841,0,2019-10-14 18:40:12.000000000,
1571078846,2019-10-14 18:47:26.438,47.638734N 0.549084E 172m,Off,7,2.2288873,1.3019335,Time OK,Free running,7400,8841,0,2019-10-14 18:40:12.000000000,
1571078906,2019-10-14 18:48:26.438,47.638734N 0.549084E 172m,Off,7,2.2288873,1.3019335,Time OK,Free running,8300,8841,0,2019-10-14 18:40:12.000000000,
1571078966,2019-10-14 18:49:26.446,47.638734N 0.549084E 172m,Off,7,2.2288873,1.3019335,Time OK,Free running,9100,8841,0,2019-10-14 18:40:12.000000000,
1571079026,2019-10-14 18:50:26.438,47.638734N 0.549084E 172m,Off,7,2.2288873,1.3019335,Time OK,Free running,10000,8841,0,2019-10-14 18:40:12.000000000,
1571079086,2019-10-14 18:51:26.438,47.638734N 0.549084E 172m,Off,7,2.2288873,1.3019335,Time OK,Free running,11300,8841,0,2019-10-14 18:40:12.000000000,
1571079146,2019-10-14 18:52:26.455,47.638734N 0.549084E 172m,Off,7,2.2288873,1.3019335,Time OK,Free running,12600,8841,0,2019-10-14 18:40:12.000000000,
1571079206,2019-10-14 18:53:26.438,47.638734N 0.549084E 172m,Off,7,2.2288873,1.3019335,Time OK,Free running,13900,8841,0,2019-10-14 18:40:12.000000000,
1571079266,2019-10-14 18:54:26.438,47.638734N 0.549084E 172m,Off,7,2.2288873,1.3019335,Time OK,Free running,15500,8841,0,2019-10-14 18:40:12.000000000,
1571079326,2019-10-14 18:55:26.441,47.638734N 0.549084E 172m,Off,7,2.2288873,1.3019335,Time OK,Free running,16900,8841,0,2019-10-14 18:40:12.000000000,
1571079386,2019-10-14 18:56:26.438,47.638734N 0.549084E 172m,Off,7,2.2288873,1.3019335,Time OK,Free running,18200,8841,0,2019-10-14 18:40:12.000000000,
1571079446,2019-10-14 18:57:26.438,47.638734N 0.549084E 172m,Off,7,2.2288873,1.3019335,Time OK,Free running,19900,8841,0,2019-10-14 18:40:12.000000000,
1571079506,2019-10-14 18:58:26.438,47.638734N 0.549084E 172m,Off,7,2.2288873,1.3019335,Time OK,Free running,21500,8841,0,2019-10-14 18:40:12.000000000,
1571079566,2019-10-14 18:59:26.439,47.638734N 0.549084E 172m,Off,7,2.2288873,1.3019335,Time OK,Free running,22900,8841,0,2019-10-14 18:40:12.000000000,
