Time(longsecs),Time(UTC),Earth Location,GPS Receiver Status,GPS Satellites Used,GPS PDOP,GPS TDOP,Timing Status,Timing Phase Lock,Timing Uncertainty(ns),DAC Count,Timing Error(ns),GPS Last Update Time,
1571054426,2019-10-14 12:00:26.438,47.638714N 0.549101E 171m,Off,11,1.5654069,0.8579019,Time OK,Free running,11600,9112,0,2019-10-14 11:50:13.000000000,
1571054486,2019-10-14 12:01:26.439,47.638714N 0.549101E 171m,Off,11,1.5654069,0.8579019,Time OK,Free running,13300,9112,0,2019-10-14 11:50:13.000000000,
1571054546,2019-10-14 12:02:26.438,47.638714N 0.549101E 171m,Off,11,1.5654069,0.8579019,Time OK,Free running,14700,9112,0,2019-10-14 11:50:13.000000000,
1571054606,2019-10-14 12:03:26.438,47.638714N 0.549101E 171m,Off,11,1.5654069,0.8579019,Time OK,Free running,16000,9112,0,2019-10-14 11:50:13.000000000,
1571054666,2019-10-14 12:04:26.438,47.638714N 0.549101E 171m,Off,11,1.5654069,0.8579019,Time OK,Free running,17600,9112,0,2019-10-14 11:50:13.000000000,
1571054726,2019-10-14 12:05:26.439,47.638714N 0.549101E 171m,Off,11,1.5654069,0.8579019,Time OK,Free running,19100,9112,0,2019-10-14 11:50:13.000000000,
1571054786,2019-10-14 12:06:26.438,47.638714N 0.549101E 171m,Off,11,1.5654069,0.8579019,Time OK,Free running,20800,9112,0,2019-10-14 11:50:13.000000000,
1571054846,2019-10-14 12:07:26.438,47.638714N 0.549101E 171m,Off,11,1.5654069,0.8579019,Time OK,Free running,22800,9112,0,2019-10-14 11:50:13.000000000,
1571054906,2019-10-14 12:08:26.441,47.638714N 0.549101E 171m,Off,11,1.5654069,0.8579019,Time OK,Free running,24800,9112,0,2019-10-14 11:50:13.000000000,
1571054966,2019-10-14 12:09:26.441,47.638714N 0.549101E 171m,Off,11,1.5654069,0.8579019,Time OK,Free running,26800,9112,0,2019-10-14 11:50:13.000000000,
1571055026,2019-10-14 12:10:26.439,47.638714N 0.549101E 171m,Off,11,1.5654069,0.8579019,Time OK,Free running,28800,9112,0,2019-10-14 11:50:13.000000000,
1571055086,2019-10-14 12:11:26.456,47.638714N 0.549101E 171m,Off,11,1.5654069,0.8579019,Time OK,Free running,30800,9112,0,2019-10-14 11:50:13.000000000,
1571055146,2019-10-14 12:12:26.439,47.638714N 0.549101E 171m,Off,11,1.5654069,0.8579019,Time OK,Free running,33000,9112,0,2019-10-14 11:50:13.000000000,
1571055206,2019-10-14 12:13:26.438,47.638714N 0.549101E 171m,Off,11,1.5654069,0.8579019,Time OK,Free running,35400,9112,0,2019-10-14 11:50:13.000000000,
1571055266,2019-10-14 12:14:26.438,47.638714N 0.549101E 171m,Off,11,1.5654069,0.8579019,Time OK,Free running,37500,9112,0,2019-10-14 11:50:13.000000000,
1571055326,2019-10-14 12:15:26.438,47.638714N 0.549101E 171m,Off,11,1.5654069,0.8579019,Time OK,Free running,39700,9112,0,2019-10-14 11:50:13.000000000,
1571055386,2019-10-14 12:16:26.441,47.638714N 0.549101E 171m,Off,11,1.5654069,0.8579019,Time OK,Free running,42400,9112,0,2019-10-14 11:50:13.000000000,
1571055446,2019-10-14 12:17:26.438,47.638714N 0.549101E 171m,Off,11,1.5654069,0.8579019,Time OK,Free running,45200,9112,0,2019-10-14 11:50:13.000000000,
1571055506,2019-10-14 12:18:26.438,47.638714N 0.549101E 171m,Off,11,1.5654069,0.8579019,Time OK,Free running,47700,9112,0,2019-10-14 11:50:13.000000000,
1571055566,2019-10-14 12:19:26.438,47.638714N 0.549101E 171m,Off,11,1.5654069,0.8579019,Time OK,Free running,50500,9112,0,2019-10-14 11:50:13.000000000,
1571055626,2019-10-14 12:20:26.439,47.638714N 0.549101E 171m,No GPS time,0,0.0,0.0,Time OK,Free running,53200,9112,0,2019-10-14 12:20:22.000000000,
1571055686,2019-10-14 12:21:26.439,47.638714N 0.549101E 171m,Doing fixes,10,1.7747782,1.0211995,Time OK,Fine lock,100,9120,416,2019-10-14 12:21:23.000000000,
1571055746,2019-10-14 12:22:26.439,47.638714N 0.549101E 171m,Doing fixes,10,1.7697694,1.0168474,Time OK,Fine lock,100,9142,0,2019-10-14 12:22:23.000000000,
1571055806,2019-10-14 12:23:26.438,47.638714N 0.549101E 171m,Off,10,1.7689395,1.0161455,Time OK,Free running,800,9142,0,2019-10-14 12:22:33.000000000,
1571055866,2019-10-14 12:24:26.438,47.638714N 0.549101E 171m,Off,10,1.7689395,1.0161455,Time OK,Free running,1600,9142,0,2019-10-14 12:22:33.000000000,
1571055926,2019-10-14 12:25:26.439,47.638714N 0.549101E 171m,Off,10,1.7689395,1.0161455,Time OK,Free running,2500,9142,0,2019-10-14 12:22:33.000000000,
1571055986,2019-10-14 12:26:26.439,47.638714N 0.549101E 171m,Off,10,1.7689395,1.0161455,Time OK,Free running,3500,9142,0,2019-10-14 12:22:33.000000000,
1571056046,2019-10-14 12:27:26.438,47.638714N 0.549101E 171m,Off,10,1.7689395,1.0161455,Time OK,Free running,4300,9142,0,2019-10-14 12:22:33.000000000,
1571056106,2019-10-14 12:28:26.439,47.638714N 0.549101E 171m,Off,10,1.7689395,1.0161455,Time OK,Free running,5200,9142,0,2019-10-14 12:22:33.000000000,
1571056166,2019-10-14 12:29:26.438,47.638714N 0.549101E 171m,Off,10,1.7689395,1.0161455,Time OK,Free running,6200,9142,0,2019-10-14 12:22:33.000000000,
1571056226,2019-10-14 12:30:26.438,47.638714N 0.549101E 171m,Off,10,1.7689395,1.0161455,Time OK,Free running,7100,9142,0,2019-10-14 12:22:33.000000000,
1571056286,2019-10-14 12:31:26.438,47.638714N 0.549101E 171m,Off,10,1.7689395,1.0161455,Time OK,Free running,8200,9142,0,2019-10-14 12:22:33.000000000,
1571056346,2019-10-14 12:32:26.438,47.638714N 0.549101E 171m,Off,10,1.7689395,1.0161455,Time OK,Free running,9300,9142,0,2019-10-14 12:22:33.000000000,
1571056406,2019-10-14 12:33:26.439,47.638714N 0.549101E 171m,Off,10,1.7689395,1.0161455,Time OK,Free running,10400,9142,0,2019-10-14 12:22:33.000000000,
1571056466,2019-10-14 12:34:26.438,47.638714N 0.549101E 171m,Off,10,1.7689395,1.0161455,Time OK,Free running,11800,9142,0,2019-10-14 12:22:33.000000000,
1571056526,2019-10-14 12:35:26.439,47.638714N 0.549101E 171m,Off,10,1.7689395,1.0161455,Time OK,Free running,13300,9142,0,2019-10-14 12:22:33.000000000,
1571056586,2019-10-14 12:36:26.438,47.638714N 0.549101E 171m,Off,10,1.7689395,1.0161455,Time OK,Free running,14500,9142,0,2019-10-14 12:22:33.000000000,
1571056646,2019-10-14 12:37:26.438,47.638714N 0.549101E 171m,Off,10,1.7689395,1.0161455,Time OK,Free running,16000,9142,0,2019-10-14 12:22:33.000000000,
1571056706,2019-10-14 12:38:26.438,47.638714N 0.549101E 171m,Off,10,1.7689395,1.0161455,Time OK,Free running,17500,9142,0,2019-10-14 12:22:33.000000000,
1571056766,2019-10-14 12:39:26.438,47.638714N 0.549101E 171m,Off,10,1.7689395,1.0161455,Time OK,Free running,18700,9142,0,2019-10-14 12:22:33.000000000,
1571056826,2019-10-14 12:40:26.439,47.638714N 0.549101E 171m,Off,10,1.7689395,1.0161455,Time OK,Free running,19900,9142,0,2019-10-14 12:22:33.000000000,
1571056886,2019-10-14 12:41:26.438,47.638714N 0.549101E 171m,Off,10,1.7689395,1.0161455,Time OK,Free running,21200,9142,0,2019-10-14 12:22:33.000000000,
1571056946,2019-10-14 12:42:26.438,47.638714N 0.549101E 171m,Off,10,1.7689395,1.0161455,Time OK,Free running,22600,9142,0,2019-10-14 12:22:33.000000000,
1571057006,2019-10-14 12:43:26.438,47.638714N 0.549101E 171m,Off,10,1.7689395,1.0161455,Time OK,Free running,24300,9142,0,2019-10-14 12:22:33.000000000,
1571057066,2019-10-14 12:44:26.438,47.638714N 0.549101E 171m,Off,10,1.7689395,1.0161455,Time OK,Free running,25900,9142,0,2019-10-14 12:22:33.000000000,
1571057126,2019-10-14 12:45:26.456,47.638714N 0.549101E 171m,Off,10,1.7689395,1.0161455,Time OK,Free running,27500,9142,0,2019-10-14 12:22:33.000000000,
1571057186,2019-10-14 12:46:26.439,47.638714N 0.549101E 171m,Off,10,1.7689395,1.0161455,Time OK,Free running,29400,9142,0,2019-10-14 12:22:33.000000000,
1571057246,2019-10-14 12:47:26.438,47.638714N 0.549101E 171m,Off,10,1.7689395,1.0161455,Time OK,Free running,31300,9142,0,2019-10-14 12:22:33.000000000,
1571057306,2019-10-14 12:48:26.438,47.638714N 0.549101E 171m,Off,10,1.7689395,1.0161455,Time OK,Free running,33100,9142,0,2019-10-14 12:22:33.000000000,
1571057366,2019-10-14 12:49:26.439,47.638714N 0.549101E 171m,Off,10,1.7689395,1.0161455,Time OK,Free running,34800,9142,0,2019-10-14 12:22:33.000000000,
1571057426,2019-10-14 12:50:26.438,47.638714N 0.549101E 171m,Off,10,1.7689395,1.0161455,Time OK,Free running,36600,9142,0,2019-10-14 12:22:33.000000000,
1571057486,2019-10-14 12:51:26.438,47.638714N 0.549101E 171m,Off,10,1.7689395,1.0161455,Time OK,Free running,38400,9142,0,2019-10-14 12:22:33.000000000,
1571057546,2019-10-14 12:52:26.438,47.638714N 0.549101E 171m,Off,10,1.7689395,1.0161455,Time OK,Free running,40200,9142,0,2019-10-14 12:22:33.000000000,
1571057606,2019-10-14 12:53:26.438,47.638714N 0.549101E 171m,Off,10,1.7689395,1.0161455,Time OK,Free running,42200,9142,0,2019-10-14 12:22:33.000000000,
1571057666,2019-10-14 12:54:26.438,47.638714N 0.549101E 171m,Off,10,1.7689395,1.0161455,Time OK,Free running,44000,9142,0,2019-10-14 12:22:33.000000000,
1571057726,2019-10-14 12:55:26.438,47.638714N 0.549101E 171m,Off,10,1.7689395,1.0161455,Time OK,Free running,45700,9142,0,2019-10-14 12:22:33.000000000,
1571057786,2019-10-14 12:56:26.456,47.638714N 0.549101E 171m,Off,10,1.7689395,1.0161455,Time OK,Free running,47500,9142,0,2019-10-14 12:22:33.000000000,
1571057846,2019-10-14 12:57:26.438,47.638714N 0.549101E 171m,Off,10,1.7689395,1.0161455,Time OK,Free running,49400,9142,0,2019-10-14 12:22:33.000000000,
1571057906,2019-10-14 12:58:26.438,47.638714N 0.549101E 171m,Off,10,1.7689395,1.0161455,Time OK,Free running,51200,9142,0,2019-10-14 12:22:33.000000000,
1571057966,2019-10-14 12:59:26.439,47.638714N 0.549101E 171m,Doing fixes,10,1.503739,0.7583984,Time OK,Coarse lock,100,9227,-104,2019-10-14 12:59:22.000000000,
