Time(longsecs),Time(UTC),GPS Satellite Acquisition Flag 1,GPS Satellite Acquisition Flag 2,GPS Satellite Acquisition Flag 3,GPS Satellite Acquisition Flag 4,GPS Satellite Acquisition Flag 5,GPS Satellite Acquisition Flag 6,GPS Satellite Acquisition Flag 7,GPS Satellite Acquisition Flag 8,GPS Satellite Acquisition Flag 9,GPS Satellite Acquisition Flag 10,GPS Satellite Acquisition Flag 11,GPS Satellite Acquisition Flag 12,GPS Satellite Azimuth 1(Degrees),GPS Satellite Azimuth 2(Degrees),GPS Satellite Azimuth 3(Degrees),GPS Satellite Azimuth 4(Degrees),GPS Satellite Azimuth 5(Degrees),GPS Satellite Azimuth 6(Degrees),GPS Satellite Azimuth 7(Degrees),GPS Satellite Azimuth 8(Degrees),GPS Satellite Azimuth 9(Degrees),GPS Satellite Azimuth 10(Degrees),GPS Satellite Azimuth 11(Degrees),GPS Satellite Azimuth 12(Degrees),GPS Satellite Elevation 1(Degrees),GPS Satellite Elevation 2(Degrees),GPS Satellite Elevation 3(Degrees),GPS Satellite Elevation 4(Degrees),GPS Satellite Elevation 5(Degrees),GPS Satellite Elevation 6(Degrees),GPS Satellite Elevation 7(Degrees),GPS Satellite Elevation 8(Degrees),GPS Satellite Elevation 9(Degrees),GPS Satellite Elevation 10(Degrees),GPS Satellite Elevation 11(Degrees),GPS Satellite Elevation 12(Degrees),GPS Satellite PRN 1,GPS Satellite PRN 2,GPS Satellite PRN 3,GPS Satellite PRN 4,GPS Satellite PRN 5,GPS Satellite PRN 6,GPS Satellite PRN 7,GPS Satellite PRN 8,GPS Satellite PRN 9,GPS Satellite PRN 10,GPS Satellite PRN 11,GPS Satellite PRN 12,GPS Satellite Signal Level 1(AMU),GPS Satellite Signal Level 2(AMU),GPS Satellite Signal Level 3(AMU),GPS Satellite Signal Level 4(AMU),GPS Satellite Signal Level 5(AMU),GPS Satellite Signal Level 6(AMU),GPS Satellite Signal Level 7(AMU),GPS Satellite Signal Level 8(AMU),GPS Satellite Signal Level 9(AMU),GPS Satellite Signal Level 10(AMU),GPS Satellite Signal Level 11(AMU),GPS Satellite Signal Level 12(AMU),
1570820426,2019-10-11 19:00:26.439,Acquired,Acquired,Acquired,Acquired,Acquired,Acquired,Acquired,Acquired,,,,,2.0050454399999998E2,6.0507732E1,3.0543088E2,2.93290528E2,1.19245064E2,6.2431903999999996E1,3.6659971999999996E1,3.12993152E2,,,,,5.223672E1,1.7130616E1,7.1821568E1,3.6003955999999995E1,4.7854332E1,4.9272188E1,7.561033999999999E0,1.192197E1,,,,,5,7,13,15,28,30,8,21,,,,,15,10,13,12,11,9,10,2,,,,,
1570820486,2019-10-11 19:01:26.439,Acquired,Acquired,Acquired,Acquired,Acquired,Acquired,Acquired,Acquired,,,,,2.0050454399999998E2,6.0507732E1,3.0543088E2,2.93290528E2,1.19245064E2,6.2431903999999996E1,3.6659971999999996E1,3.12993152E2,,,,,5.223672E1,1.7130616E1,7.1821568E1,3.6003955999999995E1,4.7854332E1,4.9272188E1,7.561033999999999E0,1.192197E1,,,,,5,7,13,15,28,30,8,21,,,,,15,10,13,12,11,9,10,2,,,,,
1570820546,2019-10-11 19:02:26.455,Acquired,Acquired,Acquired,Acquired,Acquired,Acquired,Acquired,Acquired,,,,,2.00159536E2,6.0643592E1,3.06061984E2,2.93418688E2,1.18661136E2,6.2440984E1,3.6262752E1,3.12610048E2,,,,,5.1788084E1,1.6742226E1,7.225409599999999E1,3.6430279999999996E1,4.8145644E1,4.8835888E1,7.5830329999999995E0,1.189698E1,,,,,5,7,13,15,28,30,8,21,,,,,14,10,13,11,11,11,9,2,,,,,
1570820606,2019-10-11 19:03:26.439,Acquired,Acquired,Acquired,Acquired,Acquired,Acquired,Acquired,Acquired,Acquired,Acquired,,,1.93646032E2,3.41206432E2,2.95710464E2,1.0000937599999999E2,6.4307508E1,6.4917104E1,2.580509E1,3.2435619199999996E2,3.02401728E2,2.49593696E2,,,3.9428404E1,8.326558399999999E1,4.8181211999999995E1,5.3625187999999994E1,3.7347851999999996E1,6.583934999999999E0,6.675445E0,8.244807E0,9.864939E0,1.2054568999999999E1,,,5,13,15,28,30,7,8,20,21,24,,,16,11,9,13,10,2,5,5,1,5,,,
1570820666,2019-10-11 19:04:26.439,Acquired,Acquired,Acquired,Acquired,Acquired,Acquired,Acquired,Acquired,Not acquired,Acquired,,,1.93478256E2,3.44259008E2,2.95740032E2,9.923569599999999E1,6.4422456E1,6.5094464E1,2.5434108E1,3.2418224E2,3.02019744E2,2.4983167999999998E2,,,3.8970044E1,8.359087199999999E1,4.8623204E1,5.3724568E1,3.6935188E1,6.220122E0,6.587553E0,8.587926999999999E0,9.73824E0,1.2439895E1,,,5,13,15,28,30,7,8,20,21,24,,,16,10,11,14,9,2,7,6,1,4,,,
1570820726,2019-10-11 19:05:26.439,Acquired,Acquired,Acquired,Acquired,Acquired,Acquired,Acquired,Acquired,Not acquired,Acquired,,,1.93478256E2,3.44259008E2,2.95740032E2,9.923569599999999E1,6.4422456E1,6.5094464E1,2.5434108E1,3.2418224E2,3.02019744E2,2.4983167999999998E2,,,3.8970044E1,8.359087199999999E1,4.8623204E1,5.3724568E1,3.6935188E1,6.220122E0,6.587553E0,8.587926999999999E0,9.73824E0,1.2439895E1,,,5,13,15,28,30,7,8,20,21,24,,,16,10,11,14,9,2,7,6,1,4,,,
1570820786,2019-10-11 19:06:26.439,Acquired,Acquired,Acquired,Acquired,Acquired,Acquired,Acquired,Acquired,Not acquired,Acquired,,,1.93478256E2,3.44259008E2,2.95740032E2,9.923569599999999E1,6.4422456E1,6.5094464E1,2.5434108E1,3.2418224E2,3.02019744E2,2.4983167999999998E2,,,3.8970044E1,8.359087199999999E1,4.8623204E1,5.3724568E1,3.6935188E1,6.220122E0,6.587553E0,8.587926999999999E0,9.73824E0,1.2439895E1,,,5,13,15,28,30,7,8,20,21,24,,,16,10,11,14,9,2,7,6,1,4,,,
1570820846,2019-10-11 19:07:26.441,Acquired,Acquired,Acquired,Acquired,Acquired,Acquired,Acquired,Acquired,Not acquired,Acquired,,,1.93478256E2,3.44259008E2,2.95740032E2,9.923569599999999E1,6.4422456E1,6.5094464E1,2.5434108E1,3.2418224E2,3.02019744E2,2.4983167999999998E2,,,3.8970044E1,8.359087199999999E1,4.8623204E1,5.3724568E1,3.6935188E1,6.220122E0,6.587553E0,8.587926999999999E0,9.73824E0,1.2439895E1,,,5,13,15,28,30,7,8,20,21,24,,,16,10,11,14,9,2,7,6,1,4,,,
1570820906,2019-10-11 19:08:26.439,Acquired,Acquired,Acquired,Acquired,Acquired,Acquired,Acquired,Acquired,Not acquired,Acquired,,,1.93478256E2,3.44259008E2,2.95740032E2,9.923569599999999E1,6.4422456E1,6.5094464E1,2.5434108E1,3.2418224E2,3.02019744E2,2.4983167999999998E2,,,3.8970044E1,8.359087199999999E1,4.8623204E1,5.3724568E1,3.6935188E1,6.220122E0,6.587553E0,8.587926999999999E0,9.73824E0,1.2439895E1,,,5,13,15,28,30,7,8,20,21,24,,,16,10,11,14,9,2,7,6,1,4,,,
1570820966,2019-10-11 19:09:26.439,Acquired,Acquired,Acquired,Acquired,Acquired,Acquired,Acquired,Acquired,Not acquired,Acquired,,,1.93478256E2,3.44259008E2,2.95740032E2,9.923569599999999E1,6.4422456E1,6.5094464E1,2.5434108E1,3.2418224E2,3.02019744E2,2.4983167999999998E2,,,3.8970044E1,8.359087199999999E1,4.8623204E1,5.3724568E1,3.6935188E1,6.220122E0,6.587553E0,8.587926999999999E0,9.73824E0,1.2439895E1,,,5,13,15,28,30,7,8,20,21,24,,,16,10,11,14,9,2,7,6,1,4,,,
1570821026,2019-10-11 19:10:26.439,Acquired,Acquired,Acquired,Acquired,Acquired,Acquired,Acquired,Acquired,Not acquired,Acquired,,,1.93478256E2,3.44259008E2,2.95740032E2,9.923569599999999E1,6.4422456E1,6.5094464E1,2.5434108E1,3.2418224E2,3.02019744E2,2.4983167999999998E2,,,3.8970044E1,8.359087199999999E1,4.8623204E1,5.3724568E1,3.6935188E1,6.220122E0,6.587553E0,8.587926999999999E0,9.73824E0,1.2439895E1,,,5,13,15,28,30,7,8,20,21,24,,,16,10,11,14,9,2,7,6,1,4,,,
1570821086,2019-10-11 19:11:26.439,Acquired,Acquired,Acquired,Acquired,Acquired,Acquired,Acquired,Acquired,Not acquired,Acquired,,,1.93478256E2,3.44259008E2,2.95740032E2,9.923569599999999E1,6.4422456E1,6.5094464E1,2.5434108E1,3.2418224E2,3.02019744E2,2.4983167999999998E2,,,3.8970044E1,8.359087199999999E1,4.8623204E1,5.3724568E1,3.6935188E1,6.220122E0,6.587553E0,8.587926999999999E0,9.73824E0,1.2439895E1,,,5,13,15,28,30,7,8,20,21,24,,,16,10,11,14,9,2,7,6,1,4,,,
1570821146,2019-10-11 19:12:26.439,Acquired,Acquired,Acquired,Acquired,Acquired,Acquired,Acquired,Acquired,Not acquired,Acquired,,,1.93478256E2,3.44259008E2,2.95740032E2,9.923569599999999E1,6.4422456E1,6.5094464E1,2.5434108E1,3.2418224E2,3.02019744E2,2.4983167999999998E2,,,3.8970044E1,8.359087199999999E1,4.8623204E1,5.3724568E1,3.6935188E1,6.220122E0,6.587553E0,8.587926999999999E0,9.73824E0,1.2439895E1,,,5,13,15,28,30,7,8,20,21,24,,,16,10,11,14,9,2,7,6,1,4,,,
1570821206,2019-10-11 19:13:26.439,Acquired,Acquired,Acquired,Acquired,Acquired,Acquired,Acquired,Acquired,Not acquired,Acquired,,,1.93478256E2,3.44259008E2,2.95740032E2,9.923569599999999E1,6.4422456E1,6.5094464E1,2.5434108E1,3.2418224E2,3.02019744E2,2.4983167999999998E2,,,3.8970044E1,8.359087199999999E1,4.8623204E1,5.3724568E1,3.6935188E1,6.220122E0,6.587553E0,8.587926999999999E0,9.73824E0,1.2439895E1,,,5,13,15,28,30,7,8,20,21,24,,,16,10,11,14,9,2,7,6,1,4,,,
1570821266,2019-10-11 19:14:26.439,Acquired,Acquired,Acquired,Acquired,Acquired,Acquired,Acquired,Acquired,Not acquired,Acquired,,,1.93478256E2,3.44259008E2,2.95740032E2,9.923569599999999E1,6.4422456E1,6.5094464E1,2.5434108E1,3.2418224E2,3.02019744E2,2.4983167999999998E2,,,3.8970044E1,8.359087199999999E1,4.8623204E1,5.3724568E1,3.6935188E1,6.220122E0,6.587553E0,8.587926999999999E0,9.73824E0,1.2439895E1,,,5,13,15,28,30,7,8,20,21,24,,,16,10,11,14,9,2,7,6,1,4,,,
1570821326,2019-10-11 19:15:26.439,Acquired,Acquired,Acquired,Acquired,Acquired,Acquired,Acquired,Acquired,Not acquired,Acquired,,,1.93478256E2,3.44259008E2,2.95740032E2,9.923569599999999E1,6.4422456E1,6.5094464E1,2.5434108E1,3.2418224E2,3.02019744E2,2.4983167999999998E2,,,3.8970044E1,8.359087199999999E1,4.8623204E1,5.3724568E1,3.6935188E1,6.220122E0,6.587553E0,8.587926999999999E0,9.73824E0,1.2439895E1,,,5,13,15,28,30,7,8,20,21,24,,,16,10,11,14,9,2,7,6,1,4,,,
1570821386,2019-10-11 19:16:26.439,Acquired,Acquired,Acquired,Acquired,Acquired,Acquired,Acquired,Acquired,Not acquired,Acquired,,,1.93478256E2,3.44259008E2,2.95740032E2,9.923569599999999E1,6.4422456E1,6.5094464E1,2.5434108E1,3.2418224E2,3.02019744E2,2.4983167999999998E2,,,3.8970044E1,8.359087199999999E1,4.8623204E1,5.3724568E1,3.6935188E1,6.220122E0,6.587553E0,8.587926999999999E0,9.73824E0,1.2439895E1,,,5,13,15,28,30,7,8,20,21,24,,,16,10,11,14,9,2,7,6,1,4,,,
1570821446,2019-10-11 19:17:26.439,Acquired,Acquired,Acquired,Acquired,Acquired,Acquired,Acquired,Acquired,Not acquired,Acquired,,,1.93478256E2,3.44259008E2,2.95740032E2,9.923569599999999E1,6.4422456E1,6.5094464E1,2.5434108E1,3.2418224E2,3.02019744E2,2.4983167999999998E2,,,3.8970044E1,8.359087199999999E1,4.8623204E1,5.3724568E1,3.6935188E1,6.220122E0,6.587553E0,8.587926999999999E0,9.73824E0,1.2439895E1,,,5,13,15,28,30,7,8,20,21,24,,,16,10,11,14,9,2,7,6,1,4,,,
1570821506,2019-10-11 19:18:26.439,Acquired,Acquired,Acquired,Acquired,Acquired,Acquired,Acquired,Acquired,Not acquired,Acquired,,,1.93478256E2,3.44259008E2,2.95740032E2,9.923569599999999E1,6.4422456E1,6.5094464E1,2.5434108E1,3.2418224E2,3.02019744E2,2.4983167999999998E2,,,3.8970044E1,8.359087199999999E1,4.8623204E1,5.3724568E1,3.6935188E1,6.220122E0,6.587553E0,8.587926999999999E0,9.73824E0,1.2439895E1,,,5,13,15,28,30,7,8,20,21,24,,,16,10,11,14,9,2,7,6,1,4,,,
1570821566,2019-10-11 19:19:26.439,Acquired,Acquired,Acquired,Acquired,Acquired,Acquired,Acquired,Acquired,Not acquired,Acquired,,,1.93478256E2,3.44259008E2,2.95740032E2,9.923569599999999E1,6.4422456E1,6.5094464E1,2.5434108E1,3.2418224E2,3.02019744E2,2.4983167999999998E2,,,3.8970044E1,8.359087199999999E1,4.8623204E1,5.3724568E1,3.6935188E1,6.220122E0,6.587553E0,8.587926999999999E0,9.73824E0,1.2439895E1,,,5,13,15,28,30,7,8,20,21,24,,,16,10,11,14,9,2,7,6,1,4,,,
1570821626,2019-10-11 19:20:26.456,Acquired,Acquired,Acquired,Acquired,Acquired,Acquired,Acquired,Acquired,Not acquired,Acquired,,,1.93478256E2,3.44259008E2,2.95740032E2,9.923569599999999E1,6.4422456E1,6.5094464E1,2.5434108E1,3.2418224E2,3.02019744E2,2.4983167999999998E2,,,3.8970044E1,8.359087199999999E1,4.8623204E1,5.3724568E1,3.6935188E1,6.220122E0,6.587553E0,8.587926999999999E0,9.73824E0,1.2439895E1,,,5,13,15,28,30,7,8,20,21,24,,,16,10,11,14,9,2,7,6,1,4,,,
1570821686,2019-10-11 19:21:26.439,Acquired,Acquired,Acquired,Acquired,Acquired,Acquired,Acquired,Acquired,Not acquired,Acquired,,,1.93478256E2,3.44259008E2,2.95740032E2,9.923569599999999E1,6.4422456E1,6.5094464E1,2.5434108E1,3.2418224E2,3.02019744E2,2.4983167999999998E2,,,3.8970044E1,8.359087199999999E1,4.8623204E1,5.3724568E1,3.6935188E1,6.220122E0,6.587553E0,8.587926999999999E0,9.73824E0,1.2439895E1,,,5,13,15,28,30,7,8,20,21,24,,,16,10,11,14,9,2,7,6,1,4,,,
1570821746,2019-10-11 19:22:26.439,Acquired,Acquired,Acquired,Acquired,Acquired,Acquired,Acquired,Acquired,Not acquired,Acquired,,,1.93478256E2,3.44259008E2,2.95740032E2,9.923569599999999E1,6.4422456E1,6.5094464E1,2.5434108E1,3.2418224E2,3.02019744E2,2.4983167999999998E2,,,3.8970044E1,8.359087199999999E1,4.8623204E1,5.3724568E1,3.6935188E1,6.220122E0,6.587553E0,8.587926999999999E0,9.73824E0,1.2439895E1,,,5,13,15,28,30,7,8,20,21,24,,,16,10,11,14,9,2,7,6,1,4,,,
1570821806,2019-10-11 19:23:26.441,Acquired,Acquired,Acquired,Acquired,Acquired,Acquired,Acquired,Acquired,Not acquired,Acquired,,,1.93478256E2,3.44259008E2,2.95740032E2,9.923569599999999E1,6.4422456E1,6.5094464E1,2.5434108E1,3.2418224E2,3.02019744E2,2.4983167999999998E2,,,3.8970044E1,8.359087199999999E1,4.8623204E1,5.3724568E1,3.6935188E1,6.220122E0,6.587553E0,8.587926999999999E0,9.73824E0,1.2439895E1,,,5,13,15,28,30,7,8,20,21,24,,,16,10,11,14,9,2,7,6,1,4,,,
1570821866,2019-10-11 19:24:26.449,Acquired,Acquired,Acquired,Acquired,Acquired,Acquired,Acquired,Acquired,Not acquired,Acquired,,,1.93478256E2,3.44259008E2,2.95740032E2,9.923569599999999E1,6.4422456E1,6.5094464E1,2.5434108E1,3.2418224E2,3.02019744E2,2.4983167999999998E2,,,3.8970044E1,8.359087199999999E1,4.8623204E1,5.3724568E1,3.6935188E1,6.220122E0,6.587553E0,8.587926999999999E0,9.73824E0,1.2439895E1,,,5,13,15,28,30,7,8,20,21,24,,,16,10,11,14,9,2,7,6,1,4,,,
1570821926,2019-10-11 19:25:26.439,Acquired,Acquired,Acquired,Acquired,Acquired,Acquired,Acquired,Acquired,Not acquired,Acquired,,,1.93478256E2,3.44259008E2,2.95740032E2,9.923569599999999E1,6.4422456E1,6.5094464E1,2.5434108E1,3.2418224E2,3.02019744E2,2.4983167999999998E2,,,3.8970044E1,8.359087199999999E1,4.8623204E1,5.3724568E1,3.6935188E1,6.220122E0,6.587553E0,8.587926999999999E0,9.73824E0,1.2439895E1,,,5,13,15,28,30,7,8,20,21,24,,,16,10,11,14,9,2,7,6,1,4,,,
1570821986,2019-10-11 19:26:26.439,Acquired,Acquired,Acquired,Acquired,Acquired,Acquired,Acquired,Acquired,Not acquired,Acquired,,,1.93478256E2,3.44259008E2,2.95740032E2,9.923569599999999E1,6.4422456E1,6.5094464E1,2.5434108E1,3.2418224E2,3.02019744E2,2.4983167999999998E2,,,3.8970044E1,8.359087199999999E1,4.8623204E1,5.3724568E1,3.6935188E1,6.220122E0,6.587553E0,8.587926999999999E0,9.73824E0,1.2439895E1,,,5,13,15,28,30,7,8,20,21,24,,,16,10,11,14,9,2,7,6,1,4,,,
1570822046,2019-10-11 19:27:26.439,Acquired,Acquired,Acquired,Acquired,Acquired,Acquired,Acquired,Acquired,Not acquired,Acquired,,,1.93478256E2,3.44259008E2,2.95740032E2,9.923569599999999E1,6.4422456E1,6.5094464E1,2.5434108E1,3.2418224E2,3.02019744E2,2.4983167999999998E2,,,3.8970044E1,8.359087199999999E1,4.8623204E1,5.3724568E1,3.6935188E1,6.220122E0,6.587553E0,8.587926999999999E0,9.73824E0,1.2439895E1,,,5,13,15,28,30,7,8,20,21,24,,,16,10,11,14,9,2,7,6,1,4,,,
1570822106,2019-10-11 19:28:26.439,Acquired,Acquired,Acquired,Acquired,Acquired,Acquired,Acquired,Acquired,Not acquired,Acquired,,,1.93478256E2,3.44259008E2,2.95740032E2,9.923569599999999E1,6.4422456E1,6.5094464E1,2.5434108E1,3.2418224E2,3.02019744E2,2.4983167999999998E2,,,3.8970044E1,8.359087199999999E1,4.8623204E1,5.3724568E1,3.6935188E1,6.220122E0,6.587553E0,8.587926999999999E0,9.73824E0,1.2439895E1,,,5,13,15,28,30,7,8,20,21,24,,,16,10,11,14,9,2,7,6,1,4,,,
1570822166,2019-10-11 19:29:26.439,Acquired,Acquired,Acquired,Acquired,Acquired,Acquired,Acquired,Acquired,Not acquired,Acquired,,,1.93478256E2,3.44259008E2,2.95740032E2,9.923569599999999E1,6.4422456E1,6.5094464E1,2.5434108E1,3.2418224E2,3.02019744E2,2.4983167999999998E2,,,3.8970044E1,8.359087199999999E1,4.8623204E1,5.3724568E1,3.6935188E1,6.220122E0,6.587553E0,8.587926999999999E0,9.73824E0,1.2439895E1,,,5,13,15,28,30,7,8,20,21,24,,,16,10,11,14,9,2,7,6,1,4,,,
1570822226,2019-10-11 19:30:26.439,Acquired,Acquired,Acquired,Acquired,Acquired,Acquired,Acquired,Acquired,Not acquired,Acquired,,,1.93478256E2,3.44259008E2,2.95740032E2,9.923569599999999E1,6.4422456E1,6.5094464E1,2.5434108E1,3.2418224E2,3.02019744E2,2.4983167999999998E2,,,3.8970044E1,8.359087199999999E1,4.8623204E1,5.3724568E1,3.6935188E1,6.220122E0,6.587553E0,8.587926999999999E0,9.73824E0,1.2439895E1,,,5,13,15,28,30,7,8,20,21,24,,,16,10,11,14,9,2,7,6,1,4,,,
1570822286,2019-10-11 19:31:26.439,Acquired,Acquired,Acquired,Acquired,Acquired,Acquired,Acquired,Acquired,Not acquired,Acquired,,,1.93478256E2,3.44259008E2,2.95740032E2,9.923569599999999E1,6.4422456E1,6.5094464E1,2.5434108E1,3.2418224E2,3.02019744E2,2.4983167999999998E2,,,3.8970044E1,8.359087199999999E1,4.8623204E1,5.3724568E1,3.6935188E1,6.220122E0,6.587553E0,8.587926999999999E0,9.73824E0,1.2439895E1,,,5,13,15,28,30,7,8,20,21,24,,,16,10,11,14,9,2,7,6,1,4,,,
1570822346,2019-10-11 19:32:26.456,Acquired,Acquired,Acquired,Acquired,Acquired,Acquired,Acquired,Acquired,Not acquired,Acquired,,,1.93478256E2,3.44259008E2,2.95740032E2,9.923569599999999E1,6.4422456E1,6.5094464E1,2.5434108E1,3.2418224E2,3.02019744E2,2.4983167999999998E2,,,3.8970044E1,8.359087199999999E1,4.8623204E1,5.3724568E1,3.6935188E1,6.220122E0,6.587553E0,8.587926999999999E0,9.73824E0,1.2439895E1,,,5,13,15,28,30,7,8,20,21,24,,,16,10,11,14,9,2,7,6,1,4,,,
1570822406,2019-10-11 19:33:26.439,Acquired,Acquired,Acquired,Acquired,Acquired,Acquired,Acquired,Acquired,Not acquired,Acquired,,,1.93478256E2,3.44259008E2,2.95740032E2,9.923569599999999E1,6.4422456E1,6.5094464E1,2.5434108E1,3.2418224E2,3.02019744E2,2.4983167999999998E2,,,3.8970044E1,8.359087199999999E1,4.8623204E1,5.3724568E1,3.6935188E1,6.220122E0,6.587553E0,8.587926999999999E0,9.73824E0,1.2439895E1,,,5,13,15,28,30,7,8,20,21,24,,,16,10,11,14,9,2,7,6,1,4,,,
1570822466,2019-10-11 19:34:26.439,Acquired,Acquired,Acquired,Acquired,Acquired,Acquired,Acquired,Acquired,Not acquired,Acquired,,,1.93478256E2,3.44259008E2,2.95740032E2,9.923569599999999E1,6.4422456E1,6.5094464E1,2.5434108E1,3.2418224E2,3.02019744E2,2.4983167999999998E2,,,3.8970044E1,8.359087199999999E1,4.8623204E1,5.3724568E1,3.6935188E1,6.220122E0,6.587553E0,8.587926999999999E0,9.73824E0,1.2439895E1,,,5,13,15,28,30,7,8,20,21,24,,,16,10,11,14,9,2,7,6,1,4,,,
1570822526,2019-10-11 19:35:26.439,Acquired,Acquired,Acquired,Acquired,Acquired,Acquired,Acquired,Acquired,Not acquired,Acquired,,,1.93478256E2,3.44259008E2,2.95740032E2,9.923569599999999E1,6.4422456E1,6.5094464E1,2.5434108E1,3.2418224E2,3.02019744E2,2.4983167999999998E2,,,3.8970044E1,8.359087199999999E1,4.8623204E1,5.3724568E1,3.6935188E1,6.220122E0,6.587553E0,8.587926999999999E0,9.73824E0,1.2439895E1,,,5,13,15,28,30,7,8,20,21,24,,,16,10,11,14,9,2,7,6,1,4,,,
1570822586,2019-10-11 19:36:26.439,Acquired,Acquired,Acquired,Acquired,Acquired,Acquired,Acquired,Acquired,Not acquired,Acquired,,,1.93314896E2,3.47586592E2,2.9576444799999996E2,9.8462704E1,6.453932E1,6.5272104E1,2.5066522E1,3.2401072E2,3.01653728E2,2.5006423999999998E2,,,3.8514356E1,8.389779999999999E1,4.9063323999999994E1,5.3815315999999996E1,3.6525548E1,5.858978E0,6.496404999999999E0,8.915144999999999E0,9.613403E0,1.2810435E1,,,5,13,15,28,30,7,8,20,21,24,,,16,10,12,14,10,1,7,6,1,4,,,
1570822646,2019-10-11 19:37:26.441,Acquired,Acquired,Acquired,Acquired,Acquired,Acquired,Acquired,Not acquired,,,,,1.8927992E2,1.0332678399999999E2,2.92399456E2,3.16457504E2,2.5803712E2,7.410302399999999E1,6.940956E1,1.1815883199999999E2,,,,,2.4022358E1,7.8127512E1,6.3389996E1,1.861214E1,2.502478E1,5.2330552E1,2.3707078E1,8.826082999999999E0,,,,,5,13,15,20,24,28,30,17,,,,,10,12,14,8,5,11,10,0,,,,,
1570822706,2019-10-11 19:38:26.439,Acquired,Acquired,Acquired,Acquired,Acquired,Acquired,Acquired,Not acquired,,,,,1.8927992E2,1.0332678399999999E2,2.92399456E2,3.16457504E2,2.5803712E2,7.410302399999999E1,6.940956E1,1.1815883199999999E2,,,,,2.4022358E1,7.8127512E1,6.3389996E1,1.861214E1,2.502478E1,5.2330552E1,2.3707078E1,8.826082999999999E0,,,,,5,13,15,20,24,28,30,17,,,,,10,12,14,8,5,11,10,0,,,,,
1570822766,2019-10-11 19:39:26.439,Acquired,Acquired,Acquired,Acquired,Acquired,Acquired,Acquired,Not acquired,,,,,1.8927992E2,1.0332678399999999E2,2.92399456E2,3.16457504E2,2.5803712E2,7.410302399999999E1,6.940956E1,1.1815883199999999E2,,,,,2.4022358E1,7.8127512E1,6.3389996E1,1.861214E1,2.502478E1,5.2330552E1,2.3707078E1,8.826082999999999E0,,,,,5,13,15,20,24,28,30,17,,,,,10,12,14,8,5,11,10,0,,,,,
1570822826,2019-10-11 19:40:26.439,Acquired,Acquired,Acquired,Acquired,Acquired,Acquired,Acquired,Not acquired,,,,,1.8927992E2,1.0332678399999999E2,2.92399456E2,3.16457504E2,2.5803712E2,7.410302399999999E1,6.940956E1,1.1815883199999999E2,,,,,2.4022358E1,7.8127512E1,6.3389996E1,1.861214E1,2.502478E1,5.2330552E1,2.3707078E1,8.826082999999999E0,,,,,5,13,15,20,24,28,30,17,,,,,10,12,14,8,5,11,10,0,,,,,
1570822886,2019-10-11 19:41:26.439,Acquired,Acquired,Acquired,Acquired,Acquired,Acquired,Acquired,Not acquired,,,,,1.8927992E2,1.0332678399999999E2,2.92399456E2,3.16457504E2,2.5803712E2,7.410302399999999E1,6.940956E1,1.1815883199999999E2,,,,,2.4022358E1,7.8127512E1,6.3389996E1,1.861214E1,2.502478E1,5.2330552E1,2.3707078E1,8.826082999999999E0,,,,,5,13,15,20,24,28,30,17,,,,,10,12,14,8,5,11,10,0,,,,,
1570822946,2019-10-11 19:42:26.439,Acquired,Acquired,Acquired,Acquired,Acquired,Acquired,Acquired,Not acquired,,,,,1.8927992E2,1.0332678399999999E2,2.92399456E2,3.16457504E2,2.5803712E2,7.410302399999999E1,6.940956E1,1.1815883199999999E2,,,,,2.4022358E1,7.8127512E1,6.3389996E1,1.861214E1,2.502478E1,5.2330552E1,2.3707078E1,8.826082999999999E0,,,,,5,13,15,20,24,28,30,17,,,,,10,12,14,8,5,11,10,0,,,,,
1570823006,2019-10-11 19:43:26.439,Acquired,Acquired,Acquired,Acquired,Acquired,Acquired,Acquired,Not acquired,,,,,1.8927992E2,1.0332678399999999E2,2.92399456E2,3.16457504E2,2.5803712E2,7.410302399999999E1,6.940956E1,1.1815883199999999E2,,,,,2.4022358E1,7.8127512E1,6.3389996E1,1.861214E1,2.502478E1,5.2330552E1,2.3707078E1,8.826082999999999E0,,,,,5,13,15,20,24,28,30,17,,,,,10,12,14,8,5,11,10,0,,,,,
1570823066,2019-10-11 19:44:26.439,Acquired,Acquired,Acquired,Acquired,Acquired,Acquired,Acquired,Not acquired,,,,,1.8927992E2,1.0332678399999999E2,2.92399456E2,3.16457504E2,2.5803712E2,7.410302399999999E1,6.940956E1,1.1815883199999999E2,,,,,2.4022358E1,7.8127512E1,6.3389996E1,1.861214E1,2.502478E1,5.2330552E1,2.3707078E1,8.826082999999999E0,,,,,5,13,15,20,24,28,30,17,,,,,10,12,14,8,5,11,10,0,,,,,
1570823126,2019-10-11 19:45:26.439,Acquired,Acquired,Acquired,Acquired,Acquired,Acquired,Acquired,Not acquired,,,,,1.8927992E2,1.0332678399999999E2,2.92399456E2,3.16457504E2,2.5803712E2,7.410302399999999E1,6.940956E1,1.1815883199999999E2,,,,,2.4022358E1,7.8127512E1,6.3389996E1,1.861214E1,2.502478E1,5.2330552E1,2.3707078E1,8.826082999999999E0,,,,,5,13,15,20,24,28,30,17,,,,,10,12,14,8,5,11,10,0,,,,,
1570823186,2019-10-11 19:46:26.441,Acquired,Acquired,Acquired,Acquired,Acquired,Acquired,Acquired,Not acquired,,,,,1.8927992E2,1.0332678399999999E2,2.92399456E2,3.16457504E2,2.5803712E2,7.410302399999999E1,6.940956E1,1.1815883199999999E2,,,,,2.4022358E1,7.8127512E1,6.3389996E1,1.861214E1,2.502478E1,5.2330552E1,2.3707078E1,8.826082999999999E0,,,,,5,13,15,20,24,28,30,17,,,,,10,12,14,8,5,11,10,0,,,,,
1570823246,2019-10-11 19:47:26.439,Acquired,Acquired,Acquired,Acquired,Acquired,Acquired,Acquired,Not acquired,,,,,1.8927992E2,1.0332678399999999E2,2.92399456E2,3.16457504E2,2.5803712E2,7.410302399999999E1,6.940956E1,1.1815883199999999E2,,,,,2.4022358E1,7.8127512E1,6.3389996E1,1.861214E1,2.502478E1,5.2330552E1,2.3707078E1,8.826082999999999E0,,,,,5,13,15,20,24,28,30,17,,,,,10,12,14,8,5,11,10,0,,,,,
1570823306,2019-10-11 19:48:26.439,Acquired,Acquired,Acquired,Acquired,Acquired,Acquired,Acquired,Not acquired,,,,,1.8927992E2,1.0332678399999999E2,2.92399456E2,3.16457504E2,2.5803712E2,7.410302399999999E1,6.940956E1,1.1815883199999999E2,,,,,2.4022358E1,7.8127512E1,6.3389996E1,1.861214E1,2.502478E1,5.2330552E1,2.3707078E1,8.826082999999999E0,,,,,5,13,15,20,24,28,30,17,,,,,10,12,14,8,5,11,10,0,,,,,
1570823366,2019-10-11 19:49:26.439,Acquired,Acquired,Acquired,Acquired,Acquired,Acquired,Acquired,Not acquired,,,,,1.8927992E2,1.0332678399999999E2,2.92399456E2,3.16457504E2,2.5803712E2,7.410302399999999E1,6.940956E1,1.1815883199999999E2,,,,,2.4022358E1,7.8127512E1,6.3389996E1,1.861214E1,2.502478E1,5.2330552E1,2.3707078E1,8.826082999999999E0,,,,,5,13,15,20,24,28,30,17,,,,,10,12,14,8,5,11,10,0,,,,,
1570823426,2019-10-11 19:50:26.439,Acquired,Acquired,Acquired,Acquired,Acquired,Acquired,Acquired,Not acquired,,,,,1.8927992E2,1.0332678399999999E2,2.92399456E2,3.16457504E2,2.5803712E2,7.410302399999999E1,6.940956E1,1.1815883199999999E2,,,,,2.4022358E1,7.8127512E1,6.3389996E1,1.861214E1,2.502478E1,5.2330552E1,2.3707078E1,8.826082999999999E0,,,,,5,13,15,20,24,28,30,17,,,,,10,12,14,8,5,11,10,0,,,,,
1570823486,2019-10-11 19:51:26.439,Acquired,Acquired,Acquired,Acquired,Acquired,Acquired,Acquired,Not acquired,,,,,1.8927992E2,1.0332678399999999E2,2.92399456E2,3.16457504E2,2.5803712E2,7.410302399999999E1,6.940956E1,1.1815883199999999E2,,,,,2.4022358E1,7.8127512E1,6.3389996E1,1.861214E1,2.502478E1,5.2330552E1,2.3707078E1,8.826082999999999E0,,,,,5,13,15,20,24,28,30,17,,,,,10,12,14,8,5,11,10,0,,,,,
1570823546,2019-10-11 19:52:26.439,Acquired,Acquired,Acquired,Acquired,Acquired,Acquired,Acquired,Not acquired,,,,,1.8927992E2,1.0332678399999999E2,2.92399456E2,3.16457504E2,2.5803712E2,7.410302399999999E1,6.940956E1,1.1815883199999999E2,,,,,2.4022358E1,7.8127512E1,6.3389996E1,1.861214E1,2.502478E1,5.2330552E1,2.3707078E1,8.826082999999999E0,,,,,5,13,15,20,24,28,30,17,,,,,10,12,14,8,5,11,10,0,,,,,
1570823606,2019-10-11 19:53:26.439,Acquired,Acquired,Acquired,Acquired,Acquired,Acquired,Acquired,Not acquired,,,,,1.8927992E2,1.0332678399999999E2,2.92399456E2,3.16457504E2,2.5803712E2,7.410302399999999E1,6.940956E1,1.1815883199999999E2,,,,,2.4022358E1,7.8127512E1,6.3389996E1,1.861214E1,2.502478E1,5.2330552E1,2.3707078E1,8.826082999999999E0,,,,,5,13,15,20,24,28,30,17,,,,,10,12,14,8,5,11,10,0,,,,,
1570823666,2019-10-11 19:54:26.439,Acquired,Acquired,Acquired,Acquired,Acquired,Acquired,Acquired,Not acquired,,,,,1.8927992E2,1.0332678399999999E2,2.92399456E2,3.16457504E2,2.5803712E2,7.410302399999999E1,6.940956E1,1.1815883199999999E2,,,,,2.4022358E1,7.8127512E1,6.3389996E1,1.861214E1,2.502478E1,5.2330552E1,2.3707078E1,8.826082999999999E0,,,,,5,13,15,20,24,28,30,17,,,,,10,12,14,8,5,11,10,0,,,,,
1570823726,2019-10-11 19:55:26.439,Acquired,Acquired,Acquired,Acquired,Acquired,Acquired,Acquired,Not acquired,,,,,1.8927992E2,1.0332678399999999E2,2.92399456E2,3.16457504E2,2.5803712E2,7.410302399999999E1,6.940956E1,1.1815883199999999E2,,,,,2.4022358E1,7.8127512E1,6.3389996E1,1.861214E1,2.502478E1,5.2330552E1,2.3707078E1,8.826082999999999E0,,,,,5,13,15,20,24,28,30,17,,,,,10,12,14,8,5,11,10,0,,,,,
1570823786,2019-10-11 19:56:26.439,Acquired,Acquired,Acquired,Acquired,Acquired,Acquired,Acquired,Not acquired,,,,,1.8927992E2,1.0332678399999999E2,2.92399456E2,3.16457504E2,2.5803712E2,7.410302399999999E1,6.940956E1,1.1815883199999999E2,,,,,2.4022358E1,7.8127512E1,6.3389996E1,1.861214E1,2.502478E1,5.2330552E1,2.3707078E1,8.826082999999999E0,,,,,5,13,15,20,24,28,30,17,,,,,10,12,14,8,5,11,10,0,,,,,
1570823846,2019-10-11 19:57:26.439,Acquired,Acquired,Acquired,Acquired,Acquired,Acquired,Acquired,Not acquired,,,,,1.8927992E2,1.0332678399999999E2,2.92399456E2,3.16457504E2,2.5803712E2,7.410302399999999E1,6.940956E1,1.1815883199999999E2,,,,,2.4022358E1,7.8127512E1,6.3389996E1,1.861214E1,2.502478E1,5.2330552E1,2.3707078E1,8.826082999999999E0,,,,,5,13,15,20,24,28,30,17,,,,,10,12,14,8,5,11,10,0,,,,,
1570823906,2019-10-11 19:58:26.439,Acquired,Acquired,Acquired,Acquired,Acquired,Acquired,Acquired,Not acquired,,,,,1.8927992E2,1.0332678399999999E2,2.92399456E2,3.16457504E2,2.5803712E2,7.410302399999999E1,6.940956E1,1.1815883199999999E2,,,,,2.4022358E1,7.8127512E1,6.3389996E1,1.861214E1,2.502478E1,5.2330552E1,2.3707078E1,8.826082999999999E0,,,,,5,13,15,20,24,28,30,17,,,,,10,12,14,8,5,11,10,0,,,,,
1570823966,2019-10-11 19:59:26.439,Acquired,Acquired,Acquired,Acquired,Acquired,Acquired,Acquired,Not acquired,,,,,1.8927992E2,1.0332678399999999E2,2.92399456E2,3.16457504E2,2.5803712E2,7.410302399999999E1,6.940956E1,1.1815883199999999E2,,,,,2.4022358E1,7.8127512E1,6.3389996E1,1.861214E1,2.502478E1,5.2330552E1,2.3707078E1,8.826082999999999E0,,,,,5,13,15,20,24,28,30,17,,,,,10,12,14,8,5,11,10,0,,,,,
