Time(longsecs),Time(UTC),External SOH Voltage 1(V),External SOH Voltage 2(V),External SOH Voltage 3(V),External SOH Voltage 4(V),Sensor SOH Voltage 1(V),Sensor SOH Voltage 2(V),Sensor SOH Voltage 3(V),
1570816826,2019-10-11 18:00:26.439,-4.3468475E-3,-3.1237602E-3,5.044222E-3,-1.666069E-3,4.2498398E-1,4.242077E-1,4.2710018E-1,
1570816886,2019-10-11 18:01:26.439,-6.421566E-3,-5.6438446E-3,3.1580925E-3,-3.537178E-3,4.1843128E-1,4.1813374E-1,4.1663742E-1,
1570816946,2019-10-11 18:02:26.439,-4.337311E-3,-3.6616325E-3,5.159855E-3,-1.2478828E-3,4.265499E-1,4.255724E-1,4.2168617E-1,
1570817006,2019-10-11 18:03:26.439,-4.83346E-3,-3.6315918E-3,4.804373E-3,-1.8923283E-3,4.2304897E-1,4.2266083E-1,4.2151642E-1,
1570817066,2019-10-11 18:04:26.439,-6.8490505E-3,-5.5992603E-3,2.7034283E-3,-4.033327E-3,4.201975E-1,4.1930676E-1,4.1646385E-1,
1570817126,2019-10-11 18:05:26.439,-2.3300648E-3,-1.623869E-3,7.1241856E-3,7.2932243E-4,4.3082523E-1,4.3013287E-1,4.3047523E-1,
1570817186,2019-10-11 18:06:26.439,-1.7905235E-3,-1.2369156E-3,6.5391064E-3,1.6760826E-4,4.2918682E-1,4.2824173E-1,4.29451E-1,
1570817246,2019-10-11 18:07:26.439,-4.9176216E-3,-3.8411617E-3,4.5876503E-3,-2.1555424E-3,4.2844772E-1,4.2892742E-1,4.2024422E-1,
1570817306,2019-10-11 18:08:26.456,-4.7142506E-3,-4.135847E-3,4.2803288E-3,-3.538847E-3,4.2432404E-1,4.2146683E-1,4.20619E-1,
1570817366,2019-10-11 18:09:26.441,-2.2189617E-3,-1.4002323E-3,6.6349506E-3,1.5735626E-5,4.3168068E-1,4.304781E-1,4.2558384E-1,
1570817426,2019-10-11 18:10:26.439,-2.9051304E-3,-9.109974E-4,6.8674088E-3,3.888607E-4,4.3613338E-1,4.345312E-1,4.2960167E-1,
1570817486,2019-10-11 18:11:26.439,-4.0979385E-3,-2.9132366E-3,5.22995E-3,-1.4812946E-3,4.263878E-1,4.2621994E-1,4.2803955E-1,
1570817546,2019-10-11 18:12:26.456,-4.5986176E-3,-3.7400723E-3,4.5108795E-3,-2.6040077E-3,4.218855E-1,4.2494392E-1,4.2223167E-1,
1570817606,2019-10-11 18:13:26.439,-2.6865005E-3,-1.0101795E-3,7.059574E-3,6.5898895E-4,4.3060398E-1,4.2814922E-1,4.247284E-1,
1570817666,2019-10-11 18:14:26.439,-2.3770332E-3,-1.2025833E-3,6.7059994E-3,7.252693E-4,4.3507767E-1,4.3564796E-1,4.288206E-1,
1570817726,2019-10-11 18:15:26.439,-4.570484E-3,-3.7546158E-3,4.9595833E-3,-1.6365051E-3,4.2528248E-1,4.2649364E-1,4.209528E-1,
1570817786,2019-10-11 18:16:26.439,-7.087469E-3,-5.5570602E-3,3.023386E-3,-4.2233467E-3,4.1700554E-1,4.168749E-1,4.161167E-1,
1570817846,2019-10-11 18:17:26.439,-2.427578E-3,-1.3132095E-3,6.827593E-3,3.4809113E-4,4.300642E-1,4.2974567E-1,4.2650032E-1,
1570817906,2019-10-11 18:18:26.439,-4.50778E-3,-4.082918E-3,4.634857E-3,-2.0291805E-3,4.250536E-1,4.245081E-1,4.2193985E-1,
1570817966,2019-10-11 18:19:26.439,-4.7574043E-3,-3.9424896E-3,4.8630238E-3,-2.12574E-3,4.231949E-1,4.220686E-1,4.213066E-1,
1570818026,2019-10-11 18:20:26.451,-6.593704E-3,-5.8088303E-3,2.0663738E-3,-3.7884712E-3,4.2310715E-1,4.2123508E-1,4.0951157E-1,
1570818086,2019-10-11 18:21:26.439,-4.7843456E-3,-3.8182735E-3,4.6117306E-3,-2.3739338E-3,4.2868042E-1,4.2791176E-1,4.214306E-1,
1570818146,2019-10-11 18:22:26.439,-4.8315525E-3,-3.663063E-3,4.462242E-3,-1.7075539E-3,4.2517948E-1,4.2604923E-1,4.272337E-1,
1570818206,2019-10-11 18:23:26.439,-2.231121E-3,-1.2414455E-3,7.1907043E-3,4.2176247E-4,4.264593E-1,4.256811E-1,4.270897E-1,
1570818266,2019-10-11 18:24:26.440,-4.6002865E-3,-3.058195E-3,5.395651E-3,-1.4259815E-3,4.228487E-1,4.2459297E-1,4.2184544E-1,
1570818326,2019-10-11 18:25:26.439,-2.5975704E-3,-1.1515617E-3,6.8945885E-3,8.299351E-4,4.315977E-1,4.3092823E-1,4.289465E-1,
1570818386,2019-10-11 18:26:26.439,-2.425909E-3,-1.3790131E-3,7.236719E-3,5.347729E-4,4.2954445E-1,4.2990303E-1,4.2830563E-1,
1570818446,2019-10-11 18:27:26.439,-6.5512657E-3,-5.305767E-3,2.9609203E-3,-4.130125E-3,4.195299E-1,4.177742E-1,4.1647243E-1,
1570818506,2019-10-11 18:28:26.441,-5.1157475E-3,-4.047394E-3,4.4867992E-3,-1.8832684E-3,4.2842102E-1,4.2894173E-1,4.2265224E-1,
1570818566,2019-10-11 18:29:26.439,-4.679203E-3,-3.8084984E-3,4.6236515E-3,-2.3126602E-3,4.2144012E-1,4.2167568E-1,4.2274952E-1,
1570818626,2019-10-11 18:30:26.439,-4.8725605E-3,-3.7488937E-3,4.159689E-3,-2.142191E-3,4.2375374E-1,4.2192936E-1,4.2139244E-1,
1570818686,2019-10-11 18:31:26.439,-2.2928715E-3,-1.404047E-3,6.819725E-3,5.69582E-4,4.3103504E-1,4.2935467E-1,4.2576027E-1,
1570818746,2019-10-11 18:32:26.439,-2.3498535E-3,-1.6918182E-3,6.4270496E-3,7.350445E-4,4.311161E-1,4.309559E-1,4.2526722E-1,
1570818806,2019-10-11 18:33:26.439,-4.586935E-3,-3.3521652E-3,5.0098896E-3,-1.3699532E-3,4.2637825E-1,4.2597485E-1,4.2517662E-1,
1570818866,2019-10-11 18:34:26.439,-4.638195E-3,-4.1470528E-3,4.7678947E-3,-2.245903E-3,4.2121887E-1,4.206705E-1,4.2036533E-1,
1570818926,2019-10-11 18:35:26.457,-4.493952E-3,-4.012823E-3,4.561901E-3,-2.556324E-3,4.291706E-1,4.2391872E-1,4.192953E-1,
1570818986,2019-10-11 18:36:26.439,-3.544569E-3,-3.0879974E-3,5.004883E-3,-1.3048649E-3,4.3011189E-1,4.3005085E-1,4.2107487E-1,
1570819046,2019-10-11 18:37:26.441,-4.5318604E-3,-3.0024052E-3,5.1789284E-3,-1.4548302E-3,4.2427444E-1,4.2310238E-1,4.2451382E-1,
1570819106,2019-10-11 18:38:26.455,-6.7300797E-3,-5.751133E-3,2.52676E-3,-3.9970875E-3,4.1945744E-1,4.163046E-1,4.1477776E-1,
1570819166,2019-10-11 18:39:26.441,-2.2614002E-3,-1.8031597E-3,6.7965984E-3,7.221699E-4,4.3457794E-1,4.338293E-1,4.2814064E-1,
1570819226,2019-10-11 18:40:26.439,-2.468586E-3,-1.2876987E-3,6.860733E-3,1.7857552E-4,4.2927265E-1,4.2879677E-1,4.2462063E-1,
1570819286,2019-10-11 18:41:26.439,-4.5235157E-3,-3.9219856E-3,4.6486855E-3,-1.9249916E-3,4.2983723E-1,4.2729664E-1,4.213047E-1,
1570819346,2019-10-11 18:42:26.439,-4.4105053E-3,-2.8903484E-3,4.984379E-3,-1.3253689E-3,4.2407322E-1,4.2381382E-1,4.171734E-1,
1570819406,2019-10-11 18:43:26.439,-4.2836666E-3,-2.9280186E-3,5.126238E-3,-1.2636185E-3,4.3064022E-1,4.3122864E-1,4.214096E-1,
1570819466,2019-10-11 18:44:26.439,-2.3076534E-3,-1.6462803E-3,6.9499016E-3,3.7026405E-4,4.3006706E-1,4.2826557E-1,4.3468285E-1,
1570819526,2019-10-11 18:45:26.439,-2.3846626E-3,-1.344204E-3,7.1616173E-3,6.0129166E-4,4.267683E-1,4.2513275E-1,4.2814636E-1,
1570819586,2019-10-11 18:46:26.452,-6.664753E-3,-5.444765E-3,2.8121471E-3,-3.9618015E-3,4.185686E-1,4.176302E-1,4.1526031E-1,
1570819646,2019-10-11 18:47:26.439,-2.300024E-3,-1.4650822E-3,6.720066E-3,8.8214874E-5,4.3139076E-1,4.2992306E-1,4.2746735E-1,
1570819706,2019-10-11 18:48:26.439,-4.9655437E-3,-4.0102005E-3,4.3029785E-3,-2.1231174E-3,4.2426014E-1,4.2360306E-1,4.2189312E-1,
1570819766,2019-10-11 18:49:26.439,-4.531145E-3,-3.0350685E-3,5.1152706E-3,-1.5809536E-3,4.247198E-1,4.239912E-1,4.222145E-1,
1570819826,2019-10-11 18:50:26.439,-2.5057793E-3,-1.4629364E-3,6.7670345E-3,2.837181E-4,4.3245697E-1,4.3009758E-1,4.2864704E-1,
1570819886,2019-10-11 18:51:26.441,-6.638527E-3,-5.488634E-3,2.7256012E-3,-3.955364E-3,4.1920757E-1,4.165516E-1,4.1343784E-1,
1570819946,2019-10-11 18:52:26.439,-6.9799423E-3,-5.9001446E-3,2.652645E-3,-4.5473576E-3,4.1907215E-1,4.185772E-1,4.1461277E-1,
1570820006,2019-10-11 18:53:26.439,-4.4317245E-3,-3.962517E-3,4.716873E-3,-1.6515255E-3,4.208908E-1,4.206295E-1,4.189043E-1,
1570820066,2019-10-11 18:54:26.439,-4.17614E-3,-3.502369E-3,5.147457E-3,-1.1644363E-3,4.3101978E-1,4.3053818E-1,4.2295837E-1,
1570820126,2019-10-11 18:55:26.439,-4.2066574E-3,-3.250599E-3,5.069971E-3,-1.6245842E-3,4.2278194E-1,4.2354584E-1,4.24057E-1,
1570820186,2019-10-11 18:56:26.439,-4.4105053E-3,-3.1843185E-3,5.236149E-3,-1.4045238E-3,4.1948795E-1,4.200325E-1,4.2122555E-1,
1570820246,2019-10-11 18:57:26.439,-4.9762726E-3,-3.6149025E-3,4.2624474E-3,-2.0403862E-3,4.226303E-1,4.2304134E-1,4.2065525E-1,
1570820306,2019-10-11 18:58:26.439,-6.5329075E-3,-5.6991577E-3,2.44236E-3,-4.0500164E-3,4.1895676E-1,4.192648E-1,4.1529846E-1,
1570820366,2019-10-11 18:59:26.439,-7.0006847E-3,-5.736828E-3,2.206087E-3,-4.0607452E-3,4.150133E-1,4.1509724E-1,4.1208172E-1,
