Time(longsecs),Time(UTC),External SOH Voltage 1(V),External SOH Voltage 2(V),External SOH Voltage 3(V),External SOH Voltage 4(V),Sensor SOH Voltage 1(V),Sensor SOH Voltage 2(V),Sensor SOH Voltage 3(V),
1570770026,2019-10-11 05:00:26.446,-4.308939E-3,-3.4925938E-3,5.2187443E-3,-1.6069412E-3,4.4559097E-1,4.4601154E-1,4.4343472E-1,
1570770086,2019-10-11 05:01:26.439,-2.5174618E-3,-1.4457703E-3,6.6854954E-3,4.4631958E-4,4.5791912E-1,4.5676708E-1,4.556303E-1,
1570770146,2019-10-11 05:02:26.439,-2.6211739E-3,-1.3313293E-3,7.454157E-3,8.8357925E-4,4.6031094E-1,4.604044E-1,4.5695972E-1,
1570770206,2019-10-11 05:03:26.439,-4.749775E-3,-3.868103E-3,4.7683716E-3,-1.8441677E-3,4.5427513E-1,4.530449E-1,4.4906902E-1,
1570770266,2019-10-11 05:04:26.439,-4.9152374E-3,-4.096985E-3,4.1339397E-3,-1.9900799E-3,4.5139122E-1,4.5075035E-1,4.48061E-1,
1570770326,2019-10-11 05:05:26.449,-2.4952888E-3,-1.9028187E-3,6.6900253E-3,7.379055E-4,4.5990658E-1,4.5856285E-1,4.56851E-1,
1570770386,2019-10-11 05:06:26.439,-4.1368008E-3,-3.3471584E-3,5.126238E-3,-1.4617443E-3,4.519062E-1,4.5149517E-1,4.4983387E-1,
1570770446,2019-10-11 05:07:26.439,-2.3350716E-3,-1.250267E-3,6.496191E-3,4.2009354E-4,4.5771217E-1,4.568262E-1,4.5440578E-1,
1570770506,2019-10-11 05:08:26.439,-4.6269894E-3,-3.8847923E-3,4.5700073E-3,-2.3367405E-3,4.5349026E-1,4.5343304E-1,4.506235E-1,
1570770566,2019-10-11 05:09:26.478,-4.4817924E-3,-3.0536652E-3,5.182028E-3,-2.5923252E-3,4.552698E-1,4.5467186E-1,4.523754E-1,
1570770626,2019-10-11 05:10:26.439,-4.16708E-3,-3.2975674E-3,5.1398277E-3,-1.3165474E-3,4.5432854E-1,4.5359516E-1,4.522257E-1,
1570770686,2019-10-11 05:11:26.471,-5.1443577E-3,-4.080057E-3,4.787922E-3,-1.881361E-3,4.453659E-1,4.440174E-1,4.4271564E-1,
1570770746,2019-10-11 05:12:26.439,-4.687071E-3,-3.978491E-3,4.313946E-3,-2.2568703E-3,4.5283604E-1,4.5287704E-1,4.5202732E-1,
1570770806,2019-10-11 05:13:26.439,-5.284071E-3,-3.8881302E-3,4.0228367E-3,-2.3210049E-3,4.551115E-1,4.5485687E-1,4.5236015E-1,
1570770866,2019-10-11 05:14:26.439,-6.4394474E-3,-5.8293343E-3,2.3479462E-3,-4.1120052E-3,4.4608212E-1,4.431343E-1,4.4255066E-1,
1570770926,2019-10-11 05:15:26.444,-4.454851E-3,-3.3957958E-3,4.8389435E-3,-1.5580654E-3,4.56007E-1,4.556923E-1,4.534502E-1,
1570770986,2019-10-11 05:16:26.439,-2.3441315E-3,-1.26338E-3,6.68478E-3,1.5187263E-4,4.602394E-1,4.5718002E-1,4.570198E-1,
1570771046,2019-10-11 05:17:26.439,-2.015829E-3,-1.6231537E-3,7.011175E-3,2.2649765E-5,4.5954514E-1,4.587431E-1,4.575596E-1,
1570771106,2019-10-11 05:18:26.441,-2.5699139E-3,-1.8525124E-3,6.8507195E-3,3.3664703E-4,4.5677185E-1,4.580164E-1,4.5434666E-1,
1570771166,2019-10-11 05:19:26.442,-4.247904E-3,-3.113985E-3,5.1624775E-3,-1.8370152E-3,4.5444584E-1,4.5375824E-1,4.5349884E-1,
1570771226,2019-10-11 05:20:26.441,-7.0827007E-3,-5.898714E-3,2.7644634E-3,-3.993511E-3,4.5296764E-1,4.5242405E-1,4.5107841E-1,
1570771286,2019-10-11 05:21:26.439,-4.88472E-3,-3.9761066E-3,4.241228E-3,-2.0999908E-3,4.5284462E-1,4.5152855E-1,4.4897556E-1,
1570771346,2019-10-11 05:22:26.462,-4.8360825E-3,-4.078865E-3,4.234314E-3,-1.8656254E-3,4.503374E-1,4.4796276E-1,4.4653225E-1,
1570771406,2019-10-11 05:23:26.439,-7.0643425E-3,-5.661249E-3,2.6655197E-3,-3.8249493E-3,4.448719E-1,4.4420528E-1,4.4243526E-1,
1570771466,2019-10-11 05:24:26.439,-2.1066666E-3,-1.244545E-3,7.0343018E-3,5.033016E-4,4.600687E-1,4.5875835E-1,4.5677567E-1,
1570771526,2019-10-11 05:25:26.439,-3.8454533E-3,-3.1137466E-3,5.3589344E-3,-1.0852814E-3,4.5467567E-1,4.5349407E-1,4.509945E-1,
1570771586,2019-10-11 05:26:26.439,-3.7093163E-3,-3.237486E-3,5.0895214E-3,-1.4727116E-3,4.5325375E-1,4.5311928E-1,4.5192528E-1,
1570771646,2019-10-11 05:27:26.439,-2.1848679E-3,-1.3480186E-3,6.95467E-3,9.202957E-5,4.5896053E-1,4.5853615E-1,4.5560646E-1,
1570771706,2019-10-11 05:28:26.439,-6.5066814E-3,-5.838394E-3,2.7353764E-3,-4.104376E-3,4.4910336E-1,4.4949818E-1,4.4658947E-1,
1570771766,2019-10-11 05:29:26.439,-5.2568913E-3,-3.908396E-3,4.6379566E-3,-2.0420551E-3,4.511814E-1,4.4879246E-1,4.4878483E-1,
1570771826,2019-10-11 05:30:26.441,-4.1680336E-3,-3.2010078E-3,5.0723553E-3,-1.4791489E-3,4.5384026E-1,4.5338154E-1,4.5154572E-1,
1570771886,2019-10-11 05:31:26.439,-2.3138523E-3,-1.6670227E-3,6.6218376E-3,3.8599968E-4,4.651327E-1,4.64283E-1,4.6313095E-1,
1570771946,2019-10-11 05:32:26.439,-4.0590763E-3,-3.2293797E-3,5.02491E-3,-8.9621544E-4,4.5684433E-1,4.5447922E-1,4.5323753E-1,
1570772006,2019-10-11 05:33:26.439,-4.4162273E-3,-2.9535294E-3,4.7597885E-3,-1.3840199E-3,4.498043E-1,4.492855E-1,4.4727612E-1,
1570772066,2019-10-11 05:34:26.439,-4.34494E-3,-3.5998821E-3,5.3834915E-3,-1.3568401E-3,4.5497417E-1,4.5541763E-1,4.5291138E-1,
1570772126,2019-10-11 05:35:26.441,-4.1208267E-3,-3.0202866E-3,5.033016E-3,-1.7230511E-3,4.5406914E-1,4.5329762E-1,4.513588E-1,
1570772186,2019-10-11 05:36:26.439,-4.62842E-3,-4.062891E-3,4.3070316E-3,-2.0017624E-3,4.5354366E-1,4.524498E-1,4.5064545E-1,
1570772246,2019-10-11 05:37:26.441,-2.3069382E-3,-1.7716885E-3,6.854534E-3,4.720688E-4,4.5955658E-1,4.5864296E-1,4.559536E-1,
1570772306,2019-10-11 05:38:26.439,-6.119728E-3,-5.7132244E-3,2.6466846E-3,-4.414797E-3,4.4675446E-1,4.4608498E-1,4.435606E-1,
1570772366,2019-10-11 05:39:26.439,-4.8162937E-3,-3.8115978E-3,4.26507E-3,-2.2144318E-3,4.5103264E-1,4.5021915E-1,4.492874E-1,
1570772426,2019-10-11 05:40:26.439,-3.9343834E-3,-2.970457E-3,4.9734116E-3,-1.7826557E-3,4.5427036E-1,4.536724E-1,4.5048237E-1,
1570772486,2019-10-11 05:41:26.439,-4.39167E-3,-3.349781E-3,5.220175E-3,-1.5537739E-3,4.5213985E-1,4.524374E-1,4.4910717E-1,
1570772546,2019-10-11 05:42:26.439,-4.8000813E-3,-4.1372776E-3,4.6424866E-3,-2.156496E-3,4.6266365E-1,4.6247482E-1,4.606552E-1,
1570772606,2019-10-11 05:43:26.439,-6.7334175E-3,-5.717039E-3,2.3794174E-3,-4.0774345E-3,4.4861126E-1,4.465561E-1,4.450779E-1,
1570772666,2019-10-11 05:44:26.439,-4.0979385E-3,-3.3943653E-3,4.9438477E-3,-1.7285347E-3,4.5033646E-1,4.493456E-1,4.4713688E-1,
1570772726,2019-10-11 05:45:26.474,-4.1787624E-3,-2.8524399E-3,4.981756E-3,-1.1734962E-3,4.5646095E-1,4.5601177E-1,4.4901562E-1,
1570772786,2019-10-11 05:46:26.439,-4.807234E-3,-3.95298E-3,4.265785E-3,-2.0127296E-3,4.5488167E-1,4.5419312E-1,4.5205212E-1,
1570772846,2019-10-11 05:47:26.439,-2.6791096E-3,-1.4829636E-3,6.914377E-3,1.9907951E-4,4.5955276E-1,4.592886E-1,4.5680523E-1,
1570772906,2019-10-11 05:48:26.439,-2.2790432E-3,-1.6760826E-3,7.055521E-3,4.0841103E-4,4.5977688E-1,4.6010494E-1,4.588642E-1,
1570772966,2019-10-11 05:49:26.439,-6.9098473E-3,-5.8898926E-3,2.2234917E-3,-4.4953823E-3,4.4975662E-1,4.4727898E-1,4.4481277E-1,
1570773026,2019-10-11 05:50:26.439,-4.0216446E-3,-2.9740334E-3,5.0616264E-3,-1.4734268E-3,4.5580578E-1,4.5540905E-1,4.5319462E-1,
1570773086,2019-10-11 05:51:26.449,-2.2501945E-3,-1.5363693E-3,6.5209866E-3,4.1747093E-4,4.6013737E-1,4.5934582E-1,4.5698738E-1,
1570773146,2019-10-11 05:52:26.439,-2.2568703E-3,-1.3196468E-3,6.921768E-3,4.274845E-4,4.620695E-1,4.614706E-1,4.6106625E-1,
1570773206,2019-10-11 05:53:26.439,-3.9818287E-3,-2.8722286E-3,4.977703E-3,-1.4879704E-3,4.6195602E-1,4.6127605E-1,4.591875E-1,
1570773266,2019-10-11 05:54:26.439,-4.873991E-3,-3.9567947E-3,4.1759014E-3,-2.1026134E-3,4.551754E-1,4.5353317E-1,4.5108032E-1,
1570773326,2019-10-11 05:55:26.439,-2.5126934E-3,-1.4176369E-3,6.874323E-3,-1.296997E-4,4.5551968E-1,4.5520592E-1,4.524889E-1,
1570773386,2019-10-11 05:56:26.439,-2.3498535E-3,-1.7364025E-3,6.388426E-3,2.207756E-4,4.6017075E-1,4.585848E-1,4.5708752E-1,
1570773446,2019-10-11 05:57:26.469,-2.3722649E-3,-1.1777878E-3,6.5054893E-3,7.431507E-4,4.591217E-1,4.588833E-1,4.557476E-1,
1570773506,2019-10-11 05:58:26.439,-6.8821907E-3,-5.7914257E-3,2.5274754E-3,-4.0113926E-3,4.4697666E-1,4.471693E-1,4.4394875E-1,
1570773566,2019-10-11 05:59:26.439,-4.35853E-3,-2.891779E-3,4.891157E-3,-1.3742447E-3,4.5537472E-1,4.550991E-1,4.5266533E-1,
