Time(longsecs),Time(UTC),External SOH Voltage 1(V),External SOH Voltage 2(V),External SOH Voltage 3(V),External SOH Voltage 4(V),Sensor SOH Voltage 1(V),Sensor SOH Voltage 2(V),Sensor SOH Voltage 3(V),
1570600811,2019-10-09 06:00:11.767,-6.015539E-3,-1.187563E-3,-4.5609474E-3,1.2674332E-3,2.0363903E-1,1.9976616E-1,2.0537853E-1,
1570600871,2019-10-09 06:01:11.767,-3.7710667E-3,1.3124943E-3,-1.9328594E-3,3.772974E-3,2.0730591E-1,2.0933533E-1,2.1431923E-1,
1570600931,2019-10-09 06:02:11.767,-3.784418E-3,1.4624596E-3,-2.036333E-3,3.7827492E-3,2.00943E-1,2.1183872E-1,2.054739E-1,
1570600991,2019-10-09 06:03:11.767,-3.5934448E-3,1.459837E-3,-2.1038055E-3,3.7112236E-3,2.0149612E-1,2.0402622E-1,2.0462036E-1,
1570601051,2019-10-09 06:04:11.767,-6.1397552E-3,-1.2648106E-3,-4.502058E-3,1.3523102E-3,2.0305443E-1,1.9790936E-1,1.9882107E-1,
1570601111,2019-10-09 06:05:11.767,-4.5113564E-3,6.554127E-4,-2.4943352E-3,3.4747124E-3,2.0909977E-1,2.0933723E-1,2.0886993E-1,
1570601171,2019-10-09 06:06:11.767,-6.39081E-3,-1.3046265E-3,-4.7945976E-3,9.1457367E-4,2.0072842E-1,1.9800282E-1,2.0009804E-1,
1570601231,2019-10-09 06:07:11.767,-4.5301914E-3,5.302429E-4,-2.2501945E-3,3.5521984E-3,2.0702839E-1,2.0890617E-1,2.1127033E-1,
1570601291,2019-10-09 06:08:11.769,-4.0607452E-3,1.437664E-3,-2.4533272E-3,3.305912E-3,2.0352364E-1,2.045927E-1,2.0580006E-1,
1570601351,2019-10-09 06:09:11.767,-3.7105083E-3,8.1801414E-4,-2.5427341E-3,3.5808086E-3,2.0308495E-1,2.1010685E-1,2.0289612E-1,
1570601411,2019-10-09 06:10:11.767,-4.424095E-3,8.122921E-4,-2.8669834E-3,3.6475658E-3,1.9967747E-1,2.0846367E-1,2.0723438E-1,
1570601471,2019-10-09 06:11:11.767,-1.9521713E-3,3.4558773E-3,-3.2782555E-4,5.3532124E-3,2.128191E-1,2.1611023E-1,2.116909E-1,
1570601531,2019-10-09 06:12:11.767,-1.9540787E-3,3.2408237E-3,-9.226799E-5,6.084919E-3,2.1307278E-1,2.1545887E-1,2.1082306E-1,
1570601591,2019-10-09 06:13:11.767,-6.19936E-3,-1.1134148E-3,-4.1639805E-3,1.4567375E-3,1.9701385E-1,2.0282078E-1,1.999073E-1,
1570601651,2019-10-09 06:14:11.767,-3.6563873E-3,1.1546612E-3,-2.3241043E-3,3.7810802E-3,2.0934391E-1,2.0941925E-1,2.1367645E-1,
1570601711,2019-10-09 06:15:11.817,-4.0023327E-3,1.2352467E-3,-1.8913746E-3,3.8707256E-3,2.0248985E-1,2.0515251E-1,2.0146465E-1,
1570601771,2019-10-09 06:16:11.767,-3.6756992E-3,1.3480186E-3,-2.3875237E-3,4.4765472E-3,2.08251E-1,2.0905685E-1,2.128067E-1,
1570601831,2019-10-09 06:17:11.767,-3.6911964E-3,1.3546944E-3,-1.9876957E-3,3.6568642E-3,2.0834923E-1,2.0953846E-1,1.973114E-1,
1570601891,2019-10-09 06:18:11.767,-6.262064E-3,-1.1942387E-3,-4.4772625E-3,1.6610622E-3,1.9690704E-1,2.0269775E-1,1.9279861E-1,
1570601951,2019-10-09 06:19:11.769,-2.015829E-3,3.1313896E-3,-2.8467178E-4,4.9951077E-3,2.1286106E-1,2.1543121E-1,2.1786594E-1,
1570602011,2019-10-09 06:20:11.767,-6.0076714E-3,-1.2922287E-3,-4.906893E-3,1.2345314E-3,2.0027924E-1,1.9881535E-1,1.9991684E-1,
1570602071,2019-10-09 06:21:11.769,-3.606081E-3,1.265049E-3,-2.5098324E-3,3.730297E-3,2.0308304E-1,2.1150112E-1,2.1596146E-1,
1570602131,2019-10-09 06:22:11.767,-3.9732456E-3,1.0182858E-3,-2.3818016E-3,3.3433437E-3,2.0822811E-1,2.0951557E-1,2.1152306E-1,
1570602191,2019-10-09 06:23:11.767,-3.8490295E-3,1.563549E-3,-1.5022755E-3,4.098177E-3,2.0934772E-1,2.0948315E-1,2.0552063E-1,
1570602251,2019-10-09 06:24:11.767,-1.7366409E-3,2.8436184E-3,1.8429756E-4,5.9900284E-3,2.1003819E-1,2.1871471E-1,2.1792984E-1,
1570602311,2019-10-09 06:25:11.767,-1.958847E-3,3.118515E-3,-3.5381317E-4,5.674362E-3,2.0908642E-1,2.1771526E-1,2.1833992E-1,
1570602371,2019-10-09 06:26:11.767,-3.8001537E-3,7.9107285E-4,-2.4971962E-3,3.4239292E-3,2.0924377E-1,2.0940876E-1,2.134819E-1,
1570602431,2019-10-09 06:27:11.767,-4.431486E-3,6.0510635E-4,-2.4263859E-3,3.2024384E-3,2.0731163E-1,2.0443344E-1,2.0048141E-1,
1570602491,2019-10-09 06:28:11.767,-1.994133E-3,3.1638145E-3,-1.5568733E-4,6.249428E-3,2.101841E-1,2.1604347E-1,2.1571922E-1,
1570602551,2019-10-09 06:29:11.767,-6.44207E-3,-1.0089874E-3,-4.701376E-3,1.1177063E-3,1.9560242E-1,2.0386028E-1,2.0386982E-1,
1570602611,2019-10-09 06:30:11.767,-2.0487309E-3,3.2413006E-3,-5.390644E-4,6.269932E-3,2.133913E-1,2.1642208E-1,2.0824718E-1,
1570602671,2019-10-09 06:31:11.767,-6.4394474E-3,-9.572506E-4,-4.702091E-3,1.22118E-3,2.003746E-1,1.9869137E-1,1.9788647E-1,
1570602731,2019-10-09 06:32:11.767,-1.7313957E-3,2.7093887E-3,-1.7881393E-4,5.175352E-3,2.1368504E-1,2.1172905E-1,2.1943378E-1,
1570602791,2019-10-09 06:33:11.767,-6.4706802E-3,-1.7375946E-3,-4.8360825E-3,1.4204979E-3,2.0403004E-1,1.9740391E-1,1.9360065E-1,
1570602851,2019-10-09 06:34:11.769,-1.7006397E-3,2.7925968E-3,-2.8395653E-4,5.685568E-3,2.1466446E-1,2.157669E-1,2.1304321E-1,
1570602911,2019-10-09 06:35:11.767,-6.416321E-3,-1.2705326E-3,-4.5678616E-3,1.3439655E-3,1.9735336E-1,1.9858932E-1,1.9699669E-1,
1570602971,2019-10-09 06:36:11.769,-5.911112E-3,-1.4231205E-3,-4.7795773E-3,1.0204315E-3,2.0302963E-1,2.0594406E-1,2.0136356E-1,
1570603031,2019-10-09 06:37:11.767,-1.9097328E-3,3.1843185E-3,-5.056858E-4,5.935192E-3,2.1330357E-1,2.1512413E-1,2.16856E-1,
1570603091,2019-10-09 06:38:11.767,-1.8234253E-3,3.026247E-3,-2.977848E-4,5.7406425E-3,2.1322346E-1,2.2004986E-1,2.24329E-1,
1570603151,2019-10-09 06:39:11.767,-2.0565987E-3,2.872467E-3,-2.732277E-4,5.5835247E-3,2.1231651E-1,2.1510696E-1,2.1465111E-1,
1570603211,2019-10-09 06:40:11.767,-3.3323765E-3,1.2304783E-3,-2.1169186E-3,3.7965775E-3,2.1065807E-1,2.1175098E-1,2.1546078E-1,
1570603271,2019-10-09 06:41:11.767,-1.5580654E-3,3.0345917E-3,-3.9744377E-4,5.5634975E-3,2.1766186E-1,2.1460724E-1,2.0323944E-1,
1570603331,2019-10-09 06:42:11.799,-4.2369366E-3,1.6050339E-3,-2.5687218E-3,3.5250187E-3,2.0290947E-1,2.016182E-1,2.0124531E-1,
1570603391,2019-10-09 06:43:11.767,-6.2758923E-3,-1.6312599E-3,-4.009962E-3,1.3375282E-3,1.9564915E-1,2.0491982E-1,2.0820904E-1,
1570603451,2019-10-09 06:44:11.791,-3.8540363E-3,1.1804104E-3,-2.240181E-3,3.6313534E-3,2.0949459E-1,2.1089935E-1,2.0804119E-1,
1570603511,2019-10-09 06:45:11.767,-6.654501E-3,-1.5516281E-3,-4.66156E-3,1.2962818E-3,1.9923782E-1,2.0198727E-1,1.9959831E-1,
1570603571,2019-10-09 06:46:11.767,-3.601551E-3,1.573801E-3,-2.0956993E-3,3.5266876E-3,2.0735264E-1,2.1115303E-1,2.0755863E-1,
1570603631,2019-10-09 06:47:11.767,-2.0141602E-3,2.8181076E-3,2.5844574E-4,5.9432983E-3,2.1375084E-1,2.1418667E-1,2.128849E-1,
1570603691,2019-10-09 06:48:11.767,-6.0915947E-3,-1.480341E-3,-4.4190884E-3,8.5663795E-4,2.0047379E-1,2.0215416E-1,2.035923E-1,
1570603751,2019-10-09 06:49:11.777,-1.8138885E-3,3.430128E-3,-3.7765503E-4,5.5844784E-3,2.0932293E-1,2.1787834E-1,2.1333885E-1,
1570603811,2019-10-09 06:50:11.767,-6.5431595E-3,-1.3062954E-3,-4.750967E-3,1.1966228E-3,2.0090199E-1,2.0554638E-1,2.1023846E-1,
1570603871,2019-10-09 06:51:11.767,-4.0228367E-3,5.6004524E-4,-2.516985E-3,2.8834343E-3,2.0147991E-1,2.0625114E-1,2.0553684E-1,
1570603931,2019-10-09 06:52:11.767,-1.7588139E-3,2.9661655E-3,-1.1110306E-4,5.90539E-3,2.0875359E-1,2.1497631E-1,2.0634365E-1,
1570603991,2019-10-09 06:53:11.767,-4.444599E-3,4.8708916E-4,-2.837658E-3,3.0014515E-3,2.0666122E-1,2.1079063E-1,2.0758057E-1,
1570604051,2019-10-09 06:54:11.767,-4.2164326E-3,9.114742E-4,-2.2974014E-3,3.2305717E-3,2.0952034E-1,2.1242714E-1,2.0672894E-1,
1570604111,2019-10-09 06:55:11.767,-2.3860931E-3,3.0136108E-3,-5.276203E-4,5.654335E-3,2.1475887E-1,2.1114731E-1,2.0346451E-1,
1570604171,2019-10-09 06:56:11.782,-1.9629002E-3,3.314972E-3,1.2540817E-4,6.0606003E-3,2.1374798E-1,2.1624088E-1,2.1103954E-1,
1570604231,2019-10-09 06:57:11.769,-4.4231415E-3,3.0612946E-4,-2.7143955E-3,3.4074783E-3,2.0880222E-1,2.087965E-1,2.0344543E-1,
1570604291,2019-10-09 06:58:11.767,-4.6350956E-3,5.7029724E-4,-2.687931E-3,3.266573E-3,2.0671749E-1,2.051506E-1,2.0442486E-1,
1570604351,2019-10-09 06:59:11.767,-6.5836906E-3,-1.2054443E-3,-4.860401E-3,1.0545254E-3,2.026949E-1,2.0725441E-1,2.0464897E-1,
