Time(longsecs),Time(UTC),GPS Satellite Acquisition Flag 1,GPS Satellite Acquisition Flag 2,GPS Satellite Acquisition Flag 3,GPS Satellite Acquisition Flag 4,GPS Satellite Acquisition Flag 5,GPS Satellite Acquisition Flag 6,GPS Satellite Acquisition Flag 7,GPS Satellite Acquisition Flag 8,GPS Satellite Acquisition Flag 9,GPS Satellite Acquisition Flag 10,GPS Satellite Acquisition Flag 11,GPS Satellite Acquisition Flag 12,GPS Satellite Azimuth 1(Degrees),GPS Satellite Azimuth 2(Degrees),GPS Satellite Azimuth 3(Degrees),GPS Satellite Azimuth 4(Degrees),GPS Satellite Azimuth 5(Degrees),GPS Satellite Azimuth 6(Degrees),GPS Satellite Azimuth 7(Degrees),GPS Satellite Azimuth 8(Degrees),GPS Satellite Azimuth 9(Degrees),GPS Satellite Azimuth 10(Degrees),GPS Satellite Azimuth 11(Degrees),GPS Satellite Azimuth 12(Degrees),GPS Satellite Elevation 1(Degrees),GPS Satellite Elevation 2(Degrees),GPS Satellite Elevation 3(Degrees),GPS Satellite Elevation 4(Degrees),GPS Satellite Elevation 5(Degrees),GPS Satellite Elevation 6(Degrees),GPS Satellite Elevation 7(Degrees),GPS Satellite Elevation 8(Degrees),GPS Satellite Elevation 9(Degrees),GPS Satellite Elevation 10(Degrees),GPS Satellite Elevation 11(Degrees),GPS Satellite Elevation 12(Degrees),GPS Satellite PRN 1,GPS Satellite PRN 2,GPS Satellite PRN 3,GPS Satellite PRN 4,GPS Satellite PRN 5,GPS Satellite PRN 6,GPS Satellite PRN 7,GPS Satellite PRN 8,GPS Satellite PRN 9,GPS Satellite PRN 10,GPS Satellite PRN 11,GPS Satellite PRN 12,GPS Satellite Signal Level 1(AMU),GPS Satellite Signal Level 2(AMU),GPS Satellite Signal Level 3(AMU),GPS Satellite Signal Level 4(AMU),GPS Satellite Signal Level 5(AMU),GPS Satellite Signal Level 6(AMU),GPS Satellite Signal Level 7(AMU),GPS Satellite Signal Level 8(AMU),GPS Satellite Signal Level 9(AMU),GPS Satellite Signal Level 10(AMU),GPS Satellite Signal Level 11(AMU),GPS Satellite Signal Level 12(AMU),
1570626011,2019-10-09 13:00:11.767,Acquired,Acquired,Acquired,Acquired,Acquired,Acquired,Acquired,Acquired,Acquired,Acquired,Not acquired,,1.32547032E2,5.4644968E1,3.0578224E2,2.0389676799999998E2,1.57819616E2,2.60938768E2,2.8623136E2,7.7394032E1,1.77894576E2,5.320308E1,4.1641576E1,,3.8516943999999995E1,7.3349272E1,2.6801078E1,2.9358839999999997E1,2.215564E1,4.5985856E1,4.2646119999999996E1,5.2289511999999995E1,6.0648992E1,1.9291798E1,1.0463071E1,,1,3,6,9,11,17,19,22,23,31,14,,11,15,1,15,6,12,7,1,16,4,0,,
1570626071,2019-10-09 13:01:11.808,Acquired,Acquired,Acquired,Acquired,Acquired,Acquired,Acquired,Acquired,Acquired,Acquired,Not acquired,,1.32547032E2,5.4644968E1,3.0578224E2,2.0389676799999998E2,1.57819616E2,2.60938768E2,2.8623136E2,7.7394032E1,1.77894576E2,5.320308E1,4.1641576E1,,3.8516943999999995E1,7.3349272E1,2.6801078E1,2.9358839999999997E1,2.215564E1,4.5985856E1,4.2646119999999996E1,5.2289511999999995E1,6.0648992E1,1.9291798E1,1.0463071E1,,1,3,6,9,11,17,19,22,23,31,14,,11,15,1,15,6,12,7,1,16,4,0,,
1570626131,2019-10-09 13:02:11.805,Acquired,Acquired,Acquired,Acquired,Acquired,Acquired,Acquired,Acquired,Acquired,Acquired,Not acquired,,1.32547032E2,5.4644968E1,3.0578224E2,2.0389676799999998E2,1.57819616E2,2.60938768E2,2.8623136E2,7.7394032E1,1.77894576E2,5.320308E1,4.1641576E1,,3.8516943999999995E1,7.3349272E1,2.6801078E1,2.9358839999999997E1,2.215564E1,4.5985856E1,4.2646119999999996E1,5.2289511999999995E1,6.0648992E1,1.9291798E1,1.0463071E1,,1,3,6,9,11,17,19,22,23,31,14,,11,15,1,15,6,12,7,1,16,4,0,,
1570626191,2019-10-09 13:03:11.805,Acquired,Acquired,Acquired,Acquired,Acquired,Acquired,Acquired,Acquired,Acquired,Acquired,Not acquired,,1.32547032E2,5.4644968E1,3.0578224E2,2.0389676799999998E2,1.57819616E2,2.60938768E2,2.8623136E2,7.7394032E1,1.77894576E2,5.320308E1,4.1641576E1,,3.8516943999999995E1,7.3349272E1,2.6801078E1,2.9358839999999997E1,2.215564E1,4.5985856E1,4.2646119999999996E1,5.2289511999999995E1,6.0648992E1,1.9291798E1,1.0463071E1,,1,3,6,9,11,17,19,22,23,31,14,,11,15,1,15,6,12,7,1,16,4,0,,
1570626251,2019-10-09 13:04:11.767,Acquired,Acquired,Acquired,Acquired,Acquired,Acquired,Acquired,Acquired,Acquired,Acquired,Not acquired,,1.32547032E2,5.4644968E1,3.0578224E2,2.0389676799999998E2,1.57819616E2,2.60938768E2,2.8623136E2,7.7394032E1,1.77894576E2,5.320308E1,4.1641576E1,,3.8516943999999995E1,7.3349272E1,2.6801078E1,2.9358839999999997E1,2.215564E1,4.5985856E1,4.2646119999999996E1,5.2289511999999995E1,6.0648992E1,1.9291798E1,1.0463071E1,,1,3,6,9,11,17,19,22,23,31,14,,11,15,1,15,6,12,7,1,16,4,0,,
1570626311,2019-10-09 13:05:11.767,Acquired,Acquired,Acquired,Acquired,Acquired,Acquired,Acquired,Acquired,Acquired,Acquired,Not acquired,,1.32547032E2,5.4644968E1,3.0578224E2,2.0389676799999998E2,1.57819616E2,2.60938768E2,2.8623136E2,7.7394032E1,1.77894576E2,5.320308E1,4.1641576E1,,3.8516943999999995E1,7.3349272E1,2.6801078E1,2.9358839999999997E1,2.215564E1,4.5985856E1,4.2646119999999996E1,5.2289511999999995E1,6.0648992E1,1.9291798E1,1.0463071E1,,1,3,6,9,11,17,19,22,23,31,14,,11,15,1,15,6,12,7,1,16,4,0,,
1570626371,2019-10-09 13:06:11.768,Acquired,Acquired,Acquired,Acquired,Acquired,Acquired,Acquired,Acquired,Acquired,Acquired,Not acquired,,1.32547032E2,5.4644968E1,3.0578224E2,2.0389676799999998E2,1.57819616E2,2.60938768E2,2.8623136E2,7.7394032E1,1.77894576E2,5.320308E1,4.1641576E1,,3.8516943999999995E1,7.3349272E1,2.6801078E1,2.9358839999999997E1,2.215564E1,4.5985856E1,4.2646119999999996E1,5.2289511999999995E1,6.0648992E1,1.9291798E1,1.0463071E1,,1,3,6,9,11,17,19,22,23,31,14,,11,15,1,15,6,12,7,1,16,4,0,,
1570626431,2019-10-09 13:07:11.767,Acquired,Acquired,Acquired,Acquired,Acquired,Acquired,Acquired,Acquired,Acquired,Acquired,Not acquired,,1.32547032E2,5.4644968E1,3.0578224E2,2.0389676799999998E2,1.57819616E2,2.60938768E2,2.8623136E2,7.7394032E1,1.77894576E2,5.320308E1,4.1641576E1,,3.8516943999999995E1,7.3349272E1,2.6801078E1,2.9358839999999997E1,2.215564E1,4.5985856E1,4.2646119999999996E1,5.2289511999999995E1,6.0648992E1,1.9291798E1,1.0463071E1,,1,3,6,9,11,17,19,22,23,31,14,,11,15,1,15,6,12,7,1,16,4,0,,
1570626491,2019-10-09 13:08:11.767,Acquired,,Acquired,Acquired,Acquired,Acquired,Acquired,Acquired,Acquired,Acquired,Not acquired,,1.3279336E2,,3.05837408E2,2.03990592E2,1.57868416E2,2.6029603199999997E2,2.8559894399999996E2,7.7664344E1,1.77615184E2,5.27628E1,4.160066E1,,3.8076048E1,,2.7212676E1,2.9820182E1,2.1713044E1,4.5822756E1,4.2722319999999996E1,5.1882624E1,6.1113423999999995E1,1.9254458E1,1.0087745E1,,1,,6,9,11,17,19,22,23,31,14,,12,,2,15,8,15,5,5,15,2,0,,
1570626551,2019-10-09 13:09:11.767,,,,,,,,,Not acquired,,,,,,,,,,,,3.6541804E1,,,,,,,,,,,,1.4018263999999999E1,,,,,,,,,,,,31,,,,,,,,,,,,0,,,,
1570626611,2019-10-09 13:10:11.770,Acquired,Acquired,Acquired,Acquired,Acquired,Acquired,Acquired,Acquired,Not acquired,Not acquired,,,1.4145824E2,7.698345599999999E1,3.0423519999999996E2,2.08569472E2,2.3849649599999998E2,2.5919975999999997E2,8.8819824E1,1.40710592E2,3.6206891999999996E1,3.14261952E2,,,2.0015686E1,5.5608695999999995E1,4.4813224E1,4.976894E1,3.4395368E1,3.9521724E1,3.5363896E1,7.715740799999999E1,1.3811224E1,5.376664E0,,,1,3,6,9,17,19,22,23,31,2,,,4,14,3,15,14,8,4,15,2,0,,,
1570626671,2019-10-09 13:11:11.767,Acquired,Acquired,Acquired,Acquired,Acquired,Acquired,Acquired,Acquired,Not acquired,Not acquired,,,1.4163248E2,7.7378288E1,3.0406582399999996E2,2.0869144E2,2.3809067199999998E2,2.58624752E2,8.9086728E1,1.38714432E2,3.5865676E1,3.1430591999999996E2,,,1.9587376E1,5.5192091999999995E1,4.524086E1,5.0267199999999995E1,3.4037864E1,3.9303152E1,3.4973732E1,7.7349104E1,1.3594814E1,5.749997E0,,,1,3,6,9,17,19,22,23,31,2,,,2,15,6,15,15,6,1,15,1,0,,,
1570626731,2019-10-09 13:12:11.767,Acquired,Acquired,Acquired,Acquired,Acquired,Acquired,Acquired,Acquired,Acquired,Not acquired,,,1.4179896E2,7.775612799999999E1,3.03894496E2,2.08809216E2,2.3770438399999998E2,2.58075472E2,8.934381599999999E1,1.36732144E2,3.5539972E1,3.1434592E2,,,1.917505E1,5.4790879999999994E1,4.565246E1,5.0748036E1,3.3690971999999995E1,3.9087268E1,3.4598116E1,7.7516312E1,1.3383023999999999E1,6.110206E0,,,1,3,6,9,17,19,22,23,31,2,,,2,15,7,16,15,4,3,12,1,0,,,
1570626791,2019-10-09 13:13:11.767,Acquired,Acquired,Acquired,Acquired,Acquired,Acquired,Acquired,Acquired,Not acquired,Not acquired,,,1.41970624E2,7.8146664E1,3.03707488E2,2.08931888E2,2.37320416E2,2.5752788799999996E2,8.960215199999999E1,1.3468439999999998E2,3.5215531999999996E1,3.14383712E2,,,1.8746256E1,5.4373476E1,4.6080256E1,5.124914E1,3.3339867999999996E1,3.886508E1,3.4220659999999995E1,7.766632E1,1.3166801999999999E1,6.47283E0,,,1,3,6,9,17,19,22,23,31,2,,,3,12,8,16,13,9,2,10,1,0,,,
1570626851,2019-10-09 13:14:11.767,Acquired,Acquired,Acquired,Acquired,Acquired,Acquired,Acquired,Acquired,Acquired,Not acquired,,,1.4213424E2,7.8519728E1,3.03519072E2,2.09050048E2,2.3692961599999998E2,2.56968848E2,8.9868168E1,1.32522776E2,3.4884527999999996E1,3.14420128E2,,,1.8334336E1,5.3972352E1,4.6491E1,5.1731668E1,3.2975822E1,3.8630908E1,3.3832144E1,7.78012E1,1.294074E1,6.846926E0,,,1,3,6,9,17,19,22,23,31,2,,,4,14,8,16,12,11,1,11,2,0,,,
1570626911,2019-10-09 13:15:11.767,Acquired,Acquired,Acquired,Acquired,Acquired,Acquired,Acquired,Acquired,Not acquired,Not acquired,,,1.42296E2,7.888947999999999E1,3.0332256E2,2.09167984E2,2.36557536E2,2.5643510399999997E2,9.0124344E1,1.30395632E2,3.4568736E1,3.1445279999999997E2,,,1.7923828E1,5.3572468E1,4.6900031999999996E1,5.2213615999999995E1,3.2622882E1,3.8400316E1,3.3458084E1,7.7911672E1,1.2719754E1,7.207834E0,,,1,3,6,9,17,19,22,23,31,2,,,1,14,10,16,12,9,3,11,1,0,,,
1570626971,2019-10-09 13:16:11.770,Acquired,Acquired,Acquired,Acquired,Acquired,Acquired,Acquired,Acquired,Acquired,Not acquired,,,1.4246204799999998E2,7.927017599999999E1,3.03109632E2,2.09290256E2,2.3617654399999998E2,2.5588727999999998E2,9.03896E1,1.28152752E2,3.4244828E1,3.1448409599999997E2,,,1.7498914E1,5.3158392E1,4.7323015999999996E1,5.2713567999999995E1,3.225506E1,3.8156372E1,3.3070854E1,7.8005392E1,1.2487592E1,7.582104999999999E0,,,1,3,6,9,17,19,22,23,31,2,,,1,12,11,15,2,6,3,14,1,0,,,
1570627031,2019-10-09 13:17:11.767,Acquired,,,,Acquired,Acquired,Acquired,Acquired,Acquired,Not acquired,,,1.4262094399999998E2,,,,2.3581295999999998E2,2.55363264E2,9.06456E1,1.25956384E2,3.3935216E1,3.14511808E2,,,1.708896E1,,,,3.189784E1,3.7916024E1,3.2697218E1,7.8075368E1,1.2260345E1,7.943963999999999E0,,,1,,,,17,19,22,23,31,2,,,4,,,,6,9,2,14,1,0,,,
1570627091,2019-10-09 13:18:11.768,,,,,Acquired,,,,,Not acquired,,,,,,,2.3545441599999998E2,,,,,3.14536896E2,,,,,,,3.1539564E1,,,,,8.305403E0,,,,,,,17,,,,,2,,,,,,,6,,,,,0,,,
1570627151,2019-10-09 13:19:11.767,,,,,,,,,,Not acquired,,,,,,,,,,,,3.14560384E2,,,,,,,,,,,,8.682784999999999E0,,,,,,,,,,,,2,,,,,,,,,,,,0,,,
1570627211,2019-10-09 13:20:11.767,Acquired,Acquired,Acquired,Acquired,Acquired,Acquired,Acquired,Acquired,Not acquired,Not acquired,,,1.4309423999999999E2,8.073172799999999E1,3.02184864E2,2.097664E2,2.34734752E2,2.53803392E2,9.1421472E1,1.1918782399999999E2,3.3014815999999996E1,3.1458025599999996E2,,,1.5847169E1,5.154736E1,4.8961971999999996E1,5.466768E1,3.080237E1,3.715896E1,3.156508E1,7.816148799999999E1,1.1552629E1,9.044559999999999E0,,,1,3,6,9,17,19,22,23,31,2,,,3,14,14,15,2,12,1,15,2,0,,,
1570627271,2019-10-09 13:21:11.767,,,,,,,,,,Not acquired,,,,,,,,,,,,3.14598272E2,,,,,,,,,,,,9.419894E0,,,,,,,,,,,,2,,,,,,,,,,,,0,,,
1570627331,2019-10-09 13:22:11.767,,,,,,,,,,Not acquired,,,,,,,,,,,,3.14612928E2,,,,,,,,,,,,9.782072E0,,,,,,,,,,,,2,,,,,,,,,,,,0,,,
1570627391,2019-10-09 13:23:11.767,,,,,,,,,,Not acquired,,,,,,,,,,,,3.14624896E2,,,,,,,,,,,,1.0145042E1,,,,,,,,,,,,2,,,,,,,,,,,,0,,,
1570627451,2019-10-09 13:24:11.767,,,,,,,Acquired,,,Not acquired,,,,,,,,,9.245783999999999E1,,,3.14634496E2,,,,,,,,,3.0053144E1,,,1.0523133E1,,,,,,,,,22,,,2,,,,,,,,,2,,,0,,,
1570627511,2019-10-09 13:25:11.767,Acquired,Acquired,Acquired,Acquired,Acquired,Acquired,Acquired,Acquired,Search,Not acquired,,,1.43853072E2,8.251908E1,3.0079215999999997E2,2.1035908799999999E2,2.3301791999999998E2,2.51306848E2,9.2710544E1,1.0808187199999999E2,3.1546034E1,3.1464096E2,,,1.3785995999999999E1,4.9533643999999995E1,5.0988948E1,5.7129827999999996E1,2.8942838E1,3.5810604E1,2.9684392E1,7.788190399999999E1,1.031556E1,1.0885207E1,,,1,3,6,9,17,19,22,23,31,2,,,2,13,12,15,7,9,1,15,0,0,,,
1570627571,2019-10-09 13:26:11.767,Acquired,Acquired,Acquired,Acquired,Acquired,Acquired,Acquired,Acquired,Search,Not acquired,,,1.43853072E2,8.251908E1,3.0079215999999997E2,2.1035908799999999E2,2.3301791999999998E2,2.51306848E2,9.2710544E1,1.0808187199999999E2,3.1546034E1,3.1464096E2,,,1.3785995999999999E1,4.9533643999999995E1,5.0988948E1,5.7129827999999996E1,2.8942838E1,3.5810604E1,2.9684392E1,7.788190399999999E1,1.031556E1,1.0885207E1,,,1,3,6,9,17,19,22,23,31,2,,,2,13,12,15,7,9,1,15,0,0,,,
1570627631,2019-10-09 13:27:11.767,Acquired,Acquired,Acquired,Acquired,Acquired,Acquired,Acquired,Acquired,Search,Not acquired,,,1.43853072E2,8.251908E1,3.0079215999999997E2,2.1035908799999999E2,2.3301791999999998E2,2.51306848E2,9.2710544E1,1.0808187199999999E2,3.1546034E1,3.1464096E2,,,1.3785995999999999E1,4.9533643999999995E1,5.0988948E1,5.7129827999999996E1,2.8942838E1,3.5810604E1,2.9684392E1,7.788190399999999E1,1.031556E1,1.0885207E1,,,1,3,6,9,17,19,22,23,31,2,,,2,13,12,15,7,9,1,15,0,0,,,
1570627691,2019-10-09 13:28:11.767,Acquired,Acquired,Acquired,Acquired,Acquired,Acquired,Acquired,Acquired,Search,Not acquired,,,1.43853072E2,8.251908E1,3.0079215999999997E2,2.1035908799999999E2,2.3301791999999998E2,2.51306848E2,9.2710544E1,1.0808187199999999E2,3.1546034E1,3.1464096E2,,,1.3785995999999999E1,4.9533643999999995E1,5.0988948E1,5.7129827999999996E1,2.8942838E1,3.5810604E1,2.9684392E1,7.788190399999999E1,1.031556E1,1.0885207E1,,,1,3,6,9,17,19,22,23,31,2,,,2,13,12,15,7,9,1,15,0,0,,,
1570627751,2019-10-09 13:29:11.783,Acquired,Acquired,Acquired,Acquired,Acquired,Acquired,Acquired,Acquired,Search,Not acquired,,,1.43853072E2,8.251908E1,3.0079215999999997E2,2.1035908799999999E2,2.3301791999999998E2,2.51306848E2,9.2710544E1,1.0808187199999999E2,3.1546034E1,3.1464096E2,,,1.3785995999999999E1,4.9533643999999995E1,5.0988948E1,5.7129827999999996E1,2.8942838E1,3.5810604E1,2.9684392E1,7.788190399999999E1,1.031556E1,1.0885207E1,,,1,3,6,9,17,19,22,23,31,2,,,2,13,12,15,7,9,1,15,0,0,,,
1570627811,2019-10-09 13:30:11.767,Acquired,Acquired,Acquired,Acquired,Acquired,Acquired,Acquired,Acquired,Search,Not acquired,,,1.43853072E2,8.251908E1,3.0079215999999997E2,2.1035908799999999E2,2.3301791999999998E2,2.51306848E2,9.2710544E1,1.0808187199999999E2,3.1546034E1,3.1464096E2,,,1.3785995999999999E1,4.9533643999999995E1,5.0988948E1,5.7129827999999996E1,2.8942838E1,3.5810604E1,2.9684392E1,7.788190399999999E1,1.031556E1,1.0885207E1,,,1,3,6,9,17,19,22,23,31,2,,,2,13,12,15,7,9,1,15,0,0,,,
1570627871,2019-10-09 13:31:11.767,Acquired,Acquired,Acquired,Acquired,Acquired,Acquired,Acquired,Acquired,Search,Not acquired,,,1.43853072E2,8.251908E1,3.0079215999999997E2,2.1035908799999999E2,2.3301791999999998E2,2.51306848E2,9.2710544E1,1.0808187199999999E2,3.1546034E1,3.1464096E2,,,1.3785995999999999E1,4.9533643999999995E1,5.0988948E1,5.7129827999999996E1,2.8942838E1,3.5810604E1,2.9684392E1,7.788190399999999E1,1.031556E1,1.0885207E1,,,1,3,6,9,17,19,22,23,31,2,,,2,13,12,15,7,9,1,15,0,0,,,
1570627931,2019-10-09 13:32:11.767,Acquired,Acquired,Acquired,Acquired,Acquired,Acquired,Acquired,Acquired,Search,Not acquired,,,1.43853072E2,8.251908E1,3.0079215999999997E2,2.1035908799999999E2,2.3301791999999998E2,2.51306848E2,9.2710544E1,1.0808187199999999E2,3.1546034E1,3.1464096E2,,,1.3785995999999999E1,4.9533643999999995E1,5.0988948E1,5.7129827999999996E1,2.8942838E1,3.5810604E1,2.9684392E1,7.788190399999999E1,1.031556E1,1.0885207E1,,,1,3,6,9,17,19,22,23,31,2,,,2,13,12,15,7,9,1,15,0,0,,,
1570627991,2019-10-09 13:33:11.767,Acquired,Acquired,Acquired,Acquired,Acquired,Acquired,Acquired,Acquired,Search,Not acquired,,,1.43853072E2,8.251908E1,3.0079215999999997E2,2.1035908799999999E2,2.3301791999999998E2,2.51306848E2,9.2710544E1,1.0808187199999999E2,3.1546034E1,3.1464096E2,,,1.3785995999999999E1,4.9533643999999995E1,5.0988948E1,5.7129827999999996E1,2.8942838E1,3.5810604E1,2.9684392E1,7.788190399999999E1,1.031556E1,1.0885207E1,,,1,3,6,9,17,19,22,23,31,2,,,2,13,12,15,7,9,1,15,0,0,,,
1570628051,2019-10-09 13:34:11.767,Acquired,Acquired,Acquired,Acquired,Acquired,Acquired,Acquired,Acquired,Search,Not acquired,,,1.43853072E2,8.251908E1,3.0079215999999997E2,2.1035908799999999E2,2.3301791999999998E2,2.51306848E2,9.2710544E1,1.0808187199999999E2,3.1546034E1,3.1464096E2,,,1.3785995999999999E1,4.9533643999999995E1,5.0988948E1,5.7129827999999996E1,2.8942838E1,3.5810604E1,2.9684392E1,7.788190399999999E1,1.031556E1,1.0885207E1,,,1,3,6,9,17,19,22,23,31,2,,,2,13,12,15,7,9,1,15,0,0,,,
1570628111,2019-10-09 13:35:11.767,Acquired,Acquired,Acquired,Acquired,Acquired,Acquired,Acquired,Acquired,Search,Not acquired,,,1.43853072E2,8.251908E1,3.0079215999999997E2,2.1035908799999999E2,2.3301791999999998E2,2.51306848E2,9.2710544E1,1.0808187199999999E2,3.1546034E1,3.1464096E2,,,1.3785995999999999E1,4.9533643999999995E1,5.0988948E1,5.7129827999999996E1,2.8942838E1,3.5810604E1,2.9684392E1,7.788190399999999E1,1.031556E1,1.0885207E1,,,1,3,6,9,17,19,22,23,31,2,,,2,13,12,15,7,9,1,15,0,0,,,
1570628171,2019-10-09 13:36:11.784,Acquired,Acquired,Acquired,Acquired,Acquired,Acquired,Acquired,Acquired,Search,Not acquired,,,1.43853072E2,8.251908E1,3.0079215999999997E2,2.1035908799999999E2,2.3301791999999998E2,2.51306848E2,9.2710544E1,1.0808187199999999E2,3.1546034E1,3.1464096E2,,,1.3785995999999999E1,4.9533643999999995E1,5.0988948E1,5.7129827999999996E1,2.8942838E1,3.5810604E1,2.9684392E1,7.788190399999999E1,1.031556E1,1.0885207E1,,,1,3,6,9,17,19,22,23,31,2,,,2,13,12,15,7,9,1,15,0,0,,,
1570628231,2019-10-09 13:37:11.767,Acquired,Acquired,Acquired,Acquired,Acquired,Acquired,Acquired,Acquired,Search,Not acquired,,,1.43853072E2,8.251908E1,3.0079215999999997E2,2.1035908799999999E2,2.3301791999999998E2,2.51306848E2,9.2710544E1,1.0808187199999999E2,3.1546034E1,3.1464096E2,,,1.3785995999999999E1,4.9533643999999995E1,5.0988948E1,5.7129827999999996E1,2.8942838E1,3.5810604E1,2.9684392E1,7.788190399999999E1,1.031556E1,1.0885207E1,,,1,3,6,9,17,19,22,23,31,2,,,2,13,12,15,7,9,1,15,0,0,,,
1570628291,2019-10-09 13:38:11.767,Acquired,Acquired,Acquired,Acquired,Acquired,Acquired,Acquired,Acquired,Search,Not acquired,,,1.43853072E2,8.251908E1,3.0079215999999997E2,2.1035908799999999E2,2.3301791999999998E2,2.51306848E2,9.2710544E1,1.0808187199999999E2,3.1546034E1,3.1464096E2,,,1.3785995999999999E1,4.9533643999999995E1,5.0988948E1,5.7129827999999996E1,2.8942838E1,3.5810604E1,2.9684392E1,7.788190399999999E1,1.031556E1,1.0885207E1,,,1,3,6,9,17,19,22,23,31,2,,,2,13,12,15,7,9,1,15,0,0,,,
1570628351,2019-10-09 13:39:11.767,Acquired,Acquired,Acquired,Acquired,Acquired,Acquired,Acquired,Acquired,Search,Not acquired,,,1.43853072E2,8.251908E1,3.0079215999999997E2,2.1035908799999999E2,2.3301791999999998E2,2.51306848E2,9.2710544E1,1.0808187199999999E2,3.1546034E1,3.1464096E2,,,1.3785995999999999E1,4.9533643999999995E1,5.0988948E1,5.7129827999999996E1,2.8942838E1,3.5810604E1,2.9684392E1,7.788190399999999E1,1.031556E1,1.0885207E1,,,1,3,6,9,17,19,22,23,31,2,,,2,13,12,15,7,9,1,15,0,0,,,
1570628411,2019-10-09 13:40:11.767,Acquired,Acquired,Acquired,Acquired,Acquired,Acquired,Acquired,Acquired,Search,Not acquired,,,1.43853072E2,8.251908E1,3.0079215999999997E2,2.1035908799999999E2,2.3301791999999998E2,2.51306848E2,9.2710544E1,1.0808187199999999E2,3.1546034E1,3.1464096E2,,,1.3785995999999999E1,4.9533643999999995E1,5.0988948E1,5.7129827999999996E1,2.8942838E1,3.5810604E1,2.9684392E1,7.788190399999999E1,1.031556E1,1.0885207E1,,,1,3,6,9,17,19,22,23,31,2,,,2,13,12,15,7,9,1,15,0,0,,,
1570628471,2019-10-09 13:41:11.767,Acquired,Acquired,Acquired,Acquired,Acquired,Acquired,Acquired,Acquired,Search,Not acquired,,,1.43853072E2,8.251908E1,3.0079215999999997E2,2.1035908799999999E2,2.3301791999999998E2,2.51306848E2,9.2710544E1,1.0808187199999999E2,3.1546034E1,3.1464096E2,,,1.3785995999999999E1,4.9533643999999995E1,5.0988948E1,5.7129827999999996E1,2.8942838E1,3.5810604E1,2.9684392E1,7.788190399999999E1,1.031556E1,1.0885207E1,,,1,3,6,9,17,19,22,23,31,2,,,2,13,12,15,7,9,1,15,0,0,,,
1570628531,2019-10-09 13:42:11.767,Acquired,Acquired,Acquired,Acquired,Acquired,Acquired,Acquired,Acquired,Search,Not acquired,,,1.4400296E2,8.287742399999999E1,3.00473952E2,2.10478592E2,2.32679984E2,2.50814464E2,9.297232799999999E1,1.0592308E2,3.1257112E1,3.14644864E2,,,1.3367742E1,4.9124587999999996E1,5.1396828E1,5.7632563999999995E1,2.8559721999999997E1,3.5523759999999996E1,2.9302505999999997E1,7.7762648E1,1.005536E1,1.1260774999999999E1,,,1,3,6,9,17,19,22,23,31,2,,,2,15,9,16,6,11,1,15,0,0,,,
1570628591,2019-10-09 13:43:11.767,Not acquired,Acquired,Acquired,Acquired,Acquired,Acquired,Acquired,Acquired,Not acquired,Acquired,Acquired,,3.14241376E2,8.8610424E1,2.9307583999999997E2,2.12311984E2,2.27545648E2,2.4337915199999998E2,9.7287808E1,7.9388136E1,1.46263664E2,1.69738048E2,2.694932E1,,1.7536248E1,4.2360948E1,5.7800464E1,6.6061624E1,2.2024354E1,3.0244304E1,2.2990645999999998E1,7.346444E1,6.478132E0,9.279086999999999E0,5.355391E0,,2,3,6,9,17,19,22,23,1,7,31,,0,6,12,15,15,11,2,11,0,2,2,,
1570628651,2019-10-09 13:44:11.767,Not acquired,Acquired,Acquired,Acquired,Acquired,Acquired,Acquired,Acquired,Not acquired,Acquired,Acquired,,3.14241376E2,8.8610424E1,2.9307583999999997E2,2.12311984E2,2.27545648E2,2.4337915199999998E2,9.7287808E1,7.9388136E1,1.46263664E2,1.69738048E2,2.694932E1,,1.7536248E1,4.2360948E1,5.7800464E1,6.6061624E1,2.2024354E1,3.0244304E1,2.2990645999999998E1,7.346444E1,6.478132E0,9.279086999999999E0,5.355391E0,,2,3,6,9,17,19,22,23,1,7,31,,0,6,12,15,15,11,2,11,0,2,2,,
1570628711,2019-10-09 13:45:11.767,Not acquired,Acquired,Acquired,Acquired,Acquired,Acquired,Acquired,Acquired,Not acquired,Acquired,Acquired,,3.14241376E2,8.8610424E1,2.9307583999999997E2,2.12311984E2,2.27545648E2,2.4337915199999998E2,9.7287808E1,7.9388136E1,1.46263664E2,1.69738048E2,2.694932E1,,1.7536248E1,4.2360948E1,5.7800464E1,6.6061624E1,2.2024354E1,3.0244304E1,2.2990645999999998E1,7.346444E1,6.478132E0,9.279086999999999E0,5.355391E0,,2,3,6,9,17,19,22,23,1,7,31,,0,6,12,15,15,11,2,11,0,2,2,,
1570628771,2019-10-09 13:46:11.767,Not acquired,Acquired,Acquired,Acquired,Acquired,Acquired,Acquired,Acquired,Not acquired,Acquired,Acquired,,3.14241376E2,8.8610424E1,2.9307583999999997E2,2.12311984E2,2.27545648E2,2.4337915199999998E2,9.7287808E1,7.9388136E1,1.46263664E2,1.69738048E2,2.694932E1,,1.7536248E1,4.2360948E1,5.7800464E1,6.6061624E1,2.2024354E1,3.0244304E1,2.2990645999999998E1,7.346444E1,6.478132E0,9.279086999999999E0,5.355391E0,,2,3,6,9,17,19,22,23,1,7,31,,0,6,12,15,15,11,2,11,0,2,2,,
1570628831,2019-10-09 13:47:11.767,Not acquired,Acquired,Acquired,Acquired,Acquired,Acquired,Acquired,Acquired,Not acquired,Acquired,Acquired,,3.14241376E2,8.8610424E1,2.9307583999999997E2,2.12311984E2,2.27545648E2,2.4337915199999998E2,9.7287808E1,7.9388136E1,1.46263664E2,1.69738048E2,2.694932E1,,1.7536248E1,4.2360948E1,5.7800464E1,6.6061624E1,2.2024354E1,3.0244304E1,2.2990645999999998E1,7.346444E1,6.478132E0,9.279086999999999E0,5.355391E0,,2,3,6,9,17,19,22,23,1,7,31,,0,6,12,15,15,11,2,11,0,2,2,,
1570628891,2019-10-09 13:48:11.767,Not acquired,Acquired,Acquired,Acquired,Acquired,Acquired,Acquired,Acquired,Not acquired,Acquired,Acquired,,3.14241376E2,8.8610424E1,2.9307583999999997E2,2.12311984E2,2.27545648E2,2.4337915199999998E2,9.7287808E1,7.9388136E1,1.46263664E2,1.69738048E2,2.694932E1,,1.7536248E1,4.2360948E1,5.7800464E1,6.6061624E1,2.2024354E1,3.0244304E1,2.2990645999999998E1,7.346444E1,6.478132E0,9.279086999999999E0,5.355391E0,,2,3,6,9,17,19,22,23,1,7,31,,0,6,12,15,15,11,2,11,0,2,2,,
1570628951,2019-10-09 13:49:11.767,Not acquired,Acquired,Acquired,Acquired,Acquired,Acquired,Acquired,Acquired,Not acquired,Acquired,Acquired,,3.14241376E2,8.8610424E1,2.9307583999999997E2,2.12311984E2,2.27545648E2,2.4337915199999998E2,9.7287808E1,7.9388136E1,1.46263664E2,1.69738048E2,2.694932E1,,1.7536248E1,4.2360948E1,5.7800464E1,6.6061624E1,2.2024354E1,3.0244304E1,2.2990645999999998E1,7.346444E1,6.478132E0,9.279086999999999E0,5.355391E0,,2,3,6,9,17,19,22,23,1,7,31,,0,6,12,15,15,11,2,11,0,2,2,,
1570629011,2019-10-09 13:50:11.769,Not acquired,Acquired,Acquired,Acquired,Acquired,Acquired,Acquired,Acquired,Not acquired,Acquired,Acquired,,3.14241376E2,8.8610424E1,2.9307583999999997E2,2.12311984E2,2.27545648E2,2.4337915199999998E2,9.7287808E1,7.9388136E1,1.46263664E2,1.69738048E2,2.694932E1,,1.7536248E1,4.2360948E1,5.7800464E1,6.6061624E1,2.2024354E1,3.0244304E1,2.2990645999999998E1,7.346444E1,6.478132E0,9.279086999999999E0,5.355391E0,,2,3,6,9,17,19,22,23,1,7,31,,0,6,12,15,15,11,2,11,0,2,2,,
1570629071,2019-10-09 13:51:11.767,Not acquired,Acquired,Acquired,Acquired,Acquired,Acquired,Acquired,Acquired,Not acquired,Acquired,Acquired,,3.14241376E2,8.8610424E1,2.9307583999999997E2,2.12311984E2,2.27545648E2,2.4337915199999998E2,9.7287808E1,7.9388136E1,1.46263664E2,1.69738048E2,2.694932E1,,1.7536248E1,4.2360948E1,5.7800464E1,6.6061624E1,2.2024354E1,3.0244304E1,2.2990645999999998E1,7.346444E1,6.478132E0,9.279086999999999E0,5.355391E0,,2,3,6,9,17,19,22,23,1,7,31,,0,6,12,15,15,11,2,11,0,2,2,,
1570629131,2019-10-09 13:52:11.767,Not acquired,Acquired,Acquired,Acquired,Acquired,Acquired,Acquired,Acquired,Not acquired,Acquired,Acquired,,3.14241376E2,8.8610424E1,2.9307583999999997E2,2.12311984E2,2.27545648E2,2.4337915199999998E2,9.7287808E1,7.9388136E1,1.46263664E2,1.69738048E2,2.694932E1,,1.7536248E1,4.2360948E1,5.7800464E1,6.6061624E1,2.2024354E1,3.0244304E1,2.2990645999999998E1,7.346444E1,6.478132E0,9.279086999999999E0,5.355391E0,,2,3,6,9,17,19,22,23,1,7,31,,0,6,12,15,15,11,2,11,0,2,2,,
1570629191,2019-10-09 13:53:11.767,Not acquired,Acquired,Acquired,Acquired,Acquired,Acquired,Acquired,Acquired,Not acquired,Acquired,Acquired,,3.14241376E2,8.8610424E1,2.9307583999999997E2,2.12311984E2,2.27545648E2,2.4337915199999998E2,9.7287808E1,7.9388136E1,1.46263664E2,1.69738048E2,2.694932E1,,1.7536248E1,4.2360948E1,5.7800464E1,6.6061624E1,2.2024354E1,3.0244304E1,2.2990645999999998E1,7.346444E1,6.478132E0,9.279086999999999E0,5.355391E0,,2,3,6,9,17,19,22,23,1,7,31,,0,6,12,15,15,11,2,11,0,2,2,,
1570629251,2019-10-09 13:54:11.767,Not acquired,Acquired,Acquired,Acquired,Acquired,Acquired,Acquired,Acquired,Not acquired,Acquired,Acquired,,3.14241376E2,8.8610424E1,2.9307583999999997E2,2.12311984E2,2.27545648E2,2.4337915199999998E2,9.7287808E1,7.9388136E1,1.46263664E2,1.69738048E2,2.694932E1,,1.7536248E1,4.2360948E1,5.7800464E1,6.6061624E1,2.2024354E1,3.0244304E1,2.2990645999999998E1,7.346444E1,6.478132E0,9.279086999999999E0,5.355391E0,,2,3,6,9,17,19,22,23,1,7,31,,0,6,12,15,15,11,2,11,0,2,2,,
1570629311,2019-10-09 13:55:11.767,Not acquired,Acquired,Acquired,Acquired,Acquired,Acquired,Acquired,Acquired,Not acquired,Acquired,Acquired,,3.14241376E2,8.8610424E1,2.9307583999999997E2,2.12311984E2,2.27545648E2,2.4337915199999998E2,9.7287808E1,7.9388136E1,1.46263664E2,1.69738048E2,2.694932E1,,1.7536248E1,4.2360948E1,5.7800464E1,6.6061624E1,2.2024354E1,3.0244304E1,2.2990645999999998E1,7.346444E1,6.478132E0,9.279086999999999E0,5.355391E0,,2,3,6,9,17,19,22,23,1,7,31,,0,6,12,15,15,11,2,11,0,2,2,,
1570629371,2019-10-09 13:56:11.767,Not acquired,Acquired,Acquired,Acquired,Acquired,Acquired,Acquired,Acquired,Not acquired,Acquired,Acquired,,3.14241376E2,8.8610424E1,2.9307583999999997E2,2.12311984E2,2.27545648E2,2.4337915199999998E2,9.7287808E1,7.9388136E1,1.46263664E2,1.69738048E2,2.694932E1,,1.7536248E1,4.2360948E1,5.7800464E1,6.6061624E1,2.2024354E1,3.0244304E1,2.2990645999999998E1,7.346444E1,6.478132E0,9.279086999999999E0,5.355391E0,,2,3,6,9,17,19,22,23,1,7,31,,0,6,12,15,15,11,2,11,0,2,2,,
1570629431,2019-10-09 13:57:11.767,Not acquired,Acquired,Acquired,Acquired,Acquired,Acquired,Acquired,Acquired,Not acquired,Acquired,Acquired,,3.14241376E2,8.8610424E1,2.9307583999999997E2,2.12311984E2,2.27545648E2,2.4337915199999998E2,9.7287808E1,7.9388136E1,1.46263664E2,1.69738048E2,2.694932E1,,1.7536248E1,4.2360948E1,5.7800464E1,6.6061624E1,2.2024354E1,3.0244304E1,2.2990645999999998E1,7.346444E1,6.478132E0,9.279086999999999E0,5.355391E0,,2,3,6,9,17,19,22,23,1,7,31,,0,6,12,15,15,11,2,11,0,2,2,,
1570629491,2019-10-09 13:58:11.767,Not acquired,Acquired,Acquired,Acquired,Acquired,Acquired,Acquired,Acquired,Not acquired,Acquired,Acquired,,3.14241376E2,8.8610424E1,2.9307583999999997E2,2.12311984E2,2.27545648E2,2.4337915199999998E2,9.7287808E1,7.9388136E1,1.46263664E2,1.69738048E2,2.694932E1,,1.7536248E1,4.2360948E1,5.7800464E1,6.6061624E1,2.2024354E1,3.0244304E1,2.2990645999999998E1,7.346444E1,6.478132E0,9.279086999999999E0,5.355391E0,,2,3,6,9,17,19,22,23,1,7,31,,0,6,12,15,15,11,2,11,0,2,2,,
1570629551,2019-10-09 13:59:11.803,Not acquired,Acquired,Acquired,Acquired,Acquired,Acquired,Acquired,Acquired,Not acquired,Acquired,Acquired,,3.14241376E2,8.8610424E1,2.9307583999999997E2,2.12311984E2,2.27545648E2,2.4337915199999998E2,9.7287808E1,7.9388136E1,1.46263664E2,1.69738048E2,2.694932E1,,1.7536248E1,4.2360948E1,5.7800464E1,6.6061624E1,2.2024354E1,3.0244304E1,2.2990645999999998E1,7.346444E1,6.478132E0,9.279086999999999E0,5.355391E0,,2,3,6,9,17,19,22,23,1,7,31,,0,6,12,15,15,11,2,11,0,2,2,,
