Time(longsecs),Time(UTC),GPS Satellite Acquisition Flag 1,GPS Satellite Acquisition Flag 2,GPS Satellite Acquisition Flag 3,GPS Satellite Acquisition Flag 4,GPS Satellite Acquisition Flag 5,GPS Satellite Acquisition Flag 6,GPS Satellite Acquisition Flag 7,GPS Satellite Acquisition Flag 8,GPS Satellite Acquisition Flag 9,GPS Satellite Acquisition Flag 10,GPS Satellite Acquisition Flag 11,GPS Satellite Acquisition Flag 12,GPS Satellite Azimuth 1(Degrees),GPS Satellite Azimuth 2(Degrees),GPS Satellite Azimuth 3(Degrees),GPS Satellite Azimuth 4(Degrees),GPS Satellite Azimuth 5(Degrees),GPS Satellite Azimuth 6(Degrees),GPS Satellite Azimuth 7(Degrees),GPS Satellite Azimuth 8(Degrees),GPS Satellite Azimuth 9(Degrees),GPS Satellite Azimuth 10(Degrees),GPS Satellite Azimuth 11(Degrees),GPS Satellite Azimuth 12(Degrees),GPS Satellite Elevation 1(Degrees),GPS Satellite Elevation 2(Degrees),GPS Satellite Elevation 3(Degrees),GPS Satellite Elevation 4(Degrees),GPS Satellite Elevation 5(Degrees),GPS Satellite Elevation 6(Degrees),GPS Satellite Elevation 7(Degrees),GPS Satellite Elevation 8(Degrees),GPS Satellite Elevation 9(Degrees),GPS Satellite Elevation 10(Degrees),GPS Satellite Elevation 11(Degrees),GPS Satellite Elevation 12(Degrees),GPS Satellite PRN 1,GPS Satellite PRN 2,GPS Satellite PRN 3,GPS Satellite PRN 4,GPS Satellite PRN 5,GPS Satellite PRN 6,GPS Satellite PRN 7,GPS Satellite PRN 8,GPS Satellite PRN 9,GPS Satellite PRN 10,GPS Satellite PRN 11,GPS Satellite PRN 12,GPS Satellite Signal Level 1(AMU),GPS Satellite Signal Level 2(AMU),GPS Satellite Signal Level 3(AMU),GPS Satellite Signal Level 4(AMU),GPS Satellite Signal Level 5(AMU),GPS Satellite Signal Level 6(AMU),GPS Satellite Signal Level 7(AMU),GPS Satellite Signal Level 8(AMU),GPS Satellite Signal Level 9(AMU),GPS Satellite Signal Level 10(AMU),GPS Satellite Signal Level 11(AMU),GPS Satellite Signal Level 12(AMU),
1570618811,2019-10-09 11:00:11.767,Acquired,Acquired,Acquired,Acquired,Acquired,Acquired,Not acquired,Acquired,Acquired,Acquired,Acquired,,7.7896408E1,2.4352736E2,1.68092736E2,1.5525184E2,6.606248E1,3.11163488E2,3.1924105599999996E2,2.46963088E2,1.84899376E2,2.6690286399999997E2,4.4178548E1,,7.982211199999999E1,6.1774848E1,1.8417901999999998E1,6.7901688E1,3.9837388E1,3.2026522E1,1.460909E1,8.6229232E1,1.6711233E1,1.9407828E1,2.2067434E1,,1,3,8,11,14,17,19,22,23,28,32,,15,15,9,12,9,5,0,15,11,1,2,,
1570618871,2019-10-09 11:01:11.767,Acquired,Acquired,Acquired,Acquired,Acquired,Acquired,Not acquired,Acquired,Acquired,Acquired,Acquired,,7.7896408E1,2.4352736E2,1.68092736E2,1.5525184E2,6.606248E1,3.11163488E2,3.1924105599999996E2,2.46963088E2,1.84899376E2,2.6690286399999997E2,4.4178548E1,,7.982211199999999E1,6.1774848E1,1.8417901999999998E1,6.7901688E1,3.9837388E1,3.2026522E1,1.460909E1,8.6229232E1,1.6711233E1,1.9407828E1,2.2067434E1,,1,3,8,11,14,17,19,22,23,28,32,,15,15,9,12,9,5,0,15,11,1,2,,
1570618931,2019-10-09 11:02:11.769,Acquired,Acquired,Acquired,Acquired,Acquired,Acquired,Not acquired,Acquired,Acquired,Acquired,Acquired,,7.7896408E1,2.4352736E2,1.68092736E2,1.5525184E2,6.606248E1,3.11163488E2,3.1924105599999996E2,2.46963088E2,1.84899376E2,2.6690286399999997E2,4.4178548E1,,7.982211199999999E1,6.1774848E1,1.8417901999999998E1,6.7901688E1,3.9837388E1,3.2026522E1,1.460909E1,8.6229232E1,1.6711233E1,1.9407828E1,2.2067434E1,,1,3,8,11,14,17,19,22,23,28,32,,15,15,9,12,9,5,0,15,11,1,2,,
1570618991,2019-10-09 11:03:11.767,Acquired,Acquired,Acquired,Acquired,Acquired,Acquired,Not acquired,Acquired,Acquired,Acquired,Acquired,,7.7896408E1,2.4352736E2,1.68092736E2,1.5525184E2,6.606248E1,3.11163488E2,3.1924105599999996E2,2.46963088E2,1.84899376E2,2.6690286399999997E2,4.4178548E1,,7.982211199999999E1,6.1774848E1,1.8417901999999998E1,6.7901688E1,3.9837388E1,3.2026522E1,1.460909E1,8.6229232E1,1.6711233E1,1.9407828E1,2.2067434E1,,1,3,8,11,14,17,19,22,23,28,32,,15,15,9,12,9,5,0,15,11,1,2,,
1570619051,2019-10-09 11:04:11.767,Acquired,Acquired,Acquired,Acquired,Acquired,Acquired,Not acquired,Acquired,Acquired,Acquired,Acquired,,7.7896408E1,2.4352736E2,1.68092736E2,1.5525184E2,6.606248E1,3.11163488E2,3.1924105599999996E2,2.46963088E2,1.84899376E2,2.6690286399999997E2,4.4178548E1,,7.982211199999999E1,6.1774848E1,1.8417901999999998E1,6.7901688E1,3.9837388E1,3.2026522E1,1.460909E1,8.6229232E1,1.6711233E1,1.9407828E1,2.2067434E1,,1,3,8,11,14,17,19,22,23,28,32,,15,15,9,12,9,5,0,15,11,1,2,,
1570619111,2019-10-09 11:05:11.767,Acquired,Acquired,Acquired,Acquired,Acquired,Acquired,Not acquired,Acquired,Acquired,Acquired,Acquired,,7.7896408E1,2.4352736E2,1.68092736E2,1.5525184E2,6.606248E1,3.11163488E2,3.1924105599999996E2,2.46963088E2,1.84899376E2,2.6690286399999997E2,4.4178548E1,,7.982211199999999E1,6.1774848E1,1.8417901999999998E1,6.7901688E1,3.9837388E1,3.2026522E1,1.460909E1,8.6229232E1,1.6711233E1,1.9407828E1,2.2067434E1,,1,3,8,11,14,17,19,22,23,28,32,,15,15,9,12,9,5,0,15,11,1,2,,
1570619171,2019-10-09 11:06:11.767,Acquired,Acquired,Acquired,Acquired,Acquired,Acquired,Not acquired,Acquired,Acquired,Acquired,Acquired,,7.7896408E1,2.4352736E2,1.68092736E2,1.5525184E2,6.606248E1,3.11163488E2,3.1924105599999996E2,2.46963088E2,1.84899376E2,2.6690286399999997E2,4.4178548E1,,7.982211199999999E1,6.1774848E1,1.8417901999999998E1,6.7901688E1,3.9837388E1,3.2026522E1,1.460909E1,8.6229232E1,1.6711233E1,1.9407828E1,2.2067434E1,,1,3,8,11,14,17,19,22,23,28,32,,15,15,9,12,9,5,0,15,11,1,2,,
1570619231,2019-10-09 11:07:11.767,Acquired,Acquired,Acquired,Acquired,Acquired,Acquired,Not acquired,Acquired,Acquired,Acquired,Acquired,,7.7896408E1,2.4352736E2,1.68092736E2,1.5525184E2,6.606248E1,3.11163488E2,3.1924105599999996E2,2.46963088E2,1.84899376E2,2.6690286399999997E2,4.4178548E1,,7.982211199999999E1,6.1774848E1,1.8417901999999998E1,6.7901688E1,3.9837388E1,3.2026522E1,1.460909E1,8.6229232E1,1.6711233E1,1.9407828E1,2.2067434E1,,1,3,8,11,14,17,19,22,23,28,32,,15,15,9,12,9,5,0,15,11,1,2,,
1570619291,2019-10-09 11:08:11.767,Acquired,Acquired,Acquired,Acquired,Acquired,Acquired,Not acquired,Acquired,Acquired,Acquired,Acquired,,7.7896408E1,2.4352736E2,1.68092736E2,1.5525184E2,6.606248E1,3.11163488E2,3.1924105599999996E2,2.46963088E2,1.84899376E2,2.6690286399999997E2,4.4178548E1,,7.982211199999999E1,6.1774848E1,1.8417901999999998E1,6.7901688E1,3.9837388E1,3.2026522E1,1.460909E1,8.6229232E1,1.6711233E1,1.9407828E1,2.2067434E1,,1,3,8,11,14,17,19,22,23,28,32,,15,15,9,12,9,5,0,15,11,1,2,,
1570619351,2019-10-09 11:09:11.767,Acquired,Acquired,Acquired,Acquired,Acquired,Acquired,Not acquired,Acquired,Acquired,Acquired,Acquired,,7.7896408E1,2.4352736E2,1.68092736E2,1.5525184E2,6.606248E1,3.11163488E2,3.1924105599999996E2,2.46963088E2,1.84899376E2,2.6690286399999997E2,4.4178548E1,,7.982211199999999E1,6.1774848E1,1.8417901999999998E1,6.7901688E1,3.9837388E1,3.2026522E1,1.460909E1,8.6229232E1,1.6711233E1,1.9407828E1,2.2067434E1,,1,3,8,11,14,17,19,22,23,28,32,,15,15,9,12,9,5,0,15,11,1,2,,
1570619411,2019-10-09 11:10:11.767,Acquired,Acquired,Acquired,Acquired,Acquired,Acquired,Not acquired,Acquired,Acquired,Acquired,Acquired,,7.7896408E1,2.4352736E2,1.68092736E2,1.5525184E2,6.606248E1,3.11163488E2,3.1924105599999996E2,2.46963088E2,1.84899376E2,2.6690286399999997E2,4.4178548E1,,7.982211199999999E1,6.1774848E1,1.8417901999999998E1,6.7901688E1,3.9837388E1,3.2026522E1,1.460909E1,8.6229232E1,1.6711233E1,1.9407828E1,2.2067434E1,,1,3,8,11,14,17,19,22,23,28,32,,15,15,9,12,9,5,0,15,11,1,2,,
1570619471,2019-10-09 11:11:11.770,Acquired,Acquired,Acquired,Acquired,Acquired,Acquired,Not acquired,Acquired,Acquired,Acquired,Acquired,,7.7896408E1,2.4352736E2,1.68092736E2,1.5525184E2,6.606248E1,3.11163488E2,3.1924105599999996E2,2.46963088E2,1.84899376E2,2.6690286399999997E2,4.4178548E1,,7.982211199999999E1,6.1774848E1,1.8417901999999998E1,6.7901688E1,3.9837388E1,3.2026522E1,1.460909E1,8.6229232E1,1.6711233E1,1.9407828E1,2.2067434E1,,1,3,8,11,14,17,19,22,23,28,32,,15,15,9,12,9,5,0,15,11,1,2,,
1570619531,2019-10-09 11:12:11.799,Acquired,Acquired,Acquired,Acquired,Acquired,Acquired,Not acquired,Acquired,Acquired,Acquired,Acquired,,7.7896408E1,2.4352736E2,1.68092736E2,1.5525184E2,6.606248E1,3.11163488E2,3.1924105599999996E2,2.46963088E2,1.84899376E2,2.6690286399999997E2,4.4178548E1,,7.982211199999999E1,6.1774848E1,1.8417901999999998E1,6.7901688E1,3.9837388E1,3.2026522E1,1.460909E1,8.6229232E1,1.6711233E1,1.9407828E1,2.2067434E1,,1,3,8,11,14,17,19,22,23,28,32,,15,15,9,12,9,5,0,15,11,1,2,,
1570619591,2019-10-09 11:13:11.779,Acquired,Acquired,Acquired,Acquired,Acquired,Acquired,Not acquired,Acquired,Acquired,Acquired,Acquired,,7.7896408E1,2.4352736E2,1.68092736E2,1.5525184E2,6.606248E1,3.11163488E2,3.1924105599999996E2,2.46963088E2,1.84899376E2,2.6690286399999997E2,4.4178548E1,,7.982211199999999E1,6.1774848E1,1.8417901999999998E1,6.7901688E1,3.9837388E1,3.2026522E1,1.460909E1,8.6229232E1,1.6711233E1,1.9407828E1,2.2067434E1,,1,3,8,11,14,17,19,22,23,28,32,,15,15,9,12,9,5,0,15,11,1,2,,
1570619651,2019-10-09 11:14:11.767,Acquired,Acquired,Acquired,Acquired,Acquired,Acquired,Not acquired,Acquired,Acquired,Not acquired,Not acquired,Not acquired,7.979787999999999E1,2.43947264E2,1.681156E2,1.55104832E2,6.554602799999999E1,3.1092918399999996E2,3.19153664E2,2.4880212799999998E2,1.84867728E2,2.6652328E2,4.3933775999999995E1,9.1778336E1,7.9471608E1,6.2228092E1,1.7973888E1,6.740028E1,3.9677147999999995E1,3.2375658E1,1.5002303999999999E1,8.6680224E1,1.7142044E1,1.9149473999999998E1,2.1744588E1,5.290223E0,1,3,8,11,14,17,19,22,23,28,32,31,15,15,7,14,5,5,2,14,13,1,2,0,
1570619711,2019-10-09 11:15:11.767,Not acquired,,Not acquired,Not acquired,Not acquired,Not acquired,Not acquired,Not acquired,Not acquired,Not acquired,Not acquired,Not acquired,1.04562512E2,,1.5407504E2,5.5637235999999994E1,3.041128E2,3.1613660799999997E2,5.4210076E1,0.0E0,0.0E0,0.0E0,0.0E0,0.0E0,7.0562E1,,5.6368044E1,3.4928067999999996E1,3.9528307999999996E1,2.3492368E1,8.3160544E1,2.6868606E1,1.4248329E1,8.493824E0,1.2981888E1,1.0918216E1,1,,11,14,17,19,22,23,32,8,28,31,0,,0,0,0,0,0,0,0,0,0,0,
1570619771,2019-10-09 11:16:11.802,Acquired,Acquired,Acquired,Acquired,Acquired,Acquired,Acquired,Acquired,Acquired,Not acquired,Not acquired,Not acquired,1.0527743199999999E2,2.56568432E2,1.5409016E2,5.5246536E1,3.0371097599999996E2,3.1593872E2,5.4854335999999996E1,1.8424356799999998E2,3.9545407999999995E1,1.68356944E2,2.58417344E2,8.3551632E1,7.0117032E1,7.249516E1,5.5856044E1,3.4657075999999996E1,3.9827132E1,2.3874641999999998E1,8.2703296E1,2.7344744E1,1.3873666E1,8.052453E0,1.2667102E1,1.116542E1,1,3,11,14,17,19,22,23,32,8,28,31,14,15,15,3,6,1,14,15,1,0,0,1,
1570619831,2019-10-09 11:17:11.767,Acquired,Acquired,Acquired,Acquired,Acquired,Acquired,Acquired,Acquired,Not acquired,Not acquired,Not acquired,Acquired,1.0596072E2,2.57330528E2,1.54108224E2,5.4866932E1,3.03305952E2,3.15738816E2,5.5445356E1,1.84217584E2,3.9403107999999996E1,1.683536E2,2.5808592E2,8.3168424E1,6.9677416E1,7.293484E1,5.5351223999999995E1,3.4385688E1,4.0118836E1,2.4253012E1,8.225090399999999E1,2.780333E1,1.3512452999999999E1,7.629353999999999E0,1.2363287999999999E1,1.1399159E1,1,3,11,14,17,19,22,23,32,8,28,31,15,15,13,3,6,1,14,13,1,0,0,2,
1570619891,2019-10-09 11:18:11.767,Acquired,Acquired,Acquired,Acquired,Acquired,Acquired,Acquired,Acquired,Not acquired,Not acquired,Not acquired,Acquired,1.0596072E2,2.57330528E2,1.54108224E2,5.4866932E1,3.03305952E2,3.15738816E2,5.5445356E1,1.84217584E2,3.9403107999999996E1,1.683536E2,2.5808592E2,8.3168424E1,6.9677416E1,7.293484E1,5.5351223999999995E1,3.4385688E1,4.0118836E1,2.4253012E1,8.225090399999999E1,2.780333E1,1.3512452999999999E1,7.629353999999999E0,1.2363287999999999E1,1.1399159E1,1,3,11,14,17,19,22,23,32,8,28,31,15,15,13,3,6,1,14,13,1,0,0,2,
1570619951,2019-10-09 11:19:11.767,Acquired,Acquired,Acquired,Acquired,Acquired,Acquired,Acquired,Acquired,Not acquired,Not acquired,Not acquired,Acquired,1.0596072E2,2.57330528E2,1.54108224E2,5.4866932E1,3.03305952E2,3.15738816E2,5.5445356E1,1.84217584E2,3.9403107999999996E1,1.683536E2,2.5808592E2,8.3168424E1,6.9677416E1,7.293484E1,5.5351223999999995E1,3.4385688E1,4.0118836E1,2.4253012E1,8.225090399999999E1,2.780333E1,1.3512452999999999E1,7.629353999999999E0,1.2363287999999999E1,1.1399159E1,1,3,11,14,17,19,22,23,32,8,28,31,15,15,13,3,6,1,14,13,1,0,0,2,
1570620011,2019-10-09 11:20:11.767,Acquired,Acquired,Acquired,Acquired,Acquired,Acquired,Acquired,Acquired,Not acquired,Not acquired,Not acquired,Acquired,1.0596072E2,2.57330528E2,1.54108224E2,5.4866932E1,3.03305952E2,3.15738816E2,5.5445356E1,1.84217584E2,3.9403107999999996E1,1.683536E2,2.5808592E2,8.3168424E1,6.9677416E1,7.293484E1,5.5351223999999995E1,3.4385688E1,4.0118836E1,2.4253012E1,8.225090399999999E1,2.780333E1,1.3512452999999999E1,7.629353999999999E0,1.2363287999999999E1,1.1399159E1,1,3,11,14,17,19,22,23,32,8,28,31,15,15,13,3,6,1,14,13,1,0,0,2,
1570620071,2019-10-09 11:21:11.767,Acquired,Acquired,Acquired,Acquired,Acquired,Acquired,Acquired,Acquired,Not acquired,Not acquired,Not acquired,Acquired,1.0596072E2,2.57330528E2,1.54108224E2,5.4866932E1,3.03305952E2,3.15738816E2,5.5445356E1,1.84217584E2,3.9403107999999996E1,1.683536E2,2.5808592E2,8.3168424E1,6.9677416E1,7.293484E1,5.5351223999999995E1,3.4385688E1,4.0118836E1,2.4253012E1,8.225090399999999E1,2.780333E1,1.3512452999999999E1,7.629353999999999E0,1.2363287999999999E1,1.1399159E1,1,3,11,14,17,19,22,23,32,8,28,31,15,15,13,3,6,1,14,13,1,0,0,2,
1570620131,2019-10-09 11:22:11.767,Acquired,Acquired,Acquired,Acquired,Acquired,Acquired,Acquired,Acquired,Not acquired,Not acquired,Not acquired,Acquired,1.0596072E2,2.57330528E2,1.54108224E2,5.4866932E1,3.03305952E2,3.15738816E2,5.5445356E1,1.84217584E2,3.9403107999999996E1,1.683536E2,2.5808592E2,8.3168424E1,6.9677416E1,7.293484E1,5.5351223999999995E1,3.4385688E1,4.0118836E1,2.4253012E1,8.225090399999999E1,2.780333E1,1.3512452999999999E1,7.629353999999999E0,1.2363287999999999E1,1.1399159E1,1,3,11,14,17,19,22,23,32,8,28,31,15,15,13,3,6,1,14,13,1,0,0,2,
1570620191,2019-10-09 11:23:11.767,Acquired,Acquired,Acquired,Acquired,Acquired,Acquired,Acquired,Acquired,Not acquired,Not acquired,Not acquired,Acquired,1.0596072E2,2.57330528E2,1.54108224E2,5.4866932E1,3.03305952E2,3.15738816E2,5.5445356E1,1.84217584E2,3.9403107999999996E1,1.683536E2,2.5808592E2,8.3168424E1,6.9677416E1,7.293484E1,5.5351223999999995E1,3.4385688E1,4.0118836E1,2.4253012E1,8.225090399999999E1,2.780333E1,1.3512452999999999E1,7.629353999999999E0,1.2363287999999999E1,1.1399159E1,1,3,11,14,17,19,22,23,32,8,28,31,15,15,13,3,6,1,14,13,1,0,0,2,
1570620251,2019-10-09 11:24:11.767,Acquired,Acquired,Acquired,Acquired,Acquired,Acquired,Acquired,Acquired,Not acquired,Not acquired,Not acquired,Acquired,1.0596072E2,2.57330528E2,1.54108224E2,5.4866932E1,3.03305952E2,3.15738816E2,5.5445356E1,1.84217584E2,3.9403107999999996E1,1.683536E2,2.5808592E2,8.3168424E1,6.9677416E1,7.293484E1,5.5351223999999995E1,3.4385688E1,4.0118836E1,2.4253012E1,8.225090399999999E1,2.780333E1,1.3512452999999999E1,7.629353999999999E0,1.2363287999999999E1,1.1399159E1,1,3,11,14,17,19,22,23,32,8,28,31,15,15,13,3,6,1,14,13,1,0,0,2,
1570620311,2019-10-09 11:25:11.768,Acquired,Acquired,Acquired,Acquired,Acquired,Acquired,Acquired,Acquired,Not acquired,Not acquired,Not acquired,Acquired,1.0596072E2,2.57330528E2,1.54108224E2,5.4866932E1,3.03305952E2,3.15738816E2,5.5445356E1,1.84217584E2,3.9403107999999996E1,1.683536E2,2.5808592E2,8.3168424E1,6.9677416E1,7.293484E1,5.5351223999999995E1,3.4385688E1,4.0118836E1,2.4253012E1,8.225090399999999E1,2.780333E1,1.3512452999999999E1,7.629353999999999E0,1.2363287999999999E1,1.1399159E1,1,3,11,14,17,19,22,23,32,8,28,31,15,15,13,3,6,1,14,13,1,0,0,2,
1570620371,2019-10-09 11:26:11.799,Acquired,Acquired,Acquired,Acquired,Acquired,Acquired,Acquired,Acquired,Not acquired,Not acquired,Not acquired,Acquired,1.0596072E2,2.57330528E2,1.54108224E2,5.4866932E1,3.03305952E2,3.15738816E2,5.5445356E1,1.84217584E2,3.9403107999999996E1,1.683536E2,2.5808592E2,8.3168424E1,6.9677416E1,7.293484E1,5.5351223999999995E1,3.4385688E1,4.0118836E1,2.4253012E1,8.225090399999999E1,2.780333E1,1.3512452999999999E1,7.629353999999999E0,1.2363287999999999E1,1.1399159E1,1,3,11,14,17,19,22,23,32,8,28,31,15,15,13,3,6,1,14,13,1,0,0,2,
1570620431,2019-10-09 11:27:11.767,Acquired,Acquired,Acquired,Acquired,Acquired,Acquired,Acquired,Acquired,Not acquired,Not acquired,Not acquired,Acquired,1.0596072E2,2.57330528E2,1.54108224E2,5.4866932E1,3.03305952E2,3.15738816E2,5.5445356E1,1.84217584E2,3.9403107999999996E1,1.683536E2,2.5808592E2,8.3168424E1,6.9677416E1,7.293484E1,5.5351223999999995E1,3.4385688E1,4.0118836E1,2.4253012E1,8.225090399999999E1,2.780333E1,1.3512452999999999E1,7.629353999999999E0,1.2363287999999999E1,1.1399159E1,1,3,11,14,17,19,22,23,32,8,28,31,15,15,13,3,6,1,14,13,1,0,0,2,
1570620491,2019-10-09 11:28:11.767,Acquired,Acquired,Acquired,Acquired,Acquired,Acquired,Acquired,Acquired,Not acquired,Not acquired,Not acquired,Acquired,1.0596072E2,2.57330528E2,1.54108224E2,5.4866932E1,3.03305952E2,3.15738816E2,5.5445356E1,1.84217584E2,3.9403107999999996E1,1.683536E2,2.5808592E2,8.3168424E1,6.9677416E1,7.293484E1,5.5351223999999995E1,3.4385688E1,4.0118836E1,2.4253012E1,8.225090399999999E1,2.780333E1,1.3512452999999999E1,7.629353999999999E0,1.2363287999999999E1,1.1399159E1,1,3,11,14,17,19,22,23,32,8,28,31,15,15,13,3,6,1,14,13,1,0,0,2,
1570620551,2019-10-09 11:29:11.767,Acquired,Acquired,Acquired,Acquired,Acquired,Acquired,Acquired,Acquired,Not acquired,Not acquired,Not acquired,Acquired,1.0596072E2,2.57330528E2,1.54108224E2,5.4866932E1,3.03305952E2,3.15738816E2,5.5445356E1,1.84217584E2,3.9403107999999996E1,1.683536E2,2.5808592E2,8.3168424E1,6.9677416E1,7.293484E1,5.5351223999999995E1,3.4385688E1,4.0118836E1,2.4253012E1,8.225090399999999E1,2.780333E1,1.3512452999999999E1,7.629353999999999E0,1.2363287999999999E1,1.1399159E1,1,3,11,14,17,19,22,23,32,8,28,31,15,15,13,3,6,1,14,13,1,0,0,2,
1570620611,2019-10-09 11:30:11.778,Acquired,Acquired,Acquired,Acquired,Acquired,Acquired,Acquired,Acquired,Not acquired,Not acquired,Not acquired,Acquired,1.0596072E2,2.57330528E2,1.54108224E2,5.4866932E1,3.03305952E2,3.15738816E2,5.5445356E1,1.84217584E2,3.9403107999999996E1,1.683536E2,2.5808592E2,8.3168424E1,6.9677416E1,7.293484E1,5.5351223999999995E1,3.4385688E1,4.0118836E1,2.4253012E1,8.225090399999999E1,2.780333E1,1.3512452999999999E1,7.629353999999999E0,1.2363287999999999E1,1.1399159E1,1,3,11,14,17,19,22,23,32,8,28,31,15,15,13,3,6,1,14,13,1,0,0,2,
1570620671,2019-10-09 11:31:11.776,Acquired,Acquired,Acquired,Acquired,Acquired,Acquired,Acquired,Acquired,Not acquired,Not acquired,Not acquired,Acquired,1.0596072E2,2.57330528E2,1.54108224E2,5.4866932E1,3.03305952E2,3.15738816E2,5.5445356E1,1.84217584E2,3.9403107999999996E1,1.683536E2,2.5808592E2,8.3168424E1,6.9677416E1,7.293484E1,5.5351223999999995E1,3.4385688E1,4.0118836E1,2.4253012E1,8.225090399999999E1,2.780333E1,1.3512452999999999E1,7.629353999999999E0,1.2363287999999999E1,1.1399159E1,1,3,11,14,17,19,22,23,32,8,28,31,15,15,13,3,6,1,14,13,1,0,0,2,
1570620731,2019-10-09 11:32:11.767,Acquired,Acquired,Acquired,Acquired,Acquired,Acquired,Acquired,Acquired,Not acquired,Not acquired,Not acquired,Acquired,1.0596072E2,2.57330528E2,1.54108224E2,5.4866932E1,3.03305952E2,3.15738816E2,5.5445356E1,1.84217584E2,3.9403107999999996E1,1.683536E2,2.5808592E2,8.3168424E1,6.9677416E1,7.293484E1,5.5351223999999995E1,3.4385688E1,4.0118836E1,2.4253012E1,8.225090399999999E1,2.780333E1,1.3512452999999999E1,7.629353999999999E0,1.2363287999999999E1,1.1399159E1,1,3,11,14,17,19,22,23,32,8,28,31,15,15,13,3,6,1,14,13,1,0,0,2,
1570620791,2019-10-09 11:33:11.767,Acquired,Acquired,Acquired,Acquired,Acquired,Acquired,Acquired,Acquired,Not acquired,Not acquired,Not acquired,Acquired,1.0596072E2,2.57330528E2,1.54108224E2,5.4866932E1,3.03305952E2,3.15738816E2,5.5445356E1,1.84217584E2,3.9403107999999996E1,1.683536E2,2.5808592E2,8.3168424E1,6.9677416E1,7.293484E1,5.5351223999999995E1,3.4385688E1,4.0118836E1,2.4253012E1,8.225090399999999E1,2.780333E1,1.3512452999999999E1,7.629353999999999E0,1.2363287999999999E1,1.1399159E1,1,3,11,14,17,19,22,23,32,8,28,31,15,15,13,3,6,1,14,13,1,0,0,2,
1570620851,2019-10-09 11:34:11.767,Acquired,Acquired,Acquired,Acquired,Acquired,Acquired,Acquired,Acquired,Not acquired,Not acquired,Not acquired,Acquired,1.0596072E2,2.57330528E2,1.54108224E2,5.4866932E1,3.03305952E2,3.15738816E2,5.5445356E1,1.84217584E2,3.9403107999999996E1,1.683536E2,2.5808592E2,8.3168424E1,6.9677416E1,7.293484E1,5.5351223999999995E1,3.4385688E1,4.0118836E1,2.4253012E1,8.225090399999999E1,2.780333E1,1.3512452999999999E1,7.629353999999999E0,1.2363287999999999E1,1.1399159E1,1,3,11,14,17,19,22,23,32,8,28,31,15,15,13,3,6,1,14,13,1,0,0,2,
1570620911,2019-10-09 11:35:11.767,Acquired,Acquired,Acquired,Acquired,Acquired,Acquired,Acquired,Acquired,Not acquired,Not acquired,Not acquired,Acquired,1.0596072E2,2.57330528E2,1.54108224E2,5.4866932E1,3.03305952E2,3.15738816E2,5.5445356E1,1.84217584E2,3.9403107999999996E1,1.683536E2,2.5808592E2,8.3168424E1,6.9677416E1,7.293484E1,5.5351223999999995E1,3.4385688E1,4.0118836E1,2.4253012E1,8.225090399999999E1,2.780333E1,1.3512452999999999E1,7.629353999999999E0,1.2363287999999999E1,1.1399159E1,1,3,11,14,17,19,22,23,32,8,28,31,15,15,13,3,6,1,14,13,1,0,0,2,
1570620971,2019-10-09 11:36:11.770,Acquired,Acquired,Acquired,Acquired,Acquired,Acquired,Acquired,Acquired,Not acquired,Not acquired,Not acquired,Acquired,1.0596072E2,2.57330528E2,1.54108224E2,5.4866932E1,3.03305952E2,3.15738816E2,5.5445356E1,1.84217584E2,3.9403107999999996E1,1.683536E2,2.5808592E2,8.3168424E1,6.9677416E1,7.293484E1,5.5351223999999995E1,3.4385688E1,4.0118836E1,2.4253012E1,8.225090399999999E1,2.780333E1,1.3512452999999999E1,7.629353999999999E0,1.2363287999999999E1,1.1399159E1,1,3,11,14,17,19,22,23,32,8,28,31,15,15,13,3,6,1,14,13,1,0,0,2,
1570621031,2019-10-09 11:37:11.767,Acquired,Acquired,Acquired,Acquired,Acquired,Acquired,Acquired,Acquired,Not acquired,Not acquired,Not acquired,Acquired,1.0596072E2,2.57330528E2,1.54108224E2,5.4866932E1,3.03305952E2,3.15738816E2,5.5445356E1,1.84217584E2,3.9403107999999996E1,1.683536E2,2.5808592E2,8.3168424E1,6.9677416E1,7.293484E1,5.5351223999999995E1,3.4385688E1,4.0118836E1,2.4253012E1,8.225090399999999E1,2.780333E1,1.3512452999999999E1,7.629353999999999E0,1.2363287999999999E1,1.1399159E1,1,3,11,14,17,19,22,23,32,8,28,31,15,15,13,3,6,1,14,13,1,0,0,2,
1570621091,2019-10-09 11:38:11.767,Acquired,Acquired,Acquired,Acquired,Acquired,Acquired,Acquired,Acquired,Not acquired,Not acquired,Not acquired,Acquired,1.0596072E2,2.57330528E2,1.54108224E2,5.4866932E1,3.03305952E2,3.15738816E2,5.5445356E1,1.84217584E2,3.9403107999999996E1,1.683536E2,2.5808592E2,8.3168424E1,6.9677416E1,7.293484E1,5.5351223999999995E1,3.4385688E1,4.0118836E1,2.4253012E1,8.225090399999999E1,2.780333E1,1.3512452999999999E1,7.629353999999999E0,1.2363287999999999E1,1.1399159E1,1,3,11,14,17,19,22,23,32,8,28,31,15,15,13,3,6,1,14,13,1,0,0,2,
1570621151,2019-10-09 11:39:11.767,Acquired,Acquired,Acquired,Acquired,Acquired,Acquired,Acquired,Acquired,Not acquired,Not acquired,Not acquired,Acquired,1.0596072E2,2.57330528E2,1.54108224E2,5.4866932E1,3.03305952E2,3.15738816E2,5.5445356E1,1.84217584E2,3.9403107999999996E1,1.683536E2,2.5808592E2,8.3168424E1,6.9677416E1,7.293484E1,5.5351223999999995E1,3.4385688E1,4.0118836E1,2.4253012E1,8.225090399999999E1,2.780333E1,1.3512452999999999E1,7.629353999999999E0,1.2363287999999999E1,1.1399159E1,1,3,11,14,17,19,22,23,32,8,28,31,15,15,13,3,6,1,14,13,1,0,0,2,
1570621211,2019-10-09 11:40:11.767,Acquired,Acquired,Acquired,Acquired,Acquired,Acquired,Acquired,Acquired,Not acquired,Not acquired,Not acquired,Acquired,1.0596072E2,2.57330528E2,1.54108224E2,5.4866932E1,3.03305952E2,3.15738816E2,5.5445356E1,1.84217584E2,3.9403107999999996E1,1.683536E2,2.5808592E2,8.3168424E1,6.9677416E1,7.293484E1,5.5351223999999995E1,3.4385688E1,4.0118836E1,2.4253012E1,8.225090399999999E1,2.780333E1,1.3512452999999999E1,7.629353999999999E0,1.2363287999999999E1,1.1399159E1,1,3,11,14,17,19,22,23,32,8,28,31,15,15,13,3,6,1,14,13,1,0,0,2,
1570621271,2019-10-09 11:41:11.767,Acquired,Acquired,Acquired,Acquired,Acquired,Acquired,Acquired,Acquired,Not acquired,Not acquired,Not acquired,Acquired,1.0596072E2,2.57330528E2,1.54108224E2,5.4866932E1,3.03305952E2,3.15738816E2,5.5445356E1,1.84217584E2,3.9403107999999996E1,1.683536E2,2.5808592E2,8.3168424E1,6.9677416E1,7.293484E1,5.5351223999999995E1,3.4385688E1,4.0118836E1,2.4253012E1,8.225090399999999E1,2.780333E1,1.3512452999999999E1,7.629353999999999E0,1.2363287999999999E1,1.1399159E1,1,3,11,14,17,19,22,23,32,8,28,31,15,15,13,3,6,1,14,13,1,0,0,2,
1570621331,2019-10-09 11:42:11.767,Acquired,Acquired,Acquired,Acquired,Acquired,Acquired,Acquired,Acquired,Not acquired,Not acquired,Not acquired,Acquired,1.0596072E2,2.57330528E2,1.54108224E2,5.4866932E1,3.03305952E2,3.15738816E2,5.5445356E1,1.84217584E2,3.9403107999999996E1,1.683536E2,2.5808592E2,8.3168424E1,6.9677416E1,7.293484E1,5.5351223999999995E1,3.4385688E1,4.0118836E1,2.4253012E1,8.225090399999999E1,2.780333E1,1.3512452999999999E1,7.629353999999999E0,1.2363287999999999E1,1.1399159E1,1,3,11,14,17,19,22,23,32,8,28,31,15,15,13,3,6,1,14,13,1,0,0,2,
1570621391,2019-10-09 11:43:11.767,Acquired,Acquired,Acquired,Acquired,Acquired,Acquired,Acquired,Acquired,Not acquired,Not acquired,Not acquired,Acquired,1.0596072E2,2.57330528E2,1.54108224E2,5.4866932E1,3.03305952E2,3.15738816E2,5.5445356E1,1.84217584E2,3.9403107999999996E1,1.683536E2,2.5808592E2,8.3168424E1,6.9677416E1,7.293484E1,5.5351223999999995E1,3.4385688E1,4.0118836E1,2.4253012E1,8.225090399999999E1,2.780333E1,1.3512452999999999E1,7.629353999999999E0,1.2363287999999999E1,1.1399159E1,1,3,11,14,17,19,22,23,32,8,28,31,15,15,13,3,6,1,14,13,1,0,0,2,
1570621451,2019-10-09 11:44:11.769,Acquired,Acquired,Acquired,Acquired,Acquired,Acquired,Acquired,Acquired,Not acquired,Not acquired,Not acquired,Acquired,1.0596072E2,2.57330528E2,1.54108224E2,5.4866932E1,3.03305952E2,3.15738816E2,5.5445356E1,1.84217584E2,3.9403107999999996E1,1.683536E2,2.5808592E2,8.3168424E1,6.9677416E1,7.293484E1,5.5351223999999995E1,3.4385688E1,4.0118836E1,2.4253012E1,8.225090399999999E1,2.780333E1,1.3512452999999999E1,7.629353999999999E0,1.2363287999999999E1,1.1399159E1,1,3,11,14,17,19,22,23,32,8,28,31,15,15,13,3,6,1,14,13,1,0,0,2,
1570621511,2019-10-09 11:45:11.768,Acquired,Acquired,Acquired,Acquired,Acquired,Acquired,Acquired,Acquired,Not acquired,Not acquired,Not acquired,Acquired,1.0596072E2,2.57330528E2,1.54108224E2,5.4866932E1,3.03305952E2,3.15738816E2,5.5445356E1,1.84217584E2,3.9403107999999996E1,1.683536E2,2.5808592E2,8.3168424E1,6.9677416E1,7.293484E1,5.5351223999999995E1,3.4385688E1,4.0118836E1,2.4253012E1,8.225090399999999E1,2.780333E1,1.3512452999999999E1,7.629353999999999E0,1.2363287999999999E1,1.1399159E1,1,3,11,14,17,19,22,23,32,8,28,31,15,15,13,3,6,1,14,13,1,0,0,2,
1570621571,2019-10-09 11:46:11.767,Acquired,Acquired,Acquired,Acquired,Acquired,Acquired,Acquired,Acquired,Not acquired,Not acquired,Not acquired,Acquired,1.0596072E2,2.57330528E2,1.54108224E2,5.4866932E1,3.03305952E2,3.15738816E2,5.5445356E1,1.84217584E2,3.9403107999999996E1,1.683536E2,2.5808592E2,8.3168424E1,6.9677416E1,7.293484E1,5.5351223999999995E1,3.4385688E1,4.0118836E1,2.4253012E1,8.225090399999999E1,2.780333E1,1.3512452999999999E1,7.629353999999999E0,1.2363287999999999E1,1.1399159E1,1,3,11,14,17,19,22,23,32,8,28,31,15,15,13,3,6,1,14,13,1,0,0,2,
1570621631,2019-10-09 11:47:11.767,Acquired,Acquired,Acquired,Acquired,Acquired,Acquired,Acquired,Acquired,Not acquired,Not acquired,Not acquired,Acquired,1.0596072E2,2.57330528E2,1.54108224E2,5.4866932E1,3.03305952E2,3.15738816E2,5.5445356E1,1.84217584E2,3.9403107999999996E1,1.683536E2,2.5808592E2,8.3168424E1,6.9677416E1,7.293484E1,5.5351223999999995E1,3.4385688E1,4.0118836E1,2.4253012E1,8.225090399999999E1,2.780333E1,1.3512452999999999E1,7.629353999999999E0,1.2363287999999999E1,1.1399159E1,1,3,11,14,17,19,22,23,32,8,28,31,15,15,13,3,6,1,14,13,1,0,0,2,
1570621691,2019-10-09 11:48:11.767,Acquired,Acquired,Acquired,Acquired,Acquired,Acquired,Acquired,Acquired,Not acquired,Not acquired,Not acquired,Acquired,1.0596072E2,2.57330528E2,1.54108224E2,5.4866932E1,3.03305952E2,3.15738816E2,5.5445356E1,1.84217584E2,3.9403107999999996E1,1.683536E2,2.5808592E2,8.3168424E1,6.9677416E1,7.293484E1,5.5351223999999995E1,3.4385688E1,4.0118836E1,2.4253012E1,8.225090399999999E1,2.780333E1,1.3512452999999999E1,7.629353999999999E0,1.2363287999999999E1,1.1399159E1,1,3,11,14,17,19,22,23,32,8,28,31,15,15,13,3,6,1,14,13,1,0,0,2,
1570621751,2019-10-09 11:49:11.769,Acquired,Acquired,Acquired,Acquired,Acquired,Acquired,Acquired,Acquired,Not acquired,Not acquired,Not acquired,Acquired,1.0596072E2,2.57330528E2,1.54108224E2,5.4866932E1,3.03305952E2,3.15738816E2,5.5445356E1,1.84217584E2,3.9403107999999996E1,1.683536E2,2.5808592E2,8.3168424E1,6.9677416E1,7.293484E1,5.5351223999999995E1,3.4385688E1,4.0118836E1,2.4253012E1,8.225090399999999E1,2.780333E1,1.3512452999999999E1,7.629353999999999E0,1.2363287999999999E1,1.1399159E1,1,3,11,14,17,19,22,23,32,8,28,31,15,15,13,3,6,1,14,13,1,0,0,2,
1570621811,2019-10-09 11:50:11.767,Acquired,Acquired,Acquired,Acquired,Acquired,Acquired,Acquired,Acquired,Not acquired,Not acquired,Not acquired,Acquired,1.0596072E2,2.57330528E2,1.54108224E2,5.4866932E1,3.03305952E2,3.15738816E2,5.5445356E1,1.84217584E2,3.9403107999999996E1,1.683536E2,2.5808592E2,8.3168424E1,6.9677416E1,7.293484E1,5.5351223999999995E1,3.4385688E1,4.0118836E1,2.4253012E1,8.225090399999999E1,2.780333E1,1.3512452999999999E1,7.629353999999999E0,1.2363287999999999E1,1.1399159E1,1,3,11,14,17,19,22,23,32,8,28,31,15,15,13,3,6,1,14,13,1,0,0,2,
1570621871,2019-10-09 11:51:11.767,Acquired,Acquired,Acquired,Acquired,Acquired,Acquired,Acquired,Acquired,Not acquired,Not acquired,Not acquired,Acquired,1.0596072E2,2.57330528E2,1.54108224E2,5.4866932E1,3.03305952E2,3.15738816E2,5.5445356E1,1.84217584E2,3.9403107999999996E1,1.683536E2,2.5808592E2,8.3168424E1,6.9677416E1,7.293484E1,5.5351223999999995E1,3.4385688E1,4.0118836E1,2.4253012E1,8.225090399999999E1,2.780333E1,1.3512452999999999E1,7.629353999999999E0,1.2363287999999999E1,1.1399159E1,1,3,11,14,17,19,22,23,32,8,28,31,15,15,13,3,6,1,14,13,1,0,0,2,
1570621931,2019-10-09 11:52:11.767,Acquired,Acquired,Acquired,Acquired,Acquired,Acquired,Acquired,Acquired,Not acquired,Not acquired,Not acquired,Acquired,1.0596072E2,2.57330528E2,1.54108224E2,5.4866932E1,3.03305952E2,3.15738816E2,5.5445356E1,1.84217584E2,3.9403107999999996E1,1.683536E2,2.5808592E2,8.3168424E1,6.9677416E1,7.293484E1,5.5351223999999995E1,3.4385688E1,4.0118836E1,2.4253012E1,8.225090399999999E1,2.780333E1,1.3512452999999999E1,7.629353999999999E0,1.2363287999999999E1,1.1399159E1,1,3,11,14,17,19,22,23,32,8,28,31,15,15,13,3,6,1,14,13,1,0,0,2,
1570621991,2019-10-09 11:53:11.767,Acquired,Acquired,Acquired,Acquired,Acquired,Acquired,Acquired,Acquired,Not acquired,Not acquired,Not acquired,Acquired,1.0596072E2,2.57330528E2,1.54108224E2,5.4866932E1,3.03305952E2,3.15738816E2,5.5445356E1,1.84217584E2,3.9403107999999996E1,1.683536E2,2.5808592E2,8.3168424E1,6.9677416E1,7.293484E1,5.5351223999999995E1,3.4385688E1,4.0118836E1,2.4253012E1,8.225090399999999E1,2.780333E1,1.3512452999999999E1,7.629353999999999E0,1.2363287999999999E1,1.1399159E1,1,3,11,14,17,19,22,23,32,8,28,31,15,15,13,3,6,1,14,13,1,0,0,2,
1570622051,2019-10-09 11:54:11.767,,Acquired,Acquired,Acquired,Acquired,Acquired,Acquired,Acquired,Acquired,Acquired,Not acquired,Acquired,,2.58114496E2,1.54129088E2,5.4496255999999995E1,3.02895936E2,3.15534848E2,5.5994547999999995E1,1.8419152E2,3.9265699999999995E1,1.6834891199999998E2,2.57758576E2,8.2786512E1,,7.3369816E1,5.4850379999999994E1,3.4112716E1,4.0404832E1,2.4627392E1,8.1801992E1,2.8259358E1,1.3152944E1,7.210355E0,1.2060547999999999E1,1.1630341999999999E1,,3,11,14,17,19,22,23,32,8,28,31,,15,13,4,4,1,12,15,2,2,0,2,
1570622111,2019-10-09 11:55:11.767,Acquired,Acquired,Not acquired,Acquired,Acquired,Acquired,Acquired,Acquired,Acquired,Acquired,Acquired,,1.2337176799999999E2,3.49903648E2,3.02599936E2,2.01434544E2,1.55988048E2,4.484442E1,2.8257926399999997E2,3.03714336E2,6.8609216E1,1.8266742399999998E2,6.7477656E1,,5.2749967999999996E1,8.4010896E1,1.4062225E1,1.5072441999999999E1,3.6812979999999996E1,2.2217726E1,4.7416503999999996E1,3.6835015999999996E1,6.5609956E1,4.5519644E1,1.8076938E1,,1,3,6,9,11,14,17,19,22,23,31,,14,15,0,9,15,2,7,4,9,11,3,,
1570622171,2019-10-09 11:56:11.767,Acquired,Acquired,Not acquired,Acquired,Acquired,Acquired,Acquired,Acquired,Acquired,Acquired,Acquired,,1.2337176799999999E2,3.49903648E2,3.02599936E2,2.01434544E2,1.55988048E2,4.484442E1,2.8257926399999997E2,3.03714336E2,6.8609216E1,1.8266742399999998E2,6.7477656E1,,5.2749967999999996E1,8.4010896E1,1.4062225E1,1.5072441999999999E1,3.6812979999999996E1,2.2217726E1,4.7416503999999996E1,3.6835015999999996E1,6.5609956E1,4.5519644E1,1.8076938E1,,1,3,6,9,11,14,17,19,22,23,31,,14,15,0,9,15,2,7,4,9,11,3,,
1570622231,2019-10-09 11:57:11.767,Acquired,Acquired,Not acquired,Acquired,Acquired,Acquired,Acquired,Acquired,Acquired,Acquired,Acquired,,1.2337176799999999E2,3.49903648E2,3.02599936E2,2.01434544E2,1.55988048E2,4.484442E1,2.8257926399999997E2,3.03714336E2,6.8609216E1,1.8266742399999998E2,6.7477656E1,,5.2749967999999996E1,8.4010896E1,1.4062225E1,1.5072441999999999E1,3.6812979999999996E1,2.2217726E1,4.7416503999999996E1,3.6835015999999996E1,6.5609956E1,4.5519644E1,1.8076938E1,,1,3,6,9,11,14,17,19,22,23,31,,14,15,0,9,15,2,7,4,9,11,3,,
1570622291,2019-10-09 11:58:11.767,Acquired,Acquired,Not acquired,Acquired,Acquired,Acquired,Acquired,Acquired,Acquired,Acquired,Acquired,,1.2337176799999999E2,3.49903648E2,3.02599936E2,2.01434544E2,1.55988048E2,4.484442E1,2.8257926399999997E2,3.03714336E2,6.8609216E1,1.8266742399999998E2,6.7477656E1,,5.2749967999999996E1,8.4010896E1,1.4062225E1,1.5072441999999999E1,3.6812979999999996E1,2.2217726E1,4.7416503999999996E1,3.6835015999999996E1,6.5609956E1,4.5519644E1,1.8076938E1,,1,3,6,9,11,14,17,19,22,23,31,,14,15,0,9,15,2,7,4,9,11,3,,
1570622351,2019-10-09 11:59:11.767,Acquired,Acquired,Not acquired,Acquired,Acquired,Acquired,Acquired,Acquired,Acquired,Acquired,Acquired,,1.2337176799999999E2,3.49903648E2,3.02599936E2,2.01434544E2,1.55988048E2,4.484442E1,2.8257926399999997E2,3.03714336E2,6.8609216E1,1.8266742399999998E2,6.7477656E1,,5.2749967999999996E1,8.4010896E1,1.4062225E1,1.5072441999999999E1,3.6812979999999996E1,2.2217726E1,4.7416503999999996E1,3.6835015999999996E1,6.5609956E1,4.5519644E1,1.8076938E1,,1,3,6,9,11,14,17,19,22,23,31,,14,15,0,9,15,2,7,4,9,11,3,,
