Time(longsecs),Time(UTC),External SOH Voltage 1(V),External SOH Voltage 2(V),External SOH Voltage 3(V),External SOH Voltage 4(V),Sensor SOH Voltage 1(V),Sensor SOH Voltage 2(V),Sensor SOH Voltage 3(V),
1570334426,2019-10-06 04:00:26.438,-2.5148392E-3,-1.4762878E-3,6.5164566E-3,-7.081032E-5,4.2676353E-1,4.2859268E-1,4.2674828E-1,
1570334486,2019-10-06 04:01:26.471,-1.9638538E-3,-1.1239052E-3,7.0085526E-3,1.440525E-3,4.2801476E-1,4.275217E-1,4.254589E-1,
1570334546,2019-10-06 04:02:26.441,-7.1442127E-3,-5.5851936E-3,2.3741722E-3,-4.1120052E-3,4.1657257E-1,4.1722202E-1,4.1429996E-1,
1570334606,2019-10-06 04:03:26.439,-7.2226524E-3,-6.077528E-3,2.4135113E-3,-3.635168E-3,4.1714E-1,4.1580296E-1,4.1472054E-1,
1570334666,2019-10-06 04:04:26.438,-6.84762E-3,-6.0908794E-3,2.5348663E-3,-3.8499832E-3,4.1581726E-1,4.1565323E-1,4.1381836E-1,
1570334726,2019-10-06 04:05:26.438,-6.8614483E-3,-5.607128E-3,2.8061867E-3,-4.1701794E-3,4.1588593E-1,4.1618252E-1,4.1390514E-1,
1570334786,2019-10-06 04:06:26.438,-4.3973923E-3,-3.8306713E-3,4.7664642E-3,-1.3971329E-3,4.2195034E-1,4.2137146E-1,4.1953182E-1,
1570334846,2019-10-06 04:07:26.438,-2.1982193E-3,-1.4533997E-3,6.862402E-3,-1.8835068E-5,4.3172932E-1,4.3051434E-1,4.2766285E-1,
1570334906,2019-10-06 04:08:26.438,-4.1582584E-3,-3.0603409E-3,4.7187805E-3,-1.0755062E-3,4.1666126E-1,4.1769123E-1,4.1605854E-1,
1570334966,2019-10-06 04:09:26.438,-3.993511E-3,-3.0460358E-3,5.052805E-3,-1.7716885E-3,4.1411304E-1,4.1391563E-1,4.112501E-1,
1570335026,2019-10-06 04:10:26.438,-2.1765232E-3,-1.2497902E-3,7.0035458E-3,8.614063E-4,4.295435E-1,4.2917633E-1,4.2593288E-1,
1570335086,2019-10-06 04:11:26.438,-2.4535656E-3,-1.5420914E-3,6.9065094E-3,3.4356117E-4,4.3119335E-1,4.3101215E-1,4.2712498E-1,
1570335146,2019-10-06 04:12:26.468,-7.0250034E-3,-5.5201054E-3,2.4032593E-3,-4.1410923E-3,4.1575146E-1,4.145031E-1,4.128723E-1,
1570335206,2019-10-06 04:13:26.438,-4.7171116E-3,-3.8499832E-3,4.88925E-3,-1.8036366E-3,4.206028E-1,4.190235E-1,4.1796017E-1,
1570335266,2019-10-06 04:14:26.438,-2.3565292E-3,-1.3847351E-3,6.6530704E-3,4.2915344E-5,4.2667007E-1,4.2559528E-1,4.252081E-1,
1570335326,2019-10-06 04:15:26.438,-2.4836063E-3,-1.2693405E-3,6.7059994E-3,6.6280365E-5,4.2725182E-1,4.2544556E-1,4.2278004E-1,
1570335386,2019-10-06 04:16:26.438,-2.4678707E-3,-1.1208057E-3,6.800413E-3,7.70092E-4,4.3092346E-1,4.2973614E-1,4.258957E-1,
1570335446,2019-10-06 04:17:26.438,-6.5732E-3,-5.869627E-3,2.8824806E-3,-3.5140514E-3,4.1557503E-1,4.1308022E-1,4.1203308E-1,
1570335506,2019-10-06 04:18:26.438,-2.2022724E-3,-1.3771057E-3,7.1213245E-3,4.6110153E-4,4.2649746E-1,4.254551E-1,4.2172527E-1,
1570335566,2019-10-06 04:19:26.438,-2.211094E-3,-7.660389E-4,7.1668625E-3,8.761883E-4,4.2637634E-1,4.260111E-1,4.232502E-1,
1570335626,2019-10-06 04:20:26.449,-4.744768E-3,-3.8218498E-3,4.2169094E-3,-1.9505024E-3,4.1499424E-1,4.1276932E-1,4.1184044E-1,
1570335686,2019-10-06 04:21:26.438,-4.728079E-3,-3.7529469E-3,4.3928623E-3,-1.6849041E-3,4.205141E-1,4.1919136E-1,4.1766357E-1,
1570335746,2019-10-06 04:22:26.438,-6.998062E-3,-5.4969788E-3,2.777338E-3,-3.8084984E-3,4.1421413E-1,4.1252708E-1,4.1095734E-1,
1570335806,2019-10-06 04:23:26.438,-4.408598E-3,-3.530264E-3,5.1572323E-3,-1.4028549E-3,4.232626E-1,4.2220306E-1,4.2002392E-1,
1570335866,2019-10-06 04:24:26.438,-4.9979687E-3,-3.5824776E-3,4.8491955E-3,-1.9567013E-3,4.2099094E-1,4.1831207E-1,4.169197E-1,
1570335926,2019-10-06 04:25:26.438,-1.9786358E-3,-1.3196468E-3,6.4013004E-3,6.392002E-4,4.2839336E-1,4.2776108E-1,4.2491245E-1,
1570335986,2019-10-06 04:26:26.438,-4.704237E-3,-3.8142204E-3,4.429817E-3,-1.7838478E-3,4.2064762E-1,4.1944408E-1,4.1615677E-1,
1570336046,2019-10-06 04:27:26.438,-2.2978783E-3,-1.3468266E-3,7.3153973E-3,6.1535835E-4,4.2914295E-1,4.278078E-1,4.247675E-1,
1570336106,2019-10-06 04:28:26.438,-4.34947E-3,-2.840519E-3,4.944563E-3,-2.0461082E-3,4.2430687E-1,4.240198E-1,4.208269E-1,
1570336166,2019-10-06 04:29:26.438,-4.107952E-3,-3.631115E-3,4.8646927E-3,-1.8703938E-3,4.2271996E-1,4.2171764E-1,4.1977692E-1,
1570336226,2019-10-06 04:30:26.438,-6.4048767E-3,-5.4779053E-3,2.7902126E-3,-4.024267E-3,4.140234E-1,4.1317177E-1,4.0962887E-1,
1570336286,2019-10-06 04:31:26.438,-4.664421E-3,-3.8859844E-3,4.6277046E-3,-1.6224384E-3,4.1670036E-1,4.153328E-1,4.1242313E-1,
1570336346,2019-10-06 04:32:26.438,-2.462864E-3,-1.708746E-3,6.773472E-3,1.9168854E-4,4.2742825E-1,4.2579842E-1,4.2376423E-1,
1570336406,2019-10-06 04:33:26.438,-1.6245842E-3,-1.5406609E-3,6.853342E-3,5.1403046E-4,4.2716885E-1,4.2490292E-1,4.2269897E-1,
1570336466,2019-10-06 04:34:26.439,-4.826784E-3,-3.984213E-3,4.3120384E-3,-2.0167828E-3,4.24057E-1,4.2387486E-1,4.200325E-1,
1570336526,2019-10-06 04:35:26.439,-4.656315E-3,-3.5088062E-3,5.422592E-3,-1.5158653E-3,4.2233467E-1,4.2205334E-1,4.2054176E-1,
1570336586,2019-10-06 04:36:26.439,-2.2830963E-3,-1.2328625E-3,6.7403316E-3,-5.8174133E-5,4.3071175E-1,4.2865276E-1,4.281006E-1,
1570336646,2019-10-06 04:37:26.438,-7.012129E-3,-5.8863163E-3,2.7256012E-3,-3.8926601E-3,4.1723633E-1,4.1627216E-1,4.1364956E-1,
1570336706,2019-10-06 04:38:26.438,-4.82893E-3,-3.6821365E-3,4.355669E-3,-2.146244E-3,4.200697E-1,4.19343E-1,4.167652E-1,
1570336766,2019-10-06 04:39:26.438,-2.3224354E-3,-9.839535E-4,7.059574E-3,3.5381317E-4,4.2798615E-1,4.2652225E-1,4.2630768E-1,
1570336826,2019-10-06 04:40:26.438,-4.82893E-3,-3.9463043E-3,4.3342113E-3,-1.9629002E-3,4.2427063E-1,4.227848E-1,4.2192268E-1,
1570336886,2019-10-06 04:41:26.439,-4.6958923E-3,-3.8511753E-3,4.622221E-3,-1.98555E-3,4.2241573E-1,4.2076492E-1,4.1940975E-1,
1570336946,2019-10-06 04:42:26.438,-3.7183762E-3,-3.0446053E-3,5.126953E-3,-1.4548302E-3,4.1602325E-1,4.1589642E-1,4.1357327E-1,
1570337006,2019-10-06 04:43:26.438,-6.8035126E-3,-5.655527E-3,2.8789043E-3,-4.121065E-3,4.1075706E-1,4.0979958E-1,4.0623665E-1,
1570337066,2019-10-06 04:44:26.441,-6.4413548E-3,-5.8927536E-3,2.7399063E-3,-4.1065216E-3,4.1678715E-1,4.153824E-1,4.1275978E-1,
1570337126,2019-10-06 04:45:26.441,-4.9734116E-3,-3.7987232E-3,4.319668E-3,-2.104044E-3,4.202528E-1,4.1933155E-1,4.1785908E-1,
1570337186,2019-10-06 04:46:26.438,-4.108429E-3,-3.2672882E-3,4.9996376E-3,-9.77993E-4,4.2162418E-1,4.213066E-1,4.1821098E-1,
1570337246,2019-10-06 04:47:26.438,-2.4785995E-3,-1.6345978E-3,7.011175E-3,7.557869E-4,4.2948627E-1,4.2778492E-1,4.269104E-1,
1570337306,2019-10-06 04:48:26.438,-6.9174767E-3,-5.5339336E-3,2.932787E-3,-4.0466785E-3,4.1633892E-1,4.1537857E-1,4.1333294E-1,
1570337366,2019-10-06 04:49:26.438,-5.022526E-3,-4.34494E-3,4.420042E-3,-2.1760464E-3,4.2454433E-1,4.235239E-1,4.2106915E-1,
1570337426,2019-10-06 04:50:26.438,-4.2250156E-3,-3.2844543E-3,5.536318E-3,-1.6174316E-3,4.204483E-1,4.2036533E-1,4.173851E-1,
1570337486,2019-10-06 04:51:26.438,-3.908396E-3,-3.134489E-3,5.096197E-3,-1.3468266E-3,4.302101E-1,4.304142E-1,4.2550373E-1,
1570337546,2019-10-06 04:52:26.438,-2.2974014E-3,-1.5780926E-3,6.5877438E-3,7.004738E-4,4.2793941E-1,4.2612648E-1,4.2320633E-1,
1570337606,2019-10-06 04:53:26.438,-6.4940453E-3,-5.4376125E-3,2.9523373E-3,-3.9277077E-3,4.105177E-1,4.099083E-1,4.0769482E-1,
1570337666,2019-10-06 04:54:26.438,-6.7920685E-3,-5.7649612E-3,2.4228096E-3,-4.4846535E-3,4.137602E-1,4.1255856E-1,4.1059494E-1,
1570337726,2019-10-06 04:55:26.438,-6.6149235E-3,-5.8631897E-3,2.2308826E-3,-3.758669E-3,4.1647625E-1,4.1485596E-1,4.153185E-1,
1570337786,2019-10-06 04:56:26.438,-4.643917E-3,-3.7910938E-3,4.3959618E-3,-1.9392967E-3,4.207983E-1,4.195032E-1,4.1581059E-1,
1570337846,2019-10-06 04:57:26.438,-4.7118664E-3,-3.8108826E-3,4.9545765E-3,-1.909256E-3,4.220724E-1,4.2066097E-1,4.2075634E-1,
1570337906,2019-10-06 04:58:26.438,-6.492138E-3,-5.7582855E-3,2.6090145E-3,-3.6065578E-3,4.170084E-1,4.1608047E-1,4.1317654E-1,
1570337966,2019-10-06 04:59:26.438,-3.846407E-3,-3.4594536E-3,5.1095486E-3,-1.4779568E-3,4.2058945E-1,4.197464E-1,4.1757774E-1,
