Time(longsecs),Time(UTC),Supply Voltage(mV),Temperature(&deg;C),NMX Bus Current(mA),Sensor Current(mA),Serial Port Current(mA),Controller Current(mA),Digitizer Current(mA),
1570381226,2019-10-06 17:00:26.438,16129,3.4835663E1,0,9,0,61,38,
1570381286,2019-10-06 17:01:26.438,16129,3.465393E1,0,11,0,61,37,
1570381346,2019-10-06 17:02:26.438,16129,3.4834595E1,0,9,0,61,38,
1570381406,2019-10-06 17:03:26.438,16197,3.4578033E1,0,11,0,53,38,
1570381466,2019-10-06 17:04:26.438,16129,3.4399506E1,0,11,0,61,40,
1570381526,2019-10-06 17:05:26.438,16129,3.447754E1,0,10,0,61,37,
1570381586,2019-10-06 17:06:26.438,16129,3.4279755E1,0,7,0,60,35,
1570381646,2019-10-06 17:07:26.438,16116,3.438452E1,0,11,0,52,38,
1570381706,2019-10-06 17:08:26.438,16129,3.4203857E1,0,9,0,53,37,
1570381766,2019-10-06 17:09:26.439,16116,3.415683E1,0,10,0,59,40,
1570381826,2019-10-06 17:10:26.438,16102,3.4074493E1,0,9,0,61,41,
1570381886,2019-10-06 17:11:26.439,16102,3.3998596E1,0,11,0,69,39,
1570381946,2019-10-06 17:12:26.439,16102,3.382434E1,0,11,0,61,35,
1570382006,2019-10-06 17:13:26.439,16116,3.3777313E1,0,8,0,54,38,
1570382066,2019-10-06 17:14:26.438,16116,3.3731354E1,0,9,0,55,40,
1570382126,2019-10-06 17:15:26.438,16116,3.371637E1,0,11,0,60,38,
1570382186,2019-10-06 17:16:26.438,16116,3.3720642E1,0,17,0,64,36,
1570382246,2019-10-06 17:17:26.438,16116,3.3442688E1,0,10,0,52,37,
1570382306,2019-10-06 17:18:26.438,16102,3.3422394E1,0,6,0,62,41,
1570382366,2019-10-06 17:19:26.438,16102,3.341275E1,0,16,0,61,35,
1570382426,2019-10-06 17:20:26.438,16102,3.3096313E1,0,15,0,61,37,
1570382486,2019-10-06 17:21:26.438,16183,3.3231018E1,0,9,0,61,39,
1570382546,2019-10-06 17:22:26.438,16102,3.305356E1,0,7,0,52,37,
1570382606,2019-10-06 17:23:26.438,16102,3.285898E1,0,9,0,52,39,
1570382666,2019-10-06 17:24:26.438,16102,3.285791E1,0,11,3,59,38,
1570382726,2019-10-06 17:25:26.438,16089,3.259601E1,0,9,0,61,37,
1570382786,2019-10-06 17:26:26.438,16089,3.270398E1,0,4,0,61,38,
1570382846,2019-10-06 17:27:26.438,16102,3.249124E1,0,11,0,52,35,
1570382906,2019-10-06 17:28:26.438,16102,3.25618E1,0,12,0,52,38,
1570382966,2019-10-06 17:29:26.438,16102,3.2305206E1,0,7,0,61,40,
1570383026,2019-10-06 17:30:26.438,16116,3.2323395E1,0,11,0,60,39,
1570383086,2019-10-06 17:31:26.438,16089,3.2226105E1,0,18,0,61,34,
1570383146,2019-10-06 17:32:26.438,16089,3.212668E1,0,7,0,61,37,
1570383206,2019-10-06 17:33:26.438,16102,3.223358E1,0,11,0,52,42,
1570383266,2019-10-06 17:34:26.438,16089,3.1907532E1,0,7,0,64,38,
1570383326,2019-10-06 17:35:26.439,16089,3.1798492E1,0,12,0,73,41,
1570383386,2019-10-06 17:36:26.471,16089,3.1601776E1,0,9,0,61,38,
1570383446,2019-10-06 17:37:26.474,16143,3.1675537E1,0,9,0,52,37,
1570383506,2019-10-06 17:38:26.438,16116,3.1557953E1,0,9,0,52,36,
1570383566,2019-10-06 17:39:26.441,16089,3.1431793E1,0,9,0,61,34,
1570383626,2019-10-06 17:40:26.438,16089,3.1448883E1,0,9,0,61,40,
1570383686,2019-10-06 17:41:26.439,16075,3.1217987E1,0,6,0,59,36,
1570383746,2019-10-06 17:42:26.438,16089,3.1260742E1,0,9,0,50,37,
1570383806,2019-10-06 17:43:26.438,16075,3.1229736E1,0,11,0,63,34,
1570383866,2019-10-06 17:44:26.438,16089,3.0929321E1,0,10,0,61,37,
1570383926,2019-10-06 17:45:26.474,16062,3.0926117E1,0,9,0,61,40,
1570383986,2019-10-06 17:46:26.438,16048,3.0932526E1,0,16,0,61,36,
1570384046,2019-10-06 17:47:26.438,16089,3.0732635E1,1,10,0,53,35,
1570384106,2019-10-06 17:48:26.438,16075,3.0899414E1,0,9,0,52,35,
1570384166,2019-10-06 17:49:26.448,16062,3.0545532E1,0,9,0,61,42,
1570384226,2019-10-06 17:50:26.438,16075,3.0446106E1,0,11,0,61,39,
1570384286,2019-10-06 17:51:26.438,16075,3.0630005E1,0,8,0,61,38,
1570384346,2019-10-06 17:52:26.438,16075,3.0241943E1,0,12,0,53,36,
1570384406,2019-10-06 17:53:26.438,16075,3.0307129E1,0,9,0,52,41,
1570384466,2019-10-06 17:54:26.439,16075,3.000354E1,0,11,0,54,36,
1570384526,2019-10-06 17:55:26.438,16062,3.0138245E1,0,16,0,63,40,
1570384586,2019-10-06 17:56:26.438,16089,3.0189545E1,0,6,0,61,41,
1570384646,2019-10-06 17:57:26.438,16062,3.0087982E1,0,9,0,59,38,
1570384706,2019-10-06 17:58:26.439,16062,2.9963959E1,0,9,0,64,41,
1570384766,2019-10-06 17:59:26.439,16048,2.9874176E1,0,11,0,70,41,
