Time(longsecs),Time(UTC),Supply Voltage(mV),Temperature(&deg;C),NMX Bus Current(mA),Sensor Current(mA),Serial Port Current(mA),Controller Current(mA),Digitizer Current(mA),
1570341626,2019-10-06 06:00:26.438,14883,2.1138885E1,0,10,0,64,47,
1570341686,2019-10-06 06:01:26.439,14910,2.1201965E1,0,13,0,64,48,
1570341746,2019-10-06 06:02:26.438,14910,2.134201E1,0,15,0,59,48,
1570341806,2019-10-06 06:03:26.438,14883,2.120517E1,0,15,0,56,51,
1570341866,2019-10-06 06:04:26.438,14910,2.1051239E1,0,5,0,64,47,
1570341926,2019-10-06 06:05:26.441,14923,2.1024506E1,0,9,0,64,45,
1570341986,2019-10-06 06:06:26.438,14896,2.098816E1,0,9,0,64,45,
1570342046,2019-10-06 06:07:26.473,14896,2.1138885E1,0,9,0,59,49,
1570342106,2019-10-06 06:08:26.438,14910,2.1276794E1,0,12,0,55,48,
1570342166,2019-10-06 06:09:26.441,14896,2.1125E1,0,13,0,64,45,
1570342226,2019-10-06 06:10:26.438,14910,2.1132477E1,0,11,0,65,46,
1570342286,2019-10-06 06:11:26.438,14910,2.1072601E1,0,13,0,64,45,
1570342346,2019-10-06 06:12:26.438,14896,2.1038391E1,0,10,0,55,45,
1570342406,2019-10-06 06:13:26.468,14923,2.0984955E1,0,10,0,55,45,
1570342466,2019-10-06 06:14:26.438,14868,2.1190216E1,0,9,0,63,42,
1570342526,2019-10-06 06:15:26.438,14855,2.1396545E1,0,11,0,68,47,
1570342586,2019-10-06 06:16:26.439,14896,2.1201965E1,0,9,0,66,47,
1570342646,2019-10-06 06:17:26.438,14896,2.1165619E1,0,17,0,55,46,
1570342706,2019-10-06 06:18:26.438,14896,2.129068E1,0,11,0,56,44,
1570342766,2019-10-06 06:19:26.438,14883,2.115921E1,0,10,0,66,53,
1570342826,2019-10-06 06:20:26.438,14883,2.1053375E1,0,7,0,65,46,
1570342886,2019-10-06 06:21:26.439,14896,2.1144226E1,0,11,0,62,45,
1570342946,2019-10-06 06:22:26.439,14896,2.1267181E1,0,18,0,64,47,
1570343006,2019-10-06 06:23:26.439,14896,2.1148499E1,0,10,0,64,47,
1570343066,2019-10-06 06:24:26.438,14883,2.1108948E1,0,9,0,64,44,
1570343126,2019-10-06 06:25:26.439,14896,2.1254333E1,0,0,0,60,45,
1570343186,2019-10-06 06:26:26.438,14883,2.122763E1,0,11,0,63,46,
1570343246,2019-10-06 06:27:26.443,14896,2.1143158E1,0,16,0,56,48,
1570343306,2019-10-06 06:28:26.438,14896,2.114209E1,0,11,0,56,46,
1570343366,2019-10-06 06:29:26.472,14883,2.1040527E1,0,10,0,64,44,
1570343426,2019-10-06 06:30:26.439,14896,2.1038391E1,0,9,0,62,47,
1570343486,2019-10-06 06:31:26.438,14896,2.1132477E1,0,10,1,64,46,
1570343546,2019-10-06 06:32:26.438,14923,2.0984955E1,0,10,0,65,49,
1570343606,2019-10-06 06:33:26.438,14896,2.1185913E1,0,9,0,63,44,
1570343666,2019-10-06 06:34:26.438,14896,2.1069397E1,0,10,0,65,46,
1570343726,2019-10-06 06:35:26.441,14883,2.1166687E1,0,16,0,64,47,
1570343786,2019-10-06 06:36:26.438,14883,2.1225494E1,0,9,0,62,43,
1570343846,2019-10-06 06:37:26.468,14868,2.1231903E1,0,11,0,55,47,
1570343906,2019-10-06 06:38:26.438,14896,2.118805E1,0,9,0,55,47,
1570343966,2019-10-06 06:39:26.438,14896,2.1334534E1,0,11,14,64,44,
1570344026,2019-10-06 06:40:26.439,14896,2.1185913E1,0,11,0,63,47,
1570344086,2019-10-06 06:41:26.438,14896,2.1110016E1,0,4,0,64,45,
1570344146,2019-10-06 06:42:26.438,14896,2.1248993E1,0,10,0,56,47,
1570344206,2019-10-06 06:43:26.438,14883,2.1040527E1,0,11,0,65,46,
1570344266,2019-10-06 06:44:26.438,14896,2.1203033E1,0,10,0,64,46,
1570344326,2019-10-06 06:45:26.439,14883,2.1182709E1,0,15,0,64,48,
1570344386,2019-10-06 06:46:26.438,14883,2.1116425E1,0,6,0,64,47,
1570344446,2019-10-06 06:47:26.439,14896,2.1158142E1,0,11,0,55,49,
1570344506,2019-10-06 06:48:26.438,14896,2.122226E1,0,13,0,55,46,
1570344566,2019-10-06 06:49:26.439,14883,2.0990295E1,0,12,0,62,49,
1570344626,2019-10-06 06:50:26.438,14883,2.1371948E1,0,9,0,65,50,
1570344686,2019-10-06 06:51:26.438,14883,2.1160278E1,0,9,0,64,46,
1570344746,2019-10-06 06:52:26.438,14883,2.121051E1,0,11,0,55,48,
1570344806,2019-10-06 06:53:26.438,14868,2.0966766E1,0,8,0,55,47,
1570344866,2019-10-06 06:54:26.439,14883,2.1267181E1,0,11,0,63,50,
1570344926,2019-10-06 06:55:26.438,14883,2.1192352E1,0,11,0,64,47,
1570344986,2019-10-06 06:56:26.438,14883,2.1086517E1,0,9,0,65,45,
1570345046,2019-10-06 06:57:26.450,14883,2.120517E1,0,18,0,55,47,
1570345106,2019-10-06 06:58:26.438,14883,2.1165619E1,0,10,0,55,47,
1570345166,2019-10-06 06:59:26.438,14883,2.108545E1,0,17,0,61,46,
