Time(longsecs),Time(UTC),External SOH Voltage 1(V),External SOH Voltage 2(V),External SOH Voltage 3(V),External SOH Voltage 4(V),Sensor SOH Voltage 1(V),Sensor SOH Voltage 2(V),Sensor SOH Voltage 3(V),
1570359626,2019-10-06 11:00:26.438,-4.8377514E-3,-3.6270618E-3,4.495144E-3,-2.3987293E-3,4.213524E-1,4.2090416E-1,4.1964245E-1,
1570359686,2019-10-06 11:01:26.460,-5.1505566E-3,-3.7374496E-3,4.6873093E-3,-2.5203228E-3,4.147539E-1,4.1605854E-1,4.121256E-1,
1570359746,2019-10-06 11:02:26.438,-4.921198E-3,-3.567934E-3,4.168272E-3,-2.5761127E-3,4.213314E-1,4.2106247E-1,4.190426E-1,
1570359806,2019-10-06 11:03:26.438,-5.0284863E-3,-4.1368008E-3,4.5716763E-3,-2.2947788E-3,4.1914558E-1,4.1873646E-1,4.1724586E-1,
1570359866,2019-10-06 11:04:26.438,-6.622553E-3,-5.445957E-3,2.6416779E-3,-4.094839E-3,4.16502E-1,4.1638374E-1,4.124775E-1,
1570359926,2019-10-06 11:05:26.438,-6.8085194E-3,-6.0839653E-3,2.6712418E-3,-4.2836666E-3,4.1820908E-1,4.169731E-1,4.148941E-1,
1570359986,2019-10-06 11:06:26.438,-5.0094128E-3,-3.723383E-3,4.6288967E-3,-1.7871857E-3,4.228077E-1,4.2138672E-1,4.1806316E-1,
1570360046,2019-10-06 11:07:26.438,-4.5540333E-3,-3.1576157E-3,5.234003E-3,-1.429081E-3,4.1390896E-1,4.1452217E-1,4.1395664E-1,
1570360106,2019-10-06 11:08:26.438,-6.964445E-3,-5.8095455E-3,2.7065277E-3,-3.8347244E-3,4.1710186E-1,4.154806E-1,4.131632E-1,
1570360166,2019-10-06 11:09:26.438,-4.778385E-3,-3.3183098E-3,4.7380924E-3,-1.5966892E-3,4.2372608E-1,4.2333508E-1,4.204178E-1,
1570360226,2019-10-06 11:10:26.440,-6.7942142E-3,-5.655527E-3,2.967596E-3,-4.1754246E-3,4.1709995E-1,4.166689E-1,4.138708E-1,
1570360286,2019-10-06 11:11:26.439,-2.0861626E-3,-9.6559525E-4,7.1349144E-3,5.669594E-4,4.2779922E-1,4.2816544E-1,4.2592812E-1,
1570360346,2019-10-06 11:12:26.438,-3.8063526E-3,-3.3035278E-3,5.378723E-3,-1.229763E-3,4.1987038E-1,4.199152E-1,4.1695595E-1,
1570360406,2019-10-06 11:13:26.441,-2.4135113E-3,-1.2817383E-3,6.934166E-3,5.1164627E-4,4.2963314E-1,4.2787266E-1,4.261732E-1,
1570360466,2019-10-06 11:14:26.438,-6.586075E-3,-5.981922E-3,2.7198792E-3,-4.1968822E-3,4.1514778E-1,4.1505527E-1,4.1250515E-1,
1570360526,2019-10-06 11:15:26.438,-4.469633E-3,-3.902197E-3,4.5781136E-3,-2.1150112E-3,4.220171E-1,4.2147732E-1,4.1796303E-1,
1570360586,2019-10-06 11:16:26.438,-6.8404675E-3,-5.373001E-3,2.898693E-3,-3.8032532E-3,4.1773224E-1,4.156103E-1,4.140911E-1,
1570360646,2019-10-06 11:17:26.438,-6.7448616E-3,-5.2990913E-3,3.297329E-3,-4.033804E-3,4.1446877E-1,4.14773E-1,4.124813E-1,
1570360706,2019-10-06 11:18:26.438,-4.545927E-3,-3.7801266E-3,4.8496723E-3,-2.3300648E-3,4.1634083E-1,4.1470528E-1,4.127426E-1,
1570360766,2019-10-06 11:19:26.440,-3.9508343E-3,-3.4534931E-3,5.036354E-3,-1.2702942E-3,4.1985607E-1,4.1968632E-1,4.1741943E-1,
1570360826,2019-10-06 11:20:26.439,-3.984928E-3,-2.8135777E-3,4.365444E-3,-1.7585754E-3,4.2180824E-1,4.2209148E-1,4.1905975E-1,
1570360886,2019-10-06 11:21:26.438,-6.390333E-3,-5.614996E-3,2.8545856E-3,-4.065752E-3,4.1395378E-1,4.1321278E-1,4.121294E-1,
1570360946,2019-10-06 11:22:26.439,-3.8275719E-3,-2.8784275E-3,5.186081E-3,-1.124382E-3,4.2354012E-1,4.2201424E-1,4.191084E-1,
1570361006,2019-10-06 11:23:26.445,-4.4560432E-3,-3.3009052E-3,5.140543E-3,-1.7659664E-3,4.2168903E-1,4.233637E-1,4.211254E-1,
1570361066,2019-10-06 11:24:26.438,-2.3930073E-3,-1.6386509E-3,6.8981647E-3,-4.336834E-4,4.2597198E-1,4.2602158E-1,4.246235E-1,
1570361126,2019-10-06 11:25:26.439,-4.7023296E-3,-3.8480759E-3,4.3697357E-3,-2.2015572E-3,4.199667E-1,4.1909885E-1,4.1587448E-1,
1570361186,2019-10-06 11:26:26.438,-7.0416927E-3,-5.7325363E-3,2.7337074E-3,-4.2049885E-3,4.136181E-1,4.1286278E-1,4.1022396E-1,
1570361246,2019-10-06 11:27:26.438,-1.8808842E-3,-1.3334751E-3,7.109642E-3,1.1205673E-5,4.2993355E-1,4.3061066E-1,4.2796898E-1,
1570361306,2019-10-06 11:28:26.440,-4.6367645E-3,-3.6494732E-3,4.3416023E-3,-2.1586418E-3,4.2158413E-1,4.2116356E-1,4.183159E-1,
1570361366,2019-10-06 11:29:26.438,-6.467819E-3,-5.823612E-3,3.0517578E-3,-4.2283535E-3,4.1015244E-1,4.082508E-1,4.064808E-1,
1570361426,2019-10-06 11:30:26.440,-2.2964478E-3,-1.5671253E-3,7.152796E-3,3.209114E-4,4.2664623E-1,4.2551422E-1,4.2235374E-1,
1570361486,2019-10-06 11:31:26.441,-4.0905476E-3,-2.9952526E-3,4.8754215E-3,-1.5835762E-3,4.195547E-1,4.2033863E-1,4.1589642E-1,
1570361546,2019-10-06 11:32:26.442,-6.7822933E-3,-5.8062077E-3,2.9284954E-3,-4.1475296E-3,4.1617584E-1,4.1436863E-1,4.1286278E-1,
1570361606,2019-10-06 11:33:26.440,-2.5148392E-3,-1.128912E-3,7.023573E-3,1.3041496E-4,4.246893E-1,4.2490673E-1,4.2288685E-1,
1570361666,2019-10-06 11:34:26.440,-5.0108433E-3,-3.6821365E-3,4.663706E-3,-2.1207333E-3,4.1952324E-1,4.1879654E-1,4.1687012E-1,
1570361726,2019-10-06 11:35:26.440,-6.462574E-3,-5.584717E-3,3.1003952E-3,-4.276991E-3,4.1239357E-1,4.137354E-1,4.11726E-1,
1570361786,2019-10-06 11:36:26.439,-2.6211739E-3,-1.3253689E-3,6.996155E-3,4.6753883E-4,4.2509556E-1,4.2606258E-1,4.2237663E-1,
1570361846,2019-10-06 11:37:26.440,-5.4473877E-3,-3.9691925E-3,4.6641827E-3,-1.975298E-3,4.138813E-1,4.1245556E-1,4.1118813E-1,
1570361906,2019-10-06 11:38:26.440,-7.2722435E-3,-5.841017E-3,2.8100014E-3,-3.8645267E-3,4.173851E-1,4.1680813E-1,4.159069E-1,
1570361966,2019-10-06 11:39:26.440,-4.8205853E-3,-4.102707E-3,4.7063828E-3,-2.285719E-3,4.1888523E-1,4.201727E-1,4.1817856E-1,
1570362026,2019-10-06 11:40:26.439,-4.576206E-3,-4.312277E-3,4.401207E-3,-2.444744E-3,4.1059017E-1,4.1106415E-1,4.103613E-1,
1570362086,2019-10-06 11:41:26.440,-4.0397644E-3,-3.1547546E-3,5.480528E-3,-1.565218E-3,4.2054367E-1,4.1996098E-1,4.1771317E-1,
1570362146,2019-10-06 11:42:26.440,-2.1419525E-3,-1.26338E-3,6.531E-3,6.3586235E-4,4.266796E-1,4.2643833E-1,4.2285156E-1,
1570362206,2019-10-06 11:43:26.440,-4.794121E-3,-3.8881302E-3,4.399538E-3,-2.4175644E-3,4.1564846E-1,4.1528797E-1,4.1346073E-1,
1570362266,2019-10-06 11:44:26.439,-3.9749146E-3,-3.123045E-3,4.9579144E-3,-9.493828E-4,4.145851E-1,4.151535E-1,4.1131496E-1,
1570362326,2019-10-06 11:45:26.438,-3.863573E-3,-3.1814575E-3,5.1219463E-3,-1.9490719E-3,4.1562366E-1,4.148016E-1,4.1466904E-1,
1570362386,2019-10-06 11:46:26.438,-4.210949E-3,-3.283739E-3,5.3141117E-3,-1.4936924E-3,4.202919E-1,4.2065144E-1,4.1779327E-1,
1570362446,2019-10-06 11:47:26.438,-2.251625E-3,-1.0523796E-3,7.3666573E-3,-1.1920929E-5,4.222536E-1,4.2167854E-1,4.1968346E-1,
1570362506,2019-10-06 11:48:26.438,-6.153345E-3,-5.9962273E-3,2.8793812E-3,-4.183054E-3,4.1421795E-1,4.1265392E-1,4.0867996E-1,
1570362566,2019-10-06 11:49:26.438,-5.015373E-3,-3.914833E-3,4.4751167E-3,-2.0415783E-3,4.1980648E-1,4.196415E-1,4.2005062E-1,
1570362626,2019-10-06 11:50:26.441,-4.8520565E-3,-3.7310123E-3,4.1058064E-3,-2.231121E-3,4.1796684E-1,4.1900063E-1,4.1536713E-1,
1570362686,2019-10-06 11:51:26.438,-6.9806576E-3,-5.9740543E-3,2.2103786E-3,-4.37665E-3,4.0676498E-1,4.0412807E-1,4.0365505E-1,
1570362746,2019-10-06 11:52:26.438,-5.1066875E-3,-3.668785E-3,4.4677258E-3,-2.1443367E-3,4.1835403E-1,4.176941E-1,4.1699696E-1,
1570362806,2019-10-06 11:53:26.438,-4.674673E-3,-3.6559105E-3,4.2920113E-3,-1.9011497E-3,4.2229939E-1,4.2178917E-1,4.1877842E-1,
1570362866,2019-10-06 11:54:26.438,-6.47521E-3,-5.2497387E-3,2.8951168E-3,-3.9355755E-3,4.1273212E-1,4.1297626E-1,4.1069317E-1,
1570362926,2019-10-06 11:55:26.438,-4.954815E-3,-3.7062168E-3,4.4670105E-3,-2.3682117E-3,4.1510105E-1,4.1514874E-1,4.1208267E-1,
1570362986,2019-10-06 11:56:26.438,-2.1455288E-3,-1.3277531E-3,6.2348843E-3,2.207756E-3,4.2488575E-1,4.2635536E-1,4.237814E-1,
1570363046,2019-10-06 11:57:26.438,-3.8397312E-3,-3.2598972E-3,5.0549507E-3,-1.4119148E-3,4.13826E-1,4.139824E-1,4.1234684E-1,
1570363106,2019-10-06 11:58:26.438,-4.170656E-3,-2.981186E-3,5.612135E-3,-9.329319E-4,4.209814E-1,4.2040253E-1,4.179535E-1,
1570363166,2019-10-06 11:59:26.439,-4.093647E-3,-3.0024052E-3,5.527258E-3,-1.4336109E-3,4.1596794E-1,4.1581345E-1,4.1292477E-1,
