Time(longsecs),Time(UTC),Earth Location,GPS Receiver Status,GPS Satellites Used,GPS PDOP,GPS TDOP,Timing Status,Timing Phase Lock,Timing Uncertainty(ns),DAC Count,Timing Error(ns),GPS Last Update Time,
1570392026,2019-10-06 20:00:26.440,47.63873N 0.54906E 173m,Off,6,2.3468328,1.3196166,Time OK,Free running,11300,8608,0,2019-10-06 19:50:22.000000000,
1570392086,2019-10-06 20:01:26.439,47.63873N 0.54906E 173m,Off,6,2.3468328,1.3196166,Time OK,Free running,12800,8608,0,2019-10-06 19:50:22.000000000,
1570392146,2019-10-06 20:02:26.438,47.63873N 0.54906E 173m,Off,6,2.3468328,1.3196166,Time OK,Free running,14300,8608,0,2019-10-06 19:50:22.000000000,
1570392206,2019-10-06 20:03:26.441,47.63873N 0.54906E 173m,Off,6,2.3468328,1.3196166,Time OK,Free running,15700,8608,0,2019-10-06 19:50:22.000000000,
1570392266,2019-10-06 20:04:26.438,47.63873N 0.54906E 173m,Off,6,2.3468328,1.3196166,Time OK,Free running,17200,8608,0,2019-10-06 19:50:22.000000000,
1570392326,2019-10-06 20:05:26.438,47.63873N 0.54906E 173m,Off,6,2.3468328,1.3196166,Time OK,Free running,18900,8608,0,2019-10-06 19:50:22.000000000,
1570392386,2019-10-06 20:06:26.438,47.63873N 0.54906E 173m,Off,6,2.3468328,1.3196166,Time OK,Free running,20600,8608,0,2019-10-06 19:50:22.000000000,
1570392446,2019-10-06 20:07:26.438,47.63873N 0.54906E 173m,Off,6,2.3468328,1.3196166,Time OK,Free running,22200,8608,0,2019-10-06 19:50:22.000000000,
1570392506,2019-10-06 20:08:26.441,47.63873N 0.54906E 173m,Off,6,2.3468328,1.3196166,Time OK,Free running,24100,8608,0,2019-10-06 19:50:22.000000000,
1570392566,2019-10-06 20:09:26.438,47.63873N 0.54906E 173m,Off,6,2.3468328,1.3196166,Time OK,Free running,26300,8608,0,2019-10-06 19:50:22.000000000,
1570392626,2019-10-06 20:10:26.438,47.63873N 0.54906E 173m,Off,6,2.3468328,1.3196166,Time OK,Free running,28400,8608,0,2019-10-06 19:50:22.000000000,
1570392686,2019-10-06 20:11:26.439,47.63873N 0.54906E 173m,Off,6,2.3468328,1.3196166,Time OK,Free running,30500,8608,0,2019-10-06 19:50:22.000000000,
1570392746,2019-10-06 20:12:26.438,47.63873N 0.54906E 173m,Off,6,2.3468328,1.3196166,Time OK,Free running,32800,8608,0,2019-10-06 19:50:22.000000000,
1570392806,2019-10-06 20:13:26.440,47.63873N 0.54906E 173m,Off,6,2.3468328,1.3196166,Time OK,Free running,35000,8608,0,2019-10-06 19:50:22.000000000,
1570392866,2019-10-06 20:14:26.439,47.63873N 0.54906E 173m,Off,6,2.3468328,1.3196166,Time OK,Free running,37200,8608,0,2019-10-06 19:50:22.000000000,
1570392926,2019-10-06 20:15:26.438,47.63873N 0.54906E 173m,Off,6,2.3468328,1.3196166,Time OK,Free running,39300,8608,0,2019-10-06 19:50:22.000000000,
1570392986,2019-10-06 20:16:26.438,47.63873N 0.54906E 173m,Off,6,2.3468328,1.3196166,Time OK,Free running,41400,8608,0,2019-10-06 19:50:22.000000000,
1570393046,2019-10-06 20:17:26.438,47.63873N 0.54906E 173m,Off,6,2.3468328,1.3196166,Time OK,Free running,43800,8608,0,2019-10-06 19:50:22.000000000,
1570393106,2019-10-06 20:18:26.438,47.63873N 0.54906E 173m,Off,6,2.3468328,1.3196166,Time OK,Free running,46000,8608,0,2019-10-06 19:50:22.000000000,
1570393166,2019-10-06 20:19:26.438,47.63873N 0.54906E 173m,Off,6,2.3468328,1.3196166,Time OK,Free running,48200,8608,0,2019-10-06 19:50:22.000000000,
1570393226,2019-10-06 20:20:26.438,47.63873N 0.54906E 173m,Off,6,2.3468328,1.3196166,Time OK,Free running,50600,8608,0,2019-10-06 19:50:22.000000000,
1570393286,2019-10-06 20:21:26.438,47.63873N 0.54906E 173m,No GPS time,6,2.3468328,1.3196166,Time OK,Free running,53100,8608,0,2019-10-06 19:50:22.000000000,
1570393346,2019-10-06 20:22:26.439,47.63873N 0.54906E 173m,Doing fixes,7,2.709637,1.5277238,Time OK,Coarse lock,100,8099,2291,2019-10-06 20:22:23.000000000,
1570393406,2019-10-06 20:23:26.439,47.63873N 0.54906E 173m,Doing fixes,7,2.713378,1.5273798,Time OK,Fine lock,100,8570,0,2019-10-06 20:23:23.000000000,
1570393466,2019-10-06 20:24:26.439,47.63873N 0.54906E 173m,Off,7,2.103281,1.0706289,Time OK,Free running,600,8570,0,2019-10-06 20:23:43.000000000,
1570393526,2019-10-06 20:25:26.438,47.63873N 0.54906E 173m,Off,7,2.103281,1.0706289,Time OK,Free running,1500,8570,0,2019-10-06 20:23:43.000000000,
1570393586,2019-10-06 20:26:26.438,47.63873N 0.54906E 173m,Off,7,2.103281,1.0706289,Time OK,Free running,2300,8570,0,2019-10-06 20:23:43.000000000,
1570393646,2019-10-06 20:27:26.438,47.63873N 0.54906E 173m,Off,7,2.103281,1.0706289,Time OK,Free running,3100,8570,0,2019-10-06 20:23:43.000000000,
1570393706,2019-10-06 20:28:26.473,47.63873N 0.54906E 173m,Off,7,2.103281,1.0706289,Time OK,Free running,4000,8570,0,2019-10-06 20:23:43.000000000,
1570393766,2019-10-06 20:29:26.438,47.63873N 0.54906E 173m,Off,7,2.103281,1.0706289,Time OK,Free running,4800,8570,0,2019-10-06 20:23:43.000000000,
1570393826,2019-10-06 20:30:26.438,47.63873N 0.54906E 173m,Off,7,2.103281,1.0706289,Time OK,Free running,5700,8570,0,2019-10-06 20:23:43.000000000,
1570393886,2019-10-06 20:31:26.439,47.63873N 0.54906E 173m,Off,7,2.103281,1.0706289,Time OK,Free running,6600,8570,0,2019-10-06 20:23:43.000000000,
1570393946,2019-10-06 20:32:26.439,47.63873N 0.54906E 173m,Off,7,2.103281,1.0706289,Time OK,Free running,7700,8570,0,2019-10-06 20:23:43.000000000,
1570394006,2019-10-06 20:33:26.438,47.63873N 0.54906E 173m,Off,7,2.103281,1.0706289,Time OK,Free running,8700,8570,0,2019-10-06 20:23:43.000000000,
1570394066,2019-10-06 20:34:26.438,47.63873N 0.54906E 173m,Off,7,2.103281,1.0706289,Time OK,Free running,9800,8570,0,2019-10-06 20:23:43.000000000,
1570394126,2019-10-06 20:35:26.438,47.63873N 0.54906E 173m,Off,7,2.103281,1.0706289,Time OK,Free running,10800,8570,0,2019-10-06 20:23:43.000000000,
1570394186,2019-10-06 20:36:26.438,47.63873N 0.54906E 173m,Off,7,2.103281,1.0706289,Time OK,Free running,11900,8570,0,2019-10-06 20:23:43.000000000,
1570394246,2019-10-06 20:37:26.438,47.63873N 0.54906E 173m,Off,7,2.103281,1.0706289,Time OK,Free running,13300,8570,0,2019-10-06 20:23:43.000000000,
1570394306,2019-10-06 20:38:26.438,47.63873N 0.54906E 173m,Off,7,2.103281,1.0706289,Time OK,Free running,14600,8570,0,2019-10-06 20:23:43.000000000,
1570394366,2019-10-06 20:39:26.439,47.63873N 0.54906E 173m,Off,7,2.103281,1.0706289,Time OK,Free running,16000,8570,0,2019-10-06 20:23:43.000000000,
1570394426,2019-10-06 20:40:26.451,47.63873N 0.54906E 173m,Off,7,2.103281,1.0706289,Time OK,Free running,17400,8570,0,2019-10-06 20:23:43.000000000,
1570394486,2019-10-06 20:41:26.438,47.63873N 0.54906E 173m,Off,7,2.103281,1.0706289,Time OK,Free running,18700,8570,0,2019-10-06 20:23:43.000000000,
1570394546,2019-10-06 20:42:26.438,47.63873N 0.54906E 173m,Off,7,2.103281,1.0706289,Time OK,Free running,20100,8570,0,2019-10-06 20:23:43.000000000,
1570394606,2019-10-06 20:43:26.438,47.63873N 0.54906E 173m,Off,7,2.103281,1.0706289,Time OK,Free running,21800,8570,0,2019-10-06 20:23:43.000000000,
1570394666,2019-10-06 20:44:26.439,47.63873N 0.54906E 173m,Off,7,2.103281,1.0706289,Time OK,Free running,23400,8570,0,2019-10-06 20:23:43.000000000,
1570394726,2019-10-06 20:45:26.438,47.63873N 0.54906E 173m,Off,7,2.103281,1.0706289,Time OK,Free running,25100,8570,0,2019-10-06 20:23:43.000000000,
1570394786,2019-10-06 20:46:26.438,47.63873N 0.54906E 173m,Off,7,2.103281,1.0706289,Time OK,Free running,27100,8570,0,2019-10-06 20:23:43.000000000,
1570394846,2019-10-06 20:47:26.438,47.63873N 0.54906E 173m,Off,7,2.103281,1.0706289,Time OK,Free running,28900,8570,0,2019-10-06 20:23:43.000000000,
1570394906,2019-10-06 20:48:26.438,47.63873N 0.54906E 173m,Off,7,2.103281,1.0706289,Time OK,Free running,30400,8570,0,2019-10-06 20:23:43.000000000,
1570394966,2019-10-06 20:49:26.438,47.63873N 0.54906E 173m,Off,7,2.103281,1.0706289,Time OK,Free running,31900,8570,0,2019-10-06 20:23:43.000000000,
1570395026,2019-10-06 20:50:26.441,47.63873N 0.54906E 173m,Off,7,2.103281,1.0706289,Time OK,Free running,33500,8570,0,2019-10-06 20:23:43.000000000,
1570395086,2019-10-06 20:51:26.438,47.63873N 0.54906E 173m,Off,7,2.103281,1.0706289,Time OK,Free running,35500,8570,0,2019-10-06 20:23:43.000000000,
1570395146,2019-10-06 20:52:26.438,47.63873N 0.54906E 173m,Off,7,2.103281,1.0706289,Time OK,Free running,37600,8570,0,2019-10-06 20:23:43.000000000,
1570395206,2019-10-06 20:53:26.438,47.63873N 0.54906E 173m,Off,7,2.103281,1.0706289,Time OK,Free running,39500,8570,0,2019-10-06 20:23:43.000000000,
1570395266,2019-10-06 20:54:26.438,47.63873N 0.54906E 173m,Off,7,2.103281,1.0706289,Time OK,Free running,41400,8570,0,2019-10-06 20:23:43.000000000,
1570395326,2019-10-06 20:55:26.438,47.63873N 0.54906E 173m,Off,7,2.103281,1.0706289,Time OK,Free running,43600,8570,0,2019-10-06 20:23:43.000000000,
1570395386,2019-10-06 20:56:26.438,47.63873N 0.54906E 173m,Off,7,2.103281,1.0706289,Time OK,Free running,45900,8570,0,2019-10-06 20:23:43.000000000,
1570395446,2019-10-06 20:57:26.438,47.63873N 0.54906E 173m,Off,7,2.103281,1.0706289,Time OK,Free running,47900,8570,0,2019-10-06 20:23:43.000000000,
1570395506,2019-10-06 20:58:26.438,47.63873N 0.54906E 173m,Off,7,2.103281,1.0706289,Time OK,Free running,50200,8570,0,2019-10-06 20:23:43.000000000,
1570395566,2019-10-06 20:59:26.439,47.63873N 0.54906E 173m,Doing fixes,7,2.0323226,1.0699285,Time OK,Coarse lock,100,8861,-1666,2019-10-06 20:59:23.000000000,
