Time(longsecs),Time(UTC),Earth Location,GPS Receiver Status,GPS Satellites Used,GPS PDOP,GPS TDOP,Timing Status,Timing Phase Lock,Timing Uncertainty(ns),DAC Count,Timing Error(ns),GPS Last Update Time,
1570341626,2019-10-06 06:00:26.438,47.638666N 0.549032E 170m,Off,7,2.6230793,1.4220802,Time OK,Free running,30000,8768,0,2019-10-06 05:30:03.000000000,
1570341686,2019-10-06 06:01:26.439,47.638666N 0.549032E 170m,Off,7,2.6230793,1.4220802,Time OK,Free running,31200,8768,0,2019-10-06 05:30:03.000000000,
1570341746,2019-10-06 06:02:26.438,47.638666N 0.549032E 170m,Off,7,2.6230793,1.4220802,Time OK,Free running,32100,8768,0,2019-10-06 05:30:03.000000000,
1570341806,2019-10-06 06:03:26.438,47.638666N 0.549032E 170m,Off,7,2.6230793,1.4220802,Time OK,Free running,33200,8768,0,2019-10-06 05:30:03.000000000,
1570341866,2019-10-06 06:04:26.438,47.638666N 0.549032E 170m,Off,7,2.6230793,1.4220802,Time OK,Free running,34400,8768,0,2019-10-06 05:30:03.000000000,
1570341926,2019-10-06 06:05:26.441,47.638666N 0.549032E 170m,Off,7,2.6230793,1.4220802,Time OK,Free running,35200,8768,0,2019-10-06 05:30:03.000000000,
1570341986,2019-10-06 06:06:26.438,47.638666N 0.549032E 170m,Off,7,2.6230793,1.4220802,Time OK,Free running,36100,8768,0,2019-10-06 05:30:03.000000000,
1570342046,2019-10-06 06:07:26.473,47.638666N 0.549032E 170m,Off,7,2.6230793,1.4220802,Time OK,Free running,37200,8768,0,2019-10-06 05:30:03.000000000,
1570342106,2019-10-06 06:08:26.438,47.638666N 0.549032E 170m,Off,7,2.6230793,1.4220802,Time OK,Free running,38100,8768,0,2019-10-06 05:30:03.000000000,
1570342166,2019-10-06 06:09:26.441,47.638666N 0.549032E 170m,Off,7,2.6230793,1.4220802,Time OK,Free running,39000,8768,0,2019-10-06 05:30:03.000000000,
1570342226,2019-10-06 06:10:26.438,47.638666N 0.549032E 170m,Off,7,2.6230793,1.4220802,Time OK,Free running,40000,8768,0,2019-10-06 05:30:03.000000000,
1570342286,2019-10-06 06:11:26.438,47.638666N 0.549032E 170m,Off,7,2.6230793,1.4220802,Time OK,Free running,40800,8768,0,2019-10-06 05:30:03.000000000,
1570342346,2019-10-06 06:12:26.438,47.638666N 0.549032E 170m,Off,7,2.6230793,1.4220802,Time OK,Free running,41600,8768,0,2019-10-06 05:30:03.000000000,
1570342406,2019-10-06 06:13:26.468,47.638666N 0.549032E 170m,Off,7,2.6230793,1.4220802,Time OK,Free running,42600,8768,0,2019-10-06 05:30:03.000000000,
1570342466,2019-10-06 06:14:26.438,47.638666N 0.549032E 170m,Off,7,2.6230793,1.4220802,Time OK,Free running,43600,8768,0,2019-10-06 05:30:03.000000000,
1570342526,2019-10-06 06:15:26.438,47.638666N 0.549032E 170m,Off,7,2.6230793,1.4220802,Time OK,Free running,44400,8768,0,2019-10-06 05:30:03.000000000,
1570342586,2019-10-06 06:16:26.439,47.638666N 0.549032E 170m,Off,7,2.6230793,1.4220802,Time OK,Free running,45600,8768,0,2019-10-06 05:30:03.000000000,
1570342646,2019-10-06 06:17:26.438,47.638666N 0.549032E 170m,Off,7,2.6230793,1.4220802,Time OK,Free running,46700,8768,0,2019-10-06 05:30:03.000000000,
1570342706,2019-10-06 06:18:26.438,47.638666N 0.549032E 170m,Off,7,2.6230793,1.4220802,Time OK,Free running,47600,8768,0,2019-10-06 05:30:03.000000000,
1570342766,2019-10-06 06:19:26.438,47.638666N 0.549032E 170m,Off,7,2.6230793,1.4220802,Time OK,Free running,48700,8768,0,2019-10-06 05:30:03.000000000,
1570342826,2019-10-06 06:20:26.438,47.638666N 0.549032E 170m,Off,7,2.6230793,1.4220802,Time OK,Free running,49700,8768,0,2019-10-06 05:30:03.000000000,
1570342886,2019-10-06 06:21:26.439,47.638666N 0.549032E 170m,Off,7,2.6230793,1.4220802,Time OK,Free running,50500,8768,0,2019-10-06 05:30:03.000000000,
1570342946,2019-10-06 06:22:26.439,47.638666N 0.549032E 170m,Doing fixes,6,3.2060442,1.7835417,Time OK,Coarse lock,100,11005,8958,2019-10-06 06:22:22.000000000,
1570343006,2019-10-06 06:23:26.439,47.638666N 0.549032E 170m,Doing fixes,8,1.9419044,1.018926,Time OK,Coarse lock,100,8772,-208,2019-10-06 06:23:22.000000000,
1570343066,2019-10-06 06:24:26.438,47.638666N 0.549032E 170m,Off,8,1.9460429,1.0228316,Time OK,Free running,100,8778,0,2019-10-06 06:24:22.000000000,
1570343126,2019-10-06 06:25:26.439,47.638666N 0.549032E 170m,Off,8,1.9460429,1.0228316,Time OK,Free running,900,8778,0,2019-10-06 06:24:22.000000000,
1570343186,2019-10-06 06:26:26.438,47.638666N 0.549032E 170m,Off,8,1.9460429,1.0228316,Time OK,Free running,1700,8778,0,2019-10-06 06:24:22.000000000,
1570343246,2019-10-06 06:27:26.443,47.638666N 0.549032E 170m,Off,8,1.9460429,1.0228316,Time OK,Free running,2800,8778,0,2019-10-06 06:24:22.000000000,
1570343306,2019-10-06 06:28:26.438,47.638666N 0.549032E 170m,Off,8,1.9460429,1.0228316,Time OK,Free running,3600,8778,0,2019-10-06 06:24:22.000000000,
1570343366,2019-10-06 06:29:26.472,47.638666N 0.549032E 170m,Off,8,1.9460429,1.0228316,Time OK,Free running,4400,8778,0,2019-10-06 06:24:22.000000000,
1570343426,2019-10-06 06:30:26.439,47.638666N 0.549032E 170m,Off,8,1.9460429,1.0228316,Time OK,Free running,5400,8778,0,2019-10-06 06:24:22.000000000,
1570343486,2019-10-06 06:31:26.438,47.638666N 0.549032E 170m,Off,8,1.9460429,1.0228316,Time OK,Free running,6400,8778,0,2019-10-06 06:24:22.000000000,
1570343546,2019-10-06 06:32:26.438,47.638666N 0.549032E 170m,Off,8,1.9460429,1.0228316,Time OK,Free running,7300,8778,0,2019-10-06 06:24:22.000000000,
1570343606,2019-10-06 06:33:26.438,47.638666N 0.549032E 170m,Off,8,1.9460429,1.0228316,Time OK,Free running,8300,8778,0,2019-10-06 06:24:22.000000000,
1570343666,2019-10-06 06:34:26.438,47.638666N 0.549032E 170m,Off,8,1.9460429,1.0228316,Time OK,Free running,9200,8778,0,2019-10-06 06:24:22.000000000,
1570343726,2019-10-06 06:35:26.441,47.638666N 0.549032E 170m,Off,8,1.9460429,1.0228316,Time OK,Free running,10000,8778,0,2019-10-06 06:24:22.000000000,
1570343786,2019-10-06 06:36:26.438,47.638666N 0.549032E 170m,Off,8,1.9460429,1.0228316,Time OK,Free running,10900,8778,0,2019-10-06 06:24:22.000000000,
1570343846,2019-10-06 06:37:26.468,47.638666N 0.549032E 170m,Off,8,1.9460429,1.0228316,Time OK,Free running,11800,8778,0,2019-10-06 06:24:22.000000000,
1570343906,2019-10-06 06:38:26.438,47.638666N 0.549032E 170m,Off,8,1.9460429,1.0228316,Time OK,Free running,12700,8778,0,2019-10-06 06:24:22.000000000,
1570343966,2019-10-06 06:39:26.438,47.638666N 0.549032E 170m,Off,8,1.9460429,1.0228316,Time OK,Free running,13700,8778,0,2019-10-06 06:24:22.000000000,
1570344026,2019-10-06 06:40:26.439,47.638666N 0.549032E 170m,Off,8,1.9460429,1.0228316,Time OK,Free running,14700,8778,0,2019-10-06 06:24:22.000000000,
1570344086,2019-10-06 06:41:26.438,47.638666N 0.549032E 170m,Off,8,1.9460429,1.0228316,Time OK,Free running,15700,8778,0,2019-10-06 06:24:22.000000000,
1570344146,2019-10-06 06:42:26.438,47.638666N 0.549032E 170m,Off,8,1.9460429,1.0228316,Time OK,Free running,16600,8778,0,2019-10-06 06:24:22.000000000,
1570344206,2019-10-06 06:43:26.438,47.638666N 0.549032E 170m,Off,8,1.9460429,1.0228316,Time OK,Free running,17400,8778,0,2019-10-06 06:24:22.000000000,
1570344266,2019-10-06 06:44:26.438,47.638666N 0.549032E 170m,Off,8,1.9460429,1.0228316,Time OK,Free running,18200,8778,0,2019-10-06 06:24:22.000000000,
1570344326,2019-10-06 06:45:26.439,47.638666N 0.549032E 170m,Off,8,1.9460429,1.0228316,Time OK,Free running,19100,8778,0,2019-10-06 06:24:22.000000000,
1570344386,2019-10-06 06:46:26.438,47.638666N 0.549032E 170m,Off,8,1.9460429,1.0228316,Time OK,Free running,19900,8778,0,2019-10-06 06:24:22.000000000,
1570344446,2019-10-06 06:47:26.439,47.638666N 0.549032E 170m,Off,8,1.9460429,1.0228316,Time OK,Free running,20700,8778,0,2019-10-06 06:24:22.000000000,
1570344506,2019-10-06 06:48:26.438,47.638666N 0.549032E 170m,Off,8,1.9460429,1.0228316,Time OK,Free running,21600,8778,0,2019-10-06 06:24:22.000000000,
1570344566,2019-10-06 06:49:26.439,47.638666N 0.549032E 170m,Off,8,1.9460429,1.0228316,Time OK,Free running,22400,8778,0,2019-10-06 06:24:22.000000000,
1570344626,2019-10-06 06:50:26.438,47.638666N 0.549032E 170m,Off,8,1.9460429,1.0228316,Time OK,Free running,23200,8778,0,2019-10-06 06:24:22.000000000,
1570344686,2019-10-06 06:51:26.438,47.638666N 0.549032E 170m,Off,8,1.9460429,1.0228316,Time OK,Free running,24100,8778,0,2019-10-06 06:24:22.000000000,
1570344746,2019-10-06 06:52:26.438,47.638666N 0.549032E 170m,Off,8,1.9460429,1.0228316,Time OK,Free running,25100,8778,0,2019-10-06 06:24:22.000000000,
1570344806,2019-10-06 06:53:26.438,47.638666N 0.549032E 170m,Off,8,1.9460429,1.0228316,Time OK,Free running,25900,8778,0,2019-10-06 06:24:22.000000000,
1570344866,2019-10-06 06:54:26.439,47.638666N 0.549032E 170m,Off,8,1.9460429,1.0228316,Time OK,Free running,26900,8778,0,2019-10-06 06:24:22.000000000,
1570344926,2019-10-06 06:55:26.438,47.638666N 0.549032E 170m,Off,8,1.9460429,1.0228316,Time OK,Free running,27700,8778,0,2019-10-06 06:24:22.000000000,
1570344986,2019-10-06 06:56:26.438,47.638666N 0.549032E 170m,Off,8,1.9460429,1.0228316,Time OK,Free running,28600,8778,0,2019-10-06 06:24:22.000000000,
1570345046,2019-10-06 06:57:26.450,47.638666N 0.549032E 170m,Off,8,1.9460429,1.0228316,Time OK,Free running,29500,8778,0,2019-10-06 06:24:22.000000000,
1570345106,2019-10-06 06:58:26.438,47.638666N 0.549032E 170m,Off,8,1.9460429,1.0228316,Time OK,Free running,30300,8778,0,2019-10-06 06:24:22.000000000,
1570345166,2019-10-06 06:59:26.438,47.638666N 0.549032E 170m,Off,8,1.9460429,1.0228316,Time OK,Free running,31100,8778,0,2019-10-06 06:24:22.000000000,
