Time(longsecs),Time(UTC),Earth Location,GPS Receiver Status,GPS Satellites Used,GPS PDOP,GPS TDOP,Timing Status,Timing Phase Lock,Timing Uncertainty(ns),DAC Count,Timing Error(ns),GPS Last Update Time,
1570539647,2019-10-08 13:00:47.257,47.636258N 0.583863E 187m,Off,9,2.280689,1.4486103,Time OK,Free running,15000,9226,0,2019-10-08 12:45:24.000000000,
1570539707,2019-10-08 13:01:47.257,47.636258N 0.583863E 187m,Off,9,2.280689,1.4486103,Time OK,Free running,15900,9226,0,2019-10-08 12:45:24.000000000,
1570539767,2019-10-08 13:02:47.257,47.636258N 0.583863E 187m,Off,9,2.280689,1.4486103,Time OK,Free running,16700,9226,0,2019-10-08 12:45:24.000000000,
1570539827,2019-10-08 13:03:47.257,47.636258N 0.583863E 187m,Off,9,2.280689,1.4486103,Time OK,Free running,17800,9226,0,2019-10-08 12:45:24.000000000,
1570539887,2019-10-08 13:04:47.257,47.636258N 0.583863E 187m,Off,9,2.280689,1.4486103,Time OK,Free running,18900,9226,0,2019-10-08 12:45:24.000000000,
1570539947,2019-10-08 13:05:47.258,47.636258N 0.583863E 187m,Off,9,2.280689,1.4486103,Time OK,Free running,19800,9226,0,2019-10-08 12:45:24.000000000,
1570540007,2019-10-08 13:06:47.260,47.636258N 0.583863E 187m,Off,9,2.280689,1.4486103,Time OK,Free running,20800,9226,0,2019-10-08 12:45:24.000000000,
1570540067,2019-10-08 13:07:47.260,47.636258N 0.583863E 187m,Off,9,2.280689,1.4486103,Time OK,Free running,21900,9226,0,2019-10-08 12:45:24.000000000,
1570540127,2019-10-08 13:08:47.257,47.636258N 0.583863E 187m,Off,9,2.280689,1.4486103,Time OK,Free running,23000,9226,0,2019-10-08 12:45:24.000000000,
1570540187,2019-10-08 13:09:47.257,47.636258N 0.583863E 187m,Off,9,2.280689,1.4486103,Time OK,Free running,24000,9226,0,2019-10-08 12:45:24.000000000,
1570540247,2019-10-08 13:10:47.257,47.636258N 0.583863E 187m,Off,9,2.280689,1.4486103,Time OK,Free running,25000,9226,0,2019-10-08 12:45:24.000000000,
1570540307,2019-10-08 13:11:47.257,47.636258N 0.583863E 187m,Off,9,2.280689,1.4486103,Time OK,Free running,26000,9226,0,2019-10-08 12:45:24.000000000,
1570540367,2019-10-08 13:12:47.258,47.636258N 0.583863E 187m,Off,9,2.280689,1.4486103,Time OK,Free running,26800,9226,0,2019-10-08 12:45:24.000000000,
1570540427,2019-10-08 13:13:47.258,47.636258N 0.583863E 187m,Off,9,2.280689,1.4486103,Time OK,Free running,27900,9226,0,2019-10-08 12:45:24.000000000,
1570540487,2019-10-08 13:14:47.257,47.636258N 0.583863E 187m,Off,9,2.280689,1.4486103,Time OK,Free running,29000,9226,0,2019-10-08 12:45:24.000000000,
1570540547,2019-10-08 13:15:47.257,47.636258N 0.583863E 187m,Off,9,2.280689,1.4486103,Time OK,Free running,30000,9226,0,2019-10-08 12:45:24.000000000,
1570540607,2019-10-08 13:16:47.257,47.636258N 0.583863E 187m,Off,9,2.280689,1.4486103,Time OK,Free running,31200,9226,0,2019-10-08 12:45:24.000000000,
1570540667,2019-10-08 13:17:47.260,47.636258N 0.583863E 187m,Off,9,2.280689,1.4486103,Time OK,Free running,32200,9226,0,2019-10-08 12:45:24.000000000,
1570540727,2019-10-08 13:18:47.257,47.636258N 0.583863E 187m,Off,9,2.280689,1.4486103,Time OK,Free running,33000,9226,0,2019-10-08 12:45:24.000000000,
1570540787,2019-10-08 13:19:47.258,47.636258N 0.583863E 187m,Off,9,2.280689,1.4486103,Time OK,Free running,34200,9226,0,2019-10-08 12:45:24.000000000,
1570540847,2019-10-08 13:20:47.257,47.636258N 0.583863E 187m,Off,9,2.280689,1.4486103,Time OK,Free running,35400,9226,0,2019-10-08 12:45:24.000000000,
1570540907,2019-10-08 13:21:47.260,47.636258N 0.583863E 187m,Off,9,2.280689,1.4486103,Time OK,Free running,36200,9226,0,2019-10-08 12:45:24.000000000,
1570540967,2019-10-08 13:22:47.257,47.636258N 0.583863E 187m,Off,9,2.280689,1.4486103,Time OK,Free running,37100,9226,0,2019-10-08 12:45:24.000000000,
1570541027,2019-10-08 13:23:47.257,47.636258N 0.583863E 187m,Off,9,2.280689,1.4486103,Time OK,Free running,38100,9226,0,2019-10-08 12:45:24.000000000,
1570541087,2019-10-08 13:24:47.260,47.636258N 0.583863E 187m,Off,9,2.280689,1.4486103,Time OK,Free running,39200,9226,0,2019-10-08 12:45:24.000000000,
1570541147,2019-10-08 13:25:47.257,47.636258N 0.583863E 187m,Off,9,2.280689,1.4486103,Time OK,Free running,40400,9226,0,2019-10-08 12:45:24.000000000,
1570541207,2019-10-08 13:26:47.257,47.636258N 0.583863E 187m,Off,9,2.280689,1.4486103,Time OK,Free running,41600,9226,0,2019-10-08 12:45:24.000000000,
1570541267,2019-10-08 13:27:47.257,47.636258N 0.583863E 187m,Off,9,2.280689,1.4486103,Time OK,Free running,42800,9226,0,2019-10-08 12:45:24.000000000,
1570541327,2019-10-08 13:28:47.259,47.636258N 0.583863E 187m,Off,9,2.280689,1.4486103,Time OK,Free running,44200,9226,0,2019-10-08 12:45:24.000000000,
1570541387,2019-10-08 13:29:47.257,47.636258N 0.583863E 187m,Off,9,2.280689,1.4486103,Time OK,Free running,45500,9226,0,2019-10-08 12:45:24.000000000,
1570541447,2019-10-08 13:30:47.257,47.636258N 0.583863E 187m,Off,9,2.280689,1.4486103,Time OK,Free running,46500,9226,0,2019-10-08 12:45:24.000000000,
1570541507,2019-10-08 13:31:47.257,47.636258N 0.583863E 187m,Off,9,2.280689,1.4486103,Time OK,Free running,47700,9226,0,2019-10-08 12:45:24.000000000,
1570541567,2019-10-08 13:32:47.257,47.636258N 0.583863E 187m,Off,9,2.280689,1.4486103,Time OK,Free running,49100,9226,0,2019-10-08 12:45:24.000000000,
1570541627,2019-10-08 13:33:47.257,47.636258N 0.583863E 187m,Off,9,2.280689,1.4486103,Time OK,Free running,50400,9226,0,2019-10-08 12:45:24.000000000,
1570541687,2019-10-08 13:34:47.258,47.636258N 0.583863E 187m,Doing fixes,7,2.825522,1.6493424,Time OK,Free running,52000,9226,0,2019-10-08 13:34:44.000000000,
1570541747,2019-10-08 13:35:47.257,47.636258N 0.583863E 187m,Off,7,2.8332956,1.6465917,Time OK,Free running,200,9228,0,2019-10-08 13:35:34.000000000,
1570541807,2019-10-08 13:36:47.257,47.636258N 0.583863E 187m,Off,7,2.8332956,1.6465917,Time OK,Free running,1000,9228,0,2019-10-08 13:35:34.000000000,
1570541867,2019-10-08 13:37:47.290,47.636258N 0.583863E 187m,Off,7,2.8332956,1.6465917,Time OK,Free running,2000,9228,0,2019-10-08 13:35:34.000000000,
1570541927,2019-10-08 13:38:47.258,47.636258N 0.583863E 187m,Off,7,2.8332956,1.6465917,Time OK,Free running,3000,9228,0,2019-10-08 13:35:34.000000000,
1570541987,2019-10-08 13:39:47.257,47.636258N 0.583863E 187m,Off,7,2.8332956,1.6465917,Time OK,Free running,4200,9228,0,2019-10-08 13:35:34.000000000,
1570542047,2019-10-08 13:40:47.257,47.636258N 0.583863E 187m,Off,7,2.8332956,1.6465917,Time OK,Free running,5200,9228,0,2019-10-08 13:35:34.000000000,
1570542107,2019-10-08 13:41:47.258,47.636258N 0.583863E 187m,Off,7,2.8332956,1.6465917,Time OK,Free running,6000,9228,0,2019-10-08 13:35:34.000000000,
1570542167,2019-10-08 13:42:47.259,47.636258N 0.583863E 187m,Off,7,2.8332956,1.6465917,Time OK,Free running,7100,9228,0,2019-10-08 13:35:34.000000000,
1570542227,2019-10-08 13:43:47.260,47.636258N 0.583863E 187m,Off,7,2.8332956,1.6465917,Time OK,Free running,8300,9228,0,2019-10-08 13:35:34.000000000,
1570542287,2019-10-08 13:44:47.257,47.636258N 0.583863E 187m,Off,7,2.8332956,1.6465917,Time OK,Free running,9200,9228,0,2019-10-08 13:35:34.000000000,
1570542347,2019-10-08 13:45:47.257,47.636258N 0.583863E 187m,Off,7,2.8332956,1.6465917,Time OK,Free running,10300,9228,0,2019-10-08 13:35:34.000000000,
1570542407,2019-10-08 13:46:47.257,47.636258N 0.583863E 187m,Off,7,2.8332956,1.6465917,Time OK,Free running,11700,9228,0,2019-10-08 13:35:34.000000000,
1570542467,2019-10-08 13:47:47.257,47.636258N 0.583863E 187m,Off,7,2.8332956,1.6465917,Time OK,Free running,13000,9228,0,2019-10-08 13:35:34.000000000,
1570542527,2019-10-08 13:48:47.257,47.636258N 0.583863E 187m,Off,7,2.8332956,1.6465917,Time OK,Free running,14000,9228,0,2019-10-08 13:35:34.000000000,
1570542587,2019-10-08 13:49:47.257,47.636258N 0.583863E 187m,Off,7,2.8332956,1.6465917,Time OK,Free running,15100,9228,0,2019-10-08 13:35:34.000000000,
1570542647,2019-10-08 13:50:47.260,47.636258N 0.583863E 187m,Off,7,2.8332956,1.6465917,Time OK,Free running,16400,9228,0,2019-10-08 13:35:34.000000000,
1570542707,2019-10-08 13:51:47.257,47.636258N 0.583863E 187m,Off,7,2.8332956,1.6465917,Time OK,Free running,17400,9228,0,2019-10-08 13:35:34.000000000,
1570542767,2019-10-08 13:52:47.257,47.636258N 0.583863E 187m,Off,7,2.8332956,1.6465917,Time OK,Free running,18600,9228,0,2019-10-08 13:35:34.000000000,
1570542827,2019-10-08 13:53:47.257,47.636258N 0.583863E 187m,Off,7,2.8332956,1.6465917,Time OK,Free running,20000,9228,0,2019-10-08 13:35:34.000000000,
1570542887,2019-10-08 13:54:47.257,47.636258N 0.583863E 187m,Off,7,2.8332956,1.6465917,Time OK,Free running,21100,9228,0,2019-10-08 13:35:34.000000000,
1570542947,2019-10-08 13:55:47.257,47.636258N 0.583863E 187m,Off,7,2.8332956,1.6465917,Time OK,Free running,22400,9228,0,2019-10-08 13:35:34.000000000,
1570543007,2019-10-08 13:56:47.257,47.636258N 0.583863E 187m,Off,7,2.8332956,1.6465917,Time OK,Free running,23600,9228,0,2019-10-08 13:35:34.000000000,
1570543067,2019-10-08 13:57:47.257,47.636258N 0.583863E 187m,Off,7,2.8332956,1.6465917,Time OK,Free running,24600,9228,0,2019-10-08 13:35:34.000000000,
1570543127,2019-10-08 13:58:47.257,47.636258N 0.583863E 187m,Off,7,2.8332956,1.6465917,Time OK,Free running,25800,9228,0,2019-10-08 13:35:34.000000000,
1570543187,2019-10-08 13:59:47.257,47.636258N 0.583863E 187m,Off,7,2.8332956,1.6465917,Time OK,Free running,26900,9228,0,2019-10-08 13:35:34.000000000,
