Time(longsecs),Time(UTC),Earth Location,GPS Receiver Status,GPS Satellites Used,GPS PDOP,GPS TDOP,Timing Status,Timing Phase Lock,Timing Uncertainty(ns),DAC Count,Timing Error(ns),GPS Last Update Time,
1570496447,2019-10-08 01:00:47.257,47.63627N 0.583826E 177m,Off,7,2.9764915,1.8882096,Time OK,Free running,17200,9164,0,2019-10-08 00:42:14.000000000,
1570496507,2019-10-08 01:01:47.257,47.63627N 0.583826E 177m,Off,7,2.9764915,1.8882096,Time OK,Free running,18100,9164,0,2019-10-08 00:42:14.000000000,
1570496567,2019-10-08 01:02:47.257,47.63627N 0.583826E 177m,Off,7,2.9764915,1.8882096,Time OK,Free running,19000,9164,0,2019-10-08 00:42:14.000000000,
1570496627,2019-10-08 01:03:47.257,47.63627N 0.583826E 177m,Off,7,2.9764915,1.8882096,Time OK,Free running,20000,9164,0,2019-10-08 00:42:14.000000000,
1570496687,2019-10-08 01:04:47.257,47.63627N 0.583826E 177m,Off,7,2.9764915,1.8882096,Time OK,Free running,20800,9164,0,2019-10-08 00:42:14.000000000,
1570496747,2019-10-08 01:05:47.257,47.63627N 0.583826E 177m,Off,7,2.9764915,1.8882096,Time OK,Free running,21700,9164,0,2019-10-08 00:42:14.000000000,
1570496807,2019-10-08 01:06:47.257,47.63627N 0.583826E 177m,Off,7,2.9764915,1.8882096,Time OK,Free running,22800,9164,0,2019-10-08 00:42:14.000000000,
1570496867,2019-10-08 01:07:47.257,47.63627N 0.583826E 177m,Off,7,2.9764915,1.8882096,Time OK,Free running,23900,9164,0,2019-10-08 00:42:14.000000000,
1570496927,2019-10-08 01:08:47.257,47.63627N 0.583826E 177m,Off,7,2.9764915,1.8882096,Time OK,Free running,24900,9164,0,2019-10-08 00:42:14.000000000,
1570496987,2019-10-08 01:09:47.257,47.63627N 0.583826E 177m,Off,7,2.9764915,1.8882096,Time OK,Free running,25900,9164,0,2019-10-08 00:42:14.000000000,
1570497047,2019-10-08 01:10:47.257,47.63627N 0.583826E 177m,Off,7,2.9764915,1.8882096,Time OK,Free running,26700,9164,0,2019-10-08 00:42:14.000000000,
1570497107,2019-10-08 01:11:47.257,47.63627N 0.583826E 177m,Off,7,2.9764915,1.8882096,Time OK,Free running,27500,9164,0,2019-10-08 00:42:14.000000000,
1570497167,2019-10-08 01:12:47.257,47.63627N 0.583826E 177m,Off,7,2.9764915,1.8882096,Time OK,Free running,28500,9164,0,2019-10-08 00:42:14.000000000,
1570497227,2019-10-08 01:13:47.257,47.63627N 0.583826E 177m,Off,7,2.9764915,1.8882096,Time OK,Free running,29300,9164,0,2019-10-08 00:42:14.000000000,
1570497287,2019-10-08 01:14:47.257,47.63627N 0.583826E 177m,Off,7,2.9764915,1.8882096,Time OK,Free running,30200,9164,0,2019-10-08 00:42:14.000000000,
1570497347,2019-10-08 01:15:47.257,47.63627N 0.583826E 177m,Off,7,2.9764915,1.8882096,Time OK,Free running,31300,9164,0,2019-10-08 00:42:14.000000000,
1570497407,2019-10-08 01:16:47.276,47.63627N 0.583826E 177m,Off,7,2.9764915,1.8882096,Time OK,Free running,32300,9164,0,2019-10-08 00:42:14.000000000,
1570497467,2019-10-08 01:17:47.262,47.63627N 0.583826E 177m,Off,7,2.9764915,1.8882096,Time OK,Free running,33300,9164,0,2019-10-08 00:42:14.000000000,
1570497527,2019-10-08 01:18:47.257,47.63627N 0.583826E 177m,Off,7,2.9764915,1.8882096,Time OK,Free running,34300,9164,0,2019-10-08 00:42:14.000000000,
1570497587,2019-10-08 01:19:47.257,47.63627N 0.583826E 177m,Off,7,2.9764915,1.8882096,Time OK,Free running,35400,9164,0,2019-10-08 00:42:14.000000000,
1570497647,2019-10-08 01:20:47.258,47.63627N 0.583826E 177m,Off,7,2.9764915,1.8882096,Time OK,Free running,36200,9164,0,2019-10-08 00:42:14.000000000,
1570497707,2019-10-08 01:21:47.260,47.63627N 0.583826E 177m,Off,7,2.9764915,1.8882096,Time OK,Free running,37100,9164,0,2019-10-08 00:42:14.000000000,
1570497767,2019-10-08 01:22:47.257,47.63627N 0.583826E 177m,Off,7,2.9764915,1.8882096,Time OK,Free running,37900,9164,0,2019-10-08 00:42:14.000000000,
1570497827,2019-10-08 01:23:47.257,47.63627N 0.583826E 177m,Off,7,2.9764915,1.8882096,Time OK,Free running,38800,9164,0,2019-10-08 00:42:14.000000000,
1570497887,2019-10-08 01:24:47.257,47.63627N 0.583826E 177m,Off,7,2.9764915,1.8882096,Time OK,Free running,39700,9164,0,2019-10-08 00:42:14.000000000,
1570497947,2019-10-08 01:25:47.257,47.63627N 0.583826E 177m,Off,7,2.9764915,1.8882096,Time OK,Free running,40800,9164,0,2019-10-08 00:42:14.000000000,
1570498007,2019-10-08 01:26:47.257,47.63627N 0.583826E 177m,Off,7,2.9764915,1.8882096,Time OK,Free running,42100,9164,0,2019-10-08 00:42:14.000000000,
1570498067,2019-10-08 01:27:47.257,47.63627N 0.583826E 177m,Off,7,2.9764915,1.8882096,Time OK,Free running,43200,9164,0,2019-10-08 00:42:14.000000000,
1570498127,2019-10-08 01:28:47.257,47.63627N 0.583826E 177m,Off,7,2.9764915,1.8882096,Time OK,Free running,44100,9164,0,2019-10-08 00:42:14.000000000,
1570498187,2019-10-08 01:29:47.257,47.63627N 0.583826E 177m,Off,7,2.9764915,1.8882096,Time OK,Free running,45200,9164,0,2019-10-08 00:42:14.000000000,
1570498247,2019-10-08 01:30:47.257,47.63627N 0.583826E 177m,Off,7,2.9764915,1.8882096,Time OK,Free running,46200,9164,0,2019-10-08 00:42:14.000000000,
1570498307,2019-10-08 01:31:47.257,47.63627N 0.583826E 177m,Off,7,2.9764915,1.8882096,Time OK,Free running,47200,9164,0,2019-10-08 00:42:14.000000000,
1570498367,2019-10-08 01:32:47.257,47.63627N 0.583826E 177m,Off,7,2.9764915,1.8882096,Time OK,Free running,48000,9164,0,2019-10-08 00:42:14.000000000,
1570498427,2019-10-08 01:33:47.257,47.63627N 0.583826E 177m,Off,7,2.9764915,1.8882096,Time OK,Free running,48900,9164,0,2019-10-08 00:42:14.000000000,
1570498487,2019-10-08 01:34:47.257,47.63627N 0.583826E 177m,Off,7,2.9764915,1.8882096,Time OK,Free running,49700,9164,0,2019-10-08 00:42:14.000000000,
1570498547,2019-10-08 01:35:47.260,47.63627N 0.583826E 177m,Off,7,2.9764915,1.8882096,Time OK,Free running,50600,9164,0,2019-10-08 00:42:14.000000000,
1570498607,2019-10-08 01:36:47.258,47.63627N 0.583826E 177m,Doing fixes,7,2.3972385,1.2716773,Time OK,Coarse lock,100,8697,15937,2019-10-08 01:36:44.000000000,
1570498667,2019-10-08 01:37:47.257,47.63627N 0.583826E 177m,Off,5,3.8592262,1.468754,Time OK,Free running,300,9164,0,2019-10-08 01:37:24.000000000,
1570498727,2019-10-08 01:38:47.257,47.63627N 0.583826E 177m,Off,5,3.8592262,1.468754,Time OK,Free running,1300,9164,0,2019-10-08 01:37:24.000000000,
1570498787,2019-10-08 01:39:47.257,47.63627N 0.583826E 177m,Off,5,3.8592262,1.468754,Time OK,Free running,2300,9164,0,2019-10-08 01:37:24.000000000,
1570498847,2019-10-08 01:40:47.257,47.63627N 0.583826E 177m,Off,5,3.8592262,1.468754,Time OK,Free running,3100,9164,0,2019-10-08 01:37:24.000000000,
1570498907,2019-10-08 01:41:47.257,47.63627N 0.583826E 177m,Off,5,3.8592262,1.468754,Time OK,Free running,4100,9164,0,2019-10-08 01:37:24.000000000,
1570498967,2019-10-08 01:42:47.257,47.63627N 0.583826E 177m,Off,5,3.8592262,1.468754,Time OK,Free running,4900,9164,0,2019-10-08 01:37:24.000000000,
1570499027,2019-10-08 01:43:47.296,47.63627N 0.583826E 177m,Off,5,3.8592262,1.468754,Time OK,Free running,5700,9164,0,2019-10-08 01:37:24.000000000,
1570499087,2019-10-08 01:44:47.257,47.63627N 0.583826E 177m,Off,5,3.8592262,1.468754,Time OK,Free running,6700,9164,0,2019-10-08 01:37:24.000000000,
1570499147,2019-10-08 01:45:47.257,47.63627N 0.583826E 177m,Off,5,3.8592262,1.468754,Time OK,Free running,7600,9164,0,2019-10-08 01:37:24.000000000,
1570499207,2019-10-08 01:46:47.257,47.63627N 0.583826E 177m,Off,5,3.8592262,1.468754,Time OK,Free running,8400,9164,0,2019-10-08 01:37:24.000000000,
1570499267,2019-10-08 01:47:47.262,47.63627N 0.583826E 177m,Off,5,3.8592262,1.468754,Time OK,Free running,9400,9164,0,2019-10-08 01:37:24.000000000,
1570499327,2019-10-08 01:48:47.269,47.63627N 0.583826E 177m,Off,5,3.8592262,1.468754,Time OK,Free running,10400,9164,0,2019-10-08 01:37:24.000000000,
1570499387,2019-10-08 01:49:47.257,47.63627N 0.583826E 177m,Off,5,3.8592262,1.468754,Time OK,Free running,11200,9164,0,2019-10-08 01:37:24.000000000,
1570499447,2019-10-08 01:50:47.257,47.63627N 0.583826E 177m,Off,5,3.8592262,1.468754,Time OK,Free running,12100,9164,0,2019-10-08 01:37:24.000000000,
1570499507,2019-10-08 01:51:47.260,47.63627N 0.583826E 177m,Off,5,3.8592262,1.468754,Time OK,Free running,12900,9164,0,2019-10-08 01:37:24.000000000,
1570499567,2019-10-08 01:52:47.257,47.63627N 0.583826E 177m,Off,5,3.8592262,1.468754,Time OK,Free running,13700,9164,0,2019-10-08 01:37:24.000000000,
1570499627,2019-10-08 01:53:47.257,47.63627N 0.583826E 177m,Off,5,3.8592262,1.468754,Time OK,Free running,14800,9164,0,2019-10-08 01:37:24.000000000,
1570499687,2019-10-08 01:54:47.258,47.63627N 0.583826E 177m,Off,5,3.8592262,1.468754,Time OK,Free running,15900,9164,0,2019-10-08 01:37:24.000000000,
1570499747,2019-10-08 01:55:47.257,47.63627N 0.583826E 177m,Off,5,3.8592262,1.468754,Time OK,Free running,17000,9164,0,2019-10-08 01:37:24.000000000,
1570499807,2019-10-08 01:56:47.282,47.63627N 0.583826E 177m,Off,5,3.8592262,1.468754,Time OK,Free running,18200,9164,0,2019-10-08 01:37:24.000000000,
1570499867,2019-10-08 01:57:47.275,47.63627N 0.583826E 177m,Off,5,3.8592262,1.468754,Time OK,Free running,19300,9164,0,2019-10-08 01:37:24.000000000,
1570499927,2019-10-08 01:58:47.257,47.63627N 0.583826E 177m,Off,5,3.8592262,1.468754,Time OK,Free running,20200,9164,0,2019-10-08 01:37:24.000000000,
1570499987,2019-10-08 01:59:47.257,47.63627N 0.583826E 177m,Off,5,3.8592262,1.468754,Time OK,Free running,21100,9164,0,2019-10-08 01:37:24.000000000,
