Time(longsecs),Time(UTC),Supply Voltage(mV),Temperature(&deg;C),NMX Bus Current(mA),Sensor Current(mA),Serial Port Current(mA),Controller Current(mA),Digitizer Current(mA),
1571792418,2019-10-23 01:00:18.806,16442,1.6557312E1,0,7,0,36,36,
1571792478,2019-10-23 01:01:18.806,16442,1.659726E1,0,5,0,39,39,
1571792538,2019-10-23 01:02:18.806,16442,1.6460083E1,0,5,0,38,38,
1571792598,2019-10-23 01:03:18.806,16442,1.6575653E1,0,6,0,39,36,
1571792658,2019-10-23 01:04:18.806,16427,1.6388794E1,0,9,0,33,38,
1571792718,2019-10-23 01:05:18.806,16414,1.6432007E1,0,6,0,39,37,
1571792778,2019-10-23 01:06:18.807,16442,1.6716095E1,0,4,0,33,36,
1571792838,2019-10-23 01:07:18.807,16442,1.649356E1,0,6,0,37,38,
1571792898,2019-10-23 01:08:18.806,16442,1.641687E1,0,8,0,33,36,
1571792958,2019-10-23 01:09:18.806,16387,1.6528137E1,0,13,0,34,37,
1571793018,2019-10-23 01:10:18.806,16427,1.67258E1,0,8,0,40,39,
1571793078,2019-10-23 01:11:18.806,16442,1.6504364E1,0,10,0,38,38,
1571793138,2019-10-23 01:12:18.807,16427,1.665451E1,0,6,0,43,34,
1571793198,2019-10-23 01:13:18.807,16427,1.6668549E1,0,7,0,42,39,
1571793258,2019-10-23 01:14:18.807,16427,1.664804E1,0,6,0,42,38,
1571793318,2019-10-23 01:15:18.807,16469,1.6422272E1,0,12,0,47,36,
1571793378,2019-10-23 01:16:18.806,16442,1.6788452E1,0,4,0,38,34,
1571793438,2019-10-23 01:17:18.806,16427,1.65195E1,0,9,0,39,36,
1571793498,2019-10-23 01:18:18.806,16427,1.6574585E1,0,5,0,34,35,
1571793558,2019-10-23 01:19:18.806,16442,1.6464386E1,0,8,0,33,36,
1571793618,2019-10-23 01:20:18.806,16427,1.6542175E1,0,11,0,38,38,
1571793678,2019-10-23 01:21:18.809,16427,1.6685852E1,0,7,0,38,36,
1571793738,2019-10-23 01:22:18.806,16442,1.6559448E1,0,7,0,38,36,
1571793798,2019-10-23 01:23:18.806,16455,1.6471954E1,0,5,0,34,41,
1571793858,2019-10-23 01:24:18.806,16427,1.6724731E1,0,6,0,33,35,
1571793918,2019-10-23 01:25:18.806,16455,1.6348816E1,0,11,0,39,34,
1571793978,2019-10-23 01:26:18.806,16427,1.6533539E1,0,15,0,38,36,
1571794038,2019-10-23 01:27:18.809,16427,1.6453583E1,0,7,0,38,36,
1571794098,2019-10-23 01:28:18.806,16427,1.6569183E1,0,7,0,40,39,
1571794158,2019-10-23 01:29:18.808,16442,1.6572418E1,0,7,0,33,38,
1571794218,2019-10-23 01:30:18.809,16427,1.6653442E1,0,10,0,38,35,
1571794278,2019-10-23 01:31:18.806,16400,1.6721497E1,0,7,0,38,37,
1571794338,2019-10-23 01:32:18.806,16427,1.658432E1,0,4,0,36,37,
1571794398,2019-10-23 01:33:18.807,16442,1.6778748E1,0,9,0,33,35,
1571794458,2019-10-23 01:34:18.828,16442,1.6434143E1,0,1,0,34,37,
1571794518,2019-10-23 01:35:18.807,16427,1.6395264E1,0,10,0,36,36,
1571794578,2019-10-23 01:36:18.806,16387,1.664264E1,0,8,0,36,36,
1571794638,2019-10-23 01:37:18.807,16442,1.6413635E1,0,13,0,36,37,
1571794698,2019-10-23 01:38:18.806,16427,1.6645874E1,0,6,0,33,35,
1571794758,2019-10-23 01:39:18.806,16387,1.6447113E1,0,3,0,33,36,
1571794818,2019-10-23 01:40:18.806,16427,1.6496796E1,0,6,0,41,34,
1571794878,2019-10-23 01:41:18.806,16427,1.6461151E1,0,7,0,38,37,
1571794938,2019-10-23 01:42:18.845,16427,1.6628601E1,0,10,0,38,35,
1571794998,2019-10-23 01:43:18.809,16427,1.6404999E1,0,7,0,33,39,
1571795058,2019-10-23 01:44:18.806,16427,1.6529205E1,0,7,0,34,38,
1571795118,2019-10-23 01:45:18.806,16442,1.6322876E1,0,10,0,39,36,
1571795178,2019-10-23 01:46:18.806,16387,1.6522736E1,0,7,0,39,34,
1571795238,2019-10-23 01:47:18.806,16442,1.6433075E1,0,7,0,38,39,
1571795298,2019-10-23 01:48:18.806,16442,1.654541E1,0,8,0,34,36,
1571795358,2019-10-23 01:49:18.806,16427,1.6424438E1,0,8,0,33,35,
1571795418,2019-10-23 01:50:18.806,16455,1.68414E1,0,6,0,38,34,
1571795478,2019-10-23 01:51:18.806,16427,1.6557312E1,0,6,0,39,36,
1571795538,2019-10-23 01:52:18.806,16455,1.657135E1,0,1,0,40,37,
1571795598,2019-10-23 01:53:18.806,16427,1.6469788E1,0,6,0,33,37,
1571795658,2019-10-23 01:54:18.821,16427,1.6516266E1,0,10,0,33,35,
1571795718,2019-10-23 01:55:18.806,16427,1.6502197E1,0,8,0,39,41,
1571795778,2019-10-23 01:56:18.839,16427,1.642334E1,0,7,0,39,35,
1571795838,2019-10-23 01:57:18.806,16427,1.6483856E1,0,7,0,33,35,
1571795898,2019-10-23 01:58:18.836,16400,1.6627502E1,0,6,0,33,35,
1571795958,2019-10-23 01:59:18.806,16427,1.6583221E1,0,7,0,34,38,
