Time(longsecs),Time(UTC),External SOH Voltage 1(V),External SOH Voltage 2(V),External SOH Voltage 3(V),External SOH Voltage 4(V),Sensor SOH Voltage 1(V),Sensor SOH Voltage 2(V),Sensor SOH Voltage 3(V),
1571792418,2019-10-23 01:00:18.806,-1.0421276E-2,6.3323975E-4,-3.5629272E-3,-3.293991E-3,2.5117874E-1,2.5440788E-1,2.5282097E-1,
1571792478,2019-10-23 01:01:18.806,-7.8988075E-3,3.0879974E-3,-1.2383461E-3,-6.365776E-4,2.5664425E-1,2.604437E-1,2.588091E-1,
1571792538,2019-10-23 01:02:18.806,-1.1977196E-2,-9.710789E-4,-5.0418377E-3,-4.689932E-3,2.4490929E-1,2.480011E-1,2.504444E-1,
1571792598,2019-10-23 01:03:18.806,-1.175952E-2,-8.895397E-4,-5.4502487E-3,-4.7113895E-3,2.4896145E-1,2.5344467E-1,2.5123692E-1,
1571792658,2019-10-23 01:04:18.806,-7.798195E-3,3.0605793E-3,-1.232624E-3,-5.4335594E-4,2.6190853E-1,2.6343727E-1,2.643938E-1,
1571792718,2019-10-23 01:05:18.806,-7.739544E-3,2.9759407E-3,-1.2152195E-3,-5.7530403E-4,2.572384E-1,2.5897694E-1,2.6297665E-1,
1571792778,2019-10-23 01:06:18.807,-8.143902E-3,3.1840801E-3,-1.1360645E-3,-3.6859512E-4,2.615528E-1,2.6459408E-1,2.6342678E-1,
1571792838,2019-10-23 01:07:18.807,-9.417772E-3,1.2321472E-3,-2.9757023E-3,-2.3527145E-3,2.5537682E-1,2.588091E-1,2.5832653E-1,
1571792898,2019-10-23 01:08:18.806,-1.23233795E-2,-1.1994839E-3,-5.651474E-3,-4.9009323E-3,2.4547005E-1,2.4777794E-1,2.5224113E-1,
1571792958,2019-10-23 01:09:18.806,-9.568691E-3,1.2516975E-3,-2.4807453E-3,-2.1264553E-3,2.525072E-1,2.5541306E-1,2.5923347E-1,
1571793018,2019-10-23 01:10:18.806,-1.0033846E-2,9.937286E-4,-3.255844E-3,-3.088951E-3,2.5060272E-1,2.5445652E-1,2.5812435E-1,
1571793078,2019-10-23 01:11:18.806,-7.8725815E-3,2.7570724E-3,-1.2798309E-3,-6.47068E-4,2.5691795E-1,2.6154995E-1,2.635746E-1,
1571793138,2019-10-23 01:12:18.807,-1.19690895E-2,-9.1671944E-4,-4.909992E-3,-5.1777363E-3,2.4961853E-1,2.5125504E-1,2.5089455E-1,
1571793198,2019-10-23 01:13:18.807,-1.20334625E-2,-1.090765E-3,-5.2900314E-3,-5.0485134E-3,2.4972534E-1,2.5175095E-1,2.513895E-1,
1571793258,2019-10-23 01:14:18.807,-1.1792421E-2,-1.3201237E-3,-5.375147E-3,-4.7392845E-3,2.5021362E-1,2.4761868E-1,2.4715996E-1,
1571793318,2019-10-23 01:15:18.807,-9.811878E-3,1.0819435E-3,-2.993822E-3,-2.3357868E-3,2.5117493E-1,2.5469398E-1,2.578268E-1,
1571793378,2019-10-23 01:16:18.806,-8.0161095E-3,3.0732155E-3,-1.2145042E-3,-4.0531158E-4,2.6202202E-1,2.6396275E-1,2.6410294E-1,
1571793438,2019-10-23 01:17:18.806,-7.742882E-3,3.075838E-3,-1.521349E-3,-3.643036E-4,2.573433E-1,2.596388E-1,2.62146E-1,
1571793498,2019-10-23 01:18:18.806,-9.665728E-3,1.4531612E-3,-3.3450127E-3,-2.203703E-3,2.5478268E-1,2.5782204E-1,2.5648022E-1,
1571793558,2019-10-23 01:19:18.806,-1.177597E-2,-9.85384E-4,-5.3510666E-3,-4.809141E-3,2.5099087E-1,2.5293922E-1,2.466402E-1,
1571793618,2019-10-23 01:20:18.806,-9.433508E-3,1.5227795E-3,-2.7911663E-3,-2.376318E-3,2.5605965E-1,2.5873756E-1,2.582121E-1,
1571793678,2019-10-23 01:21:18.809,-7.550001E-3,3.1311512E-3,-1.0592937E-3,-5.514622E-4,2.5649452E-1,2.606144E-1,2.6530647E-1,
1571793738,2019-10-23 01:22:18.806,-9.995699E-3,5.891323E-4,-4.0254593E-3,-2.8848648E-3,2.5370407E-1,2.5765133E-1,2.555008E-1,
1571793798,2019-10-23 01:23:18.806,-7.7080727E-3,3.068447E-3,-6.451607E-4,-4.515648E-4,2.6132107E-1,2.6309586E-1,2.5896358E-1,
1571793858,2019-10-23 01:24:18.806,-7.7638626E-3,3.2455921E-3,-1.3484955E-3,-5.3334236E-4,2.6168728E-1,2.640066E-1,2.6357746E-1,
1571793918,2019-10-23 01:25:18.806,-9.540796E-3,1.2435913E-3,-2.973795E-3,-2.5775433E-3,2.5639153E-1,2.57946E-1,2.5828743E-1,
1571793978,2019-10-23 01:26:18.806,-7.673979E-3,2.9790401E-3,-1.5072823E-3,-4.477501E-4,2.5789165E-1,2.6122856E-1,2.6321125E-1,
1571794038,2019-10-23 01:27:18.809,-9.697199E-3,1.5375614E-3,-2.9444695E-3,-2.2978783E-3,2.550249E-1,2.5798798E-1,2.5739765E-1,
1571794098,2019-10-23 01:28:18.806,-1.2091875E-2,-9.434223E-4,-5.4297447E-3,-4.9164295E-3,2.449646E-1,2.498169E-1,2.500744E-1,
1571794158,2019-10-23 01:29:18.808,-7.5428486E-3,2.9621124E-3,-6.849766E-4,-3.926754E-4,2.61343E-1,2.619276E-1,2.5919533E-1,
1571794218,2019-10-23 01:30:18.809,-1.2126446E-2,-9.2434883E-4,-5.2354336E-3,-4.8162937E-3,2.4530602E-1,2.4904156E-1,2.4960232E-1,
1571794278,2019-10-23 01:31:18.806,-1.0141373E-2,7.4386597E-4,-3.3714771E-3,-2.4433136E-3,2.5483227E-1,2.5858784E-1,2.5970364E-1,
1571794338,2019-10-23 01:32:18.806,-9.729385E-3,1.306057E-3,-2.8402805E-3,-2.3334026E-3,2.5559998E-1,2.5944805E-1,2.5868034E-1,
1571794398,2019-10-23 01:33:18.807,-1.2081146E-2,-1.0867119E-3,-5.3930283E-3,-4.398823E-3,2.466259E-1,2.5120544E-1,2.517147E-1,
1571794458,2019-10-23 01:34:18.828,-7.944584E-3,3.269434E-3,-1.0950565E-3,-2.1243095E-4,2.6093674E-1,2.6380825E-1,2.636099E-1,
1571794518,2019-10-23 01:35:18.807,-9.623289E-3,1.5659332E-3,-2.5098324E-3,-2.291441E-3,2.5204277E-1,2.5741482E-1,2.6137924E-1,
1571794578,2019-10-23 01:36:18.806,-1.2219191E-2,-8.2206726E-4,-5.399704E-3,-4.8749447E-3,2.4564648E-1,2.5356007E-1,2.5406933E-1,
1571794638,2019-10-23 01:37:18.807,-1.1985302E-2,-1.026392E-3,-5.153179E-3,-4.7032833E-3,2.4922085E-1,2.5423527E-1,2.53685E-1,
1571794698,2019-10-23 01:38:18.806,-1.0168076E-2,7.209778E-4,-3.8437843E-3,-3.2873154E-3,2.501974E-1,2.5629425E-1,2.5791836E-1,
1571794758,2019-10-23 01:39:18.806,-7.2336197E-3,2.9866695E-3,-9.570122E-4,-1.8620491E-4,2.612667E-1,2.648878E-1,2.634039E-1,
1571794818,2019-10-23 01:40:18.806,-1.0181427E-2,8.3112717E-4,-3.1056404E-3,-2.4645329E-3,2.5143433E-1,2.5879002E-1,2.5870323E-1,
1571794878,2019-10-23 01:41:18.806,-1.0257006E-2,5.507469E-4,-3.4201145E-3,-3.1292439E-3,2.5617504E-1,2.5693703E-1,2.5740623E-1,
1571794938,2019-10-23 01:42:18.845,-1.0412693E-2,7.472038E-4,-3.601551E-3,-3.2265186E-3,2.5381374E-1,2.571211E-1,2.5785637E-1,
1571794998,2019-10-23 01:43:18.809,-1.1881113E-2,-1.3818741E-3,-5.166769E-3,-5.077362E-3,2.4585056E-1,2.510748E-1,2.5273037E-1,
1571795058,2019-10-23 01:44:18.806,-1.1709452E-2,-8.804798E-4,-4.9066544E-3,-4.167795E-3,2.5051594E-1,2.4887943E-1,2.466898E-1,
1571795118,2019-10-23 01:45:18.806,-1.1946678E-2,-8.382797E-4,-5.366087E-3,-4.369974E-3,2.4475193E-1,2.4778652E-1,2.4626541E-1,
1571795178,2019-10-23 01:46:18.806,-7.692814E-3,3.2117367E-3,-4.8708916E-4,-1.9836426E-4,2.6165485E-1,2.6513672E-1,2.648945E-1,
1571795238,2019-10-23 01:47:18.806,-9.886265E-3,1.3072491E-3,-2.6447773E-3,-2.3469925E-3,2.55435E-1,2.5459194E-1,2.545843E-1,
1571795298,2019-10-23 01:48:18.806,-1.214695E-2,-1.2087822E-3,-5.605221E-3,-5.11384E-3,2.4680138E-1,2.5148296E-1,2.5143433E-1,
1571795358,2019-10-23 01:49:18.806,-9.674072E-3,9.3507767E-4,-2.9821396E-3,-2.268076E-3,2.5337124E-1,2.5742817E-1,2.5821018E-1,
1571795418,2019-10-23 01:50:18.806,-1.04448795E-2,6.735325E-4,-3.170967E-3,-3.529787E-3,2.5069618E-1,2.532959E-1,2.506237E-1,
1571795478,2019-10-23 01:51:18.806,-9.642601E-3,1.6758442E-3,-3.0901432E-3,-2.3031235E-3,2.572298E-1,2.5453663E-1,2.5416088E-1,
1571795538,2019-10-23 01:52:18.806,-1.1903048E-2,-1.0957718E-3,-5.253792E-3,-4.5101643E-3,2.492876E-1,2.5604248E-1,2.55764E-1,
1571795598,2019-10-23 01:53:18.806,-8.066177E-3,3.363371E-3,-7.660389E-4,-2.3150444E-4,2.636242E-1,2.6070786E-1,2.5842476E-1,
1571795658,2019-10-23 01:54:18.821,-9.426832E-3,1.4333725E-3,-2.6876926E-3,-2.0430088E-3,2.516241E-1,2.611761E-1,2.5910378E-1,
1571795718,2019-10-23 01:55:18.806,-1.1770248E-2,-7.491112E-4,-5.1846504E-3,-4.7369003E-3,2.4960041E-1,2.4926567E-1,2.4748802E-1,
1571795778,2019-10-23 01:56:18.839,-1.0191679E-2,5.390644E-4,-3.6127567E-3,-2.5179386E-3,2.5456238E-1,2.574253E-1,2.5772572E-1,
1571795838,2019-10-23 01:57:18.806,-7.6384544E-3,2.9625893E-3,-1.6167164E-3,-5.4216385E-4,2.6272488E-1,2.66387E-1,2.6616573E-1,
1571795898,2019-10-23 01:58:18.836,-7.626295E-3,3.2322407E-3,-1.2483597E-3,-3.6597252E-4,2.6128387E-1,2.6457596E-1,2.6348972E-1,
1571795958,2019-10-23 01:59:18.806,-9.8900795E-3,8.699894E-4,-3.1263828E-3,-2.8073788E-3,2.5487328E-1,2.5849342E-1,2.5684643E-1,
