Time(longsecs),Time(UTC),Earth Location,GPS Receiver Status,GPS Satellites Used,GPS PDOP,GPS TDOP,Timing Status,Timing Phase Lock,Timing Uncertainty(ns),DAC Count,Timing Error(ns),GPS Last Update Time,
1572282038,2019-10-28 17:00:38.746,47.652022N 0.543275E 180m,Off,6,2.5537703,1.4238119,Time OK,Free running,3200,8932,0,2019-10-28 16:57:15.000000000,
1572282098,2019-10-28 17:01:38.746,47.652022N 0.543275E 180m,Off,6,2.5537703,1.4238119,Time OK,Free running,4500,8932,0,2019-10-28 16:57:15.000000000,
1572282158,2019-10-28 17:02:38.746,47.652022N 0.543275E 180m,Off,6,2.5537703,1.4238119,Time OK,Free running,5700,8932,0,2019-10-28 16:57:15.000000000,
1572282218,2019-10-28 17:03:38.746,47.652022N 0.543275E 180m,Off,6,2.5537703,1.4238119,Time OK,Free running,6600,8932,0,2019-10-28 16:57:15.000000000,
1572282278,2019-10-28 17:04:38.746,47.652022N 0.543275E 180m,Off,6,2.5537703,1.4238119,Time OK,Free running,7700,8932,0,2019-10-28 16:57:15.000000000,
1572282338,2019-10-28 17:05:38.746,47.652022N 0.543275E 180m,Off,6,2.5537703,1.4238119,Time OK,Free running,8600,8932,0,2019-10-28 16:57:15.000000000,
1572282398,2019-10-28 17:06:38.746,47.652022N 0.543275E 180m,Off,6,2.5537703,1.4238119,Time OK,Free running,9500,8932,0,2019-10-28 16:57:15.000000000,
1572282458,2019-10-28 17:07:38.746,47.652022N 0.543275E 180m,Off,6,2.5537703,1.4238119,Time OK,Free running,10900,8932,0,2019-10-28 16:57:15.000000000,
1572282518,2019-10-28 17:08:38.746,47.652022N 0.543275E 180m,Off,6,2.5537703,1.4238119,Time OK,Free running,11900,8932,0,2019-10-28 16:57:15.000000000,
1572282578,2019-10-28 17:09:38.746,47.652022N 0.543275E 180m,Off,6,2.5537703,1.4238119,Time OK,Free running,12800,8932,0,2019-10-28 16:57:15.000000000,
1572282638,2019-10-28 17:10:38.746,47.652022N 0.543275E 180m,Off,6,2.5537703,1.4238119,Time OK,Free running,13800,8932,0,2019-10-28 16:57:15.000000000,
1572282698,2019-10-28 17:11:38.746,47.652022N 0.543275E 180m,Off,6,2.5537703,1.4238119,Time OK,Free running,14800,8932,0,2019-10-28 16:57:15.000000000,
1572282758,2019-10-28 17:12:38.746,47.652022N 0.543275E 180m,Off,6,2.5537703,1.4238119,Time OK,Free running,15800,8932,0,2019-10-28 16:57:15.000000000,
1572282818,2019-10-28 17:13:38.746,47.652022N 0.543275E 180m,Off,6,2.5537703,1.4238119,Time OK,Free running,16900,8932,0,2019-10-28 16:57:15.000000000,
1572282878,2019-10-28 17:14:38.746,47.652022N 0.543275E 180m,Off,6,2.5537703,1.4238119,Time OK,Free running,18000,8932,0,2019-10-28 16:57:15.000000000,
1572282938,2019-10-28 17:15:38.746,47.652022N 0.543275E 180m,Off,6,2.5537703,1.4238119,Time OK,Free running,19200,8932,0,2019-10-28 16:57:15.000000000,
1572282998,2019-10-28 17:16:38.746,47.652022N 0.543275E 180m,Off,6,2.5537703,1.4238119,Time OK,Free running,20700,8932,0,2019-10-28 16:57:15.000000000,
1572283058,2019-10-28 17:17:38.748,47.652022N 0.543275E 180m,Off,6,2.5537703,1.4238119,Time OK,Free running,22300,8932,0,2019-10-28 16:57:15.000000000,
1572283118,2019-10-28 17:18:38.746,47.652022N 0.543275E 180m,Off,6,2.5537703,1.4238119,Time OK,Free running,23800,8932,0,2019-10-28 16:57:15.000000000,
1572283178,2019-10-28 17:19:38.746,47.652022N 0.543275E 180m,Off,6,2.5537703,1.4238119,Time OK,Free running,25200,8932,0,2019-10-28 16:57:15.000000000,
1572283238,2019-10-28 17:20:38.746,47.652022N 0.543275E 180m,Off,6,2.5537703,1.4238119,Time OK,Free running,26300,8932,0,2019-10-28 16:57:15.000000000,
1572283298,2019-10-28 17:21:38.746,47.652022N 0.543275E 180m,Off,6,2.5537703,1.4238119,Time OK,Free running,27300,8932,0,2019-10-28 16:57:15.000000000,
1572283358,2019-10-28 17:22:38.746,47.652022N 0.543275E 180m,Off,6,2.5537703,1.4238119,Time OK,Free running,28200,8932,0,2019-10-28 16:57:15.000000000,
1572283418,2019-10-28 17:23:38.746,47.652022N 0.543275E 180m,Off,6,2.5537703,1.4238119,Time OK,Free running,29300,8932,0,2019-10-28 16:57:15.000000000,
1572283478,2019-10-28 17:24:38.746,47.652022N 0.543275E 180m,Off,6,2.5537703,1.4238119,Time OK,Free running,30500,8932,0,2019-10-28 16:57:15.000000000,
1572283538,2019-10-28 17:25:38.746,47.652022N 0.543275E 180m,Off,6,2.5537703,1.4238119,Time OK,Free running,31700,8932,0,2019-10-28 16:57:15.000000000,
1572283598,2019-10-28 17:26:38.746,47.652022N 0.543275E 180m,Off,6,2.5537703,1.4238119,Time OK,Free running,32900,8932,0,2019-10-28 16:57:15.000000000,
1572283658,2019-10-28 17:27:38.746,47.652022N 0.543275E 180m,Off,6,2.5537703,1.4238119,Time OK,Free running,34200,8932,0,2019-10-28 16:57:15.000000000,
1572283718,2019-10-28 17:28:38.748,47.652022N 0.543275E 180m,Off,6,2.5537703,1.4238119,Time OK,Free running,35400,8932,0,2019-10-28 16:57:15.000000000,
1572283778,2019-10-28 17:29:38.746,47.652022N 0.543275E 180m,Off,6,2.5537703,1.4238119,Time OK,Free running,36300,8932,0,2019-10-28 16:57:15.000000000,
1572283838,2019-10-28 17:30:38.746,47.652022N 0.543275E 180m,Off,6,2.5537703,1.4238119,Time OK,Free running,37700,8932,0,2019-10-28 16:57:15.000000000,
1572283898,2019-10-28 17:31:38.750,47.652022N 0.543275E 180m,Off,6,2.5537703,1.4238119,Time OK,Free running,39400,8932,0,2019-10-28 16:57:15.000000000,
1572283958,2019-10-28 17:32:38.746,47.652022N 0.543275E 180m,Off,6,2.5537703,1.4238119,Time OK,Free running,40700,8932,0,2019-10-28 16:57:15.000000000,
1572284018,2019-10-28 17:33:38.746,47.652022N 0.543275E 180m,Off,6,2.5537703,1.4238119,Time OK,Free running,41900,8932,0,2019-10-28 16:57:15.000000000,
1572284078,2019-10-28 17:34:38.747,47.652022N 0.543275E 180m,Off,6,2.5537703,1.4238119,Time OK,Free running,43200,8932,0,2019-10-28 16:57:15.000000000,
1572284138,2019-10-28 17:35:38.747,47.652022N 0.543275E 180m,Off,6,2.5537703,1.4238119,Time OK,Free running,44400,8932,0,2019-10-28 16:57:15.000000000,
1572284198,2019-10-28 17:36:38.747,47.652022N 0.543275E 180m,Off,6,2.5537703,1.4238119,Time OK,Free running,45300,8932,0,2019-10-28 16:57:15.000000000,
1572284258,2019-10-28 17:37:38.747,47.652022N 0.543275E 180m,Off,6,2.5537703,1.4238119,Time OK,Free running,46300,8932,0,2019-10-28 16:57:15.000000000,
1572284318,2019-10-28 17:38:38.746,47.652022N 0.543275E 180m,Off,6,2.5537703,1.4238119,Time OK,Free running,47300,8932,0,2019-10-28 16:57:15.000000000,
1572284378,2019-10-28 17:39:38.746,47.652022N 0.543275E 180m,Off,6,2.5537703,1.4238119,Time OK,Free running,48100,8932,0,2019-10-28 16:57:15.000000000,
1572284438,2019-10-28 17:40:38.746,47.652022N 0.543275E 180m,Off,6,2.5537703,1.4238119,Time OK,Free running,49000,8932,0,2019-10-28 16:57:15.000000000,
1572284498,2019-10-28 17:41:38.746,47.652022N 0.543275E 180m,Off,6,2.5537703,1.4238119,Time OK,Free running,50000,8932,0,2019-10-28 16:57:15.000000000,
1572284558,2019-10-28 17:42:38.746,47.652022N 0.543275E 180m,Off,6,2.5537703,1.4238119,Time OK,Free running,51100,8932,0,2019-10-28 16:57:15.000000000,
1572284618,2019-10-28 17:43:38.748,47.652022N 0.543275E 180m,Doing fixes,5,2.5649583,1.5766375,Time OK,Coarse lock,100,8413,9895,2019-10-28 17:43:35.000000000,
1572284678,2019-10-28 17:44:38.746,47.652022N 0.543275E 180m,Doing fixes,6,2.4771464,1.4972427,Time OK,Fine lock,100,8919,0,2019-10-28 17:44:35.000000000,
1572284738,2019-10-28 17:45:38.746,47.652022N 0.543275E 180m,Off,5,2.5151832,1.5315943,Time OK,Free running,100,8922,0,2019-10-28 17:45:35.000000000,
1572284798,2019-10-28 17:46:38.746,47.652022N 0.543275E 180m,Off,5,2.5151832,1.5315943,Time OK,Free running,1100,8922,0,2019-10-28 17:45:35.000000000,
1572284858,2019-10-28 17:47:38.746,47.652022N 0.543275E 180m,Off,5,2.5151832,1.5315943,Time OK,Free running,2600,8922,0,2019-10-28 17:45:35.000000000,
1572284918,2019-10-28 17:48:38.746,47.652022N 0.543275E 180m,Off,5,2.5151832,1.5315943,Time OK,Free running,4300,8922,0,2019-10-28 17:45:35.000000000,
1572284978,2019-10-28 17:49:38.746,47.652022N 0.543275E 180m,Off,5,2.5151832,1.5315943,Time OK,Free running,5400,8922,0,2019-10-28 17:45:35.000000000,
1572285038,2019-10-28 17:50:38.746,47.652022N 0.543275E 180m,Off,5,2.5151832,1.5315943,Time OK,Free running,6400,8922,0,2019-10-28 17:45:35.000000000,
1572285098,2019-10-28 17:51:38.746,47.652022N 0.543275E 180m,Off,5,2.5151832,1.5315943,Time OK,Free running,7700,8922,0,2019-10-28 17:45:35.000000000,
1572285158,2019-10-28 17:52:38.746,47.652022N 0.543275E 180m,Off,5,2.5151832,1.5315943,Time OK,Free running,9100,8922,0,2019-10-28 17:45:35.000000000,
1572285218,2019-10-28 17:53:38.746,47.652022N 0.543275E 180m,Off,5,2.5151832,1.5315943,Time OK,Free running,10600,8922,0,2019-10-28 17:45:35.000000000,
1572285278,2019-10-28 17:54:38.746,47.652022N 0.543275E 180m,Off,5,2.5151832,1.5315943,Time OK,Free running,11900,8922,0,2019-10-28 17:45:35.000000000,
1572285338,2019-10-28 17:55:38.748,47.652022N 0.543275E 180m,Off,5,2.5151832,1.5315943,Time OK,Free running,13400,8922,0,2019-10-28 17:45:35.000000000,
1572285398,2019-10-28 17:56:38.746,47.652022N 0.543275E 180m,Off,5,2.5151832,1.5315943,Time OK,Free running,15200,8922,0,2019-10-28 17:45:35.000000000,
1572285458,2019-10-28 17:57:38.746,47.652022N 0.543275E 180m,Off,5,2.5151832,1.5315943,Time OK,Free running,16700,8922,0,2019-10-28 17:45:35.000000000,
1572285518,2019-10-28 17:58:38.747,47.652022N 0.543275E 180m,Off,5,2.5151832,1.5315943,Time OK,Free running,17900,8922,0,2019-10-28 17:45:35.000000000,
1572285578,2019-10-28 17:59:38.748,47.652022N 0.543275E 180m,Off,5,2.5151832,1.5315943,Time OK,Free running,18900,8922,0,2019-10-28 17:45:35.000000000,
