Time(longsecs),Time(UTC),External SOH Voltage 1(V),External SOH Voltage 2(V),External SOH Voltage 3(V),External SOH Voltage 4(V),Sensor SOH Voltage 1(V),Sensor SOH Voltage 2(V),Sensor SOH Voltage 3(V),
1572260438,2019-10-28 11:00:38.746,-4.995346E-3,-3.2653809E-3,-5.1465034E-3,4.255295E-3,4.4616604E-1,4.5189667E-1,4.6028328E-1,
1572260498,2019-10-28 11:01:38.746,-2.7525425E-3,-1.26338E-3,-2.9981136E-3,6.667137E-3,4.4621468E-1,4.5218372E-1,4.6086216E-1,
1572260558,2019-10-28 11:02:38.746,-4.780054E-3,-3.116846E-3,-5.247593E-3,4.170418E-3,4.393053E-1,4.4601917E-1,4.4661427E-1,
1572260618,2019-10-28 11:03:38.746,9.059906E-6,1.5630722E-3,-3.2496452E-4,9.402037E-3,4.5791435E-1,4.6363735E-1,4.7347164E-1,
1572260678,2019-10-28 11:04:38.746,-4.843235E-3,-3.161192E-3,-5.150318E-3,4.389763E-3,4.439535E-1,4.4979763E-1,4.50902E-1,
1572260738,2019-10-28 11:05:38.749,-2.0842552E-3,-4.7254562E-4,-2.4678707E-3,7.339716E-3,4.4687557E-1,4.532671E-1,4.6358395E-1,
1572260798,2019-10-28 11:06:38.746,-2.0098686E-4,1.6391277E-3,-5.8174133E-5,9.1814995E-3,4.56872E-1,4.6335793E-1,4.6554565E-1,
1572260858,2019-10-28 11:07:38.746,-2.0580292E-3,-5.6767464E-4,-2.244234E-3,7.1582794E-3,4.5106983E-1,4.582548E-1,4.6065807E-1,
1572260918,2019-10-28 11:08:38.746,-4.3296814E-4,1.842022E-3,-5.824566E-4,9.271145E-3,4.597683E-1,4.6594715E-1,4.6548748E-1,
1572260978,2019-10-28 11:09:38.746,-2.7515888E-3,-8.7571144E-4,-2.8424263E-3,6.3688755E-3,4.5049667E-1,4.562273E-1,4.5745754E-1,
1572261038,2019-10-28 11:10:38.748,5.197525E-5,1.6386509E-3,-1.6236305E-4,9.233236E-3,4.5783424E-1,4.6418E-1,4.635687E-1,
1572261098,2019-10-28 11:11:38.748,-4.863739E-5,1.6200542E-3,-3.5119057E-4,9.362936E-3,4.5921135E-1,4.664421E-1,4.7632217E-1,
1572261158,2019-10-28 11:12:38.746,-4.898548E-3,-3.2339096E-3,-4.9951077E-3,4.7512054E-3,4.4020367E-1,4.4672966E-1,4.3509388E-1,
1572261218,2019-10-28 11:13:38.746,-1.9648075E-3,-2.3818016E-4,-2.3391247E-3,7.181406E-3,4.5215416E-1,4.5758343E-1,4.4172192E-1,
1572261278,2019-10-28 11:14:38.746,-2.1514893E-3,-1.8644333E-4,-2.4290085E-3,7.065773E-3,4.509983E-1,4.5771694E-1,4.5968914E-1,
1572261338,2019-10-28 11:15:38.748,1.335144E-4,1.6515255E-3,-3.7527084E-4,8.967638E-3,4.596405E-1,4.6619797E-1,4.6492863E-1,
1572261398,2019-10-28 11:16:38.749,-2.729416E-3,-7.2979927E-4,-3.051281E-3,6.6275597E-3,4.5145988E-1,4.5722294E-1,4.5743752E-1,
1572261458,2019-10-28 11:17:38.746,-2.3021698E-3,-4.6682358E-4,-2.5629997E-3,7.112026E-3,4.5129585E-1,4.5808792E-1,4.5738888E-1,
1572261518,2019-10-28 11:18:38.746,-5.1510334E-3,-3.2992363E-3,-5.2740574E-3,4.1644573E-3,4.4587994E-1,4.5171452E-1,4.4622517E-1,
1572261578,2019-10-28 11:19:38.746,6.341934E-5,1.625061E-3,-4.9448013E-4,9.143591E-3,4.5917225E-1,4.6508884E-1,4.7380447E-1,
1572261638,2019-10-28 11:20:38.746,-2.0051003E-3,-4.222393E-4,-2.6113987E-3,7.0006847E-3,4.470272E-1,4.529543E-1,4.4810104E-1,
1572261698,2019-10-28 11:21:38.746,-4.934311E-3,-3.1027794E-3,-5.10931E-3,4.4994354E-3,4.4392395E-1,4.4979858E-1,4.4906902E-1,
1572261758,2019-10-28 11:22:38.746,-2.2087097E-3,-4.5347214E-4,-2.667427E-3,7.0524216E-3,4.5302296E-1,4.588108E-1,4.5129013E-1,
1572261818,2019-10-28 11:23:38.746,-2.4540424E-3,-5.209446E-4,-2.5031567E-3,7.095337E-3,4.527588E-1,4.5873928E-1,4.5571804E-1,
1572261878,2019-10-28 11:24:38.746,-5.0024986E-3,-3.127575E-3,-5.1221848E-3,4.1389465E-3,4.4570827E-1,4.5214367E-1,4.5471287E-1,
1572261938,2019-10-28 11:25:38.746,-9.059906E-6,1.5621185E-3,-2.8443336E-4,9.202957E-3,4.576311E-1,4.631176E-1,4.7268867E-1,
1572261998,2019-10-28 11:26:38.748,-2.2268295E-4,1.6274452E-3,-3.5953522E-4,9.305716E-3,4.5744038E-1,4.6398735E-1,4.651165E-1,
1572262058,2019-10-28 11:27:38.746,-4.88472E-3,-3.285408E-3,-5.2132607E-3,4.246235E-3,4.4420624E-1,4.4968224E-1,4.4631195E-1,
1572262118,2019-10-28 11:28:38.746,-5.8412552E-5,1.5861988E-3,-3.581047E-4,9.17387E-3,4.5737457E-1,4.63377E-1,4.5407772E-1,
1572262178,2019-10-28 11:29:38.748,-4.873991E-3,-3.237486E-3,-5.21636E-3,4.408121E-3,4.460888E-1,4.518814E-1,4.4491386E-1,
1572262238,2019-10-28 11:30:38.746,-4.805565E-3,-3.187418E-3,-5.261421E-3,4.470587E-3,4.4050598E-1,4.4603443E-1,4.4469166E-1,
1572262298,2019-10-28 11:31:38.746,-2.761364E-3,-9.4103813E-4,-3.0140877E-3,6.377697E-3,4.4638348E-1,4.5260048E-1,4.5232487E-1,
1572262358,2019-10-28 11:32:38.748,-5.0661564E-3,-3.1206608E-3,-5.253315E-3,4.538536E-3,4.4718933E-1,4.543152E-1,4.5384598E-1,
1572262418,2019-10-28 11:33:38.746,-2.701044E-3,-1.1153221E-3,-2.9447079E-3,6.2992573E-3,4.5096207E-1,4.5638657E-1,4.5640373E-1,
1572262478,2019-10-28 11:34:38.746,-4.7101974E-3,-3.0834675E-3,-4.8058033E-3,4.343033E-3,4.4628143E-1,4.5289993E-1,4.565134E-1,
1572262538,2019-10-28 11:35:38.747,-1.8312931E-3,-1.7690659E-4,-2.5675297E-3,7.055998E-3,4.511099E-1,4.578905E-1,4.6206665E-1,
1572262598,2019-10-28 11:36:38.747,-2.085209E-3,-2.937317E-4,-2.4745464E-3,7.086277E-3,4.5235157E-1,4.5780945E-1,4.653139E-1,
1572262658,2019-10-28 11:37:38.786,-2.765894E-3,-9.989738E-4,-2.9389858E-3,6.320238E-3,4.5084953E-1,4.6300793E-1,4.549284E-1,
1572262718,2019-10-28 11:38:38.746,-1.1277199E-4,1.6965866E-3,-2.3412704E-4,9.480476E-3,4.578581E-1,4.640913E-1,4.6134663E-1,
1572262778,2019-10-28 11:39:38.746,-2.7468204E-3,-8.635521E-4,-2.970457E-3,6.513834E-3,4.50572E-1,4.5692062E-1,4.5473194E-1,
1572262838,2019-10-28 11:40:38.746,-2.7770996E-3,-1.1365414E-3,-3.1244755E-3,6.326437E-3,4.5031834E-1,4.5638943E-1,4.5360088E-1,
1572262898,2019-10-28 11:41:38.746,-2.8281212E-3,-1.0447502E-3,-2.9509068E-3,6.5374374E-3,4.5020962E-1,4.5620823E-1,4.5377254E-1,
1572262958,2019-10-28 11:42:38.746,-3.528595E-5,1.6181469E-3,-6.7329407E-4,9.271383E-3,4.589796E-1,4.651556E-1,4.64612E-1,
1572263018,2019-10-28 11:43:38.746,-4.9135685E-3,-3.120184E-3,-5.100727E-3,4.411459E-3,4.4386482E-1,4.5029926E-1,4.4841003E-1,
1572263078,2019-10-28 11:44:38.746,-4.988432E-3,-3.1688213E-3,-5.21636E-3,4.301548E-3,4.4381905E-1,4.4995594E-1,4.4817162E-1,
1572263138,2019-10-28 11:45:38.748,-2.7298927E-3,-1.1777878E-3,-3.1747818E-3,6.467819E-3,4.5014E-1,4.566679E-1,4.5591927E-1,
1572263198,2019-10-28 11:46:38.746,-2.3596287E-3,-4.775524E-4,-2.4540424E-3,6.970167E-3,4.5096207E-1,4.5719147E-1,4.5605946E-1,
1572263258,2019-10-28 11:47:38.746,-2.1848679E-3,-3.2544136E-4,-2.462864E-3,7.045269E-3,4.5081425E-1,4.568596E-1,4.5553207E-1,
1572263318,2019-10-28 11:48:38.746,-2.7546883E-3,-1.2559891E-3,-3.0765533E-3,6.367922E-3,4.5037937E-1,4.5638657E-1,4.554119E-1,
1572263378,2019-10-28 11:49:38.746,-2.8135777E-3,-1.0139942E-3,-2.8095245E-3,6.5336227E-3,4.5017433E-1,4.5644188E-1,4.545107E-1,
1572263438,2019-10-28 11:50:38.746,-2.7813911E-3,-1.0652542E-3,-3.0519962E-3,6.505728E-3,4.5264053E-1,4.5905304E-1,4.5717335E-1,
1572263498,2019-10-28 11:51:38.746,-2.8841496E-3,-1.0774136E-3,-3.0443668E-3,6.474972E-3,4.5029926E-1,4.5642185E-1,4.5557213E-1,
1572263558,2019-10-28 11:52:38.746,-2.0430088E-3,-2.9611588E-4,-2.3725033E-3,7.0767403E-3,4.5141602E-1,4.5771408E-1,4.5580006E-1,
1572263618,2019-10-28 11:53:38.746,-1.5377998E-4,1.4567375E-3,-2.1958351E-4,9.154081E-3,4.5989037E-1,4.6555328E-1,4.6418E-1,
1572263678,2019-10-28 11:54:38.746,-2.812624E-3,-1.1191368E-3,-3.0698776E-3,6.7322254E-3,4.5056343E-1,4.5665932E-1,4.5428753E-1,
1572263738,2019-10-28 11:55:38.748,-2.7451515E-3,-1.0633469E-3,-2.8455257E-3,6.5732E-3,4.5330143E-1,4.5859623E-1,4.5403004E-1,
1572263798,2019-10-28 11:56:38.746,-5.005121E-3,-3.2646656E-3,-5.278349E-3,4.1897297E-3,4.44355E-1,4.5020676E-1,4.461851E-1,
1572263858,2019-10-28 11:57:38.746,-1.8293858E-3,-8.702278E-5,-2.3415089E-3,7.343769E-3,4.4556618E-1,4.524536E-1,4.5190334E-1,
1572263918,2019-10-28 11:58:38.746,-2.2490025E-3,-2.9730797E-4,-2.5017262E-3,6.923914E-3,4.5351982E-1,4.5971298E-1,4.597454E-1,
1572263978,2019-10-28 11:59:38.746,-2.7341843E-3,-1.2066364E-3,-3.3142567E-3,6.532192E-3,4.498949E-1,4.564724E-1,4.534645E-1,
