Time(longsecs),Time(UTC),Earth Location,GPS Receiver Status,GPS Satellites Used,GPS PDOP,GPS TDOP,Timing Status,Timing Phase Lock,Timing Uncertainty(ns),DAC Count,Timing Error(ns),GPS Last Update Time,
1572235218,2019-10-28 04:00:18.806,47.636286N 0.583821E 189m,Off,6,2.2691586,1.2571298,Time OK,Free running,35100,9117,0,2019-10-28 03:22:56.000000000,
1572235278,2019-10-28 04:01:18.809,47.636286N 0.583821E 189m,Off,6,2.2691586,1.2571298,Time OK,Free running,36200,9117,0,2019-10-28 03:22:56.000000000,
1572235338,2019-10-28 04:02:18.809,47.636286N 0.583821E 189m,Off,6,2.2691586,1.2571298,Time OK,Free running,37100,9117,0,2019-10-28 03:22:56.000000000,
1572235398,2019-10-28 04:03:18.806,47.636286N 0.583821E 189m,Off,6,2.2691586,1.2571298,Time OK,Free running,38000,9117,0,2019-10-28 03:22:56.000000000,
1572235458,2019-10-28 04:04:18.806,47.636286N 0.583821E 189m,Off,6,2.2691586,1.2571298,Time OK,Free running,38900,9117,0,2019-10-28 03:22:56.000000000,
1572235518,2019-10-28 04:05:18.807,47.636286N 0.583821E 189m,Off,6,2.2691586,1.2571298,Time OK,Free running,40000,9117,0,2019-10-28 03:22:56.000000000,
1572235578,2019-10-28 04:06:18.806,47.636286N 0.583821E 189m,Off,6,2.2691586,1.2571298,Time OK,Free running,41100,9117,0,2019-10-28 03:22:56.000000000,
1572235638,2019-10-28 04:07:18.806,47.636286N 0.583821E 189m,Off,6,2.2691586,1.2571298,Time OK,Free running,41900,9117,0,2019-10-28 03:22:56.000000000,
1572235698,2019-10-28 04:08:18.806,47.636286N 0.583821E 189m,Off,6,2.2691586,1.2571298,Time OK,Free running,42800,9117,0,2019-10-28 03:22:56.000000000,
1572235758,2019-10-28 04:09:18.806,47.636286N 0.583821E 189m,Off,6,2.2691586,1.2571298,Time OK,Free running,44000,9117,0,2019-10-28 03:22:56.000000000,
1572235818,2019-10-28 04:10:18.806,47.636286N 0.583821E 189m,Off,6,2.2691586,1.2571298,Time OK,Free running,44900,9117,0,2019-10-28 03:22:56.000000000,
1572235878,2019-10-28 04:11:18.806,47.636286N 0.583821E 189m,Off,6,2.2691586,1.2571298,Time OK,Free running,45700,9117,0,2019-10-28 03:22:56.000000000,
1572235938,2019-10-28 04:12:18.807,47.636286N 0.583821E 189m,Off,6,2.2691586,1.2571298,Time OK,Free running,46600,9117,0,2019-10-28 03:22:56.000000000,
1572235998,2019-10-28 04:13:18.806,47.636286N 0.583821E 189m,Off,6,2.2691586,1.2571298,Time OK,Free running,47400,9117,0,2019-10-28 03:22:56.000000000,
1572236058,2019-10-28 04:14:18.806,47.636286N 0.583821E 189m,Off,6,2.2691586,1.2571298,Time OK,Free running,48200,9117,0,2019-10-28 03:22:56.000000000,
1572236118,2019-10-28 04:15:18.806,47.636286N 0.583821E 189m,Off,6,2.2691586,1.2571298,Time OK,Free running,49100,9117,0,2019-10-28 03:22:56.000000000,
1572236178,2019-10-28 04:16:18.806,47.636286N 0.583821E 189m,Off,6,2.2691586,1.2571298,Time OK,Free running,50000,9117,0,2019-10-28 03:22:56.000000000,
1572236238,2019-10-28 04:17:18.806,47.636286N 0.583821E 189m,Off,6,2.2691586,1.2571298,Time OK,Free running,51200,9117,0,2019-10-28 03:22:56.000000000,
1572236298,2019-10-28 04:18:18.807,47.636286N 0.583821E 189m,Doing fixes,5,5.296038,4.143203,Time OK,Coarse lock,100,9274,-4479,2019-10-28 04:18:15.000000000,
1572236358,2019-10-28 04:19:18.807,47.636286N 0.583821E 189m,Doing fixes,6,3.6894794,2.7056072,Time OK,Fine lock,100,9108,104,2019-10-28 04:19:15.000000000,
1572236418,2019-10-28 04:20:18.806,47.636286N 0.583821E 189m,Off,6,3.7379477,2.7536232,Time OK,Free running,100,9118,0,2019-10-28 04:20:15.000000000,
1572236478,2019-10-28 04:21:18.806,47.636286N 0.583821E 189m,Off,6,3.7379477,2.7536232,Time OK,Free running,1000,9118,0,2019-10-28 04:20:15.000000000,
1572236538,2019-10-28 04:22:18.806,47.636286N 0.583821E 189m,Off,6,3.7379477,2.7536232,Time OK,Free running,2100,9118,0,2019-10-28 04:20:15.000000000,
1572236598,2019-10-28 04:23:18.806,47.636286N 0.583821E 189m,Off,6,3.7379477,2.7536232,Time OK,Free running,3300,9118,0,2019-10-28 04:20:15.000000000,
1572236658,2019-10-28 04:24:18.806,47.636286N 0.583821E 189m,Off,6,3.7379477,2.7536232,Time OK,Free running,4600,9118,0,2019-10-28 04:20:15.000000000,
1572236718,2019-10-28 04:25:18.806,47.636286N 0.583821E 189m,Off,6,3.7379477,2.7536232,Time OK,Free running,5800,9118,0,2019-10-28 04:20:15.000000000,
1572236778,2019-10-28 04:26:18.806,47.636286N 0.583821E 189m,Off,6,3.7379477,2.7536232,Time OK,Free running,7000,9118,0,2019-10-28 04:20:15.000000000,
1572236838,2019-10-28 04:27:18.839,47.636286N 0.583821E 189m,Off,6,3.7379477,2.7536232,Time OK,Free running,8000,9118,0,2019-10-28 04:20:15.000000000,
1572236898,2019-10-28 04:28:18.807,47.636286N 0.583821E 189m,Off,6,3.7379477,2.7536232,Time OK,Free running,8900,9118,0,2019-10-28 04:20:15.000000000,
1572236958,2019-10-28 04:29:18.809,47.636286N 0.583821E 189m,Off,6,3.7379477,2.7536232,Time OK,Free running,10000,9118,0,2019-10-28 04:20:15.000000000,
1572237018,2019-10-28 04:30:18.806,47.636286N 0.583821E 189m,Off,6,3.7379477,2.7536232,Time OK,Free running,11200,9118,0,2019-10-28 04:20:15.000000000,
1572237078,2019-10-28 04:31:18.806,47.636286N 0.583821E 189m,Off,6,3.7379477,2.7536232,Time OK,Free running,12400,9118,0,2019-10-28 04:20:15.000000000,
1572237138,2019-10-28 04:32:18.806,47.636286N 0.583821E 189m,Off,6,3.7379477,2.7536232,Time OK,Free running,13600,9118,0,2019-10-28 04:20:15.000000000,
1572237198,2019-10-28 04:33:18.806,47.636286N 0.583821E 189m,Off,6,3.7379477,2.7536232,Time OK,Free running,14600,9118,0,2019-10-28 04:20:15.000000000,
1572237258,2019-10-28 04:34:18.806,47.636286N 0.583821E 189m,Off,6,3.7379477,2.7536232,Time OK,Free running,15500,9118,0,2019-10-28 04:20:15.000000000,
1572237318,2019-10-28 04:35:18.806,47.636286N 0.583821E 189m,Off,6,3.7379477,2.7536232,Time OK,Free running,16600,9118,0,2019-10-28 04:20:15.000000000,
1572237378,2019-10-28 04:36:18.847,47.636286N 0.583821E 189m,Off,6,3.7379477,2.7536232,Time OK,Free running,17800,9118,0,2019-10-28 04:20:15.000000000,
1572237438,2019-10-28 04:37:18.806,47.636286N 0.583821E 189m,Off,6,3.7379477,2.7536232,Time OK,Free running,18900,9118,0,2019-10-28 04:20:15.000000000,
1572237498,2019-10-28 04:38:18.807,47.636286N 0.583821E 189m,Off,6,3.7379477,2.7536232,Time OK,Free running,20000,9118,0,2019-10-28 04:20:15.000000000,
1572237558,2019-10-28 04:39:18.806,47.636286N 0.583821E 189m,Off,6,3.7379477,2.7536232,Time OK,Free running,21000,9118,0,2019-10-28 04:20:15.000000000,
1572237618,2019-10-28 04:40:18.806,47.636286N 0.583821E 189m,Off,6,3.7379477,2.7536232,Time OK,Free running,22100,9118,0,2019-10-28 04:20:15.000000000,
1572237678,2019-10-28 04:41:18.839,47.636286N 0.583821E 189m,Off,6,3.7379477,2.7536232,Time OK,Free running,23300,9118,0,2019-10-28 04:20:15.000000000,
1572237738,2019-10-28 04:42:18.816,47.636286N 0.583821E 189m,Off,6,3.7379477,2.7536232,Time OK,Free running,24300,9118,0,2019-10-28 04:20:15.000000000,
1572237798,2019-10-28 04:43:18.806,47.636286N 0.583821E 189m,Off,6,3.7379477,2.7536232,Time OK,Free running,25600,9118,0,2019-10-28 04:20:15.000000000,
1572237858,2019-10-28 04:44:18.806,47.636286N 0.583821E 189m,Off,6,3.7379477,2.7536232,Time OK,Free running,27100,9118,0,2019-10-28 04:20:15.000000000,
1572237918,2019-10-28 04:45:18.806,47.636286N 0.583821E 189m,Off,6,3.7379477,2.7536232,Time OK,Free running,28100,9118,0,2019-10-28 04:20:15.000000000,
1572237978,2019-10-28 04:46:18.806,47.636286N 0.583821E 189m,Off,6,3.7379477,2.7536232,Time OK,Free running,28900,9118,0,2019-10-28 04:20:15.000000000,
1572238038,2019-10-28 04:47:18.806,47.636286N 0.583821E 189m,Off,6,3.7379477,2.7536232,Time OK,Free running,29900,9118,0,2019-10-28 04:20:15.000000000,
1572238098,2019-10-28 04:48:18.806,47.636286N 0.583821E 189m,Off,6,3.7379477,2.7536232,Time OK,Free running,31000,9118,0,2019-10-28 04:20:15.000000000,
1572238158,2019-10-28 04:49:18.806,47.636286N 0.583821E 189m,Off,6,3.7379477,2.7536232,Time OK,Free running,32200,9118,0,2019-10-28 04:20:15.000000000,
1572238218,2019-10-28 04:50:18.806,47.636286N 0.583821E 189m,Off,6,3.7379477,2.7536232,Time OK,Free running,33400,9118,0,2019-10-28 04:20:15.000000000,
1572238278,2019-10-28 04:51:18.806,47.636286N 0.583821E 189m,Off,6,3.7379477,2.7536232,Time OK,Free running,34500,9118,0,2019-10-28 04:20:15.000000000,
1572238338,2019-10-28 04:52:18.807,47.636286N 0.583821E 189m,Off,6,3.7379477,2.7536232,Time OK,Free running,35500,9118,0,2019-10-28 04:20:15.000000000,
1572238398,2019-10-28 04:53:18.806,47.636286N 0.583821E 189m,Off,6,3.7379477,2.7536232,Time OK,Free running,36500,9118,0,2019-10-28 04:20:15.000000000,
1572238458,2019-10-28 04:54:18.806,47.636286N 0.583821E 189m,Off,6,3.7379477,2.7536232,Time OK,Free running,37400,9118,0,2019-10-28 04:20:15.000000000,
1572238518,2019-10-28 04:55:18.806,47.636286N 0.583821E 189m,Off,6,3.7379477,2.7536232,Time OK,Free running,38400,9118,0,2019-10-28 04:20:15.000000000,
1572238578,2019-10-28 04:56:18.806,47.636286N 0.583821E 189m,Off,6,3.7379477,2.7536232,Time OK,Free running,39500,9118,0,2019-10-28 04:20:15.000000000,
1572238638,2019-10-28 04:57:18.806,47.636286N 0.583821E 189m,Off,6,3.7379477,2.7536232,Time OK,Free running,40400,9118,0,2019-10-28 04:20:15.000000000,
1572238698,2019-10-28 04:58:18.806,47.636286N 0.583821E 189m,Off,6,3.7379477,2.7536232,Time OK,Free running,41200,9118,0,2019-10-28 04:20:15.000000000,
1572238758,2019-10-28 04:59:18.806,47.636286N 0.583821E 189m,Off,6,3.7379477,2.7536232,Time OK,Free running,42100,9118,0,2019-10-28 04:20:15.000000000,
