Time(longsecs),Time(UTC),GPS Satellite Acquisition Flag 1,GPS Satellite Acquisition Flag 2,GPS Satellite Acquisition Flag 3,GPS Satellite Acquisition Flag 4,GPS Satellite Acquisition Flag 5,GPS Satellite Acquisition Flag 6,GPS Satellite Acquisition Flag 7,GPS Satellite Acquisition Flag 8,GPS Satellite Acquisition Flag 9,GPS Satellite Acquisition Flag 10,GPS Satellite Acquisition Flag 11,GPS Satellite Acquisition Flag 12,GPS Satellite Azimuth 1(Degrees),GPS Satellite Azimuth 2(Degrees),GPS Satellite Azimuth 3(Degrees),GPS Satellite Azimuth 4(Degrees),GPS Satellite Azimuth 5(Degrees),GPS Satellite Azimuth 6(Degrees),GPS Satellite Azimuth 7(Degrees),GPS Satellite Azimuth 8(Degrees),GPS Satellite Azimuth 9(Degrees),GPS Satellite Azimuth 10(Degrees),GPS Satellite Azimuth 11(Degrees),GPS Satellite Azimuth 12(Degrees),GPS Satellite Elevation 1(Degrees),GPS Satellite Elevation 2(Degrees),GPS Satellite Elevation 3(Degrees),GPS Satellite Elevation 4(Degrees),GPS Satellite Elevation 5(Degrees),GPS Satellite Elevation 6(Degrees),GPS Satellite Elevation 7(Degrees),GPS Satellite Elevation 8(Degrees),GPS Satellite Elevation 9(Degrees),GPS Satellite Elevation 10(Degrees),GPS Satellite Elevation 11(Degrees),GPS Satellite Elevation 12(Degrees),GPS Satellite PRN 1,GPS Satellite PRN 2,GPS Satellite PRN 3,GPS Satellite PRN 4,GPS Satellite PRN 5,GPS Satellite PRN 6,GPS Satellite PRN 7,GPS Satellite PRN 8,GPS Satellite PRN 9,GPS Satellite PRN 10,GPS Satellite PRN 11,GPS Satellite PRN 12,GPS Satellite Signal Level 1(AMU),GPS Satellite Signal Level 2(AMU),GPS Satellite Signal Level 3(AMU),GPS Satellite Signal Level 4(AMU),GPS Satellite Signal Level 5(AMU),GPS Satellite Signal Level 6(AMU),GPS Satellite Signal Level 7(AMU),GPS Satellite Signal Level 8(AMU),GPS Satellite Signal Level 9(AMU),GPS Satellite Signal Level 10(AMU),GPS Satellite Signal Level 11(AMU),GPS Satellite Signal Level 12(AMU),
1572220818,2019-10-28 00:00:18.806,Acquired,Not acquired,Acquired,Acquired,Acquired,Acquired,Acquired,Acquired,Acquired,,,,8.970073599999999E1,4.7041636E1,6.5894716E1,2.9636713599999996E2,1.37028E2,2.89576896E2,1.95552192E2,3.045808E2,2.59607536E2,,,,2.9024189999999997E1,1.9175006E1,5.4293856E1,3.5945147999999996E1,3.1124229999999997E1,7.3623832E1,3.7028923999999996E1,2.2967551999999998E1,4.1490263999999996E1,,,,2,6,12,14,24,25,29,31,32,,,,6,1,4,5,12,4,14,2,12,,,,
1572220878,2019-10-28 00:01:18.806,Acquired,Not acquired,Acquired,Acquired,Acquired,Acquired,Acquired,Acquired,Acquired,,,,8.970073599999999E1,4.7041636E1,6.5894716E1,2.9636713599999996E2,1.37028E2,2.89576896E2,1.95552192E2,3.045808E2,2.59607536E2,,,,2.9024189999999997E1,1.9175006E1,5.4293856E1,3.5945147999999996E1,3.1124229999999997E1,7.3623832E1,3.7028923999999996E1,2.2967551999999998E1,4.1490263999999996E1,,,,2,6,12,14,24,25,29,31,32,,,,6,1,4,5,12,4,14,2,12,,,,
1572220938,2019-10-28 00:02:18.807,Acquired,Not acquired,Acquired,Acquired,Acquired,Acquired,Acquired,Acquired,Acquired,,,,8.970073599999999E1,4.7041636E1,6.5894716E1,2.9636713599999996E2,1.37028E2,2.89576896E2,1.95552192E2,3.045808E2,2.59607536E2,,,,2.9024189999999997E1,1.9175006E1,5.4293856E1,3.5945147999999996E1,3.1124229999999997E1,7.3623832E1,3.7028923999999996E1,2.2967551999999998E1,4.1490263999999996E1,,,,2,6,12,14,24,25,29,31,32,,,,6,1,4,5,12,4,14,2,12,,,,
1572220998,2019-10-28 00:03:18.806,Acquired,Acquired,Acquired,Acquired,Acquired,Acquired,Acquired,Not acquired,Acquired,,,,8.923584E1,4.6614612E1,6.6215632E1,2.9586192E2,1.37215024E2,2.9069046399999996E2,1.95618224E2,3.04645824E2,2.59016592E2,,,,2.9205254E1,1.9083489999999998E1,5.3862752E1,3.6085012E1,3.0689638E1,7.4005832E1,3.7522104E1,2.3381359999999997E1,4.1307131999999996E1,,,,2,6,12,14,24,25,29,31,32,,,,8,2,5,8,12,10,13,2,5,,,,
1572221058,2019-10-28 00:04:18.807,Acquired,Acquired,Acquired,Acquired,Acquired,Acquired,Acquired,Not acquired,Acquired,,,,8.923584E1,4.6614612E1,6.6215632E1,2.9586192E2,1.37215024E2,2.9069046399999996E2,1.95618224E2,3.04645824E2,2.59016592E2,,,,2.9205254E1,1.9083489999999998E1,5.3862752E1,3.6085012E1,3.0689638E1,7.4005832E1,3.7522104E1,2.3381359999999997E1,4.1307131999999996E1,,,,2,6,12,14,24,25,29,31,32,,,,8,2,5,8,12,10,13,2,5,,,,
1572221118,2019-10-28 00:05:18.806,Acquired,Acquired,Acquired,Acquired,Acquired,Acquired,Acquired,Not acquired,Acquired,,,,8.923584E1,4.6614612E1,6.6215632E1,2.9586192E2,1.37215024E2,2.9069046399999996E2,1.95618224E2,3.04645824E2,2.59016592E2,,,,2.9205254E1,1.9083489999999998E1,5.3862752E1,3.6085012E1,3.0689638E1,7.4005832E1,3.7522104E1,2.3381359999999997E1,4.1307131999999996E1,,,,2,6,12,14,24,25,29,31,32,,,,8,2,5,8,12,10,13,2,5,,,,
1572221178,2019-10-28 00:06:18.806,Acquired,Acquired,Acquired,Acquired,Acquired,Acquired,Acquired,Not acquired,Acquired,,,,8.923584E1,4.6614612E1,6.6215632E1,2.9586192E2,1.37215024E2,2.9069046399999996E2,1.95618224E2,3.04645824E2,2.59016592E2,,,,2.9205254E1,1.9083489999999998E1,5.3862752E1,3.6085012E1,3.0689638E1,7.4005832E1,3.7522104E1,2.3381359999999997E1,4.1307131999999996E1,,,,2,6,12,14,24,25,29,31,32,,,,8,2,5,8,12,10,13,2,5,,,,
1572221238,2019-10-28 00:07:18.806,Acquired,Acquired,Acquired,Acquired,Acquired,Acquired,Acquired,Not acquired,Acquired,,,,8.923584E1,4.6614612E1,6.6215632E1,2.9586192E2,1.37215024E2,2.9069046399999996E2,1.95618224E2,3.04645824E2,2.59016592E2,,,,2.9205254E1,1.9083489999999998E1,5.3862752E1,3.6085012E1,3.0689638E1,7.4005832E1,3.7522104E1,2.3381359999999997E1,4.1307131999999996E1,,,,2,6,12,14,24,25,29,31,32,,,,8,2,5,8,12,10,13,2,5,,,,
1572221298,2019-10-28 00:08:18.806,Acquired,Acquired,Acquired,Acquired,Acquired,Acquired,Acquired,Not acquired,Acquired,,,,8.923584E1,4.6614612E1,6.6215632E1,2.9586192E2,1.37215024E2,2.9069046399999996E2,1.95618224E2,3.04645824E2,2.59016592E2,,,,2.9205254E1,1.9083489999999998E1,5.3862752E1,3.6085012E1,3.0689638E1,7.4005832E1,3.7522104E1,2.3381359999999997E1,4.1307131999999996E1,,,,2,6,12,14,24,25,29,31,32,,,,8,2,5,8,12,10,13,2,5,,,,
1572221358,2019-10-28 00:09:18.809,Acquired,Acquired,Acquired,Acquired,Acquired,Acquired,Acquired,Not acquired,Acquired,,,,8.923584E1,4.6614612E1,6.6215632E1,2.9586192E2,1.37215024E2,2.9069046399999996E2,1.95618224E2,3.04645824E2,2.59016592E2,,,,2.9205254E1,1.9083489999999998E1,5.3862752E1,3.6085012E1,3.0689638E1,7.4005832E1,3.7522104E1,2.3381359999999997E1,4.1307131999999996E1,,,,2,6,12,14,24,25,29,31,32,,,,8,2,5,8,12,10,13,2,5,,,,
1572221418,2019-10-28 00:10:18.806,Acquired,Acquired,Acquired,Acquired,Acquired,Acquired,Acquired,Not acquired,Acquired,,,,8.923584E1,4.6614612E1,6.6215632E1,2.9586192E2,1.37215024E2,2.9069046399999996E2,1.95618224E2,3.04645824E2,2.59016592E2,,,,2.9205254E1,1.9083489999999998E1,5.3862752E1,3.6085012E1,3.0689638E1,7.4005832E1,3.7522104E1,2.3381359999999997E1,4.1307131999999996E1,,,,2,6,12,14,24,25,29,31,32,,,,8,2,5,8,12,10,13,2,5,,,,
1572221478,2019-10-28 00:11:18.806,Acquired,Acquired,Acquired,Acquired,Acquired,Acquired,Acquired,Not acquired,Acquired,,,,8.923584E1,4.6614612E1,6.6215632E1,2.9586192E2,1.37215024E2,2.9069046399999996E2,1.95618224E2,3.04645824E2,2.59016592E2,,,,2.9205254E1,1.9083489999999998E1,5.3862752E1,3.6085012E1,3.0689638E1,7.4005832E1,3.7522104E1,2.3381359999999997E1,4.1307131999999996E1,,,,2,6,12,14,24,25,29,31,32,,,,8,2,5,8,12,10,13,2,5,,,,
1572221538,2019-10-28 00:12:18.806,Acquired,Acquired,Acquired,Acquired,Acquired,Acquired,Acquired,Not acquired,Acquired,,,,8.923584E1,4.6614612E1,6.6215632E1,2.9586192E2,1.37215024E2,2.9069046399999996E2,1.95618224E2,3.04645824E2,2.59016592E2,,,,2.9205254E1,1.9083489999999998E1,5.3862752E1,3.6085012E1,3.0689638E1,7.4005832E1,3.7522104E1,2.3381359999999997E1,4.1307131999999996E1,,,,2,6,12,14,24,25,29,31,32,,,,8,2,5,8,12,10,13,2,5,,,,
1572221598,2019-10-28 00:13:18.806,Acquired,Acquired,Acquired,Acquired,Acquired,Acquired,Acquired,Not acquired,Acquired,,,,8.923584E1,4.6614612E1,6.6215632E1,2.9586192E2,1.37215024E2,2.9069046399999996E2,1.95618224E2,3.04645824E2,2.59016592E2,,,,2.9205254E1,1.9083489999999998E1,5.3862752E1,3.6085012E1,3.0689638E1,7.4005832E1,3.7522104E1,2.3381359999999997E1,4.1307131999999996E1,,,,2,6,12,14,24,25,29,31,32,,,,8,2,5,8,12,10,13,2,5,,,,
1572221658,2019-10-28 00:14:18.806,Acquired,Acquired,Acquired,Acquired,Acquired,Acquired,Acquired,Not acquired,Acquired,,,,8.923584E1,4.6614612E1,6.6215632E1,2.9586192E2,1.37215024E2,2.9069046399999996E2,1.95618224E2,3.04645824E2,2.59016592E2,,,,2.9205254E1,1.9083489999999998E1,5.3862752E1,3.6085012E1,3.0689638E1,7.4005832E1,3.7522104E1,2.3381359999999997E1,4.1307131999999996E1,,,,2,6,12,14,24,25,29,31,32,,,,8,2,5,8,12,10,13,2,5,,,,
1572221718,2019-10-28 00:15:18.806,Acquired,Acquired,Acquired,Acquired,Acquired,Acquired,Acquired,Not acquired,Acquired,,,,8.923584E1,4.6614612E1,6.6215632E1,2.9586192E2,1.37215024E2,2.9069046399999996E2,1.95618224E2,3.04645824E2,2.59016592E2,,,,2.9205254E1,1.9083489999999998E1,5.3862752E1,3.6085012E1,3.0689638E1,7.4005832E1,3.7522104E1,2.3381359999999997E1,4.1307131999999996E1,,,,2,6,12,14,24,25,29,31,32,,,,8,2,5,8,12,10,13,2,5,,,,
1572221778,2019-10-28 00:16:18.806,Acquired,Acquired,Acquired,Acquired,Acquired,Acquired,Acquired,Not acquired,Acquired,,,,8.923584E1,4.6614612E1,6.6215632E1,2.9586192E2,1.37215024E2,2.9069046399999996E2,1.95618224E2,3.04645824E2,2.59016592E2,,,,2.9205254E1,1.9083489999999998E1,5.3862752E1,3.6085012E1,3.0689638E1,7.4005832E1,3.7522104E1,2.3381359999999997E1,4.1307131999999996E1,,,,2,6,12,14,24,25,29,31,32,,,,8,2,5,8,12,10,13,2,5,,,,
1572221838,2019-10-28 00:17:18.808,Acquired,Acquired,Acquired,Acquired,Acquired,Acquired,Acquired,Not acquired,Acquired,,,,8.923584E1,4.6614612E1,6.6215632E1,2.9586192E2,1.37215024E2,2.9069046399999996E2,1.95618224E2,3.04645824E2,2.59016592E2,,,,2.9205254E1,1.9083489999999998E1,5.3862752E1,3.6085012E1,3.0689638E1,7.4005832E1,3.7522104E1,2.3381359999999997E1,4.1307131999999996E1,,,,2,6,12,14,24,25,29,31,32,,,,8,2,5,8,12,10,13,2,5,,,,
1572221898,2019-10-28 00:18:18.806,Acquired,Acquired,Acquired,Acquired,Acquired,Acquired,Acquired,Not acquired,Acquired,,,,8.923584E1,4.6614612E1,6.6215632E1,2.9586192E2,1.37215024E2,2.9069046399999996E2,1.95618224E2,3.04645824E2,2.59016592E2,,,,2.9205254E1,1.9083489999999998E1,5.3862752E1,3.6085012E1,3.0689638E1,7.4005832E1,3.7522104E1,2.3381359999999997E1,4.1307131999999996E1,,,,2,6,12,14,24,25,29,31,32,,,,8,2,5,8,12,10,13,2,5,,,,
1572221958,2019-10-28 00:19:18.806,Acquired,Acquired,Acquired,Acquired,Acquired,Acquired,Acquired,Not acquired,Acquired,,,,8.923584E1,4.6614612E1,6.6215632E1,2.9586192E2,1.37215024E2,2.9069046399999996E2,1.95618224E2,3.04645824E2,2.59016592E2,,,,2.9205254E1,1.9083489999999998E1,5.3862752E1,3.6085012E1,3.0689638E1,7.4005832E1,3.7522104E1,2.3381359999999997E1,4.1307131999999996E1,,,,2,6,12,14,24,25,29,31,32,,,,8,2,5,8,12,10,13,2,5,,,,
1572222018,2019-10-28 00:20:18.809,Acquired,Acquired,Acquired,Acquired,Acquired,Acquired,Acquired,Not acquired,Acquired,,,,8.923584E1,4.6614612E1,6.6215632E1,2.9586192E2,1.37215024E2,2.9069046399999996E2,1.95618224E2,3.04645824E2,2.59016592E2,,,,2.9205254E1,1.9083489999999998E1,5.3862752E1,3.6085012E1,3.0689638E1,7.4005832E1,3.7522104E1,2.3381359999999997E1,4.1307131999999996E1,,,,2,6,12,14,24,25,29,31,32,,,,8,2,5,8,12,10,13,2,5,,,,
1572222078,2019-10-28 00:21:18.845,Acquired,Acquired,Acquired,Acquired,Acquired,Acquired,Acquired,Not acquired,Acquired,,,,8.923584E1,4.6614612E1,6.6215632E1,2.9586192E2,1.37215024E2,2.9069046399999996E2,1.95618224E2,3.04645824E2,2.59016592E2,,,,2.9205254E1,1.9083489999999998E1,5.3862752E1,3.6085012E1,3.0689638E1,7.4005832E1,3.7522104E1,2.3381359999999997E1,4.1307131999999996E1,,,,2,6,12,14,24,25,29,31,32,,,,8,2,5,8,12,10,13,2,5,,,,
1572222138,2019-10-28 00:22:18.806,Acquired,Acquired,Acquired,Acquired,Acquired,Acquired,Acquired,Not acquired,Acquired,,,,8.923584E1,4.6614612E1,6.6215632E1,2.9586192E2,1.37215024E2,2.9069046399999996E2,1.95618224E2,3.04645824E2,2.59016592E2,,,,2.9205254E1,1.9083489999999998E1,5.3862752E1,3.6085012E1,3.0689638E1,7.4005832E1,3.7522104E1,2.3381359999999997E1,4.1307131999999996E1,,,,2,6,12,14,24,25,29,31,32,,,,8,2,5,8,12,10,13,2,5,,,,
1572222198,2019-10-28 00:23:18.806,Acquired,Acquired,Acquired,Acquired,Acquired,Acquired,Acquired,Not acquired,Acquired,,,,8.923584E1,4.6614612E1,6.6215632E1,2.9586192E2,1.37215024E2,2.9069046399999996E2,1.95618224E2,3.04645824E2,2.59016592E2,,,,2.9205254E1,1.9083489999999998E1,5.3862752E1,3.6085012E1,3.0689638E1,7.4005832E1,3.7522104E1,2.3381359999999997E1,4.1307131999999996E1,,,,2,6,12,14,24,25,29,31,32,,,,8,2,5,8,12,10,13,2,5,,,,
1572222258,2019-10-28 00:24:18.806,Acquired,Acquired,Acquired,Acquired,Acquired,Acquired,Acquired,Not acquired,Acquired,,,,8.923584E1,4.6614612E1,6.6215632E1,2.9586192E2,1.37215024E2,2.9069046399999996E2,1.95618224E2,3.04645824E2,2.59016592E2,,,,2.9205254E1,1.9083489999999998E1,5.3862752E1,3.6085012E1,3.0689638E1,7.4005832E1,3.7522104E1,2.3381359999999997E1,4.1307131999999996E1,,,,2,6,12,14,24,25,29,31,32,,,,8,2,5,8,12,10,13,2,5,,,,
1572222318,2019-10-28 00:25:18.806,Acquired,Acquired,Acquired,Acquired,Acquired,Acquired,Acquired,Not acquired,Acquired,,,,8.923584E1,4.6614612E1,6.6215632E1,2.9586192E2,1.37215024E2,2.9069046399999996E2,1.95618224E2,3.04645824E2,2.59016592E2,,,,2.9205254E1,1.9083489999999998E1,5.3862752E1,3.6085012E1,3.0689638E1,7.4005832E1,3.7522104E1,2.3381359999999997E1,4.1307131999999996E1,,,,2,6,12,14,24,25,29,31,32,,,,8,2,5,8,12,10,13,2,5,,,,
1572222378,2019-10-28 00:26:18.845,Acquired,Acquired,Acquired,Acquired,Acquired,Acquired,Acquired,Not acquired,Acquired,,,,8.923584E1,4.6614612E1,6.6215632E1,2.9586192E2,1.37215024E2,2.9069046399999996E2,1.95618224E2,3.04645824E2,2.59016592E2,,,,2.9205254E1,1.9083489999999998E1,5.3862752E1,3.6085012E1,3.0689638E1,7.4005832E1,3.7522104E1,2.3381359999999997E1,4.1307131999999996E1,,,,2,6,12,14,24,25,29,31,32,,,,8,2,5,8,12,10,13,2,5,,,,
1572222438,2019-10-28 00:27:18.806,Acquired,Acquired,Acquired,Acquired,Acquired,Acquired,Acquired,Not acquired,Acquired,,,,8.923584E1,4.6614612E1,6.6215632E1,2.9586192E2,1.37215024E2,2.9069046399999996E2,1.95618224E2,3.04645824E2,2.59016592E2,,,,2.9205254E1,1.9083489999999998E1,5.3862752E1,3.6085012E1,3.0689638E1,7.4005832E1,3.7522104E1,2.3381359999999997E1,4.1307131999999996E1,,,,2,6,12,14,24,25,29,31,32,,,,8,2,5,8,12,10,13,2,5,,,,
1572222498,2019-10-28 00:28:18.806,Acquired,Acquired,Acquired,Acquired,Acquired,Acquired,Acquired,Not acquired,Acquired,,,,8.923584E1,4.6614612E1,6.6215632E1,2.9586192E2,1.37215024E2,2.9069046399999996E2,1.95618224E2,3.04645824E2,2.59016592E2,,,,2.9205254E1,1.9083489999999998E1,5.3862752E1,3.6085012E1,3.0689638E1,7.4005832E1,3.7522104E1,2.3381359999999997E1,4.1307131999999996E1,,,,2,6,12,14,24,25,29,31,32,,,,8,2,5,8,12,10,13,2,5,,,,
1572222558,2019-10-28 00:29:18.806,Acquired,Acquired,Acquired,Acquired,Acquired,Acquired,Acquired,Not acquired,Acquired,,,,8.923584E1,4.6614612E1,6.6215632E1,2.9586192E2,1.37215024E2,2.9069046399999996E2,1.95618224E2,3.04645824E2,2.59016592E2,,,,2.9205254E1,1.9083489999999998E1,5.3862752E1,3.6085012E1,3.0689638E1,7.4005832E1,3.7522104E1,2.3381359999999997E1,4.1307131999999996E1,,,,2,6,12,14,24,25,29,31,32,,,,8,2,5,8,12,10,13,2,5,,,,
1572222618,2019-10-28 00:30:18.806,Acquired,Acquired,Acquired,Acquired,Acquired,Acquired,Acquired,Not acquired,Acquired,,,,8.923584E1,4.6614612E1,6.6215632E1,2.9586192E2,1.37215024E2,2.9069046399999996E2,1.95618224E2,3.04645824E2,2.59016592E2,,,,2.9205254E1,1.9083489999999998E1,5.3862752E1,3.6085012E1,3.0689638E1,7.4005832E1,3.7522104E1,2.3381359999999997E1,4.1307131999999996E1,,,,2,6,12,14,24,25,29,31,32,,,,8,2,5,8,12,10,13,2,5,,,,
1572222678,2019-10-28 00:31:18.806,Acquired,Acquired,Acquired,Acquired,Acquired,Acquired,Acquired,Not acquired,Acquired,,,,8.923584E1,4.6614612E1,6.6215632E1,2.9586192E2,1.37215024E2,2.9069046399999996E2,1.95618224E2,3.04645824E2,2.59016592E2,,,,2.9205254E1,1.9083489999999998E1,5.3862752E1,3.6085012E1,3.0689638E1,7.4005832E1,3.7522104E1,2.3381359999999997E1,4.1307131999999996E1,,,,2,6,12,14,24,25,29,31,32,,,,8,2,5,8,12,10,13,2,5,,,,
1572222738,2019-10-28 00:32:18.806,Acquired,Acquired,Acquired,Acquired,Acquired,Acquired,Acquired,Not acquired,Acquired,,,,8.923584E1,4.6614612E1,6.6215632E1,2.9586192E2,1.37215024E2,2.9069046399999996E2,1.95618224E2,3.04645824E2,2.59016592E2,,,,2.9205254E1,1.9083489999999998E1,5.3862752E1,3.6085012E1,3.0689638E1,7.4005832E1,3.7522104E1,2.3381359999999997E1,4.1307131999999996E1,,,,2,6,12,14,24,25,29,31,32,,,,8,2,5,8,12,10,13,2,5,,,,
1572222798,2019-10-28 00:33:18.806,Acquired,Acquired,Acquired,Acquired,Acquired,Acquired,Acquired,Not acquired,Acquired,,,,8.923584E1,4.6614612E1,6.6215632E1,2.9586192E2,1.37215024E2,2.9069046399999996E2,1.95618224E2,3.04645824E2,2.59016592E2,,,,2.9205254E1,1.9083489999999998E1,5.3862752E1,3.6085012E1,3.0689638E1,7.4005832E1,3.7522104E1,2.3381359999999997E1,4.1307131999999996E1,,,,2,6,12,14,24,25,29,31,32,,,,8,2,5,8,12,10,13,2,5,,,,
1572222858,2019-10-28 00:34:18.807,Acquired,Acquired,Acquired,Acquired,Acquired,Acquired,Acquired,Not acquired,Acquired,,,,8.923584E1,4.6614612E1,6.6215632E1,2.9586192E2,1.37215024E2,2.9069046399999996E2,1.95618224E2,3.04645824E2,2.59016592E2,,,,2.9205254E1,1.9083489999999998E1,5.3862752E1,3.6085012E1,3.0689638E1,7.4005832E1,3.7522104E1,2.3381359999999997E1,4.1307131999999996E1,,,,2,6,12,14,24,25,29,31,32,,,,8,2,5,8,12,10,13,2,5,,,,
1572222918,2019-10-28 00:35:18.806,Acquired,Acquired,Acquired,Acquired,Acquired,Acquired,Acquired,Not acquired,Acquired,,,,8.923584E1,4.6614612E1,6.6215632E1,2.9586192E2,1.37215024E2,2.9069046399999996E2,1.95618224E2,3.04645824E2,2.59016592E2,,,,2.9205254E1,1.9083489999999998E1,5.3862752E1,3.6085012E1,3.0689638E1,7.4005832E1,3.7522104E1,2.3381359999999997E1,4.1307131999999996E1,,,,2,6,12,14,24,25,29,31,32,,,,8,2,5,8,12,10,13,2,5,,,,
1572222978,2019-10-28 00:36:18.806,Acquired,Acquired,Acquired,Acquired,Acquired,Acquired,Acquired,Not acquired,Acquired,,,,8.923584E1,4.6614612E1,6.6215632E1,2.9586192E2,1.37215024E2,2.9069046399999996E2,1.95618224E2,3.04645824E2,2.59016592E2,,,,2.9205254E1,1.9083489999999998E1,5.3862752E1,3.6085012E1,3.0689638E1,7.4005832E1,3.7522104E1,2.3381359999999997E1,4.1307131999999996E1,,,,2,6,12,14,24,25,29,31,32,,,,8,2,5,8,12,10,13,2,5,,,,
1572223038,2019-10-28 00:37:18.806,Acquired,Acquired,Acquired,Acquired,Acquired,Acquired,Acquired,Not acquired,Acquired,,,,8.923584E1,4.6614612E1,6.6215632E1,2.9586192E2,1.37215024E2,2.9069046399999996E2,1.95618224E2,3.04645824E2,2.59016592E2,,,,2.9205254E1,1.9083489999999998E1,5.3862752E1,3.6085012E1,3.0689638E1,7.4005832E1,3.7522104E1,2.3381359999999997E1,4.1307131999999996E1,,,,2,6,12,14,24,25,29,31,32,,,,8,2,5,8,12,10,13,2,5,,,,
1572223098,2019-10-28 00:38:18.806,Acquired,Acquired,Acquired,Acquired,Acquired,Acquired,Acquired,Not acquired,Acquired,,,,8.923584E1,4.6614612E1,6.6215632E1,2.9586192E2,1.37215024E2,2.9069046399999996E2,1.95618224E2,3.04645824E2,2.59016592E2,,,,2.9205254E1,1.9083489999999998E1,5.3862752E1,3.6085012E1,3.0689638E1,7.4005832E1,3.7522104E1,2.3381359999999997E1,4.1307131999999996E1,,,,2,6,12,14,24,25,29,31,32,,,,8,2,5,8,12,10,13,2,5,,,,
1572223158,2019-10-28 00:39:18.806,Acquired,Acquired,Acquired,Acquired,Acquired,Acquired,Acquired,Not acquired,Acquired,,,,8.923584E1,4.6614612E1,6.6215632E1,2.9586192E2,1.37215024E2,2.9069046399999996E2,1.95618224E2,3.04645824E2,2.59016592E2,,,,2.9205254E1,1.9083489999999998E1,5.3862752E1,3.6085012E1,3.0689638E1,7.4005832E1,3.7522104E1,2.3381359999999997E1,4.1307131999999996E1,,,,2,6,12,14,24,25,29,31,32,,,,8,2,5,8,12,10,13,2,5,,,,
1572223218,2019-10-28 00:40:18.806,Acquired,Acquired,Acquired,Acquired,Acquired,Acquired,Acquired,Not acquired,Acquired,,,,8.923584E1,4.6614612E1,6.6215632E1,2.9586192E2,1.37215024E2,2.9069046399999996E2,1.95618224E2,3.04645824E2,2.59016592E2,,,,2.9205254E1,1.9083489999999998E1,5.3862752E1,3.6085012E1,3.0689638E1,7.4005832E1,3.7522104E1,2.3381359999999997E1,4.1307131999999996E1,,,,2,6,12,14,24,25,29,31,32,,,,8,2,5,8,12,10,13,2,5,,,,
1572223278,2019-10-28 00:41:18.806,Acquired,Acquired,Acquired,Acquired,Acquired,Acquired,Acquired,Not acquired,Acquired,,,,8.923584E1,4.6614612E1,6.6215632E1,2.9586192E2,1.37215024E2,2.9069046399999996E2,1.95618224E2,3.04645824E2,2.59016592E2,,,,2.9205254E1,1.9083489999999998E1,5.3862752E1,3.6085012E1,3.0689638E1,7.4005832E1,3.7522104E1,2.3381359999999997E1,4.1307131999999996E1,,,,2,6,12,14,24,25,29,31,32,,,,8,2,5,8,12,10,13,2,5,,,,
1572223338,2019-10-28 00:42:18.806,Acquired,Acquired,Acquired,Acquired,Acquired,Acquired,Acquired,Not acquired,Acquired,,,,8.923584E1,4.6614612E1,6.6215632E1,2.9586192E2,1.37215024E2,2.9069046399999996E2,1.95618224E2,3.04645824E2,2.59016592E2,,,,2.9205254E1,1.9083489999999998E1,5.3862752E1,3.6085012E1,3.0689638E1,7.4005832E1,3.7522104E1,2.3381359999999997E1,4.1307131999999996E1,,,,2,6,12,14,24,25,29,31,32,,,,8,2,5,8,12,10,13,2,5,,,,
1572223398,2019-10-28 00:43:18.806,Acquired,Acquired,Acquired,Acquired,Acquired,Acquired,Acquired,Not acquired,Acquired,,,,8.923584E1,4.6614612E1,6.6215632E1,2.9586192E2,1.37215024E2,2.9069046399999996E2,1.95618224E2,3.04645824E2,2.59016592E2,,,,2.9205254E1,1.9083489999999998E1,5.3862752E1,3.6085012E1,3.0689638E1,7.4005832E1,3.7522104E1,2.3381359999999997E1,4.1307131999999996E1,,,,2,6,12,14,24,25,29,31,32,,,,8,2,5,8,12,10,13,2,5,,,,
1572223458,2019-10-28 00:44:18.807,Acquired,Acquired,Acquired,Acquired,Acquired,Acquired,Acquired,Not acquired,Acquired,,,,8.923584E1,4.6614612E1,6.6215632E1,2.9586192E2,1.37215024E2,2.9069046399999996E2,1.95618224E2,3.04645824E2,2.59016592E2,,,,2.9205254E1,1.9083489999999998E1,5.3862752E1,3.6085012E1,3.0689638E1,7.4005832E1,3.7522104E1,2.3381359999999997E1,4.1307131999999996E1,,,,2,6,12,14,24,25,29,31,32,,,,8,2,5,8,12,10,13,2,5,,,,
1572223518,2019-10-28 00:45:18.807,Acquired,Acquired,Acquired,Acquired,Acquired,Acquired,Acquired,Not acquired,Not acquired,Not acquired,,,6.5200912E1,8.1004632E1,2.69038752E2,4.549456E1,1.98089936E2,3.0285328E2,2.3640500799999998E2,2.9296256E1,1.44574144E2,2.75099808E2,,,3.2178548E1,3.4019904E1,3.575116E1,7.8174848E1,6.2126424E1,4.3811164E1,2.7378304E1,9.817503E0,1.0346214E1,6.615646E0,,,2,12,14,25,29,31,32,6,24,26,,,12,11,9,4,13,3,7,0,0,0,,,
1572223578,2019-10-28 00:46:18.807,Acquired,Not acquired,Acquired,Acquired,Acquired,Acquired,Acquired,Not acquired,Not acquired,,,,4.7878392E1,9.296103199999999E1,2.49605472E2,8.522671199999999E1,2.84745248E2,1.78685488E2,2.8588383999999996E2,1.78590896E2,2.2414593599999998E2,,,,2.5415537999999998E1,1.8422378E1,2.5826421999999997E1,6.2250992E1,2.184736E1,8.2879904E1,5.9236332E1,1.0377737999999999E1,1.2104439E1,,,,2,12,14,25,26,29,31,21,32,,,,6,3,7,8,3,8,8,0,0,,,,
1572223638,2019-10-28 00:47:18.806,Acquired,Not acquired,Acquired,Acquired,Acquired,Acquired,Acquired,Not acquired,Not acquired,,,,4.7878392E1,9.296103199999999E1,2.49605472E2,8.522671199999999E1,2.84745248E2,1.78685488E2,2.8588383999999996E2,1.78590896E2,2.2414593599999998E2,,,,2.5415537999999998E1,1.8422378E1,2.5826421999999997E1,6.2250992E1,2.184736E1,8.2879904E1,5.9236332E1,1.0377737999999999E1,1.2104439E1,,,,2,12,14,25,26,29,31,21,32,,,,6,3,7,8,3,8,8,0,0,,,,
1572223698,2019-10-28 00:48:18.806,Acquired,Not acquired,Acquired,Acquired,Acquired,Acquired,Acquired,Not acquired,Not acquired,,,,4.7878392E1,9.296103199999999E1,2.49605472E2,8.522671199999999E1,2.84745248E2,1.78685488E2,2.8588383999999996E2,1.78590896E2,2.2414593599999998E2,,,,2.5415537999999998E1,1.8422378E1,2.5826421999999997E1,6.2250992E1,2.184736E1,8.2879904E1,5.9236332E1,1.0377737999999999E1,1.2104439E1,,,,2,12,14,25,26,29,31,21,32,,,,6,3,7,8,3,8,8,0,0,,,,
1572223758,2019-10-28 00:49:18.806,Acquired,Not acquired,Acquired,Acquired,Acquired,Acquired,Acquired,Not acquired,Not acquired,,,,4.7878392E1,9.296103199999999E1,2.49605472E2,8.522671199999999E1,2.84745248E2,1.78685488E2,2.8588383999999996E2,1.78590896E2,2.2414593599999998E2,,,,2.5415537999999998E1,1.8422378E1,2.5826421999999997E1,6.2250992E1,2.184736E1,8.2879904E1,5.9236332E1,1.0377737999999999E1,1.2104439E1,,,,2,12,14,25,26,29,31,21,32,,,,6,3,7,8,3,8,8,0,0,,,,
1572223818,2019-10-28 00:50:18.807,Acquired,Not acquired,Acquired,Acquired,Acquired,Acquired,Acquired,Not acquired,Not acquired,,,,4.7878392E1,9.296103199999999E1,2.49605472E2,8.522671199999999E1,2.84745248E2,1.78685488E2,2.8588383999999996E2,1.78590896E2,2.2414593599999998E2,,,,2.5415537999999998E1,1.8422378E1,2.5826421999999997E1,6.2250992E1,2.184736E1,8.2879904E1,5.9236332E1,1.0377737999999999E1,1.2104439E1,,,,2,12,14,25,26,29,31,21,32,,,,6,3,7,8,3,8,8,0,0,,,,
1572223878,2019-10-28 00:51:18.807,Acquired,Not acquired,Acquired,Acquired,Acquired,Acquired,Acquired,Not acquired,Not acquired,,,,4.7878392E1,9.296103199999999E1,2.49605472E2,8.522671199999999E1,2.84745248E2,1.78685488E2,2.8588383999999996E2,1.78590896E2,2.2414593599999998E2,,,,2.5415537999999998E1,1.8422378E1,2.5826421999999997E1,6.2250992E1,2.184736E1,8.2879904E1,5.9236332E1,1.0377737999999999E1,1.2104439E1,,,,2,12,14,25,26,29,31,21,32,,,,6,3,7,8,3,8,8,0,0,,,,
1572223938,2019-10-28 00:52:18.806,Acquired,Not acquired,Acquired,Acquired,Acquired,Acquired,Acquired,Not acquired,Not acquired,,,,4.7878392E1,9.296103199999999E1,2.49605472E2,8.522671199999999E1,2.84745248E2,1.78685488E2,2.8588383999999996E2,1.78590896E2,2.2414593599999998E2,,,,2.5415537999999998E1,1.8422378E1,2.5826421999999997E1,6.2250992E1,2.184736E1,8.2879904E1,5.9236332E1,1.0377737999999999E1,1.2104439E1,,,,2,12,14,25,26,29,31,21,32,,,,6,3,7,8,3,8,8,0,0,,,,
1572223998,2019-10-28 00:53:18.806,Acquired,Not acquired,Acquired,Acquired,Acquired,Acquired,Acquired,Not acquired,Not acquired,,,,4.7878392E1,9.296103199999999E1,2.49605472E2,8.522671199999999E1,2.84745248E2,1.78685488E2,2.8588383999999996E2,1.78590896E2,2.2414593599999998E2,,,,2.5415537999999998E1,1.8422378E1,2.5826421999999997E1,6.2250992E1,2.184736E1,8.2879904E1,5.9236332E1,1.0377737999999999E1,1.2104439E1,,,,2,12,14,25,26,29,31,21,32,,,,6,3,7,8,3,8,8,0,0,,,,
1572224058,2019-10-28 00:54:18.809,Acquired,Not acquired,Acquired,Acquired,Acquired,Acquired,Acquired,Not acquired,Not acquired,,,,4.7878392E1,9.296103199999999E1,2.49605472E2,8.522671199999999E1,2.84745248E2,1.78685488E2,2.8588383999999996E2,1.78590896E2,2.2414593599999998E2,,,,2.5415537999999998E1,1.8422378E1,2.5826421999999997E1,6.2250992E1,2.184736E1,8.2879904E1,5.9236332E1,1.0377737999999999E1,1.2104439E1,,,,2,12,14,25,26,29,31,21,32,,,,6,3,7,8,3,8,8,0,0,,,,
1572224118,2019-10-28 00:55:18.806,Acquired,Not acquired,Acquired,Acquired,Acquired,Acquired,Acquired,Not acquired,Not acquired,,,,4.7878392E1,9.296103199999999E1,2.49605472E2,8.522671199999999E1,2.84745248E2,1.78685488E2,2.8588383999999996E2,1.78590896E2,2.2414593599999998E2,,,,2.5415537999999998E1,1.8422378E1,2.5826421999999997E1,6.2250992E1,2.184736E1,8.2879904E1,5.9236332E1,1.0377737999999999E1,1.2104439E1,,,,2,12,14,25,26,29,31,21,32,,,,6,3,7,8,3,8,8,0,0,,,,
1572224178,2019-10-28 00:56:18.807,Acquired,Not acquired,Acquired,Acquired,Acquired,Acquired,Acquired,Not acquired,Not acquired,,,,4.7878392E1,9.296103199999999E1,2.49605472E2,8.522671199999999E1,2.84745248E2,1.78685488E2,2.8588383999999996E2,1.78590896E2,2.2414593599999998E2,,,,2.5415537999999998E1,1.8422378E1,2.5826421999999997E1,6.2250992E1,2.184736E1,8.2879904E1,5.9236332E1,1.0377737999999999E1,1.2104439E1,,,,2,12,14,25,26,29,31,21,32,,,,6,3,7,8,3,8,8,0,0,,,,
1572224238,2019-10-28 00:57:18.845,Acquired,Not acquired,Acquired,Acquired,Acquired,Acquired,Acquired,Not acquired,Not acquired,,,,4.7878392E1,9.296103199999999E1,2.49605472E2,8.522671199999999E1,2.84745248E2,1.78685488E2,2.8588383999999996E2,1.78590896E2,2.2414593599999998E2,,,,2.5415537999999998E1,1.8422378E1,2.5826421999999997E1,6.2250992E1,2.184736E1,8.2879904E1,5.9236332E1,1.0377737999999999E1,1.2104439E1,,,,2,12,14,25,26,29,31,21,32,,,,6,3,7,8,3,8,8,0,0,,,,
1572224298,2019-10-28 00:58:18.809,Acquired,Not acquired,Acquired,Acquired,Acquired,Acquired,Acquired,Not acquired,Not acquired,,,,4.7878392E1,9.296103199999999E1,2.49605472E2,8.522671199999999E1,2.84745248E2,1.78685488E2,2.8588383999999996E2,1.78590896E2,2.2414593599999998E2,,,,2.5415537999999998E1,1.8422378E1,2.5826421999999997E1,6.2250992E1,2.184736E1,8.2879904E1,5.9236332E1,1.0377737999999999E1,1.2104439E1,,,,2,12,14,25,26,29,31,21,32,,,,6,3,7,8,3,8,8,0,0,,,,
1572224358,2019-10-28 00:59:18.806,Acquired,Not acquired,Acquired,Acquired,Acquired,Acquired,Acquired,Not acquired,Not acquired,,,,4.7878392E1,9.296103199999999E1,2.49605472E2,8.522671199999999E1,2.84745248E2,1.78685488E2,2.8588383999999996E2,1.78590896E2,2.2414593599999998E2,,,,2.5415537999999998E1,1.8422378E1,2.5826421999999997E1,6.2250992E1,2.184736E1,8.2879904E1,5.9236332E1,1.0377737999999999E1,1.2104439E1,,,,2,12,14,25,26,29,31,21,32,,,,6,3,7,8,3,8,8,0,0,,,,
