Time(longsecs),Time(UTC),Supply Voltage(mV),Temperature(&deg;C),NMX Bus Current(mA),Sensor Current(mA),Serial Port Current(mA),Controller Current(mA),Digitizer Current(mA),
1572246018,2019-10-28 07:00:18.806,16237,1.3559692E1,0,6,0,33,38,
1572246078,2019-10-28 07:01:18.806,16237,1.3610443E1,0,6,0,39,36,
1572246138,2019-10-28 07:02:18.806,16223,1.3691467E1,0,8,0,42,39,
1572246198,2019-10-28 07:03:18.806,16237,1.3571564E1,0,4,0,38,37,
1572246258,2019-10-28 07:04:18.806,16237,1.3576965E1,0,6,0,40,37,
1572246318,2019-10-28 07:05:18.806,16250,1.3581268E1,0,9,0,40,36,
1572246378,2019-10-28 07:06:18.806,16210,1.3703339E1,0,8,0,66,35,
1572246438,2019-10-28 07:07:18.806,16264,1.3219421E1,0,8,0,67,40,
1572246498,2019-10-28 07:08:18.806,16223,1.3462463E1,0,7,0,54,40,
1572246558,2019-10-28 07:09:18.806,16237,1.3613678E1,0,6,0,34,37,
1572246618,2019-10-28 07:10:18.806,16237,1.3648254E1,0,4,0,39,35,
1572246678,2019-10-28 07:11:18.806,16128,1.3579132E1,0,4,0,40,35,
1572246738,2019-10-28 07:12:18.806,16250,1.3688232E1,0,4,0,34,34,
1572246798,2019-10-28 07:13:18.806,16250,1.3530518E1,0,5,0,33,41,
1572246858,2019-10-28 07:14:18.806,16237,1.3479736E1,0,7,0,33,38,
1572246918,2019-10-28 07:15:18.806,16237,1.3455963E1,0,9,0,47,37,
1572246978,2019-10-28 07:16:18.809,16237,1.3525116E1,0,9,0,45,35,
1572247038,2019-10-28 07:17:18.806,16264,1.3379272E1,0,4,0,39,37,
1572247098,2019-10-28 07:18:18.806,16237,1.3265869E1,23,4,0,54,37,
1572247158,2019-10-28 07:19:18.836,16250,1.3376038E1,0,7,0,62,38,
1572247218,2019-10-28 07:20:18.806,16237,1.3449493E1,0,8,0,59,35,
1572247278,2019-10-28 07:21:18.806,16250,1.3526184E1,0,8,0,66,37,
1572247338,2019-10-28 07:22:18.806,16264,1.3351196E1,0,9,0,33,38,
1572247398,2019-10-28 07:23:18.806,16264,1.3449493E1,0,3,0,35,35,
1572247458,2019-10-28 07:24:18.806,16319,1.343869E1,0,9,0,37,43,
1572247518,2019-10-28 07:25:18.806,16264,1.3404114E1,0,4,0,40,36,
1572247578,2019-10-28 07:26:18.841,16319,1.33619995E1,0,8,0,39,36,
1572247638,2019-10-28 07:27:18.806,16278,1.3653656E1,0,9,0,38,36,
1572247698,2019-10-28 07:28:18.806,16292,1.3558594E1,0,9,0,33,35,
1572247758,2019-10-28 07:29:18.809,16278,1.335553E1,0,7,0,33,37,
1572247818,2019-10-28 07:30:18.806,16292,1.3191315E1,0,7,0,33,35,
1572247878,2019-10-28 07:31:18.809,16292,1.332312E1,0,9,0,38,36,
1572247938,2019-10-28 07:32:18.806,16278,1.3526184E1,0,9,0,59,35,
1572247998,2019-10-28 07:33:18.806,16278,1.3428986E1,0,10,0,63,36,
1572248058,2019-10-28 07:34:18.806,16292,1.3229126E1,0,9,0,33,33,
1572248118,2019-10-28 07:35:18.806,16182,1.3509979E1,0,12,0,38,36,
1572248178,2019-10-28 07:36:18.806,16305,1.33619995E1,0,8,0,39,36,
1572248238,2019-10-28 07:37:18.806,16305,1.3300415E1,0,9,0,38,40,
1572248298,2019-10-28 07:38:18.807,16305,1.3314453E1,0,6,0,42,38,
1572248358,2019-10-28 07:39:18.807,16305,1.3398712E1,0,11,0,49,38,
1572248418,2019-10-28 07:40:18.806,16319,1.3450562E1,0,8,0,38,34,
1572248478,2019-10-28 07:41:18.809,16346,1.3443024E1,0,10,0,53,36,
1572248538,2019-10-28 07:42:18.806,16292,1.3212921E1,0,7,0,67,35,
1572248598,2019-10-28 07:43:18.806,16319,1.3328522E1,0,9,0,33,34,
1572248658,2019-10-28 07:44:18.806,16305,1.3363068E1,0,8,0,55,38,
1572248718,2019-10-28 07:45:18.806,16332,1.3379272E1,0,9,0,41,33,
1572248778,2019-10-28 07:46:18.806,16319,1.3273407E1,0,8,0,40,37,
1572248838,2019-10-28 07:47:18.806,16319,1.3296112E1,0,9,0,38,39,
1572248898,2019-10-28 07:48:18.806,16332,1.3343628E1,0,10,0,33,38,
1572248958,2019-10-28 07:49:18.806,16292,1.3319855E1,0,6,0,39,35,
1572249018,2019-10-28 07:50:18.806,16332,1.3326355E1,0,6,0,38,33,
1572249078,2019-10-28 07:51:18.806,16332,1.3433289E1,0,9,0,37,40,
1572249138,2019-10-28 07:52:18.807,16332,1.3404114E1,0,3,0,38,36,
1572249198,2019-10-28 07:53:18.809,16332,1.3350128E1,0,3,0,36,38,
1572249258,2019-10-28 07:54:18.809,16305,1.3325256E1,0,9,0,70,37,
1572249318,2019-10-28 07:55:18.806,16319,1.330365E1,0,6,0,67,33,
1572249378,2019-10-28 07:56:18.806,16346,1.3420319E1,0,3,0,38,36,
1572249438,2019-10-28 07:57:18.806,16346,1.3399811E1,0,11,0,38,35,
1572249498,2019-10-28 07:58:18.806,16319,1.3440857E1,0,9,0,34,39,
1572249558,2019-10-28 07:59:18.806,16360,1.318161E1,0,11,0,33,38,
