Time(longsecs),Time(UTC),External SOH Voltage 1(V),External SOH Voltage 2(V),External SOH Voltage 3(V),External SOH Voltage 4(V),Sensor SOH Voltage 1(V),Sensor SOH Voltage 2(V),Sensor SOH Voltage 3(V),
1572242418,2019-10-28 06:00:18.806,-1.2257338E-2,-1.2860298E-3,-5.329609E-3,-5.1164627E-3,2.4951935E-1,2.5183964E-1,2.4988556E-1,
1572242478,2019-10-28 06:01:18.809,-1.0382414E-2,6.77824E-4,-3.683567E-3,-2.866745E-3,2.5504684E-1,2.5949287E-1,2.575636E-1,
1572242538,2019-10-28 06:02:18.809,-7.560253E-3,3.0238628E-3,-1.2860298E-3,-5.0115585E-4,2.637787E-1,2.6882648E-1,2.636013E-1,
1572242598,2019-10-28 06:03:18.840,-1.2213469E-2,-9.133816E-4,-5.252838E-3,-4.704714E-3,2.5179005E-1,2.5339603E-1,2.5399303E-1,
1572242658,2019-10-28 06:04:18.806,-1.1831284E-2,-1.026392E-3,-5.161047E-3,-4.7814846E-3,2.5395966E-1,2.5898838E-1,2.551155E-1,
1572242718,2019-10-28 06:05:18.809,-1.0314941E-2,4.9352646E-4,-3.5703182E-3,-2.9492378E-3,2.548704E-1,2.568426E-1,2.5799847E-1,
1572242778,2019-10-28 06:06:18.806,-1.000905E-2,7.379055E-4,-3.2963753E-3,-3.2007694E-3,2.569313E-1,2.6131058E-1,2.5992966E-1,
1572242838,2019-10-28 06:07:18.806,-7.555008E-3,3.262043E-3,-1.3279915E-3,-1.0561943E-4,2.6159382E-1,2.6363468E-1,2.6490688E-1,
1572242898,2019-10-28 06:08:18.806,-7.97224E-3,2.6996136E-3,-1.0282993E-3,-5.555153E-4,2.6397324E-1,2.650013E-1,2.660551E-1,
1572242958,2019-10-28 06:09:18.806,-7.7376366E-3,2.4852753E-3,-9.1195107E-4,-5.8221817E-4,2.6135254E-1,2.5437832E-1,2.6434994E-1,
1572243018,2019-10-28 06:10:18.806,-9.669304E-3,1.219511E-3,-2.8336048E-3,-2.3179054E-3,2.576542E-1,2.5642395E-1,2.5936317E-1,
1572243078,2019-10-28 06:11:18.827,-1.0206938E-2,4.799366E-4,-3.4835339E-3,-3.0882359E-3,2.5690174E-1,2.5973606E-1,2.53747E-1,
1572243138,2019-10-28 06:12:18.809,-1.2243271E-2,-1.0979176E-3,-5.3145885E-3,-5.153179E-3,2.4558544E-1,2.432642E-1,2.5062847E-1,
1572243198,2019-10-28 06:13:18.809,-9.809732E-3,1.3229847E-3,-2.5618076E-3,-2.5725365E-3,2.601776E-1,2.5918674E-1,2.59017E-1,
1572243258,2019-10-28 06:14:18.806,-1.1998415E-2,-1.1501312E-3,-4.9390793E-3,-4.544735E-3,2.5364304E-1,2.573185E-1,2.5398922E-1,
1572243318,2019-10-28 06:15:18.806,-1.0334492E-2,5.340576E-4,-3.2708645E-3,-3.1189919E-3,2.5625896E-1,2.5841427E-1,2.5642395E-1,
1572243378,2019-10-28 06:16:18.806,-9.740353E-3,1.2309551E-3,-2.573967E-3,-2.7325153E-3,2.555685E-1,2.5928783E-1,2.5889206E-1,
1572243438,2019-10-28 06:17:18.806,-9.684324E-3,1.3697147E-3,-2.904892E-3,-2.2525787E-3,2.5689125E-1,2.5556087E-1,2.6090622E-1,
1572243498,2019-10-28 06:18:18.809,-8.000612E-3,2.9768944E-3,-1.1286736E-3,-6.6781044E-4,2.615614E-1,2.6418018E-1,2.6272774E-1,
1572243558,2019-10-28 06:19:18.806,-1.1870861E-2,-7.0881844E-4,-5.233526E-3,-4.953146E-3,2.5148106E-1,2.5417137E-1,2.5136757E-1,
1572243618,2019-10-28 06:20:18.806,-1.228857E-2,-1.1601448E-3,-5.418062E-3,-4.9552917E-3,2.4597073E-1,2.4641037E-1,2.5259018E-1,
1572243678,2019-10-28 06:21:18.806,-7.890701E-3,3.0863285E-3,-1.0950565E-3,-6.1678886E-4,2.6152706E-1,2.609825E-1,2.6174164E-1,
1572243738,2019-10-28 06:22:18.806,-1.0106087E-2,7.634163E-4,-3.6082268E-3,-3.0977726E-3,2.5692368E-1,2.582922E-1,2.5884628E-1,
1572243798,2019-10-28 06:23:18.806,-1.0439634E-2,3.2901764E-4,-3.2951832E-3,-3.2749176E-3,2.557726E-1,2.595272E-1,2.5654507E-1,
1572243858,2019-10-28 06:24:18.806,-9.591103E-3,1.4586449E-3,-2.9881E-3,-1.9235611E-3,2.563486E-1,2.6127338E-1,2.599764E-1,
1572243918,2019-10-28 06:25:18.809,-1.1849165E-2,-1.0514259E-3,-5.2883625E-3,-4.6088696E-3,2.505846E-1,2.4403858E-1,2.5369358E-1,
1572243978,2019-10-28 06:26:18.847,-8.091211E-3,3.129959E-3,-1.0421276E-3,-4.0221214E-4,2.6048565E-1,2.6450348E-1,2.6371193E-1,
1572244038,2019-10-28 06:27:18.806,-9.642601E-3,9.202957E-4,-2.7959347E-3,-2.1591187E-3,2.600336E-1,2.656269E-1,2.5919724E-1,
1572244098,2019-10-28 06:28:18.806,-1.2191534E-2,-1.6314983E-3,-5.2216053E-3,-4.429102E-3,2.5119781E-1,2.5254345E-1,2.5353622E-1,
1572244158,2019-10-28 06:29:18.806,-1.2109995E-2,-1.2383461E-3,-5.2103996E-3,-4.736185E-3,2.51606E-1,2.552824E-1,2.5197315E-1,
1572244218,2019-10-28 06:30:18.806,-9.622335E-3,1.4955997E-3,-2.9275417E-3,-2.0143986E-3,2.5816917E-1,2.6198578E-1,2.568426E-1,
1572244278,2019-10-28 06:31:18.806,-9.914398E-3,6.978512E-4,-3.178835E-3,-2.9451847E-3,2.5731564E-1,2.6548958E-1,2.5904942E-1,
1572244338,2019-10-28 06:32:18.806,-9.57036E-3,1.1916161E-3,-2.989769E-3,-2.4220943E-3,2.578888E-1,2.6149178E-1,2.583828E-1,
1572244398,2019-10-28 06:33:18.806,-9.664297E-3,1.4281273E-3,-2.9969215E-3,-1.8362999E-3,2.6059818E-1,2.6378345E-1,2.5490093E-1,
1572244458,2019-10-28 06:34:18.806,-9.634733E-3,1.6300678E-3,-2.8767586E-3,-2.5224686E-3,2.5657177E-1,2.6155567E-1,2.6020145E-1,
1572244518,2019-10-28 06:35:18.806,-1.0006428E-2,8.661747E-4,-3.4983158E-3,-2.780199E-3,2.5958252E-1,2.648592E-1,2.5706768E-1,
1572244578,2019-10-28 06:36:18.806,-1.218152E-2,-1.2545586E-3,-5.167961E-3,-4.606724E-3,2.5517082E-1,2.5901604E-1,2.4814892E-1,
1572244638,2019-10-28 06:37:18.809,-1.2444496E-2,-1.3768673E-3,-5.420208E-3,-4.3566227E-3,2.5355816E-1,2.6139355E-1,2.5485134E-1,
1572244698,2019-10-28 06:38:18.806,-7.91049E-3,3.2224655E-3,-9.5129013E-4,-1.5854836E-4,2.6593876E-1,2.6603985E-1,2.6749802E-1,
1572244758,2019-10-28 06:39:18.809,-8.06427E-3,3.182888E-3,-1.2409687E-3,-5.092621E-4,2.6345634E-1,2.6421452E-1,2.6698017E-1,
1572244818,2019-10-28 06:40:18.806,-1.0250568E-2,4.5776367E-4,-3.1142235E-3,-2.3622513E-3,2.562561E-1,2.5999546E-1,2.5814247E-1,
1572244878,2019-10-28 06:41:18.806,-9.487629E-3,1.2829304E-3,-2.755642E-3,-2.0868778E-3,2.5792122E-1,2.633028E-1,2.593689E-1,
1572244938,2019-10-28 06:42:18.806,-7.7705383E-3,3.0725002E-3,-1.2352467E-3,-4.3988228E-4,2.6183605E-1,2.6424313E-1,2.6378632E-1,
1572244998,2019-10-28 06:43:18.806,-1.0336161E-2,5.8960915E-4,-3.572464E-3,-3.231287E-3,2.5679874E-1,2.59717E-1,2.5751877E-1,
1572245058,2019-10-28 06:44:18.807,-9.496689E-3,1.5933514E-3,-2.6006699E-3,-2.0711422E-3,2.579937E-1,2.5163555E-1,2.597723E-1,
1572245118,2019-10-28 06:45:18.807,-1.0091543E-2,7.4386597E-4,-3.5860538E-3,-3.1619072E-3,2.5526142E-1,2.653103E-1,2.5801468E-1,
1572245178,2019-10-28 06:46:18.806,-1.0276079E-2,5.686283E-4,-3.739357E-3,-3.1819344E-3,2.5955105E-1,2.6210785E-1,2.5759315E-1,
1572245238,2019-10-28 06:47:18.806,-7.941723E-3,2.9158592E-3,-1.1451244E-3,-4.8398972E-4,2.6085186E-1,2.6480484E-1,2.634039E-1,
1572245298,2019-10-28 06:48:18.806,-7.6994896E-3,3.0915737E-3,-1.291275E-3,-3.669262E-4,2.6388168E-1,2.6809025E-1,2.633133E-1,
1572245358,2019-10-28 06:49:18.840,-1.054883E-2,7.1144104E-4,-3.437996E-3,-2.931118E-3,2.584057E-1,2.594862E-1,2.5832367E-1,
1572245418,2019-10-28 06:50:18.806,-7.712841E-3,3.1747818E-3,-1.1410713E-3,-3.504753E-5,2.6121616E-1,2.6557732E-1,2.6565456E-1,
1572245478,2019-10-28 06:51:18.809,-1.1568785E-2,-1.0480881E-3,-5.174637E-3,-4.7187805E-3,2.5356293E-1,2.5541973E-1,2.5652027E-1,
1572245538,2019-10-28 06:52:18.806,-9.429932E-3,1.4817715E-3,-2.5131702E-3,-1.9259453E-3,2.590084E-1,2.6039982E-1,2.6080418E-1,
1572245598,2019-10-28 06:53:18.806,-1.1784077E-2,-1.2252331E-3,-5.3777695E-3,-5.0489902E-3,2.5171185E-1,2.559576E-1,2.5217628E-1,
1572245658,2019-10-28 06:54:18.806,-1.2016773E-2,-1.2104511E-3,-5.4297447E-3,-4.8015118E-3,2.521143E-1,2.5607014E-1,2.538643E-1,
1572245718,2019-10-28 06:55:18.806,-9.292364E-3,1.3837814E-3,-2.853632E-3,-2.1560192E-3,2.5237274E-1,2.5347614E-1,2.581997E-1,
1572245778,2019-10-28 06:56:18.809,-9.621143E-3,1.4545918E-3,-2.9740334E-3,-2.1688938E-3,2.570629E-1,2.6347542E-1,2.6219368E-1,
1572245838,2019-10-28 06:57:18.806,-9.88102E-3,7.612705E-4,-3.4475327E-3,-2.7256012E-3,2.5876045E-1,2.617607E-1,2.588005E-1,
1572245898,2019-10-28 06:58:18.806,-9.723663E-3,1.1124611E-3,-2.6409626E-3,-2.440691E-3,2.585764E-1,2.6221275E-1,2.5910473E-1,
1572245958,2019-10-28 06:59:18.806,-9.968519E-3,5.853176E-4,-3.288269E-3,-2.9549599E-3,2.589159E-1,2.60067E-1,2.5942612E-1,
