Time(longsecs),Time(UTC),Earth Location,GPS Receiver Status,GPS Satellites Used,GPS PDOP,GPS TDOP,Timing Status,Timing Phase Lock,Timing Uncertainty(ns),DAC Count,Timing Error(ns),GPS Last Update Time,
1571068811,2019-10-14 16:00:11.767,47.651114N 0.578091E 170m,Off,5,3.821825,2.554418,Time OK,Free running,12200,8976,0,2019-10-14 15:50:56.000000000,
1571068871,2019-10-14 16:01:11.769,47.651114N 0.578091E 170m,Off,5,3.821825,2.554418,Time OK,Free running,13700,8976,0,2019-10-14 15:50:56.000000000,
1571068931,2019-10-14 16:02:11.769,47.651114N 0.578091E 170m,Off,5,3.821825,2.554418,Time OK,Free running,15200,8976,0,2019-10-14 15:50:56.000000000,
1571068991,2019-10-14 16:03:11.767,47.651114N 0.578091E 170m,Off,5,3.821825,2.554418,Time OK,Free running,16800,8976,0,2019-10-14 15:50:56.000000000,
1571069051,2019-10-14 16:04:11.767,47.651114N 0.578091E 170m,Off,5,3.821825,2.554418,Time OK,Free running,18500,8976,0,2019-10-14 15:50:56.000000000,
1571069111,2019-10-14 16:05:11.767,47.651114N 0.578091E 170m,Off,5,3.821825,2.554418,Time OK,Free running,20200,8976,0,2019-10-14 15:50:56.000000000,
1571069171,2019-10-14 16:06:11.768,47.651114N 0.578091E 170m,Off,5,3.821825,2.554418,Time OK,Free running,22000,8976,0,2019-10-14 15:50:56.000000000,
1571069231,2019-10-14 16:07:11.767,47.651114N 0.578091E 170m,Off,5,3.821825,2.554418,Time OK,Free running,24100,8976,0,2019-10-14 15:50:56.000000000,
1571069291,2019-10-14 16:08:11.767,47.651114N 0.578091E 170m,Off,5,3.821825,2.554418,Time OK,Free running,26200,8976,0,2019-10-14 15:50:56.000000000,
1571069351,2019-10-14 16:09:11.767,47.651114N 0.578091E 170m,Off,5,3.821825,2.554418,Time OK,Free running,28100,8976,0,2019-10-14 15:50:56.000000000,
1571069411,2019-10-14 16:10:11.767,47.651114N 0.578091E 170m,Off,5,3.821825,2.554418,Time OK,Free running,30100,8976,0,2019-10-14 15:50:56.000000000,
1571069471,2019-10-14 16:11:11.767,47.651114N 0.578091E 170m,Off,5,3.821825,2.554418,Time OK,Free running,32200,8976,0,2019-10-14 15:50:56.000000000,
1571069531,2019-10-14 16:12:11.767,47.651114N 0.578091E 170m,Off,5,3.821825,2.554418,Time OK,Free running,34500,8976,0,2019-10-14 15:50:56.000000000,
1571069591,2019-10-14 16:13:11.769,47.651114N 0.578091E 170m,Off,5,3.821825,2.554418,Time OK,Free running,37000,8976,0,2019-10-14 15:50:56.000000000,
1571069651,2019-10-14 16:14:11.767,47.651114N 0.578091E 170m,Off,5,3.821825,2.554418,Time OK,Free running,39300,8976,0,2019-10-14 15:50:56.000000000,
1571069711,2019-10-14 16:15:11.767,47.651114N 0.578091E 170m,Off,5,3.821825,2.554418,Time OK,Free running,41600,8976,0,2019-10-14 15:50:56.000000000,
1571069771,2019-10-14 16:16:11.767,47.651114N 0.578091E 170m,Off,5,3.821825,2.554418,Time OK,Free running,44000,8976,0,2019-10-14 15:50:56.000000000,
1571069831,2019-10-14 16:17:11.767,47.651114N 0.578091E 170m,Off,5,3.821825,2.554418,Time OK,Free running,46500,8976,0,2019-10-14 15:50:56.000000000,
1571069891,2019-10-14 16:18:11.769,47.651114N 0.578091E 170m,Off,5,3.821825,2.554418,Time OK,Free running,49200,8976,0,2019-10-14 15:50:56.000000000,
1571069951,2019-10-14 16:19:11.767,47.651114N 0.578091E 170m,Off,5,3.821825,2.554418,Time OK,Free running,52000,8976,0,2019-10-14 15:50:56.000000000,
1571070011,2019-10-14 16:20:11.767,47.651114N 0.578091E 170m,Doing fixes,5,3.2439885,2.0648706,Time OK,Free running,55000,8976,0,2019-10-14 16:20:11.000000000,
1571070071,2019-10-14 16:21:11.767,47.651114N 0.578091E 170m,Doing fixes,5,3.204677,2.0267513,Time OK,Fine lock,100,8936,-104,2019-10-14 16:21:11.000000000,
1571070131,2019-10-14 16:22:11.801,47.651114N 0.578091E 170m,Doing fixes,6,2.5709271,1.5693767,Time OK,Fine lock,100,8945,0,2019-10-14 16:22:11.000000000,
1571070191,2019-10-14 16:23:11.767,47.651114N 0.578091E 170m,Off,5,3.1657648,1.9876544,Time OK,Free running,800,8944,0,2019-10-14 16:22:16.000000000,
1571070251,2019-10-14 16:24:11.767,47.651114N 0.578091E 170m,Off,5,3.1657648,1.9876544,Time OK,Free running,1600,8944,0,2019-10-14 16:22:16.000000000,
1571070311,2019-10-14 16:25:11.767,47.651114N 0.578091E 170m,Off,5,3.1657648,1.9876544,Time OK,Free running,2500,8944,0,2019-10-14 16:22:16.000000000,
1571070371,2019-10-14 16:26:11.767,47.651114N 0.578091E 170m,Off,5,3.1657648,1.9876544,Time OK,Free running,3600,8944,0,2019-10-14 16:22:16.000000000,
1571070431,2019-10-14 16:27:11.767,47.651114N 0.578091E 170m,Off,5,3.1657648,1.9876544,Time OK,Free running,4500,8944,0,2019-10-14 16:22:16.000000000,
1571070491,2019-10-14 16:28:11.767,47.651114N 0.578091E 170m,Off,5,3.1657648,1.9876544,Time OK,Free running,5600,8944,0,2019-10-14 16:22:16.000000000,
1571070551,2019-10-14 16:29:11.769,47.651114N 0.578091E 170m,Off,5,3.1657648,1.9876544,Time OK,Free running,7000,8944,0,2019-10-14 16:22:16.000000000,
1571070611,2019-10-14 16:30:11.767,47.651114N 0.578091E 170m,Off,5,3.1657648,1.9876544,Time OK,Free running,7900,8944,0,2019-10-14 16:22:16.000000000,
1571070671,2019-10-14 16:31:11.767,47.651114N 0.578091E 170m,Off,5,3.1657648,1.9876544,Time OK,Free running,8700,8944,0,2019-10-14 16:22:16.000000000,
1571070731,2019-10-14 16:32:11.767,47.651114N 0.578091E 170m,Off,5,3.1657648,1.9876544,Time OK,Free running,9800,8944,0,2019-10-14 16:22:16.000000000,
1571070791,2019-10-14 16:33:11.767,47.651114N 0.578091E 170m,Off,5,3.1657648,1.9876544,Time OK,Free running,11100,8944,0,2019-10-14 16:22:16.000000000,
1571070851,2019-10-14 16:34:11.767,47.651114N 0.578091E 170m,Off,5,3.1657648,1.9876544,Time OK,Free running,12600,8944,0,2019-10-14 16:22:16.000000000,
1571070911,2019-10-14 16:35:11.770,47.651114N 0.578091E 170m,Off,5,3.1657648,1.9876544,Time OK,Free running,14300,8944,0,2019-10-14 16:22:16.000000000,
1571070971,2019-10-14 16:36:11.767,47.651114N 0.578091E 170m,Off,5,3.1657648,1.9876544,Time OK,Free running,15800,8944,0,2019-10-14 16:22:16.000000000,
1571071031,2019-10-14 16:37:11.767,47.651114N 0.578091E 170m,Off,5,3.1657648,1.9876544,Time OK,Free running,17200,8944,0,2019-10-14 16:22:16.000000000,
1571071091,2019-10-14 16:38:11.767,47.651114N 0.578091E 170m,Off,5,3.1657648,1.9876544,Time OK,Free running,18800,8944,0,2019-10-14 16:22:16.000000000,
1571071151,2019-10-14 16:39:11.767,47.651114N 0.578091E 170m,Off,5,3.1657648,1.9876544,Time OK,Free running,20400,8944,0,2019-10-14 16:22:16.000000000,
1571071211,2019-10-14 16:40:11.767,47.651114N 0.578091E 170m,Off,5,3.1657648,1.9876544,Time OK,Free running,22100,8944,0,2019-10-14 16:22:16.000000000,
1571071271,2019-10-14 16:41:11.767,47.651114N 0.578091E 170m,Off,5,3.1657648,1.9876544,Time OK,Free running,23700,8944,0,2019-10-14 16:22:16.000000000,
1571071331,2019-10-14 16:42:11.767,47.651114N 0.578091E 170m,Off,5,3.1657648,1.9876544,Time OK,Free running,25400,8944,0,2019-10-14 16:22:16.000000000,
1571071391,2019-10-14 16:43:11.767,47.651114N 0.578091E 170m,Off,5,3.1657648,1.9876544,Time OK,Free running,27300,8944,0,2019-10-14 16:22:16.000000000,
1571071451,2019-10-14 16:44:11.767,47.651114N 0.578091E 170m,Off,5,3.1657648,1.9876544,Time OK,Free running,29000,8944,0,2019-10-14 16:22:16.000000000,
1571071511,2019-10-14 16:45:11.787,47.651114N 0.578091E 170m,Off,5,3.1657648,1.9876544,Time OK,Free running,30700,8944,0,2019-10-14 16:22:16.000000000,
1571071571,2019-10-14 16:46:11.767,47.651114N 0.578091E 170m,Off,5,3.1657648,1.9876544,Time OK,Free running,32500,8944,0,2019-10-14 16:22:16.000000000,
1571071631,2019-10-14 16:47:11.767,47.651114N 0.578091E 170m,Off,5,3.1657648,1.9876544,Time OK,Free running,34500,8944,0,2019-10-14 16:22:16.000000000,
1571071691,2019-10-14 16:48:11.767,47.651114N 0.578091E 170m,Off,5,3.1657648,1.9876544,Time OK,Free running,36600,8944,0,2019-10-14 16:22:16.000000000,
1571071751,2019-10-14 16:49:11.767,47.651114N 0.578091E 170m,Off,5,3.1657648,1.9876544,Time OK,Free running,38900,8944,0,2019-10-14 16:22:16.000000000,
1571071811,2019-10-14 16:50:11.767,47.651114N 0.578091E 170m,Off,5,3.1657648,1.9876544,Time OK,Free running,41500,8944,0,2019-10-14 16:22:16.000000000,
1571071871,2019-10-14 16:51:11.767,47.651114N 0.578091E 170m,Off,5,3.1657648,1.9876544,Time OK,Free running,44000,8944,0,2019-10-14 16:22:16.000000000,
1571071931,2019-10-14 16:52:11.769,47.651114N 0.578091E 170m,Off,5,3.1657648,1.9876544,Time OK,Free running,46200,8944,0,2019-10-14 16:22:16.000000000,
1571071991,2019-10-14 16:53:11.770,47.651114N 0.578091E 170m,Off,5,3.1657648,1.9876544,Time OK,Free running,48400,8944,0,2019-10-14 16:22:16.000000000,
1571072051,2019-10-14 16:54:11.767,47.651114N 0.578091E 170m,Off,5,3.1657648,1.9876544,Time OK,Free running,50800,8944,0,2019-10-14 16:22:16.000000000,
1571072111,2019-10-14 16:55:11.767,47.651114N 0.578091E 170m,Doing fixes,5,3.6033897,2.3304133,Time OK,Coarse lock,100,8044,8645,2019-10-14 16:55:11.000000000,
1571072171,2019-10-14 16:56:11.767,47.651114N 0.578091E 170m,Doing fixes,5,3.5710437,2.2927332,Time OK,Fine lock,100,8915,-104,2019-10-14 16:56:11.000000000,
1571072231,2019-10-14 16:57:11.771,47.651114N 0.578091E 170m,Off,5,3.5565257,2.275648,Time OK,Free running,500,8911,0,2019-10-14 16:56:36.000000000,
1571072291,2019-10-14 16:58:11.767,47.651114N 0.578091E 170m,Off,5,3.5565257,2.275648,Time OK,Free running,1500,8911,0,2019-10-14 16:56:36.000000000,
1571072351,2019-10-14 16:59:11.767,47.651114N 0.578091E 170m,Off,5,3.5565257,2.275648,Time OK,Free running,2600,8911,0,2019-10-14 16:56:36.000000000,
