Time(longsecs),Time(UTC),Earth Location,GPS Receiver Status,GPS Satellites Used,GPS PDOP,GPS TDOP,Timing Status,Timing Phase Lock,Timing Uncertainty(ns),DAC Count,Timing Error(ns),GPS Last Update Time,
1571216422,2019-10-16 09:00:22.352,47.644926N 0.586895E 193m,Off,6,3.1220915,1.9954493,Time OK,Free running,37400,8890,0,2019-10-16 08:31:09.000000000,
1571216482,2019-10-16 09:01:22.352,47.644926N 0.586895E 193m,Off,6,3.1220915,1.9954493,Time OK,Free running,39100,8890,0,2019-10-16 08:31:09.000000000,
1571216542,2019-10-16 09:02:22.352,47.644926N 0.586895E 193m,Off,6,3.1220915,1.9954493,Time OK,Free running,40800,8890,0,2019-10-16 08:31:09.000000000,
1571216602,2019-10-16 09:03:22.352,47.644926N 0.586895E 193m,Off,6,3.1220915,1.9954493,Time OK,Free running,42800,8890,0,2019-10-16 08:31:09.000000000,
1571216662,2019-10-16 09:04:22.352,47.644926N 0.586895E 193m,Off,6,3.1220915,1.9954493,Time OK,Free running,44700,8890,0,2019-10-16 08:31:09.000000000,
1571216722,2019-10-16 09:05:22.352,47.644926N 0.586895E 193m,Off,6,3.1220915,1.9954493,Time OK,Free running,46500,8890,0,2019-10-16 08:31:09.000000000,
1571216782,2019-10-16 09:06:22.352,47.644926N 0.586895E 193m,Off,6,3.1220915,1.9954493,Time OK,Free running,48600,8890,0,2019-10-16 08:31:09.000000000,
1571216842,2019-10-16 09:07:22.396,47.644926N 0.586895E 193m,Off,6,3.1220915,1.9954493,Time OK,Free running,50700,8890,0,2019-10-16 08:31:09.000000000,
1571216902,2019-10-16 09:08:22.352,47.644926N 0.586895E 193m,No GPS time,4,2.3737824,1.0040222,Time OK,Free running,52500,8890,0,2019-10-16 09:08:19.000000000,
1571216962,2019-10-16 09:09:22.352,47.644926N 0.586895E 193m,Doing fixes,7,2.4356687,1.3593106,Time OK,Coarse lock,100,8963,-208,2019-10-16 09:09:19.000000000,
1571217022,2019-10-16 09:10:22.354,47.644926N 0.586895E 193m,Doing fixes,7,2.4613934,1.485468,Time OK,Fine lock,100,8906,0,2019-10-16 09:10:19.000000000,
1571217082,2019-10-16 09:11:22.352,47.644926N 0.586895E 193m,Off,7,2.4614532,1.4850094,Time OK,Free running,800,8906,0,2019-10-16 09:10:29.000000000,
1571217142,2019-10-16 09:12:22.352,47.644926N 0.586895E 193m,Off,7,2.4614532,1.4850094,Time OK,Free running,1600,8906,0,2019-10-16 09:10:29.000000000,
1571217202,2019-10-16 09:13:22.352,47.644926N 0.586895E 193m,Off,7,2.4614532,1.4850094,Time OK,Free running,2500,8906,0,2019-10-16 09:10:29.000000000,
1571217262,2019-10-16 09:14:22.352,47.644926N 0.586895E 193m,Off,7,2.4614532,1.4850094,Time OK,Free running,3400,8906,0,2019-10-16 09:10:29.000000000,
1571217322,2019-10-16 09:15:22.364,47.644926N 0.586895E 193m,Off,7,2.4614532,1.4850094,Time OK,Free running,4300,8906,0,2019-10-16 09:10:29.000000000,
1571217382,2019-10-16 09:16:22.390,47.644926N 0.586895E 193m,Off,7,2.4614532,1.4850094,Time OK,Free running,5100,8906,0,2019-10-16 09:10:29.000000000,
1571217442,2019-10-16 09:17:22.352,47.644926N 0.586895E 193m,Off,7,2.4614532,1.4850094,Time OK,Free running,6000,8906,0,2019-10-16 09:10:29.000000000,
1571217502,2019-10-16 09:18:22.352,47.644926N 0.586895E 193m,Off,7,2.4614532,1.4850094,Time OK,Free running,6900,8906,0,2019-10-16 09:10:29.000000000,
1571217562,2019-10-16 09:19:22.352,47.644926N 0.586895E 193m,Off,7,2.4614532,1.4850094,Time OK,Free running,7900,8906,0,2019-10-16 09:10:29.000000000,
1571217622,2019-10-16 09:20:22.383,47.644926N 0.586895E 193m,Off,7,2.4614532,1.4850094,Time OK,Free running,8900,8906,0,2019-10-16 09:10:29.000000000,
1571217682,2019-10-16 09:21:22.352,47.644926N 0.586895E 193m,Off,7,2.4614532,1.4850094,Time OK,Free running,9700,8906,0,2019-10-16 09:10:29.000000000,
1571217742,2019-10-16 09:22:22.352,47.644926N 0.586895E 193m,Off,7,2.4614532,1.4850094,Time OK,Free running,10600,8906,0,2019-10-16 09:10:29.000000000,
1571217802,2019-10-16 09:23:22.352,47.644926N 0.586895E 193m,Off,7,2.4614532,1.4850094,Time OK,Free running,11700,8906,0,2019-10-16 09:10:29.000000000,
1571217862,2019-10-16 09:24:22.352,47.644926N 0.586895E 193m,Off,7,2.4614532,1.4850094,Time OK,Free running,12500,8906,0,2019-10-16 09:10:29.000000000,
1571217922,2019-10-16 09:25:22.352,47.644926N 0.586895E 193m,Off,7,2.4614532,1.4850094,Time OK,Free running,13400,8906,0,2019-10-16 09:10:29.000000000,
1571217982,2019-10-16 09:26:22.352,47.644926N 0.586895E 193m,Off,7,2.4614532,1.4850094,Time OK,Free running,14300,8906,0,2019-10-16 09:10:29.000000000,
1571218042,2019-10-16 09:27:22.355,47.644926N 0.586895E 193m,Off,7,2.4614532,1.4850094,Time OK,Free running,15200,8906,0,2019-10-16 09:10:29.000000000,
1571218102,2019-10-16 09:28:22.354,47.644926N 0.586895E 193m,Off,7,2.4614532,1.4850094,Time OK,Free running,16000,8906,0,2019-10-16 09:10:29.000000000,
1571218162,2019-10-16 09:29:22.352,47.644926N 0.586895E 193m,Off,7,2.4614532,1.4850094,Time OK,Free running,17100,8906,0,2019-10-16 09:10:29.000000000,
1571218222,2019-10-16 09:30:22.352,47.644926N 0.586895E 193m,Off,7,2.4614532,1.4850094,Time OK,Free running,18000,8906,0,2019-10-16 09:10:29.000000000,
1571218282,2019-10-16 09:31:22.352,47.644926N 0.586895E 193m,Off,7,2.4614532,1.4850094,Time OK,Free running,18900,8906,0,2019-10-16 09:10:29.000000000,
1571218342,2019-10-16 09:32:22.352,47.644926N 0.586895E 193m,Off,7,2.4614532,1.4850094,Time OK,Free running,20000,8906,0,2019-10-16 09:10:29.000000000,
1571218402,2019-10-16 09:33:22.352,47.644926N 0.586895E 193m,Off,7,2.4614532,1.4850094,Time OK,Free running,21000,8906,0,2019-10-16 09:10:29.000000000,
1571218462,2019-10-16 09:34:22.353,47.644926N 0.586895E 193m,Off,7,2.4614532,1.4850094,Time OK,Free running,21800,8906,0,2019-10-16 09:10:29.000000000,
1571218522,2019-10-16 09:35:22.352,47.644926N 0.586895E 193m,Off,7,2.4614532,1.4850094,Time OK,Free running,22800,8906,0,2019-10-16 09:10:29.000000000,
1571218582,2019-10-16 09:36:22.352,47.644926N 0.586895E 193m,Off,7,2.4614532,1.4850094,Time OK,Free running,23600,8906,0,2019-10-16 09:10:29.000000000,
1571218642,2019-10-16 09:37:22.352,47.644926N 0.586895E 193m,Off,7,2.4614532,1.4850094,Time OK,Free running,24500,8906,0,2019-10-16 09:10:29.000000000,
1571218702,2019-10-16 09:38:22.352,47.644926N 0.586895E 193m,Off,7,2.4614532,1.4850094,Time OK,Free running,25600,8906,0,2019-10-16 09:10:29.000000000,
1571218762,2019-10-16 09:39:22.352,47.644926N 0.586895E 193m,Off,7,2.4614532,1.4850094,Time OK,Free running,26700,8906,0,2019-10-16 09:10:29.000000000,
1571218822,2019-10-16 09:40:22.387,47.644926N 0.586895E 193m,Off,7,2.4614532,1.4850094,Time OK,Free running,28000,8906,0,2019-10-16 09:10:29.000000000,
1571218882,2019-10-16 09:41:22.352,47.644926N 0.586895E 193m,Off,7,2.4614532,1.4850094,Time OK,Free running,29500,8906,0,2019-10-16 09:10:29.000000000,
1571218942,2019-10-16 09:42:22.352,47.644926N 0.586895E 193m,Off,7,2.4614532,1.4850094,Time OK,Free running,30900,8906,0,2019-10-16 09:10:29.000000000,
1571219002,2019-10-16 09:43:22.352,47.644926N 0.586895E 193m,Off,7,2.4614532,1.4850094,Time OK,Free running,32100,8906,0,2019-10-16 09:10:29.000000000,
1571219062,2019-10-16 09:44:22.352,47.644926N 0.586895E 193m,Off,7,2.4614532,1.4850094,Time OK,Free running,33400,8906,0,2019-10-16 09:10:29.000000000,
1571219122,2019-10-16 09:45:22.352,47.644926N 0.586895E 193m,Off,7,2.4614532,1.4850094,Time OK,Free running,34900,8906,0,2019-10-16 09:10:29.000000000,
1571219182,2019-10-16 09:46:22.352,47.644926N 0.586895E 193m,Off,7,2.4614532,1.4850094,Time OK,Free running,36300,8906,0,2019-10-16 09:10:29.000000000,
1571219242,2019-10-16 09:47:22.352,47.644926N 0.586895E 193m,Off,7,2.4614532,1.4850094,Time OK,Free running,37700,8906,0,2019-10-16 09:10:29.000000000,
1571219302,2019-10-16 09:48:22.352,47.644926N 0.586895E 193m,Off,7,2.4614532,1.4850094,Time OK,Free running,38900,8906,0,2019-10-16 09:10:29.000000000,
1571219362,2019-10-16 09:49:22.352,47.644926N 0.586895E 193m,Off,7,2.4614532,1.4850094,Time OK,Free running,40100,8906,0,2019-10-16 09:10:29.000000000,
1571219422,2019-10-16 09:50:22.352,47.644926N 0.586895E 193m,Off,7,2.4614532,1.4850094,Time OK,Free running,41600,8906,0,2019-10-16 09:10:29.000000000,
1571219482,2019-10-16 09:51:22.352,47.644926N 0.586895E 193m,Off,7,2.4614532,1.4850094,Time OK,Free running,43100,8906,0,2019-10-16 09:10:29.000000000,
1571219542,2019-10-16 09:52:22.354,47.644926N 0.586895E 193m,Off,7,2.4614532,1.4850094,Time OK,Free running,44700,8906,0,2019-10-16 09:10:29.000000000,
1571219602,2019-10-16 09:53:22.352,47.644926N 0.586895E 193m,Off,7,2.4614532,1.4850094,Time OK,Free running,46400,8906,0,2019-10-16 09:10:29.000000000,
1571219662,2019-10-16 09:54:22.352,47.644926N 0.586895E 193m,Off,7,2.4614532,1.4850094,Time OK,Free running,47800,8906,0,2019-10-16 09:10:29.000000000,
1571219722,2019-10-16 09:55:22.352,47.644926N 0.586895E 193m,Off,7,2.4614532,1.4850094,Time OK,Free running,49100,8906,0,2019-10-16 09:10:29.000000000,
1571219782,2019-10-16 09:56:22.352,47.644926N 0.586895E 193m,Off,7,2.4614532,1.4850094,Time OK,Free running,50700,8906,0,2019-10-16 09:10:29.000000000,
1571219842,2019-10-16 09:57:22.352,47.644926N 0.586895E 193m,Doing fixes,6,3.7423332,2.7106028,Time OK,Coarse lock,100,9391,-4270,2019-10-16 09:57:19.000000000,
1571219902,2019-10-16 09:58:22.352,47.644926N 0.586895E 193m,Doing fixes,6,3.4774601,2.2665575,Time OK,Fine lock,100,8916,0,2019-10-16 09:58:19.000000000,
1571219962,2019-10-16 09:59:22.352,47.644926N 0.586895E 193m,Off,7,2.2927198,1.4841561,Time OK,Free running,500,8920,0,2019-10-16 09:58:49.000000000,
