Time(longsecs),Time(UTC),GPS Satellite Acquisition Flag 1,GPS Satellite Acquisition Flag 2,GPS Satellite Acquisition Flag 3,GPS Satellite Acquisition Flag 4,GPS Satellite Acquisition Flag 5,GPS Satellite Acquisition Flag 6,GPS Satellite Acquisition Flag 7,GPS Satellite Acquisition Flag 8,GPS Satellite Acquisition Flag 9,GPS Satellite Acquisition Flag 10,GPS Satellite Acquisition Flag 11,GPS Satellite Acquisition Flag 12,GPS Satellite Azimuth 1(Degrees),GPS Satellite Azimuth 2(Degrees),GPS Satellite Azimuth 3(Degrees),GPS Satellite Azimuth 4(Degrees),GPS Satellite Azimuth 5(Degrees),GPS Satellite Azimuth 6(Degrees),GPS Satellite Azimuth 7(Degrees),GPS Satellite Azimuth 8(Degrees),GPS Satellite Azimuth 9(Degrees),GPS Satellite Azimuth 10(Degrees),GPS Satellite Azimuth 11(Degrees),GPS Satellite Azimuth 12(Degrees),GPS Satellite Elevation 1(Degrees),GPS Satellite Elevation 2(Degrees),GPS Satellite Elevation 3(Degrees),GPS Satellite Elevation 4(Degrees),GPS Satellite Elevation 5(Degrees),GPS Satellite Elevation 6(Degrees),GPS Satellite Elevation 7(Degrees),GPS Satellite Elevation 8(Degrees),GPS Satellite Elevation 9(Degrees),GPS Satellite Elevation 10(Degrees),GPS Satellite Elevation 11(Degrees),GPS Satellite Elevation 12(Degrees),GPS Satellite PRN 1,GPS Satellite PRN 2,GPS Satellite PRN 3,GPS Satellite PRN 4,GPS Satellite PRN 5,GPS Satellite PRN 6,GPS Satellite PRN 7,GPS Satellite PRN 8,GPS Satellite PRN 9,GPS Satellite PRN 10,GPS Satellite PRN 11,GPS Satellite PRN 12,GPS Satellite Signal Level 1(AMU),GPS Satellite Signal Level 2(AMU),GPS Satellite Signal Level 3(AMU),GPS Satellite Signal Level 4(AMU),GPS Satellite Signal Level 5(AMU),GPS Satellite Signal Level 6(AMU),GPS Satellite Signal Level 7(AMU),GPS Satellite Signal Level 8(AMU),GPS Satellite Signal Level 9(AMU),GPS Satellite Signal Level 10(AMU),GPS Satellite Signal Level 11(AMU),GPS Satellite Signal Level 12(AMU),
1571256022,2019-10-16 20:00:22.352,Acquired,Acquired,Acquired,Acquired,Acquired,Acquired,Acquired,Acquired,,,,,1.88849952E2,1.0946195999999999E2,2.89885376E2,3.14352352E2,2.59762288E2,7.0135344E1,7.0587272E1,1.1618176799999999E2,,,,,2.1374364E1,7.534952E1,6.6383764E1,2.034669E1,2.7477978E1,5.1179967999999995E1,2.1444219999999998E1,1.1058247E1,,,,,5,13,15,20,24,28,30,17,,,,,10,13,15,1,8,10,2,1,,,,,
1571256082,2019-10-16 20:01:22.352,Acquired,Acquired,Acquired,Acquired,Acquired,Acquired,Acquired,Acquired,,,,,1.88849952E2,1.0946195999999999E2,2.89885376E2,3.14352352E2,2.59762288E2,7.0135344E1,7.0587272E1,1.1618176799999999E2,,,,,2.1374364E1,7.534952E1,6.6383764E1,2.034669E1,2.7477978E1,5.1179967999999995E1,2.1444219999999998E1,1.1058247E1,,,,,5,13,15,20,24,28,30,17,,,,,10,13,15,1,8,10,2,1,,,,,
1571256142,2019-10-16 20:02:22.352,Acquired,Acquired,Acquired,Acquired,Acquired,Acquired,Acquired,Acquired,,,,,1.88849952E2,1.0946195999999999E2,2.89885376E2,3.14352352E2,2.59762288E2,7.0135344E1,7.0587272E1,1.1618176799999999E2,,,,,2.1374364E1,7.534952E1,6.6383764E1,2.034669E1,2.7477978E1,5.1179967999999995E1,2.1444219999999998E1,1.1058247E1,,,,,5,13,15,20,24,28,30,17,,,,,10,13,15,1,8,10,2,1,,,,,
1571256202,2019-10-16 20:03:22.352,Acquired,Acquired,Acquired,Acquired,Acquired,Acquired,Acquired,Acquired,,,,,1.88849952E2,1.0946195999999999E2,2.89885376E2,3.14352352E2,2.59762288E2,7.0135344E1,7.0587272E1,1.1618176799999999E2,,,,,2.1374364E1,7.534952E1,6.6383764E1,2.034669E1,2.7477978E1,5.1179967999999995E1,2.1444219999999998E1,1.1058247E1,,,,,5,13,15,20,24,28,30,17,,,,,10,13,15,1,8,10,2,1,,,,,
1571256262,2019-10-16 20:04:22.352,Acquired,Acquired,Acquired,Acquired,Acquired,Acquired,Acquired,Acquired,,,,,1.88849952E2,1.0946195999999999E2,2.89885376E2,3.14352352E2,2.59762288E2,7.0135344E1,7.0587272E1,1.1618176799999999E2,,,,,2.1374364E1,7.534952E1,6.6383764E1,2.034669E1,2.7477978E1,5.1179967999999995E1,2.1444219999999998E1,1.1058247E1,,,,,5,13,15,20,24,28,30,17,,,,,10,13,15,1,8,10,2,1,,,,,
1571256322,2019-10-16 20:05:22.352,Acquired,Acquired,Acquired,Acquired,Acquired,Acquired,Acquired,Acquired,,,,,1.88849952E2,1.0946195999999999E2,2.89885376E2,3.14352352E2,2.59762288E2,7.0135344E1,7.0587272E1,1.1618176799999999E2,,,,,2.1374364E1,7.534952E1,6.6383764E1,2.034669E1,2.7477978E1,5.1179967999999995E1,2.1444219999999998E1,1.1058247E1,,,,,5,13,15,20,24,28,30,17,,,,,10,13,15,1,8,10,2,1,,,,,
1571256382,2019-10-16 20:06:22.352,Acquired,Acquired,Acquired,Acquired,Acquired,Acquired,Acquired,Acquired,,,,,1.88849952E2,1.0946195999999999E2,2.89885376E2,3.14352352E2,2.59762288E2,7.0135344E1,7.0587272E1,1.1618176799999999E2,,,,,2.1374364E1,7.534952E1,6.6383764E1,2.034669E1,2.7477978E1,5.1179967999999995E1,2.1444219999999998E1,1.1058247E1,,,,,5,13,15,20,24,28,30,17,,,,,10,13,15,1,8,10,2,1,,,,,
1571256442,2019-10-16 20:07:22.352,Acquired,Acquired,Acquired,Acquired,Acquired,Acquired,Acquired,Acquired,,,,,1.88849952E2,1.0946195999999999E2,2.89885376E2,3.14352352E2,2.59762288E2,7.0135344E1,7.0587272E1,1.1618176799999999E2,,,,,2.1374364E1,7.534952E1,6.6383764E1,2.034669E1,2.7477978E1,5.1179967999999995E1,2.1444219999999998E1,1.1058247E1,,,,,5,13,15,20,24,28,30,17,,,,,10,13,15,1,8,10,2,1,,,,,
1571256502,2019-10-16 20:08:22.352,Acquired,Acquired,Acquired,Acquired,Acquired,Acquired,Acquired,Acquired,,,,,1.88849952E2,1.0946195999999999E2,2.89885376E2,3.14352352E2,2.59762288E2,7.0135344E1,7.0587272E1,1.1618176799999999E2,,,,,2.1374364E1,7.534952E1,6.6383764E1,2.034669E1,2.7477978E1,5.1179967999999995E1,2.1444219999999998E1,1.1058247E1,,,,,5,13,15,20,24,28,30,17,,,,,10,13,15,1,8,10,2,1,,,,,
1571256562,2019-10-16 20:09:22.352,Acquired,Acquired,Acquired,Acquired,Acquired,Acquired,Acquired,Acquired,,,,,1.88849952E2,1.0946195999999999E2,2.89885376E2,3.14352352E2,2.59762288E2,7.0135344E1,7.0587272E1,1.1618176799999999E2,,,,,2.1374364E1,7.534952E1,6.6383764E1,2.034669E1,2.7477978E1,5.1179967999999995E1,2.1444219999999998E1,1.1058247E1,,,,,5,13,15,20,24,28,30,17,,,,,10,13,15,1,8,10,2,1,,,,,
1571256622,2019-10-16 20:10:22.352,Acquired,Acquired,Acquired,Acquired,Acquired,Acquired,Acquired,Acquired,,,,,1.88849952E2,1.0946195999999999E2,2.89885376E2,3.14352352E2,2.59762288E2,7.0135344E1,7.0587272E1,1.1618176799999999E2,,,,,2.1374364E1,7.534952E1,6.6383764E1,2.034669E1,2.7477978E1,5.1179967999999995E1,2.1444219999999998E1,1.1058247E1,,,,,5,13,15,20,24,28,30,17,,,,,10,13,15,1,8,10,2,1,,,,,
1571256682,2019-10-16 20:11:22.352,Acquired,Acquired,Acquired,Acquired,Acquired,Acquired,Acquired,Acquired,,,,,1.88849952E2,1.0946195999999999E2,2.89885376E2,3.14352352E2,2.59762288E2,7.0135344E1,7.0587272E1,1.1618176799999999E2,,,,,2.1374364E1,7.534952E1,6.6383764E1,2.034669E1,2.7477978E1,5.1179967999999995E1,2.1444219999999998E1,1.1058247E1,,,,,5,13,15,20,24,28,30,17,,,,,10,13,15,1,8,10,2,1,,,,,
1571256742,2019-10-16 20:12:22.352,Acquired,Acquired,Acquired,Acquired,Acquired,Acquired,Acquired,Acquired,,,,,1.88849952E2,1.0946195999999999E2,2.89885376E2,3.14352352E2,2.59762288E2,7.0135344E1,7.0587272E1,1.1618176799999999E2,,,,,2.1374364E1,7.534952E1,6.6383764E1,2.034669E1,2.7477978E1,5.1179967999999995E1,2.1444219999999998E1,1.1058247E1,,,,,5,13,15,20,24,28,30,17,,,,,10,13,15,1,8,10,2,1,,,,,
1571256802,2019-10-16 20:13:22.352,Acquired,Acquired,Acquired,Acquired,Acquired,Acquired,Acquired,Not acquired,,,,,1.88750224E2,1.10255568E2,2.8943039999999996E2,3.1402112E2,2.6003096E2,6.952412799999999E1,7.077534399999999E1,1.1588678399999999E2,,,,,2.0937568E1,7.4898072E1,6.6813976E1,2.0594686E1,2.7871422E1,5.0963443999999996E1,2.1060844E1,1.1397440999999999E1,,,,,5,13,15,20,24,28,30,17,,,,,13,13,15,2,6,4,2,1,,,,,
1571256862,2019-10-16 20:14:22.352,Not acquired,Acquired,Acquired,Acquired,Acquired,Acquired,Acquired,Acquired,Acquired,,,,3.20994176E2,2.07385424E2,1.31592568E2,2.1351255999999998E2,9.8356072E1,1.20624952E2,2.9295395199999996E2,2.74477888E2,5.1020036E1,,,,1.6954321999999998E1,1.8247529999999998E1,5.1724044E1,7.620867199999999E1,2.6865526E1,1.9012396E1,2.7856886E1,4.8062259999999995E1,3.5155528E1,,,,10,12,13,15,17,19,20,24,28,,,,2,6,12,15,9,2,6,4,1,,,,
1571256922,2019-10-16 20:15:22.352,Not acquired,Acquired,Acquired,Acquired,Acquired,Acquired,Acquired,Acquired,Acquired,,,,3.20994176E2,2.07385424E2,1.31592568E2,2.1351255999999998E2,9.8356072E1,1.20624952E2,2.9295395199999996E2,2.74477888E2,5.1020036E1,,,,1.6954321999999998E1,1.8247529999999998E1,5.1724044E1,7.620867199999999E1,2.6865526E1,1.9012396E1,2.7856886E1,4.8062259999999995E1,3.5155528E1,,,,10,12,13,15,17,19,20,24,28,,,,2,6,12,15,9,2,6,4,1,,,,
1571256982,2019-10-16 20:16:22.352,Not acquired,Acquired,Acquired,Acquired,Acquired,Acquired,Acquired,Acquired,Acquired,,,,3.20994176E2,2.07385424E2,1.31592568E2,2.1351255999999998E2,9.8356072E1,1.20624952E2,2.9295395199999996E2,2.74477888E2,5.1020036E1,,,,1.6954321999999998E1,1.8247529999999998E1,5.1724044E1,7.620867199999999E1,2.6865526E1,1.9012396E1,2.7856886E1,4.8062259999999995E1,3.5155528E1,,,,10,12,13,15,17,19,20,24,28,,,,2,6,12,15,9,2,6,4,1,,,,
1571257042,2019-10-16 20:17:22.352,Not acquired,Acquired,Acquired,Acquired,Acquired,Acquired,Acquired,Acquired,Acquired,,,,3.20994176E2,2.07385424E2,1.31592568E2,2.1351255999999998E2,9.8356072E1,1.20624952E2,2.9295395199999996E2,2.74477888E2,5.1020036E1,,,,1.6954321999999998E1,1.8247529999999998E1,5.1724044E1,7.620867199999999E1,2.6865526E1,1.9012396E1,2.7856886E1,4.8062259999999995E1,3.5155528E1,,,,10,12,13,15,17,19,20,24,28,,,,2,6,12,15,9,2,6,4,1,,,,
1571257102,2019-10-16 20:18:22.354,Not acquired,Acquired,Acquired,Acquired,Acquired,Acquired,Acquired,Acquired,Acquired,,,,3.20994176E2,2.07385424E2,1.31592568E2,2.1351255999999998E2,9.8356072E1,1.20624952E2,2.9295395199999996E2,2.74477888E2,5.1020036E1,,,,1.6954321999999998E1,1.8247529999999998E1,5.1724044E1,7.620867199999999E1,2.6865526E1,1.9012396E1,2.7856886E1,4.8062259999999995E1,3.5155528E1,,,,10,12,13,15,17,19,20,24,28,,,,2,6,12,15,9,2,6,4,1,,,,
1571257162,2019-10-16 20:19:22.352,Not acquired,Acquired,Acquired,Acquired,Acquired,Acquired,Acquired,Acquired,Acquired,,,,3.20994176E2,2.07385424E2,1.31592568E2,2.1351255999999998E2,9.8356072E1,1.20624952E2,2.9295395199999996E2,2.74477888E2,5.1020036E1,,,,1.6954321999999998E1,1.8247529999999998E1,5.1724044E1,7.620867199999999E1,2.6865526E1,1.9012396E1,2.7856886E1,4.8062259999999995E1,3.5155528E1,,,,10,12,13,15,17,19,20,24,28,,,,2,6,12,15,9,2,6,4,1,,,,
1571257222,2019-10-16 20:20:22.352,Not acquired,Acquired,Acquired,Acquired,Acquired,Acquired,Acquired,Acquired,Acquired,,,,3.20994176E2,2.07385424E2,1.31592568E2,2.1351255999999998E2,9.8356072E1,1.20624952E2,2.9295395199999996E2,2.74477888E2,5.1020036E1,,,,1.6954321999999998E1,1.8247529999999998E1,5.1724044E1,7.620867199999999E1,2.6865526E1,1.9012396E1,2.7856886E1,4.8062259999999995E1,3.5155528E1,,,,10,12,13,15,17,19,20,24,28,,,,2,6,12,15,9,2,6,4,1,,,,
1571257282,2019-10-16 20:21:22.352,Not acquired,Acquired,Acquired,Acquired,Acquired,Acquired,Acquired,Acquired,Acquired,,,,3.20994176E2,2.07385424E2,1.31592568E2,2.1351255999999998E2,9.8356072E1,1.20624952E2,2.9295395199999996E2,2.74477888E2,5.1020036E1,,,,1.6954321999999998E1,1.8247529999999998E1,5.1724044E1,7.620867199999999E1,2.6865526E1,1.9012396E1,2.7856886E1,4.8062259999999995E1,3.5155528E1,,,,10,12,13,15,17,19,20,24,28,,,,2,6,12,15,9,2,6,4,1,,,,
1571257342,2019-10-16 20:22:22.352,Not acquired,Acquired,Acquired,Acquired,Acquired,Acquired,Acquired,Acquired,Acquired,,,,3.20994176E2,2.07385424E2,1.31592568E2,2.1351255999999998E2,9.8356072E1,1.20624952E2,2.9295395199999996E2,2.74477888E2,5.1020036E1,,,,1.6954321999999998E1,1.8247529999999998E1,5.1724044E1,7.620867199999999E1,2.6865526E1,1.9012396E1,2.7856886E1,4.8062259999999995E1,3.5155528E1,,,,10,12,13,15,17,19,20,24,28,,,,2,6,12,15,9,2,6,4,1,,,,
1571257402,2019-10-16 20:23:22.352,Not acquired,Acquired,Acquired,Acquired,Acquired,Acquired,Acquired,Acquired,Acquired,,,,3.20994176E2,2.07385424E2,1.31592568E2,2.1351255999999998E2,9.8356072E1,1.20624952E2,2.9295395199999996E2,2.74477888E2,5.1020036E1,,,,1.6954321999999998E1,1.8247529999999998E1,5.1724044E1,7.620867199999999E1,2.6865526E1,1.9012396E1,2.7856886E1,4.8062259999999995E1,3.5155528E1,,,,10,12,13,15,17,19,20,24,28,,,,2,6,12,15,9,2,6,4,1,,,,
1571257462,2019-10-16 20:24:22.356,Not acquired,Acquired,Acquired,Acquired,Acquired,Acquired,Acquired,Acquired,Acquired,,,,3.20994176E2,2.07385424E2,1.31592568E2,2.1351255999999998E2,9.8356072E1,1.20624952E2,2.9295395199999996E2,2.74477888E2,5.1020036E1,,,,1.6954321999999998E1,1.8247529999999998E1,5.1724044E1,7.620867199999999E1,2.6865526E1,1.9012396E1,2.7856886E1,4.8062259999999995E1,3.5155528E1,,,,10,12,13,15,17,19,20,24,28,,,,2,6,12,15,9,2,6,4,1,,,,
1571257522,2019-10-16 20:25:22.352,Not acquired,Acquired,Acquired,Acquired,Acquired,Acquired,Acquired,Acquired,Acquired,,,,3.20994176E2,2.07385424E2,1.31592568E2,2.1351255999999998E2,9.8356072E1,1.20624952E2,2.9295395199999996E2,2.74477888E2,5.1020036E1,,,,1.6954321999999998E1,1.8247529999999998E1,5.1724044E1,7.620867199999999E1,2.6865526E1,1.9012396E1,2.7856886E1,4.8062259999999995E1,3.5155528E1,,,,10,12,13,15,17,19,20,24,28,,,,2,6,12,15,9,2,6,4,1,,,,
1571257582,2019-10-16 20:26:22.352,Not acquired,Acquired,Acquired,Acquired,Acquired,Acquired,Acquired,Acquired,Acquired,,,,3.20994176E2,2.07385424E2,1.31592568E2,2.1351255999999998E2,9.8356072E1,1.20624952E2,2.9295395199999996E2,2.74477888E2,5.1020036E1,,,,1.6954321999999998E1,1.8247529999999998E1,5.1724044E1,7.620867199999999E1,2.6865526E1,1.9012396E1,2.7856886E1,4.8062259999999995E1,3.5155528E1,,,,10,12,13,15,17,19,20,24,28,,,,2,6,12,15,9,2,6,4,1,,,,
1571257642,2019-10-16 20:27:22.352,Not acquired,Acquired,Acquired,Acquired,Acquired,Acquired,Acquired,Acquired,Acquired,,,,3.20994176E2,2.07385424E2,1.31592568E2,2.1351255999999998E2,9.8356072E1,1.20624952E2,2.9295395199999996E2,2.74477888E2,5.1020036E1,,,,1.6954321999999998E1,1.8247529999999998E1,5.1724044E1,7.620867199999999E1,2.6865526E1,1.9012396E1,2.7856886E1,4.8062259999999995E1,3.5155528E1,,,,10,12,13,15,17,19,20,24,28,,,,2,6,12,15,9,2,6,4,1,,,,
1571257702,2019-10-16 20:28:22.362,Not acquired,Acquired,Acquired,Acquired,Acquired,Acquired,Acquired,Acquired,Acquired,,,,3.20994176E2,2.07385424E2,1.31592568E2,2.1351255999999998E2,9.8356072E1,1.20624952E2,2.9295395199999996E2,2.74477888E2,5.1020036E1,,,,1.6954321999999998E1,1.8247529999999998E1,5.1724044E1,7.620867199999999E1,2.6865526E1,1.9012396E1,2.7856886E1,4.8062259999999995E1,3.5155528E1,,,,10,12,13,15,17,19,20,24,28,,,,2,6,12,15,9,2,6,4,1,,,,
1571257762,2019-10-16 20:29:22.352,Not acquired,Acquired,Acquired,Acquired,Acquired,Acquired,Acquired,Acquired,Acquired,,,,3.20994176E2,2.07385424E2,1.31592568E2,2.1351255999999998E2,9.8356072E1,1.20624952E2,2.9295395199999996E2,2.74477888E2,5.1020036E1,,,,1.6954321999999998E1,1.8247529999999998E1,5.1724044E1,7.620867199999999E1,2.6865526E1,1.9012396E1,2.7856886E1,4.8062259999999995E1,3.5155528E1,,,,10,12,13,15,17,19,20,24,28,,,,2,6,12,15,9,2,6,4,1,,,,
1571257822,2019-10-16 20:30:22.352,Not acquired,Acquired,Acquired,Acquired,Acquired,Acquired,Acquired,Acquired,Acquired,,,,3.20994176E2,2.07385424E2,1.31592568E2,2.1351255999999998E2,9.8356072E1,1.20624952E2,2.9295395199999996E2,2.74477888E2,5.1020036E1,,,,1.6954321999999998E1,1.8247529999999998E1,5.1724044E1,7.620867199999999E1,2.6865526E1,1.9012396E1,2.7856886E1,4.8062259999999995E1,3.5155528E1,,,,10,12,13,15,17,19,20,24,28,,,,2,6,12,15,9,2,6,4,1,,,,
1571257882,2019-10-16 20:31:22.352,Not acquired,Acquired,Acquired,Acquired,Acquired,Acquired,Acquired,Acquired,Acquired,,,,3.20994176E2,2.07385424E2,1.31592568E2,2.1351255999999998E2,9.8356072E1,1.20624952E2,2.9295395199999996E2,2.74477888E2,5.1020036E1,,,,1.6954321999999998E1,1.8247529999999998E1,5.1724044E1,7.620867199999999E1,2.6865526E1,1.9012396E1,2.7856886E1,4.8062259999999995E1,3.5155528E1,,,,10,12,13,15,17,19,20,24,28,,,,2,6,12,15,9,2,6,4,1,,,,
1571257942,2019-10-16 20:32:22.352,Not acquired,Acquired,Acquired,Acquired,Acquired,Acquired,Acquired,Acquired,Acquired,,,,3.20994176E2,2.07385424E2,1.31592568E2,2.1351255999999998E2,9.8356072E1,1.20624952E2,2.9295395199999996E2,2.74477888E2,5.1020036E1,,,,1.6954321999999998E1,1.8247529999999998E1,5.1724044E1,7.620867199999999E1,2.6865526E1,1.9012396E1,2.7856886E1,4.8062259999999995E1,3.5155528E1,,,,10,12,13,15,17,19,20,24,28,,,,2,6,12,15,9,2,6,4,1,,,,
1571258002,2019-10-16 20:33:22.352,Not acquired,Acquired,Acquired,Acquired,Acquired,Acquired,Acquired,Acquired,Acquired,,,,3.20994176E2,2.07385424E2,1.31592568E2,2.1351255999999998E2,9.8356072E1,1.20624952E2,2.9295395199999996E2,2.74477888E2,5.1020036E1,,,,1.6954321999999998E1,1.8247529999999998E1,5.1724044E1,7.620867199999999E1,2.6865526E1,1.9012396E1,2.7856886E1,4.8062259999999995E1,3.5155528E1,,,,10,12,13,15,17,19,20,24,28,,,,2,6,12,15,9,2,6,4,1,,,,
1571258062,2019-10-16 20:34:22.352,Not acquired,Acquired,Acquired,Acquired,Acquired,Acquired,Acquired,Acquired,Acquired,,,,3.20994176E2,2.07385424E2,1.31592568E2,2.1351255999999998E2,9.8356072E1,1.20624952E2,2.9295395199999996E2,2.74477888E2,5.1020036E1,,,,1.6954321999999998E1,1.8247529999999998E1,5.1724044E1,7.620867199999999E1,2.6865526E1,1.9012396E1,2.7856886E1,4.8062259999999995E1,3.5155528E1,,,,10,12,13,15,17,19,20,24,28,,,,2,6,12,15,9,2,6,4,1,,,,
1571258122,2019-10-16 20:35:22.352,Not acquired,Acquired,Acquired,Acquired,Acquired,Acquired,Acquired,Acquired,Acquired,,,,3.20994176E2,2.07385424E2,1.31592568E2,2.1351255999999998E2,9.8356072E1,1.20624952E2,2.9295395199999996E2,2.74477888E2,5.1020036E1,,,,1.6954321999999998E1,1.8247529999999998E1,5.1724044E1,7.620867199999999E1,2.6865526E1,1.9012396E1,2.7856886E1,4.8062259999999995E1,3.5155528E1,,,,10,12,13,15,17,19,20,24,28,,,,2,6,12,15,9,2,6,4,1,,,,
1571258182,2019-10-16 20:36:22.352,Not acquired,Acquired,Acquired,Acquired,Acquired,Acquired,Acquired,Acquired,Acquired,,,,3.20994176E2,2.07385424E2,1.31592568E2,2.1351255999999998E2,9.8356072E1,1.20624952E2,2.9295395199999996E2,2.74477888E2,5.1020036E1,,,,1.6954321999999998E1,1.8247529999999998E1,5.1724044E1,7.620867199999999E1,2.6865526E1,1.9012396E1,2.7856886E1,4.8062259999999995E1,3.5155528E1,,,,10,12,13,15,17,19,20,24,28,,,,2,6,12,15,9,2,6,4,1,,,,
1571258242,2019-10-16 20:37:22.352,Not acquired,Acquired,Acquired,Acquired,Acquired,Acquired,Acquired,Acquired,Acquired,,,,3.20994176E2,2.07385424E2,1.31592568E2,2.1351255999999998E2,9.8356072E1,1.20624952E2,2.9295395199999996E2,2.74477888E2,5.1020036E1,,,,1.6954321999999998E1,1.8247529999999998E1,5.1724044E1,7.620867199999999E1,2.6865526E1,1.9012396E1,2.7856886E1,4.8062259999999995E1,3.5155528E1,,,,10,12,13,15,17,19,20,24,28,,,,2,6,12,15,9,2,6,4,1,,,,
1571258302,2019-10-16 20:38:22.352,Not acquired,Acquired,Acquired,Acquired,Acquired,Acquired,Acquired,Acquired,Acquired,,,,3.20994176E2,2.07385424E2,1.31592568E2,2.1351255999999998E2,9.8356072E1,1.20624952E2,2.9295395199999996E2,2.74477888E2,5.1020036E1,,,,1.6954321999999998E1,1.8247529999999998E1,5.1724044E1,7.620867199999999E1,2.6865526E1,1.9012396E1,2.7856886E1,4.8062259999999995E1,3.5155528E1,,,,10,12,13,15,17,19,20,24,28,,,,2,6,12,15,9,2,6,4,1,,,,
1571258362,2019-10-16 20:39:22.352,Not acquired,Acquired,Acquired,Acquired,Acquired,Acquired,Acquired,Acquired,Acquired,,,,3.20994176E2,2.07385424E2,1.31592568E2,2.1351255999999998E2,9.8356072E1,1.20624952E2,2.9295395199999996E2,2.74477888E2,5.1020036E1,,,,1.6954321999999998E1,1.8247529999999998E1,5.1724044E1,7.620867199999999E1,2.6865526E1,1.9012396E1,2.7856886E1,4.8062259999999995E1,3.5155528E1,,,,10,12,13,15,17,19,20,24,28,,,,2,6,12,15,9,2,6,4,1,,,,
1571258422,2019-10-16 20:40:22.352,Not acquired,Acquired,Acquired,Acquired,Acquired,Acquired,Acquired,Acquired,Acquired,,,,3.20994176E2,2.07385424E2,1.31592568E2,2.1351255999999998E2,9.8356072E1,1.20624952E2,2.9295395199999996E2,2.74477888E2,5.1020036E1,,,,1.6954321999999998E1,1.8247529999999998E1,5.1724044E1,7.620867199999999E1,2.6865526E1,1.9012396E1,2.7856886E1,4.8062259999999995E1,3.5155528E1,,,,10,12,13,15,17,19,20,24,28,,,,2,6,12,15,9,2,6,4,1,,,,
1571258482,2019-10-16 20:41:22.352,Not acquired,Acquired,Acquired,Acquired,Acquired,Acquired,Acquired,Acquired,Acquired,,,,3.20994176E2,2.07385424E2,1.31592568E2,2.1351255999999998E2,9.8356072E1,1.20624952E2,2.9295395199999996E2,2.74477888E2,5.1020036E1,,,,1.6954321999999998E1,1.8247529999999998E1,5.1724044E1,7.620867199999999E1,2.6865526E1,1.9012396E1,2.7856886E1,4.8062259999999995E1,3.5155528E1,,,,10,12,13,15,17,19,20,24,28,,,,2,6,12,15,9,2,6,4,1,,,,
1571258542,2019-10-16 20:42:22.352,Not acquired,Acquired,Acquired,Acquired,Acquired,Acquired,Acquired,Acquired,Acquired,,,,3.20994176E2,2.07385424E2,1.31592568E2,2.1351255999999998E2,9.8356072E1,1.20624952E2,2.9295395199999996E2,2.74477888E2,5.1020036E1,,,,1.6954321999999998E1,1.8247529999999998E1,5.1724044E1,7.620867199999999E1,2.6865526E1,1.9012396E1,2.7856886E1,4.8062259999999995E1,3.5155528E1,,,,10,12,13,15,17,19,20,24,28,,,,2,6,12,15,9,2,6,4,1,,,,
1571258602,2019-10-16 20:43:22.352,Not acquired,Acquired,Acquired,Acquired,Acquired,Acquired,Acquired,Acquired,Acquired,,,,3.20994176E2,2.07385424E2,1.31592568E2,2.1351255999999998E2,9.8356072E1,1.20624952E2,2.9295395199999996E2,2.74477888E2,5.1020036E1,,,,1.6954321999999998E1,1.8247529999999998E1,5.1724044E1,7.620867199999999E1,2.6865526E1,1.9012396E1,2.7856886E1,4.8062259999999995E1,3.5155528E1,,,,10,12,13,15,17,19,20,24,28,,,,2,6,12,15,9,2,6,4,1,,,,
1571258662,2019-10-16 20:44:22.352,Not acquired,Acquired,Acquired,Acquired,Acquired,Acquired,Acquired,Acquired,Acquired,,,,3.20994176E2,2.07385424E2,1.31592568E2,2.1351255999999998E2,9.8356072E1,1.20624952E2,2.9295395199999996E2,2.74477888E2,5.1020036E1,,,,1.6954321999999998E1,1.8247529999999998E1,5.1724044E1,7.620867199999999E1,2.6865526E1,1.9012396E1,2.7856886E1,4.8062259999999995E1,3.5155528E1,,,,10,12,13,15,17,19,20,24,28,,,,2,6,12,15,9,2,6,4,1,,,,
1571258722,2019-10-16 20:45:22.381,Not acquired,Acquired,Acquired,Acquired,Acquired,Acquired,Acquired,Acquired,Acquired,,,,3.20994176E2,2.07385424E2,1.31592568E2,2.1351255999999998E2,9.8356072E1,1.20624952E2,2.9295395199999996E2,2.74477888E2,5.1020036E1,,,,1.6954321999999998E1,1.8247529999999998E1,5.1724044E1,7.620867199999999E1,2.6865526E1,1.9012396E1,2.7856886E1,4.8062259999999995E1,3.5155528E1,,,,10,12,13,15,17,19,20,24,28,,,,2,6,12,15,9,2,6,4,1,,,,
1571258782,2019-10-16 20:46:22.352,Not acquired,Acquired,Acquired,Acquired,Acquired,Acquired,Acquired,Acquired,Acquired,,,,3.20994176E2,2.07385424E2,1.31592568E2,2.1351255999999998E2,9.8356072E1,1.20624952E2,2.9295395199999996E2,2.74477888E2,5.1020036E1,,,,1.6954321999999998E1,1.8247529999999998E1,5.1724044E1,7.620867199999999E1,2.6865526E1,1.9012396E1,2.7856886E1,4.8062259999999995E1,3.5155528E1,,,,10,12,13,15,17,19,20,24,28,,,,2,6,12,15,9,2,6,4,1,,,,
1571258842,2019-10-16 20:47:22.352,Not acquired,Acquired,Acquired,Acquired,Acquired,Acquired,Acquired,Acquired,Acquired,,,,3.20994176E2,2.07385424E2,1.31592568E2,2.1351255999999998E2,9.8356072E1,1.20624952E2,2.9295395199999996E2,2.74477888E2,5.1020036E1,,,,1.6954321999999998E1,1.8247529999999998E1,5.1724044E1,7.620867199999999E1,2.6865526E1,1.9012396E1,2.7856886E1,4.8062259999999995E1,3.5155528E1,,,,10,12,13,15,17,19,20,24,28,,,,2,6,12,15,9,2,6,4,1,,,,
1571258902,2019-10-16 20:48:22.354,Not acquired,Acquired,Acquired,Acquired,Acquired,Acquired,Acquired,Acquired,Acquired,,,,3.20994176E2,2.07385424E2,1.31592568E2,2.1351255999999998E2,9.8356072E1,1.20624952E2,2.9295395199999996E2,2.74477888E2,5.1020036E1,,,,1.6954321999999998E1,1.8247529999999998E1,5.1724044E1,7.620867199999999E1,2.6865526E1,1.9012396E1,2.7856886E1,4.8062259999999995E1,3.5155528E1,,,,10,12,13,15,17,19,20,24,28,,,,2,6,12,15,9,2,6,4,1,,,,
1571258962,2019-10-16 20:49:22.352,Not acquired,Acquired,Acquired,Acquired,Acquired,Acquired,Acquired,Acquired,Acquired,,,,3.20994176E2,2.07385424E2,1.31592568E2,2.1351255999999998E2,9.8356072E1,1.20624952E2,2.9295395199999996E2,2.74477888E2,5.1020036E1,,,,1.6954321999999998E1,1.8247529999999998E1,5.1724044E1,7.620867199999999E1,2.6865526E1,1.9012396E1,2.7856886E1,4.8062259999999995E1,3.5155528E1,,,,10,12,13,15,17,19,20,24,28,,,,2,6,12,15,9,2,6,4,1,,,,
1571259022,2019-10-16 20:50:22.352,Not acquired,Acquired,Acquired,Acquired,Acquired,Acquired,Acquired,Acquired,Acquired,,,,3.20994176E2,2.07385424E2,1.31592568E2,2.1351255999999998E2,9.8356072E1,1.20624952E2,2.9295395199999996E2,2.74477888E2,5.1020036E1,,,,1.6954321999999998E1,1.8247529999999998E1,5.1724044E1,7.620867199999999E1,2.6865526E1,1.9012396E1,2.7856886E1,4.8062259999999995E1,3.5155528E1,,,,10,12,13,15,17,19,20,24,28,,,,2,6,12,15,9,2,6,4,1,,,,
1571259082,2019-10-16 20:51:22.352,Not acquired,Acquired,Acquired,Acquired,Acquired,Acquired,Acquired,Acquired,Acquired,,,,3.20994176E2,2.07385424E2,1.31592568E2,2.1351255999999998E2,9.8356072E1,1.20624952E2,2.9295395199999996E2,2.74477888E2,5.1020036E1,,,,1.6954321999999998E1,1.8247529999999998E1,5.1724044E1,7.620867199999999E1,2.6865526E1,1.9012396E1,2.7856886E1,4.8062259999999995E1,3.5155528E1,,,,10,12,13,15,17,19,20,24,28,,,,2,6,12,15,9,2,6,4,1,,,,
1571259142,2019-10-16 20:52:22.352,Not acquired,Acquired,Acquired,Acquired,Acquired,Acquired,Acquired,Acquired,Acquired,,,,3.20994176E2,2.07385424E2,1.31592568E2,2.1351255999999998E2,9.8356072E1,1.20624952E2,2.9295395199999996E2,2.74477888E2,5.1020036E1,,,,1.6954321999999998E1,1.8247529999999998E1,5.1724044E1,7.620867199999999E1,2.6865526E1,1.9012396E1,2.7856886E1,4.8062259999999995E1,3.5155528E1,,,,10,12,13,15,17,19,20,24,28,,,,2,6,12,15,9,2,6,4,1,,,,
1571259202,2019-10-16 20:53:22.352,Not acquired,Acquired,Acquired,Acquired,Acquired,Acquired,Acquired,Acquired,Acquired,,,,3.20994176E2,2.07385424E2,1.31592568E2,2.1351255999999998E2,9.8356072E1,1.20624952E2,2.9295395199999996E2,2.74477888E2,5.1020036E1,,,,1.6954321999999998E1,1.8247529999999998E1,5.1724044E1,7.620867199999999E1,2.6865526E1,1.9012396E1,2.7856886E1,4.8062259999999995E1,3.5155528E1,,,,10,12,13,15,17,19,20,24,28,,,,2,6,12,15,9,2,6,4,1,,,,
1571259262,2019-10-16 20:54:22.352,Not acquired,Acquired,Acquired,Acquired,Acquired,Acquired,Acquired,Acquired,Acquired,,,,3.20994176E2,2.07385424E2,1.31592568E2,2.1351255999999998E2,9.8356072E1,1.20624952E2,2.9295395199999996E2,2.74477888E2,5.1020036E1,,,,1.6954321999999998E1,1.8247529999999998E1,5.1724044E1,7.620867199999999E1,2.6865526E1,1.9012396E1,2.7856886E1,4.8062259999999995E1,3.5155528E1,,,,10,12,13,15,17,19,20,24,28,,,,2,6,12,15,9,2,6,4,1,,,,
1571259322,2019-10-16 20:55:22.352,Not acquired,Acquired,Acquired,Acquired,Acquired,Acquired,Acquired,Acquired,Acquired,,,,3.20994176E2,2.07385424E2,1.31592568E2,2.1351255999999998E2,9.8356072E1,1.20624952E2,2.9295395199999996E2,2.74477888E2,5.1020036E1,,,,1.6954321999999998E1,1.8247529999999998E1,5.1724044E1,7.620867199999999E1,2.6865526E1,1.9012396E1,2.7856886E1,4.8062259999999995E1,3.5155528E1,,,,10,12,13,15,17,19,20,24,28,,,,2,6,12,15,9,2,6,4,1,,,,
1571259382,2019-10-16 20:56:22.352,Not acquired,Acquired,Acquired,Acquired,Acquired,Acquired,Acquired,Acquired,Acquired,,,,3.20994176E2,2.07385424E2,1.31592568E2,2.1351255999999998E2,9.8356072E1,1.20624952E2,2.9295395199999996E2,2.74477888E2,5.1020036E1,,,,1.6954321999999998E1,1.8247529999999998E1,5.1724044E1,7.620867199999999E1,2.6865526E1,1.9012396E1,2.7856886E1,4.8062259999999995E1,3.5155528E1,,,,10,12,13,15,17,19,20,24,28,,,,2,6,12,15,9,2,6,4,1,,,,
1571259442,2019-10-16 20:57:22.352,Not acquired,Acquired,Acquired,Acquired,Acquired,Acquired,Acquired,Acquired,Acquired,,,,3.20994176E2,2.07385424E2,1.31592568E2,2.1351255999999998E2,9.8356072E1,1.20624952E2,2.9295395199999996E2,2.74477888E2,5.1020036E1,,,,1.6954321999999998E1,1.8247529999999998E1,5.1724044E1,7.620867199999999E1,2.6865526E1,1.9012396E1,2.7856886E1,4.8062259999999995E1,3.5155528E1,,,,10,12,13,15,17,19,20,24,28,,,,2,6,12,15,9,2,6,4,1,,,,
1571259502,2019-10-16 20:58:22.352,Not acquired,Acquired,Acquired,Acquired,Acquired,Acquired,Acquired,Acquired,Acquired,,,,3.20994176E2,2.07385424E2,1.31592568E2,2.1351255999999998E2,9.8356072E1,1.20624952E2,2.9295395199999996E2,2.74477888E2,5.1020036E1,,,,1.6954321999999998E1,1.8247529999999998E1,5.1724044E1,7.620867199999999E1,2.6865526E1,1.9012396E1,2.7856886E1,4.8062259999999995E1,3.5155528E1,,,,10,12,13,15,17,19,20,24,28,,,,2,6,12,15,9,2,6,4,1,,,,
1571259562,2019-10-16 20:59:22.352,Not acquired,Acquired,Acquired,Acquired,Acquired,Acquired,Acquired,Acquired,Acquired,,,,3.20994176E2,2.07385424E2,1.31592568E2,2.1351255999999998E2,9.8356072E1,1.20624952E2,2.9295395199999996E2,2.74477888E2,5.1020036E1,,,,1.6954321999999998E1,1.8247529999999998E1,5.1724044E1,7.620867199999999E1,2.6865526E1,1.9012396E1,2.7856886E1,4.8062259999999995E1,3.5155528E1,,,,10,12,13,15,17,19,20,24,28,,,,2,6,12,15,9,2,6,4,1,,,,
