Time(longsecs),Time(UTC),Supply Voltage(mV),Temperature(&deg;C),NMX Bus Current(mA),Sensor Current(mA),Serial Port Current(mA),Controller Current(mA),Digitizer Current(mA),
1572494418,2019-10-31 04:00:18.807,16250,1.4443298E1,0,6,0,48,39,
1572494478,2019-10-31 04:01:18.839,16250,1.4366608E1,0,13,0,42,35,
1572494538,2019-10-31 04:02:18.806,16237,1.4350403E1,0,6,0,38,36,
1572494598,2019-10-31 04:03:18.809,16250,1.4584808E1,0,6,0,40,36,
1572494658,2019-10-31 04:04:18.806,16250,1.4353638E1,0,6,0,37,36,
1572494718,2019-10-31 04:05:18.806,16250,1.449408E1,0,9,0,37,35,
1572494778,2019-10-31 04:06:18.806,16250,1.4458435E1,0,8,0,38,36,
1572494838,2019-10-31 04:07:18.806,16250,1.4322327E1,0,11,0,45,39,
1572494898,2019-10-31 04:08:18.806,16250,1.4423859E1,0,6,0,38,38,
1572494958,2019-10-31 04:09:18.806,16250,1.4378479E1,15,6,0,38,39,
1572495018,2019-10-31 04:10:18.806,16250,1.4460571E1,0,7,0,40,39,
1572495078,2019-10-31 04:11:18.806,16250,1.4502716E1,0,6,0,39,37,
1572495138,2019-10-31 04:12:18.806,16250,1.4367676E1,0,3,0,38,36,
1572495198,2019-10-31 04:13:18.806,16250,1.4525391E1,0,8,0,39,35,
1572495258,2019-10-31 04:14:18.806,16250,1.462262E1,0,7,0,36,35,
1572495318,2019-10-31 04:15:18.806,16223,1.431366E1,0,6,0,37,34,
1572495378,2019-10-31 04:16:18.806,16250,1.4413055E1,0,11,0,40,36,
1572495438,2019-10-31 04:17:18.806,16250,1.4347168E1,0,9,0,39,37,
1572495498,2019-10-31 04:18:18.806,16250,1.4270477E1,0,9,0,34,35,
1572495558,2019-10-31 04:19:18.839,16250,1.4380646E1,0,9,0,34,36,
1572495618,2019-10-31 04:20:18.807,16250,1.4637756E1,0,7,0,35,38,
1572495678,2019-10-31 04:21:18.836,16237,1.4308258E1,0,6,0,38,36,
1572495738,2019-10-31 04:22:18.806,16237,1.458374E1,0,9,0,40,35,
1572495798,2019-10-31 04:23:18.806,16250,1.4418457E1,0,11,0,38,40,
1572495858,2019-10-31 04:24:18.806,16250,1.4487579E1,0,6,0,35,33,
1572495918,2019-10-31 04:25:18.807,16264,1.4126801E1,0,8,0,36,35,
1572495978,2019-10-31 04:26:18.806,16237,1.4558899E1,0,10,0,37,38,
1572496038,2019-10-31 04:27:18.806,16250,1.4532959E1,0,11,0,36,38,
1572496098,2019-10-31 04:28:18.806,16250,1.460318E1,0,6,0,40,35,
1572496158,2019-10-31 04:29:18.806,16250,1.4376312E1,0,6,0,34,38,
1572496218,2019-10-31 04:30:18.807,16250,1.4276947E1,0,6,0,36,38,
1572496278,2019-10-31 04:31:18.806,16250,1.4378479E1,0,6,0,34,35,
1572496338,2019-10-31 04:32:18.806,16250,1.4541595E1,0,5,0,40,33,
1572496398,2019-10-31 04:33:18.807,16250,1.4411987E1,0,7,0,36,35,
1572496458,2019-10-31 04:34:18.806,16250,1.4265076E1,0,6,0,33,39,
1572496518,2019-10-31 04:35:18.806,16250,1.4369843E1,0,4,0,36,36,
1572496578,2019-10-31 04:36:18.806,16250,1.4341766E1,0,12,0,38,36,
1572496638,2019-10-31 04:37:18.806,16250,1.4424927E1,0,9,0,38,37,
1572496698,2019-10-31 04:38:18.806,16237,1.4324463E1,0,6,0,35,39,
1572496758,2019-10-31 04:39:18.806,16223,1.4475708E1,0,6,0,64,40,
1572496818,2019-10-31 04:40:18.806,16237,1.4478943E1,0,5,0,38,38,
1572496878,2019-10-31 04:41:18.806,16237,1.4337433E1,0,15,0,34,35,
1572496938,2019-10-31 04:42:18.806,16237,1.4482178E1,0,4,0,39,42,
1572496998,2019-10-31 04:43:18.806,16223,1.4405487E1,0,6,0,61,36,
1572497058,2019-10-31 04:44:18.806,16237,1.4296387E1,0,6,0,50,33,
1572497118,2019-10-31 04:45:18.807,16223,1.4253174E1,0,5,0,61,37,
1572497178,2019-10-31 04:46:18.807,16237,1.4413055E1,0,9,0,29,35,
1572497238,2019-10-31 04:47:18.806,16237,1.4529724E1,0,11,0,38,39,
1572497298,2019-10-31 04:48:18.806,16237,1.4325562E1,0,8,0,40,41,
1572497358,2019-10-31 04:49:18.806,16237,1.4457336E1,0,9,0,33,35,
1572497418,2019-10-31 04:50:18.809,16237,1.4559967E1,0,9,0,39,36,
1572497478,2019-10-31 04:51:18.806,16237,1.4426025E1,0,11,0,41,40,
1572497538,2019-10-31 04:52:18.806,16250,1.4410889E1,0,8,0,40,36,
1572497598,2019-10-31 04:53:18.806,16250,1.4372009E1,0,5,0,39,35,
1572497658,2019-10-31 04:54:18.806,16237,1.4540527E1,0,8,0,40,36,
1572497718,2019-10-31 04:55:18.806,16223,1.4465973E1,0,6,0,39,35,
1572497778,2019-10-31 04:56:18.806,16223,1.4605347E1,0,7,0,39,36,
1572497838,2019-10-31 04:57:18.807,16210,1.4325562E1,9,4,0,47,36,
1572497898,2019-10-31 04:58:18.807,16237,1.4409821E1,0,8,0,46,37,
1572497958,2019-10-31 04:59:18.809,16168,1.4375244E1,0,13,0,42,41,
