Time(longsecs),Time(UTC),External SOH Voltage 1(V),External SOH Voltage 2(V),External SOH Voltage 3(V),External SOH Voltage 4(V),Sensor SOH Voltage 1(V),Sensor SOH Voltage 2(V),Sensor SOH Voltage 3(V),
1572541218,2019-10-31 17:00:18.806,-7.918835E-3,2.9125214E-3,-1.4097691E-3,-5.903244E-4,2.728758E-1,2.7553844E-1,2.753296E-1,
1572541278,2019-10-31 17:01:18.806,-7.586479E-3,3.2687187E-3,-7.741451E-4,-5.4883957E-4,2.7330208E-1,2.7529907E-1,2.753048E-1,
1572541338,2019-10-31 17:02:18.806,-1.0332108E-2,7.183552E-4,-3.3016205E-3,-2.7356148E-3,2.6984406E-1,2.7063942E-1,2.708702E-1,
1572541398,2019-10-31 17:03:18.850,-9.315968E-3,1.2078285E-3,-2.8586388E-3,-2.3450851E-3,2.6765442E-1,2.708187E-1,2.6892853E-1,
1572541458,2019-10-31 17:04:18.806,-9.727955E-3,1.240015E-3,-2.916336E-3,-2.7143955E-3,2.6866913E-1,2.707653E-1,2.6849365E-1,
1572541518,2019-10-31 17:05:18.806,-9.62472E-3,1.335144E-3,-2.7945042E-3,-2.4216175E-3,2.700615E-1,2.728691E-1,2.7111244E-1,
1572541578,2019-10-31 17:06:18.839,-1.1929512E-2,-1.1615753E-3,-5.0401688E-3,-4.894495E-3,2.6143646E-1,2.6361275E-1,2.6378632E-1,
1572541638,2019-10-31 17:07:18.819,-7.612705E-3,3.3814907E-3,-1.2545586E-3,-3.6740303E-4,2.760992E-1,2.7817822E-1,2.787466E-1,
1572541698,2019-10-31 17:08:18.806,-9.67598E-3,1.0631084E-3,-3.158331E-3,-2.4433136E-3,2.7122784E-1,2.7487087E-1,2.7336884E-1,
1572541758,2019-10-31 17:09:18.806,-7.889032E-3,2.9067993E-3,-1.3105869E-3,-6.0009956E-4,2.7538395E-1,2.783165E-1,2.7735424E-1,
1572541818,2019-10-31 17:10:18.806,-1.0177374E-2,6.854534E-4,-3.03483E-3,-2.765417E-3,2.678089E-1,2.7054596E-1,2.6890087E-1,
1572541878,2019-10-31 17:11:18.806,-7.6367855E-3,2.9790401E-3,-8.714199E-4,-2.7513504E-4,2.7308464E-1,2.7667046E-1,2.7646255E-1,
1572541938,2019-10-31 17:12:18.845,-9.86886E-3,9.4652176E-4,-3.3004284E-3,-2.6979446E-3,2.6891994E-1,2.7217197E-1,2.7123833E-1,
1572541998,2019-10-31 17:13:18.806,-1.0304213E-2,7.865429E-4,-3.529787E-3,-2.854824E-3,2.701044E-1,2.7233696E-1,2.71451E-1,
1572542058,2019-10-31 17:14:18.806,-9.630442E-3,1.4297962E-3,-2.9230118E-3,-2.6450157E-3,2.6983547E-1,2.7208805E-1,2.721548E-1,
1572542118,2019-10-31 17:15:18.806,-1.0176897E-2,6.4992905E-4,-3.3922195E-3,-2.7086735E-3,2.7167225E-1,2.7365208E-1,2.7294636E-1,
1572542178,2019-10-31 17:16:18.806,-9.562969E-3,1.3310909E-3,-3.3078194E-3,-2.5634766E-3,2.6803684E-1,2.7056503E-1,2.6885986E-1,
1572542238,2019-10-31 17:17:18.806,-1.0331392E-2,7.004738E-4,-3.424406E-3,-2.8021336E-3,2.6888084E-1,2.7183914E-1,2.6951408E-1,
1572542298,2019-10-31 17:18:18.806,-1.047492E-2,1.1651516E-3,-3.3943653E-3,-2.963543E-3,2.6955223E-1,2.7274704E-1,2.7150917E-1,
1572542358,2019-10-31 17:19:18.806,-7.7831745E-3,3.088951E-3,-1.005888E-3,-2.272129E-4,2.741022E-1,2.7820683E-1,2.776842E-1,
1572542418,2019-10-31 17:20:18.807,-1.0042667E-2,9.0789795E-4,-3.3845901E-3,-3.0252934E-3,2.6938725E-1,2.7215767E-1,2.697935E-1,
1572542478,2019-10-31 17:21:18.807,-1.1989832E-2,-6.766319E-4,-5.0632954E-3,-4.643917E-3,2.5842953E-1,2.6144218E-1,2.619753E-1,
1572542538,2019-10-31 17:22:18.845,-9.674072E-3,1.6820431E-3,-2.8955936E-3,-2.418518E-3,2.668743E-1,2.6960468E-1,2.683668E-1,
1572542598,2019-10-31 17:23:18.806,-7.5080395E-3,3.0443668E-3,-9.737015E-4,-1.5640259E-4,2.725954E-1,2.7563667E-1,2.7508068E-1,
1572542658,2019-10-31 17:24:18.806,-9.683847E-3,1.2998581E-3,-2.7635098E-3,-2.3465157E-3,2.7047157E-1,2.7236462E-1,2.715311E-1,
1572542718,2019-10-31 17:25:18.806,-9.310961E-3,1.2898445E-3,-2.644062E-3,-2.0930767E-3,2.6969528E-1,2.723503E-1,2.7243233E-1,
1572542778,2019-10-31 17:26:18.806,-9.88102E-3,1.2171268E-3,-2.6979446E-3,-2.3326874E-3,2.6766872E-1,2.7019882E-1,2.7101135E-1,
1572542838,2019-10-31 17:27:18.806,-1.0148287E-2,1.5115738E-3,-3.108263E-3,-2.3682117E-3,2.6944256E-1,2.7246284E-1,2.7296352E-1,
1572542898,2019-10-31 17:28:18.806,-1.0233402E-2,1.0282993E-3,-3.2951832E-3,-2.7062893E-3,2.6410294E-1,2.6843262E-1,2.6602936E-1,
1572542958,2019-10-31 17:29:18.806,-1.1850357E-2,-9.4628334E-4,-5.437851E-3,-5.056858E-3,2.6167107E-1,2.6376152E-1,2.6328087E-1,
1572543018,2019-10-31 17:30:18.806,-7.7967644E-3,3.3493042E-3,-1.2555122E-3,-3.7837029E-4,2.7611637E-1,2.7781582E-1,2.7796555E-1,
1572543078,2019-10-31 17:31:18.806,-1.1650801E-2,-1.0688305E-3,-4.9107075E-3,-4.7655106E-3,2.6393318E-1,2.6524162E-1,2.6578617E-1,
1572543138,2019-10-31 17:32:18.806,-9.763479E-3,6.8831444E-4,-3.3929348E-3,-2.532959E-3,2.694006E-1,2.7194977E-1,2.7025223E-1,
1572543198,2019-10-31 17:33:18.806,-7.856131E-3,2.9239655E-3,-1.1606216E-3,-3.7837029E-4,2.737465E-1,2.7569008E-1,2.7514267E-1,
1572543258,2019-10-31 17:34:18.806,-7.540226E-3,3.0875206E-3,-1.1501312E-3,-8.2683563E-4,2.7542305E-1,2.771654E-1,2.7727795E-1,
1572543318,2019-10-31 17:35:18.806,-9.931326E-3,7.8749657E-4,-3.5934448E-3,-3.0207634E-3,2.686777E-1,2.7083778E-1,2.7137852E-1,
1572543378,2019-10-31 17:36:18.806,-1.0558128E-2,6.1249733E-4,-3.3819675E-3,-2.5188923E-3,2.6928043E-1,2.724743E-1,2.712221E-1,
1572543438,2019-10-31 17:37:18.806,-9.376526E-3,1.2426376E-3,-2.814293E-3,-2.2468567E-3,2.6731205E-1,2.6997852E-1,2.703781E-1,
1572543498,2019-10-31 17:38:18.809,-9.617567E-3,1.1487007E-3,-2.9654503E-3,-2.4750233E-3,2.701969E-1,2.7147865E-1,2.7208233E-1,
1572543558,2019-10-31 17:39:18.806,-9.3791485E-3,1.420021E-3,-2.8164387E-3,-2.4220943E-3,2.7030087E-1,2.7193356E-1,2.7257824E-1,
1572543618,2019-10-31 17:40:18.806,-9.511948E-3,1.4841557E-3,-2.9976368E-3,-2.1238327E-3,2.7038383E-1,2.7273273E-1,2.7288437E-1,
1572543678,2019-10-31 17:41:18.806,-1.2071371E-2,-1.3742447E-3,-5.2149296E-3,-4.4732094E-3,2.6174545E-1,2.6296616E-1,2.6414108E-1,
1572543738,2019-10-31 17:42:18.806,-9.795427E-3,1.5125275E-3,-2.6640892E-3,-2.1426678E-3,2.669258E-1,2.6935387E-1,2.6790524E-1,
1572543798,2019-10-31 17:43:18.806,-7.796049E-3,2.8135777E-3,-1.2242794E-3,-2.4223328E-4,2.7485943E-1,2.7821827E-1,2.76824E-1,
1572543858,2019-10-31 17:44:18.806,-7.917881E-3,3.118515E-3,-1.1923313E-3,-6.16312E-4,2.755766E-1,2.7790833E-1,2.7866268E-1,
1572543918,2019-10-31 17:45:18.808,-8.111954E-3,3.1151772E-3,-1.0435581E-3,-5.9103966E-4,2.7663136E-1,2.8148842E-1,2.817726E-1,
1572543978,2019-10-31 17:46:18.831,-7.367134E-3,3.1273365E-3,-9.6583366E-4,-4.8613548E-4,2.7798176E-1,2.7532673E-1,2.8059483E-1,
1572544038,2019-10-31 17:47:18.806,-7.725954E-3,3.0658245E-3,-1.0430813E-3,-2.3150444E-4,2.717409E-1,2.7449703E-1,2.7547264E-1,
1572544098,2019-10-31 17:48:18.806,-9.744406E-3,1.2154579E-3,-3.0534267E-3,-2.5455952E-3,2.7034473E-1,2.7205276E-1,2.7066708E-1,
1572544158,2019-10-31 17:49:18.806,-1.0032177E-2,4.2247772E-4,-3.284216E-3,-3.008604E-3,2.6778126E-1,2.686739E-1,2.682066E-1,
1572544218,2019-10-31 17:50:18.807,-9.5152855E-3,1.4050007E-3,-3.123045E-3,-2.0942688E-3,2.6593304E-1,2.6928043E-1,2.682066E-1,
1572544278,2019-10-31 17:51:18.806,-1.2185097E-2,-1.1451244E-3,-4.8644543E-3,-4.8322678E-3,2.6358223E-1,2.6635742E-1,2.6543236E-1,
1572544338,2019-10-31 17:52:18.806,-1.2158394E-2,-1.3947487E-3,-5.3236485E-3,-4.717827E-3,2.5926876E-1,2.603941E-1,2.6097298E-1,
1572544398,2019-10-31 17:53:18.806,-1.2263298E-2,-1.1293888E-3,-5.3756237E-3,-4.9011707E-3,2.582941E-1,2.611513E-1,2.611971E-1,
1572544458,2019-10-31 17:54:18.806,-1.0339737E-2,3.2424927E-4,-3.685236E-3,-3.19314E-3,2.6959038E-1,2.7108002E-1,2.7072716E-1,
1572544518,2019-10-31 17:55:18.806,-7.678032E-3,3.2117367E-3,-1.339674E-3,-1.0752678E-4,2.7551365E-1,2.787485E-1,2.786951E-1,
1572544578,2019-10-31 17:56:18.806,-8.134127E-3,2.8517246E-3,-1.2843609E-3,-4.5084953E-4,2.7566242E-1,2.7798176E-1,2.785902E-1,
1572544638,2019-10-31 17:57:18.807,-1.2192488E-2,-8.237362E-4,-5.158901E-3,-4.906893E-3,2.5911236E-1,2.619753E-1,2.6451778E-1,
1572544698,2019-10-31 17:58:18.806,-8.205652E-3,3.158331E-3,-1.2960434E-3,-3.1852722E-4,2.739706E-1,2.7431488E-1,2.7475166E-1,
1572544758,2019-10-31 17:59:18.806,-9.60803E-3,1.2338161E-3,-2.9723644E-3,-2.227068E-3,2.673025E-1,2.7028942E-1,2.702427E-1,
