Time(longsecs),Time(UTC),External SOH Voltage 1(V),External SOH Voltage 2(V),External SOH Voltage 3(V),External SOH Voltage 4(V),Sensor SOH Voltage 1(V),Sensor SOH Voltage 2(V),Sensor SOH Voltage 3(V),
1572501618,2019-10-31 06:00:18.806,-9.308338E-3,1.5587807E-3,-2.8874874E-3,-2.1514893E-3,2.7616596E-1,2.766781E-1,2.7796364E-1,
1572501678,2019-10-31 06:01:18.806,-7.846355E-3,3.1368732E-3,-1.1794567E-3,-6.8569183E-4,2.773323E-1,2.803278E-1,2.7986813E-1,
1572501738,2019-10-31 06:02:18.806,-1.0338068E-2,1.1396408E-3,-3.2932758E-3,-2.8905869E-3,2.6991272E-1,2.7705383E-1,2.7335453E-1,
1572501798,2019-10-31 06:03:18.809,-9.656906E-3,1.4224052E-3,-3.0863285E-3,-2.3374557E-3,2.7200317E-1,2.691803E-1,2.739973E-1,
1572501858,2019-10-31 06:04:18.807,-7.815838E-3,3.0303001E-3,-1.311779E-3,-5.607605E-4,2.7679253E-1,2.7873993E-1,2.7805996E-1,
1572501918,2019-10-31 06:05:18.806,-1.1870861E-2,-1.1446476E-3,-5.2719116E-3,-4.809141E-3,2.6522064E-1,2.665329E-1,2.6752186E-1,
1572501978,2019-10-31 06:06:18.806,-1.0522604E-2,4.9591064E-4,-3.8795471E-3,-2.988577E-3,2.7145004E-1,2.762699E-1,2.720337E-1,
1572502038,2019-10-31 06:07:18.806,-1.0027885E-2,4.8565865E-4,-3.1602383E-3,-2.8772354E-3,2.695608E-1,2.681389E-1,2.6982498E-1,
1572502098,2019-10-31 06:08:18.806,-1.0450125E-2,9.1028214E-4,-3.7293434E-3,-3.0562878E-3,2.7120018E-1,2.764063E-1,2.7180576E-1,
1572502158,2019-10-31 06:09:18.807,-9.529829E-3,1.3887882E-3,-2.874136E-3,-2.2771358E-3,2.7007675E-1,2.769308E-1,2.727232E-1,
1572502218,2019-10-31 06:10:18.806,-1.0455847E-2,9.598732E-4,-3.986597E-3,-2.776146E-3,2.7093887E-1,2.7398968E-1,2.71904E-1,
1572502278,2019-10-31 06:11:18.807,-7.860899E-3,3.2565594E-3,-1.2729168E-3,-5.6648254E-4,2.7738762E-1,2.7840996E-1,2.7952194E-1,
1572502338,2019-10-31 06:12:18.807,-9.626389E-3,1.335144E-3,-2.9981136E-3,-2.579689E-3,2.7177334E-1,2.7183914E-1,2.7315807E-1,
1572502398,2019-10-31 06:13:18.806,-1.1874199E-2,-1.0912418E-3,-5.2046776E-3,-5.186081E-3,2.648344E-1,2.6922417E-1,2.681656E-1,
1572502458,2019-10-31 06:14:18.806,-9.651899E-3,1.1556149E-3,-3.021717E-3,-2.203703E-3,2.700281E-1,2.720461E-1,2.7161503E-1,
1572502518,2019-10-31 06:15:18.806,-1.0253191E-2,9.3626976E-4,-3.4480095E-3,-3.0636787E-3,2.6953602E-1,2.698021E-1,2.7161598E-1,
1572502578,2019-10-31 06:16:18.806,-1.2131929E-2,-1.2669563E-3,-5.291939E-3,-4.763365E-3,2.6385593E-1,2.6517296E-1,2.6584244E-1,
1572502638,2019-10-31 06:17:18.806,-1.1810541E-2,-1.5823841E-3,-5.4781437E-3,-4.664421E-3,2.6395035E-1,2.631235E-1,2.648754E-1,
1572502698,2019-10-31 06:18:18.845,-1.21667385E-2,-1.083374E-3,-5.165577E-3,-4.986763E-3,2.7211952E-1,2.7434444E-1,2.7281284E-1,
1572502758,2019-10-31 06:19:18.806,-7.84111E-3,2.8505325E-3,-1.3628006E-3,-4.272461E-4,2.7392292E-1,2.743225E-1,2.7502918E-1,
1572502818,2019-10-31 06:20:18.806,-1.2112379E-2,-1.2681484E-3,-5.8226585E-3,-4.8401356E-3,2.652712E-1,2.682953E-1,2.670107E-1,
1572502878,2019-10-31 06:21:18.806,-9.721279E-3,1.3093948E-3,-3.0946732E-3,-2.3818016E-3,2.6947498E-1,2.70216E-1,2.7299118E-1,
1572502938,2019-10-31 06:22:18.806,-9.516001E-3,1.6217232E-3,-2.6934147E-3,-1.9967556E-3,2.7101135E-1,2.739706E-1,2.7129936E-1,
1572502998,2019-10-31 06:23:18.806,-9.643316E-3,1.11413E-3,-3.2265186E-3,-2.5203228E-3,2.7012157E-1,2.7177334E-1,2.7174282E-1,
1572503058,2019-10-31 06:24:18.806,-1.204133E-2,-1.1534691E-3,-5.563736E-3,-4.523039E-3,2.6353836E-1,2.6292038E-1,2.6484013E-1,
1572503118,2019-10-31 06:25:18.806,-1.0320663E-2,4.2152405E-4,-3.5841465E-3,-2.8710365E-3,2.6937675E-1,2.71657E-1,2.7051258E-1,
1572503178,2019-10-31 06:26:18.807,-1.0213375E-2,5.698204E-4,-3.2873154E-3,-3.1602383E-3,2.7034664E-1,2.7319717E-1,2.7329063E-1,
1572503238,2019-10-31 06:27:18.815,-1.2223005E-2,-1.6751289E-3,-5.368471E-3,-4.717827E-3,2.6984024E-1,2.7842712E-1,2.712803E-1,
1572503298,2019-10-31 06:28:18.806,-9.542942E-3,1.3606548E-3,-2.7415752E-3,-2.3374557E-3,2.762413E-1,2.7979374E-1,2.7878284E-1,
1572503358,2019-10-31 06:29:18.806,-7.953167E-3,2.9990673E-3,-1.0592937E-3,-4.284382E-4,2.7789974E-1,2.8067493E-1,2.778473E-1,
1572503418,2019-10-31 06:30:18.806,-7.827282E-3,3.267765E-3,-1.175642E-3,-6.530285E-4,2.7733994E-1,2.811556E-1,2.8003597E-1,
1572503478,2019-10-31 06:31:18.806,-1.038003E-2,7.6031685E-4,-3.4489632E-3,-2.888918E-3,2.697525E-1,2.736206E-1,2.7053738E-1,
1572503538,2019-10-31 06:32:18.806,-9.805441E-3,1.3537407E-3,-2.9780865E-3,-2.9275417E-3,2.7157402E-1,2.740383E-1,2.7305603E-1,
1572503598,2019-10-31 06:33:18.806,-1.174736E-2,-1.2762547E-3,-5.266905E-3,-5.031109E-3,2.6523304E-1,2.6575375E-1,2.6737022E-1,
1572503658,2019-10-31 06:34:18.809,-1.012516E-2,7.264614E-4,-3.4952164E-3,-3.0343533E-3,2.7134418E-1,2.6705265E-1,2.741127E-1,
1572503718,2019-10-31 06:35:18.807,-7.544279E-3,2.7484894E-3,-1.3105869E-3,-5.9366226E-4,2.818575E-1,2.8387356E-1,2.8391552E-1,
1572503778,2019-10-31 06:36:18.806,-7.863522E-3,3.199339E-3,-7.946491E-4,-3.3307076E-4,2.770567E-1,2.8062153E-1,2.8020096E-1,
1572503838,2019-10-31 06:37:18.806,-1.0132551E-2,8.714199E-4,-3.209591E-3,-2.9189587E-3,2.754116E-1,2.79624E-1,2.7840137E-1,
1572503898,2019-10-31 06:38:18.806,-7.7853203E-3,3.024578E-3,-1.0693073E-3,-1.8119812E-5,2.7735043E-1,2.7817154E-1,2.794609E-1,
1572503958,2019-10-31 06:39:18.806,-7.7693462E-3,3.0493736E-3,-1.1560917E-3,-5.4478645E-4,2.7780914E-1,2.7952194E-1,2.7968407E-1,
1572504018,2019-10-31 06:40:18.806,-1.1935234E-2,-1.0421276E-3,-5.286932E-3,-4.6379566E-3,2.6459217E-1,2.6619625E-1,2.6420498E-1,
1572504078,2019-10-31 06:41:18.806,-8.043051E-3,3.118515E-3,-1.3511181E-3,-2.48909E-4,2.7597332E-1,2.7425957E-1,2.7909184E-1,
1572504138,2019-10-31 06:42:18.806,-1.2092829E-2,-1.2202263E-3,-5.3141117E-3,-4.817009E-3,2.651434E-1,2.676401E-1,2.663288E-1,
1572504198,2019-10-31 06:43:18.806,-1.0042667E-2,8.1539154E-4,-3.5419464E-3,-2.5577545E-3,2.7528286E-1,2.7750492E-1,2.7598E-1,
1572504258,2019-10-31 06:44:18.809,-9.6411705E-3,1.2366772E-3,-2.8941631E-3,-1.9681454E-3,2.712221E-1,2.7774715E-1,2.7276897E-1,
1572504318,2019-10-31 06:45:18.806,-1.2255907E-2,-1.3818741E-3,-5.172491E-3,-5.14102E-3,2.6325798E-1,2.661171E-1,2.6610374E-1,
1572504378,2019-10-31 06:46:18.806,-7.559061E-3,3.3493042E-3,-1.1143684E-3,-3.6239624E-5,2.7876186E-1,2.8375912E-1,2.8080177E-1,
1572504438,2019-10-31 06:47:18.806,-9.517193E-3,1.4185905E-3,-2.9022694E-3,-1.9085407E-3,2.7062798E-1,2.7473545E-1,2.729969E-1,
1572504498,2019-10-31 06:48:18.806,-7.801771E-3,3.1723976E-3,-1.51968E-3,-7.686615E-4,2.7820683E-1,2.8122616E-1,2.792549E-1,
1572504558,2019-10-31 06:49:18.806,-1.0154247E-2,6.8449974E-4,-3.3164024E-3,-2.7554035E-3,2.6962662E-1,2.71286E-1,2.7123642E-1,
1572504618,2019-10-31 06:50:18.807,-7.907152E-3,2.9768944E-3,-1.2226105E-3,-3.8003922E-4,2.7825737E-1,2.7593422E-1,2.7858067E-1,
1572504678,2019-10-31 06:51:18.806,-7.6482296E-3,2.906561E-3,-9.138584E-4,-5.9843063E-4,2.7621078E-1,2.748642E-1,2.7644062E-1,
1572504738,2019-10-31 06:52:18.806,-1.0146141E-2,7.5888634E-4,-3.4012794E-3,-2.8767586E-3,2.708807E-1,2.734728E-1,2.7375507E-1,
1572504798,2019-10-31 06:53:18.806,-9.48143E-3,1.550436E-3,-2.7554035E-3,-1.9938946E-3,2.700529E-1,2.6861382E-1,2.7326202E-1,
1572504858,2019-10-31 06:54:18.809,-1.0165691E-2,6.4086914E-4,-3.6196709E-3,-2.6111603E-3,2.7066994E-1,2.7357197E-1,2.738161E-1,
1572504918,2019-10-31 06:55:18.806,-9.918451E-3,1.2898445E-3,-3.0174255E-3,-2.1657944E-3,2.7535057E-1,2.7668095E-1,2.795248E-1,
1572504978,2019-10-31 06:56:18.806,-7.71451E-3,3.225565E-3,-1.2199879E-3,-4.696846E-4,2.756405E-1,2.7657032E-1,2.761898E-1,
1572505038,2019-10-31 06:57:18.809,-1.0091543E-2,6.6399574E-4,-3.5619736E-3,-2.6845932E-3,2.7157116E-1,2.7366924E-1,2.7159595E-1,
1572505098,2019-10-31 06:58:18.806,-9.946108E-3,8.547306E-4,-3.7391186E-3,-2.7885437E-3,2.6901627E-1,2.7193737E-1,2.692747E-1,
1572505158,2019-10-31 06:59:18.809,-1.2149334E-2,-1.0898113E-3,-5.1112175E-3,-4.6823025E-3,2.661085E-1,2.675171E-1,2.667818E-1,
