Time(longsecs),Time(UTC),Supply Voltage(mV),Temperature(&deg;C),NMX Bus Current(mA),Sensor Current(mA),Serial Port Current(mA),Controller Current(mA),Digitizer Current(mA),
1572519618,2019-10-31 11:00:18.806,16319,1.7036926E1,0,8,0,59,36,
1572519678,2019-10-31 11:01:18.806,16319,1.7404205E1,0,9,0,57,36,
1572519738,2019-10-31 11:02:18.806,16305,1.7109283E1,0,7,0,66,43,
1572519798,2019-10-31 11:03:18.806,16346,1.723352E1,0,9,0,57,38,
1572519858,2019-10-31 11:04:18.807,16319,1.722705E1,0,6,0,57,37,
1572519918,2019-10-31 11:05:18.806,16319,1.7101746E1,0,11,0,57,35,
1572519978,2019-10-31 11:06:18.806,16332,1.7261597E1,0,8,0,57,37,
1572520038,2019-10-31 11:07:18.806,16319,1.7187073E1,0,8,0,56,35,
1572520098,2019-10-31 11:08:18.806,16346,1.7458221E1,0,6,0,57,34,
1572520158,2019-10-31 11:09:18.806,16305,1.718924E1,0,9,0,57,35,
1572520218,2019-10-31 11:10:18.807,16305,1.753598E1,0,6,0,57,35,
1572520278,2019-10-31 11:11:18.809,16305,1.7376099E1,0,9,0,61,34,
1572520338,2019-10-31 11:12:18.806,16305,1.7570557E1,0,9,0,57,37,
1572520398,2019-10-31 11:13:18.806,16305,1.7399872E1,0,9,0,43,37,
1572520458,2019-10-31 11:14:18.809,16305,1.7477661E1,0,14,0,51,37,
1572520518,2019-10-31 11:15:18.806,16292,1.7319946E1,0,10,0,56,40,
1572520578,2019-10-31 11:16:18.806,16305,1.7525177E1,0,7,0,59,36,
1572520638,2019-10-31 11:17:18.807,16319,1.754895E1,0,13,0,66,37,
1572520698,2019-10-31 11:18:18.808,16305,1.758783E1,0,8,0,66,37,
1572520758,2019-10-31 11:19:18.807,16305,1.7566223E1,0,9,0,67,36,
1572520818,2019-10-31 11:20:18.806,16319,1.776715E1,0,11,0,65,36,
1572520878,2019-10-31 11:21:18.806,16319,1.7635376E1,0,2,0,59,38,
1572520938,2019-10-31 11:22:18.806,16319,1.7869781E1,0,7,21,57,35,
1572520998,2019-10-31 11:23:18.807,16332,1.7946472E1,0,7,0,57,39,
1572521058,2019-10-31 11:24:18.806,16292,1.788382E1,0,9,0,56,36,
1572521118,2019-10-31 11:25:18.806,16305,1.7944305E1,0,7,0,57,34,
1572521178,2019-10-31 11:26:18.806,16332,1.7955109E1,0,8,0,57,38,
1572521238,2019-10-31 11:27:18.806,16292,1.7918396E1,0,9,0,57,36,
1572521298,2019-10-31 11:28:18.806,16278,1.7920532E1,0,7,0,88,37,
1572521358,2019-10-31 11:29:18.806,16305,1.7993988E1,0,9,0,83,40,
1572521418,2019-10-31 11:30:18.806,16332,1.8036133E1,0,6,0,57,36,
1572521478,2019-10-31 11:31:18.806,16319,1.7978882E1,0,6,0,58,38,
1572521538,2019-10-31 11:32:18.807,16332,1.8305115E1,0,6,0,56,35,
1572521598,2019-10-31 11:33:18.806,16319,1.819925E1,0,9,0,57,35,
1572521658,2019-10-31 11:34:18.806,16319,1.8190613E1,0,4,0,58,35,
1572521718,2019-10-31 11:35:18.806,16319,1.832132E1,0,6,0,57,36,
1572521778,2019-10-31 11:36:18.806,16319,1.8120392E1,0,9,0,54,35,
1572521838,2019-10-31 11:37:18.809,16305,1.864212E1,0,4,0,52,34,
1572521898,2019-10-31 11:38:18.806,16319,1.8274841E1,0,3,0,59,38,
1572521958,2019-10-31 11:39:18.807,16319,1.8120392E1,0,8,0,57,39,
1572522018,2019-10-31 11:40:18.806,16319,1.8194916E1,0,10,0,52,39,
1572522078,2019-10-31 11:41:18.806,16319,1.8495209E1,0,8,0,58,35,
1572522138,2019-10-31 11:42:18.806,16319,1.8364502E1,0,9,0,53,35,
1572522198,2019-10-31 11:43:18.806,16332,1.8434723E1,0,8,0,61,36,
1572522258,2019-10-31 11:44:18.806,16319,1.8403412E1,0,6,0,58,40,
1572522318,2019-10-31 11:45:18.806,16319,1.8406647E1,0,6,0,52,36,
1572522378,2019-10-31 11:46:18.806,16319,1.84682E1,0,5,0,58,35,
1572522438,2019-10-31 11:47:18.809,16305,1.8515747E1,0,10,0,67,39,
1572522498,2019-10-31 11:48:18.807,16305,1.8538422E1,0,7,0,66,39,
1572522558,2019-10-31 11:49:18.806,16305,1.8690735E1,0,9,0,58,37,
1572522618,2019-10-31 11:50:18.809,16264,1.842392E1,0,7,0,57,39,
1572522678,2019-10-31 11:51:18.809,16332,1.845633E1,0,8,0,58,34,
1572522738,2019-10-31 11:52:18.806,16305,1.8878693E1,0,9,0,58,37,
1572522798,2019-10-31 11:53:18.806,16305,1.8574066E1,0,10,0,57,38,
1572522858,2019-10-31 11:54:18.806,16305,1.8666962E1,0,6,0,58,37,
1572522918,2019-10-31 11:55:18.809,16319,1.8453094E1,0,7,0,57,35,
1572522978,2019-10-31 11:56:18.806,16319,1.8509277E1,0,7,0,57,40,
1572523038,2019-10-31 11:57:18.806,16319,1.8620514E1,0,8,0,57,34,
1572523098,2019-10-31 11:58:18.806,16319,1.8768524E1,0,8,0,57,40,
1572523158,2019-10-31 11:59:18.806,16319,1.8718842E1,0,6,0,64,42,
