Time(longsecs),Time(UTC),External SOH Voltage 1(V),External SOH Voltage 2(V),External SOH Voltage 3(V),External SOH Voltage 4(V),Sensor SOH Voltage 1(V),Sensor SOH Voltage 2(V),Sensor SOH Voltage 3(V),
1572519618,2019-10-31 11:00:18.806,-1.1749506E-2,-1.206398E-3,-5.37014E-3,-4.269123E-3,2.6665783E-1,2.728758E-1,2.714405E-1,
1572519678,2019-10-31 11:01:18.806,-1.2063026E-2,-9.4628334E-4,-5.1841736E-3,-5.0759315E-3,2.685461E-1,2.6760483E-1,2.6650143E-1,
1572519738,2019-10-31 11:02:18.806,-1.175642E-2,-9.0932846E-4,-5.318165E-3,-4.9436092E-3,2.6480198E-1,2.7157402E-1,2.7018166E-1,
1572519798,2019-10-31 11:03:18.806,-1.0177374E-2,4.117489E-4,-3.4554005E-3,-3.05295E-3,2.6829243E-1,2.7425385E-1,2.726469E-1,
1572519858,2019-10-31 11:04:18.807,-9.499311E-3,1.5552044E-3,-3.001213E-3,-2.2010803E-3,2.7359104E-1,2.7739906E-1,2.789936E-1,
1572519918,2019-10-31 11:05:18.806,-1.1879206E-2,-8.006096E-4,-5.2073E-3,-4.4105053E-3,2.6321125E-1,2.695465E-1,2.669773E-1,
1572519978,2019-10-31 11:06:18.806,-7.5917244E-3,3.1352043E-3,-1.3439655E-3,-2.2315979E-4,2.805338E-1,2.8051567E-1,2.7860928E-1,
1572520038,2019-10-31 11:07:18.806,-1.2134552E-2,-1.6198158E-3,-5.416155E-3,-4.844904E-3,2.625599E-1,2.68013E-1,2.667303E-1,
1572520098,2019-10-31 11:08:18.806,-9.421349E-3,1.178503E-3,-3.0958652E-3,-2.5849342E-3,2.7196503E-1,2.7330017E-1,2.707672E-1,
1572520158,2019-10-31 11:09:18.806,-1.2127876E-2,-1.0173321E-3,-5.6273937E-3,-5.3088665E-3,2.6330757E-1,2.6817322E-1,2.6667213E-1,
1572520218,2019-10-31 11:10:18.807,-9.773254E-3,1.6610622E-3,-2.6476383E-3,-2.3415089E-3,2.758379E-1,2.7682877E-1,2.7337646E-1,
1572520278,2019-10-31 11:11:18.809,-9.495258E-3,1.5347004E-3,-2.900362E-3,-2.0992756E-3,2.6964092E-1,2.7401066E-1,2.7204227E-1,
1572520338,2019-10-31 11:12:18.806,-9.895802E-3,1.1286736E-3,-2.868414E-3,-2.2053719E-3,2.761078E-1,2.719841E-1,2.7194977E-1,
1572520398,2019-10-31 11:13:18.806,-9.840012E-3,1.5494823E-3,-2.988577E-3,-2.1533966E-3,2.704134E-1,2.741766E-1,2.738886E-1,
1572520458,2019-10-31 11:14:18.809,-7.56526E-3,3.084898E-3,-1.2714863E-3,-3.7646294E-4,2.7750587E-1,2.873354E-1,2.8449917E-1,
1572520518,2019-10-31 11:15:18.806,-1.0178089E-2,5.5241585E-4,-3.2022E-3,-2.347231E-3,2.747717E-1,2.7398968E-1,2.7167892E-1,
1572520578,2019-10-31 11:16:18.806,-1.1795521E-2,-8.409023E-4,-4.950285E-3,-4.6072006E-3,2.6672745E-1,2.7040863E-1,2.6834488E-1,
1572520638,2019-10-31 11:17:18.807,-9.388924E-3,1.4395714E-3,-2.8643608E-3,-2.0332336E-3,2.7217674E-1,2.782755E-1,2.7937984E-1,
1572520698,2019-10-31 11:18:18.808,-9.991646E-3,8.482933E-4,-3.4570694E-3,-2.855301E-3,2.7010155E-1,2.7150822E-1,2.7334976E-1,
1572520758,2019-10-31 11:19:18.807,-9.510756E-3,1.2352467E-3,-3.5290718E-3,-2.2838116E-3,2.7346516E-1,2.7394295E-1,2.713976E-1,
1572520818,2019-10-31 11:20:18.806,-1.0227442E-2,1.0061264E-3,-3.4968853E-3,-2.874136E-3,2.7136517E-1,2.7685356E-1,2.779398E-1,
1572520878,2019-10-31 11:21:18.806,-9.773254E-3,1.2829304E-3,-3.2527447E-3,-2.5160313E-3,2.7169037E-1,2.7396774E-1,2.7458382E-1,
1572520938,2019-10-31 11:22:18.806,-1.0470629E-2,9.1052055E-4,-3.6842823E-3,-3.0579567E-3,2.7050686E-1,2.7305984E-1,2.735138E-1,
1572520998,2019-10-31 11:23:18.807,-9.539127E-3,1.4703274E-3,-2.93684E-3,-2.1238327E-3,2.7190208E-1,2.732334E-1,2.718525E-1,
1572521058,2019-10-31 11:24:18.806,-7.958412E-3,3.0329227E-3,-1.0316372E-3,-1.8787384E-4,2.7727222E-1,2.8000355E-1,2.7908993E-1,
1572521118,2019-10-31 11:25:18.806,-7.7722073E-3,3.0534267E-3,-1.3837814E-3,-5.440712E-4,2.7361012E-1,2.737465E-1,2.7520084E-1,
1572521178,2019-10-31 11:26:18.806,-7.7216625E-3,3.0329227E-3,-1.4467239E-3,-5.1140785E-4,2.7873135E-1,2.8455162E-1,2.8264236E-1,
1572521238,2019-10-31 11:27:18.806,-1.0065079E-2,6.7543983E-4,-3.5820007E-3,-2.6960373E-3,2.7092838E-1,2.7406216E-1,2.7279377E-1,
1572521298,2019-10-31 11:28:18.806,-7.6327324E-3,3.499508E-3,-1.1384487E-3,-8.933544E-4,2.783289E-1,2.7703094E-1,2.7743626E-1,
1572521358,2019-10-31 11:29:18.806,-1.1864424E-2,-1.1343956E-3,-5.0997734E-3,-5.135298E-3,2.6024437E-1,2.657671E-1,2.6487064E-1,
1572521418,2019-10-31 11:30:18.806,-1.0249615E-2,7.1024895E-4,-3.4103394E-3,-3.485918E-3,2.7398682E-1,2.7175045E-1,2.7042198E-1,
1572521478,2019-10-31 11:31:18.806,-7.86829E-3,2.8505325E-3,-1.1706352E-3,-7.238388E-4,2.7698803E-1,2.796631E-1,2.7946758E-1,
1572521538,2019-10-31 11:32:18.807,-1.1759043E-2,-1.01614E-3,-5.2604675E-3,-4.5101643E-3,2.6521778E-1,2.674122E-1,2.6679325E-1,
1572521598,2019-10-31 11:33:18.806,-7.439375E-3,3.0817986E-3,-6.72102E-4,-5.004406E-4,2.7960873E-1,2.7936172E-1,2.8020954E-1,
1572521658,2019-10-31 11:34:18.806,-1.1936665E-2,-1.1098385E-3,-5.1436424E-3,-4.91333E-3,2.6766205E-1,2.6800632E-1,2.662096E-1,
1572521718,2019-10-31 11:35:18.806,-1.1826038E-2,-1.1370182E-3,-5.346298E-3,-4.705429E-3,2.6602936E-1,2.666874E-1,2.6829624E-1,
1572521778,2019-10-31 11:36:18.806,-9.174585E-3,1.3482571E-3,-3.0417442E-3,-2.203703E-3,2.7140045E-1,2.7424812E-1,2.7295017E-1,
1572521838,2019-10-31 11:37:18.809,-7.707596E-3,3.070116E-3,-1.103878E-3,-5.1903725E-4,2.7746487E-1,2.7740955E-1,2.7931786E-1,
1572521898,2019-10-31 11:38:18.806,-7.7273846E-3,2.9761791E-3,-9.665489E-4,-2.0837784E-4,2.7715302E-1,2.7926922E-1,2.7761173E-1,
1572521958,2019-10-31 11:39:18.807,-9.902477E-3,1.0521412E-3,-3.3016205E-3,-2.6657581E-3,2.7048492E-1,2.7362442E-1,2.715025E-1,
1572522018,2019-10-31 11:40:18.806,-7.739067E-3,3.5505295E-3,-9.7060204E-4,-6.842613E-5,2.775879E-1,2.7935696E-1,2.7768898E-1,
1572522078,2019-10-31 11:41:18.806,-1.04243755E-2,9.44376E-4,-3.3683777E-3,-2.8560162E-3,2.7537918E-1,2.7934837E-1,2.772255E-1,
1572522138,2019-10-31 11:42:18.806,-1.21872425E-2,-1.0676384E-3,-5.3908825E-3,-4.990816E-3,2.6494312E-1,2.6884556E-1,2.6690006E-1,
1572522198,2019-10-31 11:43:18.806,-7.793665E-3,3.0579567E-3,-1.1434555E-3,-3.5095215E-4,2.7554417E-1,2.7796173E-1,2.772913E-1,
1572522258,2019-10-31 11:44:18.806,-9.411097E-3,1.2073517E-3,-2.8355122E-3,-2.3150444E-3,2.72007E-1,2.735033E-1,2.735138E-1,
1572522318,2019-10-31 11:45:18.806,-1.183176E-2,-9.813309E-4,-5.265236E-3,-4.7369003E-3,2.654152E-1,2.688408E-1,2.645321E-1,
1572522378,2019-10-31 11:46:18.806,-1.0073185E-2,9.1028214E-4,-3.5579205E-3,-2.9444695E-3,2.698164E-1,2.7140903E-1,2.7114868E-1,
1572522438,2019-10-31 11:47:18.809,-1.2242317E-2,-1.0740757E-3,-4.8508644E-3,-4.876852E-3,2.6434326E-1,2.6681805E-1,2.6480484E-1,
1572522498,2019-10-31 11:48:18.807,-9.580851E-3,1.6860962E-3,-2.9821396E-3,-2.5339127E-3,2.7402782E-1,2.7313328E-1,2.7191067E-1,
1572522558,2019-10-31 11:49:18.806,-7.874012E-3,2.7930737E-3,-1.1897087E-3,-7.748604E-5,2.7412128E-1,2.7565956E-1,2.7381706E-1,
1572522618,2019-10-31 11:50:18.809,-7.6384544E-3,2.9702187E-3,-8.90255E-4,-5.803108E-4,2.7733994E-1,2.8083706E-1,2.7967548E-1,
1572522678,2019-10-31 11:51:18.809,-1.1799574E-2,-9.768009E-4,-5.3608418E-3,-4.57263E-3,2.69989E-1,2.7304554E-1,2.7110386E-1,
1572522738,2019-10-31 11:52:18.806,-1.0191679E-2,6.992817E-4,-3.522873E-3,-3.1330585E-3,2.7113724E-1,2.7343464E-1,2.7464676E-1,
1572522798,2019-10-31 11:53:18.806,-1.00979805E-2,3.876686E-4,-3.355503E-3,-3.0002594E-3,2.7074146E-1,2.729082E-1,2.7269745E-1,
1572522858,2019-10-31 11:54:18.806,-7.84111E-3,3.0395985E-3,-9.975433E-4,-5.404949E-4,2.8405285E-1,2.861824E-1,2.8302765E-1,
1572522918,2019-10-31 11:55:18.809,-9.372473E-3,1.5280247E-3,-3.0405521E-3,-2.4588108E-3,2.7163506E-1,2.7735615E-1,2.72645E-1,
1572522978,2019-10-31 11:56:18.806,-9.563446E-3,1.3632774E-3,-3.093481E-3,-2.2306442E-3,2.7619362E-1,2.788124E-1,2.7756405E-1,
1572523038,2019-10-31 11:57:18.806,-9.341717E-3,1.8339157E-3,-2.809763E-3,-1.7514229E-3,2.709751E-1,2.7535725E-1,2.7469158E-1,
1572523098,2019-10-31 11:58:18.806,-9.510756E-3,1.66893E-3,-3.0033588E-3,-2.0711422E-3,2.711897E-1,2.7266407E-1,2.6942444E-1,
1572523158,2019-10-31 11:59:18.806,-8.083582E-3,3.2446384E-3,-9.801388E-4,-6.8569183E-4,2.772026E-1,2.793951E-1,2.7819347E-1,
