Time(longsecs),Time(UTC),Earth Location,GPS Receiver Status,GPS Satellites Used,GPS PDOP,GPS TDOP,Timing Status,Timing Phase Lock,Timing Uncertainty(ns),DAC Count,Timing Error(ns),GPS Last Update Time,
1571691638,2019-10-21 21:00:38.646,47.65209N 0.543292E 182m,Off,5,2.8015733,1.5543016,Time OK,Free running,7100,9016,0,2019-10-21 20:53:25.000000000,
1571691698,2019-10-21 21:01:38.646,47.65209N 0.543292E 182m,Off,5,2.8015733,1.5543016,Time OK,Free running,8100,9016,0,2019-10-21 20:53:25.000000000,
1571691758,2019-10-21 21:02:38.646,47.65209N 0.543292E 182m,Off,5,2.8015733,1.5543016,Time OK,Free running,8900,9016,0,2019-10-21 20:53:25.000000000,
1571691818,2019-10-21 21:03:38.646,47.65209N 0.543292E 182m,Off,5,2.8015733,1.5543016,Time OK,Free running,9700,9016,0,2019-10-21 20:53:25.000000000,
1571691878,2019-10-21 21:04:38.646,47.65209N 0.543292E 182m,Off,5,2.8015733,1.5543016,Time OK,Free running,10800,9016,0,2019-10-21 20:53:25.000000000,
1571691938,2019-10-21 21:05:38.646,47.65209N 0.543292E 182m,Off,5,2.8015733,1.5543016,Time OK,Free running,11900,9016,0,2019-10-21 20:53:25.000000000,
1571691998,2019-10-21 21:06:38.646,47.65209N 0.543292E 182m,Off,5,2.8015733,1.5543016,Time OK,Free running,12900,9016,0,2019-10-21 20:53:25.000000000,
1571692058,2019-10-21 21:07:38.646,47.65209N 0.543292E 182m,Off,5,2.8015733,1.5543016,Time OK,Free running,14300,9016,0,2019-10-21 20:53:25.000000000,
1571692118,2019-10-21 21:08:38.646,47.65209N 0.543292E 182m,Off,5,2.8015733,1.5543016,Time OK,Free running,15600,9016,0,2019-10-21 20:53:25.000000000,
1571692178,2019-10-21 21:09:38.648,47.65209N 0.543292E 182m,Off,5,2.8015733,1.5543016,Time OK,Free running,16700,9016,0,2019-10-21 20:53:25.000000000,
1571692238,2019-10-21 21:10:38.646,47.65209N 0.543292E 182m,Off,5,2.8015733,1.5543016,Time OK,Free running,17900,9016,0,2019-10-21 20:53:25.000000000,
1571692298,2019-10-21 21:11:38.646,47.65209N 0.543292E 182m,Off,5,2.8015733,1.5543016,Time OK,Free running,18900,9016,0,2019-10-21 20:53:25.000000000,
1571692358,2019-10-21 21:12:38.646,47.65209N 0.543292E 182m,Off,5,2.8015733,1.5543016,Time OK,Free running,20200,9016,0,2019-10-21 20:53:25.000000000,
1571692418,2019-10-21 21:13:38.646,47.65209N 0.543292E 182m,Off,5,2.8015733,1.5543016,Time OK,Free running,21600,9016,0,2019-10-21 20:53:25.000000000,
1571692478,2019-10-21 21:14:38.646,47.65209N 0.543292E 182m,Off,5,2.8015733,1.5543016,Time OK,Free running,22800,9016,0,2019-10-21 20:53:25.000000000,
1571692538,2019-10-21 21:15:38.646,47.65209N 0.543292E 182m,Off,5,2.8015733,1.5543016,Time OK,Free running,24100,9016,0,2019-10-21 20:53:25.000000000,
1571692598,2019-10-21 21:16:38.646,47.65209N 0.543292E 182m,Off,5,2.8015733,1.5543016,Time OK,Free running,25400,9016,0,2019-10-21 20:53:25.000000000,
1571692658,2019-10-21 21:17:38.646,47.65209N 0.543292E 182m,Off,5,2.8015733,1.5543016,Time OK,Free running,26700,9016,0,2019-10-21 20:53:25.000000000,
1571692718,2019-10-21 21:18:38.649,47.65209N 0.543292E 182m,Off,5,2.8015733,1.5543016,Time OK,Free running,28400,9016,0,2019-10-21 20:53:25.000000000,
1571692778,2019-10-21 21:19:38.646,47.65209N 0.543292E 182m,Off,5,2.8015733,1.5543016,Time OK,Free running,29900,9016,0,2019-10-21 20:53:25.000000000,
1571692838,2019-10-21 21:20:38.646,47.65209N 0.543292E 182m,Off,5,2.8015733,1.5543016,Time OK,Free running,31000,9016,0,2019-10-21 20:53:25.000000000,
1571692898,2019-10-21 21:21:38.646,47.65209N 0.543292E 182m,Off,5,2.8015733,1.5543016,Time OK,Free running,32500,9016,0,2019-10-21 20:53:25.000000000,
1571692958,2019-10-21 21:22:38.646,47.65209N 0.543292E 182m,Off,5,2.8015733,1.5543016,Time OK,Free running,34000,9016,0,2019-10-21 20:53:25.000000000,
1571693018,2019-10-21 21:23:38.646,47.65209N 0.543292E 182m,Off,5,2.8015733,1.5543016,Time OK,Free running,35200,9016,0,2019-10-21 20:53:25.000000000,
1571693078,2019-10-21 21:24:38.646,47.65209N 0.543292E 182m,Off,5,2.8015733,1.5543016,Time OK,Free running,36500,9016,0,2019-10-21 20:53:25.000000000,
1571693138,2019-10-21 21:25:38.648,47.65209N 0.543292E 182m,Off,5,2.8015733,1.5543016,Time OK,Free running,38000,9016,0,2019-10-21 20:53:25.000000000,
1571693198,2019-10-21 21:26:38.646,47.65209N 0.543292E 182m,Off,5,2.8015733,1.5543016,Time OK,Free running,39500,9016,0,2019-10-21 20:53:25.000000000,
1571693258,2019-10-21 21:27:38.646,47.65209N 0.543292E 182m,Off,5,2.8015733,1.5543016,Time OK,Free running,40900,9016,0,2019-10-21 20:53:25.000000000,
1571693318,2019-10-21 21:28:38.646,47.65209N 0.543292E 182m,Off,5,2.8015733,1.5543016,Time OK,Free running,42400,9016,0,2019-10-21 20:53:25.000000000,
1571693378,2019-10-21 21:29:38.652,47.65209N 0.543292E 182m,Off,5,2.8015733,1.5543016,Time OK,Free running,43900,9016,0,2019-10-21 20:53:25.000000000,
1571693438,2019-10-21 21:30:38.646,47.65209N 0.543292E 182m,Off,5,2.8015733,1.5543016,Time OK,Free running,45500,9016,0,2019-10-21 20:53:25.000000000,
1571693498,2019-10-21 21:31:38.646,47.65209N 0.543292E 182m,Off,5,2.8015733,1.5543016,Time OK,Free running,47300,9016,0,2019-10-21 20:53:25.000000000,
1571693558,2019-10-21 21:32:38.647,47.65209N 0.543292E 182m,Off,5,2.8015733,1.5543016,Time OK,Free running,48900,9016,0,2019-10-21 20:53:25.000000000,
1571693618,2019-10-21 21:33:38.646,47.65209N 0.543292E 182m,Off,5,2.8015733,1.5543016,Time OK,Free running,50300,9016,0,2019-10-21 20:53:25.000000000,
1571693678,2019-10-21 21:34:38.647,47.65209N 0.543292E 182m,No GPS time,0,0.0,0.0,Time OK,Free running,51800,9016,0,2019-10-21 21:34:35.000000000,
1571693738,2019-10-21 21:35:38.647,47.65209N 0.543292E 182m,Doing fixes,5,2.3351018,1.3707753,Time OK,Coarse lock,100,8071,10833,2019-10-21 21:35:35.000000000,
1571693798,2019-10-21 21:36:38.647,47.65209N 0.543292E 182m,Doing fixes,5,4.1937613,2.6839397,Time OK,Fine lock,100,9007,-104,2019-10-21 21:36:35.000000000,
1571693858,2019-10-21 21:37:38.647,47.65209N 0.543292E 182m,Doing fixes,7,2.1019497,1.2204376,Time OK,Fine lock,100,8983,104,2019-10-21 21:37:35.000000000,
1571693918,2019-10-21 21:38:38.647,47.65209N 0.543292E 182m,Doing fixes,5,3.8505182,2.3808303,Time OK,Fine lock,100,8996,0,2019-10-21 21:38:35.000000000,
1571693978,2019-10-21 21:39:38.664,47.65209N 0.543292E 182m,Off,5,3.2605522,2.0356262,Time OK,Free running,500,9000,0,2019-10-21 21:39:05.000000000,
1571694038,2019-10-21 21:40:38.646,47.65209N 0.543292E 182m,Off,5,3.2605522,2.0356262,Time OK,Free running,1300,9000,0,2019-10-21 21:39:05.000000000,
1571694098,2019-10-21 21:41:38.646,47.65209N 0.543292E 182m,Off,5,3.2605522,2.0356262,Time OK,Free running,2300,9000,0,2019-10-21 21:39:05.000000000,
1571694158,2019-10-21 21:42:38.646,47.65209N 0.543292E 182m,Off,5,3.2605522,2.0356262,Time OK,Free running,3400,9000,0,2019-10-21 21:39:05.000000000,
1571694218,2019-10-21 21:43:38.646,47.65209N 0.543292E 182m,Off,5,3.2605522,2.0356262,Time OK,Free running,4200,9000,0,2019-10-21 21:39:05.000000000,
1571694278,2019-10-21 21:44:38.646,47.65209N 0.543292E 182m,Off,5,3.2605522,2.0356262,Time OK,Free running,5000,9000,0,2019-10-21 21:39:05.000000000,
1571694338,2019-10-21 21:45:38.646,47.65209N 0.543292E 182m,Off,5,3.2605522,2.0356262,Time OK,Free running,5900,9000,0,2019-10-21 21:39:05.000000000,
1571694398,2019-10-21 21:46:38.648,47.65209N 0.543292E 182m,Off,5,3.2605522,2.0356262,Time OK,Free running,6700,9000,0,2019-10-21 21:39:05.000000000,
1571694458,2019-10-21 21:47:38.646,47.65209N 0.543292E 182m,Off,5,3.2605522,2.0356262,Time OK,Free running,7500,9000,0,2019-10-21 21:39:05.000000000,
1571694518,2019-10-21 21:48:38.646,47.65209N 0.543292E 182m,Off,5,3.2605522,2.0356262,Time OK,Free running,8600,9000,0,2019-10-21 21:39:05.000000000,
1571694578,2019-10-21 21:49:38.646,47.65209N 0.543292E 182m,Off,5,3.2605522,2.0356262,Time OK,Free running,9500,9000,0,2019-10-21 21:39:05.000000000,
1571694638,2019-10-21 21:50:38.646,47.65209N 0.543292E 182m,Off,5,3.2605522,2.0356262,Time OK,Free running,10300,9000,0,2019-10-21 21:39:05.000000000,
1571694698,2019-10-21 21:51:38.678,47.65209N 0.543292E 182m,Off,5,3.2605522,2.0356262,Time OK,Free running,11200,9000,0,2019-10-21 21:39:05.000000000,
1571694758,2019-10-21 21:52:38.679,47.65209N 0.543292E 182m,Off,5,3.2605522,2.0356262,Time OK,Free running,12200,9000,0,2019-10-21 21:39:05.000000000,
1571694818,2019-10-21 21:53:38.647,47.65209N 0.543292E 182m,Off,5,3.2605522,2.0356262,Time OK,Free running,13100,9000,0,2019-10-21 21:39:05.000000000,
1571694878,2019-10-21 21:54:38.647,47.65209N 0.543292E 182m,Off,5,3.2605522,2.0356262,Time OK,Free running,14200,9000,0,2019-10-21 21:39:05.000000000,
1571694938,2019-10-21 21:55:38.646,47.65209N 0.543292E 182m,Off,5,3.2605522,2.0356262,Time OK,Free running,15100,9000,0,2019-10-21 21:39:05.000000000,
1571694998,2019-10-21 21:56:38.646,47.65209N 0.543292E 182m,Off,5,3.2605522,2.0356262,Time OK,Free running,15900,9000,0,2019-10-21 21:39:05.000000000,
1571695058,2019-10-21 21:57:38.648,47.65209N 0.543292E 182m,Off,5,3.2605522,2.0356262,Time OK,Free running,16900,9000,0,2019-10-21 21:39:05.000000000,
1571695118,2019-10-21 21:58:38.646,47.65209N 0.543292E 182m,Off,5,3.2605522,2.0356262,Time OK,Free running,17700,9000,0,2019-10-21 21:39:05.000000000,
1571695178,2019-10-21 21:59:38.648,47.65209N 0.543292E 182m,Off,5,3.2605522,2.0356262,Time OK,Free running,18500,9000,0,2019-10-21 21:39:05.000000000,
