Time(longsecs),Time(UTC),Supply Voltage(mV),Temperature(&deg;C),NMX Bus Current(mA),Sensor Current(mA),Serial Port Current(mA),Controller Current(mA),Digitizer Current(mA),
1572379258,2019-10-29 20:00:58.669,11627,1.3909058E1,0,14,0,56,57,
1572379318,2019-10-29 20:01:58.670,11599,1.370224E1,0,9,0,96,59,
1572379378,2019-10-29 20:02:58.671,11614,1.3803009E1,0,18,0,64,61,
1572379438,2019-10-29 20:03:58.669,11614,1.3706482E1,0,13,0,73,56,
1572379498,2019-10-29 20:04:58.669,11614,1.3529358E1,0,14,0,66,58,
1572379558,2019-10-29 20:05:58.669,11614,1.3901642E1,0,13,0,56,56,
1572379618,2019-10-29 20:06:58.670,11614,1.3858154E1,0,11,0,64,60,
1572379678,2019-10-29 20:07:58.669,11614,1.3896332E1,0,14,0,64,59,
1572379738,2019-10-29 20:08:58.669,11614,1.369693E1,0,13,0,65,62,
1572379798,2019-10-29 20:09:58.669,11614,1.3793457E1,0,13,0,68,59,
1572379858,2019-10-29 20:10:58.669,11599,1.3697998E1,0,15,0,78,63,
1572379918,2019-10-29 20:11:58.669,11599,1.3714966E1,0,15,0,77,63,
1572379978,2019-10-29 20:12:58.671,11614,1.3895264E1,0,13,0,80,59,
1572380038,2019-10-29 20:13:58.669,11599,1.3793457E1,0,21,0,78,54,
1572380098,2019-10-29 20:14:58.670,11599,1.3747833E1,0,13,0,67,60,
1572380158,2019-10-29 20:15:58.669,11614,1.371814E1,0,12,0,56,59,
1572380218,2019-10-29 20:16:58.669,11614,1.3620575E1,0,16,0,65,64,
1572380278,2019-10-29 20:17:58.669,11614,1.3847534E1,0,12,0,64,58,
1572380338,2019-10-29 20:18:58.669,11614,1.3764801E1,0,10,0,64,58,
1572380398,2019-10-29 20:19:58.669,11614,1.3711792E1,0,25,0,55,57,
1572380458,2019-10-29 20:20:58.669,11614,1.3819977E1,0,25,0,56,64,
1572380518,2019-10-29 20:21:58.669,11614,1.3737244E1,0,14,0,64,61,
1572380578,2019-10-29 20:22:58.669,11614,1.3722382E1,0,9,0,64,63,
1572380638,2019-10-29 20:23:58.671,11614,1.3684204E1,0,13,0,55,60,
1572380698,2019-10-29 20:24:58.669,11614,1.3706482E1,0,14,0,56,57,
1572380758,2019-10-29 20:25:58.669,11614,1.369162E1,0,13,0,65,58,
1572380818,2019-10-29 20:26:58.669,11614,1.3525116E1,0,18,0,65,60,
1572380878,2019-10-29 20:27:58.678,11599,1.350177E1,0,13,0,65,64,
1572380938,2019-10-29 20:28:58.669,11599,1.3773285E1,0,10,0,66,63,
1572380998,2019-10-29 20:29:58.669,11599,1.3650269E1,0,15,0,64,64,
1572381058,2019-10-29 20:30:58.669,11614,1.3586609E1,0,14,0,55,59,
1572381118,2019-10-29 20:31:58.669,11614,1.3583435E1,0,11,0,64,62,
1572381178,2019-10-29 20:32:58.669,11599,1.3697998E1,0,11,23,64,61,
1572381238,2019-10-29 20:33:58.669,11599,1.3955719E1,0,12,0,70,63,
1572381298,2019-10-29 20:34:58.669,11614,1.3607849E1,0,11,0,56,62,
1572381358,2019-10-29 20:35:58.668,11614,1.3646027E1,0,11,0,56,59,
1572381418,2019-10-29 20:36:58.669,11614,1.35686035E1,0,13,0,56,62,
1572381478,2019-10-29 20:37:58.669,11614,1.3741486E1,0,14,0,64,58,
1572381538,2019-10-29 20:38:58.669,11599,1.38125305E1,0,13,0,63,59,
1572381598,2019-10-29 20:39:58.669,11614,1.3710724E1,0,11,0,55,60,
1572381658,2019-10-29 20:40:58.669,11614,1.3650269E1,0,20,0,55,57,
1572381718,2019-10-29 20:41:58.669,11614,1.3407379E1,0,15,0,64,58,
1572381778,2019-10-29 20:42:58.669,11614,1.3659821E1,0,15,0,55,59,
1572381838,2019-10-29 20:43:58.669,11599,1.3606781E1,0,13,0,66,56,
1572381898,2019-10-29 20:44:58.669,11614,1.3671478E1,0,15,0,56,62,
1572381958,2019-10-29 20:45:58.671,11614,1.348056E1,0,13,0,55,60,
1572382018,2019-10-29 20:46:58.669,11599,1.3688446E1,0,13,0,65,60,
1572382078,2019-10-29 20:47:58.669,11599,1.3506012E1,0,13,0,55,60,
1572382138,2019-10-29 20:48:58.669,11599,1.3486908E1,0,15,0,70,59,
1572382198,2019-10-29 20:49:58.669,11599,1.346994E1,0,13,0,55,60,
1572382258,2019-10-29 20:50:58.669,11614,1.3476318E1,0,15,0,56,59,
1572382318,2019-10-29 20:51:58.669,11599,1.3551636E1,0,13,0,60,69,
1572382378,2019-10-29 20:52:58.669,11599,1.3487976E1,0,10,0,66,61,
1572382438,2019-10-29 20:53:58.669,11599,1.3577087E1,0,16,0,64,58,
1572382498,2019-10-29 20:54:58.669,11599,1.3497528E1,0,13,0,66,61,
1572382558,2019-10-29 20:55:58.669,11599,1.3668304E1,0,15,0,56,57,
1572382618,2019-10-29 20:56:58.669,11599,1.3481628E1,0,12,0,66,59,
1572382678,2019-10-29 20:57:58.669,11599,1.3467834E1,0,14,0,65,60,
1572382738,2019-10-29 20:58:58.669,11599,1.3570709E1,0,12,0,68,60,
1572382798,2019-10-29 20:59:58.669,11614,1.352829E1,0,13,0,55,58,
