Time(longsecs),Time(UTC),GPS Satellite Acquisition Flag 1,GPS Satellite Acquisition Flag 2,GPS Satellite Acquisition Flag 3,GPS Satellite Acquisition Flag 4,GPS Satellite Acquisition Flag 5,GPS Satellite Acquisition Flag 6,GPS Satellite Acquisition Flag 7,GPS Satellite Acquisition Flag 8,GPS Satellite Acquisition Flag 9,GPS Satellite Acquisition Flag 10,GPS Satellite Acquisition Flag 11,GPS Satellite Acquisition Flag 12,GPS Satellite Azimuth 1(Degrees),GPS Satellite Azimuth 2(Degrees),GPS Satellite Azimuth 3(Degrees),GPS Satellite Azimuth 4(Degrees),GPS Satellite Azimuth 5(Degrees),GPS Satellite Azimuth 6(Degrees),GPS Satellite Azimuth 7(Degrees),GPS Satellite Azimuth 8(Degrees),GPS Satellite Azimuth 9(Degrees),GPS Satellite Azimuth 10(Degrees),GPS Satellite Azimuth 11(Degrees),GPS Satellite Azimuth 12(Degrees),GPS Satellite Elevation 1(Degrees),GPS Satellite Elevation 2(Degrees),GPS Satellite Elevation 3(Degrees),GPS Satellite Elevation 4(Degrees),GPS Satellite Elevation 5(Degrees),GPS Satellite Elevation 6(Degrees),GPS Satellite Elevation 7(Degrees),GPS Satellite Elevation 8(Degrees),GPS Satellite Elevation 9(Degrees),GPS Satellite Elevation 10(Degrees),GPS Satellite Elevation 11(Degrees),GPS Satellite Elevation 12(Degrees),GPS Satellite PRN 1,GPS Satellite PRN 2,GPS Satellite PRN 3,GPS Satellite PRN 4,GPS Satellite PRN 5,GPS Satellite PRN 6,GPS Satellite PRN 7,GPS Satellite PRN 8,GPS Satellite PRN 9,GPS Satellite PRN 10,GPS Satellite PRN 11,GPS Satellite PRN 12,GPS Satellite Signal Level 1(AMU),GPS Satellite Signal Level 2(AMU),GPS Satellite Signal Level 3(AMU),GPS Satellite Signal Level 4(AMU),GPS Satellite Signal Level 5(AMU),GPS Satellite Signal Level 6(AMU),GPS Satellite Signal Level 7(AMU),GPS Satellite Signal Level 8(AMU),GPS Satellite Signal Level 9(AMU),GPS Satellite Signal Level 10(AMU),GPS Satellite Signal Level 11(AMU),GPS Satellite Signal Level 12(AMU),
1572379258,2019-10-29 20:00:58.669,Acquired,Not acquired,Acquired,Acquired,Acquired,Not acquired,Acquired,Acquired,Acquired,,,,3.1763964799999997E2,2.0830416E2,1.34076E2,1.9693416E2,9.349816E1,1.17334328E2,2.8771727999999996E2,2.77596224E2,4.9684048E1,,,,1.9286966E1,2.3226665999999998E1,4.7140071999999996E1,7.292352E1,2.9214433999999997E1,2.2390362E1,2.8005343999999997E1,5.2208292E1,3.1651612E1,,,,10,12,13,15,17,19,20,24,28,,,,7,1,3,5,2,1,9,9,2,,,,
1572379318,2019-10-29 20:01:58.670,Acquired,Not acquired,Acquired,Acquired,Acquired,Not acquired,Acquired,Acquired,Acquired,,,,3.1763964799999997E2,2.0830416E2,1.34076E2,1.9693416E2,9.349816E1,1.17334328E2,2.8771727999999996E2,2.77596224E2,4.9684048E1,,,,1.9286966E1,2.3226665999999998E1,4.7140071999999996E1,7.292352E1,2.9214433999999997E1,2.2390362E1,2.8005343999999997E1,5.2208292E1,3.1651612E1,,,,10,12,13,15,17,19,20,24,28,,,,7,1,3,5,2,1,9,9,2,,,,
1572379378,2019-10-29 20:02:58.671,Acquired,Not acquired,Acquired,Acquired,Acquired,Not acquired,Acquired,Acquired,Acquired,,,,3.1763964799999997E2,2.0830416E2,1.34076E2,1.9693416E2,9.349816E1,1.17334328E2,2.8771727999999996E2,2.77596224E2,4.9684048E1,,,,1.9286966E1,2.3226665999999998E1,4.7140071999999996E1,7.292352E1,2.9214433999999997E1,2.2390362E1,2.8005343999999997E1,5.2208292E1,3.1651612E1,,,,10,12,13,15,17,19,20,24,28,,,,7,1,3,5,2,1,9,9,2,,,,
1572379438,2019-10-29 20:03:58.669,Acquired,Not acquired,Acquired,Acquired,Acquired,Not acquired,Acquired,Acquired,Acquired,,,,3.1763964799999997E2,2.0830416E2,1.34076E2,1.9693416E2,9.349816E1,1.17334328E2,2.8771727999999996E2,2.77596224E2,4.9684048E1,,,,1.9286966E1,2.3226665999999998E1,4.7140071999999996E1,7.292352E1,2.9214433999999997E1,2.2390362E1,2.8005343999999997E1,5.2208292E1,3.1651612E1,,,,10,12,13,15,17,19,20,24,28,,,,7,1,3,5,2,1,9,9,2,,,,
1572379498,2019-10-29 20:04:58.669,Acquired,Not acquired,Acquired,Acquired,Acquired,Not acquired,Acquired,Acquired,Acquired,,,,3.1763964799999997E2,2.0830416E2,1.34076E2,1.9693416E2,9.349816E1,1.17334328E2,2.8771727999999996E2,2.77596224E2,4.9684048E1,,,,1.9286966E1,2.3226665999999998E1,4.7140071999999996E1,7.292352E1,2.9214433999999997E1,2.2390362E1,2.8005343999999997E1,5.2208292E1,3.1651612E1,,,,10,12,13,15,17,19,20,24,28,,,,7,1,3,5,2,1,9,9,2,,,,
1572379558,2019-10-29 20:05:58.669,Acquired,Not acquired,Acquired,Acquired,Acquired,Not acquired,Acquired,Acquired,Acquired,,,,3.1763964799999997E2,2.0830416E2,1.34076E2,1.9693416E2,9.349816E1,1.17334328E2,2.8771727999999996E2,2.77596224E2,4.9684048E1,,,,1.9286966E1,2.3226665999999998E1,4.7140071999999996E1,7.292352E1,2.9214433999999997E1,2.2390362E1,2.8005343999999997E1,5.2208292E1,3.1651612E1,,,,10,12,13,15,17,19,20,24,28,,,,7,1,3,5,2,1,9,9,2,,,,
1572379618,2019-10-29 20:06:58.670,Acquired,Not acquired,Acquired,Acquired,Acquired,Not acquired,Acquired,Acquired,Acquired,,,,3.1763964799999997E2,2.0830416E2,1.34076E2,1.9693416E2,9.349816E1,1.17334328E2,2.8771727999999996E2,2.77596224E2,4.9684048E1,,,,1.9286966E1,2.3226665999999998E1,4.7140071999999996E1,7.292352E1,2.9214433999999997E1,2.2390362E1,2.8005343999999997E1,5.2208292E1,3.1651612E1,,,,10,12,13,15,17,19,20,24,28,,,,7,1,3,5,2,1,9,9,2,,,,
1572379678,2019-10-29 20:07:58.669,Acquired,Not acquired,Acquired,Acquired,Acquired,Not acquired,Acquired,Acquired,Acquired,,,,3.1763964799999997E2,2.0830416E2,1.34076E2,1.9693416E2,9.349816E1,1.17334328E2,2.8771727999999996E2,2.77596224E2,4.9684048E1,,,,1.9286966E1,2.3226665999999998E1,4.7140071999999996E1,7.292352E1,2.9214433999999997E1,2.2390362E1,2.8005343999999997E1,5.2208292E1,3.1651612E1,,,,10,12,13,15,17,19,20,24,28,,,,7,1,3,5,2,1,9,9,2,,,,
1572379738,2019-10-29 20:08:58.669,Acquired,Not acquired,Acquired,Acquired,Acquired,Not acquired,Acquired,Acquired,Acquired,,,,3.1763964799999997E2,2.0830416E2,1.34076E2,1.9693416E2,9.349816E1,1.17334328E2,2.8771727999999996E2,2.77596224E2,4.9684048E1,,,,1.9286966E1,2.3226665999999998E1,4.7140071999999996E1,7.292352E1,2.9214433999999997E1,2.2390362E1,2.8005343999999997E1,5.2208292E1,3.1651612E1,,,,10,12,13,15,17,19,20,24,28,,,,7,1,3,5,2,1,9,9,2,,,,
1572379798,2019-10-29 20:09:58.669,Acquired,Not acquired,Acquired,Acquired,Acquired,Not acquired,Acquired,Acquired,Acquired,,,,3.1763964799999997E2,2.0830416E2,1.34076E2,1.9693416E2,9.349816E1,1.17334328E2,2.8771727999999996E2,2.77596224E2,4.9684048E1,,,,1.9286966E1,2.3226665999999998E1,4.7140071999999996E1,7.292352E1,2.9214433999999997E1,2.2390362E1,2.8005343999999997E1,5.2208292E1,3.1651612E1,,,,10,12,13,15,17,19,20,24,28,,,,7,1,3,5,2,1,9,9,2,,,,
1572379858,2019-10-29 20:10:58.669,,Acquired,Acquired,Acquired,Not acquired,Not acquired,Acquired,Acquired,Acquired,,,,,2.08431888E2,1.34326304E2,1.9585664E2,9.303679199999999E1,1.1698928799999999E2,2.87220288E2,2.7792848E2,4.9564927999999995E1,,,,,2.3682664E1,4.6674884E1,7.2546888E1,2.943632E1,2.2736093999999998E1,2.797704E1,5.2632548E1,3.1268155999999998E1,,,,,12,13,15,17,19,20,24,28,,,,,5,5,1,2,1,13,10,4,,,,
1572379918,2019-10-29 20:11:58.669,Acquired,Acquired,Not acquired,Acquired,Acquired,Acquired,Acquired,Acquired,Not acquired,,,,3.0050787199999996E2,2.1465663999999998E2,1.4265683199999998E2,1.7731008E2,7.2747312E1,1.0010403199999999E2,2.6838584E2,2.9354220799999996E2,4.8324964E1,,,,2.4614368E1,4.2364464E1,2.8551883999999998E1,5.4580411999999995E1,3.4411919999999995E1,3.4655636E1,2.3042991999999998E1,6.977600799999999E1,1.5940990999999999E1,,,,10,12,13,15,17,19,20,24,28,,,,13,8,0,3,1,3,5,11,0,,,,
1572379978,2019-10-29 20:12:58.671,Acquired,Acquired,Acquired,Acquired,Acquired,Acquired,Acquired,Acquired,Not acquired,,,,3.00034432E2,2.1484622399999998E2,1.42833248E2,1.77148112E2,7.220723199999999E1,9.958371199999999E1,2.67948384E2,2.94058176E2,4.8365199999999994E1,,,,2.4647154E1,4.2852848E1,2.8102221999999998E1,5.4095448E1,3.4427436E1,3.4890015999999996E1,2.2834084E1,7.0216848E1,1.5555226999999999E1,,,,10,12,13,15,17,19,20,24,28,,,,14,3,1,7,3,4,3,8,0,,,,
1572380038,2019-10-29 20:13:58.669,Acquired,Acquired,Acquired,Acquired,Acquired,Acquired,Acquired,Acquired,Not acquired,,,,2.99576512E2,2.1503086399999998E2,1.43002016E2,1.7699856E2,7.168664799999999E1,9.9077384E1,2.67528816E2,2.94566944E2,4.8406788E1,,,,2.4673878E1,4.3324556E1,2.7668988E1,5.3627376E1,3.4436831999999995E1,3.5111784E1,2.262932E1,7.0642152E1,1.5183454E1,,,,10,12,13,15,17,19,20,24,28,,,,15,4,2,1,2,1,5,7,0,,,,
1572380098,2019-10-29 20:14:58.670,Acquired,Acquired,Acquired,Acquired,Acquired,Acquired,Acquired,Acquired,Not acquired,,,,2.99102976E2,2.15222432E2,1.4317414399999998E2,1.76850112E2,7.11502E1,9.855044E1,2.6709828799999997E2,2.9510364799999996E2,4.8452296E1,,,,2.4696617999999997E1,4.3811688E1,2.7222496E1,5.3144383999999995E1,3.444046E1,3.5335528E1,2.2415119999999998E1,7.1081056E1,1.4800206999999999E1,,,,10,12,13,15,17,19,20,24,28,,,,12,4,2,4,2,4,5,8,0,,,,
1572380158,2019-10-29 20:15:58.669,Acquired,Acquired,Acquired,Acquired,Acquired,Acquired,Acquired,Acquired,Not acquired,,,,2.9862963199999996E2,2.15416E2,1.43344896E2,1.76709168E2,7.0615848E1,9.8020488E1,2.66671632E2,2.9565216E2,4.8500735999999996E1,,,,2.471401E1,4.4298224E1,2.6777829999999998E1,5.2662388E1,3.4438635999999995E1,3.5554456E1,2.2197934E1,7.151868E1,1.4418491999999999E1,,,,10,12,13,15,17,19,20,24,28,,,,9,1,4,5,2,2,6,11,0,,,,
1572380218,2019-10-29 20:16:58.669,Acquired,Acquired,Acquired,Acquired,Acquired,Acquired,Acquired,Acquired,Not acquired,,,,2.9862963199999996E2,2.15416E2,1.43344896E2,1.76709168E2,7.0615848E1,9.8020488E1,2.66671632E2,2.9565216E2,4.8500735999999996E1,,,,2.471401E1,4.4298224E1,2.6777829999999998E1,5.2662388E1,3.4438635999999995E1,3.5554456E1,2.2197934E1,7.151868E1,1.4418491999999999E1,,,,10,12,13,15,17,19,20,24,28,,,,9,1,4,5,2,2,6,11,0,,,,
1572380278,2019-10-29 20:17:58.669,Acquired,Acquired,Acquired,Acquired,Acquired,Acquired,Acquired,Acquired,Not acquired,,,,2.9862963199999996E2,2.15416E2,1.43344896E2,1.76709168E2,7.0615848E1,9.8020488E1,2.66671632E2,2.9565216E2,4.8500735999999996E1,,,,2.471401E1,4.4298224E1,2.6777829999999998E1,5.2662388E1,3.4438635999999995E1,3.5554456E1,2.2197934E1,7.151868E1,1.4418491999999999E1,,,,10,12,13,15,17,19,20,24,28,,,,9,1,4,5,2,2,6,11,0,,,,
1572380338,2019-10-29 20:18:58.669,Acquired,Acquired,Acquired,Acquired,Acquired,Acquired,Acquired,Acquired,Not acquired,,,,2.9862963199999996E2,2.15416E2,1.43344896E2,1.76709168E2,7.0615848E1,9.8020488E1,2.66671632E2,2.9565216E2,4.8500735999999996E1,,,,2.471401E1,4.4298224E1,2.6777829999999998E1,5.2662388E1,3.4438635999999995E1,3.5554456E1,2.2197934E1,7.151868E1,1.4418491999999999E1,,,,10,12,13,15,17,19,20,24,28,,,,9,1,4,5,2,2,6,11,0,,,,
1572380398,2019-10-29 20:19:58.669,Acquired,Acquired,Acquired,Acquired,Acquired,Acquired,Acquired,Acquired,Not acquired,,,,2.9862963199999996E2,2.15416E2,1.43344896E2,1.76709168E2,7.0615848E1,9.8020488E1,2.66671632E2,2.9565216E2,4.8500735999999996E1,,,,2.471401E1,4.4298224E1,2.6777829999999998E1,5.2662388E1,3.4438635999999995E1,3.5554456E1,2.2197934E1,7.151868E1,1.4418491999999999E1,,,,10,12,13,15,17,19,20,24,28,,,,9,1,4,5,2,2,6,11,0,,,,
1572380458,2019-10-29 20:20:58.669,Acquired,Acquired,Acquired,Acquired,Acquired,Acquired,Acquired,Acquired,Not acquired,,,,2.9862963199999996E2,2.15416E2,1.43344896E2,1.76709168E2,7.0615848E1,9.8020488E1,2.66671632E2,2.9565216E2,4.8500735999999996E1,,,,2.471401E1,4.4298224E1,2.6777829999999998E1,5.2662388E1,3.4438635999999995E1,3.5554456E1,2.2197934E1,7.151868E1,1.4418491999999999E1,,,,10,12,13,15,17,19,20,24,28,,,,9,1,4,5,2,2,6,11,0,,,,
1572380518,2019-10-29 20:21:58.669,Acquired,Acquired,Acquired,Acquired,Acquired,Acquired,Acquired,Acquired,Not acquired,,,,2.9862963199999996E2,2.15416E2,1.43344896E2,1.76709168E2,7.0615848E1,9.8020488E1,2.66671632E2,2.9565216E2,4.8500735999999996E1,,,,2.471401E1,4.4298224E1,2.6777829999999998E1,5.2662388E1,3.4438635999999995E1,3.5554456E1,2.2197934E1,7.151868E1,1.4418491999999999E1,,,,10,12,13,15,17,19,20,24,28,,,,9,1,4,5,2,2,6,11,0,,,,
1572380578,2019-10-29 20:22:58.669,Acquired,Acquired,Acquired,Acquired,Acquired,Acquired,Acquired,Acquired,Not acquired,,,,2.9862963199999996E2,2.15416E2,1.43344896E2,1.76709168E2,7.0615848E1,9.8020488E1,2.66671632E2,2.9565216E2,4.8500735999999996E1,,,,2.471401E1,4.4298224E1,2.6777829999999998E1,5.2662388E1,3.4438635999999995E1,3.5554456E1,2.2197934E1,7.151868E1,1.4418491999999999E1,,,,10,12,13,15,17,19,20,24,28,,,,9,1,4,5,2,2,6,11,0,,,,
1572380638,2019-10-29 20:23:58.671,Acquired,Acquired,Acquired,Acquired,Acquired,Acquired,Acquired,Acquired,Not acquired,,,,2.9862963199999996E2,2.15416E2,1.43344896E2,1.76709168E2,7.0615848E1,9.8020488E1,2.66671632E2,2.9565216E2,4.8500735999999996E1,,,,2.471401E1,4.4298224E1,2.6777829999999998E1,5.2662388E1,3.4438635999999995E1,3.5554456E1,2.2197934E1,7.151868E1,1.4418491999999999E1,,,,10,12,13,15,17,19,20,24,28,,,,9,1,4,5,2,2,6,11,0,,,,
1572380698,2019-10-29 20:24:58.669,Acquired,Acquired,Acquired,Acquired,Acquired,Acquired,Acquired,Acquired,Not acquired,,,,2.9862963199999996E2,2.15416E2,1.43344896E2,1.76709168E2,7.0615848E1,9.8020488E1,2.66671632E2,2.9565216E2,4.8500735999999996E1,,,,2.471401E1,4.4298224E1,2.6777829999999998E1,5.2662388E1,3.4438635999999995E1,3.5554456E1,2.2197934E1,7.151868E1,1.4418491999999999E1,,,,10,12,13,15,17,19,20,24,28,,,,9,1,4,5,2,2,6,11,0,,,,
1572380758,2019-10-29 20:25:58.669,Acquired,Acquired,Acquired,Acquired,Acquired,Acquired,Acquired,Acquired,Not acquired,,,,2.9862963199999996E2,2.15416E2,1.43344896E2,1.76709168E2,7.0615848E1,9.8020488E1,2.66671632E2,2.9565216E2,4.8500735999999996E1,,,,2.471401E1,4.4298224E1,2.6777829999999998E1,5.2662388E1,3.4438635999999995E1,3.5554456E1,2.2197934E1,7.151868E1,1.4418491999999999E1,,,,10,12,13,15,17,19,20,24,28,,,,9,1,4,5,2,2,6,11,0,,,,
1572380818,2019-10-29 20:26:58.669,Acquired,Acquired,Acquired,Acquired,Acquired,Acquired,Acquired,Acquired,Not acquired,,,,2.9862963199999996E2,2.15416E2,1.43344896E2,1.76709168E2,7.0615848E1,9.8020488E1,2.66671632E2,2.9565216E2,4.8500735999999996E1,,,,2.471401E1,4.4298224E1,2.6777829999999998E1,5.2662388E1,3.4438635999999995E1,3.5554456E1,2.2197934E1,7.151868E1,1.4418491999999999E1,,,,10,12,13,15,17,19,20,24,28,,,,9,1,4,5,2,2,6,11,0,,,,
1572380878,2019-10-29 20:27:58.678,Acquired,Acquired,Acquired,Acquired,Acquired,Acquired,Acquired,Acquired,Not acquired,,,,2.9862963199999996E2,2.15416E2,1.43344896E2,1.76709168E2,7.0615848E1,9.8020488E1,2.66671632E2,2.9565216E2,4.8500735999999996E1,,,,2.471401E1,4.4298224E1,2.6777829999999998E1,5.2662388E1,3.4438635999999995E1,3.5554456E1,2.2197934E1,7.151868E1,1.4418491999999999E1,,,,10,12,13,15,17,19,20,24,28,,,,9,1,4,5,2,2,6,11,0,,,,
1572380938,2019-10-29 20:28:58.669,Acquired,Acquired,Acquired,Acquired,Acquired,Acquired,Acquired,Acquired,Not acquired,,,,2.9862963199999996E2,2.15416E2,1.43344896E2,1.76709168E2,7.0615848E1,9.8020488E1,2.66671632E2,2.9565216E2,4.8500735999999996E1,,,,2.471401E1,4.4298224E1,2.6777829999999998E1,5.2662388E1,3.4438635999999995E1,3.5554456E1,2.2197934E1,7.151868E1,1.4418491999999999E1,,,,10,12,13,15,17,19,20,24,28,,,,9,1,4,5,2,2,6,11,0,,,,
1572380998,2019-10-29 20:29:58.669,Acquired,Acquired,Acquired,Acquired,Acquired,Acquired,Acquired,Acquired,Not acquired,,,,2.9862963199999996E2,2.15416E2,1.43344896E2,1.76709168E2,7.0615848E1,9.8020488E1,2.66671632E2,2.9565216E2,4.8500735999999996E1,,,,2.471401E1,4.4298224E1,2.6777829999999998E1,5.2662388E1,3.4438635999999995E1,3.5554456E1,2.2197934E1,7.151868E1,1.4418491999999999E1,,,,10,12,13,15,17,19,20,24,28,,,,9,1,4,5,2,2,6,11,0,,,,
1572381058,2019-10-29 20:30:58.669,Acquired,Acquired,Acquired,Acquired,Acquired,Acquired,Acquired,Acquired,Not acquired,,,,2.9862963199999996E2,2.15416E2,1.43344896E2,1.76709168E2,7.0615848E1,9.8020488E1,2.66671632E2,2.9565216E2,4.8500735999999996E1,,,,2.471401E1,4.4298224E1,2.6777829999999998E1,5.2662388E1,3.4438635999999995E1,3.5554456E1,2.2197934E1,7.151868E1,1.4418491999999999E1,,,,10,12,13,15,17,19,20,24,28,,,,9,1,4,5,2,2,6,11,0,,,,
1572381118,2019-10-29 20:31:58.669,Acquired,Acquired,Acquired,Acquired,Acquired,Acquired,Acquired,Acquired,Not acquired,,,,2.9862963199999996E2,2.15416E2,1.43344896E2,1.76709168E2,7.0615848E1,9.8020488E1,2.66671632E2,2.9565216E2,4.8500735999999996E1,,,,2.471401E1,4.4298224E1,2.6777829999999998E1,5.2662388E1,3.4438635999999995E1,3.5554456E1,2.2197934E1,7.151868E1,1.4418491999999999E1,,,,10,12,13,15,17,19,20,24,28,,,,9,1,4,5,2,2,6,11,0,,,,
1572381178,2019-10-29 20:32:58.669,Acquired,Acquired,Acquired,Acquired,Acquired,Acquired,Acquired,Acquired,Not acquired,,,,2.9862963199999996E2,2.15416E2,1.43344896E2,1.76709168E2,7.0615848E1,9.8020488E1,2.66671632E2,2.9565216E2,4.8500735999999996E1,,,,2.471401E1,4.4298224E1,2.6777829999999998E1,5.2662388E1,3.4438635999999995E1,3.5554456E1,2.2197934E1,7.151868E1,1.4418491999999999E1,,,,10,12,13,15,17,19,20,24,28,,,,9,1,4,5,2,2,6,11,0,,,,
1572381238,2019-10-29 20:33:58.669,Acquired,Acquired,Acquired,Acquired,Acquired,Acquired,Acquired,Acquired,Not acquired,,,,2.9862963199999996E2,2.15416E2,1.43344896E2,1.76709168E2,7.0615848E1,9.8020488E1,2.66671632E2,2.9565216E2,4.8500735999999996E1,,,,2.471401E1,4.4298224E1,2.6777829999999998E1,5.2662388E1,3.4438635999999995E1,3.5554456E1,2.2197934E1,7.151868E1,1.4418491999999999E1,,,,10,12,13,15,17,19,20,24,28,,,,9,1,4,5,2,2,6,11,0,,,,
1572381298,2019-10-29 20:34:58.669,Acquired,Acquired,Acquired,Acquired,Acquired,Acquired,Acquired,Acquired,Not acquired,,,,2.9862963199999996E2,2.15416E2,1.43344896E2,1.76709168E2,7.0615848E1,9.8020488E1,2.66671632E2,2.9565216E2,4.8500735999999996E1,,,,2.471401E1,4.4298224E1,2.6777829999999998E1,5.2662388E1,3.4438635999999995E1,3.5554456E1,2.2197934E1,7.151868E1,1.4418491999999999E1,,,,10,12,13,15,17,19,20,24,28,,,,9,1,4,5,2,2,6,11,0,,,,
1572381358,2019-10-29 20:35:58.668,Acquired,Acquired,Acquired,Acquired,Acquired,Acquired,Acquired,Acquired,Not acquired,,,,2.9862963199999996E2,2.15416E2,1.43344896E2,1.76709168E2,7.0615848E1,9.8020488E1,2.66671632E2,2.9565216E2,4.8500735999999996E1,,,,2.471401E1,4.4298224E1,2.6777829999999998E1,5.2662388E1,3.4438635999999995E1,3.5554456E1,2.2197934E1,7.151868E1,1.4418491999999999E1,,,,10,12,13,15,17,19,20,24,28,,,,9,1,4,5,2,2,6,11,0,,,,
1572381418,2019-10-29 20:36:58.669,Acquired,Acquired,Acquired,Acquired,Acquired,Acquired,Acquired,Acquired,Not acquired,,,,2.9862963199999996E2,2.15416E2,1.43344896E2,1.76709168E2,7.0615848E1,9.8020488E1,2.66671632E2,2.9565216E2,4.8500735999999996E1,,,,2.471401E1,4.4298224E1,2.6777829999999998E1,5.2662388E1,3.4438635999999995E1,3.5554456E1,2.2197934E1,7.151868E1,1.4418491999999999E1,,,,10,12,13,15,17,19,20,24,28,,,,9,1,4,5,2,2,6,11,0,,,,
1572381478,2019-10-29 20:37:58.669,Acquired,Acquired,Acquired,Acquired,Acquired,Acquired,Acquired,Acquired,Not acquired,,,,2.9862963199999996E2,2.15416E2,1.43344896E2,1.76709168E2,7.0615848E1,9.8020488E1,2.66671632E2,2.9565216E2,4.8500735999999996E1,,,,2.471401E1,4.4298224E1,2.6777829999999998E1,5.2662388E1,3.4438635999999995E1,3.5554456E1,2.2197934E1,7.151868E1,1.4418491999999999E1,,,,10,12,13,15,17,19,20,24,28,,,,9,1,4,5,2,2,6,11,0,,,,
1572381538,2019-10-29 20:38:58.669,Acquired,Acquired,Acquired,Acquired,Acquired,Acquired,Acquired,Acquired,Not acquired,,,,2.9862963199999996E2,2.15416E2,1.43344896E2,1.76709168E2,7.0615848E1,9.8020488E1,2.66671632E2,2.9565216E2,4.8500735999999996E1,,,,2.471401E1,4.4298224E1,2.6777829999999998E1,5.2662388E1,3.4438635999999995E1,3.5554456E1,2.2197934E1,7.151868E1,1.4418491999999999E1,,,,10,12,13,15,17,19,20,24,28,,,,9,1,4,5,2,2,6,11,0,,,,
1572381598,2019-10-29 20:39:58.669,Acquired,Acquired,Acquired,Acquired,Acquired,Acquired,Acquired,Acquired,Not acquired,,,,2.9862963199999996E2,2.15416E2,1.43344896E2,1.76709168E2,7.0615848E1,9.8020488E1,2.66671632E2,2.9565216E2,4.8500735999999996E1,,,,2.471401E1,4.4298224E1,2.6777829999999998E1,5.2662388E1,3.4438635999999995E1,3.5554456E1,2.2197934E1,7.151868E1,1.4418491999999999E1,,,,10,12,13,15,17,19,20,24,28,,,,9,1,4,5,2,2,6,11,0,,,,
1572381658,2019-10-29 20:40:58.669,Acquired,Acquired,Acquired,Acquired,Acquired,Acquired,Acquired,Acquired,Not acquired,,,,2.9862963199999996E2,2.15416E2,1.43344896E2,1.76709168E2,7.0615848E1,9.8020488E1,2.66671632E2,2.9565216E2,4.8500735999999996E1,,,,2.471401E1,4.4298224E1,2.6777829999999998E1,5.2662388E1,3.4438635999999995E1,3.5554456E1,2.2197934E1,7.151868E1,1.4418491999999999E1,,,,10,12,13,15,17,19,20,24,28,,,,9,1,4,5,2,2,6,11,0,,,,
1572381718,2019-10-29 20:41:58.669,Acquired,Acquired,Acquired,Acquired,Acquired,Acquired,Acquired,Acquired,Not acquired,,,,2.9862963199999996E2,2.15416E2,1.43344896E2,1.76709168E2,7.0615848E1,9.8020488E1,2.66671632E2,2.9565216E2,4.8500735999999996E1,,,,2.471401E1,4.4298224E1,2.6777829999999998E1,5.2662388E1,3.4438635999999995E1,3.5554456E1,2.2197934E1,7.151868E1,1.4418491999999999E1,,,,10,12,13,15,17,19,20,24,28,,,,9,1,4,5,2,2,6,11,0,,,,
1572381778,2019-10-29 20:42:58.669,Acquired,Acquired,Acquired,Acquired,Acquired,Acquired,Acquired,Acquired,Not acquired,,,,2.9862963199999996E2,2.15416E2,1.43344896E2,1.76709168E2,7.0615848E1,9.8020488E1,2.66671632E2,2.9565216E2,4.8500735999999996E1,,,,2.471401E1,4.4298224E1,2.6777829999999998E1,5.2662388E1,3.4438635999999995E1,3.5554456E1,2.2197934E1,7.151868E1,1.4418491999999999E1,,,,10,12,13,15,17,19,20,24,28,,,,9,1,4,5,2,2,6,11,0,,,,
1572381838,2019-10-29 20:43:58.669,Acquired,Acquired,Acquired,Acquired,Acquired,Acquired,Acquired,Acquired,Not acquired,,,,2.9862963199999996E2,2.15416E2,1.43344896E2,1.76709168E2,7.0615848E1,9.8020488E1,2.66671632E2,2.9565216E2,4.8500735999999996E1,,,,2.471401E1,4.4298224E1,2.6777829999999998E1,5.2662388E1,3.4438635999999995E1,3.5554456E1,2.2197934E1,7.151868E1,1.4418491999999999E1,,,,10,12,13,15,17,19,20,24,28,,,,9,1,4,5,2,2,6,11,0,,,,
1572381898,2019-10-29 20:44:58.669,Acquired,Acquired,Acquired,Acquired,Acquired,Acquired,Acquired,Acquired,Not acquired,,,,2.9862963199999996E2,2.15416E2,1.43344896E2,1.76709168E2,7.0615848E1,9.8020488E1,2.66671632E2,2.9565216E2,4.8500735999999996E1,,,,2.471401E1,4.4298224E1,2.6777829999999998E1,5.2662388E1,3.4438635999999995E1,3.5554456E1,2.2197934E1,7.151868E1,1.4418491999999999E1,,,,10,12,13,15,17,19,20,24,28,,,,9,1,4,5,2,2,6,11,0,,,,
1572381958,2019-10-29 20:45:58.671,Acquired,Acquired,Acquired,Acquired,Acquired,Acquired,Acquired,Acquired,Not acquired,,,,2.9862963199999996E2,2.15416E2,1.43344896E2,1.76709168E2,7.0615848E1,9.8020488E1,2.66671632E2,2.9565216E2,4.8500735999999996E1,,,,2.471401E1,4.4298224E1,2.6777829999999998E1,5.2662388E1,3.4438635999999995E1,3.5554456E1,2.2197934E1,7.151868E1,1.4418491999999999E1,,,,10,12,13,15,17,19,20,24,28,,,,9,1,4,5,2,2,6,11,0,,,,
1572382018,2019-10-29 20:46:58.669,Acquired,Acquired,Acquired,Acquired,Acquired,Acquired,Acquired,Acquired,Not acquired,,,,2.9862963199999996E2,2.15416E2,1.43344896E2,1.76709168E2,7.0615848E1,9.8020488E1,2.66671632E2,2.9565216E2,4.8500735999999996E1,,,,2.471401E1,4.4298224E1,2.6777829999999998E1,5.2662388E1,3.4438635999999995E1,3.5554456E1,2.2197934E1,7.151868E1,1.4418491999999999E1,,,,10,12,13,15,17,19,20,24,28,,,,9,1,4,5,2,2,6,11,0,,,,
1572382078,2019-10-29 20:47:58.669,Acquired,Acquired,Acquired,Acquired,Acquired,Acquired,Acquired,Acquired,Not acquired,,,,2.9862963199999996E2,2.15416E2,1.43344896E2,1.76709168E2,7.0615848E1,9.8020488E1,2.66671632E2,2.9565216E2,4.8500735999999996E1,,,,2.471401E1,4.4298224E1,2.6777829999999998E1,5.2662388E1,3.4438635999999995E1,3.5554456E1,2.2197934E1,7.151868E1,1.4418491999999999E1,,,,10,12,13,15,17,19,20,24,28,,,,9,1,4,5,2,2,6,11,0,,,,
1572382138,2019-10-29 20:48:58.669,Acquired,Acquired,Acquired,Acquired,Acquired,Acquired,Acquired,Acquired,Not acquired,,,,2.9862963199999996E2,2.15416E2,1.43344896E2,1.76709168E2,7.0615848E1,9.8020488E1,2.66671632E2,2.9565216E2,4.8500735999999996E1,,,,2.471401E1,4.4298224E1,2.6777829999999998E1,5.2662388E1,3.4438635999999995E1,3.5554456E1,2.2197934E1,7.151868E1,1.4418491999999999E1,,,,10,12,13,15,17,19,20,24,28,,,,9,1,4,5,2,2,6,11,0,,,,
1572382198,2019-10-29 20:49:58.669,Acquired,Acquired,Acquired,Acquired,Acquired,Acquired,Acquired,Acquired,Not acquired,,,,2.9862963199999996E2,2.15416E2,1.43344896E2,1.76709168E2,7.0615848E1,9.8020488E1,2.66671632E2,2.9565216E2,4.8500735999999996E1,,,,2.471401E1,4.4298224E1,2.6777829999999998E1,5.2662388E1,3.4438635999999995E1,3.5554456E1,2.2197934E1,7.151868E1,1.4418491999999999E1,,,,10,12,13,15,17,19,20,24,28,,,,9,1,4,5,2,2,6,11,0,,,,
1572382258,2019-10-29 20:50:58.669,Acquired,Acquired,Acquired,Acquired,Acquired,Acquired,Acquired,Acquired,Not acquired,,,,2.9862963199999996E2,2.15416E2,1.43344896E2,1.76709168E2,7.0615848E1,9.8020488E1,2.66671632E2,2.9565216E2,4.8500735999999996E1,,,,2.471401E1,4.4298224E1,2.6777829999999998E1,5.2662388E1,3.4438635999999995E1,3.5554456E1,2.2197934E1,7.151868E1,1.4418491999999999E1,,,,10,12,13,15,17,19,20,24,28,,,,9,1,4,5,2,2,6,11,0,,,,
1572382318,2019-10-29 20:51:58.669,Acquired,Acquired,Acquired,Acquired,Acquired,Acquired,Acquired,Acquired,Not acquired,,,,2.9862963199999996E2,2.15416E2,1.43344896E2,1.76709168E2,7.0615848E1,9.8020488E1,2.66671632E2,2.9565216E2,4.8500735999999996E1,,,,2.471401E1,4.4298224E1,2.6777829999999998E1,5.2662388E1,3.4438635999999995E1,3.5554456E1,2.2197934E1,7.151868E1,1.4418491999999999E1,,,,10,12,13,15,17,19,20,24,28,,,,9,1,4,5,2,2,6,11,0,,,,
1572382378,2019-10-29 20:52:58.669,Acquired,Acquired,Acquired,Acquired,Acquired,Acquired,Acquired,Acquired,Not acquired,,,,2.9862963199999996E2,2.15416E2,1.43344896E2,1.76709168E2,7.0615848E1,9.8020488E1,2.66671632E2,2.9565216E2,4.8500735999999996E1,,,,2.471401E1,4.4298224E1,2.6777829999999998E1,5.2662388E1,3.4438635999999995E1,3.5554456E1,2.2197934E1,7.151868E1,1.4418491999999999E1,,,,10,12,13,15,17,19,20,24,28,,,,9,1,4,5,2,2,6,11,0,,,,
1572382438,2019-10-29 20:53:58.669,Acquired,Acquired,Acquired,Acquired,Acquired,Acquired,Acquired,Acquired,Not acquired,,,,2.9862963199999996E2,2.15416E2,1.43344896E2,1.76709168E2,7.0615848E1,9.8020488E1,2.66671632E2,2.9565216E2,4.8500735999999996E1,,,,2.471401E1,4.4298224E1,2.6777829999999998E1,5.2662388E1,3.4438635999999995E1,3.5554456E1,2.2197934E1,7.151868E1,1.4418491999999999E1,,,,10,12,13,15,17,19,20,24,28,,,,9,1,4,5,2,2,6,11,0,,,,
1572382498,2019-10-29 20:54:58.669,Acquired,Acquired,Acquired,Acquired,Acquired,Acquired,Acquired,Acquired,Not acquired,,,,2.9862963199999996E2,2.15416E2,1.43344896E2,1.76709168E2,7.0615848E1,9.8020488E1,2.66671632E2,2.9565216E2,4.8500735999999996E1,,,,2.471401E1,4.4298224E1,2.6777829999999998E1,5.2662388E1,3.4438635999999995E1,3.5554456E1,2.2197934E1,7.151868E1,1.4418491999999999E1,,,,10,12,13,15,17,19,20,24,28,,,,9,1,4,5,2,2,6,11,0,,,,
1572382558,2019-10-29 20:55:58.669,Acquired,Acquired,Acquired,Acquired,Acquired,Acquired,Acquired,Acquired,Not acquired,,,,2.9862963199999996E2,2.15416E2,1.43344896E2,1.76709168E2,7.0615848E1,9.8020488E1,2.66671632E2,2.9565216E2,4.8500735999999996E1,,,,2.471401E1,4.4298224E1,2.6777829999999998E1,5.2662388E1,3.4438635999999995E1,3.5554456E1,2.2197934E1,7.151868E1,1.4418491999999999E1,,,,10,12,13,15,17,19,20,24,28,,,,9,1,4,5,2,2,6,11,0,,,,
1572382618,2019-10-29 20:56:58.669,Acquired,Acquired,Acquired,Acquired,Acquired,Acquired,Acquired,Acquired,Not acquired,,,,2.9862963199999996E2,2.15416E2,1.43344896E2,1.76709168E2,7.0615848E1,9.8020488E1,2.66671632E2,2.9565216E2,4.8500735999999996E1,,,,2.471401E1,4.4298224E1,2.6777829999999998E1,5.2662388E1,3.4438635999999995E1,3.5554456E1,2.2197934E1,7.151868E1,1.4418491999999999E1,,,,10,12,13,15,17,19,20,24,28,,,,9,1,4,5,2,2,6,11,0,,,,
1572382678,2019-10-29 20:57:58.669,Acquired,Acquired,Acquired,Acquired,Acquired,Acquired,Acquired,Acquired,Not acquired,,,,2.9862963199999996E2,2.15416E2,1.43344896E2,1.76709168E2,7.0615848E1,9.8020488E1,2.66671632E2,2.9565216E2,4.8500735999999996E1,,,,2.471401E1,4.4298224E1,2.6777829999999998E1,5.2662388E1,3.4438635999999995E1,3.5554456E1,2.2197934E1,7.151868E1,1.4418491999999999E1,,,,10,12,13,15,17,19,20,24,28,,,,9,1,4,5,2,2,6,11,0,,,,
1572382738,2019-10-29 20:58:58.669,Acquired,Acquired,Acquired,Acquired,Acquired,Acquired,Acquired,Acquired,Not acquired,,,,2.9862963199999996E2,2.15416E2,1.43344896E2,1.76709168E2,7.0615848E1,9.8020488E1,2.66671632E2,2.9565216E2,4.8500735999999996E1,,,,2.471401E1,4.4298224E1,2.6777829999999998E1,5.2662388E1,3.4438635999999995E1,3.5554456E1,2.2197934E1,7.151868E1,1.4418491999999999E1,,,,10,12,13,15,17,19,20,24,28,,,,9,1,4,5,2,2,6,11,0,,,,
1572382798,2019-10-29 20:59:58.669,Acquired,Acquired,Acquired,Acquired,Acquired,Acquired,Acquired,Acquired,Not acquired,,,,2.9862963199999996E2,2.15416E2,1.43344896E2,1.76709168E2,7.0615848E1,9.8020488E1,2.66671632E2,2.9565216E2,4.8500735999999996E1,,,,2.471401E1,4.4298224E1,2.6777829999999998E1,5.2662388E1,3.4438635999999995E1,3.5554456E1,2.2197934E1,7.151868E1,1.4418491999999999E1,,,,10,12,13,15,17,19,20,24,28,,,,9,1,4,5,2,2,6,11,0,,,,
