Time(longsecs),Time(UTC),External SOH Voltage 1(V),External SOH Voltage 2(V),External SOH Voltage 3(V),External SOH Voltage 4(V),Sensor SOH Voltage 1(V),Sensor SOH Voltage 2(V),Sensor SOH Voltage 3(V),
1572339606,2019-10-29 09:00:06.642,-1.4901161E-4,1.5981197E-3,-3.273487E-4,9.255171E-3,4.7254944E-1,4.777155E-1,4.759493E-1,
1572339666,2019-10-29 09:01:06.642,-2.8047562E-3,-1.0783672E-3,-2.9568672E-3,6.37269E-3,4.6157837E-1,4.6670055E-1,4.651556E-1,
1572339726,2019-10-29 09:02:06.642,-2.1128654E-3,-2.5439262E-4,-2.364397E-3,7.178068E-3,4.6393967E-1,4.6983624E-1,4.683094E-1,
1572339786,2019-10-29 09:03:06.642,1.437664E-4,1.7507076E-3,-8.1300735E-5,9.460449E-3,4.6836662E-1,4.7413254E-1,4.7240543E-1,
1572339846,2019-10-29 09:04:06.642,2.3627281E-4,1.7414093E-3,-1.6617775E-4,9.320259E-3,4.6961308E-1,4.7600937E-1,4.7376442E-1,
1572339906,2019-10-29 09:05:06.647,-5.01132E-3,-3.414631E-3,-4.9626827E-3,4.1656494E-3,4.5428753E-1,4.6048164E-1,4.585743E-1,
1572339966,2019-10-29 09:06:06.642,-4.863262E-3,-3.052473E-3,-4.9848557E-3,4.3284893E-3,4.545107E-1,4.6089554E-1,4.5883942E-1,
1572340026,2019-10-29 09:07:06.644,-2.595663E-3,-8.223057E-4,-2.8784275E-3,6.565094E-3,4.6257973E-1,4.6879005E-1,4.6749973E-1,
1572340086,2019-10-29 09:08:06.642,-4.509926E-3,-3.1015873E-3,-5.0644875E-3,4.315138E-3,4.5448875E-1,4.60042E-1,4.5871353E-1,
1572340146,2019-10-29 09:09:06.671,-2.794981E-3,-1.1980534E-3,-2.7842522E-3,6.5181255E-3,4.608097E-1,4.676485E-1,4.6518326E-1,
1572340206,2019-10-29 09:10:06.642,3.774166E-4,1.4388561E-3,-3.1280518E-4,9.455442E-3,4.6822643E-1,4.7419262E-1,4.7214317E-1,
1572340266,2019-10-29 09:11:06.643,-2.714157E-3,-1.2114048E-3,-3.0236244E-3,6.496668E-3,4.61051E-1,4.6691322E-1,4.6436024E-1,
1572340326,2019-10-29 09:12:06.675,1.4374256E-3,1.5850067E-3,-1.4710426E-4,9.392023E-3,4.6797943E-1,4.7425652E-1,4.7260857E-1,
1572340386,2019-10-29 09:13:06.642,-2.0906925E-3,-8.456707E-4,-2.388239E-3,7.1992874E-3,4.6170425E-1,4.6846294E-1,4.662609E-1,
1572340446,2019-10-29 09:14:06.642,-4.9300194E-3,-2.9394627E-3,-5.0759315E-3,4.361868E-3,4.538908E-1,4.6034718E-1,4.5890427E-1,
1572340506,2019-10-29 09:15:06.642,-7.867813E-5,2.171278E-3,-2.9826164E-4,9.225845E-3,4.6417236E-1,4.6994305E-1,4.6869087E-1,
1572340566,2019-10-29 09:16:06.642,-2.7046204E-3,-1.0604858E-3,-3.0400753E-3,6.4640045E-3,4.6142578E-1,4.6720028E-1,4.6558666E-1,
1572340626,2019-10-29 09:17:06.642,-2.6202202E-3,-1.242876E-3,-2.8579235E-3,6.4606667E-3,4.609909E-1,4.6626663E-1,4.6461582E-1,
1572340686,2019-10-29 09:18:06.642,-2.7809143E-3,-3.6859512E-4,-3.004551E-3,6.6096783E-3,4.6072197E-1,4.665165E-1,4.650011E-1,
1572340746,2019-10-29 09:19:06.642,-9.560585E-5,1.6820431E-3,-5.1116943E-4,9.208918E-3,4.6697426E-1,4.7344303E-1,4.721737E-1,
1572340806,2019-10-29 09:20:06.642,-2.7422905E-3,-1.0578632E-3,-2.9995441E-3,6.7481995E-3,4.5664787E-1,4.6246433E-1,4.6097565E-1,
1572340866,2019-10-29 09:21:06.642,5.1498413E-5,2.3114681E-3,-2.7513504E-4,9.22513E-3,4.702568E-1,4.759493E-1,4.7477722E-1,
1572340926,2019-10-29 09:22:06.642,-4.7557354E-3,-2.7415752E-3,-5.0098896E-3,4.989624E-3,4.552536E-1,4.603939E-1,4.5918274E-1,
1572340986,2019-10-29 09:23:06.642,-2.172947E-3,-1.3566017E-4,-2.33984E-3,6.979227E-3,4.743662E-1,4.7969627E-1,4.7872257E-1,
1572341046,2019-10-29 09:24:06.642,-4.6641827E-3,-3.0879974E-3,-5.1436424E-3,4.160881E-3,4.54175E-1,4.6096992E-1,4.58807E-1,
1572341106,2019-10-29 09:25:06.644,-2.7968884E-3,-2.0782948E-3,-3.2565594E-3,6.6096783E-3,4.6339703E-1,4.6883965E-1,4.6743393E-1,
1572341166,2019-10-29 09:26:06.642,1.3804436E-4,1.670599E-3,-2.48909E-4,9.15575E-3,4.6417046E-1,4.7021008E-1,4.6848297E-1,
1572341226,2019-10-29 09:27:06.642,-2.067566E-3,-1.1610985E-4,-2.379179E-3,7.456064E-3,4.614706E-1,4.6812153E-1,4.6573544E-1,
1572341286,2019-10-29 09:28:06.642,-8.34465E-5,1.1899471E-3,-5.0878525E-4,9.632111E-3,4.6990776E-1,4.7596836E-1,4.7484207E-1,
1572341346,2019-10-29 09:29:06.642,-2.702713E-3,-1.3918877E-3,-3.0236244E-3,6.552696E-3,4.6107197E-1,4.6699047E-1,4.6498203E-1,
1572341406,2019-10-29 09:30:06.642,-1.9145012E-3,9.4652176E-5,-2.4774075E-3,7.0443153E-3,4.6155834E-1,4.680643E-1,4.6555996E-1,
1572341466,2019-10-29 09:31:06.642,-2.383709E-3,1.9164085E-3,-7.247925E-5,9.526491E-3,4.6743107E-1,4.7420883E-1,4.722662E-1,
1572341526,2019-10-29 09:32:06.642,-1.9948483E-3,-5.4740906E-4,-2.4678707E-3,6.900549E-3,4.5789242E-1,4.637699E-1,4.620533E-1,
1572341586,2019-10-29 09:33:06.642,-2.1238327E-3,6.7329407E-4,-2.4056435E-3,7.261753E-3,4.5796204E-1,4.6390057E-1,4.6294403E-1,
1572341646,2019-10-29 09:34:06.644,-4.9471855E-3,-4.0738583E-3,-5.1395893E-3,4.36306E-3,4.5649433E-1,4.6259594E-1,4.60845E-1,
1572341706,2019-10-29 09:35:06.665,-4.4662952E-3,-2.9985905E-3,-4.7228336E-3,4.27866E-3,4.499693E-1,4.5589828E-1,4.5540714E-1,
1572341766,2019-10-29 09:36:06.642,-2.7866364E-3,-1.5115738E-3,-2.8882027E-3,6.375313E-3,4.608755E-1,4.6798134E-1,4.653225E-1,
1572341826,2019-10-29 09:37:06.654,-2.6664734E-3,-8.72612E-4,-2.660513E-3,6.5016747E-3,4.6098042E-1,4.6714687E-1,4.6513844E-1,
1572341886,2019-10-29 09:38:06.642,-3.71933E-5,1.884222E-3,-7.390976E-5,9.117842E-3,4.697895E-1,4.759512E-1,4.7486496E-1,
1572341946,2019-10-29 09:39:06.642,-4.9216747E-3,-2.3944378E-3,-5.3548813E-3,4.593134E-3,4.5416355E-1,4.608755E-1,4.587021E-1,
1572342006,2019-10-29 09:40:06.642,-5.052805E-3,-2.6369095E-3,-4.882574E-3,4.4882298E-3,4.504156E-1,4.5621395E-1,4.5469666E-1,
1572342066,2019-10-29 09:41:06.642,-4.8742294E-3,-3.576517E-3,-5.153179E-3,4.394293E-3,4.543209E-1,4.6059704E-1,4.588251E-1,
1572342126,2019-10-29 09:42:06.642,-4.7442913E-3,-3.127575E-3,-5.0230026E-3,4.383564E-3,4.54381E-1,4.6109867E-1,4.589939E-1,
1572342186,2019-10-29 09:43:06.644,-4.941225E-3,-2.5544167E-3,-4.93145E-3,4.417181E-3,4.4983482E-1,4.5730686E-1,4.5478916E-1,
1572342246,2019-10-29 09:44:06.642,-1.6880035E-4,1.1558533E-3,-4.6133995E-4,9.362698E-3,4.6915627E-1,4.7442722E-1,4.7209358E-1,
1572342306,2019-10-29 09:45:06.642,-4.896879E-3,-2.9907227E-3,-4.9557686E-3,4.230261E-3,4.4999123E-1,4.5628738E-1,4.5550632E-1,
1572342366,2019-10-29 09:46:06.642,-5.161047E-3,-2.4735928E-3,-5.2912235E-3,4.2595863E-3,4.5343685E-1,4.601345E-1,4.5808792E-1,
1572342426,2019-10-29 09:47:06.642,-2.904892E-3,-1.4522076E-3,-2.761364E-3,6.5989494E-3,4.6100807E-1,4.6651173E-1,4.6485806E-1,
1572342486,2019-10-29 09:48:06.642,-3.6001205E-5,2.5606155E-3,-2.7036667E-4,9.535551E-3,4.6784973E-1,4.740839E-1,4.7237015E-1,
1572342546,2019-10-29 09:49:06.642,-4.951954E-3,-2.34437E-3,-5.119562E-3,4.324436E-3,4.5083332E-1,4.5659065E-1,4.5493698E-1,
1572342606,2019-10-29 09:50:06.642,-7.176399E-5,2.4302006E-3,-1.6140938E-4,9.585142E-3,4.682703E-1,4.7420883E-1,4.7343254E-1,
1572342666,2019-10-29 09:51:06.642,-4.8644543E-3,-2.6755333E-3,-5.1956177E-3,4.3952465E-3,4.5684147E-1,4.62533E-1,4.6112823E-1,
1572342726,2019-10-29 09:52:06.643,-4.957676E-3,-3.0345917E-3,-4.6732426E-3,4.417181E-3,4.5493126E-1,4.6163177E-1,4.5882225E-1,
1572342786,2019-10-29 09:53:06.642,-2.1586418E-3,2.3126602E-4,-2.4504662E-3,7.3080063E-3,4.579153E-1,4.6291542E-1,4.6303844E-1,
1572342846,2019-10-29 09:54:06.642,-4.7688484E-3,-3.367424E-3,-5.0098896E-3,4.330635E-3,4.5422745E-1,4.609089E-1,4.5922756E-1,
1572342906,2019-10-29 09:55:06.658,2.720356E-4,1.8875599E-3,-1.7023087E-4,9.171963E-3,4.684105E-1,4.7419834E-1,4.7316647E-1,
1572342966,2019-10-29 09:56:06.642,-1.1920929E-4,1.6052723E-3,-2.0241737E-4,9.1667175E-3,4.681492E-1,4.7456837E-1,4.725523E-1,
1572343026,2019-10-29 09:57:06.642,-1.2087822E-4,1.6283989E-3,-6.0796738E-5,9.391069E-3,4.6835232E-1,4.7453403E-1,4.729576E-1,
1572343086,2019-10-29 09:58:06.642,-8.845329E-5,1.6489029E-3,-2.169609E-4,9.304762E-3,4.682722E-1,4.7375298E-1,4.7220516E-1,
1572343146,2019-10-29 09:59:06.642,-2.6831627E-3,-9.3626976E-4,-2.6359558E-3,6.5538883E-3,4.626379E-1,4.6864605E-1,4.6818256E-1,
