Time(longsecs),Time(UTC),External SOH Voltage 1(V),External SOH Voltage 2(V),External SOH Voltage 3(V),External SOH Voltage 4(V),Sensor SOH Voltage 1(V),Sensor SOH Voltage 2(V),Sensor SOH Voltage 3(V),
1572408020,2019-10-30 04:00:20.663,-4.6110153E-4,-6.533861E-3,6.33955E-4,3.5119057E-4,4.3160152E-1,4.2689705E-1,4.3379116E-1,
1572408080,2019-10-30 04:01:20.692,-3.9322376E-3,-9.897709E-3,-3.1414032E-3,-4.0040016E-3,4.1819763E-1,4.1413975E-1,4.2400074E-1,
1572408140,2019-10-30 04:02:20.663,1.6481876E-3,-6.38175E-3,3.4236908E-4,-1.9073486E-6,4.303875E-1,4.2569733E-1,4.315548E-1,
1572408200,2019-10-30 04:03:20.676,-6.606579E-4,-7.876396E-3,-1.4734268E-3,-1.7392635E-3,4.3098736E-1,4.2505646E-1,4.337759E-1,
1572408260,2019-10-30 04:04:20.663,-9.942055E-5,-8.269548E-3,-1.16539E-3,-1.7077923E-3,4.2996502E-1,4.2546654E-1,4.3121624E-1,
1572408320,2019-10-30 04:05:20.665,3.9100647E-5,-7.807255E-3,-8.5139275E-4,-1.4512539E-3,4.280262E-1,4.227667E-1,4.3051624E-1,
1572408380,2019-10-30 04:06:20.663,-3.1256676E-4,-7.585764E-3,-1.4364719E-3,-1.7516613E-3,4.2559624E-1,4.2080307E-1,4.2883396E-1,
1572408440,2019-10-30 04:07:20.663,-7.338524E-4,-8.156538E-3,-1.8153191E-3,-2.0141602E-3,4.2635727E-1,4.2103672E-1,4.2704964E-1,
1572408500,2019-10-30 04:08:20.663,-2.3365021E-4,-7.889032E-3,-1.6601086E-3,-2.2206306E-3,4.2863274E-1,4.2216206E-1,4.3003654E-1,
1572408560,2019-10-30 04:09:20.663,-5.130768E-4,-7.906437E-3,-1.4369488E-3,-1.5997887E-3,4.280615E-1,4.230194E-1,4.30871E-1,
1572408620,2019-10-30 04:10:20.663,-6.325245E-4,-8.42762E-3,-2.024889E-3,-2.3684502E-3,4.2551708E-1,4.2101002E-1,4.284315E-1,
1572408680,2019-10-30 04:11:20.663,1.4681816E-3,-6.0675144E-3,4.3463707E-4,1.8262863E-4,4.3136024E-1,4.277401E-1,4.3479347E-1,
1572408740,2019-10-30 04:12:20.663,1.6441345E-3,-6.195545E-3,4.7516823E-4,4.298687E-4,4.2942524E-1,4.254465E-1,4.3383884E-1,
1572408800,2019-10-30 04:13:20.663,-2.6631355E-3,-1.0334015E-2,-3.8621426E-3,-3.9539337E-3,4.1923523E-1,4.1482067E-1,4.2178917E-1,
1572408860,2019-10-30 04:14:20.663,1.3766289E-3,-5.756855E-3,2.5248528E-4,4.966259E-4,4.3345833E-1,4.2983055E-1,4.351883E-1,
1572408920,2019-10-30 04:15:20.663,-2.5911331E-3,-1.0303736E-2,-3.6182404E-3,-3.9610863E-3,4.2125702E-1,4.1550064E-1,4.2459393E-1,
1572408980,2019-10-30 04:16:20.663,-2.8004646E-3,-1.0074854E-2,-3.473997E-3,-3.913164E-3,4.2049503E-1,4.1685867E-1,4.248705E-1,
1572409040,2019-10-30 04:17:20.664,3.33786E-6,-7.998943E-3,-1.4448166E-3,-1.3792515E-3,4.2824554E-1,4.2281055E-1,4.286604E-1,
1572409100,2019-10-30 04:18:20.666,-2.6044846E-3,-1.012969E-2,-3.5648346E-3,-3.8206577E-3,4.1976643E-1,4.167204E-1,4.2503166E-1,
1572409160,2019-10-30 04:19:20.663,-7.259846E-4,-8.212805E-3,-1.9886494E-3,-2.1243095E-3,4.2751312E-1,4.2333698E-1,4.2911434E-1,
1572409220,2019-10-30 04:20:20.663,-4.7683716E-7,-7.730961E-3,-1.3754368E-3,-1.7237663E-3,4.2653847E-1,4.2246342E-1,4.2966557E-1,
1572409280,2019-10-30 04:21:20.663,-5.362034E-4,-8.393049E-3,-1.8415451E-3,-2.1429062E-3,4.2629528E-1,4.2111397E-1,4.297428E-1,
1572409340,2019-10-30 04:22:20.663,1.745224E-3,-6.1352253E-3,5.18322E-4,2.9706955E-4,4.3548298E-1,4.3177223E-1,4.39847E-1,
1572409400,2019-10-30 04:23:20.693,2.767086E-3,-5.7537556E-3,4.799366E-4,2.0503998E-4,4.3543148E-1,4.294691E-1,4.361477E-1,
1572409460,2019-10-30 04:24:20.675,1.550436E-3,-5.982876E-3,6.8306923E-4,-8.916855E-5,4.3580818E-1,4.3058777E-1,4.3894386E-1,
1572409520,2019-10-30 04:25:20.663,-2.4909973E-3,-1.0532618E-2,-3.5226345E-3,-4.1823387E-3,4.210434E-1,4.156885E-1,4.2309666E-1,
1572409580,2019-10-30 04:26:20.663,1.696825E-3,-6.0162544E-3,3.528595E-4,3.3068657E-4,4.3383312E-1,4.294777E-1,4.3762112E-1,
1572409640,2019-10-30 04:27:20.663,-4.3535233E-4,-8.779049E-3,-1.6245842E-3,-1.9350052E-3,4.2786312E-1,4.2258835E-1,4.299488E-1,
1572409700,2019-10-30 04:28:20.663,1.7073154E-3,-6.115198E-3,9.200573E-4,2.7489662E-4,4.3526077E-1,4.2836475E-1,4.3573093E-1,
1572409760,2019-10-30 04:29:20.663,-8.647442E-4,-8.49247E-3,-2.1903515E-3,-2.1903515E-3,4.2703247E-1,4.2268753E-1,4.3067074E-1,
1572409820,2019-10-30 04:30:20.673,1.8954277E-4,-7.912159E-3,-1.0011196E-3,-1.5320778E-3,4.2427635E-1,4.2011452E-1,4.2891312E-1,
1572409880,2019-10-30 04:31:20.663,-5.722046E-6,-7.6191425E-3,-9.6964836E-4,-1.7747879E-3,4.2863274E-1,4.2425537E-1,4.3069458E-1,
1572409940,2019-10-30 04:32:20.663,2.7608871E-4,-7.655859E-3,-1.093626E-3,-1.5404224E-3,4.2910385E-1,4.230423E-1,4.3225384E-1,
1572410000,2019-10-30 04:33:20.663,-7.6818466E-4,-8.174658E-3,-2.1224022E-3,-1.98555E-3,4.2733955E-1,4.2276E-1,4.315462E-1,
1572410060,2019-10-30 04:34:20.664,-2.1083355E-3,-1.0530472E-2,-3.7341118E-3,-4.691124E-3,4.2176533E-1,4.165268E-1,4.243021E-1,
1572410120,2019-10-30 04:35:20.663,-2.3155212E-3,-1.0422945E-2,-3.2773018E-3,-3.7679672E-3,4.2058945E-1,4.1680622E-1,4.240713E-1,
1572410180,2019-10-30 04:36:20.663,1.6615391E-3,-6.2408447E-3,1.373291E-4,2.9706955E-4,4.3272877E-1,4.270172E-1,4.3614483E-1,
1572410240,2019-10-30 04:37:20.663,-7.3361397E-4,-8.4991455E-3,-1.7516613E-3,-1.6665459E-3,4.2838383E-1,4.2290974E-1,4.299574E-1,
1572410300,2019-10-30 04:38:20.665,-2.5732517E-3,-1.0610819E-2,-3.314972E-3,-4.0636063E-3,4.2205334E-1,4.1742897E-1,4.251442E-1,
1572410360,2019-10-30 04:39:20.663,3.8838387E-4,-8.0862045E-3,-1.3833046E-3,-2.167225E-3,4.3005848E-1,4.2515278E-1,4.3240833E-1,
1572410420,2019-10-30 04:40:20.665,-2.617836E-3,-1.0176897E-2,-3.8859844E-3,-3.7505627E-3,4.211979E-1,4.1556263E-1,4.2403126E-1,
1572410480,2019-10-30 04:41:20.696,-9.298325E-6,-8.223295E-3,-1.0688305E-3,-1.8565655E-3,4.2807198E-1,4.2213917E-1,4.3019676E-1,
1572410540,2019-10-30 04:42:20.663,5.531311E-5,-7.950544E-3,-1.2900829E-3,-1.6252995E-3,4.2684937E-1,4.218855E-1,4.302292E-1,
1572410600,2019-10-30 04:43:20.663,1.550436E-3,-6.0937405E-3,8.292198E-4,-1.2493134E-4,4.3129253E-1,4.2637253E-1,4.3529606E-1,
1572410660,2019-10-30 04:44:20.697,-1.7104149E-3,-5.9103966E-3,1.4996529E-4,5.9223175E-4,4.3545818E-1,4.3031216E-1,4.374504E-1,
1572410720,2019-10-30 04:45:20.663,-2.566576E-3,-1.0566235E-2,-3.8349628E-3,-3.9711E-3,4.2097473E-1,4.1676712E-1,4.232483E-1,
1572410780,2019-10-30 04:46:20.663,1.5072823E-3,-5.9535503E-3,4.3153763E-5,3.0589104E-4,4.3415833E-1,4.2792416E-1,4.3680286E-1,
1572410840,2019-10-30 04:47:20.663,1.5773773E-3,-6.281376E-3,5.2452087E-5,1.6212463E-4,4.3200588E-1,4.2589474E-1,4.3604565E-1,
1572410900,2019-10-30 04:48:20.663,-9.481907E-4,-8.455992E-3,-1.9059181E-3,-2.4971962E-3,4.2793274E-1,4.2277813E-1,4.3067074E-1,
1572410960,2019-10-30 04:49:20.663,-1.2850761E-4,-7.69639E-3,-1.0976791E-3,-1.7170906E-3,4.303894E-1,4.251852E-1,4.3338585E-1,
1572411020,2019-10-30 04:50:20.663,-2.1505356E-4,-7.596493E-3,-1.5199184E-3,-1.5304089E-3,4.289074E-1,4.238062E-1,4.3074226E-1,
1572411080,2019-10-30 04:51:20.663,-9.036064E-5,-7.5023174E-3,-8.482933E-4,-1.2598038E-3,4.2783833E-1,4.2238617E-1,4.2983723E-1,
1572411140,2019-10-30 04:52:20.663,-3.4356117E-4,-7.7073574E-3,-1.3182163E-3,-1.5964508E-3,4.262905E-1,4.2098236E-1,4.295969E-1,
1572411200,2019-10-30 04:53:20.663,1.5933514E-3,-5.7735443E-3,6.995201E-4,1.0538101E-4,4.3393135E-1,4.295473E-1,4.353838E-1,
1572411260,2019-10-30 04:54:20.663,-7.1549416E-4,-8.357286E-3,-1.8236637E-3,-2.3798943E-3,4.263096E-1,4.2276192E-1,4.3029022E-1,
1572411320,2019-10-30 04:55:20.663,-2.7136803E-3,-1.008749E-2,-3.789425E-3,-4.03738E-3,4.2410088E-1,4.1758442E-1,4.25395E-1,
1572411380,2019-10-30 04:56:20.663,-8.111E-4,-8.558512E-3,-2.585411E-3,-1.8954277E-3,4.2495728E-1,4.2036152E-1,4.2939377E-1,
1572411440,2019-10-30 04:57:20.663,-4.6277046E-4,-8.139849E-3,-8.354187E-4,-1.7178059E-3,4.2820835E-1,4.2341995E-1,4.3167973E-1,
1572411500,2019-10-30 04:58:20.663,1.616478E-3,-6.2129498E-3,4.6777725E-4,1.7166138E-4,4.33877E-1,4.284029E-1,4.368248E-1,
1572411560,2019-10-30 04:59:20.700,1.5246868E-3,-5.9559345E-3,5.5360794E-4,3.0446053E-4,4.315548E-1,4.2687798E-1,4.3361282E-1,
