Time(longsecs),Time(UTC),Supply Voltage(mV),Temperature(&deg;C),NMX Bus Current(mA),Sensor Current(mA),Serial Port Current(mA),Controller Current(mA),Digitizer Current(mA),
1571680818,2019-10-21 18:00:18.807,16496,2.0524963E1,0,8,0,36,36,
1571680878,2019-10-21 18:01:18.806,16482,2.0519562E1,0,6,0,37,36,
1571680938,2019-10-21 18:02:18.807,16496,2.0612457E1,0,8,0,36,39,
1571680998,2019-10-21 18:03:18.806,16482,2.039859E1,0,7,0,39,38,
1571681058,2019-10-21 18:04:18.806,16496,2.0630829E1,0,6,0,38,40,
1571681118,2019-10-21 18:05:18.806,16496,2.0446106E1,0,8,0,40,36,
1571681178,2019-10-21 18:06:18.806,16469,2.0517395E1,0,8,0,40,37,
1571681238,2019-10-21 18:07:18.809,16427,2.0210632E1,0,6,0,36,36,
1571681298,2019-10-21 18:08:18.806,16469,2.0360779E1,0,7,0,34,40,
1571681358,2019-10-21 18:09:18.835,16427,2.0321869E1,0,11,0,33,37,
1571681418,2019-10-21 18:10:18.807,16496,2.0367249E1,0,9,0,38,38,
1571681478,2019-10-21 18:11:18.807,16496,2.0298126E1,0,7,0,38,37,
1571681538,2019-10-21 18:12:18.807,16482,2.0455841E1,0,3,0,36,35,
1571681598,2019-10-21 18:13:18.806,16496,2.0528198E1,0,11,0,33,38,
1571681658,2019-10-21 18:14:18.806,16482,2.0332672E1,0,6,2,39,35,
1571681718,2019-10-21 18:15:18.806,16482,2.0357513E1,0,8,0,38,34,
1571681778,2019-10-21 18:16:18.806,16482,2.020523E1,0,9,0,42,40,
1571681838,2019-10-21 18:17:18.806,16482,2.017929E1,0,7,0,40,37,
1571681898,2019-10-21 18:18:18.806,16482,2.043747E1,0,9,0,38,40,
1571681958,2019-10-21 18:19:18.806,16482,2.0380219E1,0,6,5,33,35,
1571682018,2019-10-21 18:20:18.807,16482,2.003238E1,0,9,0,36,35,
1571682078,2019-10-21 18:21:18.806,16455,2.0047516E1,0,8,0,37,38,
1571682138,2019-10-21 18:22:18.807,16482,2.0293793E1,0,9,0,36,37,
1571682198,2019-10-21 18:23:18.806,16496,2.0062622E1,0,8,0,34,37,
1571682258,2019-10-21 18:24:18.809,16482,2.0162018E1,0,7,0,33,38,
1571682318,2019-10-21 18:25:18.806,16482,1.990924E1,0,6,0,36,37,
1571682378,2019-10-21 18:26:18.807,16482,1.9835785E1,0,11,0,37,37,
1571682438,2019-10-21 18:27:18.808,16482,2.0086395E1,0,9,0,45,37,
1571682498,2019-10-21 18:28:18.807,16496,2.028299E1,0,9,0,45,37,
1571682558,2019-10-21 18:29:18.806,16496,2.0248413E1,0,9,0,33,38,
1571682618,2019-10-21 18:30:18.806,16482,2.0082062E1,0,9,0,38,32,
1571682678,2019-10-21 18:31:18.839,16482,2.0014008E1,0,7,0,36,36,
1571682738,2019-10-21 18:32:18.807,16482,1.990274E1,0,15,0,37,34,
1571682798,2019-10-21 18:33:18.806,16482,2.005722E1,0,9,0,33,36,
1571682858,2019-10-21 18:34:18.809,16482,2.0150116E1,0,4,0,31,39,
1571682918,2019-10-21 18:35:18.836,16482,1.9979462E1,0,9,0,40,34,
1571682978,2019-10-21 18:36:18.806,16482,2.0071259E1,0,4,0,33,32,
1571683038,2019-10-21 18:37:18.807,16482,1.9959991E1,0,6,0,37,36,
1571683098,2019-10-21 18:38:18.806,16482,1.9994568E1,0,15,0,34,35,
1571683158,2019-10-21 18:39:18.809,16482,2.0009705E1,0,10,0,35,37,
1571683218,2019-10-21 18:40:18.806,16482,1.9949188E1,0,12,0,33,36,
1571683278,2019-10-21 18:41:18.814,16469,1.9880066E1,0,8,0,38,34,
1571683338,2019-10-21 18:42:18.806,16482,1.985846E1,0,9,0,39,35,
1571683398,2019-10-21 18:43:18.806,16482,1.993515E1,0,9,0,33,35,
1571683458,2019-10-21 18:44:18.809,16455,1.9894104E1,0,5,0,33,36,
1571683518,2019-10-21 18:45:18.806,16482,1.9816345E1,0,6,0,33,35,
1571683578,2019-10-21 18:46:18.806,16482,1.9681305E1,0,6,0,39,36,
1571683638,2019-10-21 18:47:18.806,16482,1.9876831E1,4,7,0,37,38,
1571683698,2019-10-21 18:48:18.806,16442,1.974289E1,0,8,0,39,36,
1571683758,2019-10-21 18:49:18.806,16482,1.97807E1,0,8,0,33,40,
1571683818,2019-10-21 18:50:18.806,16482,2.0017242E1,0,6,0,39,39,
1571683878,2019-10-21 18:51:18.806,16469,1.9995667E1,2,8,0,39,35,
1571683938,2019-10-21 18:52:18.806,16469,1.9900604E1,0,10,0,40,37,
1571683998,2019-10-21 18:53:18.806,16482,1.9870361E1,0,9,0,38,33,
1571684058,2019-10-21 18:54:18.806,16482,1.9627289E1,0,6,0,35,34,
1571684118,2019-10-21 18:55:18.806,16482,1.9765564E1,0,9,0,33,35,
1571684178,2019-10-21 18:56:18.806,16469,1.9820648E1,0,8,0,35,36,
1571684238,2019-10-21 18:57:18.806,16223,1.985846E1,0,6,0,39,35,
1571684298,2019-10-21 18:58:18.806,16469,1.9489014E1,0,6,0,38,34,
1571684358,2019-10-21 18:59:18.806,16482,1.9818481E1,0,9,0,33,36,
