Time(longsecs),Time(UTC),GPS Satellite Acquisition Flag 1,GPS Satellite Acquisition Flag 2,GPS Satellite Acquisition Flag 3,GPS Satellite Acquisition Flag 4,GPS Satellite Acquisition Flag 5,GPS Satellite Acquisition Flag 6,GPS Satellite Acquisition Flag 7,GPS Satellite Acquisition Flag 8,GPS Satellite Acquisition Flag 9,GPS Satellite Acquisition Flag 10,GPS Satellite Acquisition Flag 11,GPS Satellite Acquisition Flag 12,GPS Satellite Azimuth 1(Degrees),GPS Satellite Azimuth 2(Degrees),GPS Satellite Azimuth 3(Degrees),GPS Satellite Azimuth 4(Degrees),GPS Satellite Azimuth 5(Degrees),GPS Satellite Azimuth 6(Degrees),GPS Satellite Azimuth 7(Degrees),GPS Satellite Azimuth 8(Degrees),GPS Satellite Azimuth 9(Degrees),GPS Satellite Azimuth 10(Degrees),GPS Satellite Azimuth 11(Degrees),GPS Satellite Azimuth 12(Degrees),GPS Satellite Elevation 1(Degrees),GPS Satellite Elevation 2(Degrees),GPS Satellite Elevation 3(Degrees),GPS Satellite Elevation 4(Degrees),GPS Satellite Elevation 5(Degrees),GPS Satellite Elevation 6(Degrees),GPS Satellite Elevation 7(Degrees),GPS Satellite Elevation 8(Degrees),GPS Satellite Elevation 9(Degrees),GPS Satellite Elevation 10(Degrees),GPS Satellite Elevation 11(Degrees),GPS Satellite Elevation 12(Degrees),GPS Satellite PRN 1,GPS Satellite PRN 2,GPS Satellite PRN 3,GPS Satellite PRN 4,GPS Satellite PRN 5,GPS Satellite PRN 6,GPS Satellite PRN 7,GPS Satellite PRN 8,GPS Satellite PRN 9,GPS Satellite PRN 10,GPS Satellite PRN 11,GPS Satellite PRN 12,GPS Satellite Signal Level 1(AMU),GPS Satellite Signal Level 2(AMU),GPS Satellite Signal Level 3(AMU),GPS Satellite Signal Level 4(AMU),GPS Satellite Signal Level 5(AMU),GPS Satellite Signal Level 6(AMU),GPS Satellite Signal Level 7(AMU),GPS Satellite Signal Level 8(AMU),GPS Satellite Signal Level 9(AMU),GPS Satellite Signal Level 10(AMU),GPS Satellite Signal Level 11(AMU),GPS Satellite Signal Level 12(AMU),
1571616018,2019-10-21 00:00:18.808,Acquired,Not acquired,Acquired,Acquired,Acquired,Acquired,Acquired,Acquired,Acquired,Not acquired,,,9.8184136E1,5.5142731999999995E1,5.9463792E1,3.04539456E2,1.33314816E2,2.7412384E2,1.9440008E2,3.0288937599999997E2,2.71259712E2,3.7608136E1,,,2.497029E1,1.9995393999999997E1,6.2769555999999994E1,3.2671147999999995E1,3.9248008E1,6.605806E1,2.8155777999999998E1,1.5605169E1,4.3704844E1,8.218941E0,,,2,6,12,14,24,25,29,31,32,19,,,3,0,4,2,16,12,4,1,8,0,,,
1571616078,2019-10-21 00:01:18.806,Acquired,Not acquired,Acquired,Acquired,Acquired,Acquired,Acquired,Acquired,Acquired,Not acquired,,,9.8184136E1,5.5142731999999995E1,5.9463792E1,3.04539456E2,1.33314816E2,2.7412384E2,1.9440008E2,3.0288937599999997E2,2.71259712E2,3.7608136E1,,,2.497029E1,1.9995393999999997E1,6.2769555999999994E1,3.2671147999999995E1,3.9248008E1,6.605806E1,2.8155777999999998E1,1.5605169E1,4.3704844E1,8.218941E0,,,2,6,12,14,24,25,29,31,32,19,,,3,0,4,2,16,12,4,1,8,0,,,
1571616138,2019-10-21 00:02:18.806,Acquired,Not acquired,Acquired,Acquired,Acquired,Acquired,Acquired,Acquired,Acquired,Not acquired,,,9.8184136E1,5.5142731999999995E1,5.9463792E1,3.04539456E2,1.33314816E2,2.7412384E2,1.9440008E2,3.0288937599999997E2,2.71259712E2,3.7608136E1,,,2.497029E1,1.9995393999999997E1,6.2769555999999994E1,3.2671147999999995E1,3.9248008E1,6.605806E1,2.8155777999999998E1,1.5605169E1,4.3704844E1,8.218941E0,,,2,6,12,14,24,25,29,31,32,19,,,3,0,4,2,16,12,4,1,8,0,,,
1571616198,2019-10-21 00:03:18.806,Acquired,Not acquired,Acquired,Acquired,Acquired,Acquired,Acquired,Acquired,Acquired,Not acquired,,,9.8184136E1,5.5142731999999995E1,5.9463792E1,3.04539456E2,1.33314816E2,2.7412384E2,1.9440008E2,3.0288937599999997E2,2.71259712E2,3.7608136E1,,,2.497029E1,1.9995393999999997E1,6.2769555999999994E1,3.2671147999999995E1,3.9248008E1,6.605806E1,2.8155777999999998E1,1.5605169E1,4.3704844E1,8.218941E0,,,2,6,12,14,24,25,29,31,32,19,,,3,0,4,2,16,12,4,1,8,0,,,
1571616258,2019-10-21 00:04:18.806,Acquired,Not acquired,Acquired,Acquired,Acquired,Acquired,Acquired,Acquired,Acquired,Not acquired,,,9.8184136E1,5.5142731999999995E1,5.9463792E1,3.04539456E2,1.33314816E2,2.7412384E2,1.9440008E2,3.0288937599999997E2,2.71259712E2,3.7608136E1,,,2.497029E1,1.9995393999999997E1,6.2769555999999994E1,3.2671147999999995E1,3.9248008E1,6.605806E1,2.8155777999999998E1,1.5605169E1,4.3704844E1,8.218941E0,,,2,6,12,14,24,25,29,31,32,19,,,3,0,4,2,16,12,4,1,8,0,,,
1571616318,2019-10-21 00:05:18.806,Acquired,Not acquired,Acquired,Acquired,Acquired,Acquired,Acquired,Acquired,Acquired,Not acquired,,,9.8184136E1,5.5142731999999995E1,5.9463792E1,3.04539456E2,1.33314816E2,2.7412384E2,1.9440008E2,3.0288937599999997E2,2.71259712E2,3.7608136E1,,,2.497029E1,1.9995393999999997E1,6.2769555999999994E1,3.2671147999999995E1,3.9248008E1,6.605806E1,2.8155777999999998E1,1.5605169E1,4.3704844E1,8.218941E0,,,2,6,12,14,24,25,29,31,32,19,,,3,0,4,2,16,12,4,1,8,0,,,
1571616378,2019-10-21 00:06:18.806,Acquired,Not acquired,Acquired,Acquired,Acquired,Acquired,Acquired,Acquired,Acquired,Not acquired,,,9.8184136E1,5.5142731999999995E1,5.9463792E1,3.04539456E2,1.33314816E2,2.7412384E2,1.9440008E2,3.0288937599999997E2,2.71259712E2,3.7608136E1,,,2.497029E1,1.9995393999999997E1,6.2769555999999994E1,3.2671147999999995E1,3.9248008E1,6.605806E1,2.8155777999999998E1,1.5605169E1,4.3704844E1,8.218941E0,,,2,6,12,14,24,25,29,31,32,19,,,3,0,4,2,16,12,4,1,8,0,,,
1571616438,2019-10-21 00:07:18.806,Acquired,Not acquired,Acquired,Acquired,Acquired,Acquired,Acquired,Acquired,Acquired,Not acquired,,,9.8184136E1,5.5142731999999995E1,5.9463792E1,3.04539456E2,1.33314816E2,2.7412384E2,1.9440008E2,3.0288937599999997E2,2.71259712E2,3.7608136E1,,,2.497029E1,1.9995393999999997E1,6.2769555999999994E1,3.2671147999999995E1,3.9248008E1,6.605806E1,2.8155777999999998E1,1.5605169E1,4.3704844E1,8.218941E0,,,2,6,12,14,24,25,29,31,32,19,,,3,0,4,2,16,12,4,1,8,0,,,
1571616498,2019-10-21 00:08:18.806,Acquired,Not acquired,Acquired,Acquired,Acquired,Acquired,Acquired,Acquired,Acquired,Not acquired,,,9.8184136E1,5.5142731999999995E1,5.9463792E1,3.04539456E2,1.33314816E2,2.7412384E2,1.9440008E2,3.0288937599999997E2,2.71259712E2,3.7608136E1,,,2.497029E1,1.9995393999999997E1,6.2769555999999994E1,3.2671147999999995E1,3.9248008E1,6.605806E1,2.8155777999999998E1,1.5605169E1,4.3704844E1,8.218941E0,,,2,6,12,14,24,25,29,31,32,19,,,3,0,4,2,16,12,4,1,8,0,,,
1571616558,2019-10-21 00:09:18.807,Acquired,Not acquired,Acquired,Acquired,Acquired,Acquired,Acquired,Acquired,Acquired,Not acquired,,,9.8184136E1,5.5142731999999995E1,5.9463792E1,3.04539456E2,1.33314816E2,2.7412384E2,1.9440008E2,3.0288937599999997E2,2.71259712E2,3.7608136E1,,,2.497029E1,1.9995393999999997E1,6.2769555999999994E1,3.2671147999999995E1,3.9248008E1,6.605806E1,2.8155777999999998E1,1.5605169E1,4.3704844E1,8.218941E0,,,2,6,12,14,24,25,29,31,32,19,,,3,0,4,2,16,12,4,1,8,0,,,
1571616618,2019-10-21 00:10:18.807,Acquired,Not acquired,,,Acquired,Acquired,Acquired,Not acquired,Acquired,Not acquired,,,9.7784024E1,5.4702504E1,,,1.33524696E2,2.7476544E2,1.9445584E2,3.0299875199999997E2,2.7062803199999996E2,3.7549516E1,,,2.5211534E1,1.9991414E1,,,3.8814907999999996E1,6.646652399999999E1,2.8621626E1,1.5996279E1,4.3644124E1,7.834956999999999E0,,,2,6,,,24,25,29,31,32,19,,,3,0,,,16,12,9,1,5,0,,,
1571616678,2019-10-21 00:11:18.809,Acquired,Acquired,Acquired,Acquired,Acquired,Acquired,Acquired,Acquired,Acquired,,,,7.638841599999999E1,3.6011536E1,7.448324E1,2.80673024E2,1.41725248E2,3.4588527999999997E2,1.97341024E2,3.0502672E2,2.4508030399999998E2,,,,3.2432784E1,1.4941823E1,4.2917268E1,3.7727315999999995E1,1.9192268E1,8.1304368E1,5.1166748E1,3.4886815999999996E1,3.4515927999999995E1,,,,2,6,12,14,24,25,29,31,32,,,,8,2,5,7,5,4,14,5,8,,,,
1571616738,2019-10-21 00:12:18.807,Acquired,Acquired,Acquired,Acquired,Acquired,Acquired,Acquired,Acquired,Acquired,,,,7.638841599999999E1,3.6011536E1,7.448324E1,2.80673024E2,1.41725248E2,3.4588527999999997E2,1.97341024E2,3.0502672E2,2.4508030399999998E2,,,,3.2432784E1,1.4941823E1,4.2917268E1,3.7727315999999995E1,1.9192268E1,8.1304368E1,5.1166748E1,3.4886815999999996E1,3.4515927999999995E1,,,,2,6,12,14,24,25,29,31,32,,,,8,2,5,7,5,4,14,5,8,,,,
1571616798,2019-10-21 00:13:18.806,Acquired,Acquired,Acquired,Acquired,Acquired,Acquired,Acquired,Acquired,Acquired,,,,7.638841599999999E1,3.6011536E1,7.448324E1,2.80673024E2,1.41725248E2,3.4588527999999997E2,1.97341024E2,3.0502672E2,2.4508030399999998E2,,,,3.2432784E1,1.4941823E1,4.2917268E1,3.7727315999999995E1,1.9192268E1,8.1304368E1,5.1166748E1,3.4886815999999996E1,3.4515927999999995E1,,,,2,6,12,14,24,25,29,31,32,,,,8,2,5,7,5,4,14,5,8,,,,
1571616858,2019-10-21 00:14:18.807,Acquired,Acquired,Acquired,Acquired,Acquired,Acquired,Acquired,Acquired,Acquired,,,,7.638841599999999E1,3.6011536E1,7.448324E1,2.80673024E2,1.41725248E2,3.4588527999999997E2,1.97341024E2,3.0502672E2,2.4508030399999998E2,,,,3.2432784E1,1.4941823E1,4.2917268E1,3.7727315999999995E1,1.9192268E1,8.1304368E1,5.1166748E1,3.4886815999999996E1,3.4515927999999995E1,,,,2,6,12,14,24,25,29,31,32,,,,8,2,5,7,5,4,14,5,8,,,,
1571616918,2019-10-21 00:15:18.845,Acquired,Acquired,Acquired,Acquired,Acquired,Acquired,Acquired,Acquired,Acquired,,,,7.638841599999999E1,3.6011536E1,7.448324E1,2.80673024E2,1.41725248E2,3.4588527999999997E2,1.97341024E2,3.0502672E2,2.4508030399999998E2,,,,3.2432784E1,1.4941823E1,4.2917268E1,3.7727315999999995E1,1.9192268E1,8.1304368E1,5.1166748E1,3.4886815999999996E1,3.4515927999999995E1,,,,2,6,12,14,24,25,29,31,32,,,,8,2,5,7,5,4,14,5,8,,,,
1571616978,2019-10-21 00:16:18.806,Acquired,Acquired,Acquired,Acquired,Acquired,Acquired,Acquired,Acquired,Acquired,,,,7.638841599999999E1,3.6011536E1,7.448324E1,2.80673024E2,1.41725248E2,3.4588527999999997E2,1.97341024E2,3.0502672E2,2.4508030399999998E2,,,,3.2432784E1,1.4941823E1,4.2917268E1,3.7727315999999995E1,1.9192268E1,8.1304368E1,5.1166748E1,3.4886815999999996E1,3.4515927999999995E1,,,,2,6,12,14,24,25,29,31,32,,,,8,2,5,7,5,4,14,5,8,,,,
1571617038,2019-10-21 00:17:18.806,Acquired,Acquired,Acquired,Acquired,Acquired,Acquired,Acquired,Acquired,Acquired,,,,7.638841599999999E1,3.6011536E1,7.448324E1,2.80673024E2,1.41725248E2,3.4588527999999997E2,1.97341024E2,3.0502672E2,2.4508030399999998E2,,,,3.2432784E1,1.4941823E1,4.2917268E1,3.7727315999999995E1,1.9192268E1,8.1304368E1,5.1166748E1,3.4886815999999996E1,3.4515927999999995E1,,,,2,6,12,14,24,25,29,31,32,,,,8,2,5,7,5,4,14,5,8,,,,
1571617098,2019-10-21 00:18:18.806,Acquired,Acquired,Acquired,Acquired,Acquired,Acquired,Acquired,Acquired,Acquired,,,,7.638841599999999E1,3.6011536E1,7.448324E1,2.80673024E2,1.41725248E2,3.4588527999999997E2,1.97341024E2,3.0502672E2,2.4508030399999998E2,,,,3.2432784E1,1.4941823E1,4.2917268E1,3.7727315999999995E1,1.9192268E1,8.1304368E1,5.1166748E1,3.4886815999999996E1,3.4515927999999995E1,,,,2,6,12,14,24,25,29,31,32,,,,8,2,5,7,5,4,14,5,8,,,,
1571617158,2019-10-21 00:19:18.806,Acquired,Acquired,Acquired,Acquired,Acquired,Acquired,Acquired,Acquired,Acquired,,,,7.638841599999999E1,3.6011536E1,7.448324E1,2.80673024E2,1.41725248E2,3.4588527999999997E2,1.97341024E2,3.0502672E2,2.4508030399999998E2,,,,3.2432784E1,1.4941823E1,4.2917268E1,3.7727315999999995E1,1.9192268E1,8.1304368E1,5.1166748E1,3.4886815999999996E1,3.4515927999999995E1,,,,2,6,12,14,24,25,29,31,32,,,,8,2,5,7,5,4,14,5,8,,,,
1571617218,2019-10-21 00:20:18.806,Acquired,Acquired,Acquired,Acquired,Acquired,Acquired,Acquired,Acquired,Acquired,,,,7.638841599999999E1,3.6011536E1,7.448324E1,2.80673024E2,1.41725248E2,3.4588527999999997E2,1.97341024E2,3.0502672E2,2.4508030399999998E2,,,,3.2432784E1,1.4941823E1,4.2917268E1,3.7727315999999995E1,1.9192268E1,8.1304368E1,5.1166748E1,3.4886815999999996E1,3.4515927999999995E1,,,,2,6,12,14,24,25,29,31,32,,,,8,2,5,7,5,4,14,5,8,,,,
1571617278,2019-10-21 00:21:18.806,Acquired,Acquired,Acquired,Acquired,Acquired,Acquired,Acquired,Acquired,Acquired,,,,7.638841599999999E1,3.6011536E1,7.448324E1,2.80673024E2,1.41725248E2,3.4588527999999997E2,1.97341024E2,3.0502672E2,2.4508030399999998E2,,,,3.2432784E1,1.4941823E1,4.2917268E1,3.7727315999999995E1,1.9192268E1,8.1304368E1,5.1166748E1,3.4886815999999996E1,3.4515927999999995E1,,,,2,6,12,14,24,25,29,31,32,,,,8,2,5,7,5,4,14,5,8,,,,
1571617338,2019-10-21 00:22:18.806,Acquired,Acquired,Acquired,Acquired,Acquired,Acquired,Acquired,Acquired,Acquired,,,,7.638841599999999E1,3.6011536E1,7.448324E1,2.80673024E2,1.41725248E2,3.4588527999999997E2,1.97341024E2,3.0502672E2,2.4508030399999998E2,,,,3.2432784E1,1.4941823E1,4.2917268E1,3.7727315999999995E1,1.9192268E1,8.1304368E1,5.1166748E1,3.4886815999999996E1,3.4515927999999995E1,,,,2,6,12,14,24,25,29,31,32,,,,8,2,5,7,5,4,14,5,8,,,,
1571617398,2019-10-21 00:23:18.840,Acquired,Acquired,Acquired,Acquired,Acquired,Acquired,Acquired,Acquired,Acquired,,,,7.638841599999999E1,3.6011536E1,7.448324E1,2.80673024E2,1.41725248E2,3.4588527999999997E2,1.97341024E2,3.0502672E2,2.4508030399999998E2,,,,3.2432784E1,1.4941823E1,4.2917268E1,3.7727315999999995E1,1.9192268E1,8.1304368E1,5.1166748E1,3.4886815999999996E1,3.4515927999999995E1,,,,2,6,12,14,24,25,29,31,32,,,,8,2,5,7,5,4,14,5,8,,,,
1571617458,2019-10-21 00:24:18.806,Acquired,Acquired,Acquired,Acquired,Acquired,Acquired,Acquired,Acquired,Acquired,,,,7.638841599999999E1,3.6011536E1,7.448324E1,2.80673024E2,1.41725248E2,3.4588527999999997E2,1.97341024E2,3.0502672E2,2.4508030399999998E2,,,,3.2432784E1,1.4941823E1,4.2917268E1,3.7727315999999995E1,1.9192268E1,8.1304368E1,5.1166748E1,3.4886815999999996E1,3.4515927999999995E1,,,,2,6,12,14,24,25,29,31,32,,,,8,2,5,7,5,4,14,5,8,,,,
1571617518,2019-10-21 00:25:18.809,Acquired,Acquired,Acquired,Acquired,Acquired,Acquired,Acquired,Acquired,Acquired,,,,7.638841599999999E1,3.6011536E1,7.448324E1,2.80673024E2,1.41725248E2,3.4588527999999997E2,1.97341024E2,3.0502672E2,2.4508030399999998E2,,,,3.2432784E1,1.4941823E1,4.2917268E1,3.7727315999999995E1,1.9192268E1,8.1304368E1,5.1166748E1,3.4886815999999996E1,3.4515927999999995E1,,,,2,6,12,14,24,25,29,31,32,,,,8,2,5,7,5,4,14,5,8,,,,
1571617578,2019-10-21 00:26:18.817,Acquired,Acquired,Acquired,Acquired,Acquired,Acquired,Acquired,Acquired,Acquired,,,,7.638841599999999E1,3.6011536E1,7.448324E1,2.80673024E2,1.41725248E2,3.4588527999999997E2,1.97341024E2,3.0502672E2,2.4508030399999998E2,,,,3.2432784E1,1.4941823E1,4.2917268E1,3.7727315999999995E1,1.9192268E1,8.1304368E1,5.1166748E1,3.4886815999999996E1,3.4515927999999995E1,,,,2,6,12,14,24,25,29,31,32,,,,8,2,5,7,5,4,14,5,8,,,,
1571617638,2019-10-21 00:27:18.806,Acquired,Acquired,Acquired,Acquired,Acquired,Acquired,Acquired,Acquired,Acquired,,,,7.638841599999999E1,3.6011536E1,7.448324E1,2.80673024E2,1.41725248E2,3.4588527999999997E2,1.97341024E2,3.0502672E2,2.4508030399999998E2,,,,3.2432784E1,1.4941823E1,4.2917268E1,3.7727315999999995E1,1.9192268E1,8.1304368E1,5.1166748E1,3.4886815999999996E1,3.4515927999999995E1,,,,2,6,12,14,24,25,29,31,32,,,,8,2,5,7,5,4,14,5,8,,,,
1571617698,2019-10-21 00:28:18.809,Acquired,Acquired,Acquired,Acquired,Acquired,Acquired,Acquired,Acquired,Acquired,,,,7.638841599999999E1,3.6011536E1,7.448324E1,2.80673024E2,1.41725248E2,3.4588527999999997E2,1.97341024E2,3.0502672E2,2.4508030399999998E2,,,,3.2432784E1,1.4941823E1,4.2917268E1,3.7727315999999995E1,1.9192268E1,8.1304368E1,5.1166748E1,3.4886815999999996E1,3.4515927999999995E1,,,,2,6,12,14,24,25,29,31,32,,,,8,2,5,7,5,4,14,5,8,,,,
1571617758,2019-10-21 00:29:18.809,Acquired,Acquired,Acquired,Acquired,Acquired,Acquired,Acquired,Acquired,Acquired,,,,7.638841599999999E1,3.6011536E1,7.448324E1,2.80673024E2,1.41725248E2,3.4588527999999997E2,1.97341024E2,3.0502672E2,2.4508030399999998E2,,,,3.2432784E1,1.4941823E1,4.2917268E1,3.7727315999999995E1,1.9192268E1,8.1304368E1,5.1166748E1,3.4886815999999996E1,3.4515927999999995E1,,,,2,6,12,14,24,25,29,31,32,,,,8,2,5,7,5,4,14,5,8,,,,
1571617818,2019-10-21 00:30:18.806,Acquired,Acquired,Acquired,Acquired,Acquired,Acquired,Acquired,Acquired,Acquired,,,,7.638841599999999E1,3.6011536E1,7.448324E1,2.80673024E2,1.41725248E2,3.4588527999999997E2,1.97341024E2,3.0502672E2,2.4508030399999998E2,,,,3.2432784E1,1.4941823E1,4.2917268E1,3.7727315999999995E1,1.9192268E1,8.1304368E1,5.1166748E1,3.4886815999999996E1,3.4515927999999995E1,,,,2,6,12,14,24,25,29,31,32,,,,8,2,5,7,5,4,14,5,8,,,,
1571617878,2019-10-21 00:31:18.806,Acquired,Acquired,Acquired,Acquired,Acquired,Acquired,Acquired,Acquired,Acquired,,,,7.638841599999999E1,3.6011536E1,7.448324E1,2.80673024E2,1.41725248E2,3.4588527999999997E2,1.97341024E2,3.0502672E2,2.4508030399999998E2,,,,3.2432784E1,1.4941823E1,4.2917268E1,3.7727315999999995E1,1.9192268E1,8.1304368E1,5.1166748E1,3.4886815999999996E1,3.4515927999999995E1,,,,2,6,12,14,24,25,29,31,32,,,,8,2,5,7,5,4,14,5,8,,,,
1571617938,2019-10-21 00:32:18.806,Acquired,Acquired,Acquired,Acquired,Acquired,Acquired,Acquired,Acquired,Acquired,,,,7.638841599999999E1,3.6011536E1,7.448324E1,2.80673024E2,1.41725248E2,3.4588527999999997E2,1.97341024E2,3.0502672E2,2.4508030399999998E2,,,,3.2432784E1,1.4941823E1,4.2917268E1,3.7727315999999995E1,1.9192268E1,8.1304368E1,5.1166748E1,3.4886815999999996E1,3.4515927999999995E1,,,,2,6,12,14,24,25,29,31,32,,,,8,2,5,7,5,4,14,5,8,,,,
1571617998,2019-10-21 00:33:18.806,Acquired,Acquired,Acquired,Acquired,Acquired,Acquired,Acquired,Acquired,Acquired,,,,7.638841599999999E1,3.6011536E1,7.448324E1,2.80673024E2,1.41725248E2,3.4588527999999997E2,1.97341024E2,3.0502672E2,2.4508030399999998E2,,,,3.2432784E1,1.4941823E1,4.2917268E1,3.7727315999999995E1,1.9192268E1,8.1304368E1,5.1166748E1,3.4886815999999996E1,3.4515927999999995E1,,,,2,6,12,14,24,25,29,31,32,,,,8,2,5,7,5,4,14,5,8,,,,
1571618058,2019-10-21 00:34:18.806,Acquired,Acquired,Acquired,Acquired,Acquired,Acquired,Acquired,Acquired,Acquired,,,,7.638841599999999E1,3.6011536E1,7.448324E1,2.80673024E2,1.41725248E2,3.4588527999999997E2,1.97341024E2,3.0502672E2,2.4508030399999998E2,,,,3.2432784E1,1.4941823E1,4.2917268E1,3.7727315999999995E1,1.9192268E1,8.1304368E1,5.1166748E1,3.4886815999999996E1,3.4515927999999995E1,,,,2,6,12,14,24,25,29,31,32,,,,8,2,5,7,5,4,14,5,8,,,,
1571618118,2019-10-21 00:35:18.806,Acquired,Acquired,Acquired,Acquired,Acquired,Acquired,Acquired,Acquired,Acquired,,,,7.638841599999999E1,3.6011536E1,7.448324E1,2.80673024E2,1.41725248E2,3.4588527999999997E2,1.97341024E2,3.0502672E2,2.4508030399999998E2,,,,3.2432784E1,1.4941823E1,4.2917268E1,3.7727315999999995E1,1.9192268E1,8.1304368E1,5.1166748E1,3.4886815999999996E1,3.4515927999999995E1,,,,2,6,12,14,24,25,29,31,32,,,,8,2,5,7,5,4,14,5,8,,,,
1571618178,2019-10-21 00:36:18.809,Acquired,Acquired,Acquired,Acquired,Acquired,Acquired,Acquired,Acquired,Acquired,,,,7.638841599999999E1,3.6011536E1,7.448324E1,2.80673024E2,1.41725248E2,3.4588527999999997E2,1.97341024E2,3.0502672E2,2.4508030399999998E2,,,,3.2432784E1,1.4941823E1,4.2917268E1,3.7727315999999995E1,1.9192268E1,8.1304368E1,5.1166748E1,3.4886815999999996E1,3.4515927999999995E1,,,,2,6,12,14,24,25,29,31,32,,,,8,2,5,7,5,4,14,5,8,,,,
1571618238,2019-10-21 00:37:18.806,Acquired,Acquired,Acquired,Acquired,Acquired,Acquired,Acquired,Acquired,Acquired,,,,7.638841599999999E1,3.6011536E1,7.448324E1,2.80673024E2,1.41725248E2,3.4588527999999997E2,1.97341024E2,3.0502672E2,2.4508030399999998E2,,,,3.2432784E1,1.4941823E1,4.2917268E1,3.7727315999999995E1,1.9192268E1,8.1304368E1,5.1166748E1,3.4886815999999996E1,3.4515927999999995E1,,,,2,6,12,14,24,25,29,31,32,,,,8,2,5,7,5,4,14,5,8,,,,
1571618298,2019-10-21 00:38:18.806,Acquired,Acquired,Acquired,Acquired,Acquired,Acquired,Acquired,Acquired,Acquired,,,,7.638841599999999E1,3.6011536E1,7.448324E1,2.80673024E2,1.41725248E2,3.4588527999999997E2,1.97341024E2,3.0502672E2,2.4508030399999998E2,,,,3.2432784E1,1.4941823E1,4.2917268E1,3.7727315999999995E1,1.9192268E1,8.1304368E1,5.1166748E1,3.4886815999999996E1,3.4515927999999995E1,,,,2,6,12,14,24,25,29,31,32,,,,8,2,5,7,5,4,14,5,8,,,,
1571618358,2019-10-21 00:39:18.807,Acquired,Acquired,Acquired,Acquired,Acquired,Acquired,Acquired,Acquired,Acquired,,,,7.638841599999999E1,3.6011536E1,7.448324E1,2.80673024E2,1.41725248E2,3.4588527999999997E2,1.97341024E2,3.0502672E2,2.4508030399999998E2,,,,3.2432784E1,1.4941823E1,4.2917268E1,3.7727315999999995E1,1.9192268E1,8.1304368E1,5.1166748E1,3.4886815999999996E1,3.4515927999999995E1,,,,2,6,12,14,24,25,29,31,32,,,,8,2,5,7,5,4,14,5,8,,,,
1571618418,2019-10-21 00:40:18.806,Acquired,Acquired,Acquired,Acquired,Acquired,Acquired,Acquired,Acquired,Acquired,,,,7.638841599999999E1,3.6011536E1,7.448324E1,2.80673024E2,1.41725248E2,3.4588527999999997E2,1.97341024E2,3.0502672E2,2.4508030399999998E2,,,,3.2432784E1,1.4941823E1,4.2917268E1,3.7727315999999995E1,1.9192268E1,8.1304368E1,5.1166748E1,3.4886815999999996E1,3.4515927999999995E1,,,,2,6,12,14,24,25,29,31,32,,,,8,2,5,7,5,4,14,5,8,,,,
1571618478,2019-10-21 00:41:18.816,Acquired,Acquired,Acquired,Acquired,Acquired,Acquired,Acquired,Acquired,Acquired,,,,7.638841599999999E1,3.6011536E1,7.448324E1,2.80673024E2,1.41725248E2,3.4588527999999997E2,1.97341024E2,3.0502672E2,2.4508030399999998E2,,,,3.2432784E1,1.4941823E1,4.2917268E1,3.7727315999999995E1,1.9192268E1,8.1304368E1,5.1166748E1,3.4886815999999996E1,3.4515927999999995E1,,,,2,6,12,14,24,25,29,31,32,,,,8,2,5,7,5,4,14,5,8,,,,
1571618538,2019-10-21 00:42:18.822,Acquired,Acquired,Acquired,Acquired,Acquired,Acquired,Acquired,Acquired,Acquired,,,,7.638841599999999E1,3.6011536E1,7.448324E1,2.80673024E2,1.41725248E2,3.4588527999999997E2,1.97341024E2,3.0502672E2,2.4508030399999998E2,,,,3.2432784E1,1.4941823E1,4.2917268E1,3.7727315999999995E1,1.9192268E1,8.1304368E1,5.1166748E1,3.4886815999999996E1,3.4515927999999995E1,,,,2,6,12,14,24,25,29,31,32,,,,8,2,5,7,5,4,14,5,8,,,,
1571618598,2019-10-21 00:43:18.806,Acquired,Acquired,Acquired,Acquired,Acquired,Acquired,Acquired,Acquired,Acquired,,,,7.638841599999999E1,3.6011536E1,7.448324E1,2.80673024E2,1.41725248E2,3.4588527999999997E2,1.97341024E2,3.0502672E2,2.4508030399999998E2,,,,3.2432784E1,1.4941823E1,4.2917268E1,3.7727315999999995E1,1.9192268E1,8.1304368E1,5.1166748E1,3.4886815999999996E1,3.4515927999999995E1,,,,2,6,12,14,24,25,29,31,32,,,,8,2,5,7,5,4,14,5,8,,,,
1571618658,2019-10-21 00:44:18.806,Acquired,Acquired,Acquired,Acquired,Acquired,Acquired,Acquired,Acquired,Acquired,,,,7.638841599999999E1,3.6011536E1,7.448324E1,2.80673024E2,1.41725248E2,3.4588527999999997E2,1.97341024E2,3.0502672E2,2.4508030399999998E2,,,,3.2432784E1,1.4941823E1,4.2917268E1,3.7727315999999995E1,1.9192268E1,8.1304368E1,5.1166748E1,3.4886815999999996E1,3.4515927999999995E1,,,,2,6,12,14,24,25,29,31,32,,,,8,2,5,7,5,4,14,5,8,,,,
1571618718,2019-10-21 00:45:18.806,Acquired,Acquired,Acquired,Acquired,Acquired,Acquired,Acquired,Acquired,Acquired,,,,7.638841599999999E1,3.6011536E1,7.448324E1,2.80673024E2,1.41725248E2,3.4588527999999997E2,1.97341024E2,3.0502672E2,2.4508030399999998E2,,,,3.2432784E1,1.4941823E1,4.2917268E1,3.7727315999999995E1,1.9192268E1,8.1304368E1,5.1166748E1,3.4886815999999996E1,3.4515927999999995E1,,,,2,6,12,14,24,25,29,31,32,,,,8,2,5,7,5,4,14,5,8,,,,
1571618778,2019-10-21 00:46:18.806,Acquired,Acquired,Acquired,Acquired,Acquired,Acquired,Acquired,Acquired,Acquired,,,,7.638841599999999E1,3.6011536E1,7.448324E1,2.80673024E2,1.41725248E2,3.4588527999999997E2,1.97341024E2,3.0502672E2,2.4508030399999998E2,,,,3.2432784E1,1.4941823E1,4.2917268E1,3.7727315999999995E1,1.9192268E1,8.1304368E1,5.1166748E1,3.4886815999999996E1,3.4515927999999995E1,,,,2,6,12,14,24,25,29,31,32,,,,8,2,5,7,5,4,14,5,8,,,,
1571618838,2019-10-21 00:47:18.806,Acquired,Acquired,Acquired,Acquired,Acquired,Acquired,Acquired,Acquired,Acquired,,,,7.638841599999999E1,3.6011536E1,7.448324E1,2.80673024E2,1.41725248E2,3.4588527999999997E2,1.97341024E2,3.0502672E2,2.4508030399999998E2,,,,3.2432784E1,1.4941823E1,4.2917268E1,3.7727315999999995E1,1.9192268E1,8.1304368E1,5.1166748E1,3.4886815999999996E1,3.4515927999999995E1,,,,2,6,12,14,24,25,29,31,32,,,,8,2,5,7,5,4,14,5,8,,,,
1571618898,2019-10-21 00:48:18.840,Acquired,Acquired,Acquired,Acquired,Acquired,Acquired,Acquired,Acquired,Acquired,,,,7.638841599999999E1,3.6011536E1,7.448324E1,2.80673024E2,1.41725248E2,3.4588527999999997E2,1.97341024E2,3.0502672E2,2.4508030399999998E2,,,,3.2432784E1,1.4941823E1,4.2917268E1,3.7727315999999995E1,1.9192268E1,8.1304368E1,5.1166748E1,3.4886815999999996E1,3.4515927999999995E1,,,,2,6,12,14,24,25,29,31,32,,,,8,2,5,7,5,4,14,5,8,,,,
1571618958,2019-10-21 00:49:18.806,Acquired,Acquired,Acquired,Acquired,Acquired,Acquired,Acquired,Acquired,Acquired,,,,7.638841599999999E1,3.6011536E1,7.448324E1,2.80673024E2,1.41725248E2,3.4588527999999997E2,1.97341024E2,3.0502672E2,2.4508030399999998E2,,,,3.2432784E1,1.4941823E1,4.2917268E1,3.7727315999999995E1,1.9192268E1,8.1304368E1,5.1166748E1,3.4886815999999996E1,3.4515927999999995E1,,,,2,6,12,14,24,25,29,31,32,,,,8,2,5,7,5,4,14,5,8,,,,
1571619018,2019-10-21 00:50:18.806,Acquired,Acquired,Acquired,Acquired,Acquired,Acquired,Acquired,Acquired,Acquired,,,,7.638841599999999E1,3.6011536E1,7.448324E1,2.80673024E2,1.41725248E2,3.4588527999999997E2,1.97341024E2,3.0502672E2,2.4508030399999998E2,,,,3.2432784E1,1.4941823E1,4.2917268E1,3.7727315999999995E1,1.9192268E1,8.1304368E1,5.1166748E1,3.4886815999999996E1,3.4515927999999995E1,,,,2,6,12,14,24,25,29,31,32,,,,8,2,5,7,5,4,14,5,8,,,,
1571619078,2019-10-21 00:51:18.806,Acquired,Acquired,Acquired,Acquired,Acquired,Acquired,Acquired,Acquired,Acquired,,,,7.638841599999999E1,3.6011536E1,7.448324E1,2.80673024E2,1.41725248E2,3.4588527999999997E2,1.97341024E2,3.0502672E2,2.4508030399999998E2,,,,3.2432784E1,1.4941823E1,4.2917268E1,3.7727315999999995E1,1.9192268E1,8.1304368E1,5.1166748E1,3.4886815999999996E1,3.4515927999999995E1,,,,2,6,12,14,24,25,29,31,32,,,,8,2,5,7,5,4,14,5,8,,,,
1571619138,2019-10-21 00:52:18.806,Acquired,Acquired,Acquired,Acquired,Acquired,Acquired,Acquired,Acquired,Acquired,,,,7.638841599999999E1,3.6011536E1,7.448324E1,2.80673024E2,1.41725248E2,3.4588527999999997E2,1.97341024E2,3.0502672E2,2.4508030399999998E2,,,,3.2432784E1,1.4941823E1,4.2917268E1,3.7727315999999995E1,1.9192268E1,8.1304368E1,5.1166748E1,3.4886815999999996E1,3.4515927999999995E1,,,,2,6,12,14,24,25,29,31,32,,,,8,2,5,7,5,4,14,5,8,,,,
1571619198,2019-10-21 00:53:18.806,Acquired,Acquired,Acquired,Acquired,Acquired,Acquired,Acquired,Acquired,Acquired,,,,7.638841599999999E1,3.6011536E1,7.448324E1,2.80673024E2,1.41725248E2,3.4588527999999997E2,1.97341024E2,3.0502672E2,2.4508030399999998E2,,,,3.2432784E1,1.4941823E1,4.2917268E1,3.7727315999999995E1,1.9192268E1,8.1304368E1,5.1166748E1,3.4886815999999996E1,3.4515927999999995E1,,,,2,6,12,14,24,25,29,31,32,,,,8,2,5,7,5,4,14,5,8,,,,
1571619258,2019-10-21 00:54:18.806,Acquired,Acquired,Acquired,Acquired,Acquired,Acquired,Acquired,Acquired,Acquired,,,,7.638841599999999E1,3.6011536E1,7.448324E1,2.80673024E2,1.41725248E2,3.4588527999999997E2,1.97341024E2,3.0502672E2,2.4508030399999998E2,,,,3.2432784E1,1.4941823E1,4.2917268E1,3.7727315999999995E1,1.9192268E1,8.1304368E1,5.1166748E1,3.4886815999999996E1,3.4515927999999995E1,,,,2,6,12,14,24,25,29,31,32,,,,8,2,5,7,5,4,14,5,8,,,,
1571619318,2019-10-21 00:55:18.809,Acquired,Acquired,Acquired,Acquired,Acquired,Acquired,Acquired,Acquired,Acquired,,,,7.638841599999999E1,3.6011536E1,7.448324E1,2.80673024E2,1.41725248E2,3.4588527999999997E2,1.97341024E2,3.0502672E2,2.4508030399999998E2,,,,3.2432784E1,1.4941823E1,4.2917268E1,3.7727315999999995E1,1.9192268E1,8.1304368E1,5.1166748E1,3.4886815999999996E1,3.4515927999999995E1,,,,2,6,12,14,24,25,29,31,32,,,,8,2,5,7,5,4,14,5,8,,,,
1571619378,2019-10-21 00:56:18.806,Acquired,Acquired,Acquired,Acquired,Acquired,Acquired,Acquired,Acquired,Acquired,,,,7.638841599999999E1,3.6011536E1,7.448324E1,2.80673024E2,1.41725248E2,3.4588527999999997E2,1.97341024E2,3.0502672E2,2.4508030399999998E2,,,,3.2432784E1,1.4941823E1,4.2917268E1,3.7727315999999995E1,1.9192268E1,8.1304368E1,5.1166748E1,3.4886815999999996E1,3.4515927999999995E1,,,,2,6,12,14,24,25,29,31,32,,,,8,2,5,7,5,4,14,5,8,,,,
1571619438,2019-10-21 00:57:18.806,Acquired,Acquired,Acquired,Acquired,Acquired,Acquired,Acquired,Acquired,Acquired,,,,7.638841599999999E1,3.6011536E1,7.448324E1,2.80673024E2,1.41725248E2,3.4588527999999997E2,1.97341024E2,3.0502672E2,2.4508030399999998E2,,,,3.2432784E1,1.4941823E1,4.2917268E1,3.7727315999999995E1,1.9192268E1,8.1304368E1,5.1166748E1,3.4886815999999996E1,3.4515927999999995E1,,,,2,6,12,14,24,25,29,31,32,,,,8,2,5,7,5,4,14,5,8,,,,
1571619498,2019-10-21 00:58:18.806,Acquired,Acquired,Acquired,Acquired,Acquired,Acquired,Acquired,Acquired,Acquired,,,,7.638841599999999E1,3.6011536E1,7.448324E1,2.80673024E2,1.41725248E2,3.4588527999999997E2,1.97341024E2,3.0502672E2,2.4508030399999998E2,,,,3.2432784E1,1.4941823E1,4.2917268E1,3.7727315999999995E1,1.9192268E1,8.1304368E1,5.1166748E1,3.4886815999999996E1,3.4515927999999995E1,,,,2,6,12,14,24,25,29,31,32,,,,8,2,5,7,5,4,14,5,8,,,,
1571619558,2019-10-21 00:59:18.806,Acquired,Acquired,Acquired,Acquired,Acquired,Acquired,Acquired,Acquired,Acquired,,,,7.638841599999999E1,3.6011536E1,7.448324E1,2.80673024E2,1.41725248E2,3.4588527999999997E2,1.97341024E2,3.0502672E2,2.4508030399999998E2,,,,3.2432784E1,1.4941823E1,4.2917268E1,3.7727315999999995E1,1.9192268E1,8.1304368E1,5.1166748E1,3.4886815999999996E1,3.4515927999999995E1,,,,2,6,12,14,24,25,29,31,32,,,,8,2,5,7,5,4,14,5,8,,,,
