Time(longsecs),Time(UTC),Supply Voltage(mV),Temperature(&deg;C),NMX Bus Current(mA),Sensor Current(mA),Serial Port Current(mA),Controller Current(mA),Digitizer Current(mA),
1571655618,2019-10-21 11:00:18.806,16646,1.9978363E1,0,8,0,56,33,
1571655678,2019-10-21 11:01:18.809,16632,2.0152283E1,0,6,0,59,36,
1571655738,2019-10-21 11:02:18.806,16632,2.0146881E1,0,7,0,56,34,
1571655798,2019-10-21 11:03:18.809,16619,2.0309998E1,0,5,0,57,37,
1571655858,2019-10-21 11:04:18.806,16592,2.048822E1,0,6,0,57,33,
1571655918,2019-10-21 11:05:18.806,16674,2.0223572E1,0,7,0,57,35,
1571655978,2019-10-21 11:06:18.806,16646,2.025708E1,0,7,0,57,35,
1571656038,2019-10-21 11:07:18.809,16592,2.037265E1,0,9,0,57,39,
1571656098,2019-10-21 11:08:18.816,16592,2.0432068E1,0,3,0,58,36,
1571656158,2019-10-21 11:09:18.806,16592,2.06492E1,0,13,0,66,34,
1571656218,2019-10-21 11:10:18.806,16577,2.0740997E1,0,8,0,58,38,
1571656278,2019-10-21 11:11:18.806,16659,2.0834991E1,0,7,0,54,22,
1571656338,2019-10-21 11:12:18.806,16646,2.081015E1,0,8,0,60,34,
1571656398,2019-10-21 11:13:18.806,16646,2.0877106E1,0,12,0,56,35,
1571656458,2019-10-21 11:14:18.807,16646,2.102295E1,0,6,0,66,39,
1571656518,2019-10-21 11:15:18.807,16632,2.1055359E1,0,11,0,66,36,
1571656578,2019-10-21 11:16:18.806,16674,2.1284363E1,0,9,0,56,35,
1571656638,2019-10-21 11:17:18.807,16619,2.1401031E1,0,8,0,56,38,
1571656698,2019-10-21 11:18:18.806,16592,2.1419373E1,0,6,0,52,37,
1571656758,2019-10-21 11:19:18.806,16632,2.1611664E1,0,6,0,59,37,
1571656818,2019-10-21 11:20:18.806,16619,2.1497162E1,0,6,0,57,37,
1571656878,2019-10-21 11:21:18.806,16646,2.1484192E1,0,7,0,57,37,
1571656938,2019-10-21 11:22:18.807,16659,2.1790985E1,0,10,0,55,39,
1571656998,2019-10-21 11:23:18.806,16619,2.1926025E1,0,13,0,56,38,
1571657058,2019-10-21 11:24:18.806,16646,2.2112885E1,0,7,0,57,34,
1571657118,2019-10-21 11:25:18.806,16632,2.2007019E1,0,12,0,65,37,
1571657178,2019-10-21 11:26:18.806,16619,2.1977875E1,0,5,0,52,34,
1571657238,2019-10-21 11:27:18.807,16592,2.2303009E1,0,2,0,55,35,
1571657298,2019-10-21 11:28:18.806,16564,2.2492065E1,0,10,0,50,34,
1571657358,2019-10-21 11:29:18.806,16605,2.243805E1,0,6,0,57,35,
1571657418,2019-10-21 11:30:18.806,16592,2.2686493E1,0,7,0,57,36,
1571657478,2019-10-21 11:31:18.806,16619,2.2846375E1,0,7,0,56,36,
1571657538,2019-10-21 11:32:18.807,16619,2.2835571E1,0,9,0,56,37,
1571657598,2019-10-21 11:33:18.806,16619,2.2738342E1,0,10,0,56,39,
1571657658,2019-10-21 11:34:18.806,16632,2.2894989E1,0,6,0,57,36,
1571657718,2019-10-21 11:35:18.851,16605,2.2993286E1,0,14,0,70,33,
1571657778,2019-10-21 11:36:18.825,16632,2.2918732E1,0,8,0,64,38,
1571657838,2019-10-21 11:37:18.820,16605,2.3194183E1,0,8,0,66,36,
1571657898,2019-10-21 11:38:18.807,16619,2.3149902E1,0,8,0,65,37,
1571657958,2019-10-21 11:39:18.807,16605,2.343509E1,0,9,0,60,37,
1571658018,2019-10-21 11:40:18.806,16619,2.32482E1,0,9,0,87,36,
1571658078,2019-10-21 11:41:18.806,16619,2.3317352E1,0,1,0,57,37,
1571658138,2019-10-21 11:42:18.806,16619,2.332489E1,0,9,0,59,36,
1571658198,2019-10-21 11:43:18.806,16605,2.3313019E1,0,8,0,57,36,
1571658258,2019-10-21 11:44:18.809,16646,2.3348663E1,0,10,0,57,39,
1571658318,2019-10-21 11:45:18.806,16524,2.3596039E1,0,9,0,86,35,
1571658378,2019-10-21 11:46:18.845,16632,2.3888794E1,0,9,0,92,32,
1571658438,2019-10-21 11:47:18.806,16605,2.3650055E1,0,8,0,88,36,
1571658498,2019-10-21 11:48:18.806,16646,2.3953583E1,0,8,0,57,36,
1571658558,2019-10-21 11:49:18.807,16605,2.3842316E1,0,1,0,55,37,
1571658618,2019-10-21 11:50:18.806,16646,2.3914703E1,0,9,0,52,36,
1571658678,2019-10-21 11:51:18.807,16646,2.4089691E1,0,2,0,58,35,
1571658738,2019-10-21 11:52:18.806,16632,2.41221E1,0,5,0,78,32,
1571658798,2019-10-21 11:53:18.807,16619,2.4111298E1,0,6,0,86,33,
1571658858,2019-10-21 11:54:18.806,16577,2.4235535E1,0,17,0,88,41,
1571658918,2019-10-21 11:55:18.806,16619,2.4287384E1,0,8,0,57,38,
1571658978,2019-10-21 11:56:18.806,16592,2.4400818E1,0,5,0,64,41,
1571659038,2019-10-21 11:57:18.806,16605,2.4327362E1,0,9,0,55,34,
1571659098,2019-10-21 11:58:18.806,16605,2.457904E1,0,8,0,64,36,
1571659158,2019-10-21 11:59:18.807,16577,2.4677338E1,0,7,0,58,36,
