Time(longsecs),Time(UTC),GPS Satellite Acquisition Flag 1,GPS Satellite Acquisition Flag 2,GPS Satellite Acquisition Flag 3,GPS Satellite Acquisition Flag 4,GPS Satellite Acquisition Flag 5,GPS Satellite Acquisition Flag 6,GPS Satellite Acquisition Flag 7,GPS Satellite Acquisition Flag 8,GPS Satellite Acquisition Flag 9,GPS Satellite Acquisition Flag 10,GPS Satellite Acquisition Flag 11,GPS Satellite Acquisition Flag 12,GPS Satellite Azimuth 1(Degrees),GPS Satellite Azimuth 2(Degrees),GPS Satellite Azimuth 3(Degrees),GPS Satellite Azimuth 4(Degrees),GPS Satellite Azimuth 5(Degrees),GPS Satellite Azimuth 6(Degrees),GPS Satellite Azimuth 7(Degrees),GPS Satellite Azimuth 8(Degrees),GPS Satellite Azimuth 9(Degrees),GPS Satellite Azimuth 10(Degrees),GPS Satellite Azimuth 11(Degrees),GPS Satellite Azimuth 12(Degrees),GPS Satellite Elevation 1(Degrees),GPS Satellite Elevation 2(Degrees),GPS Satellite Elevation 3(Degrees),GPS Satellite Elevation 4(Degrees),GPS Satellite Elevation 5(Degrees),GPS Satellite Elevation 6(Degrees),GPS Satellite Elevation 7(Degrees),GPS Satellite Elevation 8(Degrees),GPS Satellite Elevation 9(Degrees),GPS Satellite Elevation 10(Degrees),GPS Satellite Elevation 11(Degrees),GPS Satellite Elevation 12(Degrees),GPS Satellite PRN 1,GPS Satellite PRN 2,GPS Satellite PRN 3,GPS Satellite PRN 4,GPS Satellite PRN 5,GPS Satellite PRN 6,GPS Satellite PRN 7,GPS Satellite PRN 8,GPS Satellite PRN 9,GPS Satellite PRN 10,GPS Satellite PRN 11,GPS Satellite PRN 12,GPS Satellite Signal Level 1(AMU),GPS Satellite Signal Level 2(AMU),GPS Satellite Signal Level 3(AMU),GPS Satellite Signal Level 4(AMU),GPS Satellite Signal Level 5(AMU),GPS Satellite Signal Level 6(AMU),GPS Satellite Signal Level 7(AMU),GPS Satellite Signal Level 8(AMU),GPS Satellite Signal Level 9(AMU),GPS Satellite Signal Level 10(AMU),GPS Satellite Signal Level 11(AMU),GPS Satellite Signal Level 12(AMU),
1571659218,2019-10-21 12:00:18.809,Acquired,Acquired,Acquired,Acquired,Acquired,Acquired,Acquired,Acquired,Acquired,Acquired,Not acquired,,1.3304224E2,5.6170196E1,3.05930976E2,2.0389718399999998E2,1.58100912E2,2.58864384E2,2.84773312E2,7.7997976E1,1.77861728E2,5.245158E1,4.1703227999999996E1,,3.7412264E1,7.251208E1,2.7669258E1,3.0886979999999998E1,2.1486628E1,4.5642759999999996E1,4.2829656E1,5.134946E1,6.1382459999999995E1,1.9278004E1,1.0032528E1,,1,3,6,9,11,17,19,22,23,31,14,,14,8,3,11,7,14,5,6,13,3,0,,
1571659278,2019-10-21 12:01:18.806,Acquired,Acquired,Acquired,Acquired,Acquired,Acquired,Acquired,Acquired,Acquired,Acquired,Not acquired,,1.3304224E2,5.6170196E1,3.05930976E2,2.0389718399999998E2,1.58100912E2,2.58864384E2,2.84773312E2,7.7997976E1,1.77861728E2,5.245158E1,4.1703227999999996E1,,3.7412264E1,7.251208E1,2.7669258E1,3.0886979999999998E1,2.1486628E1,4.5642759999999996E1,4.2829656E1,5.134946E1,6.1382459999999995E1,1.9278004E1,1.0032528E1,,1,3,6,9,11,17,19,22,23,31,14,,14,8,3,11,7,14,5,6,13,3,0,,
1571659338,2019-10-21 12:02:18.839,Acquired,Acquired,Acquired,Acquired,Acquired,Acquired,Acquired,Acquired,Acquired,Acquired,Not acquired,,1.3304224E2,5.6170196E1,3.05930976E2,2.0389718399999998E2,1.58100912E2,2.58864384E2,2.84773312E2,7.7997976E1,1.77861728E2,5.245158E1,4.1703227999999996E1,,3.7412264E1,7.251208E1,2.7669258E1,3.0886979999999998E1,2.1486628E1,4.5642759999999996E1,4.2829656E1,5.134946E1,6.1382459999999995E1,1.9278004E1,1.0032528E1,,1,3,6,9,11,17,19,22,23,31,14,,14,8,3,11,7,14,5,6,13,3,0,,
1571659398,2019-10-21 12:03:18.806,Acquired,Acquired,Acquired,Acquired,Acquired,Acquired,Acquired,Acquired,Acquired,Acquired,Not acquired,,1.3304224E2,5.6170196E1,3.05930976E2,2.0389718399999998E2,1.58100912E2,2.58864384E2,2.84773312E2,7.7997976E1,1.77861728E2,5.245158E1,4.1703227999999996E1,,3.7412264E1,7.251208E1,2.7669258E1,3.0886979999999998E1,2.1486628E1,4.5642759999999996E1,4.2829656E1,5.134946E1,6.1382459999999995E1,1.9278004E1,1.0032528E1,,1,3,6,9,11,17,19,22,23,31,14,,14,8,3,11,7,14,5,6,13,3,0,,
1571659458,2019-10-21 12:04:18.806,Acquired,Acquired,Acquired,Acquired,Acquired,Acquired,Acquired,Acquired,Acquired,Acquired,Not acquired,,1.3304224E2,5.6170196E1,3.05930976E2,2.0389718399999998E2,1.58100912E2,2.58864384E2,2.84773312E2,7.7997976E1,1.77861728E2,5.245158E1,4.1703227999999996E1,,3.7412264E1,7.251208E1,2.7669258E1,3.0886979999999998E1,2.1486628E1,4.5642759999999996E1,4.2829656E1,5.134946E1,6.1382459999999995E1,1.9278004E1,1.0032528E1,,1,3,6,9,11,17,19,22,23,31,14,,14,8,3,11,7,14,5,6,13,3,0,,
1571659518,2019-10-21 12:05:18.845,Acquired,Acquired,Acquired,Acquired,Acquired,Acquired,Acquired,Acquired,Acquired,Acquired,Not acquired,,1.3304224E2,5.6170196E1,3.05930976E2,2.0389718399999998E2,1.58100912E2,2.58864384E2,2.84773312E2,7.7997976E1,1.7756904E2,5.201578E1,4.1667564E1,,3.7412264E1,7.251208E1,2.7669258E1,3.0886979999999998E1,2.1486628E1,4.5642759999999996E1,4.2829656E1,5.134946E1,6.184298E1,1.9232136E1,9.658991E0,,1,3,6,9,11,17,19,22,23,31,14,,14,8,3,11,7,14,5,6,12,2,0,,
1571659578,2019-10-21 12:06:18.807,Acquired,Acquired,Acquired,Acquired,Acquired,Acquired,Acquired,Acquired,Acquired,Acquired,Not acquired,,1.33282944E2,5.6902932E1,3.05979072E2,2.03991472E2,1.58147328E2,2.58237872E2,2.84137504E2,7.8266728E1,1.7756904E2,5.201578E1,4.1667564E1,,3.6975076E1,7.2102336E1,2.8079981999999998E1,3.1348516E1,2.1047946E1,4.5461396E1,4.2889255999999996E1,5.0946383999999995E1,6.184298E1,1.9232136E1,9.658991E0,,1,3,6,9,11,17,19,22,23,31,14,,12,9,4,9,6,10,5,3,12,2,0,,
1571659638,2019-10-21 12:07:18.806,Acquired,Acquired,Acquired,Acquired,Acquired,Acquired,Acquired,Acquired,Not acquired,Not acquired,,,1.3890912E2,7.1231888E1,3.0583545599999997E2,2.0670931199999998E2,2.43932224E2,2.67355104E2,8.5214472E1,1.62353104E2,4.1318751999999996E1,1.59051536E2,,,2.572019E1,6.1337323999999995E1,3.8970272E1,4.3642944E1,3.8848884E1,4.1897819999999996E1,4.0634768E1,7.2968744E1,1.648264E1,9.979626999999999E0,,,1,3,6,9,17,19,22,23,31,11,,,15,13,6,6,9,6,10,13,0,0,,,
1571659698,2019-10-21 12:08:18.807,Acquired,Acquired,Acquired,Acquired,Acquired,Acquired,Acquired,Acquired,Not acquired,Not acquired,,,1.3890912E2,7.1231888E1,3.0583545599999997E2,2.0670931199999998E2,2.43932224E2,2.67355104E2,8.5214472E1,1.62353104E2,4.1318751999999996E1,1.59051536E2,,,2.572019E1,6.1337323999999995E1,3.8970272E1,4.3642944E1,3.8848884E1,4.1897819999999996E1,4.0634768E1,7.2968744E1,1.648264E1,9.979626999999999E0,,,1,3,6,9,17,19,22,23,31,11,,,15,13,6,6,9,6,10,13,0,0,,,
1571659758,2019-10-21 12:09:18.839,Acquired,Acquired,Acquired,Acquired,Acquired,Acquired,Acquired,Acquired,Not acquired,Not acquired,,,1.3890912E2,7.1231888E1,3.0583545599999997E2,2.0670931199999998E2,2.43932224E2,2.67355104E2,8.5214472E1,1.62353104E2,4.1318751999999996E1,1.59051536E2,,,2.572019E1,6.1337323999999995E1,3.8970272E1,4.3642944E1,3.8848884E1,4.1897819999999996E1,4.0634768E1,7.2968744E1,1.648264E1,9.979626999999999E0,,,1,3,6,9,17,19,22,23,31,11,,,15,13,6,6,9,6,10,13,0,0,,,
1571659818,2019-10-21 12:10:18.806,Acquired,Acquired,Acquired,Acquired,Acquired,Acquired,Acquired,Acquired,Not acquired,Not acquired,,,1.3890912E2,7.1231888E1,3.0583545599999997E2,2.0670931199999998E2,2.43932224E2,2.67355104E2,8.5214472E1,1.62353104E2,4.1318751999999996E1,1.59051536E2,,,2.572019E1,6.1337323999999995E1,3.8970272E1,4.3642944E1,3.8848884E1,4.1897819999999996E1,4.0634768E1,7.2968744E1,1.648264E1,9.979626999999999E0,,,1,3,6,9,17,19,22,23,31,11,,,15,13,6,6,9,6,10,13,0,0,,,
1571659878,2019-10-21 12:11:18.806,Acquired,Acquired,Acquired,Acquired,Acquired,Acquired,Acquired,Acquired,Not acquired,Not acquired,,,1.3890912E2,7.1231888E1,3.0583545599999997E2,2.0670931199999998E2,2.43932224E2,2.67355104E2,8.5214472E1,1.62353104E2,4.1318751999999996E1,1.59051536E2,,,2.572019E1,6.1337323999999995E1,3.8970272E1,4.3642944E1,3.8848884E1,4.1897819999999996E1,4.0634768E1,7.2968744E1,1.648264E1,9.979626999999999E0,,,1,3,6,9,17,19,22,23,31,11,,,15,13,6,6,9,6,10,13,0,0,,,
1571659938,2019-10-21 12:12:18.806,Acquired,Acquired,Acquired,Acquired,Acquired,Acquired,Acquired,Acquired,Not acquired,Not acquired,,,1.3890912E2,7.1231888E1,3.0583545599999997E2,2.0670931199999998E2,2.43932224E2,2.67355104E2,8.5214472E1,1.62353104E2,4.1318751999999996E1,1.59051536E2,,,2.572019E1,6.1337323999999995E1,3.8970272E1,4.3642944E1,3.8848884E1,4.1897819999999996E1,4.0634768E1,7.2968744E1,1.648264E1,9.979626999999999E0,,,1,3,6,9,17,19,22,23,31,11,,,15,13,6,6,9,6,10,13,0,0,,,
1571659998,2019-10-21 12:13:18.806,Acquired,Acquired,Acquired,Acquired,Acquired,Acquired,Acquired,Acquired,Not acquired,Not acquired,,,1.3890912E2,7.1231888E1,3.0583545599999997E2,2.0670931199999998E2,2.43932224E2,2.67355104E2,8.5214472E1,1.62353104E2,4.1318751999999996E1,1.59051536E2,,,2.572019E1,6.1337323999999995E1,3.8970272E1,4.3642944E1,3.8848884E1,4.1897819999999996E1,4.0634768E1,7.2968744E1,1.648264E1,9.979626999999999E0,,,1,3,6,9,17,19,22,23,31,11,,,15,13,6,6,9,6,10,13,0,0,,,
1571660058,2019-10-21 12:14:18.806,Acquired,Acquired,Acquired,Acquired,Acquired,Acquired,Acquired,Acquired,Not acquired,Not acquired,,,1.3890912E2,7.1231888E1,3.0583545599999997E2,2.0670931199999998E2,2.43932224E2,2.67355104E2,8.5214472E1,1.62353104E2,4.1318751999999996E1,1.59051536E2,,,2.572019E1,6.1337323999999995E1,3.8970272E1,4.3642944E1,3.8848884E1,4.1897819999999996E1,4.0634768E1,7.2968744E1,1.648264E1,9.979626999999999E0,,,1,3,6,9,17,19,22,23,31,11,,,15,13,6,6,9,6,10,13,0,0,,,
1571660118,2019-10-21 12:15:18.806,Acquired,Acquired,Acquired,Acquired,Acquired,Acquired,Acquired,Acquired,Not acquired,Not acquired,,,1.3890912E2,7.1231888E1,3.0583545599999997E2,2.0670931199999998E2,2.43932224E2,2.67355104E2,8.5214472E1,1.62353104E2,4.1318751999999996E1,1.59051536E2,,,2.572019E1,6.1337323999999995E1,3.8970272E1,4.3642944E1,3.8848884E1,4.1897819999999996E1,4.0634768E1,7.2968744E1,1.648264E1,9.979626999999999E0,,,1,3,6,9,17,19,22,23,31,11,,,15,13,6,6,9,6,10,13,0,0,,,
1571660178,2019-10-21 12:16:18.806,Acquired,Acquired,Acquired,Acquired,Acquired,Acquired,Acquired,Acquired,Not acquired,Not acquired,,,1.3890912E2,7.1231888E1,3.0583545599999997E2,2.0670931199999998E2,2.43932224E2,2.67355104E2,8.5214472E1,1.62353104E2,4.1318751999999996E1,1.59051536E2,,,2.572019E1,6.1337323999999995E1,3.8970272E1,4.3642944E1,3.8848884E1,4.1897819999999996E1,4.0634768E1,7.2968744E1,1.648264E1,9.979626999999999E0,,,1,3,6,9,17,19,22,23,31,11,,,15,13,6,6,9,6,10,13,0,0,,,
1571660238,2019-10-21 12:17:18.806,Acquired,Acquired,Acquired,Acquired,Acquired,Acquired,Acquired,Acquired,Not acquired,Not acquired,,,1.3890912E2,7.1231888E1,3.0583545599999997E2,2.0670931199999998E2,2.43932224E2,2.67355104E2,8.5214472E1,1.62353104E2,4.1318751999999996E1,1.59051536E2,,,2.572019E1,6.1337323999999995E1,3.8970272E1,4.3642944E1,3.8848884E1,4.1897819999999996E1,4.0634768E1,7.2968744E1,1.648264E1,9.979626999999999E0,,,1,3,6,9,17,19,22,23,31,11,,,15,13,6,6,9,6,10,13,0,0,,,
1571660298,2019-10-21 12:18:18.806,Acquired,Acquired,Acquired,Acquired,Acquired,Acquired,Acquired,Acquired,Not acquired,Not acquired,,,1.3890912E2,7.1231888E1,3.0583545599999997E2,2.0670931199999998E2,2.43932224E2,2.67355104E2,8.5214472E1,1.62353104E2,4.1318751999999996E1,1.59051536E2,,,2.572019E1,6.1337323999999995E1,3.8970272E1,4.3642944E1,3.8848884E1,4.1897819999999996E1,4.0634768E1,7.2968744E1,1.648264E1,9.979626999999999E0,,,1,3,6,9,17,19,22,23,31,11,,,15,13,6,6,9,6,10,13,0,0,,,
1571660358,2019-10-21 12:19:18.809,Acquired,Acquired,Acquired,Acquired,Acquired,Acquired,Acquired,Acquired,Not acquired,Not acquired,,,1.3890912E2,7.1231888E1,3.0583545599999997E2,2.0670931199999998E2,2.43932224E2,2.67355104E2,8.5214472E1,1.62353104E2,4.1318751999999996E1,1.59051536E2,,,2.572019E1,6.1337323999999995E1,3.8970272E1,4.3642944E1,3.8848884E1,4.1897819999999996E1,4.0634768E1,7.2968744E1,1.648264E1,9.979626999999999E0,,,1,3,6,9,17,19,22,23,31,11,,,15,13,6,6,9,6,10,13,0,0,,,
1571660418,2019-10-21 12:20:18.807,Acquired,Acquired,Acquired,Acquired,Acquired,Acquired,Acquired,Acquired,Not acquired,Not acquired,,,1.3890912E2,7.1231888E1,3.0583545599999997E2,2.0670931199999998E2,2.43932224E2,2.67355104E2,8.5214472E1,1.62353104E2,4.1318751999999996E1,1.59051536E2,,,2.572019E1,6.1337323999999995E1,3.8970272E1,4.3642944E1,3.8848884E1,4.1897819999999996E1,4.0634768E1,7.2968744E1,1.648264E1,9.979626999999999E0,,,1,3,6,9,17,19,22,23,31,11,,,15,13,6,6,9,6,10,13,0,0,,,
1571660478,2019-10-21 12:21:18.806,Acquired,Acquired,Acquired,Acquired,Acquired,Acquired,Acquired,Acquired,Not acquired,Not acquired,,,1.3890912E2,7.1231888E1,3.0583545599999997E2,2.0670931199999998E2,2.43932224E2,2.67355104E2,8.5214472E1,1.62353104E2,4.1318751999999996E1,1.59051536E2,,,2.572019E1,6.1337323999999995E1,3.8970272E1,4.3642944E1,3.8848884E1,4.1897819999999996E1,4.0634768E1,7.2968744E1,1.648264E1,9.979626999999999E0,,,1,3,6,9,17,19,22,23,31,11,,,15,13,6,6,9,6,10,13,0,0,,,
1571660538,2019-10-21 12:22:18.809,Acquired,Acquired,Acquired,Acquired,Acquired,Acquired,Acquired,Acquired,Not acquired,Not acquired,,,1.3890912E2,7.1231888E1,3.0583545599999997E2,2.0670931199999998E2,2.43932224E2,2.67355104E2,8.5214472E1,1.62353104E2,4.1318751999999996E1,1.59051536E2,,,2.572019E1,6.1337323999999995E1,3.8970272E1,4.3642944E1,3.8848884E1,4.1897819999999996E1,4.0634768E1,7.2968744E1,1.648264E1,9.979626999999999E0,,,1,3,6,9,17,19,22,23,31,11,,,15,13,6,6,9,6,10,13,0,0,,,
1571660598,2019-10-21 12:23:18.806,Acquired,Acquired,Acquired,Acquired,Acquired,Acquired,Acquired,Acquired,Not acquired,Not acquired,,,1.3890912E2,7.1231888E1,3.0583545599999997E2,2.0670931199999998E2,2.43932224E2,2.67355104E2,8.5214472E1,1.62353104E2,4.1318751999999996E1,1.59051536E2,,,2.572019E1,6.1337323999999995E1,3.8970272E1,4.3642944E1,3.8848884E1,4.1897819999999996E1,4.0634768E1,7.2968744E1,1.648264E1,9.979626999999999E0,,,1,3,6,9,17,19,22,23,31,11,,,15,13,6,6,9,6,10,13,0,0,,,
1571660658,2019-10-21 12:24:18.806,Acquired,Acquired,Acquired,Acquired,Acquired,Acquired,Acquired,Acquired,Not acquired,Not acquired,,,1.3890912E2,7.1231888E1,3.0583545599999997E2,2.0670931199999998E2,2.43932224E2,2.67355104E2,8.5214472E1,1.62353104E2,4.1318751999999996E1,1.59051536E2,,,2.572019E1,6.1337323999999995E1,3.8970272E1,4.3642944E1,3.8848884E1,4.1897819999999996E1,4.0634768E1,7.2968744E1,1.648264E1,9.979626999999999E0,,,1,3,6,9,17,19,22,23,31,11,,,15,13,6,6,9,6,10,13,0,0,,,
1571660718,2019-10-21 12:25:18.806,Acquired,Acquired,Acquired,Acquired,Acquired,Acquired,Acquired,Acquired,Not acquired,Not acquired,,,1.3890912E2,7.1231888E1,3.0583545599999997E2,2.0670931199999998E2,2.43932224E2,2.67355104E2,8.5214472E1,1.62353104E2,4.1318751999999996E1,1.59051536E2,,,2.572019E1,6.1337323999999995E1,3.8970272E1,4.3642944E1,3.8848884E1,4.1897819999999996E1,4.0634768E1,7.2968744E1,1.648264E1,9.979626999999999E0,,,1,3,6,9,17,19,22,23,31,11,,,15,13,6,6,9,6,10,13,0,0,,,
1571660778,2019-10-21 12:26:18.806,Acquired,Acquired,Acquired,Acquired,Acquired,Acquired,Acquired,Acquired,Not acquired,Not acquired,,,1.3890912E2,7.1231888E1,3.0583545599999997E2,2.0670931199999998E2,2.43932224E2,2.67355104E2,8.5214472E1,1.62353104E2,4.1318751999999996E1,1.59051536E2,,,2.572019E1,6.1337323999999995E1,3.8970272E1,4.3642944E1,3.8848884E1,4.1897819999999996E1,4.0634768E1,7.2968744E1,1.648264E1,9.979626999999999E0,,,1,3,6,9,17,19,22,23,31,11,,,15,13,6,6,9,6,10,13,0,0,,,
1571660838,2019-10-21 12:27:18.806,Acquired,Acquired,Acquired,Acquired,Acquired,Acquired,Acquired,Acquired,Not acquired,Not acquired,,,1.3890912E2,7.1231888E1,3.0583545599999997E2,2.0670931199999998E2,2.43932224E2,2.67355104E2,8.5214472E1,1.62353104E2,4.1318751999999996E1,1.59051536E2,,,2.572019E1,6.1337323999999995E1,3.8970272E1,4.3642944E1,3.8848884E1,4.1897819999999996E1,4.0634768E1,7.2968744E1,1.648264E1,9.979626999999999E0,,,1,3,6,9,17,19,22,23,31,11,,,15,13,6,6,9,6,10,13,0,0,,,
1571660898,2019-10-21 12:28:18.807,Acquired,Acquired,Acquired,Acquired,Acquired,Acquired,Acquired,Acquired,Not acquired,Not acquired,,,1.3890912E2,7.1231888E1,3.0583545599999997E2,2.0670931199999998E2,2.43932224E2,2.67355104E2,8.5214472E1,1.62353104E2,4.1318751999999996E1,1.59051536E2,,,2.572019E1,6.1337323999999995E1,3.8970272E1,4.3642944E1,3.8848884E1,4.1897819999999996E1,4.0634768E1,7.2968744E1,1.648264E1,9.979626999999999E0,,,1,3,6,9,17,19,22,23,31,11,,,15,13,6,6,9,6,10,13,0,0,,,
1571660958,2019-10-21 12:29:18.806,Acquired,Acquired,Acquired,Acquired,Acquired,Acquired,Acquired,Acquired,Not acquired,Not acquired,,,1.3890912E2,7.1231888E1,3.0583545599999997E2,2.0670931199999998E2,2.43932224E2,2.67355104E2,8.5214472E1,1.62353104E2,4.1318751999999996E1,1.59051536E2,,,2.572019E1,6.1337323999999995E1,3.8970272E1,4.3642944E1,3.8848884E1,4.1897819999999996E1,4.0634768E1,7.2968744E1,1.648264E1,9.979626999999999E0,,,1,3,6,9,17,19,22,23,31,11,,,15,13,6,6,9,6,10,13,0,0,,,
1571661018,2019-10-21 12:30:18.841,Acquired,Acquired,Acquired,Acquired,Acquired,Acquired,Acquired,Acquired,Not acquired,Not acquired,,,1.3890912E2,7.1231888E1,3.0583545599999997E2,2.0670931199999998E2,2.43932224E2,2.67355104E2,8.5214472E1,1.62353104E2,4.1318751999999996E1,1.59051536E2,,,2.572019E1,6.1337323999999995E1,3.8970272E1,4.3642944E1,3.8848884E1,4.1897819999999996E1,4.0634768E1,7.2968744E1,1.648264E1,9.979626999999999E0,,,1,3,6,9,17,19,22,23,31,11,,,15,13,6,6,9,6,10,13,0,0,,,
1571661078,2019-10-21 12:31:18.807,Acquired,Acquired,Acquired,Acquired,Acquired,Acquired,Acquired,Acquired,Acquired,Not acquired,,,1.39100224E2,7.166860799999999E1,3.05765472E2,2.0682072E2,2.43468E2,2.667376E2,8.5476624E1,1.61310352E2,4.0944164E1,1.59072512E2,,,2.5297794E1,6.0928619999999995E1,3.9388988E1,4.4120008E1,3.8538508E1,4.1766424E1,4.024946E1,7.3331488E1,1.6322238E1,9.572686E0,,,1,3,6,9,17,19,22,23,31,11,,,14,12,6,9,11,3,6,13,2,2,,,
1571661138,2019-10-21 12:32:18.806,,Acquired,Acquired,Acquired,Acquired,Acquired,Acquired,Acquired,Not acquired,Acquired,,,,8.113245599999999E1,3.01942464E2,2.0958870399999998E2,2.33821904E2,2.5311574399999998E2,9.1758696E1,1.1833386399999999E2,3.1447424E2,3.2807838E1,,,,5.1130959999999995E1,4.9425512E1,5.5831244E1,3.0198359999999997E1,3.6842652E1,3.1067348E1,7.828593599999999E1,1.0077399E1,1.1382989E1,,,,3,6,9,17,19,22,23,2,31,,,,10,13,12,8,6,7,8,0,1,,,
1571661198,2019-10-21 12:33:18.806,,Acquired,Acquired,Acquired,Acquired,Acquired,Acquired,Acquired,Not acquired,Acquired,,,,8.113245599999999E1,3.01942464E2,2.0958870399999998E2,2.33821904E2,2.5311574399999998E2,9.1758696E1,1.1833386399999999E2,3.1447424E2,3.2807838E1,,,,5.1130959999999995E1,4.9425512E1,5.5831244E1,3.0198359999999997E1,3.6842652E1,3.1067348E1,7.828593599999999E1,1.0077399E1,1.1382989E1,,,,3,6,9,17,19,22,23,2,31,,,,10,13,12,8,6,7,8,0,1,,,
1571661258,2019-10-21 12:34:18.806,,Acquired,Acquired,Acquired,Acquired,Acquired,Acquired,Acquired,Not acquired,Acquired,,,,8.113245599999999E1,3.01942464E2,2.0958870399999998E2,2.33821904E2,2.5311574399999998E2,9.1758696E1,1.1833386399999999E2,3.1447424E2,3.2807838E1,,,,5.1130959999999995E1,4.9425512E1,5.5831244E1,3.0198359999999997E1,3.6842652E1,3.1067348E1,7.828593599999999E1,1.0077399E1,1.1382989E1,,,,3,6,9,17,19,22,23,2,31,,,,10,13,12,8,6,7,8,0,1,,,
1571661318,2019-10-21 12:35:18.806,,Acquired,Acquired,Acquired,Acquired,Acquired,Acquired,Acquired,Not acquired,Acquired,,,,8.113245599999999E1,3.01942464E2,2.0958870399999998E2,2.33821904E2,2.5311574399999998E2,9.1758696E1,1.1833386399999999E2,3.1447424E2,3.2807838E1,,,,5.1130959999999995E1,4.9425512E1,5.5831244E1,3.0198359999999997E1,3.6842652E1,3.1067348E1,7.828593599999999E1,1.0077399E1,1.1382989E1,,,,3,6,9,17,19,22,23,2,31,,,,10,13,12,8,6,7,8,0,1,,,
1571661378,2019-10-21 12:36:18.808,,Acquired,Acquired,Acquired,Acquired,Acquired,Acquired,Acquired,Not acquired,Acquired,,,,8.113245599999999E1,3.01942464E2,2.0958870399999998E2,2.33821904E2,2.5311574399999998E2,9.1758696E1,1.1833386399999999E2,3.1447424E2,3.2807838E1,,,,5.1130959999999995E1,4.9425512E1,5.5831244E1,3.0198359999999997E1,3.6842652E1,3.1067348E1,7.828593599999999E1,1.0077399E1,1.1382989E1,,,,3,6,9,17,19,22,23,2,31,,,,10,13,12,8,6,7,8,0,1,,,
1571661438,2019-10-21 12:37:18.806,,Acquired,Acquired,Acquired,Acquired,Acquired,Acquired,Acquired,Not acquired,Acquired,,,,8.113245599999999E1,3.01942464E2,2.0958870399999998E2,2.33821904E2,2.5311574399999998E2,9.1758696E1,1.1833386399999999E2,3.1447424E2,3.2807838E1,,,,5.1130959999999995E1,4.9425512E1,5.5831244E1,3.0198359999999997E1,3.6842652E1,3.1067348E1,7.828593599999999E1,1.0077399E1,1.1382989E1,,,,3,6,9,17,19,22,23,2,31,,,,10,13,12,8,6,7,8,0,1,,,
1571661498,2019-10-21 12:38:18.806,,Acquired,Acquired,Acquired,Acquired,Acquired,Acquired,Acquired,Not acquired,Acquired,,,,8.113245599999999E1,3.01942464E2,2.0958870399999998E2,2.33821904E2,2.5311574399999998E2,9.1758696E1,1.1833386399999999E2,3.1447424E2,3.2807838E1,,,,5.1130959999999995E1,4.9425512E1,5.5831244E1,3.0198359999999997E1,3.6842652E1,3.1067348E1,7.828593599999999E1,1.0077399E1,1.1382989E1,,,,3,6,9,17,19,22,23,2,31,,,,10,13,12,8,6,7,8,0,1,,,
1571661558,2019-10-21 12:39:18.806,,Acquired,Acquired,Acquired,Acquired,Acquired,Acquired,Acquired,Not acquired,Acquired,,,,8.113245599999999E1,3.01942464E2,2.0958870399999998E2,2.33821904E2,2.5311574399999998E2,9.1758696E1,1.1833386399999999E2,3.1447424E2,3.2807838E1,,,,5.1130959999999995E1,4.9425512E1,5.5831244E1,3.0198359999999997E1,3.6842652E1,3.1067348E1,7.828593599999999E1,1.0077399E1,1.1382989E1,,,,3,6,9,17,19,22,23,2,31,,,,10,13,12,8,6,7,8,0,1,,,
1571661618,2019-10-21 12:40:18.806,,Acquired,Acquired,Acquired,Acquired,Acquired,Acquired,Acquired,Not acquired,Acquired,,,,8.113245599999999E1,3.01942464E2,2.0958870399999998E2,2.33821904E2,2.5311574399999998E2,9.1758696E1,1.1833386399999999E2,3.1447424E2,3.2807838E1,,,,5.1130959999999995E1,4.9425512E1,5.5831244E1,3.0198359999999997E1,3.6842652E1,3.1067348E1,7.828593599999999E1,1.0077399E1,1.1382989E1,,,,3,6,9,17,19,22,23,2,31,,,,10,13,12,8,6,7,8,0,1,,,
1571661678,2019-10-21 12:41:18.806,,Acquired,Acquired,Acquired,Acquired,Acquired,Acquired,Acquired,Not acquired,Acquired,,,,8.113245599999999E1,3.01942464E2,2.0958870399999998E2,2.33821904E2,2.5311574399999998E2,9.1758696E1,1.1833386399999999E2,3.1447424E2,3.2807838E1,,,,5.1130959999999995E1,4.9425512E1,5.5831244E1,3.0198359999999997E1,3.6842652E1,3.1067348E1,7.828593599999999E1,1.0077399E1,1.1382989E1,,,,3,6,9,17,19,22,23,2,31,,,,10,13,12,8,6,7,8,0,1,,,
1571661738,2019-10-21 12:42:18.818,,Acquired,Acquired,Acquired,Acquired,Acquired,Acquired,Acquired,Not acquired,Acquired,,,,8.113245599999999E1,3.01942464E2,2.0958870399999998E2,2.33821904E2,2.5311574399999998E2,9.1758696E1,1.1833386399999999E2,3.1447424E2,3.2807838E1,,,,5.1130959999999995E1,4.9425512E1,5.5831244E1,3.0198359999999997E1,3.6842652E1,3.1067348E1,7.828593599999999E1,1.0077399E1,1.1382989E1,,,,3,6,9,17,19,22,23,2,31,,,,10,13,12,8,6,7,8,0,1,,,
1571661798,2019-10-21 12:43:18.806,,Acquired,Acquired,Acquired,Acquired,Acquired,Acquired,Acquired,Not acquired,Acquired,,,,8.113245599999999E1,3.01942464E2,2.0958870399999998E2,2.33821904E2,2.5311574399999998E2,9.1758696E1,1.1833386399999999E2,3.1447424E2,3.2807838E1,,,,5.1130959999999995E1,4.9425512E1,5.5831244E1,3.0198359999999997E1,3.6842652E1,3.1067348E1,7.828593599999999E1,1.0077399E1,1.1382989E1,,,,3,6,9,17,19,22,23,2,31,,,,10,13,12,8,6,7,8,0,1,,,
1571661858,2019-10-21 12:44:18.806,,Acquired,Acquired,Acquired,Acquired,Acquired,Acquired,Acquired,Not acquired,Acquired,,,,8.113245599999999E1,3.01942464E2,2.0958870399999998E2,2.33821904E2,2.5311574399999998E2,9.1758696E1,1.1833386399999999E2,3.1447424E2,3.2807838E1,,,,5.1130959999999995E1,4.9425512E1,5.5831244E1,3.0198359999999997E1,3.6842652E1,3.1067348E1,7.828593599999999E1,1.0077399E1,1.1382989E1,,,,3,6,9,17,19,22,23,2,31,,,,10,13,12,8,6,7,8,0,1,,,
1571661918,2019-10-21 12:45:18.806,,Acquired,Acquired,Acquired,Acquired,Acquired,Acquired,Acquired,Not acquired,Acquired,,,,8.113245599999999E1,3.01942464E2,2.0958870399999998E2,2.33821904E2,2.5311574399999998E2,9.1758696E1,1.1833386399999999E2,3.1447424E2,3.2807838E1,,,,5.1130959999999995E1,4.9425512E1,5.5831244E1,3.0198359999999997E1,3.6842652E1,3.1067348E1,7.828593599999999E1,1.0077399E1,1.1382989E1,,,,3,6,9,17,19,22,23,2,31,,,,10,13,12,8,6,7,8,0,1,,,
1571661978,2019-10-21 12:46:18.806,,Acquired,Acquired,Acquired,Acquired,Acquired,Acquired,Acquired,Not acquired,Acquired,,,,8.113245599999999E1,3.01942464E2,2.0958870399999998E2,2.33821904E2,2.5311574399999998E2,9.1758696E1,1.1833386399999999E2,3.1447424E2,3.2807838E1,,,,5.1130959999999995E1,4.9425512E1,5.5831244E1,3.0198359999999997E1,3.6842652E1,3.1067348E1,7.828593599999999E1,1.0077399E1,1.1382989E1,,,,3,6,9,17,19,22,23,2,31,,,,10,13,12,8,6,7,8,0,1,,,
1571662038,2019-10-21 12:47:18.806,,Acquired,Acquired,Acquired,Acquired,Acquired,Acquired,Acquired,Not acquired,Acquired,,,,8.113245599999999E1,3.01942464E2,2.0958870399999998E2,2.33821904E2,2.5311574399999998E2,9.1758696E1,1.1833386399999999E2,3.1447424E2,3.2807838E1,,,,5.1130959999999995E1,4.9425512E1,5.5831244E1,3.0198359999999997E1,3.6842652E1,3.1067348E1,7.828593599999999E1,1.0077399E1,1.1382989E1,,,,3,6,9,17,19,22,23,2,31,,,,10,13,12,8,6,7,8,0,1,,,
1571662098,2019-10-21 12:48:18.806,,Acquired,Acquired,Acquired,Acquired,Acquired,Acquired,Acquired,Not acquired,Acquired,,,,8.113245599999999E1,3.01942464E2,2.0958870399999998E2,2.33821904E2,2.5311574399999998E2,9.1758696E1,1.1833386399999999E2,3.1447424E2,3.2807838E1,,,,5.1130959999999995E1,4.9425512E1,5.5831244E1,3.0198359999999997E1,3.6842652E1,3.1067348E1,7.828593599999999E1,1.0077399E1,1.1382989E1,,,,3,6,9,17,19,22,23,2,31,,,,10,13,12,8,6,7,8,0,1,,,
1571662158,2019-10-21 12:49:18.806,,Acquired,Acquired,Acquired,Acquired,Acquired,Acquired,Acquired,Not acquired,Acquired,,,,8.113245599999999E1,3.01942464E2,2.0958870399999998E2,2.33821904E2,2.5311574399999998E2,9.1758696E1,1.1833386399999999E2,3.1447424E2,3.2807838E1,,,,5.1130959999999995E1,4.9425512E1,5.5831244E1,3.0198359999999997E1,3.6842652E1,3.1067348E1,7.828593599999999E1,1.0077399E1,1.1382989E1,,,,3,6,9,17,19,22,23,2,31,,,,10,13,12,8,6,7,8,0,1,,,
1571662218,2019-10-21 12:50:18.806,,Acquired,Acquired,Acquired,Acquired,Acquired,Acquired,Acquired,Not acquired,Acquired,,,,8.113245599999999E1,3.01942464E2,2.0958870399999998E2,2.33821904E2,2.5311574399999998E2,9.1758696E1,1.1833386399999999E2,3.1447424E2,3.2807838E1,,,,5.1130959999999995E1,4.9425512E1,5.5831244E1,3.0198359999999997E1,3.6842652E1,3.1067348E1,7.828593599999999E1,1.0077399E1,1.1382989E1,,,,3,6,9,17,19,22,23,2,31,,,,10,13,12,8,6,7,8,0,1,,,
1571662278,2019-10-21 12:51:18.806,,Acquired,Acquired,Acquired,Acquired,Acquired,Acquired,Acquired,Not acquired,Acquired,,,,8.113245599999999E1,3.01942464E2,2.0958870399999998E2,2.33821904E2,2.5311574399999998E2,9.1758696E1,1.1833386399999999E2,3.1447424E2,3.2807838E1,,,,5.1130959999999995E1,4.9425512E1,5.5831244E1,3.0198359999999997E1,3.6842652E1,3.1067348E1,7.828593599999999E1,1.0077399E1,1.1382989E1,,,,3,6,9,17,19,22,23,2,31,,,,10,13,12,8,6,7,8,0,1,,,
1571662338,2019-10-21 12:52:18.806,,Acquired,Acquired,Acquired,Acquired,Acquired,Acquired,Acquired,Not acquired,Acquired,,,,8.113245599999999E1,3.01942464E2,2.0958870399999998E2,2.33821904E2,2.5311574399999998E2,9.1758696E1,1.1833386399999999E2,3.1447424E2,3.2807838E1,,,,5.1130959999999995E1,4.9425512E1,5.5831244E1,3.0198359999999997E1,3.6842652E1,3.1067348E1,7.828593599999999E1,1.0077399E1,1.1382989E1,,,,3,6,9,17,19,22,23,2,31,,,,10,13,12,8,6,7,8,0,1,,,
1571662398,2019-10-21 12:53:18.806,,Acquired,Acquired,Acquired,Acquired,Acquired,Acquired,Acquired,Not acquired,Acquired,,,,8.113245599999999E1,3.01942464E2,2.0958870399999998E2,2.33821904E2,2.5311574399999998E2,9.1758696E1,1.1833386399999999E2,3.1447424E2,3.2807838E1,,,,5.1130959999999995E1,4.9425512E1,5.5831244E1,3.0198359999999997E1,3.6842652E1,3.1067348E1,7.828593599999999E1,1.0077399E1,1.1382989E1,,,,3,6,9,17,19,22,23,2,31,,,,10,13,12,8,6,7,8,0,1,,,
1571662458,2019-10-21 12:54:18.806,,Acquired,Acquired,Acquired,Acquired,Acquired,Acquired,Acquired,Not acquired,Acquired,,,,8.113245599999999E1,3.01942464E2,2.0958870399999998E2,2.33821904E2,2.5311574399999998E2,9.1758696E1,1.1833386399999999E2,3.1447424E2,3.2807838E1,,,,5.1130959999999995E1,4.9425512E1,5.5831244E1,3.0198359999999997E1,3.6842652E1,3.1067348E1,7.828593599999999E1,1.0077399E1,1.1382989E1,,,,3,6,9,17,19,22,23,2,31,,,,10,13,12,8,6,7,8,0,1,,,
1571662518,2019-10-21 12:55:18.806,,Acquired,Acquired,Acquired,Acquired,Acquired,Acquired,Acquired,Not acquired,Acquired,,,,8.113245599999999E1,3.01942464E2,2.0958870399999998E2,2.33821904E2,2.5311574399999998E2,9.1758696E1,1.1833386399999999E2,3.1447424E2,3.2807838E1,,,,5.1130959999999995E1,4.9425512E1,5.5831244E1,3.0198359999999997E1,3.6842652E1,3.1067348E1,7.828593599999999E1,1.0077399E1,1.1382989E1,,,,3,6,9,17,19,22,23,2,31,,,,10,13,12,8,6,7,8,0,1,,,
1571662578,2019-10-21 12:56:18.806,,Acquired,Acquired,Acquired,Acquired,Acquired,Acquired,Acquired,Not acquired,Acquired,,,,8.113245599999999E1,3.01942464E2,2.0958870399999998E2,2.33821904E2,2.5311574399999998E2,9.1758696E1,1.1833386399999999E2,3.1447424E2,3.2807838E1,,,,5.1130959999999995E1,4.9425512E1,5.5831244E1,3.0198359999999997E1,3.6842652E1,3.1067348E1,7.828593599999999E1,1.0077399E1,1.1382989E1,,,,3,6,9,17,19,22,23,2,31,,,,10,13,12,8,6,7,8,0,1,,,
1571662638,2019-10-21 12:57:18.807,,Acquired,Acquired,Acquired,Acquired,Acquired,Acquired,Acquired,Not acquired,Acquired,,,,8.113245599999999E1,3.01942464E2,2.0958870399999998E2,2.33821904E2,2.5311574399999998E2,9.1758696E1,1.1833386399999999E2,3.1447424E2,3.2807838E1,,,,5.1130959999999995E1,4.9425512E1,5.5831244E1,3.0198359999999997E1,3.6842652E1,3.1067348E1,7.828593599999999E1,1.0077399E1,1.1382989E1,,,,3,6,9,17,19,22,23,2,31,,,,10,13,12,8,6,7,8,0,1,,,
1571662698,2019-10-21 12:58:18.806,,Acquired,Acquired,Acquired,Acquired,Acquired,Acquired,Acquired,Not acquired,Acquired,,,,8.113245599999999E1,3.01942464E2,2.0958870399999998E2,2.33821904E2,2.5311574399999998E2,9.1758696E1,1.1833386399999999E2,3.1447424E2,3.2807838E1,,,,5.1130959999999995E1,4.9425512E1,5.5831244E1,3.0198359999999997E1,3.6842652E1,3.1067348E1,7.828593599999999E1,1.0077399E1,1.1382989E1,,,,3,6,9,17,19,22,23,2,31,,,,10,13,12,8,6,7,8,0,1,,,
1571662758,2019-10-21 12:59:18.806,,Acquired,Acquired,Acquired,Acquired,Acquired,Acquired,Acquired,Not acquired,Acquired,,,,8.113245599999999E1,3.01942464E2,2.0958870399999998E2,2.33821904E2,2.5311574399999998E2,9.1758696E1,1.1833386399999999E2,3.1447424E2,3.2807838E1,,,,5.1130959999999995E1,4.9425512E1,5.5831244E1,3.0198359999999997E1,3.6842652E1,3.1067348E1,7.828593599999999E1,1.0077399E1,1.1382989E1,,,,3,6,9,17,19,22,23,2,31,,,,10,13,12,8,6,7,8,0,1,,,
