Time(longsecs),Time(UTC),External SOH Voltage 1(V),External SOH Voltage 2(V),External SOH Voltage 3(V),External SOH Voltage 4(V),Sensor SOH Voltage 1(V),Sensor SOH Voltage 2(V),Sensor SOH Voltage 3(V),
1570006836,2019-10-02 09:00:36.157,-1.1689186E-2,-8.740425E-4,-5.07164E-3,-4.51684E-3,2.0071316E-1,2.0247269E-1,2.0203781E-1,
1570006896,2019-10-02 09:01:36.157,-7.959604E-3,2.8250217E-3,-9.10759E-4,-7.197857E-4,2.1065521E-1,2.1380424E-1,2.1382141E-1,
1570006956,2019-10-02 09:02:36.157,-1.0353565E-2,7.760525E-4,-3.3769608E-3,-3.281355E-3,2.045536E-1,2.0658398E-1,2.0608807E-1,
1570007016,2019-10-02 09:03:36.157,-1.2233496E-2,-1.0080338E-3,-5.3334236E-3,-4.6038628E-3,1.9835663E-1,2.0064735E-1,2.0141697E-1,
1570007076,2019-10-02 09:04:36.157,-1.1934996E-2,-1.2037754E-3,-5.275488E-3,-4.556179E-3,1.9997501E-1,2.0380688E-1,2.0236588E-1,
1570007136,2019-10-02 09:05:36.158,-1.058197E-2,4.36306E-4,-3.474474E-3,-3.1533241E-3,2.0065403E-1,2.0407963E-1,2.0238876E-1,
1570007196,2019-10-02 09:06:36.157,-9.409428E-3,1.4474392E-3,-3.1011105E-3,-2.282858E-3,2.0174313E-1,2.051239E-1,2.0405483E-1,
1570007256,2019-10-02 09:07:36.158,-8.109331E-3,2.963543E-3,-9.2053413E-4,-6.8974495E-4,2.0708942E-1,2.1042061E-1,2.0829391E-1,
1570007316,2019-10-02 09:08:36.157,-9.711981E-3,8.018017E-4,-3.363371E-3,-3.2327175E-3,2.072258E-1,2.0954418E-1,2.0909786E-1,
1570007376,2019-10-02 09:09:36.157,-9.554386E-3,1.578331E-3,-3.0851364E-3,-2.0866394E-3,2.0166779E-1,2.0426941E-1,2.0269108E-1,
1570007436,2019-10-02 09:10:36.160,-1.0614872E-2,5.376339E-4,-3.459692E-3,-3.1170845E-3,2.0421505E-1,2.0598316E-1,2.074852E-1,
1570007496,2019-10-02 09:11:36.157,-9.453058E-3,1.6329288E-3,-2.418518E-3,-2.1765232E-3,2.0834732E-1,2.1150112E-1,2.1056557E-1,
1570007556,2019-10-02 09:12:36.157,-9.754658E-3,8.2468987E-4,-3.5581589E-3,-3.0767918E-3,2.056303E-1,2.0722675E-1,2.0699596E-1,
1570007616,2019-10-02 09:13:36.157,-1.1841297E-2,-1.240015E-3,-5.274296E-3,-4.6551228E-3,1.9979572E-1,2.0231342E-1,2.0101166E-1,
1570007676,2019-10-02 09:14:36.157,-9.252548E-3,1.3697147E-3,-3.0472279E-3,-1.7952919E-3,2.0744133E-1,2.1185684E-1,2.106924E-1,
1570007736,2019-10-02 09:15:36.157,-1.1784077E-2,-6.933212E-4,-5.026102E-3,-4.306078E-3,2.0043755E-1,2.028389E-1,2.0157433E-1,
1570007796,2019-10-02 09:16:36.159,-1.0020018E-2,7.4219704E-4,-3.5057068E-3,-3.0694008E-3,2.0132065E-1,2.0381069E-1,2.0198345E-1,
1570007856,2019-10-02 09:17:36.157,-9.462118E-3,1.4228821E-3,-3.0338764E-3,-2.2428036E-3,2.0591927E-1,2.0941162E-1,2.0820999E-1,
1570007916,2019-10-02 09:18:36.186,-1.0228157E-2,7.3099136E-4,-3.3009052E-3,-3.0670166E-3,2.0490265E-1,2.0833492E-1,2.0555687E-1,
1570007976,2019-10-02 09:19:36.157,-7.1320534E-3,3.4115314E-3,-8.034706E-4,-2.8514862E-4,2.0838356E-1,2.1045971E-1,2.0851517E-1,
1570008036,2019-10-02 09:20:36.157,-1.21331215E-2,-1.2488365E-3,-5.0475597E-3,-4.447937E-3,1.9487476E-1,1.9744968E-1,1.9812107E-1,
1570008096,2019-10-02 09:21:36.157,-7.817268E-3,2.8030872E-3,-1.5432835E-3,-1.0602474E-3,2.112217E-1,2.1392536E-1,2.11689E-1,
1570008156,2019-10-02 09:22:36.157,-1.0214806E-2,7.226467E-4,-3.6399364E-3,-2.6094913E-3,2.0387363E-1,2.0706654E-1,2.0672512E-1,
1570008216,2019-10-02 09:23:36.159,-1.0016918E-2,5.5623055E-4,-3.6070347E-3,-2.9518604E-3,2.0487976E-1,2.072649E-1,2.0591736E-1,
1570008276,2019-10-02 09:24:36.157,-1.1971235E-2,-1.1236668E-3,-5.4798126E-3,-4.567623E-3,2.0053959E-1,2.0352745E-1,2.0365238E-1,
1570008336,2019-10-02 09:25:36.158,-1.0412693E-2,4.6253204E-4,-3.5691261E-3,-2.9444695E-3,2.0668697E-1,2.0880222E-1,2.0875072E-1,
1570008396,2019-10-02 09:26:36.158,-1.1697292E-2,-8.7857246E-4,-5.2216053E-3,-5.13196E-3,1.9906235E-1,2.0192337E-1,1.9983482E-1,
1570008456,2019-10-02 09:27:36.158,-9.311438E-3,1.885891E-3,-2.564907E-3,-1.5869141E-3,2.0649052E-1,2.0901299E-1,2.0833492E-1,
1570008516,2019-10-02 09:28:36.158,-7.7910423E-3,2.8176308E-3,-1.3353825E-3,-5.643368E-4,2.1313572E-1,2.1578503E-1,2.1627331E-1,
1570008576,2019-10-02 09:29:36.157,-9.224653E-3,1.755476E-3,-2.8119087E-3,-1.9638538E-3,2.0618343E-1,2.0991707E-1,2.0830536E-1,
1570008636,2019-10-02 09:30:36.157,-1.2124538E-2,-9.6678734E-4,-5.415201E-3,-4.67062E-3,2.0098495E-1,2.0380974E-1,2.0303059E-1,
1570008696,2019-10-02 09:31:36.157,-9.451628E-3,1.6949177E-3,-3.099203E-3,-2.3040771E-3,2.0585537E-1,2.087698E-1,2.085886E-1,
1570008756,2019-10-02 09:32:36.157,-1.0330439E-2,6.043911E-4,-3.6244392E-3,-2.9103756E-3,2.0536995E-1,2.0760345E-1,2.0646381E-1,
1570008816,2019-10-02 09:33:36.157,-7.6475143E-3,3.0355453E-3,-1.603365E-3,-4.3034554E-4,2.1300125E-1,2.1619225E-1,2.145977E-1,
1570008876,2019-10-02 09:34:36.157,-1.0260582E-2,4.0102005E-4,-3.5822392E-3,-2.9802322E-3,2.0099545E-1,2.0348835E-1,2.0281982E-1,
1570008936,2019-10-02 09:35:36.157,-7.712841E-3,3.086567E-3,-1.2662411E-3,-6.0009956E-4,2.1090984E-1,2.1334934E-1,2.1405697E-1,
1570008996,2019-10-02 09:36:36.157,-1.2048483E-2,-1.0402203E-3,-5.3782463E-3,-4.814148E-3,2.0089436E-1,2.036848E-1,2.0307922E-1,
1570009056,2019-10-02 09:37:36.190,-1.1968851E-2,-8.90255E-4,-5.327463E-3,-4.9808025E-3,1.9919872E-1,2.020998E-1,2.0083046E-1,
1570009116,2019-10-02 09:38:36.157,-8.025646E-3,3.2570362E-3,-1.1537075E-3,-4.746914E-4,2.1115017E-1,2.13974E-1,2.1212101E-1,
1570009176,2019-10-02 09:39:36.157,-9.520769E-3,1.3468266E-3,-3.0620098E-3,-2.2201538E-3,2.0567226E-1,2.0885849E-1,2.0819473E-1,
1570009236,2019-10-02 09:40:36.157,-9.618998E-3,1.1744499E-3,-2.9070377E-3,-2.0756721E-3,2.0862675E-1,2.109766E-1,2.1103954E-1,
1570009296,2019-10-02 09:41:36.159,-1.0401249E-2,7.0762634E-4,-3.533125E-3,-2.9177666E-3,2.1123028E-1,2.1509743E-1,2.1323395E-1,
1570009356,2019-10-02 09:42:36.157,-1.0244846E-2,4.992485E-4,-3.327608E-3,-3.0117035E-3,2.0147896E-1,2.0388985E-1,2.0166397E-1,
1570009416,2019-10-02 09:43:36.157,-9.533405E-3,1.3334751E-3,-3.0462742E-3,-2.1333694E-3,2.0592308E-1,2.084055E-1,2.0570278E-1,
1570009476,2019-10-02 09:44:36.157,-9.571791E-3,1.4812946E-3,-2.8386116E-3,-2.4132729E-3,2.0768642E-1,2.1058083E-1,2.0974636E-1,
1570009536,2019-10-02 09:45:36.190,-7.6696873E-3,3.109455E-3,-1.1937618E-3,-7.2550774E-4,2.1114063E-1,2.1401119E-1,2.1251106E-1,
1570009596,2019-10-02 09:46:36.157,-1.1918545E-2,-8.5139275E-4,-4.812479E-3,-4.7268867E-3,2.0154381E-1,2.04566E-1,2.033062E-1,
1570009656,2019-10-02 09:47:36.157,-9.63521E-3,1.0101795E-3,-3.1354427E-3,-2.3479462E-3,2.0614529E-1,2.078762E-1,2.0858002E-1,
1570009716,2019-10-02 09:48:36.157,-9.295464E-3,1.3382435E-3,-3.0677319E-3,-2.3972988E-3,2.0628834E-1,2.088499E-1,2.075243E-1,
1570009776,2019-10-02 09:49:36.157,-9.1974735E-3,1.4293194E-3,-2.6273727E-3,-2.4330616E-3,2.0275307E-1,2.0604706E-1,2.0492458E-1,
1570009836,2019-10-02 09:50:36.157,-1.0244608E-2,5.3191185E-4,-3.8526058E-3,-3.4422874E-3,2.0681858E-1,2.087183E-1,2.0701218E-1,
1570009896,2019-10-02 09:51:36.157,-1.0531664E-2,4.15802E-4,-3.8397312E-3,-3.063202E-3,2.0654392E-1,2.096777E-1,2.0772457E-1,
1570009956,2019-10-02 09:52:36.157,-9.802103E-3,1.3434887E-3,-2.8047562E-3,-2.1779537E-3,2.0606804E-1,2.0794392E-1,2.0880032E-1,
1570010016,2019-10-02 09:53:36.158,-1.1902094E-2,-9.2053413E-4,-5.0013065E-3,-4.4813156E-3,2.012968E-1,2.0451927E-1,2.0314121E-1,
1570010076,2019-10-02 09:54:36.158,-7.6959133E-3,2.9940605E-3,-1.4734268E-3,-4.1866302E-4,2.112379E-1,2.1450806E-1,2.1294308E-1,
1570010136,2019-10-02 09:55:36.157,-9.634495E-3,1.1062622E-3,-2.9685497E-3,-2.4352074E-3,2.0571136E-1,2.0804119E-1,2.0700932E-1,
1570010196,2019-10-02 09:56:36.157,-1.0015488E-2,9.598732E-4,-3.4899712E-3,-2.9454231E-3,2.0078468E-1,2.0400429E-1,2.0282269E-1,
1570010256,2019-10-02 09:57:36.157,-1.0274172E-2,4.6539307E-4,-3.5305023E-3,-2.7594566E-3,1.9820404E-1,2.0033264E-1,1.9945812E-1,
1570010316,2019-10-02 09:58:36.157,-7.4779987E-3,3.4275055E-3,-1.2624264E-3,-5.3167343E-4,2.1364498E-1,2.1591187E-1,2.1514988E-1,
1570010376,2019-10-02 09:59:36.157,-1.0382414E-2,2.2482872E-4,-3.638506E-3,-3.047943E-3,2.0452976E-1,2.0718288E-1,2.0560169E-1,
