Time(longsecs),Time(UTC),Earth Location,GPS Receiver Status,GPS Satellites Used,GPS PDOP,GPS TDOP,Timing Status,Timing Phase Lock,Timing Uncertainty(ns),DAC Count,Timing Error(ns),GPS Last Update Time,
1570053636,2019-10-02 22:00:36.157,47.636298N 0.583863E 186m,Off,6,2.6163,1.558374,Time OK,Free running,7300,9145,0,2019-10-02 21:53:13.000000000,
1570053696,2019-10-02 22:01:36.157,47.636298N 0.583863E 186m,Off,6,2.6163,1.558374,Time OK,Free running,8400,9145,0,2019-10-02 21:53:13.000000000,
1570053756,2019-10-02 22:02:36.157,47.636298N 0.583863E 186m,Off,6,2.6163,1.558374,Time OK,Free running,9300,9145,0,2019-10-02 21:53:13.000000000,
1570053816,2019-10-02 22:03:36.157,47.636298N 0.583863E 186m,Off,6,2.6163,1.558374,Time OK,Free running,10300,9145,0,2019-10-02 21:53:13.000000000,
1570053876,2019-10-02 22:04:36.157,47.636298N 0.583863E 186m,Off,6,2.6163,1.558374,Time OK,Free running,11200,9145,0,2019-10-02 21:53:13.000000000,
1570053936,2019-10-02 22:05:36.193,47.636298N 0.583863E 186m,Off,6,2.6163,1.558374,Time OK,Free running,12300,9145,0,2019-10-02 21:53:13.000000000,
1570053996,2019-10-02 22:06:36.157,47.636298N 0.583863E 186m,Off,6,2.6163,1.558374,Time OK,Free running,13700,9145,0,2019-10-02 21:53:13.000000000,
1570054056,2019-10-02 22:07:36.157,47.636298N 0.583863E 186m,Off,6,2.6163,1.558374,Time OK,Free running,15200,9145,0,2019-10-02 21:53:13.000000000,
1570054116,2019-10-02 22:08:36.157,47.636298N 0.583863E 186m,Off,6,2.6163,1.558374,Time OK,Free running,16900,9145,0,2019-10-02 21:53:13.000000000,
1570054176,2019-10-02 22:09:36.157,47.636298N 0.583863E 186m,Off,6,2.6163,1.558374,Time OK,Free running,18400,9145,0,2019-10-02 21:53:13.000000000,
1570054236,2019-10-02 22:10:36.158,47.636298N 0.583863E 186m,Off,6,2.6163,1.558374,Time OK,Free running,19800,9145,0,2019-10-02 21:53:13.000000000,
1570054296,2019-10-02 22:11:36.157,47.636298N 0.583863E 186m,Off,6,2.6163,1.558374,Time OK,Free running,21500,9145,0,2019-10-02 21:53:13.000000000,
1570054356,2019-10-02 22:12:36.157,47.636298N 0.583863E 186m,Off,6,2.6163,1.558374,Time OK,Free running,23300,9145,0,2019-10-02 21:53:13.000000000,
1570054416,2019-10-02 22:13:36.157,47.636298N 0.583863E 186m,Off,6,2.6163,1.558374,Time OK,Free running,24900,9145,0,2019-10-02 21:53:13.000000000,
1570054476,2019-10-02 22:14:36.157,47.636298N 0.583863E 186m,Off,6,2.6163,1.558374,Time OK,Free running,26300,9145,0,2019-10-02 21:53:13.000000000,
1570054536,2019-10-02 22:15:36.157,47.636298N 0.583863E 186m,Off,6,2.6163,1.558374,Time OK,Free running,28000,9145,0,2019-10-02 21:53:13.000000000,
1570054596,2019-10-02 22:16:36.157,47.636298N 0.583863E 186m,Off,6,2.6163,1.558374,Time OK,Free running,29600,9145,0,2019-10-02 21:53:13.000000000,
1570054656,2019-10-02 22:17:36.157,47.636298N 0.583863E 186m,Off,6,2.6163,1.558374,Time OK,Free running,31300,9145,0,2019-10-02 21:53:13.000000000,
1570054716,2019-10-02 22:18:36.157,47.636298N 0.583863E 186m,Off,6,2.6163,1.558374,Time OK,Free running,33300,9145,0,2019-10-02 21:53:13.000000000,
1570054776,2019-10-02 22:19:36.157,47.636298N 0.583863E 186m,Off,6,2.6163,1.558374,Time OK,Free running,35200,9145,0,2019-10-02 21:53:13.000000000,
1570054836,2019-10-02 22:20:36.188,47.636298N 0.583863E 186m,Off,6,2.6163,1.558374,Time OK,Free running,37300,9145,0,2019-10-02 21:53:13.000000000,
1570054896,2019-10-02 22:21:36.159,47.636298N 0.583863E 186m,Off,6,2.6163,1.558374,Time OK,Free running,39500,9145,0,2019-10-02 21:53:13.000000000,
1570054956,2019-10-02 22:22:36.157,47.636298N 0.583863E 186m,Off,6,2.6163,1.558374,Time OK,Free running,41400,9145,0,2019-10-02 21:53:13.000000000,
1570055016,2019-10-02 22:23:36.157,47.636298N 0.583863E 186m,Off,6,2.6163,1.558374,Time OK,Free running,43300,9145,0,2019-10-02 21:53:13.000000000,
1570055076,2019-10-02 22:24:36.157,47.636298N 0.583863E 186m,Off,6,2.6163,1.558374,Time OK,Free running,45500,9145,0,2019-10-02 21:53:13.000000000,
1570055136,2019-10-02 22:25:36.157,47.636298N 0.583863E 186m,Off,6,2.6163,1.558374,Time OK,Free running,47600,9145,0,2019-10-02 21:53:13.000000000,
1570055196,2019-10-02 22:26:36.157,47.636298N 0.583863E 186m,Off,6,2.6163,1.558374,Time OK,Free running,49800,9145,0,2019-10-02 21:53:13.000000000,
1570055256,2019-10-02 22:27:36.157,47.636298N 0.583863E 186m,Off,6,2.6163,1.558374,Time OK,Free running,52000,9145,0,2019-10-02 21:53:13.000000000,
1570055316,2019-10-02 22:28:36.158,47.636298N 0.583863E 186m,Doing fixes,6,2.0378194,1.1533059,Time OK,Free running,54200,9145,0,2019-10-02 22:28:33.000000000,
1570055376,2019-10-02 22:29:36.157,47.636298N 0.583863E 186m,Off,6,2.026447,1.1442119,Time OK,Free running,200,9142,0,2019-10-02 22:29:23.000000000,
1570055436,2019-10-02 22:30:36.157,47.636298N 0.583863E 186m,Off,6,2.026447,1.1442119,Time OK,Free running,1100,9142,0,2019-10-02 22:29:23.000000000,
1570055496,2019-10-02 22:31:36.157,47.636298N 0.583863E 186m,Off,6,2.026447,1.1442119,Time OK,Free running,2100,9142,0,2019-10-02 22:29:23.000000000,
1570055556,2019-10-02 22:32:36.157,47.636298N 0.583863E 186m,Off,6,2.026447,1.1442119,Time OK,Free running,2900,9142,0,2019-10-02 22:29:23.000000000,
1570055616,2019-10-02 22:33:36.157,47.636298N 0.583863E 186m,Off,6,2.026447,1.1442119,Time OK,Free running,3700,9142,0,2019-10-02 22:29:23.000000000,
1570055676,2019-10-02 22:34:36.158,47.636298N 0.583863E 186m,Off,6,2.026447,1.1442119,Time OK,Free running,4800,9142,0,2019-10-02 22:29:23.000000000,
1570055736,2019-10-02 22:35:36.157,47.636298N 0.583863E 186m,Off,6,2.026447,1.1442119,Time OK,Free running,5800,9142,0,2019-10-02 22:29:23.000000000,
1570055796,2019-10-02 22:36:36.159,47.636298N 0.583863E 186m,Off,6,2.026447,1.1442119,Time OK,Free running,6700,9142,0,2019-10-02 22:29:23.000000000,
1570055856,2019-10-02 22:37:36.157,47.636298N 0.583863E 186m,Off,6,2.026447,1.1442119,Time OK,Free running,7700,9142,0,2019-10-02 22:29:23.000000000,
1570055916,2019-10-02 22:38:36.157,47.636298N 0.583863E 186m,Off,6,2.026447,1.1442119,Time OK,Free running,8600,9142,0,2019-10-02 22:29:23.000000000,
1570055976,2019-10-02 22:39:36.159,47.636298N 0.583863E 186m,Off,6,2.026447,1.1442119,Time OK,Free running,9500,9142,0,2019-10-02 22:29:23.000000000,
1570056036,2019-10-02 22:40:36.157,47.636298N 0.583863E 186m,Off,6,2.026447,1.1442119,Time OK,Free running,10600,9142,0,2019-10-02 22:29:23.000000000,
1570056096,2019-10-02 22:41:36.157,47.636298N 0.583863E 186m,Off,6,2.026447,1.1442119,Time OK,Free running,11700,9142,0,2019-10-02 22:29:23.000000000,
1570056156,2019-10-02 22:42:36.157,47.636298N 0.583863E 186m,Off,6,2.026447,1.1442119,Time OK,Free running,12800,9142,0,2019-10-02 22:29:23.000000000,
1570056216,2019-10-02 22:43:36.157,47.636298N 0.583863E 186m,Off,6,2.026447,1.1442119,Time OK,Free running,14200,9142,0,2019-10-02 22:29:23.000000000,
1570056276,2019-10-02 22:44:36.157,47.636298N 0.583863E 186m,Off,6,2.026447,1.1442119,Time OK,Free running,15700,9142,0,2019-10-02 22:29:23.000000000,
1570056336,2019-10-02 22:45:36.157,47.636298N 0.583863E 186m,Off,6,2.026447,1.1442119,Time OK,Free running,17200,9142,0,2019-10-02 22:29:23.000000000,
1570056396,2019-10-02 22:46:36.157,47.636298N 0.583863E 186m,Off,6,2.026447,1.1442119,Time OK,Free running,18400,9142,0,2019-10-02 22:29:23.000000000,
1570056456,2019-10-02 22:47:36.157,47.636298N 0.583863E 186m,Off,6,2.026447,1.1442119,Time OK,Free running,19400,9142,0,2019-10-02 22:29:23.000000000,
1570056516,2019-10-02 22:48:36.157,47.636298N 0.583863E 186m,Off,6,2.026447,1.1442119,Time OK,Free running,20700,9142,0,2019-10-02 22:29:23.000000000,
1570056576,2019-10-02 22:49:36.157,47.636298N 0.583863E 186m,Off,6,2.026447,1.1442119,Time OK,Free running,22400,9142,0,2019-10-02 22:29:23.000000000,
1570056636,2019-10-02 22:50:36.157,47.636298N 0.583863E 186m,Off,6,2.026447,1.1442119,Time OK,Free running,23900,9142,0,2019-10-02 22:29:23.000000000,
1570056696,2019-10-02 22:51:36.157,47.636298N 0.583863E 186m,Off,6,2.026447,1.1442119,Time OK,Free running,25300,9142,0,2019-10-02 22:29:23.000000000,
1570056756,2019-10-02 22:52:36.159,47.636298N 0.583863E 186m,Off,6,2.026447,1.1442119,Time OK,Free running,26900,9142,0,2019-10-02 22:29:23.000000000,
1570056816,2019-10-02 22:53:36.157,47.636298N 0.583863E 186m,Off,6,2.026447,1.1442119,Time OK,Free running,28800,9142,0,2019-10-02 22:29:23.000000000,
1570056876,2019-10-02 22:54:36.157,47.636298N 0.583863E 186m,Off,6,2.026447,1.1442119,Time OK,Free running,30900,9142,0,2019-10-02 22:29:23.000000000,
1570056936,2019-10-02 22:55:36.157,47.636298N 0.583863E 186m,Off,6,2.026447,1.1442119,Time OK,Free running,32700,9142,0,2019-10-02 22:29:23.000000000,
1570056996,2019-10-02 22:56:36.157,47.636298N 0.583863E 186m,Off,6,2.026447,1.1442119,Time OK,Free running,34200,9142,0,2019-10-02 22:29:23.000000000,
1570057056,2019-10-02 22:57:36.157,47.636298N 0.583863E 186m,Off,6,2.026447,1.1442119,Time OK,Free running,35800,9142,0,2019-10-02 22:29:23.000000000,
1570057116,2019-10-02 22:58:36.157,47.636298N 0.583863E 186m,Off,6,2.026447,1.1442119,Time OK,Free running,37500,9142,0,2019-10-02 22:29:23.000000000,
1570057176,2019-10-02 22:59:36.157,47.636298N 0.583863E 186m,Off,6,2.026447,1.1442119,Time OK,Free running,39200,9142,0,2019-10-02 22:29:23.000000000,
