Time(longsecs),Time(UTC),External SOH Voltage 1(V),External SOH Voltage 2(V),External SOH Voltage 3(V),External SOH Voltage 4(V),Sensor SOH Voltage 1(V),Sensor SOH Voltage 2(V),Sensor SOH Voltage 3(V),
1569978036,2019-10-02 01:00:36.157,-9.904146E-3,1.6281605E-3,-2.727747E-3,-2.5811195E-3,1.9764233E-1,1.9961166E-1,1.9804382E-1,
1569978096,2019-10-02 01:01:36.157,-1.0027885E-2,8.8596344E-4,-3.5049915E-3,-3.2451153E-3,1.9433594E-1,1.9758701E-1,1.9774151E-1,
1569978156,2019-10-02 01:02:36.157,-1.008296E-2,8.4781647E-4,-3.1216145E-3,-2.888918E-3,1.9425297E-1,1.9790936E-1,1.968975E-1,
1569978216,2019-10-02 01:03:36.157,-9.361744E-3,1.2054443E-3,-2.6168823E-3,-2.0358562E-3,1.9541931E-1,1.9869328E-1,1.9676304E-1,
1569978276,2019-10-02 01:04:36.157,-9.898424E-3,4.6873093E-4,-3.6697388E-3,-3.0589104E-3,1.9674301E-1,1.999731E-1,1.986227E-1,
1569978336,2019-10-02 01:05:36.157,-1.0313988E-2,9.4509125E-4,-3.5793781E-3,-2.9366016E-3,1.947918E-1,1.9723225E-1,1.9631863E-1,
1569978396,2019-10-02 01:06:36.159,-7.95579E-3,2.9110909E-3,-9.6940994E-4,-3.8170815E-4,1.9731426E-1,1.9963074E-1,1.9931316E-1,
1569978456,2019-10-02 01:07:36.157,-9.319782E-3,1.3291836E-3,-2.7296543E-3,-2.2530556E-3,1.9533157E-1,1.9916058E-1,1.9731426E-1,
1569978516,2019-10-02 01:08:36.157,-7.4718E-3,2.7062893E-3,-1.4607906E-3,-6.084442E-4,2.0295238E-1,2.0560074E-1,2.0524883E-1,
1569978576,2019-10-02 01:09:36.157,-7.5318813E-3,3.1590462E-3,-1.0855198E-3,-5.2666664E-4,2.0104504E-1,2.0386505E-1,2.0283031E-1,
1569978636,2019-10-02 01:10:36.157,-9.5357895E-3,1.376152E-3,-3.136158E-3,-2.4113655E-3,1.9513321E-1,1.98102E-1,1.9712257E-1,
1569978696,2019-10-02 01:11:36.196,-9.482622E-3,1.1689663E-3,-2.7973652E-3,-2.310276E-3,1.950121E-1,1.9866276E-1,1.9683933E-1,
1569978756,2019-10-02 01:12:36.157,-7.772684E-3,3.25346E-3,-1.5144348E-3,-9.467602E-4,2.030096E-1,2.0586586E-1,2.0344162E-1,
1569978816,2019-10-02 01:13:36.157,-9.872675E-3,7.3742867E-4,-3.8068295E-3,-2.7768612E-3,1.9633579E-1,1.9978714E-1,1.994667E-1,
1569978876,2019-10-02 01:14:36.159,-1.0139704E-2,5.4192543E-4,-3.4322739E-3,-3.4594536E-3,1.9612694E-1,2.0009995E-1,1.9959259E-1,
1569978936,2019-10-02 01:15:36.157,-9.83429E-3,7.1024895E-4,-3.597498E-3,-3.0272007E-3,1.9532871E-1,1.9761181E-1,1.9752407E-1,
1569978996,2019-10-02 01:16:36.157,-1.1755228E-2,-1.2886524E-3,-5.133152E-3,-4.24695E-3,1.8982697E-1,1.9187164E-1,1.9272137E-1,
1569979056,2019-10-02 01:17:36.157,-1.2088299E-2,-1.090765E-3,-5.1705837E-3,-4.70376E-3,1.8266773E-1,1.8651581E-1,1.8388653E-1,
1569979116,2019-10-02 01:18:36.157,-9.388924E-3,1.3020039E-3,-2.817154E-3,-2.1386147E-3,1.9560146E-1,1.989708E-1,1.9850254E-1,
1569979176,2019-10-02 01:19:36.157,-7.4670315E-3,3.2644272E-3,-1.2483597E-3,-3.6025047E-4,2.0226097E-1,2.0467758E-1,2.0322704E-1,
1569979236,2019-10-02 01:20:36.157,-9.976625E-3,4.8947334E-4,-3.5486221E-3,-2.8016567E-3,1.9534206E-1,1.9769382E-1,1.9680786E-1,
1569979296,2019-10-02 01:21:36.157,-1.19457245E-2,-1.1365414E-3,-5.331993E-3,-4.5974255E-3,1.8768978E-1,1.9255543E-1,1.9078445E-1,
1569979356,2019-10-02 01:22:36.157,-1.2000799E-2,-1.0347366E-3,-5.5127144E-3,-4.745722E-3,1.8948269E-1,1.9204807E-1,1.9009018E-1,
1569979416,2019-10-02 01:23:36.159,-9.45425E-3,1.2485981E-3,-2.6304722E-3,-2.3260117E-3,1.9605732E-1,1.9787312E-1,1.9747162E-1,
1569979476,2019-10-02 01:24:36.157,-9.812593E-3,1.4696121E-3,-2.9160976E-3,-1.9598007E-3,1.9548225E-1,1.9822788E-1,1.976757E-1,
1569979536,2019-10-02 01:25:36.157,-9.964943E-3,7.646084E-4,-3.4463406E-3,-2.9249191E-3,1.9502926E-1,1.9870663E-1,1.955738E-1,
1569979596,2019-10-02 01:26:36.167,-9.982109E-3,8.084774E-4,-3.5691261E-3,-2.5138855E-3,1.9486427E-1,1.9716072E-1,1.967907E-1,
1569979656,2019-10-02 01:27:36.157,-1.0218382E-2,6.494522E-4,-3.3493042E-3,-2.9029846E-3,1.9462681E-1,1.9851303E-1,1.9607449E-1,
1569979716,2019-10-02 01:28:36.157,-1.0276079E-2,5.736351E-4,-3.8206577E-3,-2.8882027E-3,1.9442463E-1,1.9742298E-1,1.9560814E-1,
1569979776,2019-10-02 01:29:36.157,-9.894133E-3,6.1130524E-4,-3.6563873E-3,-3.1833649E-3,1.9524097E-1,1.9744205E-1,1.9616795E-1,
1569979836,2019-10-02 01:30:36.157,-1.056385E-2,4.6277046E-4,-3.6244392E-3,-3.3049583E-3,1.9464588E-1,1.9707775E-1,1.9693851E-1,
1569979896,2019-10-02 01:31:36.157,-7.872343E-3,3.1359196E-3,-1.1203289E-3,-2.0503998E-4,2.0048428E-1,2.0372486E-1,2.0324326E-1,
1569979956,2019-10-02 01:32:36.159,-1.0108709E-2,5.443096E-4,-3.3512115E-3,-2.6037693E-3,1.9504833E-1,1.9782066E-1,1.962862E-1,
1569980016,2019-10-02 01:33:36.157,-1.0047913E-2,5.1140785E-4,-3.727436E-3,-2.8903484E-3,1.9388866E-1,1.9721317E-1,1.9644547E-1,
1569980076,2019-10-02 01:34:36.157,-1.2085676E-2,-9.6940994E-4,-5.360365E-3,-4.9204826E-3,1.8956852E-1,1.9180775E-1,1.9089603E-1,
1569980136,2019-10-02 01:35:36.157,-7.840157E-3,3.2372475E-3,-1.0566711E-3,-7.0238113E-4,2.0274925E-1,2.0599937E-1,2.0700932E-1,
1569980196,2019-10-02 01:36:36.157,-9.839058E-3,8.1157684E-4,-3.4620762E-3,-3.1282902E-3,1.948471E-1,1.9835663E-1,1.9683552E-1,
1569980256,2019-10-02 01:37:36.157,-1.0129213E-2,1.0507107E-3,-3.6342144E-3,-2.8288364E-3,1.9367218E-1,1.9690228E-1,1.9533157E-1,
1569980316,2019-10-02 01:38:36.190,-1.00467205E-2,6.1130524E-4,-3.488779E-3,-3.0021667E-3,1.9453049E-1,1.980257E-1,1.9322109E-1,
1569980376,2019-10-02 01:39:36.157,-1.0112047E-2,7.367134E-4,-3.7429333E-3,-3.3986568E-3,1.9618511E-1,1.983347E-1,1.9667149E-1,
1569980436,2019-10-02 01:40:36.157,-9.567976E-3,1.386404E-3,-2.9771328E-3,-2.4163723E-3,1.9386196E-1,1.9811344E-1,1.9615746E-1,
1569980496,2019-10-02 01:41:36.157,-1.0067463E-2,6.737709E-4,-3.1900406E-3,-2.4220943E-3,1.9655037E-1,1.998043E-1,1.9826698E-1,
1569980556,2019-10-02 01:42:36.157,-7.8372955E-3,3.068447E-3,-1.224041E-3,-3.41177E-4,1.9789982E-1,1.998787E-1,1.9923592E-1,
1569980616,2019-10-02 01:43:36.157,-9.565592E-3,1.452446E-3,-3.0272007E-3,-1.979351E-3,1.9737244E-1,2.0025826E-1,1.988802E-1,
1569980676,2019-10-02 01:44:36.157,-9.941101E-3,8.8739395E-4,-3.3390522E-3,-2.8059483E-3,1.9638538E-1,1.9970798E-1,1.9911575E-1,
1569980736,2019-10-02 01:45:36.157,-9.389877E-3,1.185894E-3,-3.05295E-3,-2.334118E-3,1.9489384E-1,1.9756317E-1,1.9779587E-1,
1569980796,2019-10-02 01:46:36.157,-9.906769E-3,5.4097176E-4,-3.4554005E-3,-2.9640198E-3,1.9664001E-1,1.992569E-1,1.9870377E-1,
1569980856,2019-10-02 01:47:36.160,-7.5514317E-3,3.4782887E-3,-1.3279915E-3,-3.643036E-4,2.0376205E-1,2.0622063E-1,2.0449543E-1,
1569980916,2019-10-02 01:48:36.157,-1.1796474E-2,-9.417534E-4,-5.4631233E-3,-4.8644543E-3,1.8823051E-1,1.9162846E-1,1.8989468E-1,
1569980976,2019-10-02 01:49:36.157,-1.0025263E-2,8.597374E-4,-3.5731792E-3,-2.7990341E-3,1.970377E-1,1.9955444E-1,1.9832134E-1,
1569981036,2019-10-02 01:50:36.157,-1.017952E-2,3.8719177E-4,-3.7066936E-3,-2.7410984E-3,1.9608498E-1,1.9855785E-1,1.982727E-1,
1569981096,2019-10-02 01:51:36.157,-9.458303E-3,1.4460087E-3,-2.772808E-3,-2.143383E-3,1.9719887E-1,2.0007038E-1,2.004795E-1,
1569981156,2019-10-02 01:52:36.157,-1.1962891E-2,-1.210928E-3,-5.461693E-3,-4.6708584E-3,1.8852329E-1,1.9154644E-1,1.9045162E-1,
1569981216,2019-10-02 01:53:36.157,-9.709597E-3,1.306057E-3,-2.8078556E-3,-1.6174316E-3,1.9871902E-1,2.0071602E-1,2.0119E-1,
1569981276,2019-10-02 01:54:36.157,-1.2227774E-2,-9.3483925E-4,-5.259514E-3,-4.941225E-3,1.9099903E-1,1.9291687E-1,1.9259453E-1,
1569981336,2019-10-02 01:55:36.159,-1.0191202E-2,4.825592E-4,-3.2315254E-3,-2.887249E-3,1.9458961E-1,1.9708633E-1,1.954441E-1,
1569981396,2019-10-02 01:56:36.157,-9.500742E-3,1.1951923E-3,-2.9418468E-3,-2.3579597E-3,1.9209099E-1,1.9396305E-1,1.9354725E-1,
1569981456,2019-10-02 01:57:36.157,-9.547234E-3,1.2114048E-3,-2.8960705E-3,-2.2192001E-3,1.9543839E-1,1.985197E-1,1.9709682E-1,
1569981516,2019-10-02 01:58:36.157,-1.1735439E-2,-1.1160374E-3,-5.1977634E-3,-5.0182343E-3,1.888752E-1,1.9082355E-1,1.8991756E-1,
1569981576,2019-10-02 01:59:36.190,-9.376526E-3,1.8439293E-3,-2.6247501E-3,-2.2747517E-3,1.9191265E-1,1.9512558E-1,2.003622E-1,
