Time(longsecs),Time(UTC),External SOH Voltage 1(V),External SOH Voltage 2(V),External SOH Voltage 3(V),External SOH Voltage 4(V),Sensor SOH Voltage 1(V),Sensor SOH Voltage 2(V),Sensor SOH Voltage 3(V),
1570867222,2019-10-12 08:00:22.352,-2.0694733E-4,-7.897615E-3,-1.3508797E-3,-1.1301041E-3,3.7825203E-1,3.7340736E-1,3.8171864E-1,
1570867282,2019-10-12 08:01:22.352,-3.745556E-4,-7.7717304E-3,-1.4572144E-3,-1.2879372E-3,3.7872124E-1,3.7277126E-1,3.8039017E-1,
1570867342,2019-10-12 08:02:22.352,-4.8542023E-4,-8.389473E-3,-1.760006E-3,-1.9717216E-3,3.769169E-1,3.7251568E-1,3.7972927E-1,
1570867402,2019-10-12 08:03:22.354,-2.425909E-3,-9.915113E-3,-3.8785934E-3,-3.9479733E-3,3.7190342E-1,3.6612892E-1,3.746071E-1,
1570867462,2019-10-12 08:04:22.352,1.7051697E-3,-5.612612E-3,7.4005127E-4,2.6106834E-4,3.830986E-1,3.7788296E-1,3.8632774E-1,
1570867522,2019-10-12 08:05:22.353,-6.992817E-4,-8.402586E-3,-1.955986E-3,-2.555132E-3,3.7539577E-1,3.7166882E-1,3.78644E-1,
1570867582,2019-10-12 08:06:22.352,-8.957386E-4,-8.288622E-3,-1.9283295E-3,-2.2952557E-3,3.786478E-1,3.7360382E-1,3.8047314E-1,
1570867642,2019-10-12 08:07:22.352,2.8300285E-4,-7.48682E-3,-1.5115738E-3,-1.3334751E-3,3.7964344E-1,3.7624836E-1,3.8379002E-1,
1570867702,2019-10-12 08:08:22.352,-4.5490265E-4,-8.203983E-3,-9.2458725E-4,-2.3868084E-3,3.7808228E-1,3.7226677E-1,3.8040924E-1,
1570867762,2019-10-12 08:09:22.352,-2.9325485E-4,-8.46529E-3,-1.8885136E-3,-2.3784637E-3,3.7626934E-1,3.7093163E-1,3.787403E-1,
1570867822,2019-10-12 08:10:22.352,-8.673668E-4,-8.057594E-3,-1.6965866E-3,-2.1736622E-3,3.7650776E-1,3.7050152E-1,3.7886047E-1,
1570867882,2019-10-12 08:11:22.352,-1.5354156E-4,-7.6010227E-3,-7.6913834E-4,-1.6298294E-3,3.782339E-1,3.7400055E-1,3.8086128E-1,
1570867942,2019-10-12 08:12:22.352,-6.520748E-4,-8.139372E-3,-1.4150143E-3,-1.9321442E-3,3.7997818E-1,3.7383175E-1,3.8310146E-1,
1570868002,2019-10-12 08:13:22.354,1.5385151E-3,-6.3221455E-3,8.106232E-5,2.553463E-4,3.8323689E-1,3.774414E-1,3.8363552E-1,
1570868062,2019-10-12 08:14:22.352,1.6078949E-3,-5.768776E-3,2.9182434E-4,-5.6266785E-5,3.84511E-1,3.7840557E-1,3.8611794E-1,
1570868122,2019-10-12 08:15:22.352,4.9591064E-5,-7.618189E-3,-9.5033646E-4,-2.03228E-3,3.7608337E-1,3.7187576E-1,3.8096142E-1,
1570868182,2019-10-12 08:16:22.353,-2.4542809E-3,-1.0104418E-2,-3.332138E-3,-4.10676E-3,3.722E-1,3.66107E-1,3.758707E-1,
1570868242,2019-10-12 08:17:22.385,1.865387E-3,-5.885124E-3,5.7554245E-4,1.2230873E-4,3.8370037E-1,3.7881756E-1,3.8635254E-1,
1570868302,2019-10-12 08:18:22.352,1.7323494E-3,-6.005764E-3,8.4638596E-4,1.2731552E-4,3.8400745E-1,3.8020134E-1,3.8780403E-1,
1570868362,2019-10-12 08:19:22.356,-1.1467934E-4,-7.3833466E-3,-1.4452934E-3,-1.2989044E-3,3.769331E-1,3.722353E-1,3.7866879E-1,
1570868422,2019-10-12 08:20:22.352,-2.6865005E-3,-1.0746479E-2,-3.7314892E-3,-3.7708282E-3,3.72447E-1,3.6661053E-1,3.7389565E-1,
1570868482,2019-10-12 08:21:22.381,-2.38204E-3,-1.01697445E-2,-3.6411285E-3,-4.4636726E-3,3.716116E-1,3.649969E-1,3.7463856E-1,
1570868542,2019-10-12 08:22:22.352,-2.887249E-4,-8.2502365E-3,-1.7170906E-3,-2.4514198E-3,3.76688E-1,3.7039185E-1,3.7813568E-1,
1570868602,2019-10-12 08:23:22.352,1.8873215E-3,-6.465435E-3,5.8221817E-4,3.7002563E-4,3.8407612E-1,3.7952614E-1,3.854561E-1,
1570868662,2019-10-12 08:24:22.352,-2.620697E-3,-1.0321379E-2,-3.3586025E-3,-3.972292E-3,3.7334633E-1,3.679037E-1,3.760252E-1,
1570868722,2019-10-12 08:25:22.352,-7.555485E-4,-7.502556E-3,-1.4967918E-3,-2.0112991E-3,3.7561893E-1,3.7008286E-1,3.7837696E-1,
1570868782,2019-10-12 08:26:22.352,-2.5339127E-3,-1.0045767E-2,-3.4394264E-3,-4.2853355E-3,3.7117672E-1,3.663273E-1,3.7501144E-1,
1570868842,2019-10-12 08:27:22.352,-2.0956993E-4,-7.8725815E-3,-1.3644695E-3,-1.3067722E-3,3.7857723E-1,3.7474346E-1,3.8065243E-1,
1570868902,2019-10-12 08:28:22.352,-2.2792816E-4,-7.520914E-3,-1.8105507E-3,-1.603365E-3,3.7788296E-1,3.7398338E-1,3.803749E-1,
1570868962,2019-10-12 08:29:22.352,-2.5131702E-3,-1.0324717E-2,-4.10676E-3,-4.337311E-3,3.7012196E-1,3.6451817E-1,3.7186718E-1,
1570869022,2019-10-12 08:30:22.354,-4.2033195E-4,-8.3117485E-3,-1.4059544E-3,-1.7373562E-3,3.780651E-1,3.7251282E-1,3.7983513E-1,
1570869082,2019-10-12 08:31:22.352,1.9173622E-3,-6.547451E-3,3.528595E-4,3.838539E-4,3.8140583E-1,3.759184E-1,3.8466072E-1,
1570869142,2019-10-12 08:32:22.352,1.3210773E-3,-6.037712E-3,4.7063828E-4,2.2888184E-5,3.8397694E-1,3.7772083E-1,3.8554287E-1,
1570869202,2019-10-12 08:33:22.352,-1.2111664E-4,-7.969379E-3,-1.6052723E-3,-2.7258396E-3,3.7739658E-1,3.7312984E-1,3.8045216E-1,
1570869262,2019-10-12 08:34:22.352,6.914139E-6,-7.5302124E-3,-1.3096333E-3,-1.5552044E-3,3.7328434E-1,3.6869717E-1,3.7616253E-1,
1570869322,2019-10-12 08:35:22.352,1.7507076E-3,-6.10137E-3,4.246235E-4,-1.3279915E-4,3.8145065E-1,3.7730312E-1,3.8471508E-1,
1570869382,2019-10-12 08:36:22.352,1.855135E-3,-6.1428547E-3,7.853508E-4,2.799034E-4,3.8479996E-1,3.7818718E-1,3.858614E-1,
1570869442,2019-10-12 08:37:22.352,-2.5975704E-3,-9.8564625E-3,-3.636837E-3,-4.196644E-3,3.7228394E-1,3.6687088E-1,3.7533092E-1,
1570869502,2019-10-12 08:38:22.352,-6.365776E-5,-8.007526E-3,-1.1889935E-3,-2.1755695E-3,3.787918E-1,3.7264633E-1,3.81155E-1,
1570869562,2019-10-12 08:39:22.352,-2.3264885E-3,-9.912729E-3,-3.2556057E-3,-3.909588E-3,3.742981E-1,3.6961937E-1,3.7553596E-1,
1570869622,2019-10-12 08:40:22.352,-2.4683475E-3,-1.0349512E-2,-3.6623478E-3,-4.4116974E-3,3.712864E-1,3.6507225E-1,3.7409878E-1,
1570869682,2019-10-12 08:41:22.354,-2.9468536E-4,-8.451939E-3,-1.8410683E-3,-2.263546E-3,3.815527E-1,3.751297E-1,3.8224983E-1,
1570869742,2019-10-12 08:42:22.352,1.4286041E-3,-6.0665607E-3,2.732277E-4,-1.1539459E-4,3.830824E-1,3.7741566E-1,3.8499165E-1,
1570869802,2019-10-12 08:43:22.352,1.8258095E-3,-6.538391E-3,2.8419495E-4,3.0326843E-4,3.8411045E-1,3.787079E-1,3.8536072E-1,
1570869862,2019-10-12 08:44:22.352,-6.699562E-5,-7.5793266E-3,-1.6329288E-3,-1.162529E-3,3.8040447E-1,3.7620926E-1,3.8303185E-1,
1570869922,2019-10-12 08:45:22.352,-2.5265217E-3,-1.03571415E-2,-3.563404E-3,-4.4944286E-3,3.7392235E-1,3.6927795E-1,3.7778473E-1,
1570869982,2019-10-12 08:46:22.357,-2.3698807E-4,-7.5683594E-3,-1.2688637E-3,-1.326561E-3,3.8115406E-1,3.7569332E-1,3.8347816E-1,
1570870042,2019-10-12 08:47:22.352,-2.691269E-3,-1.0206699E-2,-3.5991669E-3,-4.260063E-3,3.698349E-1,3.644247E-1,3.7196732E-1,
1570870102,2019-10-12 08:48:22.352,-2.8262138E-3,-1.000762E-2,-3.8554668E-3,-3.998518E-3,3.7193394E-1,3.6770058E-1,3.7425995E-1,
1570870162,2019-10-12 08:49:22.352,-6.225109E-4,-8.381128E-3,-1.4953613E-3,-2.622366E-3,3.8088417E-1,3.7494755E-1,3.827963E-1,
1570870222,2019-10-12 08:50:22.352,-3.4356117E-4,-8.512497E-3,-1.5439987E-3,-2.3155212E-3,3.7757683E-1,3.7272453E-1,3.8020897E-1,
1570870282,2019-10-12 08:51:22.352,-1.2228489E-3,-8.081436E-3,-1.8789768E-3,-2.6056767E-3,3.8328552E-1,3.776827E-1,3.8504887E-1,
1570870342,2019-10-12 08:52:22.352,-2.0740032E-3,-1.0512114E-2,-3.6542416E-3,-3.768921E-3,3.7091732E-1,3.6523724E-1,3.7320995E-1,
1570870402,2019-10-12 08:53:22.364,-7.324219E-4,-8.458376E-3,-1.7518997E-3,-1.8725395E-3,3.7765598E-1,3.7217522E-1,3.818493E-1,
1570870462,2019-10-12 08:54:22.362,-2.461195E-3,-1.049161E-2,-3.6656857E-3,-4.1151047E-3,3.7236118E-1,3.6724472E-1,3.744297E-1,
1570870522,2019-10-12 08:55:22.352,-4.5633316E-4,-7.884979E-3,-9.717941E-4,-1.2490749E-3,3.7941837E-1,3.727045E-1,3.805294E-1,
1570870582,2019-10-12 08:56:22.352,-5.004406E-4,-8.05831E-3,-1.5494823E-3,-1.9090176E-3,3.794098E-1,3.7213516E-1,3.7947655E-1,
1570870642,2019-10-12 08:57:22.355,1.66893E-5,-7.930279E-3,-1.4910698E-3,-1.486063E-3,3.7740517E-1,3.732605E-1,3.8288403E-1,
1570870702,2019-10-12 08:58:22.352,-2.6743412E-3,-1.0756016E-2,-3.5319328E-3,-4.446268E-3,3.7404728E-1,3.6917973E-1,3.759098E-1,
1570870762,2019-10-12 08:59:22.352,-7.7295303E-4,-8.425713E-3,-1.3375282E-3,-1.5208721E-3,3.733921E-1,3.6926174E-1,3.738842E-1,
