Time(longsecs),Time(UTC),Sensor SOH Voltage A 1(uV),Sensor SOH Voltage A 2(uV),Sensor SOH Voltage A 3(uV),External SOH Voltage 1(uV),External SOH Voltage 2(uV),External SOH Voltage 3(uV),
1571565600,2019-10-20 10:00:00.000,620824,,,,,,
1571565900,2019-10-20 10:05:00.000,611101,,,,,,
1571566200,2019-10-20 10:10:00.000,611101,,,,,,
1571566500,2019-10-20 10:15:00.000,620824,,,,,,
1571566800,2019-10-20 10:20:00.000,611101,,,,,,
1571567100,2019-10-20 10:25:00.000,620824,,,,,,
1571567400,2019-10-20 10:30:00.000,611101,,,,,,
1571567700,2019-10-20 10:35:00.000,611101,,,,,,
1571568000,2019-10-20 10:40:00.000,611101,,,,,,
1571568300,2019-10-20 10:45:00.000,620824,,,,,,
1571568600,2019-10-20 10:50:00.000,611101,,,,,,
1571568900,2019-10-20 10:55:00.000,611101,,,,,,
