Time(longsecs),Time(UTC),Sensor SOH Voltage A 1(uV),Sensor SOH Voltage A 2(uV),Sensor SOH Voltage A 3(uV),External SOH Voltage 1(uV),External SOH Voltage 2(uV),External SOH Voltage 3(uV),
1570726800,2019-10-10 17:00:00.000,640271,,,,,,
1570727100,2019-10-10 17:05:00.000,640271,,,,,,
1570727400,2019-10-10 17:10:00.000,640271,,,,,,
1570727700,2019-10-10 17:15:00.000,640271,,,,,,
1570728000,2019-10-10 17:20:00.000,640271,,,,,,
1570728300,2019-10-10 17:25:00.000,640271,,,,,,
1570728600,2019-10-10 17:30:00.000,640271,,,,,,
1570728900,2019-10-10 17:35:00.000,640271,,,,,,
1570729200,2019-10-10 17:40:00.000,640271,,,,,,
1570729500,2019-10-10 17:45:00.000,640271,,,,,,
1570729800,2019-10-10 17:50:00.000,640271,,,,,,
1570730100,2019-10-10 17:55:00.000,640271,,,,,,
