Time(longsecs),Time(UTC),Sensor SOH Voltage A 1(uV),Sensor SOH Voltage A 2(uV),Sensor SOH Voltage A 3(uV),External SOH Voltage 1(uV),External SOH Voltage 2(uV),External SOH Voltage 3(uV),
1571846400,2019-10-23 16:00:00.000,601377,,,,,,
1571846700,2019-10-23 16:05:00.000,601377,,,,,,
1571847000,2019-10-23 16:10:00.000,601377,,,,,,
1571847300,2019-10-23 16:15:00.000,601377,,,,,,
1571847600,2019-10-23 16:20:00.000,591654,,,,,,
1571847900,2019-10-23 16:25:00.000,601377,,,,,,
1571848200,2019-10-23 16:30:00.000,601377,,,,,,
1571848500,2019-10-23 16:35:00.000,601377,,,,,,
1571848800,2019-10-23 16:40:00.000,601377,,,,,,
1571849100,2019-10-23 16:45:00.000,601377,,,,,,
1571849400,2019-10-23 16:50:00.000,601377,,,,,,
1571849700,2019-10-23 16:55:00.000,601377,,,,,,
