Time(longsecs),Time(UTC),Supply voltage(V),Total current(A),Temperature(&deg;C),
1571378400,2019-10-18 06:00:00.000,1.327466097E1,9.448223733936E-2,2.2718E1,
1571378700,2019-10-18 06:05:00.000,1.327466097E1,9.3755450898288E-2,2.2718E1,
1571379000,2019-10-18 06:10:00.000,1.327466097E1,9.448223733936E-2,2.2687E1,
1571379300,2019-10-18 06:15:00.000,1.3261197825E1,9.3755450898288E-2,2.2625E1,
1571379600,2019-10-18 06:20:00.000,1.327466097E1,9.3755450898288E-2,2.2531E1,
1571379900,2019-10-18 06:25:00.000,1.327466097E1,9.3755450898288E-2,2.25E1,
1571380200,2019-10-18 06:30:00.000,1.3247734679999999E1,1.27914413628672E-1,2.2406E1,
1571380500,2019-10-18 06:35:00.000,1.327466097E1,9.3755450898288E-2,2.2375E1,
1571380800,2019-10-18 06:40:00.000,1.327466097E1,9.3755450898288E-2,2.2375E1,
1571381100,2019-10-18 06:45:00.000,1.327466097E1,9.448223733936E-2,2.2312E1,
1571381400,2019-10-18 06:50:00.000,1.327466097E1,9.448223733936E-2,2.225E1,
1571381700,2019-10-18 06:55:00.000,1.3261197825E1,1.25734054305456E-1,2.2187E1,
