Time(longsecs),Time(UTC),Sensor SOH Voltage A 1(uV),Sensor SOH Voltage A 2(uV),Sensor SOH Voltage A 3(uV),External SOH Voltage 1(uV),External SOH Voltage 2(uV),External SOH Voltage 3(uV),
1570755600,2019-10-11 01:00:00.000,640271,,,,,,
1570755900,2019-10-11 01:05:00.000,640271,,,,,,
1570756200,2019-10-11 01:10:00.000,640271,,,,,,
1570756500,2019-10-11 01:15:00.000,640271,,,,,,
1570756800,2019-10-11 01:20:00.000,640271,,,,,,
1570757100,2019-10-11 01:25:00.000,640271,,,,,,
1570757400,2019-10-11 01:30:00.000,640271,,,,,,
1570757700,2019-10-11 01:35:00.000,649995,,,,,,
1570758000,2019-10-11 01:40:00.000,640271,,,,,,
1570758300,2019-10-11 01:45:00.000,640271,,,,,,
1570758600,2019-10-11 01:50:00.000,640271,,,,,,
1570758900,2019-10-11 01:55:00.000,640271,,,,,,
