Time(longsecs),Time(UTC),Earth location,GNSS receiver status,GNSS satellites used,Timing status,Phase lock loop status,Time uncertainty(ns),Timing DAC count,Time quality(&#37;),Time error(ns),
1571864400,2019-10-23 21:00:00.000,47.635977N 0.562719E 174m,Off,7,Time OK,Free running,24400,9286,90,0,
1571864700,2019-10-23 21:05:00.000,47.635977N 0.562719E 174m,Off,7,Time OK,Free running,33900,9286,90,0,
1571865000,2019-10-23 21:10:00.000,47.635977N 0.562719E 174m,Off,7,Time OK,Free running,44300,9286,90,0,
1571865300,2019-10-23 21:15:00.000,47.635977N 0.562719E 174m,GNSS locked,9,Time OK,Fine lock,500,9267,100,-416,
1571865600,2019-10-23 21:20:00.000,47.635977N 0.562719E 174m,Off,9,Time OK,Free running,6500,9294,90,0,
1571865900,2019-10-23 21:25:00.000,47.635977N 0.562719E 174m,Off,9,Time OK,Free running,15400,9294,90,0,
1571866200,2019-10-23 21:30:00.000,47.635977N 0.562719E 174m,Off,9,Time OK,Free running,23700,9294,90,0,
1571866500,2019-10-23 21:35:00.000,47.635977N 0.562719E 174m,Off,9,Time OK,Free running,33000,9294,90,0,
1571866800,2019-10-23 21:40:00.000,47.635977N 0.562719E 174m,Off,9,Time OK,Free running,42900,9294,90,0,
1571867100,2019-10-23 21:45:00.000,47.635977N 0.562719E 174m,GNSS locked,6,Time OK,Coarse lock,300,9259,90,208,
1571867400,2019-10-23 21:50:00.000,47.635977N 0.562719E 174m,Off,6,Time OK,Free running,8000,9282,90,0,
1571867700,2019-10-23 21:55:00.000,47.635977N 0.562719E 174m,Off,6,Time OK,Free running,17300,9282,90,0,
