Time(longsecs),Time(UTC),Sensor SOH Voltage A 1(uV),Sensor SOH Voltage A 2(uV),Sensor SOH Voltage A 3(uV),External SOH Voltage 1(uV),External SOH Voltage 2(uV),External SOH Voltage 3(uV),
1571965200,2019-10-25 01:00:00.000,591654,,,,,,
1571965500,2019-10-25 01:05:00.000,591654,,,,,,
1571965800,2019-10-25 01:10:00.000,591654,,,,,,
1571966100,2019-10-25 01:15:00.000,591654,,,,,,
1571966400,2019-10-25 01:20:00.000,591654,,,,,,
1571966700,2019-10-25 01:25:00.000,591654,,,,,,
1571967000,2019-10-25 01:30:00.000,591654,,,,,,
1571967300,2019-10-25 01:35:00.000,591654,,,,,,
1571967600,2019-10-25 01:40:00.000,591654,,,,,,
1571967900,2019-10-25 01:45:00.000,591654,,,,,,
1571968200,2019-10-25 01:50:00.000,591654,,,,,,
1571968500,2019-10-25 01:55:00.000,601377,,,,,,
