Time(longsecs),Time(UTC),Supply voltage(V),Total current(A),Temperature(&deg;C),
1571284800,2019-10-17 04:00:00.000,1.327466097E1,9.5209023780432E-2,2.1843E1,
1571285100,2019-10-17 04:05:00.000,1.3261197825E1,9.448223733936E-2,2.175E1,
1571285400,2019-10-17 04:10:00.000,1.327466097E1,9.3028664457216E-2,2.1687E1,
1571285700,2019-10-17 04:15:00.000,1.327466097E1,9.6662596662576E-2,2.1593E1,
1571286000,2019-10-17 04:20:00.000,1.3261197825E1,9.7389383103648E-2,2.1593E1,
1571286300,2019-10-17 04:25:00.000,1.3261197825E1,9.3755450898288E-2,2.1593E1,
1571286600,2019-10-17 04:30:00.000,1.327466097E1,9.3755450898288E-2,2.1531E1,
1571286900,2019-10-17 04:35:00.000,1.3261197825E1,9.5209023780432E-2,2.15E1,
1571287200,2019-10-17 04:40:00.000,1.327466097E1,9.3755450898288E-2,2.1468E1,
1571287500,2019-10-17 04:45:00.000,1.327466097E1,9.5209023780432E-2,2.1437E1,
1571287800,2019-10-17 04:50:00.000,1.327466097E1,9.5209023780432E-2,2.1468E1,
1571288100,2019-10-17 04:55:00.000,1.3261197825E1,9.3755450898288E-2,2.1468E1,
