Time(longsecs),Time(UTC),Earth location,GNSS receiver status,GNSS satellites used,Timing status,Phase lock loop status,Time uncertainty(ns),Timing DAC count,Time quality(&#37;),Time error(ns),
1570280400,2019-10-05 13:00:00.000,47.636004N 0.562448E 160m,Off,10,Time OK,Free running,17500,9120,90,0,
1570280700,2019-10-05 13:05:00.000,47.636004N 0.562448E 160m,Off,10,Time OK,Free running,27400,9120,90,0,
1570281000,2019-10-05 13:10:00.000,47.636004N 0.562448E 160m,Off,10,Time OK,Free running,37300,9120,90,0,
1570281300,2019-10-05 13:15:00.000,47.636004N 0.562448E 160m,Off,10,Time OK,Free running,48100,9120,90,0,
1570281600,2019-10-05 13:20:00.000,47.636004N 0.562448E 160m,Off,8,Time OK,Free running,3500,9124,90,0,
1570281900,2019-10-05 13:25:00.000,47.636004N 0.562448E 160m,Off,8,Time OK,Free running,12400,9124,90,0,
1570282200,2019-10-05 13:30:00.000,47.636004N 0.562448E 160m,Off,8,Time OK,Free running,21100,9124,90,0,
1570282500,2019-10-05 13:35:00.000,47.636004N 0.562448E 160m,Off,8,Time OK,Free running,30400,9124,90,0,
1570282800,2019-10-05 13:40:00.000,47.636004N 0.562448E 160m,Off,8,Time OK,Free running,40300,9124,90,0,
1570283100,2019-10-05 13:45:00.000,47.636004N 0.562448E 160m,GNSS unlocked,0,Time OK,Free running,50400,9124,90,0,
1570283400,2019-10-05 13:50:00.000,47.636004N 0.562448E 160m,Off,8,Time OK,Free running,5800,9129,90,0,
1570283700,2019-10-05 13:55:00.000,47.636004N 0.562448E 160m,Off,8,Time OK,Free running,15300,9129,90,0,
