Time(longsecs),Time(UTC),Earth location,GNSS receiver status,GNSS satellites used,Timing status,Phase lock loop status,Time uncertainty(ns),Timing DAC count,Time quality(&#37;),Time error(ns),
1571983200,2019-10-25 06:00:00.000,47.63606N 0.562654E 156m,Off,8,Time OK,Free running,23700,9366,90,0,
1571983500,2019-10-25 06:05:00.000,47.63606N 0.562654E 156m,Off,8,Time OK,Free running,34400,9366,90,0,
1571983800,2019-10-25 06:10:00.000,47.63606N 0.562654E 156m,Off,8,Time OK,Free running,45900,9366,90,0,
1571984100,2019-10-25 06:15:00.000,47.63606N 0.562654E 156m,Off,7,Time OK,Free running,1800,9367,90,0,
1571984400,2019-10-25 06:20:00.000,47.63606N 0.562654E 156m,Off,7,Time OK,Free running,10500,9367,90,0,
1571984700,2019-10-25 06:25:00.000,47.63606N 0.562654E 156m,Off,7,Time OK,Free running,19400,9367,90,0,
1571985000,2019-10-25 06:30:00.000,47.63606N 0.562654E 156m,Off,7,Time OK,Free running,29600,9367,90,0,
1571985300,2019-10-25 06:35:00.000,47.63606N 0.562654E 156m,Off,7,Time OK,Free running,40200,9367,90,0,
1571985600,2019-10-25 06:40:00.000,47.63606N 0.562654E 156m,GNSS unlocked,0,Time OK,Free running,52000,9367,90,0,
1571985900,2019-10-25 06:45:00.000,47.63606N 0.562654E 156m,Off,7,Time OK,Free running,6400,9369,90,0,
1571986200,2019-10-25 06:50:00.000,47.63606N 0.562654E 156m,Off,7,Time OK,Free running,15400,9369,90,0,
1571986500,2019-10-25 06:55:00.000,47.63606N 0.562654E 156m,Off,7,Time OK,Free running,25100,9369,90,0,
