Time(longsecs),Time(UTC),Sensor SOH Voltage A 1(uV),Sensor SOH Voltage A 2(uV),Sensor SOH Voltage A 3(uV),External SOH Voltage 1(uV),External SOH Voltage 2(uV),External SOH Voltage 3(uV),
1571004000,2019-10-13 22:00:00.000,630548,,,,,,
1571004300,2019-10-13 22:05:00.000,630548,,,,,,
1571004600,2019-10-13 22:10:00.000,630548,,,,,,
1571004900,2019-10-13 22:15:00.000,630548,,,,,,
1571005200,2019-10-13 22:20:00.000,630548,,,,,,
1571005500,2019-10-13 22:25:00.000,630548,,,,,,
1571005800,2019-10-13 22:30:00.000,630548,,,,,,
1571006100,2019-10-13 22:35:00.000,630548,,,,,,
1571006400,2019-10-13 22:40:00.000,630548,,,,,,
1571006700,2019-10-13 22:45:00.000,630548,,,,,,
1571007000,2019-10-13 22:50:00.000,630548,,,,,,
1571007300,2019-10-13 22:55:00.000,630548,,,,,,
