Time(longsecs),Time(UTC),Earth location,GNSS receiver status,GNSS satellites used,Timing status,Phase lock loop status,Time uncertainty(ns),Timing DAC count,Time quality(&#37;),Time error(ns),
1572282000,2019-10-28 17:00:00.000,47.63606N 0.562654E 156m,GNSS unlocked,0,Time OK,Free running,51500,9312,90,0,
1572282300,2019-10-28 17:05:00.000,47.63606N 0.562654E 156m,Off,4,Time OK,Free running,6100,9322,90,0,
1572282600,2019-10-28 17:10:00.000,47.63606N 0.562654E 156m,Off,4,Time OK,Free running,17000,9322,90,0,
1572282900,2019-10-28 17:15:00.000,47.63606N 0.562654E 156m,Off,4,Time OK,Free running,36200,9322,90,0,
1572283200,2019-10-28 17:20:00.000,47.63606N 0.562654E 156m,GNSS locked,7,Time OK,Fine lock,100,9309,100,104,
1572283500,2019-10-28 17:25:00.000,47.63606N 0.562654E 156m,Off,7,Time OK,Free running,9800,9310,90,0,
1572283800,2019-10-28 17:30:00.000,47.63606N 0.562654E 156m,Off,7,Time OK,Free running,21800,9310,90,0,
1572284100,2019-10-28 17:35:00.000,47.63606N 0.562654E 156m,Off,7,Time OK,Free running,34700,9310,90,0,
1572284400,2019-10-28 17:40:00.000,47.63606N 0.562654E 156m,Off,7,Time OK,Free running,47800,9310,90,0,
1572284700,2019-10-28 17:45:00.000,47.63606N 0.562654E 156m,Off,6,Time OK,Free running,3400,9304,90,0,
1572285000,2019-10-28 17:50:00.000,47.63606N 0.562654E 156m,Off,6,Time OK,Free running,12300,9304,90,0,
1572285300,2019-10-28 17:55:00.000,47.63606N 0.562654E 156m,Off,6,Time OK,Free running,20800,9304,90,0,
