Time(longsecs),Time(UTC),Supply voltage(V),Total current(A),Temperature(&deg;C),
1569938400,2019-10-01 14:00:00.000,1.367855532E1,1.19192976335808E-1,4.1562E1,
1569938700,2019-10-01 14:05:00.000,1.3638165885E1,1.1628583057152E-1,4.1437E1,
1569939000,2019-10-01 14:10:00.000,1.3557387015E1,1.17739403453664E-1,4.125E1,
1569939300,2019-10-01 14:15:00.000,1.3503534434999999E1,1.30094772951888E-1,4.1062E1,
1569939600,2019-10-01 14:20:00.000,1.3476608145E1,1.18466189894736E-1,4.0843E1,
1569939900,2019-10-01 14:25:00.000,1.3436218709999999E1,1.1991976277688E-1,4.0593E1,
1569940200,2019-10-01 14:30:00.000,1.340929242E1,1.50444793301904E-1,4.0312E1,
1569940500,2019-10-01 14:35:00.000,1.3422755565E1,1.20646549217952E-1,4.0031E1,
1569940800,2019-10-01 14:40:00.000,1.3436218709999999E1,1.19192976335808E-1,3.975E1,
1569941100,2019-10-01 14:45:00.000,1.3449681855E1,1.33728705157248E-1,3.9437E1,
1569941400,2019-10-01 14:50:00.000,1.3530460725E1,1.17012617012592E-1,3.9187E1,
1569941700,2019-10-01 14:55:00.000,1.3611239594999999E1,1.15559044130448E-1,3.8875E1,
