Time(longsecs),Time(UTC),Earth location,GNSS receiver status,GNSS satellites used,Timing status,Phase lock loop status,Time uncertainty(ns),Timing DAC count,Time quality(&#37;),Time error(ns),
1570536000,2019-10-08 12:00:00.000,47.635855N 0.562879E 185m,Off,9,Time OK,Free running,41500,9184,90,0,
1570536300,2019-10-08 12:05:00.000,47.635855N 0.562879E 185m,GNSS locked,9,Time OK,Coarse lock,200,9166,90,104,
1570536600,2019-10-08 12:10:00.000,47.635855N 0.562879E 185m,Off,9,Time OK,Free running,8200,9179,90,0,
1570536900,2019-10-08 12:15:00.000,47.635855N 0.562879E 185m,Off,9,Time OK,Free running,18100,9179,90,0,
1570537200,2019-10-08 12:20:00.000,47.635855N 0.562879E 185m,Off,9,Time OK,Free running,29500,9179,90,0,
1570537500,2019-10-08 12:25:00.000,47.635855N 0.562879E 185m,Off,9,Time OK,Free running,41900,9179,90,0,
1570537800,2019-10-08 12:30:00.000,47.635855N 0.562879E 185m,GNSS locked,9,Time OK,Coarse lock,100,9175,90,0,
1570538100,2019-10-08 12:35:00.000,47.635855N 0.562879E 185m,Off,9,Time OK,Free running,9300,9172,90,0,
1570538400,2019-10-08 12:40:00.000,47.635855N 0.562879E 185m,Off,9,Time OK,Free running,20200,9172,90,0,
1570538700,2019-10-08 12:45:00.000,47.635855N 0.562879E 185m,Off,9,Time OK,Free running,32500,9172,90,0,
1570539000,2019-10-08 12:50:00.000,47.635855N 0.562879E 185m,Off,9,Time OK,Free running,46200,9172,90,0,
1570539300,2019-10-08 12:55:00.000,47.635855N 0.562879E 185m,Off,9,Time OK,Free running,2600,9165,90,0,
