Time(longsecs),Time(UTC),Sensor SOH Voltage A 1(uV),Sensor SOH Voltage A 2(uV),Sensor SOH Voltage A 3(uV),External SOH Voltage 1(uV),External SOH Voltage 2(uV),External SOH Voltage 3(uV),
1571349600,2019-10-17 22:00:00.000,630548,,,,,,
1571349900,2019-10-17 22:05:00.000,630548,,,,,,
1571350200,2019-10-17 22:10:00.000,630548,,,,,,
1571350500,2019-10-17 22:15:00.000,630548,,,,,,
1571350800,2019-10-17 22:20:00.000,630548,,,,,,
1571351100,2019-10-17 22:25:00.000,630548,,,,,,
1571351400,2019-10-17 22:30:00.000,630548,,,,,,
1571351700,2019-10-17 22:35:00.000,620824,,,,,,
1571352000,2019-10-17 22:40:00.000,630548,,,,,,
1571352300,2019-10-17 22:45:00.000,630548,,,,,,
1571352600,2019-10-17 22:50:00.000,630548,,,,,,
1571352900,2019-10-17 22:55:00.000,630548,,,,,,
