Time(longsecs),Time(UTC),Supply voltage(V),Total current(A),Temperature(&deg;C),
1571184000,2019-10-16 00:00:00.000,1.3261197825E1,1.1991976277688E-1,2.5843E1,
1571184300,2019-10-16 00:05:00.000,1.3261197825E1,1.19192976335808E-1,2.5812E1,
1571184600,2019-10-16 00:10:00.000,1.3261197825E1,1.22826908541168E-1,2.5812E1,
1571184900,2019-10-16 00:15:00.000,1.3247734679999999E1,1.53351939066192E-1,2.5812E1,
1571185200,2019-10-16 00:20:00.000,1.3261197825E1,1.18466189894736E-1,2.5875E1,
1571185500,2019-10-16 00:25:00.000,1.3261197825E1,1.17739403453664E-1,2.5906E1,
1571185800,2019-10-16 00:30:00.000,1.3261197825E1,1.18466189894736E-1,2.5875E1,
1571186100,2019-10-16 00:35:00.000,1.3261197825E1,1.17739403453664E-1,2.5843E1,
1571186400,2019-10-16 00:40:00.000,1.327466097E1,9.3755450898288E-2,2.5218E1,
1571186700,2019-10-16 00:45:00.000,1.327466097E1,9.448223733936E-2,2.4812E1,
1571187000,2019-10-16 00:50:00.000,1.327466097E1,9.3755450898288E-2,2.4531E1,
1571187300,2019-10-16 00:55:00.000,1.327466097E1,9.3755450898288E-2,2.4343E1,
