Time(longsecs),Time(UTC),Sensor SOH Voltage A 1(uV),Sensor SOH Voltage A 2(uV),Sensor SOH Voltage A 3(uV),External SOH Voltage 1(uV),External SOH Voltage 2(uV),External SOH Voltage 3(uV),
1570701600,2019-10-10 10:00:00.000,649995,,,,,,
1570701900,2019-10-10 10:05:00.000,649995,,,,,,
1570702200,2019-10-10 10:10:00.000,649995,,,,,,
1570702500,2019-10-10 10:15:00.000,649995,,,,,,
1570702800,2019-10-10 10:20:00.000,649995,,,,,,
1570703100,2019-10-10 10:25:00.000,649995,,,,,,
1570703400,2019-10-10 10:30:00.000,649995,,,,,,
1570703700,2019-10-10 10:35:00.000,649995,,,,,,
1570704000,2019-10-10 10:40:00.000,649995,,,,,,
1570704300,2019-10-10 10:45:00.000,649995,,,,,,
1570704600,2019-10-10 10:50:00.000,649995,,,,,,
1570704900,2019-10-10 10:55:00.000,649995,,,,,,
