Time(longsecs),Time(UTC),Earth location,GNSS receiver status,GNSS satellites used,Timing status,Phase lock loop status,Time uncertainty(ns),Timing DAC count,Time quality(&#37;),Time error(ns),
1572015600,2019-10-25 15:00:00.000,47.63606N 0.562654E 156m,Off,5,Time OK,Free running,29900,9258,90,0,
1572015900,2019-10-25 15:05:00.000,47.63606N 0.562654E 156m,Off,5,Time OK,Free running,44200,9258,90,0,
1572016200,2019-10-25 15:10:00.000,47.63606N 0.562654E 156m,Off,6,Time OK,Free running,1700,9251,90,0,
1572016500,2019-10-25 15:15:00.000,47.63606N 0.562654E 156m,Off,6,Time OK,Free running,11200,9251,90,0,
1572016800,2019-10-25 15:20:00.000,47.63606N 0.562654E 156m,Off,6,Time OK,Free running,21600,9251,90,0,
1572017100,2019-10-25 15:25:00.000,47.63606N 0.562654E 156m,Off,6,Time OK,Free running,32600,9251,90,0,
1572017400,2019-10-25 15:30:00.000,47.63606N 0.562654E 156m,Off,6,Time OK,Free running,44000,9251,90,0,
1572017700,2019-10-25 15:35:00.000,47.63606N 0.562654E 156m,GNSS locked,5,Time OK,Fine lock,100,9250,100,0,
1572018000,2019-10-25 15:40:00.000,47.63606N 0.562654E 156m,Off,5,Time OK,Free running,8100,9247,90,0,
1572018300,2019-10-25 15:45:00.000,47.63606N 0.562654E 156m,Off,5,Time OK,Free running,16600,9247,90,0,
1572018600,2019-10-25 15:50:00.000,47.63606N 0.562654E 156m,Off,5,Time OK,Free running,25700,9247,90,0,
1572018900,2019-10-25 15:55:00.000,47.63606N 0.562654E 156m,Off,5,Time OK,Free running,35600,9247,90,0,
