Time(longsecs),Time(UTC),Earth location,GNSS receiver status,GNSS satellites used,Timing status,Phase lock loop status,Time uncertainty(ns),Timing DAC count,Time quality(&#37;),Time error(ns),
1570269600,2019-10-05 10:00:00.000,47.636004N 0.562448E 160m,GNSS locked,10,Time OK,Coarse lock,100,9182,90,0,
1570269900,2019-10-05 10:05:00.000,47.636004N 0.562448E 160m,Off,10,Time OK,Free running,9200,9179,90,0,
1570270200,2019-10-05 10:10:00.000,47.636004N 0.562448E 160m,Off,10,Time OK,Free running,22900,9179,90,0,
1570270500,2019-10-05 10:15:00.000,47.636004N 0.562448E 160m,Off,10,Time OK,Free running,40100,9179,90,0,
1570270800,2019-10-05 10:20:00.000,47.636004N 0.562448E 160m,Off,10,Time OK,Free running,900,9165,90,0,
1570271100,2019-10-05 10:25:00.000,47.636004N 0.562448E 160m,Off,10,Time OK,Free running,15400,9165,90,0,
1570271400,2019-10-05 10:30:00.000,47.636004N 0.562448E 160m,Off,10,Time OK,Free running,40100,9165,90,0,
1570271700,2019-10-05 10:35:00.000,47.636004N 0.562448E 160m,Off,10,Time OK,Free running,2000,9143,90,0,
1570272000,2019-10-05 10:40:00.000,47.636004N 0.562448E 160m,Off,10,Time OK,Free running,15400,9143,90,0,
1570272300,2019-10-05 10:45:00.000,47.636004N 0.562448E 160m,Off,10,Time OK,Free running,35200,9143,90,0,
1570272600,2019-10-05 10:50:00.000,47.636004N 0.562448E 160m,GNSS locked,9,Time OK,Fine lock,200,9124,100,104,
1570272900,2019-10-05 10:55:00.000,47.636004N 0.562448E 160m,Off,10,Time OK,Free running,10400,9123,90,0,
