Time(longsecs),Time(UTC),Supply voltage(V),Total current(A),Temperature(&deg;C),
1570273200,2019-10-05 11:00:00.000,1.3530460725E1,1.1628583057152E-1,3.3937E1,
1570273500,2019-10-05 11:05:00.000,1.3449681855E1,1.17012617012592E-1,3.4E1,
1570273800,2019-10-05 11:10:00.000,1.3449681855E1,1.20646549217952E-1,3.4062E1,
1570274100,2019-10-05 11:15:00.000,1.3436218709999999E1,1.4899122041975998E-1,3.4187E1,
1570274400,2019-10-05 11:20:00.000,1.3422755565E1,1.1628583057152E-1,3.4312E1,
1570274700,2019-10-05 11:25:00.000,1.340929242E1,1.18466189894736E-1,3.4406E1,
1570275000,2019-10-05 11:30:00.000,1.340929242E1,1.17739403453664E-1,3.4531E1,
1570275300,2019-10-05 11:35:00.000,1.3355439839999999E1,1.5262515262512E-1,3.4625E1,
1570275600,2019-10-05 11:40:00.000,1.3355439839999999E1,1.17739403453664E-1,3.475E1,
1570275900,2019-10-05 11:45:00.000,1.3341976695E1,1.19192976335808E-1,3.4843E1,
1570276200,2019-10-05 11:50:00.000,1.3341976695E1,1.17739403453664E-1,3.4843E1,
1570276500,2019-10-05 11:55:00.000,1.3341976695E1,1.37362637362608E-1,3.4843E1,
