Time(longsecs),Time(UTC),Earth location,GNSS receiver status,GNSS satellites used,Timing status,Phase lock loop status,Time uncertainty(ns),Timing DAC count,Time quality(&#37;),Time error(ns),
1572073200,2019-10-26 07:00:00.000,47.63606N 0.562654E 156m,Off,6,Time OK,Free running,10600,9355,90,0,
1572073500,2019-10-26 07:05:00.000,47.63606N 0.562654E 156m,Off,6,Time OK,Free running,19000,9355,90,0,
1572073800,2019-10-26 07:10:00.000,47.63606N 0.562654E 156m,Off,6,Time OK,Free running,28200,9355,90,0,
1572074100,2019-10-26 07:15:00.000,47.63606N 0.562654E 156m,Off,6,Time OK,Free running,37800,9355,90,0,
1572074400,2019-10-26 07:20:00.000,47.63606N 0.562654E 156m,Off,6,Time OK,Free running,47500,9355,90,0,
1572074700,2019-10-26 07:25:00.000,47.63606N 0.562654E 156m,Off,8,Time OK,Free running,2900,9356,90,0,
1572075000,2019-10-26 07:30:00.000,47.63606N 0.562654E 156m,Off,8,Time OK,Free running,12200,9356,90,0,
1572075300,2019-10-26 07:35:00.000,47.63606N 0.562654E 156m,Off,8,Time OK,Free running,22400,9356,90,0,
1572075600,2019-10-26 07:40:00.000,47.63606N 0.562654E 156m,Off,8,Time OK,Free running,33200,9356,90,0,
1572075900,2019-10-26 07:45:00.000,47.63606N 0.562654E 156m,Off,8,Time OK,Free running,44600,9356,90,0,
1572076200,2019-10-26 07:50:00.000,47.63606N 0.562654E 156m,Off,7,Time OK,Free running,1300,9354,90,0,
1572076500,2019-10-26 07:55:00.000,47.63606N 0.562654E 156m,Off,7,Time OK,Free running,11000,9354,90,0,
