Time(longsecs),Time(UTC),Supply voltage(V),Total current(A),Temperature(&deg;C),
1572379200,2019-10-29 20:00:00.000,1.3261197825E1,1.17012617012592E-1,2.2937E1,
1572379500,2019-10-29 20:05:00.000,1.3234271535E1,1.51171579742976E-1,2.2906E1,
1572379800,2019-10-29 20:10:00.000,1.3261197825E1,1.17739403453664E-1,2.2937E1,
1572380100,2019-10-29 20:15:00.000,1.3247734679999999E1,1.17739403453664E-1,2.2937E1,
1572380400,2019-10-29 20:20:00.000,1.3261197825E1,1.18466189894736E-1,2.2906E1,
1572380700,2019-10-29 20:25:00.000,1.3247734679999999E1,1.17739403453664E-1,2.2875E1,
1572381000,2019-10-29 20:30:00.000,1.3247734679999999E1,1.20646549217952E-1,2.2843E1,
1572381300,2019-10-29 20:35:00.000,1.3234271535E1,1.49718006860832E-1,2.2812E1,
1572381600,2019-10-29 20:40:00.000,1.3261197825E1,1.17739403453664E-1,2.2812E1,
1572381900,2019-10-29 20:45:00.000,1.3261197825E1,1.17012617012592E-1,2.2812E1,
1572382200,2019-10-29 20:50:00.000,1.3247734679999999E1,1.19192976335808E-1,2.2781E1,
1572382500,2019-10-29 20:55:00.000,1.3247734679999999E1,1.40996569567968E-1,2.2781E1,
