Time(longsecs),Time(UTC),Supply voltage(V),Total current(A),Temperature(&deg;C),
1572433200,2019-10-30 11:00:00.000,1.349007129E1,9.3755450898288E-2,2.0375E1,
1572433500,2019-10-30 11:05:00.000,1.3503534434999999E1,9.230187801614399E-2,2.0468E1,
1572433800,2019-10-30 11:10:00.000,1.3543923869999999E1,9.230187801614399E-2,2.0593E1,
1572434100,2019-10-30 11:15:00.000,1.351699758E1,1.0175010175008E-1,2.0687E1,
1572434400,2019-10-30 11:20:00.000,1.351699758E1,9.1575091575072E-2,2.0812E1,
1572434700,2019-10-30 11:25:00.000,1.351699758E1,9.230187801614399E-2,2.0937E1,
1572435000,2019-10-30 11:30:00.000,1.3503534434999999E1,9.3755450898288E-2,2.1E1,
1572435300,2019-10-30 11:35:00.000,1.349007129E1,9.3028664457216E-2,2.1093E1,
1572435600,2019-10-30 11:40:00.000,1.3476608145E1,9.230187801614399E-2,2.1218E1,
1572435900,2019-10-30 11:45:00.000,1.3503534434999999E1,1.06837606837584E-1,2.1281E1,
1572436200,2019-10-30 11:50:00.000,1.3543923869999999E1,1.2210012210009599E-1,2.1343E1,
1572436500,2019-10-30 11:55:00.000,1.3557387015E1,1.09744752601872E-1,2.1437E1,
