Time(longsecs),Time(UTC),Earth location,GNSS receiver status,GNSS satellites used,Timing status,Phase lock loop status,Time uncertainty(ns),Timing DAC count,Time quality(&#37;),Time error(ns),
1572285600,2019-10-28 18:00:00.000,47.63606N 0.562654E 156m,Off,6,Time OK,Free running,29600,9304,90,0,
1572285900,2019-10-28 18:05:00.000,47.63606N 0.562654E 156m,Off,6,Time OK,Free running,38700,9304,90,0,
1572286200,2019-10-28 18:10:00.000,47.63606N 0.562654E 156m,Off,6,Time OK,Free running,48500,9304,90,0,
1572286500,2019-10-28 18:15:00.000,47.63606N 0.562654E 156m,Off,8,Time OK,Free running,3300,9307,90,0,
1572286800,2019-10-28 18:20:00.000,47.63606N 0.562654E 156m,Off,8,Time OK,Free running,12000,9307,90,0,
1572287100,2019-10-28 18:25:00.000,47.63606N 0.562654E 156m,Off,8,Time OK,Free running,23200,9307,90,0,
1572287400,2019-10-28 18:30:00.000,47.63606N 0.562654E 156m,Off,8,Time OK,Free running,38300,9307,90,0,
1572287700,2019-10-28 18:35:00.000,47.63606N 0.562654E 156m,GNSS locked,4,Time OK,Coarse lock,200,9287,90,104,
1572288000,2019-10-28 18:40:00.000,47.63606N 0.562654E 156m,Off,4,Time OK,Free running,8500,9297,90,0,
1572288300,2019-10-28 18:45:00.000,47.63606N 0.562654E 156m,Off,4,Time OK,Free running,19500,9297,90,0,
1572288600,2019-10-28 18:50:00.000,47.63606N 0.562654E 156m,Off,4,Time OK,Free running,31400,9297,90,0,
1572288900,2019-10-28 18:55:00.000,47.63606N 0.562654E 156m,Off,4,Time OK,Free running,42800,9297,90,0,
