Time(longsecs),Time(UTC),Supply voltage(V),Total current(A),Temperature(&deg;C),
1571965200,2019-10-25 01:00:00.000,1.327466097E1,9.3755450898288E-2,2.2968E1,
1571965500,2019-10-25 01:05:00.000,1.327466097E1,9.3755450898288E-2,2.2843E1,
1571965800,2019-10-25 01:10:00.000,1.327466097E1,9.3755450898288E-2,2.2718E1,
1571966100,2019-10-25 01:15:00.000,1.327466097E1,9.3755450898288E-2,2.2625E1,
1571966400,2019-10-25 01:20:00.000,1.3247734679999999E1,1.25734054305456E-1,2.25E1,
1571966700,2019-10-25 01:25:00.000,1.327466097E1,9.448223733936E-2,2.2437E1,
1571967000,2019-10-25 01:30:00.000,1.327466097E1,9.3755450898288E-2,2.2343E1,
1571967300,2019-10-25 01:35:00.000,1.327466097E1,9.448223733936E-2,2.2218E1,
1571967600,2019-10-25 01:40:00.000,1.327466097E1,9.3755450898288E-2,2.2125E1,
1571967900,2019-10-25 01:45:00.000,1.327466097E1,9.593581022150399E-2,2.2062E1,
1571968200,2019-10-25 01:50:00.000,1.327466097E1,9.3755450898288E-2,2.2E1,
1571968500,2019-10-25 01:55:00.000,1.327466097E1,9.3755450898288E-2,2.1906E1,
