Time(longsecs),Time(UTC),Earth location,GNSS receiver status,GNSS satellites used,Timing status,Phase lock loop status,Time uncertainty(ns),Timing DAC count,Time quality(&#37;),Time error(ns),
1572170400,2019-10-27 10:00:00.000,47.63606N 0.562654E 156m,Off,8,Time OK,Free running,30500,9358,90,0,
1572170700,2019-10-27 10:05:00.000,47.63606N 0.562654E 156m,Off,8,Time OK,Free running,39100,9358,90,0,
1572171000,2019-10-27 10:10:00.000,47.63606N 0.562654E 156m,Off,8,Time OK,Free running,47700,9358,90,0,
1572171300,2019-10-27 10:15:00.000,47.63606N 0.562654E 156m,Off,9,Time OK,Free running,2600,9357,90,0,
1572171600,2019-10-27 10:20:00.000,47.63606N 0.562654E 156m,Off,9,Time OK,Free running,11700,9357,90,0,
1572171900,2019-10-27 10:25:00.000,47.63606N 0.562654E 156m,Off,9,Time OK,Free running,21500,9357,90,0,
1572172200,2019-10-27 10:30:00.000,47.63606N 0.562654E 156m,Off,9,Time OK,Free running,31600,9357,90,0,
1572172500,2019-10-27 10:35:00.000,47.63606N 0.562654E 156m,Off,9,Time OK,Free running,42200,9357,90,0,
1572172800,2019-10-27 10:40:00.000,47.63606N 0.562654E 156m,GNSS locked,9,Time OK,Coarse lock,100,9363,90,0,
1572173100,2019-10-27 10:45:00.000,47.63606N 0.562654E 156m,Off,9,Time OK,Free running,8200,9355,90,0,
1572173400,2019-10-27 10:50:00.000,47.63606N 0.562654E 156m,Off,9,Time OK,Free running,18600,9355,90,0,
1572173700,2019-10-27 10:55:00.000,47.63606N 0.562654E 156m,Off,9,Time OK,Free running,29900,9355,90,0,
