Time(longsecs),Time(UTC),Supply voltage(V),Total current(A),Temperature(&deg;C),
1570330800,2019-10-06 03:00:00.000,1.3126566375E1,1.21373335659024E-1,2.7937E1,
1570331100,2019-10-06 03:05:00.000,1.311310323E1,1.21373335659024E-1,2.7968E1,
1570331400,2019-10-06 03:10:00.000,1.311310323E1,1.1991976277688E-1,2.7937E1,
1570331700,2019-10-06 03:15:00.000,1.311310323E1,1.20646549217952E-1,2.7937E1,
1570332000,2019-10-06 03:20:00.000,1.3099640084999999E1,1.51898366184048E-1,2.7937E1,
1570332300,2019-10-06 03:25:00.000,1.311310323E1,1.18466189894736E-1,2.8E1,
1570332600,2019-10-06 03:30:00.000,1.311310323E1,1.1991976277688E-1,2.8E1,
1570332900,2019-10-06 03:35:00.000,1.311310323E1,1.19192976335808E-1,2.8031000000000002E1,
1570333200,2019-10-06 03:40:00.000,1.3099640084999999E1,1.19192976335808E-1,2.7968E1,
1570333500,2019-10-06 03:45:00.000,1.311310323E1,1.19192976335808E-1,2.7968E1,
1570333800,2019-10-06 03:50:00.000,1.3099640084999999E1,1.19192976335808E-1,2.7968E1,
1570334100,2019-10-06 03:55:00.000,1.3099640084999999E1,1.1991976277688E-1,2.7968E1,
