Time(longsecs),Time(UTC),Sensor SOH Voltage A 1(uV),Sensor SOH Voltage A 2(uV),Sensor SOH Voltage A 3(uV),External SOH Voltage 1(uV),External SOH Voltage 2(uV),External SOH Voltage 3(uV),
1571173200,2019-10-15 21:00:00.000,630548,,,,,,
1571173500,2019-10-15 21:05:00.000,630548,,,,,,
1571173800,2019-10-15 21:10:00.000,630548,,,,,,
1571174100,2019-10-15 21:15:00.000,630548,,,,,,
1571174400,2019-10-15 21:20:00.000,630548,,,,,,
1571174700,2019-10-15 21:25:00.000,630548,,,,,,
1571175000,2019-10-15 21:30:00.000,630548,,,,,,
1571175300,2019-10-15 21:35:00.000,630548,,,,,,
1571175600,2019-10-15 21:40:00.000,630548,,,,,,
1571175900,2019-10-15 21:45:00.000,630548,,,,,,
1571176200,2019-10-15 21:50:00.000,630548,,,,,,
1571176500,2019-10-15 21:55:00.000,630548,,,,,,
