Time(longsecs),Time(UTC),Sensor SOH Voltage A 1(uV),Sensor SOH Voltage A 2(uV),Sensor SOH Voltage A 3(uV),External SOH Voltage 1(uV),External SOH Voltage 2(uV),External SOH Voltage 3(uV),
1570791600,2019-10-11 11:00:00.000,640271,,,,,,
1570791900,2019-10-11 11:05:00.000,640271,,,,,,
1570792200,2019-10-11 11:10:00.000,640271,,,,,,
1570792500,2019-10-11 11:15:00.000,640271,,,,,,
1570792800,2019-10-11 11:20:00.000,640271,,,,,,
1570793100,2019-10-11 11:25:00.000,640271,,,,,,
1570793400,2019-10-11 11:30:00.000,640271,,,,,,
1570793700,2019-10-11 11:35:00.000,640271,,,,,,
1570794000,2019-10-11 11:40:00.000,640271,,,,,,
1570794300,2019-10-11 11:45:00.000,640271,,,,,,
1570794600,2019-10-11 11:50:00.000,640271,,,,,,
1570794900,2019-10-11 11:55:00.000,640271,,,,,,
