Time(longsecs),Time(UTC),Supply voltage(V),Total current(A),Temperature(&deg;C),
1570233600,2019-10-05 00:00:00.000,1.3234271535E1,1.2210012210009599E-1,2.7906E1,
1570233900,2019-10-05 00:05:00.000,1.3234271535E1,1.1991976277688E-1,2.7906E1,
1570234200,2019-10-05 00:10:00.000,1.3234271535E1,1.17739403453664E-1,2.7875E1,
1570234500,2019-10-05 00:15:00.000,1.3234271535E1,1.18466189894736E-1,2.7875E1,
1570234800,2019-10-05 00:20:00.000,1.3220808389999998E1,1.49718006860832E-1,2.7843E1,
1570235100,2019-10-05 00:25:00.000,1.3234271535E1,1.18466189894736E-1,2.7875E1,
1570235400,2019-10-05 00:30:00.000,1.3234271535E1,1.18466189894736E-1,2.7906E1,
1570235700,2019-10-05 00:35:00.000,1.3234271535E1,1.1991976277688E-1,2.7875E1,
1570236000,2019-10-05 00:40:00.000,1.3234271535E1,1.271876271876E-1,2.7843E1,
1570236300,2019-10-05 00:45:00.000,1.3234271535E1,1.17739403453664E-1,2.7812E1,
1570236600,2019-10-05 00:50:00.000,1.3234271535E1,1.1991976277688E-1,2.7843E1,
1570236900,2019-10-05 00:55:00.000,1.3234271535E1,1.19192976335808E-1,2.7812E1,
