Time(longsecs),Time(UTC),Earth location,GNSS receiver status,GNSS satellites used,Timing status,Phase lock loop status,Time uncertainty(ns),Timing DAC count,Time quality(&#37;),Time error(ns),
1571450400,2019-10-19 02:00:00.000,47.636006N 0.562572E 156m,Off,5,Time OK,Free running,44800,9304,90,0,
1571450700,2019-10-19 02:05:00.000,47.636006N 0.562572E 156m,Off,7,Time OK,Free running,2200,9308,90,0,
1571451000,2019-10-19 02:10:00.000,47.636006N 0.562572E 156m,Off,7,Time OK,Free running,10800,9308,90,0,
1571451300,2019-10-19 02:15:00.000,47.636006N 0.562572E 156m,Off,7,Time OK,Free running,20600,9308,90,0,
1571451600,2019-10-19 02:20:00.000,47.636006N 0.562572E 156m,Off,7,Time OK,Free running,31900,9308,90,0,
1571451900,2019-10-19 02:25:00.000,47.636006N 0.562572E 156m,Off,7,Time OK,Free running,44400,9308,90,0,
1571452200,2019-10-19 02:30:00.000,47.636006N 0.562572E 156m,Off,7,Time OK,Free running,1500,9313,90,0,
1571452500,2019-10-19 02:35:00.000,47.636006N 0.562572E 156m,Off,7,Time OK,Free running,10200,9313,90,0,
1571452800,2019-10-19 02:40:00.000,47.636006N 0.562572E 156m,Off,7,Time OK,Free running,19400,9313,90,0,
1571453100,2019-10-19 02:45:00.000,47.636006N 0.562572E 156m,Off,7,Time OK,Free running,29800,9313,90,0,
1571453400,2019-10-19 02:50:00.000,47.636006N 0.562572E 156m,Off,7,Time OK,Free running,41400,9313,90,0,
1571453700,2019-10-19 02:55:00.000,47.636006N 0.562572E 156m,GNSS locked,5,Time OK,Coarse lock,500,9275,90,416,
