Time(longsecs),Time(UTC),Supply voltage(V),Total current(A),Temperature(&deg;C),
1571094000,2019-10-14 23:00:00.000,1.3234271535E1,1.18466189894736E-1,3.0E1,
1571094300,2019-10-14 23:05:00.000,1.3220808389999998E1,1.49718006860832E-1,2.9968E1,
1571094600,2019-10-14 23:10:00.000,1.3234271535E1,1.17739403453664E-1,2.9937E1,
1571094900,2019-10-14 23:15:00.000,1.3234271535E1,1.17739403453664E-1,2.9906000000000002E1,
1571095200,2019-10-14 23:20:00.000,1.3234271535E1,1.1991976277688E-1,2.9843E1,
1571095500,2019-10-14 23:25:00.000,1.3234271535E1,1.3227513227510398E-1,2.9781000000000002E1,
1571095800,2019-10-14 23:30:00.000,1.3234271535E1,1.1991976277688E-1,2.9781000000000002E1,
1571096100,2019-10-14 23:35:00.000,1.3234271535E1,1.1991976277688E-1,2.975E1,
1571096400,2019-10-14 23:40:00.000,1.3234271535E1,1.20646549217952E-1,2.975E1,
1571096700,2019-10-14 23:45:00.000,1.3234271535E1,1.17739403453664E-1,2.9687E1,
1571097000,2019-10-14 23:50:00.000,1.3220808389999998E1,1.20646549217952E-1,2.9625E1,
1571097300,2019-10-14 23:55:00.000,1.3220808389999998E1,1.1991976277688E-1,2.9593E1,
