Time(longsecs),Time(UTC),Sensor SOH Voltage A 1(uV),Sensor SOH Voltage A 2(uV),Sensor SOH Voltage A 3(uV),External SOH Voltage 1(uV),External SOH Voltage 2(uV),External SOH Voltage 3(uV),
1572310800,2019-10-29 01:00:00.000,601377,,,,,,
1572311100,2019-10-29 01:05:00.000,591654,,,,,,
1572311400,2019-10-29 01:10:00.000,601377,,,,,,
1572311700,2019-10-29 01:15:00.000,601377,,,,,,
1572312000,2019-10-29 01:20:00.000,601377,,,,,,
1572312300,2019-10-29 01:25:00.000,601377,,,,,,
1572312600,2019-10-29 01:30:00.000,591654,,,,,,
1572312900,2019-10-29 01:35:00.000,601377,,,,,,
1572313200,2019-10-29 01:40:00.000,601377,,,,,,
1572313500,2019-10-29 01:45:00.000,601377,,,,,,
1572313800,2019-10-29 01:50:00.000,601377,,,,,,
1572314100,2019-10-29 01:55:00.000,591654,,,,,,
