Time(longsecs),Time(UTC),Sensor SOH Voltage A 1(uV),Sensor SOH Voltage A 2(uV),Sensor SOH Voltage A 3(uV),External SOH Voltage 1(uV),External SOH Voltage 2(uV),External SOH Voltage 3(uV),
1571612400,2019-10-20 23:00:00.000,611101,,,,,,
1571612700,2019-10-20 23:05:00.000,611101,,,,,,
1571613000,2019-10-20 23:10:00.000,611101,,,,,,
1571613300,2019-10-20 23:15:00.000,611101,,,,,,
1571613600,2019-10-20 23:20:00.000,611101,,,,,,
1571613900,2019-10-20 23:25:00.000,611101,,,,,,
1571614200,2019-10-20 23:30:00.000,611101,,,,,,
1571614500,2019-10-20 23:35:00.000,611101,,,,,,
1571614800,2019-10-20 23:40:00.000,611101,,,,,,
1571615100,2019-10-20 23:45:00.000,611101,,,,,,
1571615400,2019-10-20 23:50:00.000,611101,,,,,,
1571615700,2019-10-20 23:55:00.000,611101,,,,,,
