Time(longsecs),Time(UTC),Earth location,GNSS receiver status,GNSS satellites used,Timing status,Phase lock loop status,Time uncertainty(ns),Timing DAC count,Time quality(&#37;),Time error(ns),
1572102000,2019-10-26 15:00:00.000,47.63606N 0.562654E 156m,Off,4,Time OK,Free running,16000,9119,90,0,
1572102300,2019-10-26 15:05:00.000,47.63606N 0.562654E 156m,Off,4,Time OK,Free running,29600,9119,90,0,
1572102600,2019-10-26 15:10:00.000,47.63606N 0.562654E 156m,Off,4,Time OK,Free running,46600,9119,90,0,
1572102900,2019-10-26 15:15:00.000,47.63606N 0.562654E 156m,Off,4,Time OK,Free running,4400,9129,90,0,
1572103200,2019-10-26 15:20:00.000,47.63606N 0.562654E 156m,Off,4,Time OK,Free running,16200,9129,90,0,
1572103500,2019-10-26 15:25:00.000,47.63606N 0.562654E 156m,Off,4,Time OK,Free running,30700,9129,90,0,
1572103800,2019-10-26 15:30:00.000,47.63606N 0.562654E 156m,Off,4,Time OK,Free running,48800,9129,90,0,
1572104100,2019-10-26 15:35:00.000,47.63606N 0.562654E 156m,Off,6,Time OK,Free running,5300,9144,90,0,
1572104400,2019-10-26 15:40:00.000,47.63606N 0.562654E 156m,Off,6,Time OK,Free running,17000,9144,90,0,
1572104700,2019-10-26 15:45:00.000,47.63606N 0.562654E 156m,Off,6,Time OK,Free running,32100,9144,90,0,
1572105000,2019-10-26 15:50:00.000,47.63606N 0.562654E 156m,GNSS unlocked,0,Time OK,Free running,51100,9144,90,0,
1572105300,2019-10-26 15:55:00.000,47.63606N 0.562654E 156m,Off,5,Time OK,Free running,3400,9167,90,0,
