Time(longsecs),Time(UTC),Earth location,GNSS receiver status,GNSS satellites used,Timing status,Phase lock loop status,Time uncertainty(ns),Timing DAC count,Time quality(&#37;),Time error(ns),
1570449600,2019-10-07 12:00:00.000,47.635906N 0.562667E 170m,Off,10,Time OK,Free running,34200,9100,90,0,
1570449900,2019-10-07 12:05:00.000,47.635906N 0.562667E 170m,GNSS locked,10,Time OK,Coarse lock,1200,8970,90,1145,
1570450200,2019-10-07 12:10:00.000,47.635906N 0.562667E 170m,Off,10,Time OK,Free running,9100,9083,90,0,
1570450500,2019-10-07 12:15:00.000,47.635906N 0.562667E 170m,Off,10,Time OK,Free running,24300,9083,90,0,
1570450800,2019-10-07 12:20:00.000,47.635906N 0.562667E 170m,Off,10,Time OK,Free running,43400,9083,90,0,
1570451100,2019-10-07 12:25:00.000,47.635906N 0.562667E 170m,Off,10,Time OK,Free running,2800,9068,90,0,
1570451400,2019-10-07 12:30:00.000,47.635906N 0.562667E 170m,Off,10,Time OK,Free running,14000,9068,90,0,
1570451700,2019-10-07 12:35:00.000,47.635906N 0.562667E 170m,Off,10,Time OK,Free running,28100,9068,90,0,
1570452000,2019-10-07 12:40:00.000,47.635906N 0.562667E 170m,Off,10,Time OK,Free running,45000,9068,90,0,
1570452300,2019-10-07 12:45:00.000,47.635906N 0.562667E 170m,Off,10,Time OK,Free running,2500,9057,90,0,
1570452600,2019-10-07 12:50:00.000,47.635906N 0.562667E 170m,Off,10,Time OK,Free running,12300,9057,90,0,
1570452900,2019-10-07 12:55:00.000,47.635906N 0.562667E 170m,Off,10,Time OK,Free running,23500,9057,90,0,
