Time(longsecs),Time(UTC),Sensor SOH Voltage A 1(uV),Sensor SOH Voltage A 2(uV),Sensor SOH Voltage A 3(uV),External SOH Voltage 1(uV),External SOH Voltage 2(uV),External SOH Voltage 3(uV),
1571608800,2019-10-20 22:00:00.000,611101,,,,,,
1571609100,2019-10-20 22:05:00.000,611101,,,,,,
1571609400,2019-10-20 22:10:00.000,611101,,,,,,
1571609700,2019-10-20 22:15:00.000,611101,,,,,,
1571610000,2019-10-20 22:20:00.000,611101,,,,,,
1571610300,2019-10-20 22:25:00.000,611101,,,,,,
1571610600,2019-10-20 22:30:00.000,611101,,,,,,
1571610900,2019-10-20 22:35:00.000,611101,,,,,,
1571611200,2019-10-20 22:40:00.000,611101,,,,,,
1571611500,2019-10-20 22:45:00.000,611101,,,,,,
1571611800,2019-10-20 22:50:00.000,611101,,,,,,
1571612100,2019-10-20 22:55:00.000,611101,,,,,,
