Time(longsecs),Time(UTC),Supply voltage(V),Total current(A),Temperature(&deg;C),
1570500000,2019-10-08 02:00:00.000,1.3207345244999999E1,1.1991976277688E-1,2.7875E1,
1570500300,2019-10-08 02:05:00.000,1.3207345244999999E1,1.19192976335808E-1,2.7875E1,
1570500600,2019-10-08 02:10:00.000,1.3207345244999999E1,1.18466189894736E-1,2.7875E1,
1570500900,2019-10-08 02:15:00.000,1.3207345244999999E1,1.19192976335808E-1,2.7843E1,
1570501200,2019-10-08 02:20:00.000,1.31938821E1,1.5262515262512E-1,2.7843E1,
1570501500,2019-10-08 02:25:00.000,1.3207345244999999E1,1.1991976277688E-1,2.7875E1,
1570501800,2019-10-08 02:30:00.000,1.3207345244999999E1,1.18466189894736E-1,2.7875E1,
1570502100,2019-10-08 02:35:00.000,1.3207345244999999E1,1.1991976277688E-1,2.7906E1,
1570502400,2019-10-08 02:40:00.000,1.3207345244999999E1,1.19192976335808E-1,2.7906E1,
1570502700,2019-10-08 02:45:00.000,1.3207345244999999E1,1.21373335659024E-1,2.7906E1,
1570503000,2019-10-08 02:50:00.000,1.3180418954999999E1,1.51898366184048E-1,2.7875E1,
1570503300,2019-10-08 02:55:00.000,1.31938821E1,1.18466189894736E-1,2.7937E1,
