Time(longsecs),Time(UTC),Supply voltage(V),Total current(A),Temperature(&deg;C),
1571493600,2019-10-19 14:00:00.000,1.3759334189999999E1,1.22826908541168E-1,3.1468E1,
1571493900,2019-10-19 14:05:00.000,1.3772797335E1,9.1575091575072E-2,3.1593E1,
1571494200,2019-10-19 14:10:00.000,1.378626048E1,9.1575091575072E-2,3.1656000000000002E1,
1571494500,2019-10-19 14:15:00.000,1.3772797335E1,9.1575091575072E-2,3.1687E1,
1571494800,2019-10-19 14:20:00.000,1.378626048E1,9.3028664457216E-2,3.1718E1,
1571495100,2019-10-19 14:25:00.000,1.3759334189999999E1,1.26460840746528E-1,3.1718E1,
1571495400,2019-10-19 14:30:00.000,1.378626048E1,9.1575091575072E-2,3.1718E1,
1571495700,2019-10-19 14:35:00.000,1.3772797335E1,9.0848305134E-2,3.1687E1,
1571496000,2019-10-19 14:40:00.000,1.3772797335E1,9.230187801614399E-2,3.1625E1,
1571496300,2019-10-19 14:45:00.000,1.3772797335E1,9.1575091575072E-2,3.15E1,
1571496600,2019-10-19 14:50:00.000,1.378626048E1,9.230187801614399E-2,3.1468E1,
1571496900,2019-10-19 14:55:00.000,1.378626048E1,9.0848305134E-2,3.1406000000000002E1,
