Time(longsecs),Time(UTC),Earth location,GNSS receiver status,GNSS satellites used,Timing status,Phase lock loop status,Time uncertainty(ns),Timing DAC count,Time quality(&#37;),Time error(ns),
1571338800,2019-10-17 19:00:00.000,47.635993N 0.562475E 138m,Off,6,Time OK,Free running,46900,9197,90,0,
1571339100,2019-10-17 19:05:00.000,47.635993N 0.562475E 138m,Off,5,Time OK,Free running,4000,9204,90,0,
1571339400,2019-10-17 19:10:00.000,47.635993N 0.562475E 138m,Off,5,Time OK,Free running,15300,9204,90,0,
1571339700,2019-10-17 19:15:00.000,47.635993N 0.562475E 138m,Off,5,Time OK,Free running,29600,9204,90,0,
1571340000,2019-10-17 19:20:00.000,47.635993N 0.562475E 138m,Off,5,Time OK,Free running,47000,9204,90,0,
1571340300,2019-10-17 19:25:00.000,47.635993N 0.562475E 138m,Off,4,Time OK,Free running,1300,9210,90,0,
1571340600,2019-10-17 19:30:00.000,47.635993N 0.562475E 138m,Off,4,Time OK,Free running,10200,9210,90,0,
1571340900,2019-10-17 19:35:00.000,47.635993N 0.562475E 138m,Off,4,Time OK,Free running,21000,9210,90,0,
1571341200,2019-10-17 19:40:00.000,47.635993N 0.562475E 138m,Off,4,Time OK,Free running,34500,9210,90,0,
1571341500,2019-10-17 19:45:00.000,47.635993N 0.562475E 138m,GNSS unlocked,4,Time OK,Free running,50600,9210,90,0,
1571341800,2019-10-17 19:50:00.000,47.635993N 0.562475E 138m,Off,9,Time OK,Free running,5400,9221,90,0,
1571342100,2019-10-17 19:55:00.000,47.635993N 0.562475E 138m,Off,9,Time OK,Free running,15100,9221,90,0,
