Time(longsecs),Time(UTC),Sensor SOH Voltage A 1(uV),Sensor SOH Voltage A 2(uV),Sensor SOH Voltage A 3(uV),External SOH Voltage 1(uV),External SOH Voltage 2(uV),External SOH Voltage 3(uV),
1572030000,2019-10-25 19:00:00.000,591654,,,,,,
1572030300,2019-10-25 19:05:00.000,591654,,,,,,
1572030600,2019-10-25 19:10:00.000,591654,,,,,,
1572030900,2019-10-25 19:15:00.000,591654,,,,,,
1572031200,2019-10-25 19:20:00.000,591654,,,,,,
1572031500,2019-10-25 19:25:00.000,591654,,,,,,
1572031800,2019-10-25 19:30:00.000,591654,,,,,,
1572032100,2019-10-25 19:35:00.000,591654,,,,,,
1572032400,2019-10-25 19:40:00.000,591654,,,,,,
1572032700,2019-10-25 19:45:00.000,591654,,,,,,
1572033000,2019-10-25 19:50:00.000,591654,,,,,,
1572033300,2019-10-25 19:55:00.000,591654,,,,,,
