Time(longsecs),Time(UTC),Sensor SOH Voltage A 1(uV),Sensor SOH Voltage A 2(uV),Sensor SOH Voltage A 3(uV),External SOH Voltage 1(uV),External SOH Voltage 2(uV),External SOH Voltage 3(uV),
1571482800,2019-10-19 11:00:00.000,620824,,,,,,
1571483100,2019-10-19 11:05:00.000,611101,,,,,,
1571483400,2019-10-19 11:10:00.000,620824,,,,,,
1571483700,2019-10-19 11:15:00.000,620824,,,,,,
1571484000,2019-10-19 11:20:00.000,620824,,,,,,
1571484300,2019-10-19 11:25:00.000,620824,,,,,,
1571484600,2019-10-19 11:30:00.000,620824,,,,,,
1571484900,2019-10-19 11:35:00.000,620824,,,,,,
1571485200,2019-10-19 11:40:00.000,620824,,,,,,
1571485500,2019-10-19 11:45:00.000,620824,,,,,,
1571485800,2019-10-19 11:50:00.000,611101,,,,,,
1571486100,2019-10-19 11:55:00.000,611101,,,,,,
