Time(longsecs),Time(UTC),Earth location,GNSS receiver status,GNSS satellites used,Timing status,Phase lock loop status,Time uncertainty(ns),Timing DAC count,Time quality(&#37;),Time error(ns),
1571050800,2019-10-14 11:00:00.000,47.635993N 0.562475E 138m,Off,8,Time OK,Free running,26800,9047,90,0,
1571051100,2019-10-14 11:05:00.000,47.635993N 0.562475E 138m,Off,8,Time OK,Free running,38900,9047,90,0,
1571051400,2019-10-14 11:10:00.000,47.635993N 0.562475E 138m,GNSS locked,8,Time OK,Coarse lock,3300,8721,90,3229,
1571051700,2019-10-14 11:15:00.000,47.635993N 0.562475E 138m,Off,10,Time OK,Free running,7700,9038,90,0,
1571052000,2019-10-14 11:20:00.000,47.635993N 0.562475E 138m,Off,10,Time OK,Free running,19500,9038,90,0,
1571052300,2019-10-14 11:25:00.000,47.635993N 0.562475E 138m,Off,10,Time OK,Free running,33300,9038,90,0,
1571052600,2019-10-14 11:30:00.000,47.635993N 0.562475E 138m,Off,10,Time OK,Free running,48500,9038,90,0,
1571052900,2019-10-14 11:35:00.000,47.635993N 0.562475E 138m,Off,10,Time OK,Free running,4600,9029,90,0,
1571053200,2019-10-14 11:40:00.000,47.635993N 0.562475E 138m,Off,10,Time OK,Free running,15600,9029,90,0,
1571053500,2019-10-14 11:45:00.000,47.635993N 0.562475E 138m,Off,10,Time OK,Free running,29400,9029,90,0,
1571053800,2019-10-14 11:50:00.000,47.635993N 0.562475E 138m,Off,10,Time OK,Free running,46400,9029,90,0,
1571054100,2019-10-14 11:55:00.000,47.635993N 0.562475E 138m,Off,10,Time OK,Free running,600,9022,90,0,
