Time(longsecs),Time(UTC),Earth location,GNSS receiver status,GNSS satellites used,Timing status,Phase lock loop status,Time uncertainty(ns),Timing DAC count,Time quality(&#37;),Time error(ns),
1570723200,2019-10-10 16:00:00.000,47.635855N 0.562879E 185m,Off,7,Time OK,Free running,10400,9019,90,0,
1570723500,2019-10-10 16:05:00.000,47.635855N 0.562879E 185m,Off,7,Time OK,Free running,22700,9019,90,0,
1570723800,2019-10-10 16:10:00.000,47.635855N 0.562879E 185m,Off,7,Time OK,Free running,37900,9019,90,0,
1570724100,2019-10-10 16:15:00.000,47.635855N 0.562879E 185m,GNSS locked,7,Time OK,Fine lock,100,9032,100,104,
1570724400,2019-10-10 16:20:00.000,47.635855N 0.562879E 185m,Off,7,Time OK,Free running,9900,9031,90,0,
1570724700,2019-10-10 16:25:00.000,47.635855N 0.562879E 185m,Off,7,Time OK,Free running,23500,9031,90,0,
1570725000,2019-10-10 16:30:00.000,47.635855N 0.562879E 185m,Off,7,Time OK,Free running,41100,9031,90,0,
1570725300,2019-10-10 16:35:00.000,47.635855N 0.562879E 185m,GNSS locked,7,Time OK,Fine lock,200,9043,100,0,
1570725600,2019-10-10 16:40:00.000,47.635855N 0.562879E 185m,Off,7,Time OK,Free running,9600,9046,90,0,
1570725900,2019-10-10 16:45:00.000,47.635855N 0.562879E 185m,Off,7,Time OK,Free running,22800,9046,90,0,
1570726200,2019-10-10 16:50:00.000,47.635855N 0.562879E 185m,Off,7,Time OK,Free running,39800,9046,90,0,
1570726500,2019-10-10 16:55:00.000,47.635855N 0.562879E 185m,Off,6,Time OK,Free running,600,9064,90,0,
