Time(longsecs),Time(UTC),Supply voltage(V),Total current(A),Temperature(&deg;C),
1570543200,2019-10-08 14:00:00.000,1.3463144999999999E1,1.48264433978688E-1,3.3218E1,
1570543500,2019-10-08 14:05:00.000,1.3463144999999999E1,1.17012617012592E-1,3.3312E1,
1570543800,2019-10-08 14:10:00.000,1.3449681855E1,1.1628583057152E-1,3.3406E1,
1570544100,2019-10-08 14:15:00.000,1.340929242E1,1.18466189894736E-1,3.3437E1,
1570544400,2019-10-08 14:20:00.000,1.3395829274999999E1,1.18466189894736E-1,3.35E1,
1570544700,2019-10-08 14:25:00.000,1.338236613E1,1.17012617012592E-1,3.3593E1,
1570545000,2019-10-08 14:30:00.000,1.3395829274999999E1,1.17012617012592E-1,3.3593E1,
1570545300,2019-10-08 14:35:00.000,1.3355439839999999E1,1.18466189894736E-1,3.3656E1,
1570545600,2019-10-08 14:40:00.000,1.3355439839999999E1,1.17012617012592E-1,3.3656E1,
1570545900,2019-10-08 14:45:00.000,1.3341976695E1,1.17739403453664E-1,3.3687E1,
1570546200,2019-10-08 14:50:00.000,1.3355439839999999E1,1.21373335659024E-1,3.3687E1,
1570546500,2019-10-08 14:55:00.000,1.3341976695E1,1.1991976277688E-1,3.3687E1,
