Time(longsecs),Time(UTC),Supply voltage(V),Total current(A),Temperature(&deg;C),
1571443200,2019-10-19 00:00:00.000,1.3261197825E1,1.19192976335808E-1,2.7156E1,
1571443500,2019-10-19 00:05:00.000,1.3261197825E1,1.17739403453664E-1,2.7156E1,
1571443800,2019-10-19 00:10:00.000,1.3261197825E1,1.20646549217952E-1,2.7125E1,
1571444100,2019-10-19 00:15:00.000,1.3261197825E1,1.1991976277688E-1,2.7093E1,
1571444400,2019-10-19 00:20:00.000,1.3247734679999999E1,1.51898366184048E-1,2.7062E1,
1571444700,2019-10-19 00:25:00.000,1.3261197825E1,1.17739403453664E-1,2.7093E1,
1571445000,2019-10-19 00:30:00.000,1.327466097E1,9.811616954472E-2,2.6687E1,
1571445300,2019-10-19 00:35:00.000,1.327466097E1,9.3755450898288E-2,2.6156E1,
1571445600,2019-10-19 00:40:00.000,1.327466097E1,1.06837606837584E-1,2.5812E1,
1571445900,2019-10-19 00:45:00.000,1.327466097E1,9.448223733936E-2,2.5562E1,
1571446200,2019-10-19 00:50:00.000,1.327466097E1,9.448223733936E-2,2.5375E1,
1571446500,2019-10-19 00:55:00.000,1.3261197825E1,1.25007267864384E-1,2.5218E1,
