Time(longsecs),Time(UTC),Earth location,GNSS receiver status,GNSS satellites used,Timing status,Phase lock loop status,Time uncertainty(ns),Timing DAC count,Time quality(&#37;),Time error(ns),
1571378400,2019-10-18 06:00:00.000,47.635993N 0.562475E 138m,Off,6,Time OK,Free running,48100,9321,90,0,
1571378700,2019-10-18 06:05:00.000,47.635993N 0.562475E 138m,Off,7,Time OK,Free running,1200,9334,90,0,
1571379000,2019-10-18 06:10:00.000,47.635993N 0.562475E 138m,Off,7,Time OK,Free running,9800,9334,90,0,
1571379300,2019-10-18 06:15:00.000,47.635993N 0.562475E 138m,Off,7,Time OK,Free running,18900,9334,90,0,
1571379600,2019-10-18 06:20:00.000,47.635993N 0.562475E 138m,Off,7,Time OK,Free running,29500,9334,90,0,
1571379900,2019-10-18 06:25:00.000,47.635993N 0.562475E 138m,Off,7,Time OK,Free running,41500,9334,90,0,
1571380200,2019-10-18 06:30:00.000,47.635993N 0.562475E 138m,GNSS locked,5,Time OK,Coarse lock,200,9320,90,104,
1571380500,2019-10-18 06:35:00.000,47.635993N 0.562475E 138m,Off,6,Time OK,Free running,8000,9325,90,0,
1571380800,2019-10-18 06:40:00.000,47.635993N 0.562475E 138m,Off,6,Time OK,Free running,17900,9325,90,0,
1571381100,2019-10-18 06:45:00.000,47.635993N 0.562475E 138m,Off,6,Time OK,Free running,28900,9325,90,0,
1571381400,2019-10-18 06:50:00.000,47.635993N 0.562475E 138m,Off,6,Time OK,Free running,41100,9325,90,0,
1571381700,2019-10-18 06:55:00.000,47.635993N 0.562475E 138m,GNSS locked,6,Time OK,Coarse lock,100,9332,90,0,
