Time(longsecs),Time(UTC),Sensor SOH Voltage A 1(uV),Sensor SOH Voltage A 2(uV),Sensor SOH Voltage A 3(uV),External SOH Voltage 1(uV),External SOH Voltage 2(uV),External SOH Voltage 3(uV),
1572148800,2019-10-27 04:00:00.000,591654,,,,,,
1572149100,2019-10-27 04:05:00.000,591654,,,,,,
1572149400,2019-10-27 04:10:00.000,591654,,,,,,
1572149700,2019-10-27 04:15:00.000,591654,,,,,,
1572150000,2019-10-27 04:20:00.000,591654,,,,,,
1572150300,2019-10-27 04:25:00.000,591654,,,,,,
1572150600,2019-10-27 04:30:00.000,591654,,,,,,
1572150900,2019-10-27 04:35:00.000,591654,,,,,,
1572151200,2019-10-27 04:40:00.000,591654,,,,,,
1572151500,2019-10-27 04:45:00.000,591654,,,,,,
1572151800,2019-10-27 04:50:00.000,591654,,,,,,
1572152100,2019-10-27 04:55:00.000,591654,,,,,,
