Time(longsecs),Time(UTC),Earth location,GNSS receiver status,GNSS satellites used,Timing status,Phase lock loop status,Time uncertainty(ns),Timing DAC count,Time quality(&#37;),Time error(ns),
1571914800,2019-10-24 11:00:00.000,47.635977N 0.562719E 174m,Off,6,Time OK,Free running,6500,9288,90,0,
1571915100,2019-10-24 11:05:00.000,47.635977N 0.562719E 174m,Off,6,Time OK,Free running,22700,9288,90,0,
1571915400,2019-10-24 11:10:00.000,47.635977N 0.562719E 174m,Off,6,Time OK,Free running,46100,9288,90,0,
1571915700,2019-10-24 11:15:00.000,47.635977N 0.562719E 174m,Off,7,Time OK,Free running,4700,9272,90,0,
1571916000,2019-10-24 11:20:00.000,47.635977N 0.562719E 174m,Off,7,Time OK,Free running,20900,9272,90,0,
1571916300,2019-10-24 11:25:00.000,47.635977N 0.562719E 174m,Off,7,Time OK,Free running,44600,9272,90,0,
1571916600,2019-10-24 11:30:00.000,47.635977N 0.562719E 174m,Off,7,Time OK,Free running,3000,9254,90,0,
1571916900,2019-10-24 11:35:00.000,47.635977N 0.562719E 174m,Off,7,Time OK,Free running,16700,9254,90,0,
1571917200,2019-10-24 11:40:00.000,47.635977N 0.562719E 174m,Off,7,Time OK,Free running,36200,9254,90,0,
1571917500,2019-10-24 11:45:00.000,47.635977N 0.562719E 174m,Off,8,Time OK,Free running,400,9245,90,0,
1571917800,2019-10-24 11:50:00.000,47.635977N 0.562719E 174m,Off,8,Time OK,Free running,11600,9245,90,0,
1571918100,2019-10-24 11:55:00.000,47.635977N 0.562719E 174m,Off,8,Time OK,Free running,27500,9245,90,0,
