Time(longsecs),Time(UTC),Supply voltage(V),Total current(A),Temperature(&deg;C),
1571562000,2019-10-20 09:00:00.000,1.3328513549999998E1,9.5209023780432E-2,2.1812E1,
1571562300,2019-10-20 09:05:00.000,1.3328513549999998E1,9.3028664457216E-2,2.1875E1,
1571562600,2019-10-20 09:10:00.000,1.3355439839999999E1,9.5209023780432E-2,2.1906E1,
1571562900,2019-10-20 09:15:00.000,1.3368902985E1,1.01023315309008E-1,2.1906E1,
1571563200,2019-10-20 09:20:00.000,1.3368902985E1,1.271876271876E-1,2.1937E1,
1571563500,2019-10-20 09:25:00.000,1.3395829274999999E1,9.593581022150399E-2,2.1968E1,
1571563800,2019-10-20 09:30:00.000,1.340929242E1,9.448223733936E-2,2.2E1,
1571564100,2019-10-20 09:35:00.000,1.3422755565E1,9.5209023780432E-2,2.2062E1,
1571564400,2019-10-20 09:40:00.000,1.3422755565E1,1.04657247514368E-1,2.2093E1,
1571564700,2019-10-20 09:45:00.000,1.3422755565E1,1.24280481423312E-1,2.2156E1,
1571565000,2019-10-20 09:50:00.000,1.3436218709999999E1,9.5209023780432E-2,2.2218E1,
1571565300,2019-10-20 09:55:00.000,1.3463144999999999E1,9.230187801614399E-2,2.2281E1,
