Time(longsecs),Time(UTC),Sensor SOH Voltage A 1(uV),Sensor SOH Voltage A 2(uV),Sensor SOH Voltage A 3(uV),External SOH Voltage 1(uV),External SOH Voltage 2(uV),External SOH Voltage 3(uV),
1571068800,2019-10-14 16:00:00.000,630548,,,,,,
1571069100,2019-10-14 16:05:00.000,630548,,,,,,
1571069400,2019-10-14 16:10:00.000,630548,,,,,,
1571069700,2019-10-14 16:15:00.000,630548,,,,,,
1571070000,2019-10-14 16:20:00.000,630548,,,,,,
1571070300,2019-10-14 16:25:00.000,630548,,,,,,
1571070600,2019-10-14 16:30:00.000,630548,,,,,,
1571070900,2019-10-14 16:35:00.000,630548,,,,,,
1571071200,2019-10-14 16:40:00.000,630548,,,,,,
1571071500,2019-10-14 16:45:00.000,630548,,,,,,
1571071800,2019-10-14 16:50:00.000,630548,,,,,,
1571072100,2019-10-14 16:55:00.000,630548,,,,,,
