Time(longsecs),Time(UTC),Earth location,GNSS receiver status,GNSS satellites used,Timing status,Phase lock loop status,Time uncertainty(ns),Timing DAC count,Time quality(&#37;),Time error(ns),
1572292800,2019-10-28 20:00:00.000,47.63606N 0.562654E 156m,Off,7,Time OK,Free running,23100,9310,90,0,
1572293100,2019-10-28 20:05:00.000,47.63606N 0.562654E 156m,Off,7,Time OK,Free running,34100,9310,90,0,
1572293400,2019-10-28 20:10:00.000,47.63606N 0.562654E 156m,Off,7,Time OK,Free running,46400,9310,90,0,
1572293700,2019-10-28 20:15:00.000,47.63606N 0.562654E 156m,Off,7,Time OK,Free running,2800,9315,90,0,
1572294000,2019-10-28 20:20:00.000,47.63606N 0.562654E 156m,Off,7,Time OK,Free running,11900,9315,90,0,
1572294300,2019-10-28 20:25:00.000,47.63606N 0.562654E 156m,Off,7,Time OK,Free running,21900,9315,90,0,
1572294600,2019-10-28 20:30:00.000,47.63606N 0.562654E 156m,Off,7,Time OK,Free running,33100,9315,90,0,
1572294900,2019-10-28 20:35:00.000,47.63606N 0.562654E 156m,Off,7,Time OK,Free running,45400,9315,90,0,
1572295200,2019-10-28 20:40:00.000,47.63606N 0.562654E 156m,Off,7,Time OK,Free running,2200,9318,90,0,
1572295500,2019-10-28 20:45:00.000,47.63606N 0.562654E 156m,Off,7,Time OK,Free running,10900,9318,90,0,
1572295800,2019-10-28 20:50:00.000,47.63606N 0.562654E 156m,Off,7,Time OK,Free running,19700,9318,90,0,
1572296100,2019-10-28 20:55:00.000,47.63606N 0.562654E 156m,Off,7,Time OK,Free running,29700,9318,90,0,
