Time(longsecs),Time(UTC),Supply voltage(V),Total current(A),Temperature(&deg;C),
1572166800,2019-10-27 09:00:00.000,1.3288124114999999E1,9.3028664457216E-2,2.1406E1,
1572167100,2019-10-27 09:05:00.000,1.3315050405E1,9.5209023780432E-2,2.1343E1,
1572167400,2019-10-27 09:10:00.000,1.330158726E1,9.5209023780432E-2,2.1343E1,
1572167700,2019-10-27 09:15:00.000,1.330158726E1,9.3755450898288E-2,2.1343E1,
1572168000,2019-10-27 09:20:00.000,1.330158726E1,9.593581022150399E-2,2.1343E1,
1572168300,2019-10-27 09:25:00.000,1.330158726E1,9.3755450898288E-2,2.1312E1,
1572168600,2019-10-27 09:30:00.000,1.3288124114999999E1,9.3755450898288E-2,2.1281E1,
1572168900,2019-10-27 09:35:00.000,1.3328513549999998E1,9.3028664457216E-2,2.125E1,
1572169200,2019-10-27 09:40:00.000,1.3341976695E1,9.593581022150399E-2,2.125E1,
1572169500,2019-10-27 09:45:00.000,1.3355439839999999E1,9.3755450898288E-2,2.1281E1,
1572169800,2019-10-27 09:50:00.000,1.3368902985E1,9.3028664457216E-2,2.125E1,
1572170100,2019-10-27 09:55:00.000,1.338236613E1,9.3028664457216E-2,2.125E1,
