Time(longsecs),Time(UTC),Sensor SOH Voltage A 1(uV),Sensor SOH Voltage A 2(uV),Sensor SOH Voltage A 3(uV),External SOH Voltage 1(uV),External SOH Voltage 2(uV),External SOH Voltage 3(uV),
1572400800,2019-10-30 02:00:00.000,601377,,,,,,
1572401100,2019-10-30 02:05:00.000,601377,,,,,,
1572401400,2019-10-30 02:10:00.000,601377,,,,,,
1572401700,2019-10-30 02:15:00.000,591654,,,,,,
1572402000,2019-10-30 02:20:00.000,601377,,,,,,
1572402300,2019-10-30 02:25:00.000,601377,,,,,,
1572402600,2019-10-30 02:30:00.000,601377,,,,,,
1572402900,2019-10-30 02:35:00.000,601377,,,,,,
1572403200,2019-10-30 02:40:00.000,601377,,,,,,
1572403500,2019-10-30 02:45:00.000,601377,,,,,,
1572403800,2019-10-30 02:50:00.000,601377,,,,,,
1572404100,2019-10-30 02:55:00.000,591654,,,,,,
