Time(longsecs),Time(UTC),Sensor SOH Voltage A 1(uV),Sensor SOH Voltage A 2(uV),Sensor SOH Voltage A 3(uV),External SOH Voltage 1(uV),External SOH Voltage 2(uV),External SOH Voltage 3(uV),
1572271200,2019-10-28 14:00:00.000,601377,,,,,,
1572271500,2019-10-28 14:05:00.000,601377,,,,,,
1572271800,2019-10-28 14:10:00.000,591654,,,,,,
1572272100,2019-10-28 14:15:00.000,591654,,,,,,
1572272400,2019-10-28 14:20:00.000,591654,,,,,,
1572272700,2019-10-28 14:25:00.000,591654,,,,,,
1572273000,2019-10-28 14:30:00.000,591654,,,,,,
1572273300,2019-10-28 14:35:00.000,591654,,,,,,
1572273600,2019-10-28 14:40:00.000,591654,,,,,,
1572273900,2019-10-28 14:45:00.000,591654,,,,,,
1572274200,2019-10-28 14:50:00.000,591654,,,,,,
1572274500,2019-10-28 14:55:00.000,601377,,,,,,
