Time(longsecs),Time(UTC),Supply voltage(V),Total current(A),Temperature(&deg;C),
1571626800,2019-10-21 03:00:00.000,1.3261197825E1,9.3028664457216E-2,2.1156E1,
1571627100,2019-10-21 03:05:00.000,1.327466097E1,9.3755450898288E-2,2.1093E1,
1571627400,2019-10-21 03:10:00.000,1.3261197825E1,9.3755450898288E-2,2.1062E1,
1571627700,2019-10-21 03:15:00.000,1.3261197825E1,9.593581022150399E-2,2.1E1,
1571628000,2019-10-21 03:20:00.000,1.3261197825E1,9.7389383103648E-2,2.1E1,
1571628300,2019-10-21 03:25:00.000,1.3261197825E1,9.5209023780432E-2,2.1E1,
1571628600,2019-10-21 03:30:00.000,1.3261197825E1,9.448223733936E-2,2.0968E1,
1571628900,2019-10-21 03:35:00.000,1.3261197825E1,1.08291179719728E-1,2.0968E1,
1571629200,2019-10-21 03:40:00.000,1.327466097E1,9.3755450898288E-2,2.0906E1,
1571629500,2019-10-21 03:45:00.000,1.3261197825E1,9.3755450898288E-2,2.0906E1,
1571629800,2019-10-21 03:50:00.000,1.3261197825E1,9.448223733936E-2,2.0875E1,
1571630100,2019-10-21 03:55:00.000,1.3261197825E1,9.448223733936E-2,2.0875E1,
