Time(longsecs),Time(UTC),Sensor SOH Voltage A 1(uV),Sensor SOH Voltage A 2(uV),Sensor SOH Voltage A 3(uV),External SOH Voltage 1(uV),External SOH Voltage 2(uV),External SOH Voltage 3(uV),
1571972400,2019-10-25 03:00:00.000,601377,,,,,,
1571972700,2019-10-25 03:05:00.000,601377,,,,,,
1571973000,2019-10-25 03:10:00.000,591654,,,,,,
1571973300,2019-10-25 03:15:00.000,601377,,,,,,
1571973600,2019-10-25 03:20:00.000,591654,,,,,,
1571973900,2019-10-25 03:25:00.000,591654,,,,,,
1571974200,2019-10-25 03:30:00.000,591654,,,,,,
1571974500,2019-10-25 03:35:00.000,601377,,,,,,
1571974800,2019-10-25 03:40:00.000,591654,,,,,,
1571975100,2019-10-25 03:45:00.000,591654,,,,,,
1571975400,2019-10-25 03:50:00.000,591654,,,,,,
1571975700,2019-10-25 03:55:00.000,591654,,,,,,
