Time(longsecs),Time(UTC),Supply voltage(V),Total current(A),Temperature(&deg;C),
1571389200,2019-10-18 09:00:00.000,1.3611239594999999E1,9.1575091575072E-2,2.5156E1,
1571389500,2019-10-18 09:05:00.000,1.3651629029999999E1,9.230187801614399E-2,2.5468E1,
1571389800,2019-10-18 09:10:00.000,1.3665092175E1,9.0848305134E-2,2.5843E1,
1571390100,2019-10-18 09:15:00.000,1.370548161E1,9.0848305134E-2,2.6125E1,
1571390400,2019-10-18 09:20:00.000,1.3772797335E1,1.2210012210009599E-1,2.6437E1,
1571390700,2019-10-18 09:25:00.000,1.3880502495E1,9.0121518692928E-2,2.6781E1,
1571391000,2019-10-18 09:30:00.000,1.3772797335E1,9.0848305134E-2,2.7093E1,
1571391300,2019-10-18 09:35:00.000,1.3759334189999999E1,1.21373335659024E-1,2.7343E1,
1571391600,2019-10-18 09:40:00.000,1.3772797335E1,9.0848305134E-2,2.7687E1,
1571391900,2019-10-18 09:45:00.000,1.3772797335E1,9.0848305134E-2,2.8E1,
1571392200,2019-10-18 09:50:00.000,1.3772797335E1,9.230187801614399E-2,2.8281000000000002E1,
1571392500,2019-10-18 09:55:00.000,1.3772797335E1,9.1575091575072E-2,2.8562E1,
