Time(longsecs),Time(UTC),Sensor SOH Voltage A 1(uV),Sensor SOH Voltage A 2(uV),Sensor SOH Voltage A 3(uV),External SOH Voltage 1(uV),External SOH Voltage 2(uV),External SOH Voltage 3(uV),
1571432400,2019-10-18 21:00:00.000,620824,,,,,,
1571432700,2019-10-18 21:05:00.000,620824,,,,,,
1571433000,2019-10-18 21:10:00.000,620824,,,,,,
1571433300,2019-10-18 21:15:00.000,611101,,,,,,
1571433600,2019-10-18 21:20:00.000,611101,,,,,,
1571433900,2019-10-18 21:25:00.000,620824,,,,,,
1571434200,2019-10-18 21:30:00.000,620824,,,,,,
1571434500,2019-10-18 21:35:00.000,611101,,,,,,
1571434800,2019-10-18 21:40:00.000,611101,,,,,,
1571435100,2019-10-18 21:45:00.000,611101,,,,,,
1571435400,2019-10-18 21:50:00.000,611101,,,,,,
1571435700,2019-10-18 21:55:00.000,611101,,,,,,
