Time(longsecs),Time(UTC),Sensor SOH Voltage A 1(uV),Sensor SOH Voltage A 2(uV),Sensor SOH Voltage A 3(uV),External SOH Voltage 1(uV),External SOH Voltage 2(uV),External SOH Voltage 3(uV),
1572440400,2019-10-30 13:00:00.000,601377,,,,,,
1572440700,2019-10-30 13:05:00.000,601377,,,,,,
1572441000,2019-10-30 13:10:00.000,601377,,,,,,
1572441300,2019-10-30 13:15:00.000,591654,,,,,,
1572441600,2019-10-30 13:20:00.000,601377,,,,,,
1572441900,2019-10-30 13:25:00.000,601377,,,,,,
1572442200,2019-10-30 13:30:00.000,601377,,,,,,
1572442500,2019-10-30 13:35:00.000,601377,,,,,,
1572442800,2019-10-30 13:40:00.000,591654,,,,,,
1572443100,2019-10-30 13:45:00.000,601377,,,,,,
1572443400,2019-10-30 13:50:00.000,591654,,,,,,
1572443700,2019-10-30 13:55:00.000,591654,,,,,,
