Time(longsecs),Time(UTC),Earth location,GNSS receiver status,GNSS satellites used,Timing status,Phase lock loop status,Time uncertainty(ns),Timing DAC count,Time quality(&#37;),Time error(ns),
1571562000,2019-10-20 09:00:00.000,47.636006N 0.562572E 156m,Off,5,Time OK,Free running,9400,9340,90,0,
1571562300,2019-10-20 09:05:00.000,47.636006N 0.562572E 156m,Off,5,Time OK,Free running,19300,9340,90,0,
1571562600,2019-10-20 09:10:00.000,47.636006N 0.562572E 156m,Off,5,Time OK,Free running,29900,9340,90,0,
1571562900,2019-10-20 09:15:00.000,47.636006N 0.562572E 156m,Off,5,Time OK,Free running,41000,9340,90,0,
1571563200,2019-10-20 09:20:00.000,47.636006N 0.562572E 156m,GNSS locked,5,Time OK,Coarse lock,2000,9131,90,1979,
1571563500,2019-10-20 09:25:00.000,47.636006N 0.562572E 156m,Off,6,Time OK,Free running,7800,9339,90,0,
1571563800,2019-10-20 09:30:00.000,47.636006N 0.562572E 156m,Off,6,Time OK,Free running,17600,9339,90,0,
1571564100,2019-10-20 09:35:00.000,47.636006N 0.562572E 156m,Off,6,Time OK,Free running,28100,9339,90,0,
1571564400,2019-10-20 09:40:00.000,47.636006N 0.562572E 156m,Off,6,Time OK,Free running,39300,9339,90,0,
1571564700,2019-10-20 09:45:00.000,47.636006N 0.562572E 156m,GNSS unlocked,0,Time OK,Free running,51600,9339,90,0,
1571565000,2019-10-20 09:50:00.000,47.636006N 0.562572E 156m,Off,6,Time OK,Free running,6900,9335,90,0,
1571565300,2019-10-20 09:55:00.000,47.636006N 0.562572E 156m,Off,6,Time OK,Free running,17700,9335,90,0,
