Time(longsecs),Time(UTC),Supply voltage(V),Total current(A),Temperature(&deg;C),
1569902400,2019-10-01 04:00:00.000,1.3207345244999999E1,1.18466189894736E-1,3.0656000000000002E1,
1569902700,2019-10-01 04:05:00.000,1.3207345244999999E1,1.1991976277688E-1,3.0656000000000002E1,
1569903000,2019-10-01 04:10:00.000,1.3207345244999999E1,1.18466189894736E-1,3.0687E1,
1569903300,2019-10-01 04:15:00.000,1.31938821E1,1.19192976335808E-1,3.0656000000000002E1,
1569903600,2019-10-01 04:20:00.000,1.3207345244999999E1,1.21373335659024E-1,3.0625E1,
1569903900,2019-10-01 04:25:00.000,1.3207345244999999E1,1.19192976335808E-1,3.0718E1,
1569904200,2019-10-01 04:30:00.000,1.31938821E1,1.1991976277688E-1,3.0718E1,
1569904500,2019-10-01 04:35:00.000,1.31938821E1,1.1991976277688E-1,3.0718E1,
1569904800,2019-10-01 04:40:00.000,1.31938821E1,1.19192976335808E-1,3.0718E1,
1569905100,2019-10-01 04:45:00.000,1.31938821E1,1.19192976335808E-1,3.0718E1,
1569905400,2019-10-01 04:50:00.000,1.31938821E1,1.20646549217952E-1,3.075E1,
1569905700,2019-10-01 04:55:00.000,1.3180418954999999E1,1.19192976335808E-1,3.0812E1,
