Time(longsecs),Time(UTC),Supply voltage(V),Total current(A),Temperature(&deg;C),
1570788000,2019-10-11 10:00:00.000,1.3557387015E1,1.15559044130448E-1,2.8718E1,
1570788300,2019-10-11 10:05:00.000,1.3543923869999999E1,1.47537647537616E-1,2.8906000000000002E1,
1570788600,2019-10-11 10:10:00.000,1.3476608145E1,1.17739403453664E-1,2.9093E1,
1570788900,2019-10-11 10:15:00.000,1.3557387015E1,1.17012617012592E-1,2.9343E1,
1570789200,2019-10-11 10:20:00.000,1.3436218709999999E1,1.19192976335808E-1,2.9562E1,
1570789500,2019-10-11 10:25:00.000,1.338236613E1,1.29367986510816E-1,3.0093E1,
1570789800,2019-10-11 10:30:00.000,1.338236613E1,1.29367986510816E-1,3.0531000000000002E1,
1570790100,2019-10-11 10:35:00.000,1.3395829274999999E1,1.30094772951888E-1,3.0937E1,
1570790400,2019-10-11 10:40:00.000,1.340929242E1,1.30094772951888E-1,3.125E1,
1570790700,2019-10-11 10:45:00.000,1.340929242E1,1.3082155939296E-1,3.1562E1,
1570791000,2019-10-11 10:50:00.000,1.3436218709999999E1,1.30094772951888E-1,3.1812E1,
1570791300,2019-10-11 10:55:00.000,1.340929242E1,1.77335891621568E-1,3.1812E1,
