Time(longsecs),Time(UTC),Earth Location,GPS Receiver Status,GPS Satellites Used,GPS PDOP,GPS TDOP,Timing Status,Timing Phase Lock,Timing Uncertainty(ns),DAC Count,Timing Error(ns),GPS Last Update Time,
1571259602,2019-10-16 21:00:02.472,47.652094N 0.543271E 174m,Off,5,3.4797585,2.2634876,Time OK,Free running,45400,9086,0,2019-10-16 20:12:19.000000000,
1571259662,2019-10-16 21:01:02.472,47.652094N 0.543271E 174m,Off,5,3.4797585,2.2634876,Time OK,Free running,46400,9086,0,2019-10-16 20:12:19.000000000,
1571259722,2019-10-16 21:02:02.472,47.652094N 0.543271E 174m,Off,5,3.4797585,2.2634876,Time OK,Free running,47300,9086,0,2019-10-16 20:12:19.000000000,
1571259782,2019-10-16 21:03:02.472,47.652094N 0.543271E 174m,Off,5,3.4797585,2.2634876,Time OK,Free running,48300,9086,0,2019-10-16 20:12:19.000000000,
1571259842,2019-10-16 21:04:02.505,47.652094N 0.543271E 174m,Off,5,3.4797585,2.2634876,Time OK,Free running,49100,9086,0,2019-10-16 20:12:19.000000000,
1571259902,2019-10-16 21:05:02.472,47.652094N 0.543271E 174m,Off,5,3.4797585,2.2634876,Time OK,Free running,49900,9086,0,2019-10-16 20:12:19.000000000,
1571259962,2019-10-16 21:06:02.472,47.652094N 0.543271E 174m,Off,5,3.4797585,2.2634876,Time OK,Free running,50900,9086,0,2019-10-16 20:12:19.000000000,
1571260022,2019-10-16 21:07:02.473,47.652094N 0.543271E 174m,Doing fixes,5,3.056841,1.781343,Time OK,Coarse lock,100,9045,729,2019-10-16 21:06:59.000000000,
1571260082,2019-10-16 21:08:02.472,47.652094N 0.543271E 174m,Off,5,2.688652,1.3505121,Time OK,Free running,500,9086,0,2019-10-16 21:07:29.000000000,
1571260142,2019-10-16 21:09:02.472,47.652094N 0.543271E 174m,Off,5,2.688652,1.3505121,Time OK,Free running,1300,9086,0,2019-10-16 21:07:29.000000000,
1571260202,2019-10-16 21:10:02.473,47.652094N 0.543271E 174m,Off,5,2.688652,1.3505121,Time OK,Free running,2300,9086,0,2019-10-16 21:07:29.000000000,
1571260262,2019-10-16 21:11:02.472,47.652094N 0.543271E 174m,Off,5,2.688652,1.3505121,Time OK,Free running,3400,9086,0,2019-10-16 21:07:29.000000000,
1571260322,2019-10-16 21:12:02.472,47.652094N 0.543271E 174m,Off,5,2.688652,1.3505121,Time OK,Free running,4400,9086,0,2019-10-16 21:07:29.000000000,
1571260382,2019-10-16 21:13:02.472,47.652094N 0.543271E 174m,Off,5,2.688652,1.3505121,Time OK,Free running,5600,9086,0,2019-10-16 21:07:29.000000000,
1571260442,2019-10-16 21:14:02.473,47.652094N 0.543271E 174m,Off,5,2.688652,1.3505121,Time OK,Free running,6900,9086,0,2019-10-16 21:07:29.000000000,
1571260502,2019-10-16 21:15:02.475,47.652094N 0.543271E 174m,Off,5,2.688652,1.3505121,Time OK,Free running,7800,9086,0,2019-10-16 21:07:29.000000000,
1571260562,2019-10-16 21:16:02.472,47.652094N 0.543271E 174m,Off,5,2.688652,1.3505121,Time OK,Free running,8800,9086,0,2019-10-16 21:07:29.000000000,
1571260622,2019-10-16 21:17:02.475,47.652094N 0.543271E 174m,Off,5,2.688652,1.3505121,Time OK,Free running,10100,9086,0,2019-10-16 21:07:29.000000000,
1571260682,2019-10-16 21:18:02.472,47.652094N 0.543271E 174m,Off,5,2.688652,1.3505121,Time OK,Free running,11300,9086,0,2019-10-16 21:07:29.000000000,
1571260742,2019-10-16 21:19:02.505,47.652094N 0.543271E 174m,Off,5,2.688652,1.3505121,Time OK,Free running,12400,9086,0,2019-10-16 21:07:29.000000000,
1571260802,2019-10-16 21:20:02.473,47.652094N 0.543271E 174m,Off,5,2.688652,1.3505121,Time OK,Free running,13600,9086,0,2019-10-16 21:07:29.000000000,
1571260862,2019-10-16 21:21:02.472,47.652094N 0.543271E 174m,Off,5,2.688652,1.3505121,Time OK,Free running,14500,9086,0,2019-10-16 21:07:29.000000000,
1571260922,2019-10-16 21:22:02.472,47.652094N 0.543271E 174m,Off,5,2.688652,1.3505121,Time OK,Free running,15500,9086,0,2019-10-16 21:07:29.000000000,
1571260982,2019-10-16 21:23:02.472,47.652094N 0.543271E 174m,Off,5,2.688652,1.3505121,Time OK,Free running,16400,9086,0,2019-10-16 21:07:29.000000000,
1571261042,2019-10-16 21:24:02.472,47.652094N 0.543271E 174m,Off,5,2.688652,1.3505121,Time OK,Free running,17200,9086,0,2019-10-16 21:07:29.000000000,
1571261102,2019-10-16 21:25:02.472,47.652094N 0.543271E 174m,Off,5,2.688652,1.3505121,Time OK,Free running,18300,9086,0,2019-10-16 21:07:29.000000000,
1571261162,2019-10-16 21:26:02.472,47.652094N 0.543271E 174m,Off,5,2.688652,1.3505121,Time OK,Free running,19700,9086,0,2019-10-16 21:07:29.000000000,
1571261222,2019-10-16 21:27:02.472,47.652094N 0.543271E 174m,Off,5,2.688652,1.3505121,Time OK,Free running,20600,9086,0,2019-10-16 21:07:29.000000000,
1571261282,2019-10-16 21:28:02.475,47.652094N 0.543271E 174m,Off,5,2.688652,1.3505121,Time OK,Free running,21400,9086,0,2019-10-16 21:07:29.000000000,
1571261342,2019-10-16 21:29:02.472,47.652094N 0.543271E 174m,Off,5,2.688652,1.3505121,Time OK,Free running,22300,9086,0,2019-10-16 21:07:29.000000000,
1571261402,2019-10-16 21:30:02.472,47.652094N 0.543271E 174m,Off,5,2.688652,1.3505121,Time OK,Free running,23200,9086,0,2019-10-16 21:07:29.000000000,
1571261462,2019-10-16 21:31:02.475,47.652094N 0.543271E 174m,Off,5,2.688652,1.3505121,Time OK,Free running,24100,9086,0,2019-10-16 21:07:29.000000000,
1571261522,2019-10-16 21:32:02.482,47.652094N 0.543271E 174m,Off,5,2.688652,1.3505121,Time OK,Free running,25000,9086,0,2019-10-16 21:07:29.000000000,
1571261582,2019-10-16 21:33:02.472,47.652094N 0.543271E 174m,Off,5,2.688652,1.3505121,Time OK,Free running,25800,9086,0,2019-10-16 21:07:29.000000000,
1571261642,2019-10-16 21:34:02.472,47.652094N 0.543271E 174m,Off,5,2.688652,1.3505121,Time OK,Free running,26600,9086,0,2019-10-16 21:07:29.000000000,
1571261702,2019-10-16 21:35:02.472,47.652094N 0.543271E 174m,Off,5,2.688652,1.3505121,Time OK,Free running,27600,9086,0,2019-10-16 21:07:29.000000000,
1571261762,2019-10-16 21:36:02.472,47.652094N 0.543271E 174m,Off,5,2.688652,1.3505121,Time OK,Free running,28400,9086,0,2019-10-16 21:07:29.000000000,
1571261822,2019-10-16 21:37:02.472,47.652094N 0.543271E 174m,Off,5,2.688652,1.3505121,Time OK,Free running,29200,9086,0,2019-10-16 21:07:29.000000000,
1571261882,2019-10-16 21:38:02.472,47.652094N 0.543271E 174m,Off,5,2.688652,1.3505121,Time OK,Free running,30200,9086,0,2019-10-16 21:07:29.000000000,
1571261942,2019-10-16 21:39:02.518,47.652094N 0.543271E 174m,Off,5,2.688652,1.3505121,Time OK,Free running,31200,9086,0,2019-10-16 21:07:29.000000000,
1571262002,2019-10-16 21:40:02.472,47.652094N 0.543271E 174m,Off,5,2.688652,1.3505121,Time OK,Free running,32000,9086,0,2019-10-16 21:07:29.000000000,
1571262062,2019-10-16 21:41:02.472,47.652094N 0.543271E 174m,Off,5,2.688652,1.3505121,Time OK,Free running,33000,9086,0,2019-10-16 21:07:29.000000000,
1571262122,2019-10-16 21:42:02.472,47.652094N 0.543271E 174m,Off,5,2.688652,1.3505121,Time OK,Free running,34000,9086,0,2019-10-16 21:07:29.000000000,
1571262182,2019-10-16 21:43:02.472,47.652094N 0.543271E 174m,Off,5,2.688652,1.3505121,Time OK,Free running,34900,9086,0,2019-10-16 21:07:29.000000000,
1571262242,2019-10-16 21:44:02.472,47.652094N 0.543271E 174m,Off,5,2.688652,1.3505121,Time OK,Free running,35800,9086,0,2019-10-16 21:07:29.000000000,
1571262302,2019-10-16 21:45:02.472,47.652094N 0.543271E 174m,Off,5,2.688652,1.3505121,Time OK,Free running,36600,9086,0,2019-10-16 21:07:29.000000000,
1571262362,2019-10-16 21:46:02.472,47.652094N 0.543271E 174m,Off,5,2.688652,1.3505121,Time OK,Free running,37500,9086,0,2019-10-16 21:07:29.000000000,
1571262422,2019-10-16 21:47:02.472,47.652094N 0.543271E 174m,Off,5,2.688652,1.3505121,Time OK,Free running,38400,9086,0,2019-10-16 21:07:29.000000000,
1571262482,2019-10-16 21:48:02.472,47.652094N 0.543271E 174m,Off,5,2.688652,1.3505121,Time OK,Free running,39200,9086,0,2019-10-16 21:07:29.000000000,
1571262542,2019-10-16 21:49:02.511,47.652094N 0.543271E 174m,Off,5,2.688652,1.3505121,Time OK,Free running,40000,9086,0,2019-10-16 21:07:29.000000000,
1571262602,2019-10-16 21:50:02.472,47.652094N 0.543271E 174m,Off,5,2.688652,1.3505121,Time OK,Free running,40900,9086,0,2019-10-16 21:07:29.000000000,
1571262662,2019-10-16 21:51:02.472,47.652094N 0.543271E 174m,Off,5,2.688652,1.3505121,Time OK,Free running,41700,9086,0,2019-10-16 21:07:29.000000000,
1571262722,2019-10-16 21:52:02.472,47.652094N 0.543271E 174m,Off,5,2.688652,1.3505121,Time OK,Free running,42500,9086,0,2019-10-16 21:07:29.000000000,
1571262782,2019-10-16 21:53:02.472,47.652094N 0.543271E 174m,Off,5,2.688652,1.3505121,Time OK,Free running,43800,9086,0,2019-10-16 21:07:29.000000000,
1571262842,2019-10-16 21:54:02.472,47.652094N 0.543271E 174m,Off,5,2.688652,1.3505121,Time OK,Free running,45000,9086,0,2019-10-16 21:07:29.000000000,
1571262902,2019-10-16 21:55:02.472,47.652094N 0.543271E 174m,Off,5,2.688652,1.3505121,Time OK,Free running,46100,9086,0,2019-10-16 21:07:29.000000000,
1571262962,2019-10-16 21:56:02.472,47.652094N 0.543271E 174m,Off,5,2.688652,1.3505121,Time OK,Free running,47000,9086,0,2019-10-16 21:07:29.000000000,
1571263022,2019-10-16 21:57:02.472,47.652094N 0.543271E 174m,Off,5,2.688652,1.3505121,Time OK,Free running,47800,9086,0,2019-10-16 21:07:29.000000000,
1571263082,2019-10-16 21:58:02.472,47.652094N 0.543271E 174m,Off,5,2.688652,1.3505121,Time OK,Free running,48700,9086,0,2019-10-16 21:07:29.000000000,
1571263142,2019-10-16 21:59:02.472,47.652094N 0.543271E 174m,Off,5,2.688652,1.3505121,Time OK,Free running,49700,9086,0,2019-10-16 21:07:29.000000000,
