Time(longsecs),Time(UTC),Earth Location,GPS Receiver Status,GPS Satellites Used,GPS PDOP,GPS TDOP,Timing Status,Timing Phase Lock,Timing Uncertainty(ns),DAC Count,Timing Error(ns),GPS Last Update Time,
1572116438,2019-10-26 19:00:38.783,47.65203N 0.543224E 167m,Off,4,3.5947895,2.1833787,Time OK,Free running,15800,9135,0,2019-10-26 18:46:35.000000000,
1572116498,2019-10-26 19:01:38.746,47.65203N 0.543224E 167m,Off,4,3.5947895,2.1833787,Time OK,Free running,16700,9135,0,2019-10-26 18:46:35.000000000,
1572116558,2019-10-26 19:02:38.746,47.65203N 0.543224E 167m,Off,4,3.5947895,2.1833787,Time OK,Free running,17800,9135,0,2019-10-26 18:46:35.000000000,
1572116618,2019-10-26 19:03:38.746,47.65203N 0.543224E 167m,Off,4,3.5947895,2.1833787,Time OK,Free running,19000,9135,0,2019-10-26 18:46:35.000000000,
1572116678,2019-10-26 19:04:38.746,47.65203N 0.543224E 167m,Off,4,3.5947895,2.1833787,Time OK,Free running,20100,9135,0,2019-10-26 18:46:35.000000000,
1572116738,2019-10-26 19:05:38.746,47.65203N 0.543224E 167m,Off,4,3.5947895,2.1833787,Time OK,Free running,21000,9135,0,2019-10-26 18:46:35.000000000,
1572116798,2019-10-26 19:06:38.746,47.65203N 0.543224E 167m,Off,4,3.5947895,2.1833787,Time OK,Free running,21800,9135,0,2019-10-26 18:46:35.000000000,
1572116858,2019-10-26 19:07:38.746,47.65203N 0.543224E 167m,Off,4,3.5947895,2.1833787,Time OK,Free running,22800,9135,0,2019-10-26 18:46:35.000000000,
1572116918,2019-10-26 19:08:38.746,47.65203N 0.543224E 167m,Off,4,3.5947895,2.1833787,Time OK,Free running,23700,9135,0,2019-10-26 18:46:35.000000000,
1572116978,2019-10-26 19:09:38.746,47.65203N 0.543224E 167m,Off,4,3.5947895,2.1833787,Time OK,Free running,24500,9135,0,2019-10-26 18:46:35.000000000,
1572117038,2019-10-26 19:10:38.746,47.65203N 0.543224E 167m,Off,4,3.5947895,2.1833787,Time OK,Free running,25500,9135,0,2019-10-26 18:46:35.000000000,
1572117098,2019-10-26 19:11:38.746,47.65203N 0.543224E 167m,Off,4,3.5947895,2.1833787,Time OK,Free running,26500,9135,0,2019-10-26 18:46:35.000000000,
1572117158,2019-10-26 19:12:38.746,47.65203N 0.543224E 167m,Off,4,3.5947895,2.1833787,Time OK,Free running,27700,9135,0,2019-10-26 18:46:35.000000000,
1572117218,2019-10-26 19:13:38.746,47.65203N 0.543224E 167m,Off,4,3.5947895,2.1833787,Time OK,Free running,29300,9135,0,2019-10-26 18:46:35.000000000,
1572117278,2019-10-26 19:14:38.746,47.65203N 0.543224E 167m,Off,4,3.5947895,2.1833787,Time OK,Free running,30700,9135,0,2019-10-26 18:46:35.000000000,
1572117338,2019-10-26 19:15:38.746,47.65203N 0.543224E 167m,Off,4,3.5947895,2.1833787,Time OK,Free running,32000,9135,0,2019-10-26 18:46:35.000000000,
1572117398,2019-10-26 19:16:38.746,47.65203N 0.543224E 167m,Off,4,3.5947895,2.1833787,Time OK,Free running,33400,9135,0,2019-10-26 18:46:35.000000000,
1572117458,2019-10-26 19:17:38.751,47.65203N 0.543224E 167m,Off,4,3.5947895,2.1833787,Time OK,Free running,34800,9135,0,2019-10-26 18:46:35.000000000,
1572117518,2019-10-26 19:18:38.746,47.65203N 0.543224E 167m,Off,4,3.5947895,2.1833787,Time OK,Free running,36200,9135,0,2019-10-26 18:46:35.000000000,
1572117578,2019-10-26 19:19:38.746,47.65203N 0.543224E 167m,Off,4,3.5947895,2.1833787,Time OK,Free running,37900,9135,0,2019-10-26 18:46:35.000000000,
1572117638,2019-10-26 19:20:38.746,47.65203N 0.543224E 167m,Off,4,3.5947895,2.1833787,Time OK,Free running,39800,9135,0,2019-10-26 18:46:35.000000000,
1572117698,2019-10-26 19:21:38.746,47.65203N 0.543224E 167m,Off,4,3.5947895,2.1833787,Time OK,Free running,41700,9135,0,2019-10-26 18:46:35.000000000,
1572117758,2019-10-26 19:22:38.746,47.65203N 0.543224E 167m,Off,4,3.5947895,2.1833787,Time OK,Free running,43400,9135,0,2019-10-26 18:46:35.000000000,
1572117818,2019-10-26 19:23:38.746,47.65203N 0.543224E 167m,Off,4,3.5947895,2.1833787,Time OK,Free running,44700,9135,0,2019-10-26 18:46:35.000000000,
1572117878,2019-10-26 19:24:38.748,47.65203N 0.543224E 167m,Off,4,3.5947895,2.1833787,Time OK,Free running,45900,9135,0,2019-10-26 18:46:35.000000000,
1572117938,2019-10-26 19:25:38.746,47.65203N 0.543224E 167m,Off,4,3.5947895,2.1833787,Time OK,Free running,47300,9135,0,2019-10-26 18:46:35.000000000,
1572117998,2019-10-26 19:26:38.746,47.65203N 0.543224E 167m,Off,4,3.5947895,2.1833787,Time OK,Free running,48500,9135,0,2019-10-26 18:46:35.000000000,
1572118058,2019-10-26 19:27:38.746,47.65203N 0.543224E 167m,Off,4,3.5947895,2.1833787,Time OK,Free running,49600,9135,0,2019-10-26 18:46:35.000000000,
1572118118,2019-10-26 19:28:38.746,47.65203N 0.543224E 167m,Off,4,3.5947895,2.1833787,Time OK,Free running,50900,9135,0,2019-10-26 18:46:35.000000000,
1572118178,2019-10-26 19:29:38.746,47.65203N 0.543224E 167m,No GPS time,4,3.5947895,2.1833787,Time OK,Free running,52100,9135,0,2019-10-26 18:46:35.000000000,
1572118238,2019-10-26 19:30:38.747,47.65203N 0.543224E 167m,Doing fixes,7,2.0829937,1.1979412,Time OK,Coarse lock,100,9183,-625,2019-10-26 19:30:36.000000000,
1572118298,2019-10-26 19:31:38.746,47.65203N 0.543224E 167m,Doing fixes,6,2.341338,1.2956321,Time OK,Fine lock,100,9114,0,2019-10-26 19:31:36.000000000,
1572118358,2019-10-26 19:32:38.746,47.65203N 0.543224E 167m,Off,6,2.3480437,1.2996925,Time OK,Free running,600,9113,0,2019-10-26 19:31:56.000000000,
1572118418,2019-10-26 19:33:38.746,47.65203N 0.543224E 167m,Off,6,2.3480437,1.2996925,Time OK,Free running,1500,9113,0,2019-10-26 19:31:56.000000000,
1572118478,2019-10-26 19:34:38.748,47.65203N 0.543224E 167m,Off,6,2.3480437,1.2996925,Time OK,Free running,2600,9113,0,2019-10-26 19:31:56.000000000,
1572118538,2019-10-26 19:35:38.746,47.65203N 0.543224E 167m,Off,6,2.3480437,1.2996925,Time OK,Free running,3400,9113,0,2019-10-26 19:31:56.000000000,
1572118598,2019-10-26 19:36:38.746,47.65203N 0.543224E 167m,Off,6,2.3480437,1.2996925,Time OK,Free running,4200,9113,0,2019-10-26 19:31:56.000000000,
1572118658,2019-10-26 19:37:38.746,47.65203N 0.543224E 167m,Off,6,2.3480437,1.2996925,Time OK,Free running,5400,9113,0,2019-10-26 19:31:56.000000000,
1572118718,2019-10-26 19:38:38.746,47.65203N 0.543224E 167m,Off,6,2.3480437,1.2996925,Time OK,Free running,6600,9113,0,2019-10-26 19:31:56.000000000,
1572118778,2019-10-26 19:39:38.746,47.65203N 0.543224E 167m,Off,6,2.3480437,1.2996925,Time OK,Free running,8100,9113,0,2019-10-26 19:31:56.000000000,
1572118838,2019-10-26 19:40:38.746,47.65203N 0.543224E 167m,Off,6,2.3480437,1.2996925,Time OK,Free running,9800,9113,0,2019-10-26 19:31:56.000000000,
1572118898,2019-10-26 19:41:38.746,47.65203N 0.543224E 167m,Off,6,2.3480437,1.2996925,Time OK,Free running,11300,9113,0,2019-10-26 19:31:56.000000000,
1572118958,2019-10-26 19:42:38.746,47.65203N 0.543224E 167m,Off,6,2.3480437,1.2996925,Time OK,Free running,12500,9113,0,2019-10-26 19:31:56.000000000,
1572119018,2019-10-26 19:43:38.746,47.65203N 0.543224E 167m,Off,6,2.3480437,1.2996925,Time OK,Free running,13800,9113,0,2019-10-26 19:31:56.000000000,
1572119078,2019-10-26 19:44:38.746,47.65203N 0.543224E 167m,Off,6,2.3480437,1.2996925,Time OK,Free running,15200,9113,0,2019-10-26 19:31:56.000000000,
1572119138,2019-10-26 19:45:38.746,47.65203N 0.543224E 167m,Off,6,2.3480437,1.2996925,Time OK,Free running,16500,9113,0,2019-10-26 19:31:56.000000000,
1572119198,2019-10-26 19:46:38.746,47.65203N 0.543224E 167m,Off,6,2.3480437,1.2996925,Time OK,Free running,18000,9113,0,2019-10-26 19:31:56.000000000,
1572119258,2019-10-26 19:47:38.746,47.65203N 0.543224E 167m,Off,6,2.3480437,1.2996925,Time OK,Free running,19700,9113,0,2019-10-26 19:31:56.000000000,
1572119318,2019-10-26 19:48:38.746,47.65203N 0.543224E 167m,Off,6,2.3480437,1.2996925,Time OK,Free running,21300,9113,0,2019-10-26 19:31:56.000000000,
1572119378,2019-10-26 19:49:38.746,47.65203N 0.543224E 167m,Off,6,2.3480437,1.2996925,Time OK,Free running,22400,9113,0,2019-10-26 19:31:56.000000000,
1572119438,2019-10-26 19:50:38.746,47.65203N 0.543224E 167m,Off,6,2.3480437,1.2996925,Time OK,Free running,23300,9113,0,2019-10-26 19:31:56.000000000,
1572119498,2019-10-26 19:51:38.746,47.65203N 0.543224E 167m,Off,6,2.3480437,1.2996925,Time OK,Free running,24700,9113,0,2019-10-26 19:31:56.000000000,
1572119558,2019-10-26 19:52:38.761,47.65203N 0.543224E 167m,Off,6,2.3480437,1.2996925,Time OK,Free running,26000,9113,0,2019-10-26 19:31:56.000000000,
1572119618,2019-10-26 19:53:38.748,47.65203N 0.543224E 167m,Off,6,2.3480437,1.2996925,Time OK,Free running,26800,9113,0,2019-10-26 19:31:56.000000000,
1572119678,2019-10-26 19:54:38.746,47.65203N 0.543224E 167m,Off,6,2.3480437,1.2996925,Time OK,Free running,27600,9113,0,2019-10-26 19:31:56.000000000,
1572119738,2019-10-26 19:55:38.746,47.65203N 0.543224E 167m,Off,6,2.3480437,1.2996925,Time OK,Free running,28700,9113,0,2019-10-26 19:31:56.000000000,
1572119798,2019-10-26 19:56:38.746,47.65203N 0.543224E 167m,Off,6,2.3480437,1.2996925,Time OK,Free running,29600,9113,0,2019-10-26 19:31:56.000000000,
1572119858,2019-10-26 19:57:38.746,47.65203N 0.543224E 167m,Off,6,2.3480437,1.2996925,Time OK,Free running,30600,9113,0,2019-10-26 19:31:56.000000000,
1572119918,2019-10-26 19:58:38.746,47.65203N 0.543224E 167m,Off,6,2.3480437,1.2996925,Time OK,Free running,31800,9113,0,2019-10-26 19:31:56.000000000,
1572119978,2019-10-26 19:59:38.746,47.65203N 0.543224E 167m,Off,6,2.3480437,1.2996925,Time OK,Free running,32900,9113,0,2019-10-26 19:31:56.000000000,
