Time(longsecs),Time(UTC),Earth Location,GPS Receiver Status,GPS Satellites Used,GPS PDOP,GPS TDOP,Timing Status,Timing Phase Lock,Timing Uncertainty(ns),DAC Count,Timing Error(ns),GPS Last Update Time,
1572051638,2019-10-26 01:00:38.746,47.652014N 0.542986E 198m,Off,5,3.971992,2.5357683,Time OK,Free running,2400,9019,0,2019-10-26 00:57:55.000000000,
1572051698,2019-10-26 01:01:38.746,47.652014N 0.542986E 198m,Off,5,3.971992,2.5357683,Time OK,Free running,3200,9019,0,2019-10-26 00:57:55.000000000,
1572051758,2019-10-26 01:02:38.746,47.652014N 0.542986E 198m,Off,5,3.971992,2.5357683,Time OK,Free running,4200,9019,0,2019-10-26 00:57:55.000000000,
1572051818,2019-10-26 01:03:38.746,47.652014N 0.542986E 198m,Off,5,3.971992,2.5357683,Time OK,Free running,5700,9019,0,2019-10-26 00:57:55.000000000,
1572051878,2019-10-26 01:04:38.746,47.652014N 0.542986E 198m,Off,5,3.971992,2.5357683,Time OK,Free running,7300,9019,0,2019-10-26 00:57:55.000000000,
1572051938,2019-10-26 01:05:38.746,47.652014N 0.542986E 198m,Off,5,3.971992,2.5357683,Time OK,Free running,8900,9019,0,2019-10-26 00:57:55.000000000,
1572051998,2019-10-26 01:06:38.746,47.652014N 0.542986E 198m,Off,5,3.971992,2.5357683,Time OK,Free running,10500,9019,0,2019-10-26 00:57:55.000000000,
1572052058,2019-10-26 01:07:38.746,47.652014N 0.542986E 198m,Off,5,3.971992,2.5357683,Time OK,Free running,12000,9019,0,2019-10-26 00:57:55.000000000,
1572052118,2019-10-26 01:08:38.746,47.652014N 0.542986E 198m,Off,5,3.971992,2.5357683,Time OK,Free running,13300,9019,0,2019-10-26 00:57:55.000000000,
1572052178,2019-10-26 01:09:38.746,47.652014N 0.542986E 198m,Off,5,3.971992,2.5357683,Time OK,Free running,14800,9019,0,2019-10-26 00:57:55.000000000,
1572052238,2019-10-26 01:10:38.746,47.652014N 0.542986E 198m,Off,5,3.971992,2.5357683,Time OK,Free running,16400,9019,0,2019-10-26 00:57:55.000000000,
1572052298,2019-10-26 01:11:38.746,47.652014N 0.542986E 198m,Off,5,3.971992,2.5357683,Time OK,Free running,17800,9019,0,2019-10-26 00:57:55.000000000,
1572052358,2019-10-26 01:12:38.746,47.652014N 0.542986E 198m,Off,5,3.971992,2.5357683,Time OK,Free running,19400,9019,0,2019-10-26 00:57:55.000000000,
1572052418,2019-10-26 01:13:38.748,47.652014N 0.542986E 198m,Off,5,3.971992,2.5357683,Time OK,Free running,21200,9019,0,2019-10-26 00:57:55.000000000,
1572052478,2019-10-26 01:14:38.746,47.652014N 0.542986E 198m,Off,5,3.971992,2.5357683,Time OK,Free running,22800,9019,0,2019-10-26 00:57:55.000000000,
1572052538,2019-10-26 01:15:38.746,47.652014N 0.542986E 198m,Off,5,3.971992,2.5357683,Time OK,Free running,24500,9019,0,2019-10-26 00:57:55.000000000,
1572052598,2019-10-26 01:16:38.746,47.652014N 0.542986E 198m,Off,5,3.971992,2.5357683,Time OK,Free running,26300,9019,0,2019-10-26 00:57:55.000000000,
1572052658,2019-10-26 01:17:38.746,47.652014N 0.542986E 198m,Off,5,3.971992,2.5357683,Time OK,Free running,28000,9019,0,2019-10-26 00:57:55.000000000,
1572052718,2019-10-26 01:18:38.746,47.652014N 0.542986E 198m,Off,5,3.971992,2.5357683,Time OK,Free running,29700,9019,0,2019-10-26 00:57:55.000000000,
1572052778,2019-10-26 01:19:38.746,47.652014N 0.542986E 198m,Off,5,3.971992,2.5357683,Time OK,Free running,31400,9019,0,2019-10-26 00:57:55.000000000,
1572052838,2019-10-26 01:20:38.746,47.652014N 0.542986E 198m,Off,5,3.971992,2.5357683,Time OK,Free running,33100,9019,0,2019-10-26 00:57:55.000000000,
1572052898,2019-10-26 01:21:38.792,47.652014N 0.542986E 198m,Off,5,3.971992,2.5357683,Time OK,Free running,34700,9019,0,2019-10-26 00:57:55.000000000,
1572052958,2019-10-26 01:22:38.746,47.652014N 0.542986E 198m,Off,5,3.971992,2.5357683,Time OK,Free running,36100,9019,0,2019-10-26 00:57:55.000000000,
1572053018,2019-10-26 01:23:38.746,47.652014N 0.542986E 198m,Off,5,3.971992,2.5357683,Time OK,Free running,37500,9019,0,2019-10-26 00:57:55.000000000,
1572053078,2019-10-26 01:24:38.746,47.652014N 0.542986E 198m,Off,5,3.971992,2.5357683,Time OK,Free running,38800,9019,0,2019-10-26 00:57:55.000000000,
1572053138,2019-10-26 01:25:38.746,47.652014N 0.542986E 198m,Off,5,3.971992,2.5357683,Time OK,Free running,39600,9019,0,2019-10-26 00:57:55.000000000,
1572053198,2019-10-26 01:26:38.746,47.652014N 0.542986E 198m,Off,5,3.971992,2.5357683,Time OK,Free running,40400,9019,0,2019-10-26 00:57:55.000000000,
1572053258,2019-10-26 01:27:38.746,47.652014N 0.542986E 198m,Off,5,3.971992,2.5357683,Time OK,Free running,41300,9019,0,2019-10-26 00:57:55.000000000,
1572053318,2019-10-26 01:28:38.746,47.652014N 0.542986E 198m,Off,5,3.971992,2.5357683,Time OK,Free running,42200,9019,0,2019-10-26 00:57:55.000000000,
1572053378,2019-10-26 01:29:38.746,47.652014N 0.542986E 198m,Off,5,3.971992,2.5357683,Time OK,Free running,43100,9019,0,2019-10-26 00:57:55.000000000,
1572053438,2019-10-26 01:30:38.746,47.652014N 0.542986E 198m,Off,5,3.971992,2.5357683,Time OK,Free running,44200,9019,0,2019-10-26 00:57:55.000000000,
1572053498,2019-10-26 01:31:38.746,47.652014N 0.542986E 198m,Off,5,3.971992,2.5357683,Time OK,Free running,45100,9019,0,2019-10-26 00:57:55.000000000,
1572053558,2019-10-26 01:32:38.746,47.652014N 0.542986E 198m,Off,5,3.971992,2.5357683,Time OK,Free running,46000,9019,0,2019-10-26 00:57:55.000000000,
1572053618,2019-10-26 01:33:38.746,47.652014N 0.542986E 198m,Off,5,3.971992,2.5357683,Time OK,Free running,47300,9019,0,2019-10-26 00:57:55.000000000,
1572053678,2019-10-26 01:34:38.746,47.652014N 0.542986E 198m,Off,5,3.971992,2.5357683,Time OK,Free running,48400,9019,0,2019-10-26 00:57:55.000000000,
1572053738,2019-10-26 01:35:38.746,47.652014N 0.542986E 198m,Off,5,3.971992,2.5357683,Time OK,Free running,49500,9019,0,2019-10-26 00:57:55.000000000,
1572053798,2019-10-26 01:36:38.746,47.652014N 0.542986E 198m,Off,5,3.971992,2.5357683,Time OK,Free running,50800,9019,0,2019-10-26 00:57:55.000000000,
1572053858,2019-10-26 01:37:38.747,47.652014N 0.542986E 198m,Doing fixes,5,3.6644173,2.1843426,Time OK,Coarse lock,100,9733,-8333,2019-10-26 01:37:35.000000000,
1572053918,2019-10-26 01:38:38.746,47.652014N 0.542986E 198m,Doing fixes,5,3.5970697,2.138173,Time OK,Fine lock,100,9017,-104,2019-10-26 01:38:35.000000000,
1572053978,2019-10-26 01:39:38.746,47.652014N 0.542986E 198m,Off,6,2.9168663,1.638631,Time OK,Free running,300,9019,0,2019-10-26 01:39:15.000000000,
1572054038,2019-10-26 01:40:38.746,47.652014N 0.542986E 198m,Off,6,2.9168663,1.638631,Time OK,Free running,1400,9019,0,2019-10-26 01:39:15.000000000,
1572054098,2019-10-26 01:41:38.746,47.652014N 0.542986E 198m,Off,6,2.9168663,1.638631,Time OK,Free running,2500,9019,0,2019-10-26 01:39:15.000000000,
1572054158,2019-10-26 01:42:38.748,47.652014N 0.542986E 198m,Off,6,2.9168663,1.638631,Time OK,Free running,3600,9019,0,2019-10-26 01:39:15.000000000,
1572054218,2019-10-26 01:43:38.746,47.652014N 0.542986E 198m,Off,6,2.9168663,1.638631,Time OK,Free running,4800,9019,0,2019-10-26 01:39:15.000000000,
1572054278,2019-10-26 01:44:38.746,47.652014N 0.542986E 198m,Off,6,2.9168663,1.638631,Time OK,Free running,5700,9019,0,2019-10-26 01:39:15.000000000,
1572054338,2019-10-26 01:45:38.746,47.652014N 0.542986E 198m,Off,6,2.9168663,1.638631,Time OK,Free running,6600,9019,0,2019-10-26 01:39:15.000000000,
1572054398,2019-10-26 01:46:38.746,47.652014N 0.542986E 198m,Off,6,2.9168663,1.638631,Time OK,Free running,8000,9019,0,2019-10-26 01:39:15.000000000,
1572054458,2019-10-26 01:47:38.746,47.652014N 0.542986E 198m,Off,6,2.9168663,1.638631,Time OK,Free running,9100,9019,0,2019-10-26 01:39:15.000000000,
1572054518,2019-10-26 01:48:38.746,47.652014N 0.542986E 198m,Off,6,2.9168663,1.638631,Time OK,Free running,9900,9019,0,2019-10-26 01:39:15.000000000,
1572054578,2019-10-26 01:49:38.746,47.652014N 0.542986E 198m,Off,6,2.9168663,1.638631,Time OK,Free running,10800,9019,0,2019-10-26 01:39:15.000000000,
1572054638,2019-10-26 01:50:38.746,47.652014N 0.542986E 198m,Off,6,2.9168663,1.638631,Time OK,Free running,12000,9019,0,2019-10-26 01:39:15.000000000,
1572054698,2019-10-26 01:51:38.746,47.652014N 0.542986E 198m,Off,6,2.9168663,1.638631,Time OK,Free running,13200,9019,0,2019-10-26 01:39:15.000000000,
1572054758,2019-10-26 01:52:38.746,47.652014N 0.542986E 198m,Off,6,2.9168663,1.638631,Time OK,Free running,14200,9019,0,2019-10-26 01:39:15.000000000,
1572054818,2019-10-26 01:53:38.746,47.652014N 0.542986E 198m,Off,6,2.9168663,1.638631,Time OK,Free running,15100,9019,0,2019-10-26 01:39:15.000000000,
1572054878,2019-10-26 01:54:38.746,47.652014N 0.542986E 198m,Off,6,2.9168663,1.638631,Time OK,Free running,15900,9019,0,2019-10-26 01:39:15.000000000,
1572054938,2019-10-26 01:55:38.746,47.652014N 0.542986E 198m,Off,6,2.9168663,1.638631,Time OK,Free running,16900,9019,0,2019-10-26 01:39:15.000000000,
1572054998,2019-10-26 01:56:38.746,47.652014N 0.542986E 198m,Off,6,2.9168663,1.638631,Time OK,Free running,18200,9019,0,2019-10-26 01:39:15.000000000,
1572055058,2019-10-26 01:57:38.746,47.652014N 0.542986E 198m,Off,6,2.9168663,1.638631,Time OK,Free running,19700,9019,0,2019-10-26 01:39:15.000000000,
1572055118,2019-10-26 01:58:38.746,47.652014N 0.542986E 198m,Off,6,2.9168663,1.638631,Time OK,Free running,21500,9019,0,2019-10-26 01:39:15.000000000,
1572055178,2019-10-26 01:59:38.746,47.652014N 0.542986E 198m,Off,6,2.9168663,1.638631,Time OK,Free running,23200,9019,0,2019-10-26 01:39:15.000000000,
