Time(longsecs),Time(UTC),GPS Satellite Acquisition Flag 1,GPS Satellite Acquisition Flag 2,GPS Satellite Acquisition Flag 3,GPS Satellite Acquisition Flag 4,GPS Satellite Acquisition Flag 5,GPS Satellite Acquisition Flag 6,GPS Satellite Acquisition Flag 7,GPS Satellite Acquisition Flag 8,GPS Satellite Acquisition Flag 9,GPS Satellite Acquisition Flag 10,GPS Satellite Acquisition Flag 11,GPS Satellite Acquisition Flag 12,GPS Satellite Azimuth 1(Degrees),GPS Satellite Azimuth 2(Degrees),GPS Satellite Azimuth 3(Degrees),GPS Satellite Azimuth 4(Degrees),GPS Satellite Azimuth 5(Degrees),GPS Satellite Azimuth 6(Degrees),GPS Satellite Azimuth 7(Degrees),GPS Satellite Azimuth 8(Degrees),GPS Satellite Azimuth 9(Degrees),GPS Satellite Azimuth 10(Degrees),GPS Satellite Azimuth 11(Degrees),GPS Satellite Azimuth 12(Degrees),GPS Satellite Elevation 1(Degrees),GPS Satellite Elevation 2(Degrees),GPS Satellite Elevation 3(Degrees),GPS Satellite Elevation 4(Degrees),GPS Satellite Elevation 5(Degrees),GPS Satellite Elevation 6(Degrees),GPS Satellite Elevation 7(Degrees),GPS Satellite Elevation 8(Degrees),GPS Satellite Elevation 9(Degrees),GPS Satellite Elevation 10(Degrees),GPS Satellite Elevation 11(Degrees),GPS Satellite Elevation 12(Degrees),GPS Satellite PRN 1,GPS Satellite PRN 2,GPS Satellite PRN 3,GPS Satellite PRN 4,GPS Satellite PRN 5,GPS Satellite PRN 6,GPS Satellite PRN 7,GPS Satellite PRN 8,GPS Satellite PRN 9,GPS Satellite PRN 10,GPS Satellite PRN 11,GPS Satellite PRN 12,GPS Satellite Signal Level 1(AMU),GPS Satellite Signal Level 2(AMU),GPS Satellite Signal Level 3(AMU),GPS Satellite Signal Level 4(AMU),GPS Satellite Signal Level 5(AMU),GPS Satellite Signal Level 6(AMU),GPS Satellite Signal Level 7(AMU),GPS Satellite Signal Level 8(AMU),GPS Satellite Signal Level 9(AMU),GPS Satellite Signal Level 10(AMU),GPS Satellite Signal Level 11(AMU),GPS Satellite Signal Level 12(AMU),
1572091238,2019-10-26 12:00:38.746,Acquired,Acquired,Acquired,Acquired,Not acquired,Acquired,Acquired,Not acquired,Acquired,Acquired,,,1.36583296E2,6.590179599999999E1,3.06248384E2,2.05311744E2,1.5877356799999998E2,2.49288544E2,2.74458752E2,8.2248808E1,1.71470992E2,4.5810772E1,,,3.043573E1,6.5995616E1,3.4255987999999995E1,3.8501224E1,1.4749848E1,4.2105984E1,4.2967684E1,4.498582E1,6.8327936E1,1.8054674E1,,,1,3,6,9,11,17,19,22,23,31,,,2,2,9,11,1,2,6,1,2,3,,,
1572091298,2019-10-26 12:01:38.746,Acquired,Acquired,Acquired,Acquired,Not acquired,Acquired,Acquired,Not acquired,Acquired,Acquired,,,1.36583296E2,6.590179599999999E1,3.06248384E2,2.05311744E2,1.5877356799999998E2,2.49288544E2,2.74458752E2,8.2248808E1,1.71470992E2,4.5810772E1,,,3.043573E1,6.5995616E1,3.4255987999999995E1,3.8501224E1,1.4749848E1,4.2105984E1,4.2967684E1,4.498582E1,6.8327936E1,1.8054674E1,,,1,3,6,9,11,17,19,22,23,31,,,2,2,9,11,1,2,6,1,2,3,,,
1572091358,2019-10-26 12:02:38.746,Acquired,Acquired,Acquired,Acquired,Not acquired,Acquired,Acquired,Not acquired,Acquired,Acquired,,,1.36583296E2,6.590179599999999E1,3.06248384E2,2.05311744E2,1.5877356799999998E2,2.49288544E2,2.74458752E2,8.2248808E1,1.71470992E2,4.5810772E1,,,3.043573E1,6.5995616E1,3.4255987999999995E1,3.8501224E1,1.4749848E1,4.2105984E1,4.2967684E1,4.498582E1,6.8327936E1,1.8054674E1,,,1,3,6,9,11,17,19,22,23,31,,,2,2,9,11,1,2,6,1,2,3,,,
1572091418,2019-10-26 12:03:38.746,Acquired,Acquired,Acquired,Acquired,Not acquired,Acquired,Acquired,Not acquired,Acquired,Acquired,,,1.36583296E2,6.590179599999999E1,3.06248384E2,2.05311744E2,1.5877356799999998E2,2.49288544E2,2.74458752E2,8.2248808E1,1.71470992E2,4.5810772E1,,,3.043573E1,6.5995616E1,3.4255987999999995E1,3.8501224E1,1.4749848E1,4.2105984E1,4.2967684E1,4.498582E1,6.8327936E1,1.8054674E1,,,1,3,6,9,11,17,19,22,23,31,,,2,2,9,11,1,2,6,1,2,3,,,
1572091478,2019-10-26 12:04:38.746,Acquired,Acquired,Acquired,Acquired,Not acquired,Acquired,Acquired,Not acquired,Acquired,Acquired,,,1.36583296E2,6.590179599999999E1,3.06248384E2,2.05311744E2,1.5877356799999998E2,2.49288544E2,2.74458752E2,8.2248808E1,1.71470992E2,4.5810772E1,,,3.043573E1,6.5995616E1,3.4255987999999995E1,3.8501224E1,1.4749848E1,4.2105984E1,4.2967684E1,4.498582E1,6.8327936E1,1.8054674E1,,,1,3,6,9,11,17,19,22,23,31,,,2,2,9,11,1,2,6,1,2,3,,,
1572091538,2019-10-26 12:05:38.747,Acquired,Acquired,Acquired,Acquired,Not acquired,Acquired,Acquired,Not acquired,Acquired,Acquired,,,1.36583296E2,6.590179599999999E1,3.06248384E2,2.05311744E2,1.5877356799999998E2,2.49288544E2,2.74458752E2,8.2248808E1,1.71470992E2,4.5810772E1,,,3.043573E1,6.5995616E1,3.4255987999999995E1,3.8501224E1,1.4749848E1,4.2105984E1,4.2967684E1,4.498582E1,6.8327936E1,1.8054674E1,,,1,3,6,9,11,17,19,22,23,31,,,2,2,9,11,1,2,6,1,2,3,,,
1572091598,2019-10-26 12:06:38.746,Acquired,Acquired,Acquired,Acquired,Acquired,Acquired,Acquired,Acquired,Acquired,Acquired,,,1.36792032E2,6.640749199999999E1,3.0623564799999997E2,2.0541545599999998E2,1.58806144E2,2.48761664E2,2.73818304E2,8.251096799999999E1,1.70881104E2,4.5408952E1,,,3.0010953999999998E1,6.5587228E1,3.4669916E1,3.8968979999999995E1,1.4333056E1,4.1840212E1,4.2912904E1,4.4596984E1,6.8748576E1,1.7941098E1,,,1,3,6,9,11,17,19,22,23,31,,,3,4,6,5,1,5,2,1,3,1,,,
1572091658,2019-10-26 12:07:38.746,Not acquired,Acquired,Acquired,Acquired,Acquired,Acquired,Acquired,Not acquired,Acquired,Acquired,,,1.42540864E2,7.959223999999999E1,3.02955488E2,2.08876496E2,2.3505776E2,2.5521568E2,9.0667056E1,1.287116E2,3.14321696E2,3.4147888E1,,,1.6877806E1,5.2844988E1,4.7710139999999996E1,5.3988644E1,3.1711674E1,3.7953804E1,3.2611132E1,7.813682399999999E1,8.800237E0,1.2433031E1,,,1,3,6,9,17,19,22,23,2,31,,,1,4,6,9,1,7,3,2,1,3,,,
1572091718,2019-10-26 12:08:38.746,Acquired,Acquired,Acquired,Acquired,Acquired,Acquired,Acquired,Acquired,Not acquired,Acquired,,,1.42699408E2,7.995832E1,3.02731072E2,2.08988416E2,2.3470073599999998E2,2.5469310399999998E2,9.092432E1,1.26476976E2,3.1434419199999996E2,3.3837579999999996E1,,,1.6466024E1,5.244274E1,4.8120107999999995E1,5.44773E1,3.1347344E1,3.7706652E1,3.2235444E1,7.8210184E1,9.165865E0,1.2202475E1,,,1,3,6,9,17,19,22,23,2,31,,,3,2,9,3,5,6,1,2,1,2,,,
1572091778,2019-10-26 12:09:38.746,Acquired,Acquired,Acquired,Acquired,Acquired,Acquired,Acquired,Acquired,Not acquired,Acquired,,,1.42699408E2,7.995832E1,3.02731072E2,2.08988416E2,2.3470073599999998E2,2.5469310399999998E2,9.092432E1,1.26476976E2,3.1434419199999996E2,3.3837579999999996E1,,,1.6466024E1,5.244274E1,4.8120107999999995E1,5.44773E1,3.1347344E1,3.7706652E1,3.2235444E1,7.8210184E1,9.165865E0,1.2202475E1,,,1,3,6,9,17,19,22,23,2,31,,,3,2,9,3,5,6,1,2,1,2,,,
1572091838,2019-10-26 12:10:38.746,Acquired,Acquired,Acquired,Acquired,Acquired,Acquired,Acquired,Acquired,Not acquired,Acquired,,,1.42699408E2,7.995832E1,3.02731072E2,2.08988416E2,2.3470073599999998E2,2.5469310399999998E2,9.092432E1,1.26476976E2,3.1434419199999996E2,3.3837579999999996E1,,,1.6466024E1,5.244274E1,4.8120107999999995E1,5.44773E1,3.1347344E1,3.7706652E1,3.2235444E1,7.8210184E1,9.165865E0,1.2202475E1,,,1,3,6,9,17,19,22,23,2,31,,,3,2,9,3,5,6,1,2,1,2,,,
1572091898,2019-10-26 12:11:38.746,Acquired,Acquired,Acquired,Acquired,Acquired,Acquired,Acquired,Acquired,Not acquired,Acquired,,,1.42699408E2,7.995832E1,3.02731072E2,2.08988416E2,2.3470073599999998E2,2.5469310399999998E2,9.092432E1,1.26476976E2,3.1434419199999996E2,3.3837579999999996E1,,,1.6466024E1,5.244274E1,4.8120107999999995E1,5.44773E1,3.1347344E1,3.7706652E1,3.2235444E1,7.8210184E1,9.165865E0,1.2202475E1,,,1,3,6,9,17,19,22,23,2,31,,,3,2,9,3,5,6,1,2,1,2,,,
1572091958,2019-10-26 12:12:38.746,Acquired,Acquired,Acquired,Acquired,Acquired,Acquired,Acquired,Acquired,Not acquired,Acquired,,,1.42699408E2,7.995832E1,3.02731072E2,2.08988416E2,2.3470073599999998E2,2.5469310399999998E2,9.092432E1,1.26476976E2,3.1434419199999996E2,3.3837579999999996E1,,,1.6466024E1,5.244274E1,4.8120107999999995E1,5.44773E1,3.1347344E1,3.7706652E1,3.2235444E1,7.8210184E1,9.165865E0,1.2202475E1,,,1,3,6,9,17,19,22,23,2,31,,,3,2,9,3,5,6,1,2,1,2,,,
1572092018,2019-10-26 12:13:38.746,Acquired,Acquired,Acquired,Acquired,Acquired,Acquired,Acquired,Acquired,Not acquired,Acquired,,,1.42699408E2,7.995832E1,3.02731072E2,2.08988416E2,2.3470073599999998E2,2.5469310399999998E2,9.092432E1,1.26476976E2,3.1434419199999996E2,3.3837579999999996E1,,,1.6466024E1,5.244274E1,4.8120107999999995E1,5.44773E1,3.1347344E1,3.7706652E1,3.2235444E1,7.8210184E1,9.165865E0,1.2202475E1,,,1,3,6,9,17,19,22,23,2,31,,,3,2,9,3,5,6,1,2,1,2,,,
1572092078,2019-10-26 12:14:38.747,Acquired,Acquired,Acquired,Acquired,Acquired,Acquired,Acquired,Acquired,Not acquired,Acquired,,,1.42699408E2,7.995832E1,3.02731072E2,2.08988416E2,2.3470073599999998E2,2.5469310399999998E2,9.092432E1,1.26476976E2,3.1434419199999996E2,3.3837579999999996E1,,,1.6466024E1,5.244274E1,4.8120107999999995E1,5.44773E1,3.1347344E1,3.7706652E1,3.2235444E1,7.8210184E1,9.165865E0,1.2202475E1,,,1,3,6,9,17,19,22,23,2,31,,,3,2,9,3,5,6,1,2,1,2,,,
1572092138,2019-10-26 12:15:38.746,Acquired,Acquired,Acquired,Acquired,Acquired,Acquired,Acquired,Acquired,Not acquired,Acquired,,,1.42699408E2,7.995832E1,3.02731072E2,2.08988416E2,2.3470073599999998E2,2.5469310399999998E2,9.092432E1,1.26476976E2,3.1434419199999996E2,3.3837579999999996E1,,,1.6466024E1,5.244274E1,4.8120107999999995E1,5.44773E1,3.1347344E1,3.7706652E1,3.2235444E1,7.8210184E1,9.165865E0,1.2202475E1,,,1,3,6,9,17,19,22,23,2,31,,,3,2,9,3,5,6,1,2,1,2,,,
1572092198,2019-10-26 12:16:38.746,Acquired,Acquired,Acquired,Acquired,Acquired,Acquired,Acquired,Acquired,Not acquired,Acquired,,,1.42699408E2,7.995832E1,3.02731072E2,2.08988416E2,2.3470073599999998E2,2.5469310399999998E2,9.092432E1,1.26476976E2,3.1434419199999996E2,3.3837579999999996E1,,,1.6466024E1,5.244274E1,4.8120107999999995E1,5.44773E1,3.1347344E1,3.7706652E1,3.2235444E1,7.8210184E1,9.165865E0,1.2202475E1,,,1,3,6,9,17,19,22,23,2,31,,,3,2,9,3,5,6,1,2,1,2,,,
1572092258,2019-10-26 12:17:38.746,Acquired,Acquired,Acquired,Acquired,Acquired,Acquired,Acquired,Acquired,Not acquired,Acquired,,,1.42699408E2,7.995832E1,3.02731072E2,2.08988416E2,2.3470073599999998E2,2.5469310399999998E2,9.092432E1,1.26476976E2,3.1434419199999996E2,3.3837579999999996E1,,,1.6466024E1,5.244274E1,4.8120107999999995E1,5.44773E1,3.1347344E1,3.7706652E1,3.2235444E1,7.8210184E1,9.165865E0,1.2202475E1,,,1,3,6,9,17,19,22,23,2,31,,,3,2,9,3,5,6,1,2,1,2,,,
1572092318,2019-10-26 12:18:38.746,Acquired,Acquired,Acquired,Acquired,Acquired,Acquired,Acquired,Acquired,Not acquired,Acquired,,,1.42699408E2,7.995832E1,3.02731072E2,2.08988416E2,2.3470073599999998E2,2.5469310399999998E2,9.092432E1,1.26476976E2,3.1434419199999996E2,3.3837579999999996E1,,,1.6466024E1,5.244274E1,4.8120107999999995E1,5.44773E1,3.1347344E1,3.7706652E1,3.2235444E1,7.8210184E1,9.165865E0,1.2202475E1,,,1,3,6,9,17,19,22,23,2,31,,,3,2,9,3,5,6,1,2,1,2,,,
1572092378,2019-10-26 12:19:38.746,Acquired,Acquired,Acquired,Acquired,Acquired,Acquired,Acquired,Acquired,Not acquired,Acquired,,,1.42699408E2,7.995832E1,3.02731072E2,2.08988416E2,2.3470073599999998E2,2.5469310399999998E2,9.092432E1,1.26476976E2,3.1434419199999996E2,3.3837579999999996E1,,,1.6466024E1,5.244274E1,4.8120107999999995E1,5.44773E1,3.1347344E1,3.7706652E1,3.2235444E1,7.8210184E1,9.165865E0,1.2202475E1,,,1,3,6,9,17,19,22,23,2,31,,,3,2,9,3,5,6,1,2,1,2,,,
1572092438,2019-10-26 12:20:38.746,Acquired,Acquired,Acquired,Acquired,Acquired,Acquired,Acquired,Acquired,Not acquired,Acquired,,,1.42699408E2,7.995832E1,3.02731072E2,2.08988416E2,2.3470073599999998E2,2.5469310399999998E2,9.092432E1,1.26476976E2,3.1434419199999996E2,3.3837579999999996E1,,,1.6466024E1,5.244274E1,4.8120107999999995E1,5.44773E1,3.1347344E1,3.7706652E1,3.2235444E1,7.8210184E1,9.165865E0,1.2202475E1,,,1,3,6,9,17,19,22,23,2,31,,,3,2,9,3,5,6,1,2,1,2,,,
1572092498,2019-10-26 12:21:38.746,Acquired,Acquired,Acquired,Acquired,Acquired,Acquired,Acquired,Acquired,Not acquired,Acquired,,,1.42699408E2,7.995832E1,3.02731072E2,2.08988416E2,2.3470073599999998E2,2.5469310399999998E2,9.092432E1,1.26476976E2,3.1434419199999996E2,3.3837579999999996E1,,,1.6466024E1,5.244274E1,4.8120107999999995E1,5.44773E1,3.1347344E1,3.7706652E1,3.2235444E1,7.8210184E1,9.165865E0,1.2202475E1,,,1,3,6,9,17,19,22,23,2,31,,,3,2,9,3,5,6,1,2,1,2,,,
1572092558,2019-10-26 12:22:38.746,Acquired,Acquired,Acquired,Acquired,Acquired,Acquired,Acquired,Acquired,Not acquired,Acquired,,,1.42699408E2,7.995832E1,3.02731072E2,2.08988416E2,2.3470073599999998E2,2.5469310399999998E2,9.092432E1,1.26476976E2,3.1434419199999996E2,3.3837579999999996E1,,,1.6466024E1,5.244274E1,4.8120107999999995E1,5.44773E1,3.1347344E1,3.7706652E1,3.2235444E1,7.8210184E1,9.165865E0,1.2202475E1,,,1,3,6,9,17,19,22,23,2,31,,,3,2,9,3,5,6,1,2,1,2,,,
1572092618,2019-10-26 12:23:38.746,Acquired,Acquired,Acquired,Acquired,Acquired,Acquired,Acquired,Acquired,Not acquired,Acquired,,,1.42699408E2,7.995832E1,3.02731072E2,2.08988416E2,2.3470073599999998E2,2.5469310399999998E2,9.092432E1,1.26476976E2,3.1434419199999996E2,3.3837579999999996E1,,,1.6466024E1,5.244274E1,4.8120107999999995E1,5.44773E1,3.1347344E1,3.7706652E1,3.2235444E1,7.8210184E1,9.165865E0,1.2202475E1,,,1,3,6,9,17,19,22,23,2,31,,,3,2,9,3,5,6,1,2,1,2,,,
1572092678,2019-10-26 12:24:38.746,Acquired,Acquired,Acquired,Acquired,Acquired,Acquired,Acquired,Acquired,Not acquired,Acquired,,,1.42699408E2,7.995832E1,3.02731072E2,2.08988416E2,2.3470073599999998E2,2.5469310399999998E2,9.092432E1,1.26476976E2,3.1434419199999996E2,3.3837579999999996E1,,,1.6466024E1,5.244274E1,4.8120107999999995E1,5.44773E1,3.1347344E1,3.7706652E1,3.2235444E1,7.8210184E1,9.165865E0,1.2202475E1,,,1,3,6,9,17,19,22,23,2,31,,,3,2,9,3,5,6,1,2,1,2,,,
1572092738,2019-10-26 12:25:38.746,Acquired,Acquired,Acquired,Acquired,Acquired,Acquired,Acquired,Acquired,Not acquired,Acquired,,,1.42699408E2,7.995832E1,3.02731072E2,2.08988416E2,2.3470073599999998E2,2.5469310399999998E2,9.092432E1,1.26476976E2,3.1434419199999996E2,3.3837579999999996E1,,,1.6466024E1,5.244274E1,4.8120107999999995E1,5.44773E1,3.1347344E1,3.7706652E1,3.2235444E1,7.8210184E1,9.165865E0,1.2202475E1,,,1,3,6,9,17,19,22,23,2,31,,,3,2,9,3,5,6,1,2,1,2,,,
1572092798,2019-10-26 12:26:38.746,Acquired,Acquired,Acquired,Acquired,Acquired,Acquired,Acquired,Acquired,Not acquired,Acquired,,,1.42699408E2,7.995832E1,3.02731072E2,2.08988416E2,2.3470073599999998E2,2.5469310399999998E2,9.092432E1,1.26476976E2,3.1434419199999996E2,3.3837579999999996E1,,,1.6466024E1,5.244274E1,4.8120107999999995E1,5.44773E1,3.1347344E1,3.7706652E1,3.2235444E1,7.8210184E1,9.165865E0,1.2202475E1,,,1,3,6,9,17,19,22,23,2,31,,,3,2,9,3,5,6,1,2,1,2,,,
1572092858,2019-10-26 12:27:38.746,Acquired,Acquired,Acquired,Acquired,Acquired,Acquired,Acquired,Acquired,Not acquired,Acquired,,,1.42699408E2,7.995832E1,3.02731072E2,2.08988416E2,2.3470073599999998E2,2.5469310399999998E2,9.092432E1,1.26476976E2,3.1434419199999996E2,3.3837579999999996E1,,,1.6466024E1,5.244274E1,4.8120107999999995E1,5.44773E1,3.1347344E1,3.7706652E1,3.2235444E1,7.8210184E1,9.165865E0,1.2202475E1,,,1,3,6,9,17,19,22,23,2,31,,,3,2,9,3,5,6,1,2,1,2,,,
1572092918,2019-10-26 12:28:38.746,Acquired,Acquired,Acquired,Acquired,Acquired,Acquired,Acquired,Acquired,Not acquired,Acquired,,,1.42699408E2,7.995832E1,3.02731072E2,2.08988416E2,2.3470073599999998E2,2.5469310399999998E2,9.092432E1,1.26476976E2,3.1434419199999996E2,3.3837579999999996E1,,,1.6466024E1,5.244274E1,4.8120107999999995E1,5.44773E1,3.1347344E1,3.7706652E1,3.2235444E1,7.8210184E1,9.165865E0,1.2202475E1,,,1,3,6,9,17,19,22,23,2,31,,,3,2,9,3,5,6,1,2,1,2,,,
1572092978,2019-10-26 12:29:38.746,Acquired,Acquired,Acquired,Acquired,Acquired,Acquired,Acquired,Acquired,Not acquired,Acquired,,,1.42699408E2,7.995832E1,3.02731072E2,2.08988416E2,2.3470073599999998E2,2.5469310399999998E2,9.092432E1,1.26476976E2,3.1434419199999996E2,3.3837579999999996E1,,,1.6466024E1,5.244274E1,4.8120107999999995E1,5.44773E1,3.1347344E1,3.7706652E1,3.2235444E1,7.8210184E1,9.165865E0,1.2202475E1,,,1,3,6,9,17,19,22,23,2,31,,,3,2,9,3,5,6,1,2,1,2,,,
1572093038,2019-10-26 12:30:38.746,Acquired,Acquired,Acquired,Acquired,Acquired,Acquired,Acquired,Acquired,Not acquired,Acquired,,,1.42699408E2,7.995832E1,3.02731072E2,2.08988416E2,2.3470073599999998E2,2.5469310399999998E2,9.092432E1,1.26476976E2,3.1434419199999996E2,3.3837579999999996E1,,,1.6466024E1,5.244274E1,4.8120107999999995E1,5.44773E1,3.1347344E1,3.7706652E1,3.2235444E1,7.8210184E1,9.165865E0,1.2202475E1,,,1,3,6,9,17,19,22,23,2,31,,,3,2,9,3,5,6,1,2,1,2,,,
1572093098,2019-10-26 12:31:38.748,Acquired,Acquired,Acquired,Acquired,Acquired,Acquired,Acquired,Acquired,Not acquired,Acquired,,,1.42699408E2,7.995832E1,3.02731072E2,2.08988416E2,2.3470073599999998E2,2.5469310399999998E2,9.092432E1,1.26476976E2,3.1434419199999996E2,3.3837579999999996E1,,,1.6466024E1,5.244274E1,4.8120107999999995E1,5.44773E1,3.1347344E1,3.7706652E1,3.2235444E1,7.8210184E1,9.165865E0,1.2202475E1,,,1,3,6,9,17,19,22,23,2,31,,,3,2,9,3,5,6,1,2,1,2,,,
1572093158,2019-10-26 12:32:38.746,Acquired,Acquired,Acquired,Acquired,Acquired,Acquired,Acquired,Acquired,Not acquired,Acquired,,,1.42699408E2,7.995832E1,3.02731072E2,2.08988416E2,2.3470073599999998E2,2.5469310399999998E2,9.092432E1,1.26476976E2,3.1434419199999996E2,3.3837579999999996E1,,,1.6466024E1,5.244274E1,4.8120107999999995E1,5.44773E1,3.1347344E1,3.7706652E1,3.2235444E1,7.8210184E1,9.165865E0,1.2202475E1,,,1,3,6,9,17,19,22,23,2,31,,,3,2,9,3,5,6,1,2,1,2,,,
1572093218,2019-10-26 12:33:38.746,Acquired,Acquired,Acquired,Acquired,Acquired,Acquired,Acquired,Acquired,Not acquired,Acquired,,,1.42699408E2,7.995832E1,3.02731072E2,2.08988416E2,2.3470073599999998E2,2.5469310399999998E2,9.092432E1,1.26476976E2,3.1434419199999996E2,3.3837579999999996E1,,,1.6466024E1,5.244274E1,4.8120107999999995E1,5.44773E1,3.1347344E1,3.7706652E1,3.2235444E1,7.8210184E1,9.165865E0,1.2202475E1,,,1,3,6,9,17,19,22,23,2,31,,,3,2,9,3,5,6,1,2,1,2,,,
1572093278,2019-10-26 12:34:38.746,Acquired,Acquired,Acquired,Acquired,Acquired,Acquired,Acquired,Acquired,Not acquired,Acquired,,,1.42699408E2,7.995832E1,3.02731072E2,2.08988416E2,2.3470073599999998E2,2.5469310399999998E2,9.092432E1,1.26476976E2,3.1434419199999996E2,3.3837579999999996E1,,,1.6466024E1,5.244274E1,4.8120107999999995E1,5.44773E1,3.1347344E1,3.7706652E1,3.2235444E1,7.8210184E1,9.165865E0,1.2202475E1,,,1,3,6,9,17,19,22,23,2,31,,,3,2,9,3,5,6,1,2,1,2,,,
1572093338,2019-10-26 12:35:38.746,Acquired,Acquired,Acquired,Acquired,Acquired,Acquired,Acquired,Acquired,Not acquired,Acquired,,,1.42699408E2,7.995832E1,3.02731072E2,2.08988416E2,2.3470073599999998E2,2.5469310399999998E2,9.092432E1,1.26476976E2,3.1434419199999996E2,3.3837579999999996E1,,,1.6466024E1,5.244274E1,4.8120107999999995E1,5.44773E1,3.1347344E1,3.7706652E1,3.2235444E1,7.8210184E1,9.165865E0,1.2202475E1,,,1,3,6,9,17,19,22,23,2,31,,,3,2,9,3,5,6,1,2,1,2,,,
1572093398,2019-10-26 12:36:38.746,Acquired,Acquired,Acquired,Acquired,Acquired,Acquired,Acquired,Acquired,Not acquired,Acquired,,,1.42699408E2,7.995832E1,3.02731072E2,2.08988416E2,2.3470073599999998E2,2.5469310399999998E2,9.092432E1,1.26476976E2,3.1434419199999996E2,3.3837579999999996E1,,,1.6466024E1,5.244274E1,4.8120107999999995E1,5.44773E1,3.1347344E1,3.7706652E1,3.2235444E1,7.8210184E1,9.165865E0,1.2202475E1,,,1,3,6,9,17,19,22,23,2,31,,,3,2,9,3,5,6,1,2,1,2,,,
1572093458,2019-10-26 12:37:38.749,Acquired,Acquired,Acquired,Acquired,Acquired,Acquired,Acquired,Acquired,Not acquired,Acquired,,,1.42699408E2,7.995832E1,3.02731072E2,2.08988416E2,2.3470073599999998E2,2.5469310399999998E2,9.092432E1,1.26476976E2,3.1434419199999996E2,3.3837579999999996E1,,,1.6466024E1,5.244274E1,4.8120107999999995E1,5.44773E1,3.1347344E1,3.7706652E1,3.2235444E1,7.8210184E1,9.165865E0,1.2202475E1,,,1,3,6,9,17,19,22,23,2,31,,,3,2,9,3,5,6,1,2,1,2,,,
1572093518,2019-10-26 12:38:38.746,Not acquired,Acquired,Acquired,Acquired,Acquired,Acquired,Acquired,Acquired,Acquired,Acquired,,,1.42862496E2,8.0335672E1,3.02488384E2,2.0910465599999998E2,2.34335488E2,2.54157296E2,9.1191024E1,1.24137456E2,3.14358496E2,3.3531936E1,,,1.6039593E1,5.2026288E1,4.8543428E1,5.498384E1,3.0967442E1,3.7445243999999995E1,3.1846484E1,7.8264224E1,9.539914E0,1.19698E1,,,1,3,6,9,17,19,22,23,2,31,,,1,4,6,8,3,5,3,2,4,1,,,
1572093578,2019-10-26 12:39:38.746,Acquired,Acquired,Acquired,Acquired,Acquired,Acquired,Not acquired,Acquired,Not acquired,,,,3.13552096E2,9.050120799999999E1,2.89454528E2,2.11852384E2,2.25297104E2,2.409452E2,9.8797432E1,7.4829624E1,1.6927776E2,,,,2.0607346E1,4.0085879999999996E1,5.9785627999999996E1,6.98648E1,1.9435412E1,2.8226736E1,2.0709722E1,7.180788E1,1.1431161E1,,,,2,3,6,9,17,19,22,23,7,,,,15,2,12,9,2,3,0,3,0,,,,
1572093638,2019-10-26 12:40:38.746,Acquired,Acquired,Acquired,Acquired,Acquired,Acquired,Not acquired,Acquired,Not acquired,,,,3.13552096E2,9.050120799999999E1,2.89454528E2,2.11852384E2,2.25297104E2,2.409452E2,9.8797432E1,7.4829624E1,1.6927776E2,,,,2.0607346E1,4.0085879999999996E1,5.9785627999999996E1,6.98648E1,1.9435412E1,2.8226736E1,2.0709722E1,7.180788E1,1.1431161E1,,,,2,3,6,9,17,19,22,23,7,,,,15,2,12,9,2,3,0,3,0,,,,
1572093698,2019-10-26 12:41:38.746,Acquired,Acquired,Acquired,Acquired,Acquired,Acquired,Not acquired,Acquired,Not acquired,,,,3.13552096E2,9.050120799999999E1,2.89454528E2,2.11852384E2,2.25297104E2,2.409452E2,9.8797432E1,7.4829624E1,1.6927776E2,,,,2.0607346E1,4.0085879999999996E1,5.9785627999999996E1,6.98648E1,1.9435412E1,2.8226736E1,2.0709722E1,7.180788E1,1.1431161E1,,,,2,3,6,9,17,19,22,23,7,,,,15,2,12,9,2,3,0,3,0,,,,
1572093758,2019-10-26 12:42:38.746,Acquired,Acquired,Acquired,Acquired,Acquired,Acquired,Not acquired,Acquired,Not acquired,,,,3.13552096E2,9.050120799999999E1,2.89454528E2,2.11852384E2,2.25297104E2,2.409452E2,9.8797432E1,7.4829624E1,1.6927776E2,,,,2.0607346E1,4.0085879999999996E1,5.9785627999999996E1,6.98648E1,1.9435412E1,2.8226736E1,2.0709722E1,7.180788E1,1.1431161E1,,,,2,3,6,9,17,19,22,23,7,,,,15,2,12,9,2,3,0,3,0,,,,
1572093818,2019-10-26 12:43:38.746,Acquired,Acquired,Acquired,Acquired,Acquired,Acquired,Not acquired,Acquired,Not acquired,,,,3.13552096E2,9.050120799999999E1,2.89454528E2,2.11852384E2,2.25297104E2,2.409452E2,9.8797432E1,7.4829624E1,1.6927776E2,,,,2.0607346E1,4.0085879999999996E1,5.9785627999999996E1,6.98648E1,1.9435412E1,2.8226736E1,2.0709722E1,7.180788E1,1.1431161E1,,,,2,3,6,9,17,19,22,23,7,,,,15,2,12,9,2,3,0,3,0,,,,
1572093878,2019-10-26 12:44:38.746,Acquired,Acquired,Acquired,Acquired,Acquired,Acquired,Not acquired,Acquired,Not acquired,,,,3.13552096E2,9.050120799999999E1,2.89454528E2,2.11852384E2,2.25297104E2,2.409452E2,9.8797432E1,7.4829624E1,1.6927776E2,,,,2.0607346E1,4.0085879999999996E1,5.9785627999999996E1,6.98648E1,1.9435412E1,2.8226736E1,2.0709722E1,7.180788E1,1.1431161E1,,,,2,3,6,9,17,19,22,23,7,,,,15,2,12,9,2,3,0,3,0,,,,
1572093938,2019-10-26 12:45:38.746,Acquired,Acquired,Acquired,Acquired,Acquired,Acquired,Not acquired,Acquired,Not acquired,,,,3.13552096E2,9.050120799999999E1,2.89454528E2,2.11852384E2,2.25297104E2,2.409452E2,9.8797432E1,7.4829624E1,1.6927776E2,,,,2.0607346E1,4.0085879999999996E1,5.9785627999999996E1,6.98648E1,1.9435412E1,2.8226736E1,2.0709722E1,7.180788E1,1.1431161E1,,,,2,3,6,9,17,19,22,23,7,,,,15,2,12,9,2,3,0,3,0,,,,
1572093998,2019-10-26 12:46:38.746,Acquired,Acquired,Acquired,Acquired,Acquired,Acquired,Not acquired,Acquired,Not acquired,,,,3.13552096E2,9.050120799999999E1,2.89454528E2,2.11852384E2,2.25297104E2,2.409452E2,9.8797432E1,7.4829624E1,1.6927776E2,,,,2.0607346E1,4.0085879999999996E1,5.9785627999999996E1,6.98648E1,1.9435412E1,2.8226736E1,2.0709722E1,7.180788E1,1.1431161E1,,,,2,3,6,9,17,19,22,23,7,,,,15,2,12,9,2,3,0,3,0,,,,
1572094058,2019-10-26 12:47:38.746,Acquired,Acquired,Acquired,Acquired,Acquired,Acquired,Not acquired,Acquired,Not acquired,,,,3.13552096E2,9.050120799999999E1,2.89454528E2,2.11852384E2,2.25297104E2,2.409452E2,9.8797432E1,7.4829624E1,1.6927776E2,,,,2.0607346E1,4.0085879999999996E1,5.9785627999999996E1,6.98648E1,1.9435412E1,2.8226736E1,2.0709722E1,7.180788E1,1.1431161E1,,,,2,3,6,9,17,19,22,23,7,,,,15,2,12,9,2,3,0,3,0,,,,
1572094118,2019-10-26 12:48:38.747,Acquired,Acquired,Acquired,Acquired,Acquired,Acquired,Not acquired,Acquired,Not acquired,,,,3.13552096E2,9.050120799999999E1,2.89454528E2,2.11852384E2,2.25297104E2,2.409452E2,9.8797432E1,7.4829624E1,1.6927776E2,,,,2.0607346E1,4.0085879999999996E1,5.9785627999999996E1,6.98648E1,1.9435412E1,2.8226736E1,2.0709722E1,7.180788E1,1.1431161E1,,,,2,3,6,9,17,19,22,23,7,,,,15,2,12,9,2,3,0,3,0,,,,
1572094178,2019-10-26 12:49:38.746,Acquired,Acquired,Acquired,Acquired,Acquired,Acquired,Not acquired,Acquired,Not acquired,,,,3.13552096E2,9.050120799999999E1,2.89454528E2,2.11852384E2,2.25297104E2,2.409452E2,9.8797432E1,7.4829624E1,1.6927776E2,,,,2.0607346E1,4.0085879999999996E1,5.9785627999999996E1,6.98648E1,1.9435412E1,2.8226736E1,2.0709722E1,7.180788E1,1.1431161E1,,,,2,3,6,9,17,19,22,23,7,,,,15,2,12,9,2,3,0,3,0,,,,
1572094238,2019-10-26 12:50:38.746,Acquired,Acquired,Acquired,Acquired,Acquired,Acquired,Not acquired,Acquired,Not acquired,,,,3.13552096E2,9.050120799999999E1,2.89454528E2,2.11852384E2,2.25297104E2,2.409452E2,9.8797432E1,7.4829624E1,1.6927776E2,,,,2.0607346E1,4.0085879999999996E1,5.9785627999999996E1,6.98648E1,1.9435412E1,2.8226736E1,2.0709722E1,7.180788E1,1.1431161E1,,,,2,3,6,9,17,19,22,23,7,,,,15,2,12,9,2,3,0,3,0,,,,
1572094298,2019-10-26 12:51:38.746,Acquired,Acquired,Acquired,Acquired,Acquired,Acquired,Not acquired,Acquired,Not acquired,,,,3.13552096E2,9.050120799999999E1,2.89454528E2,2.11852384E2,2.25297104E2,2.409452E2,9.8797432E1,7.4829624E1,1.6927776E2,,,,2.0607346E1,4.0085879999999996E1,5.9785627999999996E1,6.98648E1,1.9435412E1,2.8226736E1,2.0709722E1,7.180788E1,1.1431161E1,,,,2,3,6,9,17,19,22,23,7,,,,15,2,12,9,2,3,0,3,0,,,,
1572094358,2019-10-26 12:52:38.746,Acquired,Acquired,Acquired,Acquired,Acquired,Acquired,Not acquired,Acquired,Not acquired,,,,3.13552096E2,9.050120799999999E1,2.89454528E2,2.11852384E2,2.25297104E2,2.409452E2,9.8797432E1,7.4829624E1,1.6927776E2,,,,2.0607346E1,4.0085879999999996E1,5.9785627999999996E1,6.98648E1,1.9435412E1,2.8226736E1,2.0709722E1,7.180788E1,1.1431161E1,,,,2,3,6,9,17,19,22,23,7,,,,15,2,12,9,2,3,0,3,0,,,,
1572094418,2019-10-26 12:53:38.746,Acquired,Acquired,Acquired,Acquired,Acquired,Acquired,Not acquired,Acquired,Not acquired,,,,3.13552096E2,9.050120799999999E1,2.89454528E2,2.11852384E2,2.25297104E2,2.409452E2,9.8797432E1,7.4829624E1,1.6927776E2,,,,2.0607346E1,4.0085879999999996E1,5.9785627999999996E1,6.98648E1,1.9435412E1,2.8226736E1,2.0709722E1,7.180788E1,1.1431161E1,,,,2,3,6,9,17,19,22,23,7,,,,15,2,12,9,2,3,0,3,0,,,,
1572094478,2019-10-26 12:54:38.748,Acquired,Acquired,Acquired,Acquired,Acquired,Acquired,Not acquired,Acquired,Not acquired,,,,3.13552096E2,9.050120799999999E1,2.89454528E2,2.11852384E2,2.25297104E2,2.409452E2,9.8797432E1,7.4829624E1,1.6927776E2,,,,2.0607346E1,4.0085879999999996E1,5.9785627999999996E1,6.98648E1,1.9435412E1,2.8226736E1,2.0709722E1,7.180788E1,1.1431161E1,,,,2,3,6,9,17,19,22,23,7,,,,15,2,12,9,2,3,0,3,0,,,,
1572094538,2019-10-26 12:55:38.746,Acquired,Acquired,Acquired,Acquired,Acquired,Acquired,Not acquired,Acquired,Not acquired,,,,3.13552096E2,9.050120799999999E1,2.89454528E2,2.11852384E2,2.25297104E2,2.409452E2,9.8797432E1,7.4829624E1,1.6927776E2,,,,2.0607346E1,4.0085879999999996E1,5.9785627999999996E1,6.98648E1,1.9435412E1,2.8226736E1,2.0709722E1,7.180788E1,1.1431161E1,,,,2,3,6,9,17,19,22,23,7,,,,15,2,12,9,2,3,0,3,0,,,,
1572094598,2019-10-26 12:56:38.783,Acquired,Acquired,Acquired,Acquired,Acquired,Acquired,Not acquired,Acquired,Not acquired,,,,3.13552096E2,9.050120799999999E1,2.89454528E2,2.11852384E2,2.25297104E2,2.409452E2,9.8797432E1,7.4829624E1,1.6927776E2,,,,2.0607346E1,4.0085879999999996E1,5.9785627999999996E1,6.98648E1,1.9435412E1,2.8226736E1,2.0709722E1,7.180788E1,1.1431161E1,,,,2,3,6,9,17,19,22,23,7,,,,15,2,12,9,2,3,0,3,0,,,,
1572094658,2019-10-26 12:57:38.746,Acquired,Acquired,Acquired,Acquired,Acquired,Acquired,Not acquired,Acquired,Not acquired,,,,3.13552096E2,9.050120799999999E1,2.89454528E2,2.11852384E2,2.25297104E2,2.409452E2,9.8797432E1,7.4829624E1,1.6927776E2,,,,2.0607346E1,4.0085879999999996E1,5.9785627999999996E1,6.98648E1,1.9435412E1,2.8226736E1,2.0709722E1,7.180788E1,1.1431161E1,,,,2,3,6,9,17,19,22,23,7,,,,15,2,12,9,2,3,0,3,0,,,,
1572094718,2019-10-26 12:58:38.746,Acquired,Acquired,Acquired,Acquired,Acquired,Acquired,Not acquired,Acquired,Not acquired,,,,3.13552096E2,9.050120799999999E1,2.89454528E2,2.11852384E2,2.25297104E2,2.409452E2,9.8797432E1,7.4829624E1,1.6927776E2,,,,2.0607346E1,4.0085879999999996E1,5.9785627999999996E1,6.98648E1,1.9435412E1,2.8226736E1,2.0709722E1,7.180788E1,1.1431161E1,,,,2,3,6,9,17,19,22,23,7,,,,15,2,12,9,2,3,0,3,0,,,,
1572094778,2019-10-26 12:59:38.746,Acquired,Acquired,Acquired,Acquired,Acquired,Acquired,Not acquired,Acquired,Not acquired,,,,3.13552096E2,9.050120799999999E1,2.89454528E2,2.11852384E2,2.25297104E2,2.409452E2,9.8797432E1,7.4829624E1,1.6927776E2,,,,2.0607346E1,4.0085879999999996E1,5.9785627999999996E1,6.98648E1,1.9435412E1,2.8226736E1,2.0709722E1,7.180788E1,1.1431161E1,,,,2,3,6,9,17,19,22,23,7,,,,15,2,12,9,2,3,0,3,0,,,,
