Time(longsecs),Time(UTC),External SOH Voltage 1(V),External SOH Voltage 2(V),External SOH Voltage 3(V),External SOH Voltage 4(V),Sensor SOH Voltage 1(V),Sensor SOH Voltage 2(V),Sensor SOH Voltage 3(V),
1572062438,2019-10-26 04:00:38.746,-4.053116E-5,1.5661716E-3,-4.553795E-4,9.180546E-3,4.2708397E-1,4.3309498E-1,4.3105412E-1,
1572062498,2019-10-26 04:01:38.748,-2.6519299E-3,-9.493828E-4,-2.869606E-3,6.410837E-3,4.2070866E-1,4.2646217E-1,4.2506027E-1,
1572062558,2019-10-26 04:02:38.747,2.1457672E-5,1.8765926E-3,-2.8181076E-4,9.075642E-3,4.282999E-1,4.3369675E-1,4.351902E-1,
1572062618,2019-10-26 04:03:38.747,-2.4869442E-3,-5.7816505E-4,-2.2904873E-3,7.2984695E-3,4.2147255E-1,4.2702198E-1,4.2522526E-1,
1572062678,2019-10-26 04:04:38.747,-4.993677E-3,-3.1502247E-3,-5.190611E-3,4.398346E-3,4.1580772E-1,4.2181778E-1,4.226942E-1,
1572062738,2019-10-26 04:05:38.756,-2.1071434E-3,-2.0480156E-4,-2.4335384E-3,7.1587563E-3,4.231348E-1,4.3572998E-1,4.2823887E-1,
1572062798,2019-10-26 04:06:38.788,1.7404556E-5,1.7931461E-3,-1.3756752E-4,9.163141E-3,4.307785E-1,4.360714E-1,4.3448448E-1,
1572062858,2019-10-26 04:07:38.746,-4.839182E-3,-3.0930042E-3,-5.019903E-3,4.1639805E-3,4.1413498E-1,4.1931057E-1,4.1785526E-1,
1572062918,2019-10-26 04:08:38.746,-4.800558E-3,-3.0255318E-3,-5.047083E-3,4.4198036E-3,4.134121E-1,4.1922665E-1,4.2173862E-1,
1572062978,2019-10-26 04:09:38.746,-5.162716E-3,-2.942562E-3,-5.0389767E-3,4.323721E-3,4.1642666E-1,4.219265E-1,4.223795E-1,
1572063038,2019-10-26 04:10:38.746,-2.796173E-3,-9.508133E-4,-2.998352E-3,6.5784454E-3,4.200716E-1,4.2596245E-1,4.28236E-1,
1572063098,2019-10-26 04:11:38.746,-2.2625923E-3,-6.752014E-4,-2.6688576E-3,7.2107315E-3,4.2050552E-1,4.2675018E-1,4.2402363E-1,
1572063158,2019-10-26 04:12:38.746,3.0040741E-5,1.5888214E-3,-4.6777725E-4,9.232521E-3,4.2664528E-1,4.3329144E-1,4.2890072E-1,
1572063218,2019-10-26 04:13:38.746,-2.6900768E-3,-1.2760162E-3,-3.2756329E-3,6.160021E-3,4.1983128E-1,4.2595673E-1,4.219761E-1,
1572063278,2019-10-26 04:14:38.746,-2.219677E-3,-4.9090385E-4,-2.2940636E-3,6.9978237E-3,4.2085552E-1,4.266901E-1,4.2572975E-1,
1572063338,2019-10-26 04:15:38.748,-2.8722286E-3,-1.1587143E-3,-2.9957294E-3,6.489992E-3,4.2360973E-1,4.3036747E-1,4.227047E-1,
1572063398,2019-10-26 04:16:38.746,-2.2125244E-4,1.6272068E-3,-6.275177E-4,9.0909E-3,4.2911053E-1,4.3522167E-1,4.2926025E-1,
1572063458,2019-10-26 04:17:38.746,-2.7663708E-3,-1.1475086E-3,-2.9611588E-3,6.4668655E-3,4.196005E-1,4.2523766E-1,4.2410183E-1,
1572063518,2019-10-26 04:18:38.746,-2.727747E-3,-9.458065E-4,-2.9883385E-3,6.398201E-3,4.1943836E-1,4.2599297E-1,4.2412472E-1,
1572063578,2019-10-26 04:19:38.746,-2.1083355E-3,-4.6515465E-4,-2.4216175E-3,7.149935E-3,4.2307854E-1,4.290743E-1,4.286909E-1,
1572063638,2019-10-26 04:20:38.748,-2.3641586E-3,-4.4941902E-4,-2.4745464E-3,7.1275234E-3,4.2095757E-1,4.2634296E-1,4.2773438E-1,
1572063698,2019-10-26 04:21:38.746,-2.0897388E-3,-4.0316582E-4,-2.5503635E-3,7.15971E-3,4.203987E-1,4.2759514E-1,4.2747116E-1,
1572063758,2019-10-26 04:22:38.746,-2.0775795E-3,-3.4952164E-4,-2.4249554E-3,7.291794E-3,4.2112064E-1,4.2724514E-1,4.2555618E-1,
1572063818,2019-10-26 04:23:38.746,-1.9693375E-4,1.496315E-3,-4.6515465E-4,9.064198E-3,4.2927837E-1,4.3494034E-1,4.309225E-1,
1572063878,2019-10-26 04:24:38.746,-2.8390884E-3,-1.3484955E-3,-3.08609E-3,6.4172745E-3,4.220066E-1,4.2787075E-1,4.2747116E-1,
1572063938,2019-10-26 04:25:38.746,-4.869938E-3,-3.1945705E-3,-5.1198006E-3,4.1770935E-3,4.154482E-1,4.2188835E-1,4.123993E-1,
1572063998,2019-10-26 04:26:38.746,-2.6779175E-3,-1.0118484E-3,-2.9091835E-3,6.3974857E-3,4.2236423E-1,4.281454E-1,4.2687893E-1,
1572064058,2019-10-26 04:27:38.746,3.8146973E-5,1.5234947E-3,-3.466606E-4,9.047985E-3,4.2961216E-1,4.3548584E-1,4.3327522E-1,
1572064118,2019-10-26 04:28:38.746,-4.9085617E-3,-3.29113E-3,-5.0923824E-3,4.297495E-3,4.1523647E-1,4.2147732E-1,4.1832447E-1,
1572064178,2019-10-26 04:29:38.746,-2.5935173E-3,-1.0807514E-3,-3.0269623E-3,6.54006E-3,4.2162323E-1,4.277382E-1,4.272194E-1,
1572064238,2019-10-26 04:30:38.746,2.0503998E-5,1.8627644E-3,-2.925396E-4,9.29451E-3,4.273014E-1,4.3354225E-1,4.3483067E-1,
1572064298,2019-10-26 04:31:38.746,1.2397766E-4,1.7149448E-3,-1.3017654E-4,9.231806E-3,4.23316E-1,4.2967606E-1,4.2862225E-1,
1572064358,2019-10-26 04:32:38.746,-2.046585E-3,-1.6307831E-4,-2.383709E-3,7.3051453E-3,4.251318E-1,4.3184185E-1,4.2917442E-1,
1572064418,2019-10-26 04:33:38.789,1.0919571E-4,1.755476E-3,-2.863407E-4,9.1228485E-3,4.2835426E-1,4.3322277E-1,4.3250942E-1,
1572064478,2019-10-26 04:34:38.746,-1.9097328E-3,-1.9812584E-4,-2.247095E-3,7.2824955E-3,4.254427E-1,4.3109894E-1,4.2915535E-1,
1572064538,2019-10-26 04:35:38.789,-8.416176E-5,1.6140938E-3,-3.736019E-4,9.176493E-3,4.3185806E-1,4.354248E-1,4.3426132E-1,
1572064598,2019-10-26 04:36:38.746,-2.0489693E-3,-3.6764145E-4,-2.2556782E-3,7.2944164E-3,4.2358208E-1,4.2962742E-1,4.265585E-1,
1572064658,2019-10-26 04:37:38.746,-2.0754337E-3,-2.4414062E-4,-2.2683144E-3,6.9816113E-3,4.2150497E-1,4.2769337E-1,4.2596054E-1,
1572064718,2019-10-26 04:38:38.746,-2.7987957E-3,-1.1384487E-3,-2.9158592E-3,6.615162E-3,4.2080116E-1,4.2632294E-1,4.290514E-1,
1572064778,2019-10-26 04:39:38.746,-2.698183E-3,-1.083374E-3,-2.95043E-3,6.673813E-3,4.2070675E-1,4.2634296E-1,4.2609215E-1,
1572064838,2019-10-26 04:40:38.746,-4.814625E-3,-3.2200813E-3,-5.1715374E-3,4.2796135E-3,4.1312218E-1,4.1927528E-1,4.194975E-1,
1572064898,2019-10-26 04:41:38.746,-2.2189617E-3,-5.6505203E-4,-2.6750565E-3,7.0991516E-3,4.2042828E-1,4.2661762E-1,4.2116928E-1,
1572064958,2019-10-26 04:42:38.746,-1.7690659E-4,1.4104843E-3,-5.4192543E-4,8.92067E-3,4.2641735E-1,4.3266773E-1,4.2759895E-1,
1572065018,2019-10-26 04:43:38.746,-2.9206276E-3,-1.093626E-3,-3.0434132E-3,6.5574646E-3,4.2252064E-1,4.2797184E-1,4.2777348E-1,
1572065078,2019-10-26 04:44:38.746,-2.9017925E-3,-1.172781E-3,-3.307581E-3,6.2639713E-3,4.152794E-1,4.2144108E-1,4.218073E-1,
1572065138,2019-10-26 04:45:38.746,8.010864E-5,1.6357899E-3,-5.79834E-4,9.126902E-3,4.2895222E-1,4.3506718E-1,4.3492985E-1,
1572065198,2019-10-26 04:46:38.748,-5.0365925E-3,-3.181696E-3,-5.2063465E-3,4.216671E-3,4.133234E-1,4.1985893E-1,4.222231E-1,
1572065258,2019-10-26 04:47:38.746,-2.7530193E-3,-9.860992E-4,-2.966404E-3,6.5772533E-3,4.224701E-1,4.2853165E-1,4.3016338E-1,
1572065318,2019-10-26 04:48:38.746,-4.855156E-3,-3.1871796E-3,-5.149603E-3,4.413843E-3,4.1393948E-1,4.2008114E-1,4.1409397E-1,
1572065378,2019-10-26 04:49:38.746,-2.8192997E-3,-1.1284351E-3,-2.8669834E-3,6.324768E-3,4.199934E-1,4.2595768E-1,4.2375565E-1,
1572065438,2019-10-26 04:50:38.746,-4.9653053E-3,-3.296852E-3,-5.1112175E-3,4.2128563E-3,4.1358757E-1,4.1936207E-1,4.188223E-1,
1572065498,2019-10-26 04:51:38.746,-2.2039413E-3,-4.8422813E-4,-2.581358E-3,6.9932938E-3,4.2258167E-1,4.2869282E-1,4.266348E-1,
1572065558,2019-10-26 04:52:38.746,-4.8639774E-3,-3.1604767E-3,-5.0547123E-3,4.1999817E-3,4.137497E-1,4.1957664E-1,4.181633E-1,
1572065618,2019-10-26 04:53:38.746,-3.0088425E-4,1.431942E-3,-6.8354607E-4,9.149313E-3,4.284916E-1,4.3473434E-1,4.333086E-1,
1572065678,2019-10-26 04:54:38.746,-1.3113022E-5,1.5661716E-3,-3.6549568E-4,9.083986E-3,4.27248E-1,4.33918E-1,4.310732E-1,
1572065738,2019-10-26 04:55:38.746,-6.508827E-5,1.5318394E-3,-4.9090385E-4,8.980036E-3,4.2670918E-1,4.3285465E-1,4.2760086E-1,
1572065798,2019-10-26 04:56:38.746,-2.6817322E-3,-9.255409E-4,-2.93684E-3,6.451845E-3,4.234991E-1,4.302683E-1,4.2606544E-1,
1572065858,2019-10-26 04:57:38.746,-2.6648045E-3,-1.2049675E-3,-3.0686855E-3,6.54006E-3,4.1644096E-1,4.223795E-1,4.205389E-1,
1572065918,2019-10-26 04:58:38.746,-2.701521E-3,-9.4103813E-4,-2.9132366E-3,6.556034E-3,4.2054367E-1,4.2670345E-1,4.2850304E-1,
1572065978,2019-10-26 04:59:38.746,-2.1042824E-3,-2.5868416E-4,-2.5351048E-3,7.135153E-3,4.2480946E-1,4.3153858E-1,4.302578E-1,
