Time(longsecs),Time(UTC),Earth Location,GPS Receiver Status,GPS Satellites Used,GPS PDOP,GPS TDOP,Timing Status,Timing Phase Lock,Timing Uncertainty(ns),DAC Count,Timing Error(ns),GPS Last Update Time,
1572080438,2019-10-26 09:00:38.748,47.652066N 0.543164E 185m,Off,6,2.8843892,1.8126179,Time OK,Free running,4900,8983,0,2019-10-26 08:55:46.000000000,
1572080498,2019-10-26 09:01:38.746,47.652066N 0.543164E 185m,Off,6,2.8843892,1.8126179,Time OK,Free running,6100,8983,0,2019-10-26 08:55:46.000000000,
1572080558,2019-10-26 09:02:38.746,47.652066N 0.543164E 185m,Off,6,2.8843892,1.8126179,Time OK,Free running,7700,8983,0,2019-10-26 08:55:46.000000000,
1572080618,2019-10-26 09:03:38.746,47.652066N 0.543164E 185m,Off,6,2.8843892,1.8126179,Time OK,Free running,9000,8983,0,2019-10-26 08:55:46.000000000,
1572080678,2019-10-26 09:04:38.748,47.652066N 0.543164E 185m,Off,6,2.8843892,1.8126179,Time OK,Free running,10200,8983,0,2019-10-26 08:55:46.000000000,
1572080738,2019-10-26 09:05:38.748,47.652066N 0.543164E 185m,Off,6,2.8843892,1.8126179,Time OK,Free running,11400,8983,0,2019-10-26 08:55:46.000000000,
1572080798,2019-10-26 09:06:38.746,47.652066N 0.543164E 185m,Off,6,2.8843892,1.8126179,Time OK,Free running,12400,8983,0,2019-10-26 08:55:46.000000000,
1572080858,2019-10-26 09:07:38.746,47.652066N 0.543164E 185m,Off,6,2.8843892,1.8126179,Time OK,Free running,13500,8983,0,2019-10-26 08:55:46.000000000,
1572080918,2019-10-26 09:08:38.746,47.652066N 0.543164E 185m,Off,6,2.8843892,1.8126179,Time OK,Free running,14600,8983,0,2019-10-26 08:55:46.000000000,
1572080978,2019-10-26 09:09:38.746,47.652066N 0.543164E 185m,Off,6,2.8843892,1.8126179,Time OK,Free running,15500,8983,0,2019-10-26 08:55:46.000000000,
1572081038,2019-10-26 09:10:38.748,47.652066N 0.543164E 185m,Off,6,2.8843892,1.8126179,Time OK,Free running,16400,8983,0,2019-10-26 08:55:46.000000000,
1572081098,2019-10-26 09:11:38.746,47.652066N 0.543164E 185m,Off,6,2.8843892,1.8126179,Time OK,Free running,17300,8983,0,2019-10-26 08:55:46.000000000,
1572081158,2019-10-26 09:12:38.746,47.652066N 0.543164E 185m,Off,6,2.8843892,1.8126179,Time OK,Free running,18300,8983,0,2019-10-26 08:55:46.000000000,
1572081218,2019-10-26 09:13:38.746,47.652066N 0.543164E 185m,Off,6,2.8843892,1.8126179,Time OK,Free running,19300,8983,0,2019-10-26 08:55:46.000000000,
1572081278,2019-10-26 09:14:38.746,47.652066N 0.543164E 185m,Off,6,2.8843892,1.8126179,Time OK,Free running,20400,8983,0,2019-10-26 08:55:46.000000000,
1572081338,2019-10-26 09:15:38.746,47.652066N 0.543164E 185m,Off,6,2.8843892,1.8126179,Time OK,Free running,21500,8983,0,2019-10-26 08:55:46.000000000,
1572081398,2019-10-26 09:16:38.746,47.652066N 0.543164E 185m,Off,6,2.8843892,1.8126179,Time OK,Free running,22700,8983,0,2019-10-26 08:55:46.000000000,
1572081458,2019-10-26 09:17:38.746,47.652066N 0.543164E 185m,Off,6,2.8843892,1.8126179,Time OK,Free running,23700,8983,0,2019-10-26 08:55:46.000000000,
1572081518,2019-10-26 09:18:38.746,47.652066N 0.543164E 185m,Off,6,2.8843892,1.8126179,Time OK,Free running,24600,8983,0,2019-10-26 08:55:46.000000000,
1572081578,2019-10-26 09:19:38.746,47.652066N 0.543164E 185m,Off,6,2.8843892,1.8126179,Time OK,Free running,25700,8983,0,2019-10-26 08:55:46.000000000,
1572081638,2019-10-26 09:20:38.746,47.652066N 0.543164E 185m,Off,6,2.8843892,1.8126179,Time OK,Free running,26700,8983,0,2019-10-26 08:55:46.000000000,
1572081698,2019-10-26 09:21:38.746,47.652066N 0.543164E 185m,Off,6,2.8843892,1.8126179,Time OK,Free running,27500,8983,0,2019-10-26 08:55:46.000000000,
1572081758,2019-10-26 09:22:38.746,47.652066N 0.543164E 185m,Off,6,2.8843892,1.8126179,Time OK,Free running,28300,8983,0,2019-10-26 08:55:46.000000000,
1572081818,2019-10-26 09:23:38.746,47.652066N 0.543164E 185m,Off,6,2.8843892,1.8126179,Time OK,Free running,29200,8983,0,2019-10-26 08:55:46.000000000,
1572081878,2019-10-26 09:24:38.746,47.652066N 0.543164E 185m,Off,6,2.8843892,1.8126179,Time OK,Free running,30200,8983,0,2019-10-26 08:55:46.000000000,
1572081938,2019-10-26 09:25:38.746,47.652066N 0.543164E 185m,Off,6,2.8843892,1.8126179,Time OK,Free running,31400,8983,0,2019-10-26 08:55:46.000000000,
1572081998,2019-10-26 09:26:38.746,47.652066N 0.543164E 185m,Off,6,2.8843892,1.8126179,Time OK,Free running,32300,8983,0,2019-10-26 08:55:46.000000000,
1572082058,2019-10-26 09:27:38.746,47.652066N 0.543164E 185m,Off,6,2.8843892,1.8126179,Time OK,Free running,33200,8983,0,2019-10-26 08:55:46.000000000,
1572082118,2019-10-26 09:28:38.746,47.652066N 0.543164E 185m,Off,6,2.8843892,1.8126179,Time OK,Free running,34000,8983,0,2019-10-26 08:55:46.000000000,
1572082178,2019-10-26 09:29:38.787,47.652066N 0.543164E 185m,Off,6,2.8843892,1.8126179,Time OK,Free running,35000,8983,0,2019-10-26 08:55:46.000000000,
1572082238,2019-10-26 09:30:38.746,47.652066N 0.543164E 185m,Off,6,2.8843892,1.8126179,Time OK,Free running,36000,8983,0,2019-10-26 08:55:46.000000000,
1572082298,2019-10-26 09:31:38.746,47.652066N 0.543164E 185m,Off,6,2.8843892,1.8126179,Time OK,Free running,37000,8983,0,2019-10-26 08:55:46.000000000,
1572082358,2019-10-26 09:32:38.746,47.652066N 0.543164E 185m,Off,6,2.8843892,1.8126179,Time OK,Free running,38100,8983,0,2019-10-26 08:55:46.000000000,
1572082418,2019-10-26 09:33:38.746,47.652066N 0.543164E 185m,Off,6,2.8843892,1.8126179,Time OK,Free running,39400,8983,0,2019-10-26 08:55:46.000000000,
1572082478,2019-10-26 09:34:38.746,47.652066N 0.543164E 185m,Off,6,2.8843892,1.8126179,Time OK,Free running,41000,8983,0,2019-10-26 08:55:46.000000000,
1572082538,2019-10-26 09:35:38.746,47.652066N 0.543164E 185m,Off,6,2.8843892,1.8126179,Time OK,Free running,43000,8983,0,2019-10-26 08:55:46.000000000,
1572082598,2019-10-26 09:36:38.746,47.652066N 0.543164E 185m,Off,6,2.8843892,1.8126179,Time OK,Free running,44800,8983,0,2019-10-26 08:55:46.000000000,
1572082658,2019-10-26 09:37:38.746,47.652066N 0.543164E 185m,Off,6,2.8843892,1.8126179,Time OK,Free running,46400,8983,0,2019-10-26 08:55:46.000000000,
1572082718,2019-10-26 09:38:38.746,47.652066N 0.543164E 185m,Off,6,2.8843892,1.8126179,Time OK,Free running,48100,8983,0,2019-10-26 08:55:46.000000000,
1572082778,2019-10-26 09:39:38.748,47.652066N 0.543164E 185m,Off,6,2.8843892,1.8126179,Time OK,Free running,49500,8983,0,2019-10-26 08:55:46.000000000,
1572082838,2019-10-26 09:40:38.746,47.652066N 0.543164E 185m,Off,6,2.8843892,1.8126179,Time OK,Free running,50900,8983,0,2019-10-26 08:55:46.000000000,
1572082898,2019-10-26 09:41:38.747,47.652066N 0.543164E 185m,Doing fixes,8,2.7808375,1.8148049,Time OK,Coarse lock,100,9073,-520,2019-10-26 09:41:36.000000000,
1572082958,2019-10-26 09:42:38.746,47.652066N 0.543164E 185m,Doing fixes,6,3.008552,1.9088064,Time OK,Fine lock,100,8995,0,2019-10-26 09:42:36.000000000,
1572083018,2019-10-26 09:43:38.746,47.652066N 0.543164E 185m,Off,7,2.83505,1.8144715,Time OK,Free running,500,8996,0,2019-10-26 09:43:06.000000000,
1572083078,2019-10-26 09:44:38.746,47.652066N 0.543164E 185m,Off,7,2.83505,1.8144715,Time OK,Free running,1300,8996,0,2019-10-26 09:43:06.000000000,
1572083138,2019-10-26 09:45:38.746,47.652066N 0.543164E 185m,Off,7,2.83505,1.8144715,Time OK,Free running,2300,8996,0,2019-10-26 09:43:06.000000000,
1572083198,2019-10-26 09:46:38.746,47.652066N 0.543164E 185m,Off,7,2.83505,1.8144715,Time OK,Free running,3500,8996,0,2019-10-26 09:43:06.000000000,
1572083258,2019-10-26 09:47:38.746,47.652066N 0.543164E 185m,Off,7,2.83505,1.8144715,Time OK,Free running,4500,8996,0,2019-10-26 09:43:06.000000000,
1572083318,2019-10-26 09:48:38.746,47.652066N 0.543164E 185m,Off,7,2.83505,1.8144715,Time OK,Free running,5600,8996,0,2019-10-26 09:43:06.000000000,
1572083378,2019-10-26 09:49:38.746,47.652066N 0.543164E 185m,Off,7,2.83505,1.8144715,Time OK,Free running,6800,8996,0,2019-10-26 09:43:06.000000000,
1572083438,2019-10-26 09:50:38.746,47.652066N 0.543164E 185m,Off,7,2.83505,1.8144715,Time OK,Free running,7800,8996,0,2019-10-26 09:43:06.000000000,
1572083498,2019-10-26 09:51:38.746,47.652066N 0.543164E 185m,Off,7,2.83505,1.8144715,Time OK,Free running,8900,8996,0,2019-10-26 09:43:06.000000000,
1572083558,2019-10-26 09:52:38.746,47.652066N 0.543164E 185m,Off,7,2.83505,1.8144715,Time OK,Free running,10000,8996,0,2019-10-26 09:43:06.000000000,
1572083618,2019-10-26 09:53:38.746,47.652066N 0.543164E 185m,Off,7,2.83505,1.8144715,Time OK,Free running,11000,8996,0,2019-10-26 09:43:06.000000000,
1572083678,2019-10-26 09:54:38.746,47.652066N 0.543164E 185m,Off,7,2.83505,1.8144715,Time OK,Free running,12500,8996,0,2019-10-26 09:43:06.000000000,
1572083738,2019-10-26 09:55:38.748,47.652066N 0.543164E 185m,Off,7,2.83505,1.8144715,Time OK,Free running,14500,8996,0,2019-10-26 09:43:06.000000000,
1572083798,2019-10-26 09:56:38.746,47.652066N 0.543164E 185m,Off,7,2.83505,1.8144715,Time OK,Free running,16500,8996,0,2019-10-26 09:43:06.000000000,
1572083858,2019-10-26 09:57:38.746,47.652066N 0.543164E 185m,Off,7,2.83505,1.8144715,Time OK,Free running,18400,8996,0,2019-10-26 09:43:06.000000000,
1572083918,2019-10-26 09:58:38.746,47.652066N 0.543164E 185m,Off,7,2.83505,1.8144715,Time OK,Free running,20100,8996,0,2019-10-26 09:43:06.000000000,
1572083978,2019-10-26 09:59:38.746,47.652066N 0.543164E 185m,Off,7,2.83505,1.8144715,Time OK,Free running,21600,8996,0,2019-10-26 09:43:06.000000000,
