Time(longsecs),Time(UTC),External SOH Voltage 1(V),External SOH Voltage 2(V),External SOH Voltage 3(V),External SOH Voltage 4(V),Sensor SOH Voltage 1(V),Sensor SOH Voltage 2(V),Sensor SOH Voltage 3(V),
1570258826,2019-10-05 07:00:26.441,-3.7455559E-3,-3.2355785E-3,5.346298E-3,-1.1646748E-3,4.3475723E-1,4.3392754E-1,4.3284416E-1,
1570258886,2019-10-05 07:01:26.438,-3.881693E-3,-3.0674934E-3,4.7888756E-3,-1.2228489E-3,4.4056034E-1,4.3918324E-1,4.3761444E-1,
1570258946,2019-10-05 07:02:26.448,-4.8410892E-3,-3.8237572E-3,4.343033E-3,-2.1545887E-3,4.3297958E-1,4.3229485E-1,4.3123722E-1,
1570259006,2019-10-05 07:03:26.438,-6.618023E-3,-5.4912567E-3,2.5908947E-3,-4.473448E-3,4.2731762E-1,4.290657E-1,4.2519283E-1,
1570259066,2019-10-05 07:04:26.438,-4.473448E-3,-3.011942E-3,4.9567223E-3,-1.6746521E-3,4.361801E-1,4.357834E-1,4.340906E-1,
1570259126,2019-10-05 07:05:26.438,-2.0725727E-3,-9.698868E-4,7.1983337E-3,1.8668175E-4,4.3810272E-1,4.3782043E-1,4.3546772E-1,
1570259186,2019-10-05 07:06:26.438,-2.2547245E-3,-1.3847351E-3,7.0061684E-3,4.5919418E-4,4.3972492E-1,4.3903732E-1,4.3661976E-1,
1570259246,2019-10-05 07:07:26.438,-4.724741E-3,-3.8149357E-3,4.6384335E-3,-2.1102428E-3,4.360094E-1,4.3536854E-1,4.332714E-1,
1570259306,2019-10-05 07:08:26.438,-4.6892166E-3,-3.913641E-3,4.245758E-3,-1.7228127E-3,4.3538666E-1,4.34124E-1,4.3149662E-1,
1570259366,2019-10-05 07:09:26.438,-6.5472126E-3,-5.488634E-3,2.3388863E-3,-4.1844845E-3,4.2968273E-1,4.2979813E-1,4.2677784E-1,
1570259426,2019-10-05 07:10:26.438,-7.1234703E-3,-5.945921E-3,2.797842E-3,-3.6714077E-3,4.2395115E-1,4.245348E-1,4.207878E-1,
1570259486,2019-10-05 07:11:26.438,-6.508112E-3,-5.351782E-3,2.7296543E-3,-3.9241314E-3,4.2924213E-1,4.3031025E-1,4.271307E-1,
1570259546,2019-10-05 07:12:26.441,-4.170656E-3,-2.7468204E-3,5.2797794E-3,-1.1644363E-3,4.4284344E-1,4.4108105E-1,4.3956566E-1,
1570259606,2019-10-05 07:13:26.471,-2.5455952E-3,-1.5728474E-3,6.9310665E-3,5.264282E-4,4.39538E-1,4.399557E-1,4.4076824E-1,
1570259666,2019-10-05 07:14:26.441,-4.161358E-3,-3.4635067E-3,5.1345825E-3,-1.4944077E-3,4.3361568E-1,4.3354416E-1,4.3228626E-1,
1570259726,2019-10-05 07:15:26.439,-2.0809174E-3,-1.4908314E-3,6.6604614E-3,5.362034E-4,4.412527E-1,4.4020367E-1,4.3645573E-1,
1570259786,2019-10-05 07:16:26.438,-6.803274E-3,-5.661726E-3,2.594471E-3,-4.1069984E-3,4.2774677E-1,4.2749596E-1,4.2461014E-1,
1570259846,2019-10-05 07:17:26.439,-4.4014454E-3,-3.2334328E-3,4.835129E-3,-1.5633106E-3,4.3543434E-1,4.3509102E-1,4.3290806E-1,
1570259906,2019-10-05 07:18:26.438,-4.233837E-3,-3.3738613E-3,4.795313E-3,-1.5292168E-3,4.3659592E-1,4.3630695E-1,4.3239307E-1,
1570259966,2019-10-05 07:19:26.438,-6.8728924E-3,-5.62644E-3,2.878189E-3,-3.791809E-3,4.2874908E-1,4.281454E-1,4.275608E-1,
1570260026,2019-10-05 07:20:26.438,-6.979227E-3,-5.7137012E-3,2.421379E-3,-3.8568974E-3,4.290285E-1,4.284439E-1,4.257412E-1,
1570260086,2019-10-05 07:21:26.438,-2.1305084E-3,-1.3740063E-3,7.037401E-3,3.7026405E-4,4.372673E-1,4.349022E-1,4.3284988E-1,
1570260146,2019-10-05 07:22:26.438,-2.260685E-3,-1.3046265E-3,6.9642067E-3,5.378723E-4,4.3803787E-1,4.3750858E-1,4.350624E-1,
1570260206,2019-10-05 07:23:26.438,-4.6167374E-3,-4.0454865E-3,4.45199E-3,-2.109766E-3,4.3519783E-1,4.3464088E-1,4.326048E-1,
1570260266,2019-10-05 07:24:26.439,-3.8239956E-3,-3.4079552E-3,5.035639E-3,-1.5399456E-3,4.3399906E-1,4.335804E-1,4.322176E-1,
1570260326,2019-10-05 07:25:26.438,-4.388571E-3,-3.3316612E-3,5.2251816E-3,-1.1160374E-3,4.3214798E-1,4.3229675E-1,4.3051815E-1,
1570260386,2019-10-05 07:26:26.438,-4.694462E-3,-3.2773018E-3,5.1732063E-3,-1.8508434E-3,4.3680096E-1,4.3490028E-1,4.3275356E-1,
1570260446,2019-10-05 07:27:26.438,-4.4379234E-3,-3.742218E-3,4.5228004E-3,-2.3376942E-3,4.3528557E-1,4.3457222E-1,4.3369007E-1,
1570260506,2019-10-05 07:28:26.438,-6.9298744E-3,-6.071806E-3,2.8190613E-3,-3.8347244E-3,4.2921734E-1,4.2736912E-1,4.2600536E-1,
1570260566,2019-10-05 07:29:26.438,-4.4219494E-3,-3.1747818E-3,5.017996E-3,-1.4202595E-3,4.362316E-1,4.3543148E-1,4.3280697E-1,
1570260626,2019-10-05 07:30:26.438,-6.831646E-3,-5.8796406E-3,2.7496815E-3,-3.8957596E-3,4.2938423E-1,4.284048E-1,4.267378E-1,
1570260686,2019-10-05 07:31:26.438,-2.404213E-3,-1.5029907E-3,6.7067146E-3,3.9744377E-4,4.4084358E-1,4.4009304E-1,4.373989E-1,
1570260746,2019-10-05 07:32:26.441,-6.217003E-3,-5.727291E-3,2.960682E-3,-4.0929317E-3,4.247465E-1,4.244442E-1,4.2167282E-1,
1570260806,2019-10-05 07:33:26.441,-6.528139E-3,-5.371332E-3,2.8641224E-3,-3.7004948E-3,4.2747688E-1,4.2690754E-1,4.245577E-1,
1570260866,2019-10-05 07:34:26.439,-4.8499107E-3,-3.7827492E-3,4.7562122E-3,-2.240181E-3,4.3949032E-1,4.3805408E-1,4.3669224E-1,
1570260926,2019-10-05 07:35:26.448,-7.0376396E-3,-5.601883E-3,2.5787354E-3,-4.266262E-3,4.2674828E-1,4.279375E-1,4.2507648E-1,
1570260986,2019-10-05 07:36:26.438,-2.1026134E-3,-1.7921925E-3,7.3013306E-3,6.659031E-4,4.4082355E-1,4.4025898E-1,4.363985E-1,
1570261046,2019-10-05 07:37:26.438,-1.8641949E-3,-1.4739037E-3,6.772518E-3,5.7935715E-4,4.3794155E-1,4.3769073E-1,4.3472195E-1,
1570261106,2019-10-05 07:38:26.439,-5.0275326E-3,-3.6671162E-3,4.410267E-3,-1.7774105E-3,4.334612E-1,4.3319893E-1,4.3086815E-1,
1570261166,2019-10-05 07:39:26.439,-6.443262E-3,-5.805731E-3,2.768755E-3,-4.1270256E-3,4.2727852E-1,4.2732334E-1,4.237175E-1,
1570261226,2019-10-05 07:40:26.441,-2.3367405E-3,-1.3000965E-3,6.9994926E-3,3.426075E-4,4.4214058E-1,4.4117165E-1,4.396429E-1,
1570261286,2019-10-05 07:41:26.439,-6.84762E-3,-5.6915283E-3,2.8562546E-3,-4.1310787E-3,4.2729855E-1,4.274807E-1,4.2516518E-1,
1570261346,2019-10-05 07:42:26.438,-6.6301823E-3,-5.5935383E-3,2.4476051E-3,-3.984213E-3,4.3026638E-1,4.2914486E-1,4.2729664E-1,
1570261406,2019-10-05 07:43:26.438,-4.2595863E-3,-3.2951832E-3,4.901886E-3,-1.6126633E-3,4.3106842E-1,4.3078232E-1,4.2943668E-1,
1570261466,2019-10-05 07:44:26.438,-6.5100193E-3,-6.0036182E-3,2.6025772E-3,-4.2414665E-3,4.3104744E-1,4.2894936E-1,4.2713642E-1,
1570261526,2019-10-05 07:45:26.438,-6.7822933E-3,-5.8367252E-3,2.360344E-3,-4.0512085E-3,4.3504047E-1,4.3477917E-1,4.3182564E-1,
1570261586,2019-10-05 07:46:26.438,-1.9335747E-3,-1.6207695E-3,7.048607E-3,6.444454E-4,4.383793E-1,4.373026E-1,4.3531322E-1,
1570261646,2019-10-05 07:47:26.439,-4.2505264E-3,-3.2777786E-3,5.047083E-3,-1.0960102E-3,4.32374E-1,4.3229103E-1,4.3058205E-1,
1570261706,2019-10-05 07:48:26.439,-4.17614E-3,-3.0755997E-3,5.2571297E-3,-1.4908314E-3,4.3454456E-1,4.336815E-1,4.3111897E-1,
1570261766,2019-10-05 07:49:26.439,-4.507065E-3,-3.2274723E-3,5.0086975E-3,-1.5752316E-3,4.346056E-1,4.344082E-1,4.3141842E-1,
1570261826,2019-10-05 07:50:26.438,-2.6187897E-3,-1.3320446E-3,6.688595E-3,4.580021E-4,4.4247437E-1,4.4021702E-1,4.4089127E-1,
1570261886,2019-10-05 07:51:26.439,-2.0058155E-3,-1.6405582E-3,6.7715645E-3,5.1259995E-5,4.3965912E-1,4.4066525E-1,4.3640614E-1,
1570261946,2019-10-05 07:52:26.439,-2.2177696E-3,-1.5406609E-3,7.118225E-3,6.995201E-4,4.3918228E-1,4.404106E-1,4.424162E-1,
1570262006,2019-10-05 07:53:26.441,-2.2947788E-3,-1.6245842E-3,6.553173E-3,6.3967705E-4,4.3801498E-1,4.3741035E-1,4.3553448E-1,
1570262066,2019-10-05 07:54:26.440,-6.989479E-3,-5.5077076E-3,2.7163029E-3,-3.8006306E-3,4.1900063E-1,4.1930294E-1,4.1657066E-1,
1570262126,2019-10-05 07:55:26.438,-7.009983E-3,-5.8476925E-3,2.4979115E-3,-4.221678E-3,4.2677975E-1,4.2639065E-1,4.267044E-1,
1570262186,2019-10-05 07:56:26.439,-5.014181E-3,-4.2431355E-3,4.651308E-3,-1.8424988E-3,4.413929E-1,4.422388E-1,4.3817806E-1,
1570262246,2019-10-05 07:57:26.438,-2.3725033E-3,-1.3473034E-3,7.040024E-3,1.2421608E-4,4.4184303E-1,4.426775E-1,4.385109E-1,
1570262306,2019-10-05 07:58:26.438,-6.7260265E-3,-5.4762363E-3,2.5646687E-3,-3.8068295E-3,4.2620373E-1,4.2752743E-1,4.2463493E-1,
1570262366,2019-10-05 07:59:26.438,-5.123377E-3,-3.6177635E-3,4.6436787E-3,-2.5651455E-3,4.366398E-1,4.3514442E-1,4.3331242E-1,
