Time(longsecs),Time(UTC),External SOH Voltage 1(V),External SOH Voltage 2(V),External SOH Voltage 3(V),External SOH Voltage 4(V),Sensor SOH Voltage 1(V),Sensor SOH Voltage 2(V),Sensor SOH Voltage 3(V),
1570266026,2019-10-05 09:00:26.439,-4.312992E-3,-3.631115E-3,5.2087307E-3,-1.1324883E-3,4.2997074E-1,4.2888927E-1,4.274664E-1,
1570266086,2019-10-05 09:01:26.438,-4.542589E-3,-3.673792E-3,4.5444965E-3,-2.1502972E-3,4.3556595E-1,4.3495274E-1,4.341936E-1,
1570266146,2019-10-05 09:02:26.438,-6.4480305E-3,-6.151676E-3,2.3777485E-3,-4.119396E-3,4.3226147E-1,4.3141556E-1,4.262066E-1,
1570266206,2019-10-05 09:03:26.438,-2.6080608E-3,-1.4407635E-3,6.9880486E-3,2.9468536E-4,4.3806267E-1,4.3676567E-1,4.3493652E-1,
1570266266,2019-10-05 09:04:26.438,-6.542444E-3,-5.856514E-3,2.6926994E-3,-2.616644E-3,4.2371368E-1,4.227352E-1,4.26713E-1,
1570266326,2019-10-05 09:05:26.439,-4.807234E-3,-3.8790703E-3,4.5785904E-3,-2.305746E-3,4.319725E-1,4.3099976E-1,4.2738914E-1,
1570266386,2019-10-05 09:06:26.439,-2.5060177E-3,-1.31464E-3,6.90341E-3,2.2387505E-4,4.3973064E-1,4.3963242E-1,4.374895E-1,
1570266446,2019-10-05 09:07:26.438,-4.3537617E-3,-3.5486221E-3,4.786968E-3,-1.9145012E-3,4.3166447E-1,4.314766E-1,4.2908E-1,
1570266506,2019-10-05 09:08:26.438,-3.8404465E-3,-2.9916763E-3,5.145788E-3,-1.429081E-3,4.345417E-1,4.3234062E-1,4.3060112E-1,
1570266566,2019-10-05 09:09:26.438,-4.263878E-3,-3.0429363E-3,5.291939E-3,-1.3988018E-3,4.317236E-1,4.3078423E-1,4.3025684E-1,
1570266626,2019-10-05 09:10:26.439,-4.0962696E-3,-3.2143593E-3,5.1345825E-3,-1.5776157E-3,4.3592644E-1,4.3442726E-1,4.3307018E-1,
1570266686,2019-10-05 09:11:26.438,-2.0563602E-3,-1.5175343E-3,6.787777E-3,3.0112267E-4,4.3643475E-1,4.3441296E-1,4.3250656E-1,
1570266746,2019-10-05 09:12:26.438,-4.274845E-3,-2.9010773E-3,5.1641464E-3,-1.7254353E-3,4.3420696E-1,4.3396473E-1,4.2950916E-1,
1570266806,2019-10-05 09:13:26.438,-2.2144318E-3,-1.5466213E-3,7.116556E-3,1.513958E-4,4.4176483E-1,4.400587E-1,4.3906593E-1,
1570266866,2019-10-05 09:14:26.438,-2.2599697E-3,-1.7368793E-3,6.8314075E-3,4.8422813E-4,4.3661976E-1,4.350109E-1,4.3311405E-1,
1570266926,2019-10-05 09:15:26.441,-4.5895576E-3,-3.7078857E-3,4.438877E-3,-2.33984E-3,4.3256283E-1,4.3100548E-1,4.2835522E-1,
1570266986,2019-10-05 09:16:26.448,-4.4896603E-3,-3.4546852E-3,5.4109097E-3,-1.5108585E-3,4.3370342E-1,4.3380165E-1,4.2958832E-1,
1570267046,2019-10-05 09:17:26.438,-2.3498535E-3,-1.5029907E-3,7.0021152E-3,2.5367737E-4,4.367628E-1,4.355116E-1,4.3351078E-1,
1570267106,2019-10-05 09:18:26.439,-6.778717E-3,-5.7094097E-3,3.0059814E-3,-3.8926601E-3,4.2838955E-1,4.2819023E-1,4.2563057E-1,
1570267166,2019-10-05 09:19:26.438,-3.9508343E-3,-2.9304028E-3,5.276203E-3,-1.2083054E-3,4.3479538E-1,4.3440723E-1,4.311514E-1,
1570267226,2019-10-05 09:20:26.439,-2.0184517E-3,-1.1746883E-3,6.837845E-3,7.278919E-4,4.3591785E-1,4.3553257E-1,4.3310833E-1,
1570267286,2019-10-05 09:21:26.438,-4.6720505E-3,-3.9913654E-3,4.3423176E-3,-2.4044514E-3,4.3585873E-1,4.3370914E-1,4.3312168E-1,
1570267346,2019-10-05 09:22:26.438,-5.079508E-3,-3.9277077E-3,4.292965E-3,-2.118826E-3,4.2595196E-1,4.242735E-1,4.2342758E-1,
1570267406,2019-10-05 09:23:26.438,-4.73547E-3,-3.795147E-3,4.515171E-3,-1.962185E-3,4.3093872E-1,4.2848587E-1,4.2940807E-1,
1570267466,2019-10-05 09:24:26.438,-1.9271374E-3,-1.3377666E-3,6.938219E-3,2.746582E-4,4.416256E-1,4.4254017E-1,4.4019318E-1,
1570267526,2019-10-05 09:25:26.439,-4.791498E-3,-3.4866333E-3,4.8406124E-3,-2.5439262E-3,4.343462E-1,4.3378258E-1,4.3332958E-1,
1570267586,2019-10-05 09:26:26.471,-2.2511482E-3,-1.2774467E-3,7.104397E-3,1.3084412E-3,4.3808174E-1,4.359789E-1,4.353838E-1,
1570267646,2019-10-05 09:27:26.438,-2.2211075E-3,-1.1644363E-3,7.0314407E-3,2.2697449E-4,4.3755913E-1,4.379034E-1,4.3449593E-1,
1570267706,2019-10-05 09:28:26.438,-4.860401E-3,-3.7209988E-3,4.4908524E-3,-2.011776E-3,4.322424E-1,4.3319702E-1,4.2909718E-1,
1570267766,2019-10-05 09:29:26.439,-2.1874905E-3,-1.5633106E-3,6.8790913E-3,3.5572052E-4,4.4025135E-1,4.3745708E-1,4.367199E-1,
1570267826,2019-10-05 09:30:26.440,-4.714966E-3,-4.1587353E-3,4.237652E-3,-2.206564E-3,4.341364E-1,4.3347168E-1,4.294424E-1,
1570267886,2019-10-05 09:31:26.438,-5.0952435E-3,-3.7250519E-3,4.637003E-3,-2.2850037E-3,4.3078613E-1,4.312458E-1,4.2816162E-1,
1570267946,2019-10-05 09:32:26.438,-2.1173954E-3,-1.3656616E-3,6.993532E-3,5.288124E-4,4.363966E-1,4.3481255E-1,4.3376637E-1,
1570268006,2019-10-05 09:33:26.438,-4.0073395E-3,-3.213644E-3,4.9307346E-3,-1.013279E-3,4.259119E-1,4.2554283E-1,4.2410278E-1,
1570268066,2019-10-05 09:34:26.441,-4.781246E-3,-4.173279E-3,4.6243668E-3,-1.8427372E-3,4.3138027E-1,4.306202E-1,4.2690182E-1,
1570268126,2019-10-05 09:35:26.438,-4.5285225E-3,-3.6931038E-3,4.143715E-3,-2.145052E-3,4.3405533E-1,4.343462E-1,4.2822266E-1,
1570268186,2019-10-05 09:36:26.438,-4.7254562E-3,-3.5629272E-3,4.337311E-3,-1.8415451E-3,4.3532848E-1,4.3462753E-1,4.3204117E-1,
1570268246,2019-10-05 09:37:26.438,-7.0705414E-3,-6.2203407E-3,2.3124218E-3,-4.4984818E-3,4.2428493E-1,4.2248154E-1,4.2285156E-1,
1570268306,2019-10-05 09:38:26.438,-2.4745464E-3,-1.2900829E-3,6.9532394E-3,2.257824E-4,4.374237E-1,4.381008E-1,4.3443775E-1,
1570268366,2019-10-05 09:39:26.438,-4.463911E-3,-4.1275024E-3,5.0344467E-3,-1.5144348E-3,4.2952156E-1,4.2890644E-1,4.274721E-1,
1570268426,2019-10-05 09:40:26.438,-4.1952133E-3,-3.4148693E-3,5.041361E-3,-1.7306805E-3,4.313612E-1,4.3136978E-1,4.284792E-1,
1570268486,2019-10-05 09:41:26.471,-7.0319176E-3,-5.8231354E-3,2.5196075E-3,-2.393484E-3,4.2519283E-1,4.248352E-1,4.2227364E-1,
1570268546,2019-10-05 09:42:26.469,-5.1119328E-3,-3.9231777E-3,4.6463013E-3,-1.995325E-3,4.3007278E-1,4.3063068E-1,4.310665E-1,
1570268606,2019-10-05 09:43:26.438,-4.7171116E-3,-3.887415E-3,4.68874E-3,-2.2864342E-3,4.3301773E-1,4.3280888E-1,4.2983913E-1,
1570268666,2019-10-05 09:44:26.439,-4.229784E-3,-3.5214424E-3,5.1572323E-3,-1.5208721E-3,4.3243122E-1,4.3129253E-1,4.2890358E-1,
1570268726,2019-10-05 09:45:26.438,-2.5930405E-3,-1.430273E-3,6.787777E-3,1.3232231E-4,4.390173E-1,4.3894005E-1,4.3533802E-1,
1570268786,2019-10-05 09:46:26.438,-4.429817E-3,-3.1750202E-3,5.0792694E-3,-1.4617443E-3,4.4068336E-1,4.398346E-1,4.342518E-1,
1570268846,2019-10-05 09:47:26.438,-2.0513535E-3,-1.2373924E-3,7.0307255E-3,8.985996E-4,4.380293E-1,4.3731976E-1,4.3540955E-1,
1570268906,2019-10-05 09:48:26.441,-2.556324E-3,-1.167059E-3,6.6218376E-3,3.0446053E-4,4.3628025E-1,4.343853E-1,4.3383503E-1,
1570268966,2019-10-05 09:49:26.438,-4.2414665E-3,-3.9818287E-3,4.45652E-3,-2.646923E-3,4.3122482E-1,4.302292E-1,4.2526245E-1,
1570269026,2019-10-05 09:50:26.438,-2.0725727E-3,-1.6040802E-3,6.8774223E-3,4.374981E-4,4.3771362E-1,4.377842E-1,4.352293E-1,
1570269086,2019-10-05 09:51:26.438,-4.0607452E-3,-3.2777786E-3,5.4790974E-3,-1.6140938E-3,4.304695E-1,4.3016338E-1,4.2701054E-1,
1570269146,2019-10-05 09:52:26.438,-4.3537617E-3,-3.2391548E-3,5.2161217E-3,-1.5215874E-3,4.290762E-1,4.291954E-1,4.2815495E-1,
1570269206,2019-10-05 09:53:26.438,-4.9738884E-3,-4.0011406E-3,4.635334E-3,-2.3069382E-3,4.295597E-1,4.2783642E-1,4.259224E-1,
1570269266,2019-10-05 09:54:26.439,-4.19116E-3,-3.196478E-3,5.4831505E-3,-1.6093254E-3,4.3265915E-1,4.3036747E-1,4.291706E-1,
1570269326,2019-10-05 09:55:26.441,-3.7281513E-3,-3.3090115E-3,5.2399635E-3,-1.3988018E-3,4.2601967E-1,4.263029E-1,4.277506E-1,
1570269386,2019-10-05 09:56:26.439,-6.6211224E-3,-6.1137676E-3,2.547264E-3,-4.083395E-3,4.253111E-1,4.2493534E-1,4.222927E-1,
1570269446,2019-10-05 09:57:26.438,-4.8089027E-3,-3.4868717E-3,4.7278404E-3,-2.3462772E-3,4.3513298E-1,4.3389606E-1,4.3132782E-1,
1570269506,2019-10-05 09:58:26.438,-2.5744438E-3,-1.5821457E-3,6.965637E-3,1.5592575E-4,4.3753147E-1,4.3704128E-1,4.3741512E-1,
1570269566,2019-10-05 09:59:26.439,-4.1747093E-3,-3.1630993E-3,5.1255226E-3,-1.2934208E-3,4.3158913E-1,4.3082333E-1,4.3005562E-1,
