Time(longsecs),Time(UTC),Supply Voltage(mV),Temperature(&deg;C),NMX Bus Current(mA),Sensor Current(mA),Serial Port Current(mA),Controller Current(mA),Digitizer Current(mA),
1570255226,2019-10-05 06:00:26.439,15384,2.0801056E1,0,10,0,71,42,
1570255286,2019-10-05 06:01:26.439,15357,2.0912231E1,0,11,0,71,46,
1570255346,2019-10-05 06:02:26.441,15411,2.120517E1,0,12,0,72,45,
1570255406,2019-10-05 06:03:26.438,15397,2.0856659E1,0,12,0,57,48,
1570255466,2019-10-05 06:04:26.439,15357,2.0820312E1,0,10,0,61,47,
1570255526,2019-10-05 06:05:26.438,15384,2.0950745E1,0,9,0,61,44,
1570255586,2019-10-05 06:06:26.438,15357,2.1125E1,0,9,0,63,45,
1570255646,2019-10-05 06:07:26.438,15397,2.0966766E1,0,15,0,58,44,
1570255706,2019-10-05 06:08:26.438,15397,2.080426E1,0,11,0,56,48,
1570255766,2019-10-05 06:09:26.438,15370,2.0996704E1,0,11,0,59,47,
1570255826,2019-10-05 06:10:26.438,15397,2.0972107E1,0,9,0,63,48,
1570255886,2019-10-05 06:11:26.438,15384,2.099884E1,0,10,0,64,44,
1570255946,2019-10-05 06:12:26.438,15384,2.1146362E1,0,6,0,52,46,
1570256006,2019-10-05 06:13:26.438,15384,2.0992432E1,0,9,0,63,44,
1570256066,2019-10-05 06:14:26.438,15397,2.093042E1,0,9,0,63,47,
1570256126,2019-10-05 06:15:26.438,15370,2.110788E1,0,11,0,61,47,
1570256186,2019-10-05 06:16:26.457,15357,2.0863068E1,0,11,0,62,43,
1570256246,2019-10-05 06:17:26.438,15384,2.1024506E1,0,2,0,52,44,
1570256306,2019-10-05 06:18:26.438,15397,2.0928284E1,0,12,0,63,44,
1570256366,2019-10-05 06:19:26.468,15370,2.083847E1,0,11,0,62,41,
1570256426,2019-10-05 06:20:26.438,15411,2.0946442E1,0,11,0,67,45,
1570256486,2019-10-05 06:21:26.438,15370,2.0968903E1,0,15,0,61,50,
1570256546,2019-10-05 06:22:26.438,15357,2.1316345E1,0,7,0,53,45,
1570256606,2019-10-05 06:23:26.439,15384,2.0961426E1,0,11,1,53,44,
1570256666,2019-10-05 06:24:26.439,15370,2.0832062E1,0,8,0,61,45,
1570256726,2019-10-05 06:25:26.438,15343,2.1184845E1,0,14,0,62,43,
1570256786,2019-10-05 06:26:26.439,15384,2.118805E1,0,6,0,62,44,
1570256846,2019-10-05 06:27:26.438,15384,2.0875885E1,0,10,0,54,42,
1570256906,2019-10-05 06:28:26.438,15384,2.0933624E1,0,11,0,54,45,
1570256966,2019-10-05 06:29:26.438,15411,2.1116425E1,0,11,0,62,45,
1570257026,2019-10-05 06:30:26.438,15370,2.0894073E1,0,9,0,62,44,
1570257086,2019-10-05 06:31:26.478,15397,2.1052307E1,0,12,0,63,44,
1570257146,2019-10-05 06:32:26.438,15357,2.1081146E1,0,3,0,53,43,
1570257206,2019-10-05 06:33:26.438,15357,2.1081146E1,0,4,0,54,44,
1570257266,2019-10-05 06:34:26.438,15397,2.1184845E1,0,9,0,63,49,
1570257326,2019-10-05 06:35:26.441,15384,2.0956085E1,0,7,0,63,44,
1570257386,2019-10-05 06:36:26.438,15384,2.1020233E1,0,9,0,61,50,
1570257446,2019-10-05 06:37:26.439,15370,2.1041595E1,0,6,0,61,43,
1570257506,2019-10-05 06:38:26.438,15384,2.1111084E1,0,10,0,54,44,
1570257566,2019-10-05 06:39:26.438,15357,2.0841675E1,0,11,0,63,46,
1570257626,2019-10-05 06:40:26.438,15357,2.1093994E1,0,11,0,63,45,
1570257686,2019-10-05 06:41:26.438,15343,2.0934692E1,0,15,0,63,42,
1570257746,2019-10-05 06:42:26.439,15370,2.1114288E1,0,11,0,58,42,
1570257806,2019-10-05 06:43:26.438,15384,2.1018097E1,0,9,0,54,43,
1570257866,2019-10-05 06:44:26.445,15357,2.0961426E1,0,11,0,62,44,
1570257926,2019-10-05 06:45:26.438,15357,2.103305E1,0,11,0,63,46,
1570257986,2019-10-05 06:46:26.439,15357,2.1192352E1,0,6,0,71,43,
1570258046,2019-10-05 06:47:26.439,15357,2.1166687E1,0,6,0,63,45,
1570258106,2019-10-05 06:48:26.479,15357,2.1245789E1,0,11,0,54,44,
1570258166,2019-10-05 06:49:26.438,15370,2.102237E1,0,13,0,63,47,
1570258226,2019-10-05 06:50:26.438,15357,2.0792511E1,0,7,0,63,43,
1570258286,2019-10-05 06:51:26.438,15357,2.1060852E1,0,10,0,63,47,
1570258346,2019-10-05 06:52:26.438,15357,2.1266113E1,0,10,0,54,47,
1570258406,2019-10-05 06:53:26.438,15370,2.0982819E1,0,6,0,63,41,
1570258466,2019-10-05 06:54:26.438,15370,2.1009521E1,0,7,0,63,42,
1570258526,2019-10-05 06:55:26.438,15357,2.1192352E1,0,9,0,62,41,
1570258586,2019-10-05 06:56:26.438,15357,2.1037323E1,0,9,0,63,44,
1570258646,2019-10-05 06:57:26.438,15370,2.1092926E1,0,11,0,54,44,
1570258706,2019-10-05 06:58:26.438,15370,2.0944305E1,0,14,0,63,43,
1570258766,2019-10-05 06:59:26.439,15370,2.1011658E1,0,9,0,63,43,
