Time(longsecs),Time(UTC),Earth Location,GPS Receiver Status,GPS Satellites Used,GPS PDOP,GPS TDOP,Timing Status,Timing Phase Lock,Timing Uncertainty(ns),DAC Count,Timing Error(ns),GPS Last Update Time,
1571349602,2019-10-17 22:00:02.472,47.651938N 0.543097E 172m,Off,5,2.615787,1.4627167,Time OK,Free running,50900,9060,0,2019-10-17 21:18:09.000000000,
1571349662,2019-10-17 22:01:02.475,47.651938N 0.543097E 172m,Doing fixes,5,2.4336684,1.2958375,Time OK,Coarse lock,100,8883,1145,2019-10-17 22:00:59.000000000,
1571349722,2019-10-17 22:02:02.472,47.651938N 0.543097E 172m,Off,4,2.8191996,1.5238495,Time OK,Free running,600,9054,0,2019-10-17 22:01:19.000000000,
1571349782,2019-10-17 22:03:02.503,47.651938N 0.543097E 172m,Off,4,2.8191996,1.5238495,Time OK,Free running,1500,9054,0,2019-10-17 22:01:19.000000000,
1571349842,2019-10-17 22:04:02.473,47.651938N 0.543097E 172m,Off,4,2.8191996,1.5238495,Time OK,Free running,2600,9054,0,2019-10-17 22:01:19.000000000,
1571349902,2019-10-17 22:05:02.472,47.651938N 0.543097E 172m,Off,4,2.8191996,1.5238495,Time OK,Free running,3500,9054,0,2019-10-17 22:01:19.000000000,
1571349962,2019-10-17 22:06:02.475,47.651938N 0.543097E 172m,Off,4,2.8191996,1.5238495,Time OK,Free running,4400,9054,0,2019-10-17 22:01:19.000000000,
1571350022,2019-10-17 22:07:02.472,47.651938N 0.543097E 172m,Off,4,2.8191996,1.5238495,Time OK,Free running,5300,9054,0,2019-10-17 22:01:19.000000000,
1571350082,2019-10-17 22:08:02.472,47.651938N 0.543097E 172m,Off,4,2.8191996,1.5238495,Time OK,Free running,6100,9054,0,2019-10-17 22:01:19.000000000,
1571350142,2019-10-17 22:09:02.472,47.651938N 0.543097E 172m,Off,4,2.8191996,1.5238495,Time OK,Free running,7100,9054,0,2019-10-17 22:01:19.000000000,
1571350202,2019-10-17 22:10:02.472,47.651938N 0.543097E 172m,Off,4,2.8191996,1.5238495,Time OK,Free running,8000,9054,0,2019-10-17 22:01:19.000000000,
1571350262,2019-10-17 22:11:02.472,47.651938N 0.543097E 172m,Off,4,2.8191996,1.5238495,Time OK,Free running,8800,9054,0,2019-10-17 22:01:19.000000000,
1571350322,2019-10-17 22:12:02.472,47.651938N 0.543097E 172m,Off,4,2.8191996,1.5238495,Time OK,Free running,9700,9054,0,2019-10-17 22:01:19.000000000,
1571350382,2019-10-17 22:13:02.472,47.651938N 0.543097E 172m,Off,4,2.8191996,1.5238495,Time OK,Free running,10700,9054,0,2019-10-17 22:01:19.000000000,
1571350442,2019-10-17 22:14:02.472,47.651938N 0.543097E 172m,Off,4,2.8191996,1.5238495,Time OK,Free running,11700,9054,0,2019-10-17 22:01:19.000000000,
1571350502,2019-10-17 22:15:02.505,47.651938N 0.543097E 172m,Off,4,2.8191996,1.5238495,Time OK,Free running,12500,9054,0,2019-10-17 22:01:19.000000000,
1571350562,2019-10-17 22:16:02.472,47.651938N 0.543097E 172m,Off,4,2.8191996,1.5238495,Time OK,Free running,13400,9054,0,2019-10-17 22:01:19.000000000,
1571350622,2019-10-17 22:17:02.472,47.651938N 0.543097E 172m,Off,4,2.8191996,1.5238495,Time OK,Free running,14300,9054,0,2019-10-17 22:01:19.000000000,
1571350682,2019-10-17 22:18:02.472,47.651938N 0.543097E 172m,Off,4,2.8191996,1.5238495,Time OK,Free running,15100,9054,0,2019-10-17 22:01:19.000000000,
1571350742,2019-10-17 22:19:02.472,47.651938N 0.543097E 172m,Off,4,2.8191996,1.5238495,Time OK,Free running,16200,9054,0,2019-10-17 22:01:19.000000000,
1571350802,2019-10-17 22:20:02.472,47.651938N 0.543097E 172m,Off,4,2.8191996,1.5238495,Time OK,Free running,17300,9054,0,2019-10-17 22:01:19.000000000,
1571350862,2019-10-17 22:21:02.473,47.651938N 0.543097E 172m,Off,4,2.8191996,1.5238495,Time OK,Free running,18400,9054,0,2019-10-17 22:01:19.000000000,
1571350922,2019-10-17 22:22:02.472,47.651938N 0.543097E 172m,Off,4,2.8191996,1.5238495,Time OK,Free running,19500,9054,0,2019-10-17 22:01:19.000000000,
1571350982,2019-10-17 22:23:02.472,47.651938N 0.543097E 172m,Off,4,2.8191996,1.5238495,Time OK,Free running,20400,9054,0,2019-10-17 22:01:19.000000000,
1571351042,2019-10-17 22:24:02.472,47.651938N 0.543097E 172m,Off,4,2.8191996,1.5238495,Time OK,Free running,21400,9054,0,2019-10-17 22:01:19.000000000,
1571351102,2019-10-17 22:25:02.472,47.651938N 0.543097E 172m,Off,4,2.8191996,1.5238495,Time OK,Free running,22400,9054,0,2019-10-17 22:01:19.000000000,
1571351162,2019-10-17 22:26:02.475,47.651938N 0.543097E 172m,Off,4,2.8191996,1.5238495,Time OK,Free running,23300,9054,0,2019-10-17 22:01:19.000000000,
1571351222,2019-10-17 22:27:02.475,47.651938N 0.543097E 172m,Off,4,2.8191996,1.5238495,Time OK,Free running,24200,9054,0,2019-10-17 22:01:19.000000000,
1571351282,2019-10-17 22:28:02.472,47.651938N 0.543097E 172m,Off,4,2.8191996,1.5238495,Time OK,Free running,25500,9054,0,2019-10-17 22:01:19.000000000,
1571351342,2019-10-17 22:29:02.472,47.651938N 0.543097E 172m,Off,4,2.8191996,1.5238495,Time OK,Free running,26500,9054,0,2019-10-17 22:01:19.000000000,
1571351402,2019-10-17 22:30:02.472,47.651938N 0.543097E 172m,Off,4,2.8191996,1.5238495,Time OK,Free running,27300,9054,0,2019-10-17 22:01:19.000000000,
1571351462,2019-10-17 22:31:02.472,47.651938N 0.543097E 172m,Off,4,2.8191996,1.5238495,Time OK,Free running,28200,9054,0,2019-10-17 22:01:19.000000000,
1571351522,2019-10-17 22:32:02.472,47.651938N 0.543097E 172m,Off,4,2.8191996,1.5238495,Time OK,Free running,29000,9054,0,2019-10-17 22:01:19.000000000,
1571351582,2019-10-17 22:33:02.472,47.651938N 0.543097E 172m,Off,4,2.8191996,1.5238495,Time OK,Free running,29900,9054,0,2019-10-17 22:01:19.000000000,
1571351642,2019-10-17 22:34:02.472,47.651938N 0.543097E 172m,Off,4,2.8191996,1.5238495,Time OK,Free running,30900,9054,0,2019-10-17 22:01:19.000000000,
1571351702,2019-10-17 22:35:02.472,47.651938N 0.543097E 172m,Off,4,2.8191996,1.5238495,Time OK,Free running,32200,9054,0,2019-10-17 22:01:19.000000000,
1571351762,2019-10-17 22:36:02.472,47.651938N 0.543097E 172m,Off,4,2.8191996,1.5238495,Time OK,Free running,33300,9054,0,2019-10-17 22:01:19.000000000,
1571351822,2019-10-17 22:37:02.500,47.651938N 0.543097E 172m,Off,4,2.8191996,1.5238495,Time OK,Free running,34400,9054,0,2019-10-17 22:01:19.000000000,
1571351882,2019-10-17 22:38:02.475,47.651938N 0.543097E 172m,Off,4,2.8191996,1.5238495,Time OK,Free running,35300,9054,0,2019-10-17 22:01:19.000000000,
1571351942,2019-10-17 22:39:02.472,47.651938N 0.543097E 172m,Off,4,2.8191996,1.5238495,Time OK,Free running,36100,9054,0,2019-10-17 22:01:19.000000000,
1571352002,2019-10-17 22:40:02.472,47.651938N 0.543097E 172m,Off,4,2.8191996,1.5238495,Time OK,Free running,37000,9054,0,2019-10-17 22:01:19.000000000,
1571352062,2019-10-17 22:41:02.472,47.651938N 0.543097E 172m,Off,4,2.8191996,1.5238495,Time OK,Free running,38000,9054,0,2019-10-17 22:01:19.000000000,
1571352122,2019-10-17 22:42:02.472,47.651938N 0.543097E 172m,Off,4,2.8191996,1.5238495,Time OK,Free running,38900,9054,0,2019-10-17 22:01:19.000000000,
1571352182,2019-10-17 22:43:02.472,47.651938N 0.543097E 172m,Off,4,2.8191996,1.5238495,Time OK,Free running,39900,9054,0,2019-10-17 22:01:19.000000000,
1571352242,2019-10-17 22:44:02.472,47.651938N 0.543097E 172m,Off,4,2.8191996,1.5238495,Time OK,Free running,40700,9054,0,2019-10-17 22:01:19.000000000,
1571352302,2019-10-17 22:45:02.506,47.651938N 0.543097E 172m,Off,4,2.8191996,1.5238495,Time OK,Free running,41500,9054,0,2019-10-17 22:01:19.000000000,
1571352362,2019-10-17 22:46:02.472,47.651938N 0.543097E 172m,Off,4,2.8191996,1.5238495,Time OK,Free running,42400,9054,0,2019-10-17 22:01:19.000000000,
1571352422,2019-10-17 22:47:02.472,47.651938N 0.543097E 172m,Off,4,2.8191996,1.5238495,Time OK,Free running,43300,9054,0,2019-10-17 22:01:19.000000000,
1571352482,2019-10-17 22:48:02.472,47.651938N 0.543097E 172m,Off,4,2.8191996,1.5238495,Time OK,Free running,44200,9054,0,2019-10-17 22:01:19.000000000,
1571352542,2019-10-17 22:49:02.472,47.651938N 0.543097E 172m,Off,4,2.8191996,1.5238495,Time OK,Free running,45100,9054,0,2019-10-17 22:01:19.000000000,
1571352602,2019-10-17 22:50:02.473,47.651938N 0.543097E 172m,Off,4,2.8191996,1.5238495,Time OK,Free running,46000,9054,0,2019-10-17 22:01:19.000000000,
1571352662,2019-10-17 22:51:02.472,47.651938N 0.543097E 172m,Off,4,2.8191996,1.5238495,Time OK,Free running,46900,9054,0,2019-10-17 22:01:19.000000000,
1571352722,2019-10-17 22:52:02.472,47.651938N 0.543097E 172m,Off,4,2.8191996,1.5238495,Time OK,Free running,48000,9054,0,2019-10-17 22:01:19.000000000,
1571352782,2019-10-17 22:53:02.472,47.651938N 0.543097E 172m,Off,4,2.8191996,1.5238495,Time OK,Free running,48900,9054,0,2019-10-17 22:01:19.000000000,
1571352842,2019-10-17 22:54:02.473,47.651938N 0.543097E 172m,Off,4,2.8191996,1.5238495,Time OK,Free running,49700,9054,0,2019-10-17 22:01:19.000000000,
1571352902,2019-10-17 22:55:02.472,47.651938N 0.543097E 172m,Off,4,2.8191996,1.5238495,Time OK,Free running,50600,9054,0,2019-10-17 22:01:19.000000000,
1571352962,2019-10-17 22:56:02.473,47.651938N 0.543097E 172m,Two satellites,4,2.3137503,0.898426,Time OK,Coarse lock,100,8263,8750,2019-10-17 22:55:59.000000000,
1571353022,2019-10-17 22:57:02.473,47.651938N 0.543097E 172m,Doing fixes,5,4.078519,2.7332966,Time OK,Fine lock,100,9043,0,2019-10-17 22:56:59.000000000,
1571353082,2019-10-17 22:58:02.472,47.651938N 0.543097E 172m,Off,5,4.0389237,2.7020407,Time OK,Free running,300,9038,0,2019-10-17 22:57:39.000000000,
1571353142,2019-10-17 22:59:02.472,47.651938N 0.543097E 172m,Off,5,4.0389237,2.7020407,Time OK,Free running,1400,9038,0,2019-10-17 22:57:39.000000000,
