Time(longsecs),Time(UTC),External SOH Voltage 1(V),External SOH Voltage 2(V),External SOH Voltage 3(V),External SOH Voltage 4(V),Sensor SOH Voltage 1(V),Sensor SOH Voltage 2(V),Sensor SOH Voltage 3(V),
1571277602,2019-10-17 02:00:02.472,-2.0270348E-3,-3.3593178E-4,-2.546072E-3,7.297039E-3,4.0332794E-1,4.0964603E-1,4.081087E-1,
1571277662,2019-10-17 02:01:02.472,3.8146973E-5,1.6732216E-3,-3.6096573E-4,9.469509E-3,4.1039848E-1,4.1589165E-1,4.150772E-1,
1571277722,2019-10-17 02:02:02.472,3.9815903E-5,1.6257763E-3,-1.8191338E-4,9.0065E-3,4.0767956E-1,4.1442108E-1,4.1250706E-1,
1571277782,2019-10-17 02:03:02.472,1.5974045E-5,1.5201569E-3,-3.0064583E-4,9.314299E-3,4.0948486E-1,4.1537666E-1,4.1364002E-1,
1571277842,2019-10-17 02:04:02.472,6.2942505E-5,1.541853E-3,-5.118847E-4,9.206533E-3,4.0929317E-1,4.1594982E-1,4.142561E-1,
1571277902,2019-10-17 02:05:02.473,3.5762787E-5,1.8453598E-3,-3.3593178E-4,9.033203E-3,4.0946388E-1,4.1665554E-1,4.1378593E-1,
1571277962,2019-10-17 02:06:02.473,-2.6466846E-3,-7.760525E-4,-2.9740334E-3,6.7822933E-3,4.009266E-1,4.0711784E-1,4.0577507E-1,
1571278022,2019-10-17 02:07:02.472,-2.816677E-3,-1.1041164E-3,-3.0186176E-3,6.244898E-3,4.0317822E-1,4.087391E-1,4.0729713E-1,
1571278082,2019-10-17 02:08:02.472,-2.9091835E-3,-1.147747E-3,-3.059864E-3,6.434679E-3,4.0048885E-1,4.061222E-1,4.0440273E-1,
1571278142,2019-10-17 02:09:02.472,-2.7570724E-3,-1.1329651E-3,-3.0128956E-3,6.3323975E-3,4.001751E-1,4.057722E-1,4.042778E-1,
1571278202,2019-10-17 02:10:02.473,1.5974045E-5,1.740694E-3,-3.5953522E-4,9.274721E-3,4.0788364E-1,4.1352844E-1,4.1173077E-1,
1571278262,2019-10-17 02:11:02.472,-1.8193722E-3,-4.079342E-4,-2.6028156E-3,7.1368217E-3,4.0384293E-1,4.1037655E-1,4.0789413E-1,
1571278322,2019-10-17 02:12:02.511,-2.5718212E-3,-1.1508465E-3,-3.054142E-3,6.456375E-3,4.033947E-1,4.089899E-1,4.0781498E-1,
1571278382,2019-10-17 02:13:02.472,-2.2878647E-3,-3.1161308E-4,-2.485752E-3,7.2784424E-3,4.0158463E-1,4.071598E-1,4.0623283E-1,
1571278442,2019-10-17 02:14:02.472,-4.8234463E-3,-2.8586388E-3,-5.2073E-3,4.2910576E-3,3.9380074E-1,4.0014172E-1,3.9873123E-1,
1571278502,2019-10-17 02:15:02.473,-2.5629997E-3,-8.070469E-4,-2.84791E-3,6.436348E-3,4.0310955E-1,4.0873146E-1,4.0729713E-1,
1571278562,2019-10-17 02:16:02.472,-2.1328926E-3,-1.16825104E-4,-2.5377274E-3,7.3652267E-3,4.0839767E-1,4.1377544E-1,4.1246128E-1,
1571278622,2019-10-17 02:17:02.472,-4.738331E-3,-3.158331E-3,-5.1534176E-3,4.502058E-3,3.965006E-1,4.0283966E-1,4.020586E-1,
1571278682,2019-10-17 02:18:02.472,-4.8942566E-3,-3.0810833E-3,-5.012989E-3,4.4949055E-3,3.9656734E-1,4.028263E-1,4.0121555E-1,
1571278742,2019-10-17 02:19:02.473,-4.8942566E-3,-3.174305E-3,-5.058527E-3,4.25148E-3,3.967266E-1,4.0181255E-1,4.0098E-1,
1571278802,2019-10-17 02:20:02.473,-2.5789738E-3,-1.0840893E-3,-2.9966831E-3,6.6022873E-3,4.0027428E-1,4.0650845E-1,4.0482712E-1,
1571278862,2019-10-17 02:21:02.473,-2.0275116E-3,-3.9172173E-4,-2.4793148E-3,6.7653656E-3,4.0427303E-1,4.0960026E-1,4.084425E-1,
1571278922,2019-10-17 02:22:02.473,-1.02996826E-4,1.6314983E-3,-3.5262108E-4,9.158373E-3,4.076233E-1,4.1417885E-1,4.126711E-1,
1571278982,2019-10-17 02:23:02.473,-5.6505203E-5,1.6021729E-3,-2.2816658E-4,9.288788E-3,4.0765762E-1,4.138975E-1,4.118185E-1,
1571279042,2019-10-17 02:24:02.472,-2.0861626E-3,-1.821518E-4,-2.4323463E-3,7.077217E-3,4.0140724E-1,4.0758324E-1,4.0629292E-1,
1571279102,2019-10-17 02:25:02.473,-8.6545944E-5,1.6977787E-3,-5.0354004E-4,9.110689E-3,4.074707E-1,4.1383648E-1,4.120798E-1,
1571279162,2019-10-17 02:26:02.510,-2.0766258E-3,-2.8777122E-4,-2.2587776E-3,7.3940754E-3,4.060812E-1,4.121542E-1,4.105749E-1,
1571279222,2019-10-17 02:27:02.472,-2.768755E-3,-1.3282299E-3,-3.107071E-3,7.5149536E-3,4.0253925E-1,4.0861225E-1,4.0695858E-1,
1571279282,2019-10-17 02:28:02.472,4.553795E-5,1.7631054E-3,-4.5490265E-4,9.470224E-3,4.0991974E-1,4.1632938E-1,4.1440868E-1,
1571279342,2019-10-17 02:29:02.472,-4.925728E-3,-3.0705929E-3,-4.768133E-3,4.323244E-3,3.9474583E-1,4.0070915E-1,3.9822197E-1,
1571279402,2019-10-17 02:30:02.473,-1.995802E-3,-2.2673607E-4,-2.4940968E-3,7.288456E-3,4.0171146E-1,4.0759182E-1,4.0744877E-1,
1571279462,2019-10-17 02:31:02.472,-1.3422966E-4,1.7745495E-3,-4.2533875E-4,9.165049E-3,4.0807056E-1,4.1442108E-1,4.1219902E-1,
1571279522,2019-10-17 02:32:02.472,-2.7627945E-3,-9.086132E-4,-2.7832985E-3,6.6230297E-3,4.0316486E-1,4.087019E-1,4.0711117E-1,
1571279582,2019-10-17 02:33:02.473,-3.71933E-5,1.4894009E-3,-4.6515465E-4,9.250164E-3,4.079256E-1,4.1360474E-1,4.1233253E-1,
1571279642,2019-10-17 02:34:02.472,-1.7178059E-3,-3.2687187E-4,-2.4323463E-3,7.3111057E-3,4.026718E-1,4.0758896E-1,4.06394E-1,
1571279702,2019-10-17 02:35:02.472,-2.6037693E-3,-9.7227097E-4,-3.059864E-3,6.557226E-3,4.0515518E-1,4.1083908E-1,4.0902138E-1,
1571279762,2019-10-17 02:36:02.472,1.08242035E-4,1.5881062E-3,-3.1256676E-4,9.329081E-3,4.0779877E-1,4.1386127E-1,4.118023E-1,
1571279822,2019-10-17 02:37:02.472,1.5449524E-4,1.4810562E-3,-3.900528E-4,9.115934E-3,4.077816E-1,4.134617E-1,4.123478E-1,
1571279882,2019-10-17 02:38:02.472,-2.472639E-3,-9.968281E-4,-3.0725002E-3,6.312847E-3,4.002409E-1,4.0660477E-1,4.0434647E-1,
1571279942,2019-10-17 02:39:02.475,3.7431717E-5,1.7340183E-3,-4.696846E-4,9.35626E-3,4.1017628E-1,4.1652012E-1,4.1534424E-1,
1571280002,2019-10-17 02:40:02.472,-2.816677E-3,-9.560585E-4,-3.1061172E-3,6.605625E-3,4.019966E-1,4.0857887E-1,4.0682125E-1,
1571280062,2019-10-17 02:41:02.472,1.7499924E-4,1.4503002E-3,-3.1256676E-4,9.248972E-3,4.1032982E-1,4.163046E-1,4.1437626E-1,
1571280122,2019-10-17 02:42:02.472,-2.8247833E-3,-1.1470318E-3,-3.0071735E-3,6.4074993E-3,4.0281773E-1,4.0868187E-1,4.0674973E-1,
1571280182,2019-10-17 02:43:02.472,-2.6085377E-3,-1.0726452E-3,-2.8150082E-3,6.5033436E-3,4.0270615E-1,4.091463E-1,4.0713882E-1,
1571280242,2019-10-17 02:44:02.472,-2.0120144E-3,-5.0115585E-4,-2.3200512E-3,7.155657E-3,4.0404034E-1,4.0991783E-1,4.0759754E-1,
1571280302,2019-10-17 02:45:02.472,-2.7365685E-3,-9.1457367E-4,-3.2770634E-3,6.462097E-3,4.0018654E-1,4.0694618E-1,4.0433025E-1,
1571280362,2019-10-17 02:46:02.472,-1.9536018E-3,-3.3640862E-4,-2.0997524E-3,7.1656704E-3,4.0170765E-1,4.0760803E-1,4.0705013E-1,
1571280422,2019-10-17 02:47:02.472,-1.01327896E-4,1.7340183E-3,-5.0878525E-4,9.539604E-3,4.0847874E-1,4.1431522E-1,4.1211796E-1,
1571280482,2019-10-17 02:48:02.475,9.083748E-5,1.6784668E-3,-5.0473213E-4,9.258509E-3,4.07506E-1,4.1458988E-1,4.1284466E-1,
1571280542,2019-10-17 02:49:02.472,-2.0661354E-3,-4.3177605E-4,-2.3913383E-3,7.0171356E-3,4.010172E-1,4.0782928E-1,4.0615273E-1,
1571280602,2019-10-17 02:50:02.472,-2.2673607E-3,-4.7397614E-4,-2.753973E-3,7.232189E-3,4.0328312E-1,4.0890694E-1,4.0731907E-1,
1571280662,2019-10-17 02:51:02.472,-2.6876926E-3,-9.3865395E-4,-2.8073788E-3,6.580591E-3,4.0297985E-1,4.089012E-1,4.06785E-1,
1571280722,2019-10-17 02:52:02.472,-2.1836758E-3,-5.950928E-4,-2.465248E-3,7.037401E-3,4.035902E-1,4.1005135E-1,4.0739155E-1,
1571280782,2019-10-17 02:53:02.473,-4.6641827E-3,-3.2176971E-3,-5.2628517E-3,4.4214725E-3,3.979349E-1,4.0397644E-1,4.0280628E-1,
1571280842,2019-10-17 02:54:02.472,-2.1138191E-3,-3.4236908E-4,-2.446413E-3,7.0426464E-3,4.0182877E-1,4.070425E-1,4.0570927E-1,
1571280902,2019-10-17 02:55:02.472,-4.9557686E-3,-3.0276775E-3,-5.005121E-3,4.3804646E-3,3.936243E-1,4.0005398E-1,3.9918518E-1,
1571280962,2019-10-17 02:56:02.472,-4.747629E-3,-3.2241344E-3,-5.1956177E-3,4.424095E-3,3.9598083E-1,4.020462E-1,4.006014E-1,
1571281022,2019-10-17 02:57:02.475,-4.823923E-3,-3.0868053E-3,-4.9152374E-3,4.1542053E-3,3.9795017E-1,4.0452385E-1,4.0238285E-1,
1571281082,2019-10-17 02:58:02.473,-2.1529198E-3,-3.8599968E-4,-2.7050972E-3,7.1439743E-3,4.0100956E-1,4.080677E-1,4.0593338E-1,
1571281142,2019-10-17 02:59:02.472,-1.9927025E-3,-2.5439262E-4,-2.1529198E-3,7.3535442E-3,4.0406895E-1,4.100294E-1,4.0803528E-1,
