Time(longsecs),Time(UTC),Supply Voltage(mV),Temperature(&deg;C),NMX Bus Current(mA),Sensor Current(mA),Serial Port Current(mA),Controller Current(mA),Digitizer Current(mA),
1571907611,2019-10-24 09:00:11.767,16621,1.636737E1,0,9,0,35,38,
1571907671,2019-10-24 09:01:11.769,16553,1.6528076E1,0,9,0,33,38,
1571907731,2019-10-24 09:02:11.767,16553,1.6393097E1,0,19,0,37,38,
1571907791,2019-10-24 09:03:11.767,16525,1.6516296E1,0,12,0,37,37,
1571907851,2019-10-24 09:04:11.767,16538,1.6410248E1,0,9,0,38,37,
1571907911,2019-10-24 09:05:11.767,16511,1.6442383E1,0,9,0,33,41,
1571907971,2019-10-24 09:06:11.767,16538,1.6709106E1,0,11,0,38,38,
1571908031,2019-10-24 09:07:11.767,16580,1.6395233E1,0,6,0,32,37,
1571908091,2019-10-24 09:08:11.767,16553,1.6469147E1,0,13,0,38,37,
1571908151,2019-10-24 09:09:11.767,16538,1.6536652E1,0,11,0,33,40,
1571908211,2019-10-24 09:10:11.767,16538,1.6761597E1,0,11,0,33,37,
1571908271,2019-10-24 09:11:11.768,16538,1.6520569E1,0,8,0,35,39,
1571908331,2019-10-24 09:12:11.767,16525,1.650879E1,0,14,0,38,39,
1571908391,2019-10-24 09:13:11.767,16538,1.6375946E1,0,12,0,37,38,
1571908451,2019-10-24 09:14:11.767,16621,1.6635193E1,0,9,0,37,38,
1571908511,2019-10-24 09:15:11.767,16580,1.6723053E1,0,11,0,33,37,
1571908571,2019-10-24 09:16:11.768,16566,1.659021E1,0,10,0,33,39,
1571908631,2019-10-24 09:17:11.769,16553,1.6763763E1,0,11,0,33,40,
1571908691,2019-10-24 09:18:11.767,16580,1.6862305E1,0,13,0,38,39,
1571908751,2019-10-24 09:19:11.767,16553,1.6743408E1,0,4,0,33,39,
1571908811,2019-10-24 09:20:11.767,16580,1.6860168E1,0,8,0,32,37,
1571908871,2019-10-24 09:21:11.768,16621,1.6822662E1,0,14,0,33,39,
1571908931,2019-10-24 09:22:11.767,16580,1.6836609E1,0,9,0,38,40,
1571908991,2019-10-24 09:23:11.767,16525,1.668341E1,0,10,0,33,39,
1571909051,2019-10-24 09:24:11.767,16566,1.6897675E1,0,8,0,33,42,
1571909111,2019-10-24 09:25:11.767,16566,1.6863373E1,0,8,0,32,40,
1571909171,2019-10-24 09:26:11.767,16553,1.6684479E1,0,6,0,36,40,
1571909231,2019-10-24 09:27:11.767,16511,1.6865509E1,0,4,0,37,43,
1571909291,2019-10-24 09:28:11.767,16498,1.656665E1,0,9,0,61,39,
1571909351,2019-10-24 09:29:11.767,16470,1.7027283E1,0,6,0,57,39,
1571909411,2019-10-24 09:30:11.780,16525,1.6910522E1,0,8,0,41,38,
1571909471,2019-10-24 09:31:11.767,16511,1.687622E1,0,5,0,36,39,
1571909531,2019-10-24 09:32:11.767,16525,1.6954437E1,0,11,0,38,42,
1571909591,2019-10-24 09:33:11.767,16525,1.7182617E1,0,2,0,33,39,
1571909651,2019-10-24 09:34:11.767,16511,1.6874084E1,0,2,0,38,39,
1571909711,2019-10-24 09:35:11.767,16511,1.7072266E1,0,3,0,33,39,
1571909771,2019-10-24 09:36:11.768,16538,1.7054077E1,0,4,0,36,39,
1571909831,2019-10-24 09:37:11.804,16538,1.6974792E1,0,5,3,38,39,
1571909891,2019-10-24 09:38:11.782,16580,1.7052979E1,0,13,0,32,39,
1571909951,2019-10-24 09:39:11.767,16566,1.7078705E1,0,8,0,33,37,
1571910011,2019-10-24 09:40:11.768,16553,1.7004791E1,0,11,0,33,37,
1571910071,2019-10-24 09:41:11.770,16553,1.6957642E1,0,9,0,38,41,
1571910131,2019-10-24 09:42:11.770,16566,1.699942E1,0,6,0,37,43,
1571910191,2019-10-24 09:43:11.768,16593,1.70755E1,0,10,0,38,42,
1571910251,2019-10-24 09:44:11.768,16621,1.7176178E1,0,11,0,33,38,
1571910311,2019-10-24 09:45:11.768,16662,1.7020844E1,0,15,0,40,38,
1571910371,2019-10-24 09:46:11.768,16593,1.716977E1,0,14,0,36,36,
1571910431,2019-10-24 09:47:11.767,16593,1.7132263E1,0,9,0,35,39,
1571910491,2019-10-24 09:48:11.799,16621,1.7018707E1,0,6,0,38,38,
1571910551,2019-10-24 09:49:11.767,16593,1.7130127E1,0,7,0,33,40,
1571910611,2019-10-24 09:50:11.769,16621,1.716333E1,0,16,0,61,37,
1571910671,2019-10-24 09:51:11.768,16648,1.7079773E1,0,9,0,31,38,
1571910731,2019-10-24 09:52:11.767,16648,1.7370087E1,0,9,0,36,42,
1571910791,2019-10-24 09:53:11.767,16635,1.7120483E1,0,6,0,33,40,
1571910851,2019-10-24 09:54:11.769,16648,1.7168701E1,0,9,0,33,39,
1571910911,2019-10-24 09:55:11.767,16635,1.7235107E1,0,11,0,31,39,
1571910971,2019-10-24 09:56:11.768,16648,1.7168701E1,0,9,0,35,40,
1571911031,2019-10-24 09:57:11.767,16648,1.7288666E1,0,11,0,38,37,
1571911091,2019-10-24 09:58:11.767,16648,1.7461151E1,0,9,0,36,40,
1571911151,2019-10-24 09:59:11.767,16648,1.7126923E1,0,10,0,32,37,
