Time(longsecs),Time(UTC),External SOH Voltage 1(V),External SOH Voltage 2(V),External SOH Voltage 3(V),External SOH Voltage 4(V),Sensor SOH Voltage 1(V),Sensor SOH Voltage 2(V),Sensor SOH Voltage 3(V),
1571936411,2019-10-24 17:00:11.767,-4.1952133E-3,8.225441E-5,-2.761364E-3,2.7678013E-3,2.0166779E-1,2.0288086E-1,1.9828224E-1,
1571936471,2019-10-24 17:01:11.767,-4.0254593E-3,1.5835762E-3,-2.6381016E-3,4.149914E-3,1.9978523E-1,2.0200253E-1,2.050848E-1,
1571936531,2019-10-24 17:02:11.767,-4.3985844E-3,5.3429604E-4,-2.0051003E-3,2.737999E-3,2.0275879E-1,2.0500374E-1,1.9258404E-1,
1571936591,2019-10-24 17:03:11.780,-1.4708042E-3,2.9046535E-3,1.7046928E-4,5.839348E-3,2.0684433E-1,2.0988464E-1,2.0695114E-1,
1571936651,2019-10-24 17:04:11.767,-4.0142536E-3,1.1985302E-3,-1.9800663E-3,3.533125E-3,2.0014954E-1,2.0588017E-1,1.9840431E-1,
1571936711,2019-10-24 17:05:11.767,-3.6242008E-3,1.1582375E-3,-1.9328594E-3,3.771305E-3,2.0353603E-1,2.0429039E-1,2.080307E-1,
1571936771,2019-10-24 17:06:11.767,-3.638029E-3,1.4634132E-3,-2.0017624E-3,3.6914349E-3,2.0102501E-1,2.0440388E-1,1.9349575E-1,
1571936831,2019-10-24 17:07:11.767,-6.6781044E-3,-1.2266636E-3,-4.465103E-3,1.0838509E-3,1.9367409E-1,1.9535637E-1,1.9175434E-1,
1571936891,2019-10-24 17:08:11.767,-5.9285164E-3,-7.8582764E-4,-4.683256E-3,9.6154213E-4,1.9230747E-1,1.9372177E-1,1.9237709E-1,
1571936951,2019-10-24 17:09:11.768,-4.1413307E-3,1.5616417E-4,-2.6257038E-3,2.9315948E-3,1.975298E-1,2.013855E-1,2.0312881E-1,
1571937011,2019-10-24 17:10:11.767,-3.421545E-3,1.2180805E-3,-2.1603107E-3,3.89719E-3,2.0100784E-1,2.0193005E-1,1.9694614E-1,
1571937071,2019-10-24 17:11:11.767,-2.0718575E-3,3.1876564E-3,-7.266998E-4,5.370617E-3,2.067213E-1,2.1193886E-1,2.0598507E-1,
1571937131,2019-10-24 17:12:11.768,-6.391287E-3,-1.881361E-3,-4.6725273E-3,1.2731552E-3,1.9319725E-1,1.9374084E-1,1.9849014E-1,
1571937191,2019-10-24 17:13:11.767,-6.673336E-3,-1.4898777E-3,-4.629135E-3,1.3570786E-3,1.9753551E-1,1.9766998E-1,2.0082474E-1,
1571937251,2019-10-24 17:14:11.767,-6.079912E-3,-9.021759E-4,-4.3594837E-3,1.2717247E-3,1.9729614E-1,1.9760609E-1,1.8513393E-1,
1571937311,2019-10-24 17:15:11.767,-6.193161E-3,-1.2156963E-3,-5.1562786E-3,1.5552044E-3,1.9331741E-1,1.9772148E-1,1.9153881E-1,
1571937371,2019-10-24 17:16:11.769,-6.0977936E-3,-1.1096001E-3,-4.141569E-3,8.31604E-4,1.9389153E-1,1.9511032E-1,1.9050217E-1,
1571937431,2019-10-24 17:17:11.767,-2.2404194E-3,2.5839806E-3,-4.0578842E-4,5.116701E-3,2.0598221E-1,2.0925426E-1,1.9924927E-1,
1571937491,2019-10-24 17:18:11.772,-1.6245842E-3,3.5426617E-3,-2.9063225E-4,5.7780743E-3,2.0841885E-1,2.0977783E-1,2.0439816E-1,
1571937551,2019-10-24 17:19:11.767,-6.075144E-3,-9.639263E-4,-4.0397644E-3,4.963875E-4,1.9385052E-1,1.9744682E-1,1.882925E-1,
1571937611,2019-10-24 17:20:11.767,-4.206419E-3,1.291275E-3,-1.8618107E-3,3.6509037E-3,2.0240879E-1,2.031622E-1,2.008419E-1,
1571937671,2019-10-24 17:21:11.768,-1.8877983E-3,3.5483837E-3,-2.2697449E-4,6.5922737E-3,2.0516396E-1,2.0762444E-1,1.9778728E-1,
1571937731,2019-10-24 17:22:11.800,-4.318714E-3,5.877018E-4,-2.3281574E-3,3.96204E-3,2.0011044E-1,1.9869995E-1,1.9936848E-1,
1571937791,2019-10-24 17:23:11.767,-4.7638416E-3,9.1433525E-4,-3.5920143E-3,2.940178E-3,2.00181E-1,2.0281696E-1,2.002554E-1,
1571937851,2019-10-24 17:24:11.767,-3.6313534E-3,1.0781288E-3,-2.7885437E-3,3.6199093E-3,2.0251751E-1,2.0464706E-1,1.921606E-1,
1571937911,2019-10-24 17:25:11.767,-2.108097E-3,2.7754307E-3,-6.477833E-4,5.5902004E-3,2.057705E-1,2.0645428E-1,1.9988632E-1,
1571937971,2019-10-24 17:26:11.768,-2.0115376E-3,2.9857159E-3,7.686615E-4,6.388426E-3,2.0755768E-1,2.0824718E-1,2.0505905E-1,
1571938031,2019-10-24 17:27:11.767,-1.8634796E-3,3.916979E-3,5.199909E-4,5.7799816E-3,2.0563889E-1,2.0829105E-1,2.1105099E-1,
1571938091,2019-10-24 17:28:11.767,-4.047632E-3,9.610653E-4,-2.5269985E-3,3.4461021E-3,1.9888878E-1,2.0204163E-1,2.0203686E-1,
1571938151,2019-10-24 17:29:11.767,-4.511833E-3,1.1639595E-3,-2.8510094E-3,2.8777122E-3,2.008276E-1,2.0186043E-1,1.9962502E-1,
1571938211,2019-10-24 17:30:11.767,-6.678343E-3,-9.6797943E-4,-4.399061E-3,6.542206E-4,1.9168949E-1,1.9540405E-1,1.9948769E-1,
1571938271,2019-10-24 17:31:11.767,-2.2974014E-3,2.552271E-3,-2.8848648E-5,5.210638E-3,2.0822811E-1,2.095871E-1,2.0545483E-1,
1571938331,2019-10-24 17:32:11.767,-4.4896603E-3,7.6532364E-5,-2.3367405E-3,3.1318665E-3,1.9996262E-1,2.0257378E-1,2.0007133E-1,
1571938391,2019-10-24 17:33:11.767,-2.0213127E-3,3.1943321E-3,6.854534E-4,5.5322647E-3,2.0564938E-1,2.0788574E-1,2.0656204E-1,
1571938451,2019-10-24 17:34:11.767,-6.5453053E-3,-1.0430813E-3,-4.6024323E-3,1.3008118E-3,1.954813E-1,1.9674397E-1,1.8891525E-1,
1571938511,2019-10-24 17:35:11.767,-3.2618046E-3,1.6055107E-3,-2.2611618E-3,3.4737587E-3,2.0239544E-1,2.0330429E-1,1.9765663E-1,
1571938571,2019-10-24 17:36:11.767,-6.405592E-3,-6.7329407E-4,-4.0917397E-3,8.394718E-4,1.9751644E-1,1.9670963E-1,1.9997597E-1,
1571938631,2019-10-24 17:37:11.769,-4.262686E-3,2.8252602E-4,-2.875805E-3,3.5164356E-3,2.0033073E-1,2.0589256E-1,2.0768738E-1,
1571938691,2019-10-24 17:38:11.767,-1.6682148E-3,3.0567646E-3,-6.709099E-4,5.8591366E-3,2.0507431E-1,2.0816994E-1,2.1059895E-1,
1571938751,2019-10-24 17:39:11.767,-6.510496E-3,-1.3539791E-3,-4.1656494E-3,1.452446E-3,1.9455338E-1,1.949625E-1,1.9606972E-1,
1571938811,2019-10-24 17:40:11.767,-6.0474873E-3,-1.445055E-3,-4.6007633E-3,7.9607964E-4,1.9216919E-1,1.9682312E-1,1.98946E-1,
1571938871,2019-10-24 17:41:11.767,-1.7366409E-3,3.2362938E-3,-7.5674057E-4,5.779505E-3,2.0635796E-1,2.0951557E-1,1.9611263E-1,
1571938931,2019-10-24 17:42:11.767,-4.6601295E-3,5.450249E-4,-2.8612614E-3,2.9866695E-3,2.0119286E-1,2.0436192E-1,2.0096874E-1,
1571938991,2019-10-24 17:43:11.768,-4.110098E-3,1.6658306E-3,-2.2478104E-3,4.16708E-3,2.0155334E-1,2.0302677E-1,2.0296669E-1,
1571939051,2019-10-24 17:44:11.768,-3.774643E-3,1.5003681E-3,-2.4294853E-3,4.134178E-3,1.9950676E-1,2.0159912E-1,2.013197E-1,
1571939111,2019-10-24 17:45:11.768,-4.6401024E-3,2.6512146E-4,-2.0525455E-3,3.5572052E-3,2.0187378E-1,2.0401001E-1,2.0323849E-1,
1571939171,2019-10-24 17:46:11.786,-3.4425259E-3,1.0330677E-3,-2.4163723E-3,3.3226013E-3,2.0177555E-1,2.0386505E-1,1.9749737E-1,
1571939231,2019-10-24 17:47:11.769,-4.5158863E-3,7.004738E-4,-2.695322E-3,2.7267933E-3,1.969223E-1,1.9866085E-1,2.0262432E-1,
1571939291,2019-10-24 17:48:11.768,-1.9450188E-3,3.8256645E-3,-4.2200089E-4,5.752325E-3,2.0649338E-1,2.0785713E-1,1.9799423E-1,
1571939351,2019-10-24 17:49:11.768,-5.7218075E-3,-9.498596E-4,-4.450321E-3,1.3844967E-3,1.9327354E-1,1.9768047E-1,1.9595528E-1,
1571939411,2019-10-24 17:50:11.768,-3.8604736E-3,4.5108795E-4,-2.7253628E-3,2.6872158E-3,1.9738197E-1,2.011795E-1,1.9832611E-1,
1571939471,2019-10-24 17:51:11.768,-3.5939217E-3,7.7176094E-4,-2.552271E-3,3.7679672E-3,1.9884682E-1,2.018528E-1,1.9600105E-1,
1571939531,2019-10-24 17:52:11.767,-1.9533634E-3,2.7916431E-3,-4.339218E-4,5.51033E-3,2.0349503E-1,2.0532322E-1,2.034254E-1,
1571939591,2019-10-24 17:53:11.768,-4.269123E-3,1.0178089E-3,-2.6483536E-3,2.9633045E-3,2.0077801E-1,2.0337296E-1,2.0026779E-1,
1571939651,2019-10-24 17:54:11.768,-4.1737556E-3,5.726814E-4,-2.9218197E-3,3.004074E-3,2.0421505E-1,2.032423E-1,2.0841217E-1,
1571939711,2019-10-24 17:55:11.768,-4.322052E-3,7.748604E-4,-2.142191E-3,3.5514832E-3,1.9715023E-1,2.0005131E-1,2.0357037E-1,
1571939771,2019-10-24 17:56:11.767,-3.8642883E-3,8.5020065E-4,-2.0987988E-3,4.086256E-3,1.972313E-1,1.987772E-1,2.0064926E-1,
1571939831,2019-10-24 17:57:11.768,-2.149105E-3,3.0355453E-3,-2.1505356E-4,5.4171085E-3,2.07798E-1,2.0890617E-1,2.028017E-1,
1571939891,2019-10-24 17:58:11.768,-4.135847E-3,2.1488667E-3,-2.6288033E-3,4.07815E-3,2.0015717E-1,2.047739E-1,2.0356846E-1,
1571939951,2019-10-24 17:59:11.767,-1.9984245E-3,3.3893585E-3,-6.5875053E-4,5.5224895E-3,2.070694E-1,2.1083069E-1,1.9499779E-1,
