Time(longsecs),Time(UTC),External SOH Voltage 1(V),External SOH Voltage 2(V),External SOH Voltage 3(V),External SOH Voltage 4(V),Sensor SOH Voltage 1(V),Sensor SOH Voltage 2(V),Sensor SOH Voltage 3(V),
1571914811,2019-10-24 11:00:11.769,-4.3985844E-3,1.237154E-3,-2.8328896E-3,3.1068325E-3,2.0810413E-1,2.139864E-1,2.1117973E-1,
1571914871,2019-10-24 11:01:11.767,-5.915165E-3,-1.0018349E-3,-4.646778E-3,1.4567375E-3,2.0198059E-1,2.0716286E-1,2.0071602E-1,
1571914931,2019-10-24 11:02:11.767,-4.1275024E-3,1.0442734E-3,-1.9316673E-3,3.8750172E-3,2.1187687E-1,2.1106052E-1,2.0579243E-1,
1571914991,2019-10-24 11:03:11.767,-3.7183762E-3,1.7826557E-3,-1.9555092E-3,3.894806E-3,2.100544E-1,2.1473122E-1,2.1225357E-1,
1571915051,2019-10-24 11:04:11.767,-1.9176006E-3,3.499508E-3,6.818771E-5,5.4404736E-3,2.1475506E-1,2.1965885E-1,2.2212315E-1,
1571915111,2019-10-24 11:05:11.767,-3.6222935E-3,1.2779236E-3,-1.9705296E-3,3.9663315E-3,2.0897484E-1,2.1072483E-1,2.0807457E-1,
1571915171,2019-10-24 11:06:11.767,-4.139185E-3,1.1110306E-3,-2.028942E-3,3.6706924E-3,2.1185493E-1,2.1443558E-1,2.1038628E-1,
1571915231,2019-10-24 11:07:11.774,-3.6313534E-3,9.050369E-4,-2.207756E-3,3.256321E-3,2.1677876E-1,2.1213245E-1,2.0928288E-1,
1571915291,2019-10-24 11:08:11.796,-2.2025108E-3,2.8750896E-3,-3.426075E-4,5.1267147E-3,2.1978664E-1,2.1841812E-1,2.1258354E-1,
1571915351,2019-10-24 11:09:11.767,-4.3985844E-3,4.1484833E-4,-2.5196075E-3,3.1983852E-3,2.1201706E-1,2.1652126E-1,2.1434689E-1,
1571915411,2019-10-24 11:10:11.767,-5.878687E-3,-1.224041E-3,-4.4887066E-3,1.033783E-3,2.0536232E-1,2.0673943E-1,2.0685863E-1,
1571915471,2019-10-24 11:11:11.768,-3.600359E-3,1.4755726E-3,-2.0403862E-3,3.6399364E-3,2.1149826E-1,2.1360588E-1,2.1257496E-1,
1571915531,2019-10-24 11:12:11.767,-1.8627644E-3,3.1051636E-3,-4.222393E-4,5.480528E-3,2.1850395E-1,2.2059059E-1,2.160654E-1,
1571915591,2019-10-24 11:13:11.767,-4.39167E-3,4.813671E-4,-2.8436184E-3,3.1909943E-3,2.1091366E-1,2.1188068E-1,2.0818138E-1,
1571915651,2019-10-24 11:14:11.767,-3.8130283E-3,1.2583733E-3,-2.0680428E-3,3.8189888E-3,2.1145248E-1,2.1316814E-1,2.0892143E-1,
1571915711,2019-10-24 11:15:11.799,-4.463434E-3,6.1392784E-4,-2.4650097E-3,3.2730103E-3,2.1260357E-1,2.1567631E-1,2.114048E-1,
1571915771,2019-10-24 11:16:11.799,-4.168749E-3,9.4795227E-4,-3.0388832E-3,3.3619404E-3,2.1116638E-1,2.1423626E-1,2.08951E-1,
1571915831,2019-10-24 11:17:11.767,-3.8166046E-3,5.1164627E-4,-2.1793842E-3,3.4964085E-3,2.1197414E-1,2.128439E-1,2.1330547E-1,
1571915891,2019-10-24 11:18:11.768,-1.8675327E-3,3.5152435E-3,5.1259995E-5,5.623102E-3,2.1668816E-1,2.154808E-1,2.0913982E-1,
1571915951,2019-10-24 11:19:11.767,-3.831625E-3,8.90255E-4,-2.6454926E-3,2.5892258E-3,2.0881367E-1,2.1108341E-1,2.08251E-1,
1571916011,2019-10-24 11:20:11.772,-1.6372204E-3,3.2987595E-3,1.5497208E-5,5.846739E-3,2.1694183E-1,2.1885777E-1,2.1558285E-1,
1571916071,2019-10-24 11:21:11.767,-4.3594837E-3,4.1151047E-4,-2.430439E-3,3.5374165E-3,2.1494198E-1,2.1236897E-1,2.0851898E-1,
1571916131,2019-10-24 11:22:11.767,-3.8700104E-3,1.2435913E-3,-2.6333332E-3,3.865242E-3,2.1024227E-1,2.155056E-1,2.1545792E-1,
1571916191,2019-10-24 11:23:11.769,-1.6517639E-3,3.064394E-3,3.194809E-5,5.9583187E-3,2.1786594E-1,2.1763039E-1,2.1479988E-1,
1571916251,2019-10-24 11:24:11.767,-3.9770603E-3,9.365082E-4,-2.1705627E-3,3.465414E-3,2.1150684E-1,2.116003E-1,2.0577717E-1,
1571916311,2019-10-24 11:25:11.767,-4.1315556E-3,1.2569427E-3,-2.0256042E-3,3.5834312E-3,2.089529E-1,2.1303082E-1,2.0955944E-1,
1571916371,2019-10-24 11:26:11.767,-4.194021E-3,4.1246414E-4,-2.691269E-3,2.960205E-3,2.1099567E-1,2.1265697E-1,2.114048E-1,
1571916431,2019-10-24 11:27:11.767,-3.4587383E-3,1.2454987E-3,-2.6340485E-3,3.1318665E-3,2.1049595E-1,2.1183395E-1,2.1383858E-1,
1571916491,2019-10-24 11:28:11.767,-1.881361E-3,3.2584667E-3,-7.6532364E-5,5.6090355E-3,2.1654034E-1,2.2114277E-1,2.1687794E-1,
1571916551,2019-10-24 11:29:11.805,-4.021406E-3,6.2561035E-4,-3.0674934E-3,2.9211044E-3,2.0887375E-1,2.1303749E-1,2.0594883E-1,
1571916611,2019-10-24 11:30:11.770,-5.744219E-3,-1.4364719E-3,-4.4682026E-3,1.4014244E-3,2.1020794E-1,2.0814037E-1,2.0736599E-1,
1571916671,2019-10-24 11:31:11.767,-3.3581257E-3,1.9578934E-3,-1.6469955E-3,3.3643246E-3,2.0361137E-1,2.1336079E-1,2.1110153E-1,
1571916731,2019-10-24 11:32:11.767,-6.1182976E-3,-1.3859272E-3,-4.413128E-3,1.4090538E-3,2.0494938E-1,2.0386505E-1,2.0306873E-1,
1571916791,2019-10-24 11:33:11.767,-3.6764145E-3,9.4795227E-4,-2.1693707E-3,3.751278E-3,2.112217E-1,2.1461105E-1,2.0916176E-1,
1571916851,2019-10-24 11:34:11.767,-6.386757E-3,-1.395464E-3,-4.5170784E-3,6.842613E-4,2.0170116E-1,2.0679855E-1,2.0314789E-1,
1571916911,2019-10-24 11:35:11.767,-6.303072E-3,-1.2583733E-3,-4.4431686E-3,1.2798309E-3,2.0742893E-1,2.0600986E-1,2.0858002E-1,
1571916971,2019-10-24 11:36:11.768,-4.3554306E-3,6.978512E-4,-2.4569035E-3,3.2122135E-3,2.0903873E-1,2.1197414E-1,2.0853043E-1,
1571917031,2019-10-24 11:37:11.767,-4.527569E-3,7.390976E-4,-3.1080246E-3,3.5960674E-3,2.1217728E-1,2.1090221E-1,2.0694637E-1,
1571917091,2019-10-24 11:38:11.767,-3.742218E-3,1.0781288E-3,-2.5119781E-3,3.8027763E-3,2.0885944E-1,2.1231174E-1,2.1161175E-1,
1571917151,2019-10-24 11:39:11.767,-3.8921833E-3,1.3344288E-3,-2.0513535E-3,3.5896301E-3,2.0966434E-1,2.0991707E-1,2.0832443E-1,
1571917211,2019-10-24 11:40:11.767,-1.4908314E-3,3.1268597E-3,-4.1747093E-4,5.2657127E-3,2.1776295E-1,2.1759987E-1,2.1253967E-1,
1571917271,2019-10-24 11:41:11.767,-1.8231869E-3,3.0128956E-3,-2.4461746E-4,5.6066513E-3,2.1751499E-1,2.2518635E-1,2.1831703E-1,
1571917331,2019-10-24 11:42:11.767,-2.1505356E-3,3.0303001E-3,-5.168915E-4,5.297184E-3,2.1460724E-1,2.1848488E-1,2.1753979E-1,
1571917391,2019-10-24 11:43:11.767,-6.228447E-3,-1.2319088E-3,-4.3287277E-3,6.3848495E-4,2.058258E-1,2.0613766E-1,2.035532E-1,
1571917451,2019-10-24 11:44:11.767,-6.513834E-3,-1.1558533E-3,-4.354E-3,1.1503696E-3,2.0713997E-1,2.0680046E-1,2.0077991E-1,
1571917511,2019-10-24 11:45:11.767,-4.880905E-3,2.6392937E-4,-2.6402473E-3,3.0310154E-3,2.0215416E-1,2.1134567E-1,2.0929337E-1,
1571917571,2019-10-24 11:46:11.769,-4.6265125E-3,7.390976E-4,-2.0813942E-3,3.1371117E-3,2.111826E-1,2.1370411E-1,2.0854378E-1,
1571917631,2019-10-24 11:47:11.767,-3.9038658E-3,1.0581017E-3,-2.0906925E-3,3.8814545E-3,2.1005535E-1,2.1523857E-1,2.107687E-1,
1571917691,2019-10-24 11:48:11.767,-4.3389797E-3,7.46727E-4,-2.7639866E-3,3.4737587E-3,2.1267128E-1,2.1251297E-1,2.0928001E-1,
1571917751,2019-10-24 11:49:11.767,-2.080679E-3,2.445221E-3,-1.6784668E-4,6.12998E-3,2.1709633E-1,2.1422482E-1,2.1233368E-1,
1571917811,2019-10-24 11:50:11.768,-1.2691021E-3,3.1597614E-3,-4.4870377E-4,5.5327415E-3,2.16568E-1,2.2079086E-1,2.1706009E-1,
1571917871,2019-10-24 11:51:11.767,-1.9001961E-3,2.865553E-3,-2.7894974E-4,5.877495E-3,2.18894E-1,2.1953869E-1,2.180624E-1,
1571917931,2019-10-24 11:52:11.767,-4.06909E-3,9.4366074E-4,-1.9245148E-3,3.1147003E-3,2.0968151E-1,2.120533E-1,2.1301174E-1,
1571917991,2019-10-24 11:53:11.767,-4.4076443E-3,4.184246E-4,-2.6128292E-3,3.3979416E-3,2.0878601E-1,2.1278381E-1,2.0779514E-1,
1571918051,2019-10-24 11:54:11.767,-3.757E-3,1.1754036E-3,-2.008915E-3,2.981186E-3,2.0735836E-1,2.0564938E-1,2.041254E-1,
1571918111,2019-10-24 11:55:11.767,-4.7187805E-3,5.3167343E-4,-2.8116703E-3,2.9244423E-3,2.0406818E-1,2.1476936E-1,2.1320438E-1,
1571918171,2019-10-24 11:56:11.767,-4.542589E-3,6.453991E-4,-2.370119E-3,2.6640892E-3,2.0924759E-1,2.1220112E-1,2.1309185E-1,
1571918231,2019-10-24 11:57:11.769,-6.525278E-3,-1.1613369E-3,-4.2955875E-3,1.0910034E-3,2.044487E-1,2.0175076E-1,1.9783974E-1,
1571918291,2019-10-24 11:58:11.767,-3.8032532E-3,1.3523102E-3,-1.7063618E-3,3.7078857E-3,2.1070004E-1,2.1573925E-1,2.1688843E-1,
1571918351,2019-10-24 11:59:11.767,-1.0998249E-3,3.0674934E-3,4.1007996E-5,5.3548813E-3,2.1560574E-1,2.2017384E-1,2.1909618E-1,
