Time(longsecs),Time(UTC),Earth Location,GPS Receiver Status,GPS Satellites Used,GPS PDOP,GPS TDOP,Timing Status,Timing Phase Lock,Timing Uncertainty(ns),DAC Count,Timing Error(ns),GPS Last Update Time,
1571770818,2019-10-22 19:00:18.807,47.63631N 0.583899E 179m,Doing fixes,7,2.1600919,1.1850082,Time OK,Fine lock,100,9138,0,2019-10-22 19:00:15.000000000,
1571770878,2019-10-22 19:01:18.806,47.63631N 0.583899E 179m,Off,6,2.2750416,1.2479173,Time OK,Free running,800,9138,0,2019-10-22 19:00:25.000000000,
1571770938,2019-10-22 19:02:18.807,47.63631N 0.583899E 179m,Off,6,2.2750416,1.2479173,Time OK,Free running,1600,9138,0,2019-10-22 19:00:25.000000000,
1571770998,2019-10-22 19:03:18.806,47.63631N 0.583899E 179m,Off,6,2.2750416,1.2479173,Time OK,Free running,2600,9138,0,2019-10-22 19:00:25.000000000,
1571771058,2019-10-22 19:04:18.807,47.63631N 0.583899E 179m,Off,6,2.2750416,1.2479173,Time OK,Free running,3800,9138,0,2019-10-22 19:00:25.000000000,
1571771118,2019-10-22 19:05:18.806,47.63631N 0.583899E 179m,Off,6,2.2750416,1.2479173,Time OK,Free running,4600,9138,0,2019-10-22 19:00:25.000000000,
1571771178,2019-10-22 19:06:18.806,47.63631N 0.583899E 179m,Off,6,2.2750416,1.2479173,Time OK,Free running,5400,9138,0,2019-10-22 19:00:25.000000000,
1571771238,2019-10-22 19:07:18.806,47.63631N 0.583899E 179m,Off,6,2.2750416,1.2479173,Time OK,Free running,6500,9138,0,2019-10-22 19:00:25.000000000,
1571771298,2019-10-22 19:08:18.806,47.63631N 0.583899E 179m,Off,6,2.2750416,1.2479173,Time OK,Free running,7400,9138,0,2019-10-22 19:00:25.000000000,
1571771358,2019-10-22 19:09:18.809,47.63631N 0.583899E 179m,Off,6,2.2750416,1.2479173,Time OK,Free running,8300,9138,0,2019-10-22 19:00:25.000000000,
1571771418,2019-10-22 19:10:18.806,47.63631N 0.583899E 179m,Off,6,2.2750416,1.2479173,Time OK,Free running,9200,9138,0,2019-10-22 19:00:25.000000000,
1571771478,2019-10-22 19:11:18.806,47.63631N 0.583899E 179m,Off,6,2.2750416,1.2479173,Time OK,Free running,10000,9138,0,2019-10-22 19:00:25.000000000,
1571771538,2019-10-22 19:12:18.806,47.63631N 0.583899E 179m,Off,6,2.2750416,1.2479173,Time OK,Free running,10900,9138,0,2019-10-22 19:00:25.000000000,
1571771598,2019-10-22 19:13:18.809,47.63631N 0.583899E 179m,Off,6,2.2750416,1.2479173,Time OK,Free running,11900,9138,0,2019-10-22 19:00:25.000000000,
1571771658,2019-10-22 19:14:18.806,47.63631N 0.583899E 179m,Off,6,2.2750416,1.2479173,Time OK,Free running,12700,9138,0,2019-10-22 19:00:25.000000000,
1571771718,2019-10-22 19:15:18.806,47.63631N 0.583899E 179m,Off,6,2.2750416,1.2479173,Time OK,Free running,13500,9138,0,2019-10-22 19:00:25.000000000,
1571771778,2019-10-22 19:16:18.807,47.63631N 0.583899E 179m,Off,6,2.2750416,1.2479173,Time OK,Free running,14400,9138,0,2019-10-22 19:00:25.000000000,
1571771838,2019-10-22 19:17:18.806,47.63631N 0.583899E 179m,Off,6,2.2750416,1.2479173,Time OK,Free running,15300,9138,0,2019-10-22 19:00:25.000000000,
1571771898,2019-10-22 19:18:18.845,47.63631N 0.583899E 179m,Off,6,2.2750416,1.2479173,Time OK,Free running,16100,9138,0,2019-10-22 19:00:25.000000000,
1571771958,2019-10-22 19:19:18.806,47.63631N 0.583899E 179m,Off,6,2.2750416,1.2479173,Time OK,Free running,17100,9138,0,2019-10-22 19:00:25.000000000,
1571772018,2019-10-22 19:20:18.806,47.63631N 0.583899E 179m,Off,6,2.2750416,1.2479173,Time OK,Free running,17900,9138,0,2019-10-22 19:00:25.000000000,
1571772078,2019-10-22 19:21:18.808,47.63631N 0.583899E 179m,Off,6,2.2750416,1.2479173,Time OK,Free running,18700,9138,0,2019-10-22 19:00:25.000000000,
1571772138,2019-10-22 19:22:18.825,47.63631N 0.583899E 179m,Off,6,2.2750416,1.2479173,Time OK,Free running,19800,9138,0,2019-10-22 19:00:25.000000000,
1571772198,2019-10-22 19:23:18.806,47.63631N 0.583899E 179m,Off,6,2.2750416,1.2479173,Time OK,Free running,21000,9138,0,2019-10-22 19:00:25.000000000,
1571772258,2019-10-22 19:24:18.806,47.63631N 0.583899E 179m,Off,6,2.2750416,1.2479173,Time OK,Free running,22100,9138,0,2019-10-22 19:00:25.000000000,
1571772318,2019-10-22 19:25:18.839,47.63631N 0.583899E 179m,Off,6,2.2750416,1.2479173,Time OK,Free running,23000,9138,0,2019-10-22 19:00:25.000000000,
1571772378,2019-10-22 19:26:18.806,47.63631N 0.583899E 179m,Off,6,2.2750416,1.2479173,Time OK,Free running,23800,9138,0,2019-10-22 19:00:25.000000000,
1571772438,2019-10-22 19:27:18.806,47.63631N 0.583899E 179m,Off,6,2.2750416,1.2479173,Time OK,Free running,24600,9138,0,2019-10-22 19:00:25.000000000,
1571772498,2019-10-22 19:28:18.806,47.63631N 0.583899E 179m,Off,6,2.2750416,1.2479173,Time OK,Free running,25700,9138,0,2019-10-22 19:00:25.000000000,
1571772558,2019-10-22 19:29:18.806,47.63631N 0.583899E 179m,Off,6,2.2750416,1.2479173,Time OK,Free running,26600,9138,0,2019-10-22 19:00:25.000000000,
1571772618,2019-10-22 19:30:18.806,47.63631N 0.583899E 179m,Off,6,2.2750416,1.2479173,Time OK,Free running,27500,9138,0,2019-10-22 19:00:25.000000000,
1571772678,2019-10-22 19:31:18.806,47.63631N 0.583899E 179m,Off,6,2.2750416,1.2479173,Time OK,Free running,28400,9138,0,2019-10-22 19:00:25.000000000,
1571772738,2019-10-22 19:32:18.806,47.63631N 0.583899E 179m,Off,6,2.2750416,1.2479173,Time OK,Free running,29200,9138,0,2019-10-22 19:00:25.000000000,
1571772798,2019-10-22 19:33:18.806,47.63631N 0.583899E 179m,Off,6,2.2750416,1.2479173,Time OK,Free running,30100,9138,0,2019-10-22 19:00:25.000000000,
1571772858,2019-10-22 19:34:18.809,47.63631N 0.583899E 179m,Off,6,2.2750416,1.2479173,Time OK,Free running,31000,9138,0,2019-10-22 19:00:25.000000000,
1571772918,2019-10-22 19:35:18.806,47.63631N 0.583899E 179m,Off,6,2.2750416,1.2479173,Time OK,Free running,31800,9138,0,2019-10-22 19:00:25.000000000,
1571772978,2019-10-22 19:36:18.806,47.63631N 0.583899E 179m,Off,6,2.2750416,1.2479173,Time OK,Free running,32600,9138,0,2019-10-22 19:00:25.000000000,
1571773038,2019-10-22 19:37:18.806,47.63631N 0.583899E 179m,Off,6,2.2750416,1.2479173,Time OK,Free running,33500,9138,0,2019-10-22 19:00:25.000000000,
1571773098,2019-10-22 19:38:18.806,47.63631N 0.583899E 179m,Off,6,2.2750416,1.2479173,Time OK,Free running,34500,9138,0,2019-10-22 19:00:25.000000000,
1571773158,2019-10-22 19:39:18.806,47.63631N 0.583899E 179m,Off,6,2.2750416,1.2479173,Time OK,Free running,35400,9138,0,2019-10-22 19:00:25.000000000,
1571773218,2019-10-22 19:40:18.806,47.63631N 0.583899E 179m,Off,6,2.2750416,1.2479173,Time OK,Free running,36600,9138,0,2019-10-22 19:00:25.000000000,
1571773278,2019-10-22 19:41:18.809,47.63631N 0.583899E 179m,Off,6,2.2750416,1.2479173,Time OK,Free running,37600,9138,0,2019-10-22 19:00:25.000000000,
1571773338,2019-10-22 19:42:18.808,47.63631N 0.583899E 179m,Off,6,2.2750416,1.2479173,Time OK,Free running,38400,9138,0,2019-10-22 19:00:25.000000000,
1571773398,2019-10-22 19:43:18.810,47.63631N 0.583899E 179m,Off,6,2.2750416,1.2479173,Time OK,Free running,39400,9138,0,2019-10-22 19:00:25.000000000,
1571773458,2019-10-22 19:44:18.807,47.63631N 0.583899E 179m,Off,6,2.2750416,1.2479173,Time OK,Free running,40300,9138,0,2019-10-22 19:00:25.000000000,
1571773518,2019-10-22 19:45:18.808,47.63631N 0.583899E 179m,Off,6,2.2750416,1.2479173,Time OK,Free running,41100,9138,0,2019-10-22 19:00:25.000000000,
1571773578,2019-10-22 19:46:18.807,47.63631N 0.583899E 179m,Off,6,2.2750416,1.2479173,Time OK,Free running,42000,9138,0,2019-10-22 19:00:25.000000000,
1571773638,2019-10-22 19:47:18.809,47.63631N 0.583899E 179m,Off,6,2.2750416,1.2479173,Time OK,Free running,42800,9138,0,2019-10-22 19:00:25.000000000,
1571773698,2019-10-22 19:48:18.808,47.63631N 0.583899E 179m,Off,6,2.2750416,1.2479173,Time OK,Free running,43800,9138,0,2019-10-22 19:00:25.000000000,
1571773758,2019-10-22 19:49:18.817,47.63631N 0.583899E 179m,Off,6,2.2750416,1.2479173,Time OK,Free running,44900,9138,0,2019-10-22 19:00:25.000000000,
1571773818,2019-10-22 19:50:18.808,47.63631N 0.583899E 179m,Off,6,2.2750416,1.2479173,Time OK,Free running,46000,9138,0,2019-10-22 19:00:25.000000000,
1571773878,2019-10-22 19:51:18.808,47.63631N 0.583899E 179m,Off,6,2.2750416,1.2479173,Time OK,Free running,46800,9138,0,2019-10-22 19:00:25.000000000,
1571773938,2019-10-22 19:52:18.808,47.63631N 0.583899E 179m,Off,6,2.2750416,1.2479173,Time OK,Free running,47700,9138,0,2019-10-22 19:00:25.000000000,
1571773998,2019-10-22 19:53:18.833,47.63631N 0.583899E 179m,Off,6,2.2750416,1.2479173,Time OK,Free running,48700,9138,0,2019-10-22 19:00:25.000000000,
1571774058,2019-10-22 19:54:18.838,47.63631N 0.583899E 179m,Off,6,2.2750416,1.2479173,Time OK,Free running,49800,9138,0,2019-10-22 19:00:25.000000000,
1571774118,2019-10-22 19:55:18.806,47.63631N 0.583899E 179m,Off,6,2.2750416,1.2479173,Time OK,Free running,51100,9138,0,2019-10-22 19:00:25.000000000,
1571774178,2019-10-22 19:56:18.807,47.63631N 0.583899E 179m,Doing fixes,7,2.2294536,1.2687184,Time OK,Coarse lock,100,9304,-416,2019-10-22 19:56:15.000000000,
1571774238,2019-10-22 19:57:18.807,47.63631N 0.583899E 179m,Doing fixes,8,1.9458935,1.0388654,Time OK,Fine lock,100,9148,0,2019-10-22 19:57:15.000000000,
1571774298,2019-10-22 19:58:18.806,47.63631N 0.583899E 179m,Off,5,3.0992823,2.0262353,Time OK,Free running,500,9154,0,2019-10-22 19:57:45.000000000,
1571774358,2019-10-22 19:59:18.806,47.63631N 0.583899E 179m,Off,5,3.0992823,2.0262353,Time OK,Free running,1300,9154,0,2019-10-22 19:57:45.000000000,
