Time(longsecs),Time(UTC),External SOH Voltage 1(V),External SOH Voltage 2(V),External SOH Voltage 3(V),External SOH Voltage 4(V),Sensor SOH Voltage 1(V),Sensor SOH Voltage 2(V),Sensor SOH Voltage 3(V),
1571835620,2019-10-23 13:00:20.663,-9.2983246E-5,-7.552862E-3,-1.5809536E-3,-1.4030933E-3,4.0839005E-1,4.0283108E-1,4.11067E-1,
1571835680,2019-10-23 13:01:20.663,-1.7476082E-4,-7.7409744E-3,-9.2077255E-4,-1.1751652E-3,4.1129684E-1,4.0467453E-1,4.1341972E-1,
1571835740,2019-10-23 13:02:20.665,-2.3436546E-3,-1.0240555E-2,-3.9134026E-3,-4.632473E-3,4.0183353E-1,3.9677906E-1,4.0500546E-1,
1571835800,2019-10-23 13:03:20.663,1.6820431E-3,-5.968094E-3,6.570816E-4,-7.6532364E-5,4.138012E-1,4.082346E-1,4.1723156E-1,
1571835860,2019-10-23 13:04:20.663,-4.5967102E-4,-7.987261E-3,-1.6548634E-3,-2.2981167E-3,4.0836334E-1,4.013176E-1,4.08288E-1,
1571835920,2019-10-23 13:05:20.692,2.629757E-4,-7.959604E-3,-1.5583038E-3,-1.4667511E-3,4.084463E-1,4.0220356E-1,4.109745E-1,
1571835980,2019-10-23 13:06:20.663,-3.349781E-4,-8.373737E-3,-1.5633106E-3,-1.752615E-3,4.046383E-1,4.005537E-1,4.0974808E-1,
1571836040,2019-10-23 13:07:20.664,1.5170574E-3,-5.8698654E-3,-4.956722E-4,2.553463E-4,4.1581345E-1,4.104309E-1,4.1853237E-1,
1571836100,2019-10-23 13:08:20.663,-2.3469925E-3,-9.879351E-3,-3.3922195E-3,-4.2312145E-3,4.0034676E-1,3.9382553E-1,4.0341473E-1,
1571836160,2019-10-23 13:09:20.702,-1.9555092E-3,-1.0246038E-2,-3.324747E-3,-4.6367645E-3,4.0480804E-1,3.999958E-1,4.0688038E-1,
1571836220,2019-10-23 13:10:20.663,-2.221346E-3,-1.0383368E-2,-3.7240982E-3,-3.280878E-3,4.0162182E-1,3.9789486E-1,4.0541267E-1,
1571836280,2019-10-23 13:11:20.663,2.949953E-3,-6.0772896E-3,8.299351E-4,6.685257E-4,4.1489697E-1,4.101572E-1,4.164343E-1,
1571836340,2019-10-23 13:12:20.663,-2.9349327E-4,-8.157253E-3,-1.8730164E-3,-1.6272068E-3,4.079466E-1,4.033537E-1,4.1209793E-1,
1571836400,2019-10-23 13:13:20.663,-6.325245E-4,-8.221626E-3,-2.097845E-3,-2.858162E-3,4.0420341E-1,4.0076542E-1,4.0898228E-1,
1571836460,2019-10-23 13:14:20.663,1.5640259E-3,-6.158352E-3,6.453991E-4,1.9454956E-4,4.116001E-1,4.0627766E-1,4.1355705E-1,
1571836520,2019-10-23 13:15:20.665,1.57547E-3,-5.866766E-3,3.4499168E-4,1.1777878E-4,4.1382885E-1,4.0768147E-1,4.1612244E-1,
1571836580,2019-10-23 13:16:20.663,-4.6491623E-4,-8.538008E-3,-1.9118786E-3,-3.0357838E-3,4.074068E-1,4.0332413E-1,4.1016293E-1,
1571836640,2019-10-23 13:17:20.702,3.5357475E-4,-7.6334476E-3,-1.1680126E-3,-1.562357E-3,4.0934277E-1,4.0382862E-1,4.1101742E-1,
1571836700,2019-10-23 13:18:20.663,-7.019043E-4,-8.059025E-3,-1.9514561E-3,-3.3020973E-3,4.0946293E-1,4.0549183E-1,4.1212082E-1,
1571836760,2019-10-23 13:19:20.663,-8.4733963E-4,-8.082151E-3,-1.4793873E-3,-2.1140575E-3,4.0704346E-1,4.0176582E-1,4.0746117E-1,
1571836820,2019-10-23 13:20:20.663,-1.5473366E-4,-8.665323E-3,-1.9330978E-3,-2.5098324E-3,4.0824986E-1,4.0290356E-1,4.0939617E-1,
1571836880,2019-10-23 13:21:20.663,-2.6779175E-3,-1.0603428E-2,-3.7987232E-3,-4.0824413E-3,3.9971733E-1,3.9448643E-1,4.0295696E-1,
1571836940,2019-10-23 13:22:20.663,1.9564629E-3,-5.9702396E-3,5.505085E-4,1.2481213E-3,4.162283E-1,4.11561E-1,4.1886616E-1,
1571837000,2019-10-23 13:23:20.663,1.9669533E-4,-8.399963E-3,-8.609295E-4,-2.4576187E-3,4.073515E-1,4.02256E-1,4.092245E-1,
1571837060,2019-10-23 13:24:20.695,1.0259151E-3,-6.1569214E-3,8.0800056E-4,1.6713142E-4,4.1440678E-1,4.0933514E-1,4.1708374E-1,
1571837120,2019-10-23 13:25:20.663,-7.8225136E-4,-8.201838E-3,-1.8985271E-3,-2.080679E-3,4.0813732E-1,4.0219975E-1,4.095564E-1,
1571837180,2019-10-23 13:26:20.663,-4.222393E-4,-8.800983E-3,-1.6329288E-3,-1.7483234E-3,4.0842342E-1,4.019003E-1,4.0969944E-1,
1571837240,2019-10-23 13:27:20.663,-2.4023056E-3,-1.0003567E-2,-3.7977695E-3,-4.5731068E-3,4.0267467E-1,3.981018E-1,4.0594578E-1,
1571837300,2019-10-23 13:28:20.663,-1.0306835E-3,-8.468866E-3,-1.6419888E-3,-2.146244E-3,4.0922832E-1,4.0285206E-1,4.094448E-1,
1571837360,2019-10-23 13:29:20.702,-2.462864E-4,-8.429766E-3,-1.4710426E-3,-1.8494129E-3,4.069233E-1,4.0233326E-1,4.100561E-1,
1571837420,2019-10-23 13:30:20.663,1.6255379E-3,-6.1383247E-3,3.5643578E-4,3.733635E-4,4.1128254E-1,4.0741158E-1,4.1330814E-1,
1571837480,2019-10-23 13:31:20.663,-5.700588E-4,-7.814407E-3,-9.0146065E-4,-1.9216537E-3,4.068613E-1,4.042883E-1,4.119854E-1,
1571837540,2019-10-23 13:32:20.665,-3.2424927E-5,-8.032322E-3,-1.2247562E-3,-1.947403E-3,4.0776157E-1,4.0271854E-1,4.1165257E-1,
1571837600,2019-10-23 13:33:20.663,-6.8974495E-4,-8.518219E-3,-1.7459393E-3,-2.770424E-3,4.063549E-1,4.0219212E-1,4.1022968E-1,
1571837660,2019-10-23 13:34:20.663,-3.5953522E-4,-8.421421E-3,-1.8987656E-3,-1.9876957E-3,4.039297E-1,3.9854145E-1,4.04356E-1,
1571837720,2019-10-23 13:35:20.664,1.3270378E-3,-6.0522556E-3,6.444454E-4,3.848076E-4,4.1294003E-1,4.0830708E-1,4.152794E-1,
1571837780,2019-10-23 13:36:20.664,1.6262531E-3,-6.0560703E-3,1.6307831E-4,2.4962425E-4,4.1352272E-1,4.084053E-1,4.1479588E-1,
1571837840,2019-10-23 13:37:20.663,2.0070076E-3,-5.661726E-3,1.2447834E-3,6.403923E-4,4.1703892E-1,4.1193104E-1,4.1874027E-1,
1571837900,2019-10-23 13:38:20.665,-2.272129E-4,-7.982731E-3,-2.0780563E-3,-1.6195774E-3,4.0807152E-1,4.035883E-1,4.1128254E-1,
1571837960,2019-10-23 13:39:20.663,-3.6597252E-4,-8.152962E-3,-2.089262E-3,-1.1496544E-3,4.0957546E-1,4.0431595E-1,4.1261673E-1,
1571838020,2019-10-23 13:40:20.663,-4.274845E-4,-8.456707E-3,-1.7197132E-3,-2.534628E-3,4.1067886E-1,4.0443325E-1,4.1243267E-1,
1571838080,2019-10-23 13:41:20.665,1.7199516E-3,-6.043434E-3,1.0242462E-3,-3.144741E-4,4.141264E-1,4.0760708E-1,4.1743755E-1,
1571838140,2019-10-23 13:42:20.665,-2.3858547E-3,-9.996176E-3,-3.297329E-3,-3.736496E-3,4.0013695E-1,3.939638E-1,4.0242958E-1,
1571838200,2019-10-23 13:43:20.663,-9.071827E-4,-8.089304E-3,-1.5459061E-3,-2.6123524E-3,4.0799904E-1,4.016304E-1,4.1098785E-1,
1571838260,2019-10-23 13:44:20.663,-6.005764E-4,-8.251905E-3,-1.4750957E-3,-2.261877E-3,4.0686703E-1,4.0254307E-1,4.0969753E-1,
1571838320,2019-10-23 13:45:20.663,-2.503395E-5,-7.6463223E-3,-1.799345E-3,-1.2199879E-3,4.101572E-1,4.0590572E-1,4.126463E-1,
1571838380,2019-10-23 13:46:20.663,-4.8279762E-4,-8.232355E-3,-1.7633438E-3,-2.6938915E-3,4.0427208E-1,4.0021706E-1,4.0711594E-1,
1571838440,2019-10-23 13:47:20.663,-3.3187866E-4,-8.378267E-3,-1.1515617E-3,-2.8803349E-3,4.0671253E-1,4.0229702E-1,4.1044807E-1,
1571838500,2019-10-23 13:48:20.663,-1.244545E-4,-7.5922012E-3,-1.2586117E-3,-1.3942719E-3,4.097519E-1,4.048481E-1,4.122858E-1,
1571838560,2019-10-23 13:49:20.663,-5.5360794E-4,-8.11553E-3,-2.0225048E-3,-2.3553371E-3,4.0707874E-1,4.0264416E-1,4.0977478E-1,
1571838620,2019-10-23 13:50:20.663,-1.835823E-4,-7.567644E-3,-8.723736E-4,-1.6028881E-3,4.110651E-1,4.0496254E-1,4.1238117E-1,
1571838680,2019-10-23 13:51:20.663,-1.2116432E-3,-8.381367E-3,-2.200842E-3,-2.3114681E-3,4.0786743E-1,4.0311813E-1,4.0948963E-1,
1571838740,2019-10-23 13:52:20.663,-2.6586056E-3,-1.0556698E-2,-3.7744045E-3,-3.635168E-3,4.043951E-1,3.9840603E-1,4.0573215E-1,
1571838800,2019-10-23 13:53:20.683,1.844883E-3,-5.739689E-3,9.639263E-4,6.263256E-4,4.1589165E-1,4.1118908E-1,4.1896057E-1,
1571838860,2019-10-23 13:54:20.663,2.0487309E-3,-5.8181286E-3,2.3984909E-4,-7.6007843E-4,4.1475677E-1,4.0778446E-1,4.1728973E-1,
1571838920,2019-10-23 13:55:20.665,-5.9723854E-4,-8.350611E-3,-1.8160343E-3,-1.9416809E-3,4.0797138E-1,4.03327E-1,4.0897655E-1,
1571838980,2019-10-23 13:56:20.663,-2.503872E-3,-1.0165453E-2,-4.276514E-3,-4.109621E-3,4.0236568E-1,3.9535427E-1,4.0271664E-1,
1571839040,2019-10-23 13:57:20.663,-8.559227E-4,-8.406639E-3,-1.8970966E-3,-2.2172928E-3,4.0668774E-1,4.0191078E-1,4.099226E-1,
1571839100,2019-10-23 13:58:20.663,-1.5473366E-4,-7.852316E-3,-9.908676E-4,-2.1982193E-3,4.0838242E-1,4.0345E-1,4.093895E-1,
1571839160,2019-10-23 13:59:20.663,-3.2496452E-4,-7.8015327E-3,-1.124382E-3,-1.2946129E-3,4.0774632E-1,4.0373898E-1,4.1081238E-1,
