Time(longsecs),Time(UTC),Earth Location,GPS Receiver Status,GPS Satellites Used,GPS PDOP,GPS TDOP,Timing Status,Timing Phase Lock,Timing Uncertainty(ns),DAC Count,Timing Error(ns),GPS Last Update Time,
1571814022,2019-10-23 07:00:22.352,47.644898N 0.586866E 214m,Off,6,2.5101326,1.501471,Time OK,Free running,46300,8837,0,2019-10-23 06:12:49.000000000,
1571814082,2019-10-23 07:01:22.352,47.644898N 0.586866E 214m,Off,6,2.5101326,1.501471,Time OK,Free running,47200,8837,0,2019-10-23 06:12:49.000000000,
1571814142,2019-10-23 07:02:22.352,47.644898N 0.586866E 214m,Off,6,2.5101326,1.501471,Time OK,Free running,48100,8837,0,2019-10-23 06:12:49.000000000,
1571814202,2019-10-23 07:03:22.352,47.644898N 0.586866E 214m,Off,6,2.5101326,1.501471,Time OK,Free running,48900,8837,0,2019-10-23 06:12:49.000000000,
1571814262,2019-10-23 07:04:22.352,47.644898N 0.586866E 214m,Off,6,2.5101326,1.501471,Time OK,Free running,49800,8837,0,2019-10-23 06:12:49.000000000,
1571814322,2019-10-23 07:05:22.352,47.644898N 0.586866E 214m,Off,6,2.5101326,1.501471,Time OK,Free running,50700,8837,0,2019-10-23 06:12:49.000000000,
1571814382,2019-10-23 07:06:22.352,47.644898N 0.586866E 214m,Doing fixes,4,2.3948543,0.7368997,Time OK,Coarse lock,100,8858,-625,2019-10-23 07:06:19.000000000,
1571814442,2019-10-23 07:07:22.352,47.644898N 0.586866E 214m,Off,5,3.2815444,1.7517112,Time OK,Free running,300,8837,0,2019-10-23 07:06:59.000000000,
1571814502,2019-10-23 07:08:22.352,47.644898N 0.586866E 214m,Off,5,3.2815444,1.7517112,Time OK,Free running,1300,8837,0,2019-10-23 07:06:59.000000000,
1571814562,2019-10-23 07:09:22.352,47.644898N 0.586866E 214m,Off,5,3.2815444,1.7517112,Time OK,Free running,2600,8837,0,2019-10-23 07:06:59.000000000,
1571814622,2019-10-23 07:10:22.352,47.644898N 0.586866E 214m,Off,5,3.2815444,1.7517112,Time OK,Free running,4000,8837,0,2019-10-23 07:06:59.000000000,
1571814682,2019-10-23 07:11:22.352,47.644898N 0.586866E 214m,Off,5,3.2815444,1.7517112,Time OK,Free running,5400,8837,0,2019-10-23 07:06:59.000000000,
1571814742,2019-10-23 07:12:22.352,47.644898N 0.586866E 214m,Off,5,3.2815444,1.7517112,Time OK,Free running,6600,8837,0,2019-10-23 07:06:59.000000000,
1571814802,2019-10-23 07:13:22.352,47.644898N 0.586866E 214m,Off,5,3.2815444,1.7517112,Time OK,Free running,7700,8837,0,2019-10-23 07:06:59.000000000,
1571814862,2019-10-23 07:14:22.352,47.644898N 0.586866E 214m,Off,5,3.2815444,1.7517112,Time OK,Free running,9000,8837,0,2019-10-23 07:06:59.000000000,
1571814922,2019-10-23 07:15:22.352,47.644898N 0.586866E 214m,Off,5,3.2815444,1.7517112,Time OK,Free running,10300,8837,0,2019-10-23 07:06:59.000000000,
1571814982,2019-10-23 07:16:22.352,47.644898N 0.586866E 214m,Off,5,3.2815444,1.7517112,Time OK,Free running,11400,8837,0,2019-10-23 07:06:59.000000000,
1571815042,2019-10-23 07:17:22.352,47.644898N 0.586866E 214m,Off,5,3.2815444,1.7517112,Time OK,Free running,12500,8837,0,2019-10-23 07:06:59.000000000,
1571815102,2019-10-23 07:18:22.352,47.644898N 0.586866E 214m,Off,5,3.2815444,1.7517112,Time OK,Free running,13700,8837,0,2019-10-23 07:06:59.000000000,
1571815162,2019-10-23 07:19:22.352,47.644898N 0.586866E 214m,Off,5,3.2815444,1.7517112,Time OK,Free running,15200,8837,0,2019-10-23 07:06:59.000000000,
1571815222,2019-10-23 07:20:22.352,47.644898N 0.586866E 214m,Off,5,3.2815444,1.7517112,Time OK,Free running,16800,8837,0,2019-10-23 07:06:59.000000000,
1571815282,2019-10-23 07:21:22.352,47.644898N 0.586866E 214m,Off,5,3.2815444,1.7517112,Time OK,Free running,18200,8837,0,2019-10-23 07:06:59.000000000,
1571815342,2019-10-23 07:22:22.352,47.644898N 0.586866E 214m,Off,5,3.2815444,1.7517112,Time OK,Free running,19500,8837,0,2019-10-23 07:06:59.000000000,
1571815402,2019-10-23 07:23:22.352,47.644898N 0.586866E 214m,Off,5,3.2815444,1.7517112,Time OK,Free running,20700,8837,0,2019-10-23 07:06:59.000000000,
1571815462,2019-10-23 07:24:22.352,47.644898N 0.586866E 214m,Off,5,3.2815444,1.7517112,Time OK,Free running,21800,8837,0,2019-10-23 07:06:59.000000000,
1571815522,2019-10-23 07:25:22.353,47.644898N 0.586866E 214m,Off,5,3.2815444,1.7517112,Time OK,Free running,23100,8837,0,2019-10-23 07:06:59.000000000,
1571815582,2019-10-23 07:26:22.352,47.644898N 0.586866E 214m,Off,5,3.2815444,1.7517112,Time OK,Free running,24400,8837,0,2019-10-23 07:06:59.000000000,
1571815642,2019-10-23 07:27:22.352,47.644898N 0.586866E 214m,Off,5,3.2815444,1.7517112,Time OK,Free running,25300,8837,0,2019-10-23 07:06:59.000000000,
1571815702,2019-10-23 07:28:22.352,47.644898N 0.586866E 214m,Off,5,3.2815444,1.7517112,Time OK,Free running,26400,8837,0,2019-10-23 07:06:59.000000000,
1571815762,2019-10-23 07:29:22.352,47.644898N 0.586866E 214m,Off,5,3.2815444,1.7517112,Time OK,Free running,27500,8837,0,2019-10-23 07:06:59.000000000,
1571815822,2019-10-23 07:30:22.352,47.644898N 0.586866E 214m,Off,5,3.2815444,1.7517112,Time OK,Free running,28500,8837,0,2019-10-23 07:06:59.000000000,
1571815882,2019-10-23 07:31:22.352,47.644898N 0.586866E 214m,Off,5,3.2815444,1.7517112,Time OK,Free running,29600,8837,0,2019-10-23 07:06:59.000000000,
1571815942,2019-10-23 07:32:22.352,47.644898N 0.586866E 214m,Off,5,3.2815444,1.7517112,Time OK,Free running,30600,8837,0,2019-10-23 07:06:59.000000000,
1571816002,2019-10-23 07:33:22.352,47.644898N 0.586866E 214m,Off,5,3.2815444,1.7517112,Time OK,Free running,31500,8837,0,2019-10-23 07:06:59.000000000,
1571816062,2019-10-23 07:34:22.352,47.644898N 0.586866E 214m,Off,5,3.2815444,1.7517112,Time OK,Free running,32300,8837,0,2019-10-23 07:06:59.000000000,
1571816122,2019-10-23 07:35:22.354,47.644898N 0.586866E 214m,Off,5,3.2815444,1.7517112,Time OK,Free running,33200,8837,0,2019-10-23 07:06:59.000000000,
1571816182,2019-10-23 07:36:22.352,47.644898N 0.586866E 214m,Off,5,3.2815444,1.7517112,Time OK,Free running,34300,8837,0,2019-10-23 07:06:59.000000000,
1571816242,2019-10-23 07:37:22.352,47.644898N 0.586866E 214m,Off,5,3.2815444,1.7517112,Time OK,Free running,35400,8837,0,2019-10-23 07:06:59.000000000,
1571816302,2019-10-23 07:38:22.352,47.644898N 0.586866E 214m,Off,5,3.2815444,1.7517112,Time OK,Free running,36500,8837,0,2019-10-23 07:06:59.000000000,
1571816362,2019-10-23 07:39:22.352,47.644898N 0.586866E 214m,Off,5,3.2815444,1.7517112,Time OK,Free running,37500,8837,0,2019-10-23 07:06:59.000000000,
1571816422,2019-10-23 07:40:22.352,47.644898N 0.586866E 214m,Off,5,3.2815444,1.7517112,Time OK,Free running,38400,8837,0,2019-10-23 07:06:59.000000000,
1571816482,2019-10-23 07:41:22.352,47.644898N 0.586866E 214m,Off,5,3.2815444,1.7517112,Time OK,Free running,39500,8837,0,2019-10-23 07:06:59.000000000,
1571816542,2019-10-23 07:42:22.352,47.644898N 0.586866E 214m,Off,5,3.2815444,1.7517112,Time OK,Free running,40800,8837,0,2019-10-23 07:06:59.000000000,
1571816602,2019-10-23 07:43:22.352,47.644898N 0.586866E 214m,Off,5,3.2815444,1.7517112,Time OK,Free running,42000,8837,0,2019-10-23 07:06:59.000000000,
1571816662,2019-10-23 07:44:22.353,47.644898N 0.586866E 214m,Off,5,3.2815444,1.7517112,Time OK,Free running,43200,8837,0,2019-10-23 07:06:59.000000000,
1571816722,2019-10-23 07:45:22.352,47.644898N 0.586866E 214m,Off,5,3.2815444,1.7517112,Time OK,Free running,44200,8837,0,2019-10-23 07:06:59.000000000,
1571816782,2019-10-23 07:46:22.352,47.644898N 0.586866E 214m,Off,5,3.2815444,1.7517112,Time OK,Free running,45200,8837,0,2019-10-23 07:06:59.000000000,
1571816842,2019-10-23 07:47:22.352,47.644898N 0.586866E 214m,Off,5,3.2815444,1.7517112,Time OK,Free running,46100,8837,0,2019-10-23 07:06:59.000000000,
1571816902,2019-10-23 07:48:22.352,47.644898N 0.586866E 214m,Off,5,3.2815444,1.7517112,Time OK,Free running,46900,8837,0,2019-10-23 07:06:59.000000000,
1571816962,2019-10-23 07:49:22.353,47.644898N 0.586866E 214m,Off,5,3.2815444,1.7517112,Time OK,Free running,48000,8837,0,2019-10-23 07:06:59.000000000,
1571817022,2019-10-23 07:50:22.364,47.644898N 0.586866E 214m,Off,5,3.2815444,1.7517112,Time OK,Free running,49100,8837,0,2019-10-23 07:06:59.000000000,
1571817082,2019-10-23 07:51:22.354,47.644898N 0.586866E 214m,Off,5,3.2815444,1.7517112,Time OK,Free running,50000,8837,0,2019-10-23 07:06:59.000000000,
1571817142,2019-10-23 07:52:22.352,47.644898N 0.586866E 214m,Off,5,3.2815444,1.7517112,Time OK,Free running,50800,8837,0,2019-10-23 07:06:59.000000000,
1571817202,2019-10-23 07:53:22.352,47.644898N 0.586866E 214m,Doing fixes,4,7.7861476,1.801953,Time OK,Free running,51700,8837,0,2019-10-23 07:53:19.000000000,
1571817262,2019-10-23 07:54:22.352,47.644898N 0.586866E 214m,Doing fixes,6,2.9783413,1.8998406,Time OK,Fine lock,100,8839,0,2019-10-23 07:54:19.000000000,
1571817322,2019-10-23 07:55:22.352,47.644898N 0.586866E 214m,Doing fixes,7,2.444864,1.3784648,Time OK,Fine lock,100,8840,0,2019-10-23 07:55:19.000000000,
1571817382,2019-10-23 07:56:22.361,47.644898N 0.586866E 214m,Doing fixes,5,3.4806435,2.341166,Time OK,Fine lock,100,8839,0,2019-10-23 07:56:19.000000000,
1571817442,2019-10-23 07:57:22.352,47.644898N 0.586866E 214m,Doing fixes,7,2.421556,1.3906113,Time OK,Fine lock,100,8834,0,2019-10-23 07:57:19.000000000,
1571817502,2019-10-23 07:58:22.352,47.644898N 0.586866E 214m,Doing fixes,6,3.0561018,1.9604288,Time OK,Fine lock,100,8841,0,2019-10-23 07:58:19.000000000,
1571817562,2019-10-23 07:59:22.353,47.644898N 0.586866E 214m,Doing fixes,6,3.0726807,1.9693745,Time OK,Fine lock,100,8841,0,2019-10-23 07:59:19.000000000,
