Time(longsecs),Time(UTC),GPS Satellite Acquisition Flag 1,GPS Satellite Acquisition Flag 2,GPS Satellite Acquisition Flag 3,GPS Satellite Acquisition Flag 4,GPS Satellite Acquisition Flag 5,GPS Satellite Acquisition Flag 6,GPS Satellite Acquisition Flag 7,GPS Satellite Acquisition Flag 8,GPS Satellite Acquisition Flag 9,GPS Satellite Acquisition Flag 10,GPS Satellite Acquisition Flag 11,GPS Satellite Acquisition Flag 12,GPS Satellite Azimuth 1(Degrees),GPS Satellite Azimuth 2(Degrees),GPS Satellite Azimuth 3(Degrees),GPS Satellite Azimuth 4(Degrees),GPS Satellite Azimuth 5(Degrees),GPS Satellite Azimuth 6(Degrees),GPS Satellite Azimuth 7(Degrees),GPS Satellite Azimuth 8(Degrees),GPS Satellite Azimuth 9(Degrees),GPS Satellite Azimuth 10(Degrees),GPS Satellite Azimuth 11(Degrees),GPS Satellite Azimuth 12(Degrees),GPS Satellite Elevation 1(Degrees),GPS Satellite Elevation 2(Degrees),GPS Satellite Elevation 3(Degrees),GPS Satellite Elevation 4(Degrees),GPS Satellite Elevation 5(Degrees),GPS Satellite Elevation 6(Degrees),GPS Satellite Elevation 7(Degrees),GPS Satellite Elevation 8(Degrees),GPS Satellite Elevation 9(Degrees),GPS Satellite Elevation 10(Degrees),GPS Satellite Elevation 11(Degrees),GPS Satellite Elevation 12(Degrees),GPS Satellite PRN 1,GPS Satellite PRN 2,GPS Satellite PRN 3,GPS Satellite PRN 4,GPS Satellite PRN 5,GPS Satellite PRN 6,GPS Satellite PRN 7,GPS Satellite PRN 8,GPS Satellite PRN 9,GPS Satellite PRN 10,GPS Satellite PRN 11,GPS Satellite PRN 12,GPS Satellite Signal Level 1(AMU),GPS Satellite Signal Level 2(AMU),GPS Satellite Signal Level 3(AMU),GPS Satellite Signal Level 4(AMU),GPS Satellite Signal Level 5(AMU),GPS Satellite Signal Level 6(AMU),GPS Satellite Signal Level 7(AMU),GPS Satellite Signal Level 8(AMU),GPS Satellite Signal Level 9(AMU),GPS Satellite Signal Level 10(AMU),GPS Satellite Signal Level 11(AMU),GPS Satellite Signal Level 12(AMU),
1571857220,2019-10-23 19:00:20.663,Acquired,Acquired,Acquired,Acquired,Acquired,Acquired,Acquired,Acquired,,,,,1.89336672E2,1.07463352E2,2.90609696E2,3.14977664E2,2.59133888E2,7.1790888E1,7.0143688E1,1.16630512E2,,,,,2.2657102E1,7.6370488E1,6.5736468E1,1.9882783999999997E1,2.656392E1,5.1752475999999994E1,2.2559296E1,1.033847E1,,,,,5,13,15,20,24,28,30,17,,,,,10,14,14,3,6,12,2,2,,,,,
1571857280,2019-10-23 19:01:20.663,Acquired,Acquired,Acquired,Acquired,Acquired,Acquired,Acquired,Acquired,,,,,1.89336672E2,1.07463352E2,2.90609696E2,3.14977664E2,2.59133888E2,7.1790888E1,7.0143688E1,1.16630512E2,,,,,2.2657102E1,7.6370488E1,6.5736468E1,1.9882783999999997E1,2.656392E1,5.1752475999999994E1,2.2559296E1,1.033847E1,,,,,5,13,15,20,24,28,30,17,,,,,10,14,14,3,6,12,2,2,,,,,
1571857340,2019-10-23 19:02:20.663,Acquired,Acquired,Acquired,Acquired,Acquired,Acquired,Acquired,Acquired,,,,,1.89336672E2,1.07463352E2,2.90609696E2,3.14977664E2,2.59133888E2,7.1790888E1,7.0143688E1,1.16630512E2,,,,,2.2657102E1,7.6370488E1,6.5736468E1,1.9882783999999997E1,2.656392E1,5.1752475999999994E1,2.2559296E1,1.033847E1,,,,,5,13,15,20,24,28,30,17,,,,,10,14,14,3,6,12,2,2,,,,,
1571857400,2019-10-23 19:03:20.663,Acquired,Acquired,Acquired,Acquired,Acquired,Acquired,Acquired,Acquired,,,,,1.89336672E2,1.07463352E2,2.90609696E2,3.14977664E2,2.59133888E2,7.1790888E1,7.0143688E1,1.16630512E2,,,,,2.2657102E1,7.6370488E1,6.5736468E1,1.9882783999999997E1,2.656392E1,5.1752475999999994E1,2.2559296E1,1.033847E1,,,,,5,13,15,20,24,28,30,17,,,,,10,14,14,3,6,12,2,2,,,,,
1571857460,2019-10-23 19:04:20.663,Acquired,Acquired,Acquired,Acquired,Acquired,Acquired,Acquired,Acquired,,,,,1.89336672E2,1.07463352E2,2.90609696E2,3.14977664E2,2.59133888E2,7.1790888E1,7.0143688E1,1.16630512E2,,,,,2.2657102E1,7.6370488E1,6.5736468E1,1.9882783999999997E1,2.656392E1,5.1752475999999994E1,2.2559296E1,1.033847E1,,,,,5,13,15,20,24,28,30,17,,,,,10,14,14,3,6,12,2,2,,,,,
1571857520,2019-10-23 19:05:20.663,Acquired,Acquired,Acquired,Acquired,Acquired,Acquired,Acquired,Acquired,,,,,1.89336672E2,1.07463352E2,2.90609696E2,3.14977664E2,2.59133888E2,7.1790888E1,7.0143688E1,1.16630512E2,,,,,2.2657102E1,7.6370488E1,6.5736468E1,1.9882783999999997E1,2.656392E1,5.1752475999999994E1,2.2559296E1,1.033847E1,,,,,5,13,15,20,24,28,30,17,,,,,10,14,14,3,6,12,2,2,,,,,
1571857580,2019-10-23 19:06:20.663,Acquired,Acquired,Acquired,Acquired,Acquired,Acquired,Acquired,Acquired,,,,,1.89336672E2,1.07463352E2,2.90609696E2,3.14977664E2,2.59133888E2,7.1790888E1,7.0143688E1,1.16630512E2,,,,,2.2657102E1,7.6370488E1,6.5736468E1,1.9882783999999997E1,2.656392E1,5.1752475999999994E1,2.2559296E1,1.033847E1,,,,,5,13,15,20,24,28,30,17,,,,,10,14,14,3,6,12,2,2,,,,,
1571857640,2019-10-23 19:07:20.663,Acquired,Acquired,Acquired,Acquired,Acquired,Acquired,Acquired,Acquired,,,,,1.89336672E2,1.07463352E2,2.90609696E2,3.14977664E2,2.59133888E2,7.1790888E1,7.0143688E1,1.16630512E2,,,,,2.2657102E1,7.6370488E1,6.5736468E1,1.9882783999999997E1,2.656392E1,5.1752475999999994E1,2.2559296E1,1.033847E1,,,,,5,13,15,20,24,28,30,17,,,,,10,14,14,3,6,12,2,2,,,,,
1571857700,2019-10-23 19:08:20.663,Acquired,Acquired,Acquired,Acquired,Acquired,Acquired,Acquired,Acquired,,,,,1.89336672E2,1.07463352E2,2.90609696E2,3.14977664E2,2.59133888E2,7.1790888E1,7.0143688E1,1.16630512E2,,,,,2.2657102E1,7.6370488E1,6.5736468E1,1.9882783999999997E1,2.656392E1,5.1752475999999994E1,2.2559296E1,1.033847E1,,,,,5,13,15,20,24,28,30,17,,,,,10,14,14,3,6,12,2,2,,,,,
1571857760,2019-10-23 19:09:20.663,Acquired,Acquired,Acquired,Acquired,Acquired,Acquired,Acquired,Acquired,,,,,1.89336672E2,1.07463352E2,2.90609696E2,3.14977664E2,2.59133888E2,7.1790888E1,7.0143688E1,1.16630512E2,,,,,2.2657102E1,7.6370488E1,6.5736468E1,1.9882783999999997E1,2.656392E1,5.1752475999999994E1,2.2559296E1,1.033847E1,,,,,5,13,15,20,24,28,30,17,,,,,10,14,14,3,6,12,2,2,,,,,
1571857820,2019-10-23 19:10:20.663,Acquired,Acquired,Acquired,Acquired,Acquired,Acquired,Acquired,Acquired,,,,,1.89336672E2,1.07463352E2,2.90609696E2,3.14977664E2,2.59133888E2,7.1790888E1,7.0143688E1,1.16630512E2,,,,,2.2657102E1,7.6370488E1,6.5736468E1,1.9882783999999997E1,2.656392E1,5.1752475999999994E1,2.2559296E1,1.033847E1,,,,,5,13,15,20,24,28,30,17,,,,,10,14,14,3,6,12,2,2,,,,,
1571857880,2019-10-23 19:11:20.663,Acquired,Acquired,Acquired,Acquired,Acquired,Acquired,Acquired,Acquired,,,,,1.89336672E2,1.07463352E2,2.90609696E2,3.14977664E2,2.59133888E2,7.1790888E1,7.0143688E1,1.16630512E2,,,,,2.2657102E1,7.6370488E1,6.5736468E1,1.9882783999999997E1,2.656392E1,5.1752475999999994E1,2.2559296E1,1.033847E1,,,,,5,13,15,20,24,28,30,17,,,,,10,14,14,3,6,12,2,2,,,,,
1571857940,2019-10-23 19:12:20.663,Acquired,Acquired,Acquired,Acquired,Acquired,Acquired,Acquired,Acquired,,,,,1.89336672E2,1.07463352E2,2.90609696E2,3.14977664E2,2.59133888E2,7.1790888E1,7.0143688E1,1.16630512E2,,,,,2.2657102E1,7.6370488E1,6.5736468E1,1.9882783999999997E1,2.656392E1,5.1752475999999994E1,2.2559296E1,1.033847E1,,,,,5,13,15,20,24,28,30,17,,,,,10,14,14,3,6,12,2,2,,,,,
1571858000,2019-10-23 19:13:20.663,Acquired,Acquired,Acquired,Acquired,Acquired,Acquired,Acquired,Acquired,,,,,1.89336672E2,1.07463352E2,2.90609696E2,3.14977664E2,2.59133888E2,7.1790888E1,7.0143688E1,1.16630512E2,,,,,2.2657102E1,7.6370488E1,6.5736468E1,1.9882783999999997E1,2.656392E1,5.1752475999999994E1,2.2559296E1,1.033847E1,,,,,5,13,15,20,24,28,30,17,,,,,10,14,14,3,6,12,2,2,,,,,
1571858060,2019-10-23 19:14:20.663,Acquired,Acquired,Acquired,Acquired,Acquired,Acquired,Acquired,Acquired,,,,,1.89336672E2,1.07463352E2,2.90609696E2,3.14977664E2,2.59133888E2,7.1790888E1,7.0143688E1,1.16630512E2,,,,,2.2657102E1,7.6370488E1,6.5736468E1,1.9882783999999997E1,2.656392E1,5.1752475999999994E1,2.2559296E1,1.033847E1,,,,,5,13,15,20,24,28,30,17,,,,,10,14,14,3,6,12,2,2,,,,,
1571858120,2019-10-23 19:15:20.663,Acquired,Acquired,Acquired,Acquired,Acquired,Acquired,Acquired,Acquired,,,,,1.89336672E2,1.07463352E2,2.90609696E2,3.14977664E2,2.59133888E2,7.1790888E1,7.0143688E1,1.16630512E2,,,,,2.2657102E1,7.6370488E1,6.5736468E1,1.9882783999999997E1,2.656392E1,5.1752475999999994E1,2.2559296E1,1.033847E1,,,,,5,13,15,20,24,28,30,17,,,,,10,14,14,3,6,12,2,2,,,,,
1571858180,2019-10-23 19:16:20.663,Acquired,Acquired,Acquired,Acquired,Acquired,Acquired,Acquired,Acquired,,,,,1.89336672E2,1.07463352E2,2.90609696E2,3.14977664E2,2.59133888E2,7.1790888E1,7.0143688E1,1.16630512E2,,,,,2.2657102E1,7.6370488E1,6.5736468E1,1.9882783999999997E1,2.656392E1,5.1752475999999994E1,2.2559296E1,1.033847E1,,,,,5,13,15,20,24,28,30,17,,,,,10,14,14,3,6,12,2,2,,,,,
1571858240,2019-10-23 19:17:20.663,Acquired,Acquired,Acquired,Acquired,Acquired,Acquired,Acquired,Acquired,,,,,1.89336672E2,1.07463352E2,2.90609696E2,3.14977664E2,2.59133888E2,7.1790888E1,7.0143688E1,1.16630512E2,,,,,2.2657102E1,7.6370488E1,6.5736468E1,1.9882783999999997E1,2.656392E1,5.1752475999999994E1,2.2559296E1,1.033847E1,,,,,5,13,15,20,24,28,30,17,,,,,10,14,14,3,6,12,2,2,,,,,
1571858300,2019-10-23 19:18:20.663,Acquired,Acquired,Acquired,Acquired,Acquired,Acquired,Acquired,Acquired,,,,,1.89336672E2,1.07463352E2,2.90609696E2,3.14977664E2,2.59133888E2,7.1790888E1,7.0143688E1,1.16630512E2,,,,,2.2657102E1,7.6370488E1,6.5736468E1,1.9882783999999997E1,2.656392E1,5.1752475999999994E1,2.2559296E1,1.033847E1,,,,,5,13,15,20,24,28,30,17,,,,,10,14,14,3,6,12,2,2,,,,,
1571858360,2019-10-23 19:19:20.663,Acquired,Acquired,Acquired,Acquired,Acquired,Acquired,Acquired,Acquired,,,,,1.89336672E2,1.07463352E2,2.90609696E2,3.14977664E2,2.59133888E2,7.1790888E1,7.0143688E1,1.16630512E2,,,,,2.2657102E1,7.6370488E1,6.5736468E1,1.9882783999999997E1,2.656392E1,5.1752475999999994E1,2.2559296E1,1.033847E1,,,,,5,13,15,20,24,28,30,17,,,,,10,14,14,3,6,12,2,2,,,,,
1571858420,2019-10-23 19:20:20.663,Acquired,Acquired,Acquired,Acquired,Acquired,Acquired,Acquired,Acquired,,,,,1.89336672E2,1.07463352E2,2.90609696E2,3.14977664E2,2.59133888E2,7.1790888E1,7.0143688E1,1.16630512E2,,,,,2.2657102E1,7.6370488E1,6.5736468E1,1.9882783999999997E1,2.656392E1,5.1752475999999994E1,2.2559296E1,1.033847E1,,,,,5,13,15,20,24,28,30,17,,,,,10,14,14,3,6,12,2,2,,,,,
1571858480,2019-10-23 19:21:20.663,Acquired,Acquired,Acquired,Acquired,Acquired,Acquired,Acquired,Acquired,,,,,1.89336672E2,1.07463352E2,2.90609696E2,3.14977664E2,2.59133888E2,7.1790888E1,7.0143688E1,1.16630512E2,,,,,2.2657102E1,7.6370488E1,6.5736468E1,1.9882783999999997E1,2.656392E1,5.1752475999999994E1,2.2559296E1,1.033847E1,,,,,5,13,15,20,24,28,30,17,,,,,10,14,14,3,6,12,2,2,,,,,
1571858540,2019-10-23 19:22:20.665,Acquired,Acquired,Acquired,Acquired,Acquired,Acquired,Acquired,Acquired,,,,,1.89336672E2,1.07463352E2,2.90609696E2,3.14977664E2,2.59133888E2,7.1790888E1,7.0143688E1,1.16630512E2,,,,,2.2657102E1,7.6370488E1,6.5736468E1,1.9882783999999997E1,2.656392E1,5.1752475999999994E1,2.2559296E1,1.033847E1,,,,,5,13,15,20,24,28,30,17,,,,,10,14,14,3,6,12,2,2,,,,,
1571858600,2019-10-23 19:23:20.663,Acquired,Acquired,Acquired,Acquired,Acquired,Acquired,Acquired,Acquired,,,,,1.89336672E2,1.07463352E2,2.90609696E2,3.14977664E2,2.59133888E2,7.1790888E1,7.0143688E1,1.16630512E2,,,,,2.2657102E1,7.6370488E1,6.5736468E1,1.9882783999999997E1,2.656392E1,5.1752475999999994E1,2.2559296E1,1.033847E1,,,,,5,13,15,20,24,28,30,17,,,,,10,14,14,3,6,12,2,2,,,,,
1571858660,2019-10-23 19:24:20.663,Acquired,Acquired,Acquired,Acquired,Acquired,Acquired,Acquired,Acquired,,,,,1.89336672E2,1.07463352E2,2.90609696E2,3.14977664E2,2.59133888E2,7.1790888E1,7.0143688E1,1.16630512E2,,,,,2.2657102E1,7.6370488E1,6.5736468E1,1.9882783999999997E1,2.656392E1,5.1752475999999994E1,2.2559296E1,1.033847E1,,,,,5,13,15,20,24,28,30,17,,,,,10,14,14,3,6,12,2,2,,,,,
1571858720,2019-10-23 19:25:20.663,Acquired,Acquired,Acquired,Acquired,Acquired,Acquired,Acquired,Acquired,,,,,1.89336672E2,1.07463352E2,2.90609696E2,3.14977664E2,2.59133888E2,7.1790888E1,7.0143688E1,1.16630512E2,,,,,2.2657102E1,7.6370488E1,6.5736468E1,1.9882783999999997E1,2.656392E1,5.1752475999999994E1,2.2559296E1,1.033847E1,,,,,5,13,15,20,24,28,30,17,,,,,10,14,14,3,6,12,2,2,,,,,
1571858780,2019-10-23 19:26:20.663,Acquired,Acquired,Acquired,Acquired,Acquired,Acquired,Acquired,Acquired,,,,,1.89336672E2,1.07463352E2,2.90609696E2,3.14977664E2,2.59133888E2,7.1790888E1,7.0143688E1,1.16630512E2,,,,,2.2657102E1,7.6370488E1,6.5736468E1,1.9882783999999997E1,2.656392E1,5.1752475999999994E1,2.2559296E1,1.033847E1,,,,,5,13,15,20,24,28,30,17,,,,,10,14,14,3,6,12,2,2,,,,,
1571858840,2019-10-23 19:27:20.663,Acquired,Acquired,Acquired,Acquired,Acquired,Acquired,Acquired,Acquired,,,,,1.89336672E2,1.07463352E2,2.90609696E2,3.14977664E2,2.59133888E2,7.1790888E1,7.0143688E1,1.16630512E2,,,,,2.2657102E1,7.6370488E1,6.5736468E1,1.9882783999999997E1,2.656392E1,5.1752475999999994E1,2.2559296E1,1.033847E1,,,,,5,13,15,20,24,28,30,17,,,,,10,14,14,3,6,12,2,2,,,,,
1571858900,2019-10-23 19:28:20.663,Acquired,Acquired,Acquired,Acquired,Acquired,Acquired,Acquired,Acquired,,,,,1.89336672E2,1.07463352E2,2.90609696E2,3.14977664E2,2.59133888E2,7.1790888E1,7.0143688E1,1.16630512E2,,,,,2.2657102E1,7.6370488E1,6.5736468E1,1.9882783999999997E1,2.656392E1,5.1752475999999994E1,2.2559296E1,1.033847E1,,,,,5,13,15,20,24,28,30,17,,,,,10,14,14,3,6,12,2,2,,,,,
1571858960,2019-10-23 19:29:20.663,Acquired,Acquired,Acquired,Acquired,Acquired,Acquired,Acquired,Acquired,,,,,1.89336672E2,1.07463352E2,2.90609696E2,3.14977664E2,2.59133888E2,7.1790888E1,7.0143688E1,1.16630512E2,,,,,2.2657102E1,7.6370488E1,6.5736468E1,1.9882783999999997E1,2.656392E1,5.1752475999999994E1,2.2559296E1,1.033847E1,,,,,5,13,15,20,24,28,30,17,,,,,10,14,14,3,6,12,2,2,,,,,
1571859020,2019-10-23 19:30:20.663,Acquired,Acquired,Acquired,Acquired,Acquired,Acquired,Acquired,Acquired,,,,,1.89336672E2,1.07463352E2,2.90609696E2,3.14977664E2,2.59133888E2,7.1790888E1,7.0143688E1,1.16630512E2,,,,,2.2657102E1,7.6370488E1,6.5736468E1,1.9882783999999997E1,2.656392E1,5.1752475999999994E1,2.2559296E1,1.033847E1,,,,,5,13,15,20,24,28,30,17,,,,,10,14,14,3,6,12,2,2,,,,,
1571859080,2019-10-23 19:31:20.663,Acquired,Acquired,Acquired,Acquired,Acquired,Acquired,Acquired,Acquired,,,,,1.89336672E2,1.07463352E2,2.90609696E2,3.14977664E2,2.59133888E2,7.1790888E1,7.0143688E1,1.16630512E2,,,,,2.2657102E1,7.6370488E1,6.5736468E1,1.9882783999999997E1,2.656392E1,5.1752475999999994E1,2.2559296E1,1.033847E1,,,,,5,13,15,20,24,28,30,17,,,,,10,14,14,3,6,12,2,2,,,,,
1571859140,2019-10-23 19:32:20.663,Acquired,Acquired,Acquired,Acquired,Acquired,Acquired,Acquired,Acquired,,,,,1.89336672E2,1.07463352E2,2.90609696E2,3.14977664E2,2.59133888E2,7.1790888E1,7.0143688E1,1.16630512E2,,,,,2.2657102E1,7.6370488E1,6.5736468E1,1.9882783999999997E1,2.656392E1,5.1752475999999994E1,2.2559296E1,1.033847E1,,,,,5,13,15,20,24,28,30,17,,,,,10,14,14,3,6,12,2,2,,,,,
1571859200,2019-10-23 19:33:20.664,Acquired,Acquired,Acquired,Acquired,Acquired,Acquired,Acquired,Acquired,,,,,1.89336672E2,1.07463352E2,2.90609696E2,3.14977664E2,2.59133888E2,7.1790888E1,7.0143688E1,1.16630512E2,,,,,2.2657102E1,7.6370488E1,6.5736468E1,1.9882783999999997E1,2.656392E1,5.1752475999999994E1,2.2559296E1,1.033847E1,,,,,5,13,15,20,24,28,30,17,,,,,10,14,14,3,6,12,2,2,,,,,
1571859260,2019-10-23 19:34:20.664,Acquired,Acquired,Acquired,Acquired,Acquired,Acquired,Acquired,Acquired,,,,,1.89336672E2,1.07463352E2,2.90609696E2,3.14977664E2,2.59133888E2,7.1790888E1,7.0143688E1,1.16630512E2,,,,,2.2657102E1,7.6370488E1,6.5736468E1,1.9882783999999997E1,2.656392E1,5.1752475999999994E1,2.2559296E1,1.033847E1,,,,,5,13,15,20,24,28,30,17,,,,,10,14,14,3,6,12,2,2,,,,,
1571859320,2019-10-23 19:35:20.664,Acquired,Acquired,Acquired,Acquired,Acquired,Acquired,Acquired,Not acquired,,,,,1.8923441599999998E2,1.08344416E2,2.90197952E2,3.1465513599999997E2,2.59400528E2,7.115404E1,7.032862399999999E1,1.1633851999999999E2,,,,,2.2217892E1,7.5923408E1,6.617070799999999E1,2.0137121999999998E1,2.6956111999999997E1,5.1552015999999995E1,2.2173892E1,1.0677812999999999E1,,,,,5,13,15,20,24,28,30,17,,,,,13,12,15,4,7,12,1,1,,,,,
1571859380,2019-10-23 19:36:20.663,Acquired,Acquired,Acquired,Acquired,Acquired,Acquired,Acquired,Acquired,Acquired,Not acquired,,,3.23768512E2,2.06290368E2,1.2885139999999998E2,2.30984544E2,1.01893264E2,1.23405096E2,2.9725676799999997E2,2.71582016E2,5.3009968E1,7.9144904E1,,,1.4527982999999999E1,1.4431597E1,5.6066536E1,7.7685088E1,2.4354812E1,1.5690341E1,2.7453204E1,4.4190872E1,3.8722544E1,6.408803E0,,,10,12,13,15,17,19,20,24,28,30,,,2,1,15,15,4,2,4,9,4,0,,,
1571859440,2019-10-23 19:37:20.664,Acquired,Acquired,Acquired,Acquired,Acquired,Acquired,Acquired,Acquired,Acquired,Not acquired,,,3.23768512E2,2.06290368E2,1.2885139999999998E2,2.30984544E2,1.01893264E2,1.23405096E2,2.9725676799999997E2,2.71582016E2,5.3009968E1,7.9144904E1,,,1.4527982999999999E1,1.4431597E1,5.6066536E1,7.7685088E1,2.4354812E1,1.5690341E1,2.7453204E1,4.4190872E1,3.8722544E1,6.408803E0,,,10,12,13,15,17,19,20,24,28,30,,,2,1,15,15,4,2,4,9,4,0,,,
1571859500,2019-10-23 19:38:20.663,Acquired,Acquired,Acquired,Acquired,Acquired,Acquired,Acquired,Acquired,Acquired,Not acquired,,,3.23768512E2,2.06290368E2,1.2885139999999998E2,2.30984544E2,1.01893264E2,1.23405096E2,2.9725676799999997E2,2.71582016E2,5.3009968E1,7.9144904E1,,,1.4527982999999999E1,1.4431597E1,5.6066536E1,7.7685088E1,2.4354812E1,1.5690341E1,2.7453204E1,4.4190872E1,3.8722544E1,6.408803E0,,,10,12,13,15,17,19,20,24,28,30,,,2,1,15,15,4,2,4,9,4,0,,,
1571859560,2019-10-23 19:39:20.663,Acquired,Acquired,Acquired,Acquired,Acquired,Acquired,Acquired,Acquired,Acquired,Not acquired,,,3.23768512E2,2.06290368E2,1.2885139999999998E2,2.30984544E2,1.01893264E2,1.23405096E2,2.9725676799999997E2,2.71582016E2,5.3009968E1,7.9144904E1,,,1.4527982999999999E1,1.4431597E1,5.6066536E1,7.7685088E1,2.4354812E1,1.5690341E1,2.7453204E1,4.4190872E1,3.8722544E1,6.408803E0,,,10,12,13,15,17,19,20,24,28,30,,,2,1,15,15,4,2,4,9,4,0,,,
1571859620,2019-10-23 19:40:20.663,Acquired,Acquired,Acquired,Acquired,Acquired,Acquired,Acquired,Acquired,Acquired,Not acquired,,,3.23768512E2,2.06290368E2,1.2885139999999998E2,2.30984544E2,1.01893264E2,1.23405096E2,2.9725676799999997E2,2.71582016E2,5.3009968E1,7.9144904E1,,,1.4527982999999999E1,1.4431597E1,5.6066536E1,7.7685088E1,2.4354812E1,1.5690341E1,2.7453204E1,4.4190872E1,3.8722544E1,6.408803E0,,,10,12,13,15,17,19,20,24,28,30,,,2,1,15,15,4,2,4,9,4,0,,,
1571859680,2019-10-23 19:41:20.663,Acquired,Acquired,Acquired,Acquired,Acquired,Acquired,Acquired,Acquired,Acquired,Not acquired,,,3.23768512E2,2.06290368E2,1.2885139999999998E2,2.30984544E2,1.01893264E2,1.23405096E2,2.9725676799999997E2,2.71582016E2,5.3009968E1,7.9144904E1,,,1.4527982999999999E1,1.4431597E1,5.6066536E1,7.7685088E1,2.4354812E1,1.5690341E1,2.7453204E1,4.4190872E1,3.8722544E1,6.408803E0,,,10,12,13,15,17,19,20,24,28,30,,,2,1,15,15,4,2,4,9,4,0,,,
1571859740,2019-10-23 19:42:20.663,Acquired,Acquired,Acquired,Acquired,Acquired,Acquired,Acquired,Acquired,Acquired,Not acquired,,,3.23768512E2,2.06290368E2,1.2885139999999998E2,2.30984544E2,1.01893264E2,1.23405096E2,2.9725676799999997E2,2.71582016E2,5.3009968E1,7.9144904E1,,,1.4527982999999999E1,1.4431597E1,5.6066536E1,7.7685088E1,2.4354812E1,1.5690341E1,2.7453204E1,4.4190872E1,3.8722544E1,6.408803E0,,,10,12,13,15,17,19,20,24,28,30,,,2,1,15,15,4,2,4,9,4,0,,,
1571859800,2019-10-23 19:43:20.663,Acquired,Acquired,Acquired,Acquired,Acquired,Acquired,Acquired,Acquired,Acquired,Not acquired,,,3.23768512E2,2.06290368E2,1.2885139999999998E2,2.30984544E2,1.01893264E2,1.23405096E2,2.9725676799999997E2,2.71582016E2,5.3009968E1,7.9144904E1,,,1.4527982999999999E1,1.4431597E1,5.6066536E1,7.7685088E1,2.4354812E1,1.5690341E1,2.7453204E1,4.4190872E1,3.8722544E1,6.408803E0,,,10,12,13,15,17,19,20,24,28,30,,,2,1,15,15,4,2,4,9,4,0,,,
1571859860,2019-10-23 19:44:20.663,Acquired,Acquired,Acquired,Acquired,Acquired,Acquired,Acquired,Acquired,Acquired,Not acquired,,,3.23768512E2,2.06290368E2,1.2885139999999998E2,2.30984544E2,1.01893264E2,1.23405096E2,2.9725676799999997E2,2.71582016E2,5.3009968E1,7.9144904E1,,,1.4527982999999999E1,1.4431597E1,5.6066536E1,7.7685088E1,2.4354812E1,1.5690341E1,2.7453204E1,4.4190872E1,3.8722544E1,6.408803E0,,,10,12,13,15,17,19,20,24,28,30,,,2,1,15,15,4,2,4,9,4,0,,,
1571859920,2019-10-23 19:45:20.663,Acquired,Acquired,Acquired,Acquired,Acquired,Acquired,Acquired,Acquired,Acquired,Not acquired,,,3.23768512E2,2.06290368E2,1.2885139999999998E2,2.30984544E2,1.01893264E2,1.23405096E2,2.9725676799999997E2,2.71582016E2,5.3009968E1,7.9144904E1,,,1.4527982999999999E1,1.4431597E1,5.6066536E1,7.7685088E1,2.4354812E1,1.5690341E1,2.7453204E1,4.4190872E1,3.8722544E1,6.408803E0,,,10,12,13,15,17,19,20,24,28,30,,,2,1,15,15,4,2,4,9,4,0,,,
1571859980,2019-10-23 19:46:20.663,Acquired,Acquired,Acquired,Acquired,Acquired,Acquired,Acquired,Acquired,Acquired,Not acquired,,,3.23768512E2,2.06290368E2,1.2885139999999998E2,2.30984544E2,1.01893264E2,1.23405096E2,2.9725676799999997E2,2.71582016E2,5.3009968E1,7.9144904E1,,,1.4527982999999999E1,1.4431597E1,5.6066536E1,7.7685088E1,2.4354812E1,1.5690341E1,2.7453204E1,4.4190872E1,3.8722544E1,6.408803E0,,,10,12,13,15,17,19,20,24,28,30,,,2,1,15,15,4,2,4,9,4,0,,,
1571860040,2019-10-23 19:47:20.663,Acquired,Acquired,Acquired,Acquired,Acquired,Acquired,Acquired,Acquired,Acquired,Not acquired,,,3.23768512E2,2.06290368E2,1.2885139999999998E2,2.30984544E2,1.01893264E2,1.23405096E2,2.9725676799999997E2,2.71582016E2,5.3009968E1,7.9144904E1,,,1.4527982999999999E1,1.4431597E1,5.6066536E1,7.7685088E1,2.4354812E1,1.5690341E1,2.7453204E1,4.4190872E1,3.8722544E1,6.408803E0,,,10,12,13,15,17,19,20,24,28,30,,,2,1,15,15,4,2,4,9,4,0,,,
1571860100,2019-10-23 19:48:20.663,Acquired,Acquired,Acquired,Acquired,Acquired,Acquired,Acquired,Acquired,Acquired,Not acquired,,,3.23768512E2,2.06290368E2,1.2885139999999998E2,2.30984544E2,1.01893264E2,1.23405096E2,2.9725676799999997E2,2.71582016E2,5.3009968E1,7.9144904E1,,,1.4527982999999999E1,1.4431597E1,5.6066536E1,7.7685088E1,2.4354812E1,1.5690341E1,2.7453204E1,4.4190872E1,3.8722544E1,6.408803E0,,,10,12,13,15,17,19,20,24,28,30,,,2,1,15,15,4,2,4,9,4,0,,,
1571860160,2019-10-23 19:49:20.663,Acquired,Acquired,Acquired,Acquired,Acquired,Acquired,Acquired,Acquired,Acquired,Not acquired,,,3.23768512E2,2.06290368E2,1.2885139999999998E2,2.30984544E2,1.01893264E2,1.23405096E2,2.9725676799999997E2,2.71582016E2,5.3009968E1,7.9144904E1,,,1.4527982999999999E1,1.4431597E1,5.6066536E1,7.7685088E1,2.4354812E1,1.5690341E1,2.7453204E1,4.4190872E1,3.8722544E1,6.408803E0,,,10,12,13,15,17,19,20,24,28,30,,,2,1,15,15,4,2,4,9,4,0,,,
1571860220,2019-10-23 19:50:20.663,Acquired,Acquired,Acquired,Acquired,Acquired,Acquired,Acquired,Acquired,Acquired,Not acquired,,,3.23768512E2,2.06290368E2,1.2885139999999998E2,2.30984544E2,1.01893264E2,1.23405096E2,2.9725676799999997E2,2.71582016E2,5.3009968E1,7.9144904E1,,,1.4527982999999999E1,1.4431597E1,5.6066536E1,7.7685088E1,2.4354812E1,1.5690341E1,2.7453204E1,4.4190872E1,3.8722544E1,6.408803E0,,,10,12,13,15,17,19,20,24,28,30,,,2,1,15,15,4,2,4,9,4,0,,,
1571860280,2019-10-23 19:51:20.663,Acquired,Acquired,Acquired,Acquired,Acquired,Acquired,Acquired,Acquired,Acquired,Not acquired,,,3.23768512E2,2.06290368E2,1.2885139999999998E2,2.30984544E2,1.01893264E2,1.23405096E2,2.9725676799999997E2,2.71582016E2,5.3009968E1,7.9144904E1,,,1.4527982999999999E1,1.4431597E1,5.6066536E1,7.7685088E1,2.4354812E1,1.5690341E1,2.7453204E1,4.4190872E1,3.8722544E1,6.408803E0,,,10,12,13,15,17,19,20,24,28,30,,,2,1,15,15,4,2,4,9,4,0,,,
1571860340,2019-10-23 19:52:20.663,Acquired,Acquired,Acquired,Acquired,Acquired,Acquired,Acquired,Acquired,Acquired,Not acquired,,,3.23768512E2,2.06290368E2,1.2885139999999998E2,2.30984544E2,1.01893264E2,1.23405096E2,2.9725676799999997E2,2.71582016E2,5.3009968E1,7.9144904E1,,,1.4527982999999999E1,1.4431597E1,5.6066536E1,7.7685088E1,2.4354812E1,1.5690341E1,2.7453204E1,4.4190872E1,3.8722544E1,6.408803E0,,,10,12,13,15,17,19,20,24,28,30,,,2,1,15,15,4,2,4,9,4,0,,,
1571860400,2019-10-23 19:53:20.663,Acquired,Acquired,Acquired,Acquired,Acquired,Acquired,Acquired,Acquired,Acquired,Not acquired,,,3.23768512E2,2.06290368E2,1.2885139999999998E2,2.30984544E2,1.01893264E2,1.23405096E2,2.9725676799999997E2,2.71582016E2,5.3009968E1,7.9144904E1,,,1.4527982999999999E1,1.4431597E1,5.6066536E1,7.7685088E1,2.4354812E1,1.5690341E1,2.7453204E1,4.4190872E1,3.8722544E1,6.408803E0,,,10,12,13,15,17,19,20,24,28,30,,,2,1,15,15,4,2,4,9,4,0,,,
1571860460,2019-10-23 19:54:20.664,Acquired,Acquired,Acquired,Acquired,Acquired,Acquired,Acquired,Acquired,Acquired,Not acquired,,,3.23768512E2,2.06290368E2,1.2885139999999998E2,2.30984544E2,1.01893264E2,1.23405096E2,2.9725676799999997E2,2.71582016E2,5.3009968E1,7.9144904E1,,,1.4527982999999999E1,1.4431597E1,5.6066536E1,7.7685088E1,2.4354812E1,1.5690341E1,2.7453204E1,4.4190872E1,3.8722544E1,6.408803E0,,,10,12,13,15,17,19,20,24,28,30,,,2,1,15,15,4,2,4,9,4,0,,,
1571860520,2019-10-23 19:55:20.663,Acquired,Acquired,Acquired,Acquired,Acquired,Acquired,Acquired,Acquired,Acquired,Not acquired,,,3.23768512E2,2.06290368E2,1.2885139999999998E2,2.30984544E2,1.01893264E2,1.23405096E2,2.9725676799999997E2,2.71582016E2,5.3009968E1,7.9144904E1,,,1.4527982999999999E1,1.4431597E1,5.6066536E1,7.7685088E1,2.4354812E1,1.5690341E1,2.7453204E1,4.4190872E1,3.8722544E1,6.408803E0,,,10,12,13,15,17,19,20,24,28,30,,,2,1,15,15,4,2,4,9,4,0,,,
1571860580,2019-10-23 19:56:20.663,Acquired,Acquired,Acquired,Acquired,Acquired,Acquired,Acquired,Acquired,Acquired,Not acquired,,,3.23768512E2,2.06290368E2,1.2885139999999998E2,2.30984544E2,1.01893264E2,1.23405096E2,2.9725676799999997E2,2.71582016E2,5.3009968E1,7.9144904E1,,,1.4527982999999999E1,1.4431597E1,5.6066536E1,7.7685088E1,2.4354812E1,1.5690341E1,2.7453204E1,4.4190872E1,3.8722544E1,6.408803E0,,,10,12,13,15,17,19,20,24,28,30,,,2,1,15,15,4,2,4,9,4,0,,,
1571860640,2019-10-23 19:57:20.663,Acquired,Acquired,Acquired,Acquired,Acquired,Acquired,Acquired,Acquired,Acquired,Not acquired,,,3.23768512E2,2.06290368E2,1.2885139999999998E2,2.30984544E2,1.01893264E2,1.23405096E2,2.9725676799999997E2,2.71582016E2,5.3009968E1,7.9144904E1,,,1.4527982999999999E1,1.4431597E1,5.6066536E1,7.7685088E1,2.4354812E1,1.5690341E1,2.7453204E1,4.4190872E1,3.8722544E1,6.408803E0,,,10,12,13,15,17,19,20,24,28,30,,,2,1,15,15,4,2,4,9,4,0,,,
1571860700,2019-10-23 19:58:20.665,Acquired,Acquired,Acquired,Acquired,Acquired,Acquired,Acquired,Acquired,Acquired,Not acquired,,,3.23768512E2,2.06290368E2,1.2885139999999998E2,2.30984544E2,1.01893264E2,1.23405096E2,2.9725676799999997E2,2.71582016E2,5.3009968E1,7.9144904E1,,,1.4527982999999999E1,1.4431597E1,5.6066536E1,7.7685088E1,2.4354812E1,1.5690341E1,2.7453204E1,4.4190872E1,3.8722544E1,6.408803E0,,,10,12,13,15,17,19,20,24,28,30,,,2,1,15,15,4,2,4,9,4,0,,,
1571860760,2019-10-23 19:59:20.663,Acquired,Acquired,Acquired,Acquired,Acquired,Acquired,Acquired,Acquired,Acquired,Not acquired,,,3.23768512E2,2.06290368E2,1.2885139999999998E2,2.30984544E2,1.01893264E2,1.23405096E2,2.9725676799999997E2,2.71582016E2,5.3009968E1,7.9144904E1,,,1.4527982999999999E1,1.4431597E1,5.6066536E1,7.7685088E1,2.4354812E1,1.5690341E1,2.7453204E1,4.4190872E1,3.8722544E1,6.408803E0,,,10,12,13,15,17,19,20,24,28,30,,,2,1,15,15,4,2,4,9,4,0,,,
