Time(longsecs),Time(UTC),Supply Voltage(mV),Temperature(&deg;C),NMX Bus Current(mA),Sensor Current(mA),Serial Port Current(mA),Controller Current(mA),Digitizer Current(mA),
1572091218,2019-10-26 12:00:18.806,16674,3.2527344E1,0,9,0,57,36,
1572091278,2019-10-26 12:01:18.806,16674,3.2752014E1,0,7,0,59,41,
1572091338,2019-10-26 12:02:18.812,16687,3.258026E1,0,9,0,54,39,
1572091398,2019-10-26 12:03:18.806,16674,3.2705566E1,0,7,0,56,38,
1572091458,2019-10-26 12:04:18.806,16687,3.27034E1,0,7,0,56,35,
1572091518,2019-10-26 12:05:18.806,16674,3.2835205E1,0,4,0,57,38,
1572091578,2019-10-26 12:06:18.806,16674,3.2829803E1,0,9,0,57,36,
1572091638,2019-10-26 12:07:18.809,16659,3.297995E1,0,4,0,57,35,
1572091698,2019-10-26 12:08:18.822,16646,3.2958344E1,0,8,1,58,35,
1572091758,2019-10-26 12:09:18.806,16687,3.3156036E1,0,4,0,58,37,
1572091818,2019-10-26 12:10:18.806,16674,3.312146E1,0,9,0,57,36,
1572091878,2019-10-26 12:11:18.807,16674,3.3052307E1,0,10,0,56,38,
1572091938,2019-10-26 12:12:18.806,16687,3.3324524E1,0,10,0,57,37,
1572091998,2019-10-26 12:13:18.806,16687,3.3375305E1,0,9,0,57,36,
1572092058,2019-10-26 12:14:18.806,16674,3.3395844E1,0,9,0,57,37,
1572092118,2019-10-26 12:15:18.807,16674,3.328888E1,0,7,0,59,40,
1572092178,2019-10-26 12:16:18.806,16674,3.362268E1,0,9,0,62,39,
1572092238,2019-10-26 12:17:18.818,16687,3.352762E1,0,11,0,59,39,
1572092298,2019-10-26 12:18:18.806,16701,3.3511414E1,0,6,0,57,34,
1572092358,2019-10-26 12:19:18.807,16687,3.351248E1,0,9,0,56,38,
1572092418,2019-10-26 12:20:18.807,16646,3.3871124E1,0,13,0,66,38,
1572092478,2019-10-26 12:21:18.807,16674,3.383548E1,0,4,0,66,36,
1572092538,2019-10-26 12:22:18.807,16674,3.3576233E1,0,10,0,66,35,
1572092598,2019-10-26 12:23:18.807,16674,3.3776062E1,0,10,0,56,38,
1572092658,2019-10-26 12:24:18.806,16674,3.382901E1,0,6,0,57,41,
1572092718,2019-10-26 12:25:18.806,16687,3.410553E1,0,9,0,58,35,
1572092778,2019-10-26 12:26:18.806,16674,3.406018E1,0,9,0,57,37,
1572092838,2019-10-26 12:27:18.806,16687,3.4037476E1,0,9,0,58,34,
1572092898,2019-10-26 12:28:18.806,16796,3.3920807E1,0,8,0,57,35,
1572092958,2019-10-26 12:29:18.806,16674,3.425461E1,0,8,0,58,35,
1572093018,2019-10-26 12:30:18.809,16687,3.4089325E1,0,7,0,58,37,
1572093078,2019-10-26 12:31:18.806,16674,3.4352905E1,0,7,0,57,36,
1572093138,2019-10-26 12:32:18.806,16687,3.4059082E1,0,8,0,58,38,
1572093198,2019-10-26 12:33:18.806,16427,3.439395E1,0,8,0,57,38,
1572093258,2019-10-26 12:34:18.806,16659,3.450305E1,0,7,0,57,37,
1572093318,2019-10-26 12:35:18.809,16674,3.4437164E1,0,10,0,61,36,
1572093378,2019-10-26 12:36:18.806,16674,3.451169E1,0,8,0,57,37,
1572093438,2019-10-26 12:37:18.806,16687,3.478717E1,0,9,0,57,35,
1572093498,2019-10-26 12:38:18.806,16687,3.4527893E1,0,4,0,58,38,
1572093558,2019-10-26 12:39:18.806,16687,3.460785E1,0,10,0,59,36,
1572093618,2019-10-26 12:40:18.807,16674,3.4540863E1,0,8,0,56,36,
1572093678,2019-10-26 12:41:18.806,16632,3.4783905E1,0,10,0,57,37,
1572093738,2019-10-26 12:42:18.806,16687,3.4822815E1,0,11,0,57,39,
1572093798,2019-10-26 12:43:18.806,16714,3.4778534E1,0,9,0,58,37,
1572093858,2019-10-26 12:44:18.806,16659,3.497513E1,0,10,0,49,36,
1572093918,2019-10-26 12:45:18.806,16674,3.5049652E1,0,11,0,57,39,
1572093978,2019-10-26 12:46:18.807,16674,3.516739E1,0,11,0,55,38,
1572094038,2019-10-26 12:47:18.807,16674,3.5316467E1,0,11,0,66,37,
1572094098,2019-10-26 12:48:18.807,16687,3.5201965E1,0,4,0,57,38,
1572094158,2019-10-26 12:49:18.806,16687,3.5254883E1,0,5,0,48,39,
1572094218,2019-10-26 12:50:18.806,16674,3.5298096E1,0,4,0,57,36,
1572094278,2019-10-26 12:51:18.806,16674,3.5043182E1,0,8,0,57,39,
1572094338,2019-10-26 12:52:18.806,16674,3.54234E1,0,11,0,57,36,
1572094398,2019-10-26 12:53:18.806,16687,3.546338E1,0,6,0,57,36,
1572094458,2019-10-26 12:54:18.806,16674,3.5401794E1,0,11,0,49,37,
1572094518,2019-10-26 12:55:18.806,16687,3.5756134E1,0,9,0,61,34,
1572094578,2019-10-26 12:56:18.809,16674,3.5697784E1,0,9,0,58,35,
1572094638,2019-10-26 12:57:18.806,16674,3.5600555E1,0,9,0,57,36,
1572094698,2019-10-26 12:58:18.806,16674,3.559192E1,0,7,0,49,35,
1572094758,2019-10-26 12:59:18.806,16674,3.5872772E1,0,8,0,49,39,
