Time(longsecs),Time(UTC),External SOH Voltage 1(V),External SOH Voltage 2(V),External SOH Voltage 3(V),External SOH Voltage 4(V),Sensor SOH Voltage 1(V),Sensor SOH Voltage 2(V),Sensor SOH Voltage 3(V),
1572102018,2019-10-26 15:00:18.806,-9.935141E-3,6.8616867E-4,-3.6005974E-3,-2.89011E-3,2.3077488E-1,2.3364162E-1,2.332201E-1,
1572102078,2019-10-26 15:01:18.806,-9.499311E-3,1.3666153E-3,-2.8355122E-3,-2.0883083E-3,2.3012543E-1,2.3308468E-1,2.3104477E-1,
1572102138,2019-10-26 15:02:18.809,-7.938385E-3,3.2265186E-3,-1.5444756E-3,-2.7036667E-4,2.3704815E-1,2.4073982E-1,2.3897457E-1,
1572102198,2019-10-26 15:03:18.806,-1.1839628E-2,-9.868145E-4,-5.2108765E-3,-4.856348E-3,2.2358799E-1,2.2533226E-1,2.2395515E-1,
1572102258,2019-10-26 15:04:18.806,-7.476568E-3,3.1936169E-3,-1.5120506E-3,-7.762909E-4,2.3467731E-1,2.3760319E-1,2.3665333E-1,
1572102318,2019-10-26 15:05:18.809,-7.658243E-3,3.2167435E-3,-1.162529E-3,-6.4229965E-4,2.3382568E-1,2.3690414E-1,2.3499489E-1,
1572102378,2019-10-26 15:06:18.806,-9.996653E-3,7.035732E-4,-3.718853E-3,-2.8586388E-3,2.2914314E-1,2.3163223E-1,2.2844124E-1,
1572102438,2019-10-26 15:07:18.807,-1.1857986E-2,-8.1038475E-4,-5.6197643E-3,-4.9791336E-3,2.2069931E-1,2.2458458E-1,2.2187233E-1,
1572102498,2019-10-26 15:08:18.806,-7.7164173E-3,3.0493736E-3,-1.260519E-3,-7.1644783E-4,2.3333073E-1,2.3582268E-1,2.3378944E-1,
1572102558,2019-10-26 15:09:18.809,-7.917166E-3,3.2784939E-3,-1.1672974E-3,-4.901886E-4,2.3780537E-1,2.402525E-1,2.3848534E-1,
1572102618,2019-10-26 15:10:18.845,-7.6482296E-3,3.1814575E-3,-1.3105869E-3,-3.13282E-4,2.4026299E-1,2.3822784E-1,2.3730755E-1,
1572102678,2019-10-26 15:11:18.806,-7.858515E-3,3.0477047E-3,-1.0752678E-3,-3.8552284E-4,2.3303032E-1,2.366476E-1,2.355442E-1,
1572102738,2019-10-26 15:12:18.814,-1.17042065E-2,-1.2867451E-3,-5.02038E-3,-4.340172E-3,2.245884E-1,2.257843E-1,2.2590065E-1,
1572102798,2019-10-26 15:13:18.806,-1.1811256E-2,-6.299019E-4,-5.333662E-3,-4.8496723E-3,2.2314548E-1,2.2584438E-1,2.2636604E-1,
1572102858,2019-10-26 15:14:18.807,-9.885073E-3,6.8950653E-4,-3.3769608E-3,-2.8464794E-3,2.2904396E-1,2.3058128E-1,2.3097515E-1,
1572102918,2019-10-26 15:15:18.807,-1.0162592E-2,9.2339516E-4,-3.6270618E-3,-3.1073093E-3,2.3109627E-1,2.3342323E-1,2.3390198E-1,
1572102978,2019-10-26 15:16:18.817,-1.1676788E-2,-1.2300014E-3,-5.2034855E-3,-4.624605E-3,2.2314358E-1,2.258358E-1,2.2488785E-1,
1572103038,2019-10-26 15:17:18.807,-9.950399E-3,6.4992905E-4,-3.319025E-3,-3.0343533E-3,2.2890949E-1,2.3320007E-1,2.3072243E-1,
1572103098,2019-10-26 15:18:18.806,-8.017302E-3,3.2815933E-3,-1.3051033E-3,-3.4427643E-4,2.37154E-1,2.3986149E-1,2.3718166E-1,
1572103158,2019-10-26 15:19:18.806,-7.7750683E-3,3.084898E-3,-1.1491776E-3,-8.919239E-4,2.3515415E-1,2.3758316E-1,2.3520374E-1,
1572103218,2019-10-26 15:20:18.806,-9.96685E-3,9.2339516E-4,-3.6101341E-3,-3.0605793E-3,2.2724533E-1,2.2930717E-1,2.2830677E-1,
1572103278,2019-10-26 15:21:18.809,-1.0263681E-2,7.4982643E-4,-3.6218166E-3,-3.225565E-3,2.307167E-1,2.315855E-1,2.3009491E-1,
1572103338,2019-10-26 15:22:18.809,-8.174181E-3,2.6187897E-3,-1.4526844E-3,-7.6651573E-4,2.3728848E-1,2.4118996E-1,2.3936272E-1,
1572103398,2019-10-26 15:23:18.821,-9.45878E-3,1.5375614E-3,-3.0112267E-3,-2.4518967E-3,2.3025513E-1,2.3536015E-1,2.3123932E-1,
1572103458,2019-10-26 15:24:18.806,-9.267807E-3,1.427412E-3,-3.0574799E-3,-2.385378E-3,2.2998524E-1,2.3241043E-1,2.3155212E-1,
1572103518,2019-10-26 15:25:18.806,-7.370472E-3,2.8800964E-3,-8.292198E-4,-7.3456764E-4,2.3553944E-1,2.3709679E-1,2.3676586E-1,
1572103578,2019-10-26 15:26:18.806,-9.404421E-3,1.8670559E-3,-2.739668E-3,-2.5782585E-3,2.2975731E-1,2.3337936E-1,2.3199368E-1,
1572103638,2019-10-26 15:27:18.806,-1.1954069E-2,-1.0547638E-3,-5.5406094E-3,-4.6355724E-3,2.1856308E-1,2.2153759E-1,2.2099495E-1,
1572103698,2019-10-26 15:28:18.806,-9.164333E-3,1.6963482E-3,-2.3868084E-3,-2.349615E-3,2.2605419E-1,2.2811413E-1,2.2675514E-1,
1572103758,2019-10-26 15:29:18.806,-9.590387E-3,1.3973713E-3,-3.0515194E-3,-2.5129318E-3,2.281723E-1,2.3095322E-1,2.2982788E-1,
1572103818,2019-10-26 15:30:18.806,-1.1869669E-2,-1.1096001E-3,-5.2702427E-3,-5.5043697E-3,2.2330284E-1,2.2698975E-1,2.2504711E-1,
1572103878,2019-10-26 15:31:18.806,-9.215832E-3,1.4190674E-3,-3.364563E-3,-2.1288395E-3,2.2692585E-1,2.3065567E-1,2.2856712E-1,
1572103938,2019-10-26 15:32:18.806,-7.409334E-3,3.269434E-3,-2.1398067E-3,-8.3351135E-4,2.3566246E-1,2.3816395E-1,2.3641968E-1,
1572103998,2019-10-26 15:33:18.806,-7.8041553E-3,3.4353733E-3,-1.4808178E-3,-7.443428E-4,2.3523617E-1,2.3807526E-1,2.3611736E-1,
1572104058,2019-10-26 15:34:18.809,-7.5416565E-3,3.1352043E-3,-1.0147095E-3,-5.1116943E-4,2.325983E-1,2.3588276E-1,2.3430443E-1,
1572104118,2019-10-26 15:35:18.806,-9.400845E-3,1.3871193E-3,-2.1965504E-3,-2.854824E-3,2.3027706E-1,2.3255634E-1,2.320919E-1,
1572104178,2019-10-26 15:36:18.806,-7.817984E-3,3.4546852E-3,-1.3306141E-3,-6.0272217E-4,2.334528E-1,2.3550415E-1,2.3493385E-1,
1572104238,2019-10-26 15:37:18.806,-9.365797E-3,1.5974045E-3,-2.8858185E-3,-2.5074482E-3,2.2938633E-1,2.3176289E-1,2.3180294E-1,
1572104298,2019-10-26 15:38:18.806,-1.0155678E-2,5.083084E-4,-3.7829876E-3,-3.1588078E-3,2.287798E-1,2.3125076E-1,2.2964382E-1,
1572104358,2019-10-26 15:39:18.807,-9.851694E-3,1.3461113E-3,-3.8306713E-3,-2.6903152E-3,2.2720337E-1,2.3080444E-1,2.2981453E-1,
1572104418,2019-10-26 15:40:18.811,-1.175189E-2,-9.050369E-4,-5.3551197E-3,-4.46558E-3,2.2243881E-1,2.2589207E-1,2.2409725E-1,
1572104478,2019-10-26 15:41:18.807,-9.415388E-3,1.4505386E-3,-1.7514229E-3,-2.0956993E-3,2.2846603E-1,2.3089027E-1,2.2928047E-1,
1572104538,2019-10-26 15:42:18.806,-7.684469E-3,2.6550293E-3,-1.4097691E-3,-8.7451935E-4,2.3700047E-1,2.3945332E-1,2.3860073E-1,
1572104598,2019-10-26 15:43:18.806,-7.7626705E-3,3.2303333E-3,-1.4379025E-3,-6.496906E-4,2.3562145E-1,2.3863792E-1,2.3830128E-1,
1572104658,2019-10-26 15:44:18.806,-1.1995554E-2,-1.4247894E-3,-4.907608E-3,-4.7392845E-3,2.212553E-1,2.237091E-1,2.2146988E-1,
1572104718,2019-10-26 15:45:18.806,-9.3922615E-3,1.4190674E-3,-3.083706E-3,-2.4015903E-3,2.2715664E-1,2.3057652E-1,2.2876453E-1,
1572104778,2019-10-26 15:46:18.806,-9.823322E-3,1.3103485E-3,-2.9964447E-3,-2.4752617E-3,2.2793198E-1,2.3070526E-1,2.2938824E-1,
1572104838,2019-10-26 15:47:18.806,-9.591103E-3,1.6806126E-3,-2.995491E-3,-2.465248E-3,2.2568417E-1,2.2925091E-1,2.2807598E-1,
1572104898,2019-10-26 15:48:18.806,-1.2004375E-2,-1.1680126E-3,-5.3794384E-3,-4.836321E-3,2.2292805E-1,2.259512E-1,2.2460938E-1,
1572104958,2019-10-26 15:49:18.806,-9.696484E-3,1.636982E-3,-2.8710365E-3,-2.3167133E-3,2.2640133E-1,2.2857285E-1,2.2680378E-1,
1572105018,2019-10-26 15:50:18.806,-1.0205984E-2,7.312298E-4,-3.3769608E-3,-3.2715797E-3,2.2687054E-1,2.2976589E-1,2.2930527E-1,
1572105078,2019-10-26 15:51:18.809,-1.0228157E-2,9.5009804E-4,-3.2279491E-3,-3.2229424E-3,2.2621536E-1,2.3073769E-1,2.2954082E-1,
1572105138,2019-10-26 15:52:18.807,-1.1878014E-2,-8.5806847E-4,-5.3150654E-3,-4.695654E-3,2.2114277E-1,2.244463E-1,2.2280979E-1,
1572105198,2019-10-26 15:53:18.806,-1.2265444E-2,-1.2590885E-3,-5.494356E-3,-5.0213337E-3,2.1810341E-1,2.2239017E-1,2.2120667E-1,
1572105258,2019-10-26 15:54:18.809,-7.6060295E-3,3.394127E-3,-8.723736E-4,-3.4451485E-4,2.323761E-1,2.3517323E-1,2.3526192E-1,
1572105318,2019-10-26 15:55:18.807,-1.1668444E-2,-6.992817E-4,-5.4912567E-3,-4.784584E-3,2.1909428E-1,2.2104073E-1,2.2107029E-1,
1572105378,2019-10-26 15:56:18.809,-1.0075808E-2,7.8988075E-4,-3.3414364E-3,-2.8710365E-3,2.2703075E-1,2.290163E-1,2.2911072E-1,
1572105438,2019-10-26 15:57:18.806,-9.614944E-3,1.5602112E-3,-3.0522346E-3,-2.1965504E-3,2.2832012E-1,2.3108482E-1,2.2916126E-1,
1572105498,2019-10-26 15:58:18.806,-1.1867523E-2,-1.2829304E-3,-5.317211E-3,-4.7285557E-3,2.2137451E-1,2.2375584E-1,2.224474E-1,
1572105558,2019-10-26 15:59:18.806,-9.353399E-3,1.3389587E-3,-2.8059483E-3,-2.5806427E-3,2.2912693E-1,2.3264694E-1,2.3219395E-1,
