Time(longsecs),Time(UTC),External SOH Voltage 1(V),External SOH Voltage 2(V),External SOH Voltage 3(V),External SOH Voltage 4(V),Sensor SOH Voltage 1(V),Sensor SOH Voltage 2(V),Sensor SOH Voltage 3(V),
1572094818,2019-10-26 13:00:18.806,-7.83205E-3,3.0360222E-3,-1.6515255E-3,-2.6369095E-4,2.4310207E-1,2.4592972E-1,2.443924E-1,
1572094878,2019-10-26 13:01:18.840,-7.294655E-3,3.479004E-3,-8.8214874E-4,-5.8174133E-5,2.4180031E-1,2.455883E-1,2.433157E-1,
1572094938,2019-10-26 13:02:18.806,-9.580851E-3,7.843971E-4,-3.2830238E-3,-2.4914742E-3,2.3731613E-1,2.4014187E-1,2.3833942E-1,
1572094998,2019-10-26 13:03:18.809,-7.437229E-3,3.0055046E-3,-9.36985E-4,-6.3061714E-4,2.4278545E-1,2.3991013E-1,2.4263096E-1,
1572095058,2019-10-26 13:04:18.809,-1.1755943E-2,-4.5347214E-4,-5.217552E-3,-4.588127E-3,2.3032093E-1,2.3226738E-1,2.3151779E-1,
1572095118,2019-10-26 13:05:18.839,-1.0220528E-2,6.136894E-4,-3.6025047E-3,-2.74086E-3,2.3514366E-1,2.3787212E-1,2.3573494E-1,
1572095178,2019-10-26 13:06:18.806,-9.7129345E-3,6.325245E-4,-3.349781E-3,-3.144741E-3,2.3520088E-1,2.37154E-1,2.3518181E-1,
1572095238,2019-10-26 13:07:18.806,-9.336948E-3,1.5254021E-3,-3.2668114E-3,-2.1238327E-3,2.3159122E-1,2.3527241E-1,2.3296928E-1,
1572095298,2019-10-26 13:08:18.806,-7.6613426E-3,3.392458E-3,-1.4593601E-3,-7.5387955E-4,2.3757935E-1,2.3941517E-1,2.3918247E-1,
1572095358,2019-10-26 13:09:18.806,-9.771585E-3,1.1453629E-3,-3.2279491E-3,-2.9172897E-3,2.3092365E-1,2.3387146E-1,2.3207283E-1,
1572095418,2019-10-26 13:10:18.806,-7.933617E-3,3.103733E-3,-1.2252331E-3,-6.1678886E-4,2.3712921E-1,2.3950386E-1,2.3990154E-1,
1572095478,2019-10-26 13:11:18.806,-1.1562347E-2,-7.762909E-4,-5.602598E-3,-4.3940544E-3,2.2590065E-1,2.2798538E-1,2.2749043E-1,
1572095538,2019-10-26 13:12:18.839,-9.242773E-3,1.3039112E-3,-2.967596E-3,-2.5408268E-3,2.3252964E-1,2.3336506E-1,2.3344517E-1,
1572095598,2019-10-26 13:13:18.806,-7.9369545E-3,3.2372475E-3,-1.2555122E-3,-8.070469E-4,2.4093723E-1,2.441864E-1,2.4194336E-1,
1572095658,2019-10-26 13:14:18.807,-1.204133E-2,-1.1353493E-3,-5.367279E-3,-5.1038265E-3,2.2941494E-1,2.3157883E-1,2.3043728E-1,
1572095718,2019-10-26 13:15:18.807,-7.7884197E-3,3.186226E-3,-1.0957718E-3,-1.9836426E-4,2.4150276E-1,2.4336147E-1,2.4193764E-1,
1572095778,2019-10-26 13:16:18.806,-1.0160685E-2,7.286072E-4,-3.3483505E-3,-2.9449463E-3,2.3054314E-1,2.3325062E-1,2.3272228E-1,
1572095838,2019-10-26 13:17:18.806,-7.626295E-3,3.2174587E-3,-1.2352467E-3,-7.932186E-4,2.3736382E-1,2.3984718E-1,2.3876572E-1,
1572095898,2019-10-26 13:18:18.809,-9.700537E-3,8.547306E-4,-3.7038326E-3,-2.8848648E-3,2.3471451E-1,2.3389912E-1,2.3637104E-1,
1572095958,2019-10-26 13:19:18.806,-1.0141373E-2,7.8845024E-4,-3.5321712E-3,-2.9625893E-3,2.3486233E-1,2.3807812E-1,2.3599243E-1,
1572096018,2019-10-26 13:20:18.806,-9.6001625E-3,7.9345703E-4,-3.6344528E-3,-2.54035E-3,2.3197651E-1,2.3285198E-1,2.3252678E-1,
1572096078,2019-10-26 13:21:18.831,-1.0206938E-2,7.3218346E-4,-3.6923885E-3,-3.1034946E-3,2.3495483E-1,2.332449E-1,2.3577881E-1,
1572096138,2019-10-26 13:22:18.806,-7.5330734E-3,2.9501915E-3,-8.838177E-4,-6.175041E-4,2.3670769E-1,2.3979759E-1,2.3939896E-1,
1572096198,2019-10-26 13:23:18.806,-7.5485706E-3,3.0527115E-3,-1.3456345E-3,-8.468628E-4,2.4074173E-1,2.4165154E-1,2.4189758E-1,
1572096258,2019-10-26 13:24:18.806,-9.346724E-3,1.4231205E-3,-3.2024384E-3,-2.430439E-3,2.3784733E-1,2.3790741E-1,2.4036598E-1,
1572096318,2019-10-26 13:25:18.806,-7.828236E-3,3.1609535E-3,-7.994175E-4,-4.4679642E-4,2.430582E-1,2.476263E-1,2.4477005E-1,
1572096378,2019-10-26 13:26:18.806,-7.6270103E-3,3.1342506E-3,-1.1737347E-3,-3.6358833E-4,2.417345E-1,2.4391079E-1,2.4234009E-1,
1572096438,2019-10-26 13:27:18.822,-1.1700869E-2,-7.3456764E-4,-5.2239895E-3,-5.371809E-3,2.2931385E-1,2.3265553E-1,2.2991085E-1,
1572096498,2019-10-26 13:28:18.806,-9.177923E-3,1.6903877E-3,-2.6919842E-3,-2.0034313E-3,2.3532772E-1,2.3884964E-1,2.3766804E-1,
1572096558,2019-10-26 13:29:18.806,-1.0093927E-2,8.1419945E-4,-3.6821365E-3,-3.1380653E-3,2.3412514E-1,2.3831463E-1,2.360487E-1,
1572096618,2019-10-26 13:30:18.806,-7.4670315E-3,2.9261112E-3,-1.4004707E-3,-6.098747E-4,2.4214268E-1,2.4476337E-1,2.4282646E-1,
1572096678,2019-10-26 13:31:18.807,-9.879351E-3,8.380413E-4,-3.7827492E-3,-3.0360222E-3,2.3016453E-1,2.3233128E-1,2.3266983E-1,
1572096738,2019-10-26 13:32:18.809,-7.7705383E-3,3.0548573E-3,-1.4221668E-3,-4.9710274E-4,2.360487E-1,2.3765087E-1,2.361002E-1,
1572096798,2019-10-26 13:33:18.806,-9.336948E-3,1.5799999E-3,-2.6946068E-3,-2.3002625E-3,2.3122025E-1,2.3497581E-1,2.3260307E-1,
1572096858,2019-10-26 13:34:18.809,-1.0188818E-2,6.51598E-4,-3.5376549E-3,-2.781868E-3,2.3055744E-1,2.3337364E-1,2.321024E-1,
1572096918,2019-10-26 13:35:18.807,-1.0016203E-2,9.799004E-4,-3.7391186E-3,-2.7878284E-3,2.3161697E-1,2.3344612E-1,2.3153114E-1,
1572096978,2019-10-26 13:36:18.806,-9.080648E-3,1.6467571E-3,-2.7356148E-3,-1.9638538E-3,2.3943424E-1,2.4181461E-1,2.4101448E-1,
1572097038,2019-10-26 13:37:18.806,-1.1735916E-2,-1.2161732E-3,-5.8517456E-3,-5.2826405E-3,2.242918E-1,2.283268E-1,2.2641659E-1,
1572097098,2019-10-26 13:38:18.806,-1.1594534E-2,-1.2741089E-3,-5.452156E-3,-5.097389E-3,2.2926998E-1,2.3186398E-1,2.2924519E-1,
1572097158,2019-10-26 13:39:18.806,-7.485628E-3,3.7059784E-3,-7.932186E-4,-4.4107437E-5,2.3594856E-1,2.3670197E-1,2.3818016E-1,
1572097218,2019-10-26 13:40:18.806,-1.1884928E-2,-8.75473E-4,-5.161524E-3,-4.6002865E-3,2.2059822E-1,2.2468281E-1,2.2271729E-1,
1572097278,2019-10-26 13:41:18.806,-7.941723E-3,3.011465E-3,-1.6694069E-3,-7.994175E-4,2.3722553E-1,2.3953438E-1,2.3872757E-1,
1572097338,2019-10-26 13:42:18.853,-9.257793E-3,1.4586449E-3,-2.7165413E-3,-2.1586418E-3,2.3644924E-1,2.386446E-1,2.3597622E-1,
1572097398,2019-10-26 13:43:18.807,-9.453058E-3,1.3566017E-3,-3.1678677E-3,-2.0143986E-3,2.355299E-1,2.38657E-1,2.3929977E-1,
1572097458,2019-10-26 13:44:18.806,-7.8110695E-3,2.9146671E-3,-1.3973713E-3,-4.8208237E-4,2.377863E-1,2.3945045E-1,2.4028683E-1,
1572097518,2019-10-26 13:45:18.806,-9.079933E-3,1.734972E-3,-3.1380653E-3,-2.525568E-3,2.320919E-1,2.3490715E-1,2.3206997E-1,
1572097578,2019-10-26 13:46:18.807,-7.374525E-3,3.2522678E-3,-1.3048649E-3,-6.1249733E-4,2.4091816E-1,2.4438953E-1,2.4225807E-1,
1572097638,2019-10-26 13:47:18.806,-1.1820078E-2,-8.878708E-4,-5.4187775E-3,-4.852295E-3,2.2974491E-1,2.3251343E-1,2.3052979E-1,
1572097698,2019-10-26 13:48:18.807,-1.189065E-2,-1.2300014E-3,-5.11384E-3,-4.2865276E-3,2.231245E-1,2.2542381E-1,2.2346401E-1,
1572097758,2019-10-26 13:49:18.819,-1.2134552E-2,-7.123947E-4,-5.387306E-3,-4.690647E-3,2.2907734E-1,2.3169613E-1,2.303896E-1,
1572097818,2019-10-26 13:50:18.806,-1.2045622E-2,-8.394718E-4,-5.012512E-3,-5.121708E-3,2.247448E-1,2.2771835E-1,2.2637844E-1,
1572097878,2019-10-26 13:51:18.806,-9.913206E-3,9.484291E-4,-3.693819E-3,-2.8541088E-3,2.3089504E-1,2.3379421E-1,2.3264027E-1,
1572097938,2019-10-26 13:52:18.806,-9.50098E-3,1.3599396E-3,-3.189087E-3,-2.3095608E-3,2.3684597E-1,2.3878193E-1,2.3657894E-1,
1572097998,2019-10-26 13:53:18.806,-7.6179504E-3,3.3156872E-3,-1.2383461E-3,-6.058216E-4,2.3795223E-1,2.3944664E-1,2.396431E-1,
1572098058,2019-10-26 13:54:18.806,-1.1881113E-2,-5.9866905E-4,-5.306244E-3,-4.92692E-3,2.2535801E-1,2.2783089E-1,2.2697067E-1,
1572098118,2019-10-26 13:55:18.806,-9.955645E-3,8.0394745E-4,-3.5734177E-3,-3.0548573E-3,2.2968483E-1,2.3377895E-1,2.318964E-1,
1572098178,2019-10-26 13:56:18.806,-1.1784077E-2,-1.1358261E-3,-5.3904057E-3,-4.5645237E-3,2.2514343E-1,2.2829819E-1,2.2569656E-1,
1572098238,2019-10-26 13:57:18.806,-7.6053143E-3,3.5300255E-3,-1.16992E-3,-3.9458275E-4,2.3700047E-1,2.4000931E-1,2.3733616E-1,
1572098298,2019-10-26 13:58:18.809,-9.771347E-3,1.2366772E-3,-3.321886E-3,-3.2014847E-3,2.2915936E-1,2.314825E-1,2.3059273E-1,
1572098358,2019-10-26 13:59:18.806,-9.898424E-3,5.159378E-4,-3.5142899E-3,-3.2951832E-3,2.3106003E-1,2.3320866E-1,2.333498E-1,
