Time(longsecs),Time(UTC),Earth Location,GPS Receiver Status,GPS Satellites Used,GPS PDOP,GPS TDOP,Timing Status,Timing Phase Lock,Timing Uncertainty(ns),DAC Count,Timing Error(ns),GPS Last Update Time,
1572076818,2019-10-26 08:00:18.806,47.636338N 0.583833E 197m,Off,5,3.924871,2.5919938,Time OK,Free running,48200,9122,0,2019-10-26 07:11:25.000000000,
1572076878,2019-10-26 08:01:18.806,47.636338N 0.583833E 197m,Off,5,3.924871,2.5919938,Time OK,Free running,49000,9122,0,2019-10-26 07:11:25.000000000,
1572076938,2019-10-26 08:02:18.807,47.636338N 0.583833E 197m,Off,5,3.924871,2.5919938,Time OK,Free running,49800,9122,0,2019-10-26 07:11:25.000000000,
1572076998,2019-10-26 08:03:18.806,47.636338N 0.583833E 197m,Off,5,3.924871,2.5919938,Time OK,Free running,50800,9122,0,2019-10-26 07:11:25.000000000,
1572077058,2019-10-26 08:04:18.807,47.636338N 0.583833E 197m,Doing fixes,7,2.8318145,1.6214521,Time OK,Coarse lock,100,9156,-104,2019-10-26 08:04:16.000000000,
1572077118,2019-10-26 08:05:18.807,47.636338N 0.583833E 197m,Doing fixes,8,2.1960106,1.3018446,Time OK,Fine lock,100,9122,0,2019-10-26 08:05:16.000000000,
1572077178,2019-10-26 08:06:18.809,47.636338N 0.583833E 197m,Doing fixes,6,3.3251185,2.2857141,Time OK,Fine lock,100,9123,0,2019-10-26 08:06:16.000000000,
1572077238,2019-10-26 08:07:18.806,47.636338N 0.583833E 197m,Off,6,3.3349562,2.2943237,Time OK,Free running,300,9123,0,2019-10-26 08:06:56.000000000,
1572077298,2019-10-26 08:08:18.806,47.636338N 0.583833E 197m,Off,6,3.3349562,2.2943237,Time OK,Free running,1200,9123,0,2019-10-26 08:06:56.000000000,
1572077358,2019-10-26 08:09:18.806,47.636338N 0.583833E 197m,Off,6,3.3349562,2.2943237,Time OK,Free running,2000,9123,0,2019-10-26 08:06:56.000000000,
1572077418,2019-10-26 08:10:18.809,47.636338N 0.583833E 197m,Off,6,3.3349562,2.2943237,Time OK,Free running,2800,9123,0,2019-10-26 08:06:56.000000000,
1572077478,2019-10-26 08:11:18.806,47.636338N 0.583833E 197m,Off,6,3.3349562,2.2943237,Time OK,Free running,3800,9123,0,2019-10-26 08:06:56.000000000,
1572077538,2019-10-26 08:12:18.806,47.636338N 0.583833E 197m,Off,6,3.3349562,2.2943237,Time OK,Free running,4700,9123,0,2019-10-26 08:06:56.000000000,
1572077598,2019-10-26 08:13:18.806,47.636338N 0.583833E 197m,Off,6,3.3349562,2.2943237,Time OK,Free running,5700,9123,0,2019-10-26 08:06:56.000000000,
1572077658,2019-10-26 08:14:18.806,47.636338N 0.583833E 197m,Off,6,3.3349562,2.2943237,Time OK,Free running,6600,9123,0,2019-10-26 08:06:56.000000000,
1572077718,2019-10-26 08:15:18.806,47.636338N 0.583833E 197m,Off,6,3.3349562,2.2943237,Time OK,Free running,7400,9123,0,2019-10-26 08:06:56.000000000,
1572077778,2019-10-26 08:16:18.845,47.636338N 0.583833E 197m,Off,6,3.3349562,2.2943237,Time OK,Free running,8200,9123,0,2019-10-26 08:06:56.000000000,
1572077838,2019-10-26 08:17:18.806,47.636338N 0.583833E 197m,Off,6,3.3349562,2.2943237,Time OK,Free running,9400,9123,0,2019-10-26 08:06:56.000000000,
1572077898,2019-10-26 08:18:18.806,47.636338N 0.583833E 197m,Off,6,3.3349562,2.2943237,Time OK,Free running,10500,9123,0,2019-10-26 08:06:56.000000000,
1572077958,2019-10-26 08:19:18.806,47.636338N 0.583833E 197m,Off,6,3.3349562,2.2943237,Time OK,Free running,11400,9123,0,2019-10-26 08:06:56.000000000,
1572078018,2019-10-26 08:20:18.806,47.636338N 0.583833E 197m,Off,6,3.3349562,2.2943237,Time OK,Free running,12300,9123,0,2019-10-26 08:06:56.000000000,
1572078078,2019-10-26 08:21:18.806,47.636338N 0.583833E 197m,Off,6,3.3349562,2.2943237,Time OK,Free running,13200,9123,0,2019-10-26 08:06:56.000000000,
1572078138,2019-10-26 08:22:18.809,47.636338N 0.583833E 197m,Off,6,3.3349562,2.2943237,Time OK,Free running,14400,9123,0,2019-10-26 08:06:56.000000000,
1572078198,2019-10-26 08:23:18.806,47.636338N 0.583833E 197m,Off,6,3.3349562,2.2943237,Time OK,Free running,15400,9123,0,2019-10-26 08:06:56.000000000,
1572078258,2019-10-26 08:24:18.806,47.636338N 0.583833E 197m,Off,6,3.3349562,2.2943237,Time OK,Free running,16200,9123,0,2019-10-26 08:06:56.000000000,
1572078318,2019-10-26 08:25:18.806,47.636338N 0.583833E 197m,Off,6,3.3349562,2.2943237,Time OK,Free running,17200,9123,0,2019-10-26 08:06:56.000000000,
1572078378,2019-10-26 08:26:18.806,47.636338N 0.583833E 197m,Off,6,3.3349562,2.2943237,Time OK,Free running,18300,9123,0,2019-10-26 08:06:56.000000000,
1572078438,2019-10-26 08:27:18.806,47.636338N 0.583833E 197m,Off,6,3.3349562,2.2943237,Time OK,Free running,19400,9123,0,2019-10-26 08:06:56.000000000,
1572078498,2019-10-26 08:28:18.806,47.636338N 0.583833E 197m,Off,6,3.3349562,2.2943237,Time OK,Free running,20500,9123,0,2019-10-26 08:06:56.000000000,
1572078558,2019-10-26 08:29:18.806,47.636338N 0.583833E 197m,Off,6,3.3349562,2.2943237,Time OK,Free running,21600,9123,0,2019-10-26 08:06:56.000000000,
1572078618,2019-10-26 08:30:18.807,47.636338N 0.583833E 197m,Off,6,3.3349562,2.2943237,Time OK,Free running,22600,9123,0,2019-10-26 08:06:56.000000000,
1572078678,2019-10-26 08:31:18.806,47.636338N 0.583833E 197m,Off,6,3.3349562,2.2943237,Time OK,Free running,23600,9123,0,2019-10-26 08:06:56.000000000,
1572078738,2019-10-26 08:32:18.823,47.636338N 0.583833E 197m,Off,6,3.3349562,2.2943237,Time OK,Free running,24800,9123,0,2019-10-26 08:06:56.000000000,
1572078798,2019-10-26 08:33:18.806,47.636338N 0.583833E 197m,Off,6,3.3349562,2.2943237,Time OK,Free running,26100,9123,0,2019-10-26 08:06:56.000000000,
1572078858,2019-10-26 08:34:18.806,47.636338N 0.583833E 197m,Off,6,3.3349562,2.2943237,Time OK,Free running,27400,9123,0,2019-10-26 08:06:56.000000000,
1572078918,2019-10-26 08:35:18.845,47.636338N 0.583833E 197m,Off,6,3.3349562,2.2943237,Time OK,Free running,28700,9123,0,2019-10-26 08:06:56.000000000,
1572078978,2019-10-26 08:36:18.806,47.636338N 0.583833E 197m,Off,6,3.3349562,2.2943237,Time OK,Free running,30100,9123,0,2019-10-26 08:06:56.000000000,
1572079038,2019-10-26 08:37:18.806,47.636338N 0.583833E 197m,Off,6,3.3349562,2.2943237,Time OK,Free running,31500,9123,0,2019-10-26 08:06:56.000000000,
1572079098,2019-10-26 08:38:18.806,47.636338N 0.583833E 197m,Off,6,3.3349562,2.2943237,Time OK,Free running,32700,9123,0,2019-10-26 08:06:56.000000000,
1572079158,2019-10-26 08:39:18.806,47.636338N 0.583833E 197m,Off,6,3.3349562,2.2943237,Time OK,Free running,33800,9123,0,2019-10-26 08:06:56.000000000,
1572079218,2019-10-26 08:40:18.806,47.636338N 0.583833E 197m,Off,6,3.3349562,2.2943237,Time OK,Free running,34900,9123,0,2019-10-26 08:06:56.000000000,
1572079278,2019-10-26 08:41:18.806,47.636338N 0.583833E 197m,Off,6,3.3349562,2.2943237,Time OK,Free running,36100,9123,0,2019-10-26 08:06:56.000000000,
1572079338,2019-10-26 08:42:18.806,47.636338N 0.583833E 197m,Off,6,3.3349562,2.2943237,Time OK,Free running,37200,9123,0,2019-10-26 08:06:56.000000000,
1572079398,2019-10-26 08:43:18.806,47.636338N 0.583833E 197m,Off,6,3.3349562,2.2943237,Time OK,Free running,38300,9123,0,2019-10-26 08:06:56.000000000,
1572079458,2019-10-26 08:44:18.806,47.636338N 0.583833E 197m,Off,6,3.3349562,2.2943237,Time OK,Free running,39700,9123,0,2019-10-26 08:06:56.000000000,
1572079518,2019-10-26 08:45:18.806,47.636338N 0.583833E 197m,Off,6,3.3349562,2.2943237,Time OK,Free running,41100,9123,0,2019-10-26 08:06:56.000000000,
1572079578,2019-10-26 08:46:18.806,47.636338N 0.583833E 197m,Off,6,3.3349562,2.2943237,Time OK,Free running,42500,9123,0,2019-10-26 08:06:56.000000000,
1572079638,2019-10-26 08:47:18.806,47.636338N 0.583833E 197m,Off,6,3.3349562,2.2943237,Time OK,Free running,43800,9123,0,2019-10-26 08:06:56.000000000,
1572079698,2019-10-26 08:48:18.806,47.636338N 0.583833E 197m,Off,6,3.3349562,2.2943237,Time OK,Free running,44800,9123,0,2019-10-26 08:06:56.000000000,
1572079758,2019-10-26 08:49:18.809,47.636338N 0.583833E 197m,Off,6,3.3349562,2.2943237,Time OK,Free running,45900,9123,0,2019-10-26 08:06:56.000000000,
1572079818,2019-10-26 08:50:18.806,47.636338N 0.583833E 197m,Off,6,3.3349562,2.2943237,Time OK,Free running,47400,9123,0,2019-10-26 08:06:56.000000000,
1572079878,2019-10-26 08:51:18.806,47.636338N 0.583833E 197m,Off,6,3.3349562,2.2943237,Time OK,Free running,48600,9123,0,2019-10-26 08:06:56.000000000,
1572079938,2019-10-26 08:52:18.806,47.636338N 0.583833E 197m,Off,6,3.3349562,2.2943237,Time OK,Free running,49600,9123,0,2019-10-26 08:06:56.000000000,
1572079998,2019-10-26 08:53:18.806,47.636338N 0.583833E 197m,Off,6,3.3349562,2.2943237,Time OK,Free running,51000,9123,0,2019-10-26 08:06:56.000000000,
1572080058,2019-10-26 08:54:18.807,47.636338N 0.583833E 197m,Doing fixes,7,3.569236,2.5516806,Time OK,Coarse lock,100,8429,13229,2019-10-26 08:54:16.000000000,
1572080118,2019-10-26 08:55:18.807,47.636338N 0.583833E 197m,Doing fixes,8,2.2247076,1.4136649,Time OK,Coarse lock,100,9131,-208,2019-10-26 08:55:16.000000000,
1572080178,2019-10-26 08:56:18.807,47.636338N 0.583833E 197m,Off,8,2.2134664,1.404648,Time OK,Free running,100,9111,0,2019-10-26 08:56:16.000000000,
1572080238,2019-10-26 08:57:18.806,47.636338N 0.583833E 197m,Off,8,2.2134664,1.404648,Time OK,Free running,1100,9111,0,2019-10-26 08:56:16.000000000,
1572080298,2019-10-26 08:58:18.806,47.636338N 0.583833E 197m,Off,8,2.2134664,1.404648,Time OK,Free running,2500,9111,0,2019-10-26 08:56:16.000000000,
1572080358,2019-10-26 08:59:18.806,47.636338N 0.583833E 197m,Off,8,2.2134664,1.404648,Time OK,Free running,3800,9111,0,2019-10-26 08:56:16.000000000,
