Time(longsecs),Time(UTC),GPS Satellite Acquisition Flag 1,GPS Satellite Acquisition Flag 2,GPS Satellite Acquisition Flag 3,GPS Satellite Acquisition Flag 4,GPS Satellite Acquisition Flag 5,GPS Satellite Acquisition Flag 6,GPS Satellite Acquisition Flag 7,GPS Satellite Acquisition Flag 8,GPS Satellite Acquisition Flag 9,GPS Satellite Acquisition Flag 10,GPS Satellite Acquisition Flag 11,GPS Satellite Acquisition Flag 12,GPS Satellite Azimuth 1(Degrees),GPS Satellite Azimuth 2(Degrees),GPS Satellite Azimuth 3(Degrees),GPS Satellite Azimuth 4(Degrees),GPS Satellite Azimuth 5(Degrees),GPS Satellite Azimuth 6(Degrees),GPS Satellite Azimuth 7(Degrees),GPS Satellite Azimuth 8(Degrees),GPS Satellite Azimuth 9(Degrees),GPS Satellite Azimuth 10(Degrees),GPS Satellite Azimuth 11(Degrees),GPS Satellite Azimuth 12(Degrees),GPS Satellite Elevation 1(Degrees),GPS Satellite Elevation 2(Degrees),GPS Satellite Elevation 3(Degrees),GPS Satellite Elevation 4(Degrees),GPS Satellite Elevation 5(Degrees),GPS Satellite Elevation 6(Degrees),GPS Satellite Elevation 7(Degrees),GPS Satellite Elevation 8(Degrees),GPS Satellite Elevation 9(Degrees),GPS Satellite Elevation 10(Degrees),GPS Satellite Elevation 11(Degrees),GPS Satellite Elevation 12(Degrees),GPS Satellite PRN 1,GPS Satellite PRN 2,GPS Satellite PRN 3,GPS Satellite PRN 4,GPS Satellite PRN 5,GPS Satellite PRN 6,GPS Satellite PRN 7,GPS Satellite PRN 8,GPS Satellite PRN 9,GPS Satellite PRN 10,GPS Satellite PRN 11,GPS Satellite PRN 12,GPS Satellite Signal Level 1(AMU),GPS Satellite Signal Level 2(AMU),GPS Satellite Signal Level 3(AMU),GPS Satellite Signal Level 4(AMU),GPS Satellite Signal Level 5(AMU),GPS Satellite Signal Level 6(AMU),GPS Satellite Signal Level 7(AMU),GPS Satellite Signal Level 8(AMU),GPS Satellite Signal Level 9(AMU),GPS Satellite Signal Level 10(AMU),GPS Satellite Signal Level 11(AMU),GPS Satellite Signal Level 12(AMU),
1570186826,2019-10-04 11:00:26.438,Acquired,Acquired,Acquired,Acquired,Acquired,Acquired,Acquired,Acquired,Acquired,Acquired,Not acquired,,3.1819494399999996E2,2.299808E2,1.66672688E2,2.2577931199999998E2,9.0240056E1,3.1639849599999997E2,8.5358408E1,2.2817824E2,2.84911232E2,5.9171864E1,1.5195430399999998E2,,7.660898399999999E1,4.2723555999999995E1,3.8215655999999996E1,8.4749128E1,4.0982499999999995E1,1.6105211E1,7.2333088E1,6.6601736E1,2.740833E1,3.3045148E1,5.305503E0,,1,3,8,11,14,17,18,22,28,32,27,,14,12,2,6,9,2,10,10,11,8,0,,
1570186886,2019-10-04 11:01:26.439,Acquired,Acquired,Acquired,Acquired,Acquired,Acquired,Acquired,Acquired,Acquired,Acquired,Not acquired,,3.1819494399999996E2,2.299808E2,1.66672688E2,2.2577931199999998E2,9.0240056E1,3.1639849599999997E2,8.5358408E1,2.2817824E2,2.84911232E2,5.9171864E1,1.5195430399999998E2,,7.660898399999999E1,4.2723555999999995E1,3.8215655999999996E1,8.4749128E1,4.0982499999999995E1,1.6105211E1,7.2333088E1,6.6601736E1,2.740833E1,3.3045148E1,5.305503E0,,1,3,8,11,14,17,18,22,28,32,27,,14,12,2,6,9,2,10,10,11,8,0,,
1570186946,2019-10-04 11:02:26.438,Acquired,Acquired,Acquired,Acquired,Acquired,Acquired,Acquired,Acquired,Acquired,Acquired,Not acquired,,3.1819494399999996E2,2.299808E2,1.66672688E2,2.2577931199999998E2,9.0240056E1,3.1639849599999997E2,8.5358408E1,2.2817824E2,2.84911232E2,5.9171864E1,1.5195430399999998E2,,7.660898399999999E1,4.2723555999999995E1,3.8215655999999996E1,8.4749128E1,4.0982499999999995E1,1.6105211E1,7.2333088E1,6.6601736E1,2.740833E1,3.3045148E1,5.305503E0,,1,3,8,11,14,17,18,22,28,32,27,,14,12,2,6,9,2,10,10,11,8,0,,
1570187006,2019-10-04 11:03:26.438,Acquired,Acquired,Acquired,Acquired,Acquired,Acquired,Acquired,Acquired,Acquired,Acquired,Not acquired,,3.1819494399999996E2,2.299808E2,1.66672688E2,2.2577931199999998E2,9.0240056E1,3.1639849599999997E2,8.5358408E1,2.2817824E2,2.84911232E2,5.9171864E1,1.5195430399999998E2,,7.660898399999999E1,4.2723555999999995E1,3.8215655999999996E1,8.4749128E1,4.0982499999999995E1,1.6105211E1,7.2333088E1,6.6601736E1,2.740833E1,3.3045148E1,5.305503E0,,1,3,8,11,14,17,18,22,28,32,27,,14,12,2,6,9,2,10,10,11,8,0,,
1570187066,2019-10-04 11:04:26.439,Acquired,Acquired,Acquired,Acquired,Acquired,Acquired,Acquired,Acquired,Acquired,Acquired,Not acquired,,3.1819494399999996E2,2.299808E2,1.66672688E2,2.2577931199999998E2,9.0240056E1,3.1639849599999997E2,8.5358408E1,2.2817824E2,2.84911232E2,5.9171864E1,1.5195430399999998E2,,7.660898399999999E1,4.2723555999999995E1,3.8215655999999996E1,8.4749128E1,4.0982499999999995E1,1.6105211E1,7.2333088E1,6.6601736E1,2.740833E1,3.3045148E1,5.305503E0,,1,3,8,11,14,17,18,22,28,32,27,,14,12,2,6,9,2,10,10,11,8,0,,
1570187126,2019-10-04 11:05:26.438,Acquired,Acquired,Acquired,Acquired,Acquired,Acquired,Acquired,Acquired,Acquired,Acquired,Not acquired,,3.1819494399999996E2,2.299808E2,1.66672688E2,2.2577931199999998E2,9.0240056E1,3.1639849599999997E2,8.5358408E1,2.2817824E2,2.84911232E2,5.9171864E1,1.5195430399999998E2,,7.660898399999999E1,4.2723555999999995E1,3.8215655999999996E1,8.4749128E1,4.0982499999999995E1,1.6105211E1,7.2333088E1,6.6601736E1,2.740833E1,3.3045148E1,5.305503E0,,1,3,8,11,14,17,18,22,28,32,27,,14,12,2,6,9,2,10,10,11,8,0,,
1570187186,2019-10-04 11:06:26.439,Acquired,Acquired,Acquired,Acquired,Acquired,Acquired,Acquired,Acquired,Acquired,Acquired,Not acquired,,3.1819494399999996E2,2.299808E2,1.66672688E2,2.2577931199999998E2,9.0240056E1,3.1639849599999997E2,8.5358408E1,2.2817824E2,2.84911232E2,5.9171864E1,1.5195430399999998E2,,7.660898399999999E1,4.2723555999999995E1,3.8215655999999996E1,8.4749128E1,4.0982499999999995E1,1.6105211E1,7.2333088E1,6.6601736E1,2.740833E1,3.3045148E1,5.305503E0,,1,3,8,11,14,17,18,22,28,32,27,,14,12,2,6,9,2,10,10,11,8,0,,
1570187246,2019-10-04 11:07:26.444,Acquired,Acquired,Acquired,Acquired,Acquired,Acquired,Acquired,Acquired,Acquired,Acquired,Not acquired,,3.19457152E2,2.30238192E2,1.66713696E2,2.20370704E2,8.965131199999999E1,3.16363968E2,8.6211936E1,2.28414368E2,2.8444064E2,5.8713708E1,1.52040576E2,,7.69954E1,4.3175363999999995E1,3.7733604E1,8.4743904E1,4.108242E1,1.6488068E1,7.1912224E1,6.7074E1,2.7299913999999998E1,3.2865676E1,4.900002E0,,1,3,8,11,14,17,18,22,28,32,27,,14,13,5,6,8,3,9,9,11,8,0,,
1570187306,2019-10-04 11:08:26.439,Acquired,Acquired,Acquired,Acquired,Acquired,Acquired,Acquired,Acquired,Acquired,Acquired,Acquired,Acquired,6.8219792E1,2.41830448E2,1.68067984E2,1.55685776E2,6.805040799999999E1,3.1217929599999997E2,1.06716008E2,2.42016192E2,1.84918896E2,2.6840688E2,4.5307716E1,3.1956505599999997E2,8.1201712E1,5.9974239999999995E1,2.050716E1,6.9873984E1,4.0320796E1,3.0356236E1,5.5804936E1,8.4369872E1,1.5047374999999999E1,2.0468638E1,2.3447612E1,1.2926817E1,1,3,8,11,14,17,18,22,23,28,32,19,14,8,2,5,9,8,12,8,2,6,8,2,
1570187366,2019-10-04 11:09:26.439,Acquired,Acquired,Acquired,Acquired,Acquired,Acquired,Acquired,Acquired,Acquired,Acquired,Acquired,Acquired,7.0629864E1,2.42214688E2,1.68093536E2,1.5548654399999998E2,6.7527632E1,3.11977216E2,1.0710165599999999E2,2.42905056E2,1.84885248E2,2.68025856E2,4.5047807999999996E1,3.1949427199999997E2,8.090533599999999E1,6.0418448E1,2.0068514E1,6.938560799999999E1,4.0185531999999995E1,3.0706864E1,5.5374976E1,8.4818624E1,1.5463353999999999E1,2.0226108E1,2.3141204E1,1.3311719E1,1,3,8,11,14,17,18,22,23,28,32,19,15,8,3,5,8,8,13,9,3,7,8,1,
1570187426,2019-10-04 11:10:26.439,Acquired,Acquired,Acquired,Acquired,Acquired,Acquired,Acquired,Acquired,Acquired,Acquired,Acquired,Acquired,7.2994288E1,2.42621296E2,1.68119328E2,1.55296336E2,6.6987636E1,3.11760672E2,1.07498896E2,2.4396630399999998E2,1.84850528E2,2.67631216E2,4.4781915999999995E1,3.1941817599999996E2,8.0583488E1,6.0881159999999994E1,1.9612288E1,6.887594399999999E1,4.0038788E1,3.1070823999999998E1,5.4926956E1,8.5284944E1,1.5901637E1,1.9970692E1,2.2819599999999998E1,1.3713439999999999E1,1,3,8,11,14,17,18,22,23,28,32,19,15,7,3,6,8,7,12,9,4,7,7,2,
1570187486,2019-10-04 11:11:26.438,Acquired,Acquired,Acquired,Acquired,Acquired,Acquired,Acquired,Acquired,Acquired,Acquired,Acquired,Acquired,7.2994288E1,2.42621296E2,1.68119328E2,1.55296336E2,6.6987636E1,3.11760672E2,1.07498896E2,2.4396630399999998E2,1.84850528E2,2.67631216E2,4.4781915999999995E1,3.1941817599999996E2,8.0583488E1,6.0881159999999994E1,1.9612288E1,6.887594399999999E1,4.0038788E1,3.1070823999999998E1,5.4926956E1,8.5284944E1,1.5901637E1,1.9970692E1,2.2819599999999998E1,1.3713439999999999E1,1,3,8,11,14,17,18,22,23,28,32,19,15,7,3,6,8,7,12,9,4,7,7,2,
1570187546,2019-10-04 11:12:26.438,Acquired,Acquired,Acquired,Acquired,Acquired,Acquired,Acquired,Acquired,Acquired,Acquired,Acquired,Acquired,7.2994288E1,2.42621296E2,1.68119328E2,1.55296336E2,6.6987636E1,3.11760672E2,1.07498896E2,2.4396630399999998E2,1.84850528E2,2.67631216E2,4.4781915999999995E1,3.1941817599999996E2,8.0583488E1,6.0881159999999994E1,1.9612288E1,6.887594399999999E1,4.0038788E1,3.1070823999999998E1,5.4926956E1,8.5284944E1,1.5901637E1,1.9970692E1,2.2819599999999998E1,1.3713439999999999E1,1,3,8,11,14,17,18,22,23,28,32,19,15,7,3,6,8,7,12,9,4,7,7,2,
1570187606,2019-10-04 11:13:26.441,Acquired,Acquired,Acquired,Acquired,Acquired,Acquired,Acquired,Acquired,Acquired,Acquired,Acquired,Acquired,7.2994288E1,2.42621296E2,1.68119328E2,1.55296336E2,6.6987636E1,3.11760672E2,1.07498896E2,2.4396630399999998E2,1.84850528E2,2.67631216E2,4.4781915999999995E1,3.1941817599999996E2,8.0583488E1,6.0881159999999994E1,1.9612288E1,6.887594399999999E1,4.0038788E1,3.1070823999999998E1,5.4926956E1,8.5284944E1,1.5901637E1,1.9970692E1,2.2819599999999998E1,1.3713439999999999E1,1,3,8,11,14,17,18,22,23,28,32,19,15,7,3,6,8,7,12,9,4,7,7,2,
1570187666,2019-10-04 11:14:26.438,Acquired,Acquired,Acquired,Acquired,Acquired,Acquired,Acquired,Acquired,Acquired,Acquired,Acquired,Acquired,7.2994288E1,2.42621296E2,1.68119328E2,1.55296336E2,6.6987636E1,3.11760672E2,1.07498896E2,2.4396630399999998E2,1.84850528E2,2.67631216E2,4.4781915999999995E1,3.1941817599999996E2,8.0583488E1,6.0881159999999994E1,1.9612288E1,6.887594399999999E1,4.0038788E1,3.1070823999999998E1,5.4926956E1,8.5284944E1,1.5901637E1,1.9970692E1,2.2819599999999998E1,1.3713439999999999E1,1,3,8,11,14,17,18,22,23,28,32,19,15,7,3,6,8,7,12,9,4,7,7,2,
1570187726,2019-10-04 11:15:26.438,Acquired,Acquired,Acquired,Acquired,Acquired,Acquired,Acquired,Acquired,Acquired,Acquired,Acquired,Acquired,7.2994288E1,2.42621296E2,1.68119328E2,1.55296336E2,6.6987636E1,3.11760672E2,1.07498896E2,2.4396630399999998E2,1.84850528E2,2.67631216E2,4.4781915999999995E1,3.1941817599999996E2,8.0583488E1,6.0881159999999994E1,1.9612288E1,6.887594399999999E1,4.0038788E1,3.1070823999999998E1,5.4926956E1,8.5284944E1,1.5901637E1,1.9970692E1,2.2819599999999998E1,1.3713439999999999E1,1,3,8,11,14,17,18,22,23,28,32,19,15,7,3,6,8,7,12,9,4,7,7,2,
1570187786,2019-10-04 11:16:26.439,Acquired,Acquired,Acquired,Acquired,Acquired,Acquired,Acquired,Acquired,Acquired,Acquired,Acquired,Acquired,7.2994288E1,2.42621296E2,1.68119328E2,1.55296336E2,6.6987636E1,3.11760672E2,1.07498896E2,2.4396630399999998E2,1.84850528E2,2.67631216E2,4.4781915999999995E1,3.1941817599999996E2,8.0583488E1,6.0881159999999994E1,1.9612288E1,6.887594399999999E1,4.0038788E1,3.1070823999999998E1,5.4926956E1,8.5284944E1,1.5901637E1,1.9970692E1,2.2819599999999998E1,1.3713439999999999E1,1,3,8,11,14,17,18,22,23,28,32,19,15,7,3,6,8,7,12,9,4,7,7,2,
1570187846,2019-10-04 11:17:26.439,Acquired,Acquired,Acquired,Acquired,Acquired,Acquired,Acquired,Acquired,Acquired,Acquired,Acquired,Acquired,7.2994288E1,2.42621296E2,1.68119328E2,1.55296336E2,6.6987636E1,3.11760672E2,1.07498896E2,2.4396630399999998E2,1.84850528E2,2.67631216E2,4.4781915999999995E1,3.1941817599999996E2,8.0583488E1,6.0881159999999994E1,1.9612288E1,6.887594399999999E1,4.0038788E1,3.1070823999999998E1,5.4926956E1,8.5284944E1,1.5901637E1,1.9970692E1,2.2819599999999998E1,1.3713439999999999E1,1,3,8,11,14,17,18,22,23,28,32,19,15,7,3,6,8,7,12,9,4,7,7,2,
1570187906,2019-10-04 11:18:26.438,Acquired,Acquired,Acquired,Acquired,Acquired,Acquired,Acquired,Acquired,Acquired,Acquired,Acquired,Acquired,7.2994288E1,2.42621296E2,1.68119328E2,1.55296336E2,6.6987636E1,3.11760672E2,1.07498896E2,2.4396630399999998E2,1.84850528E2,2.67631216E2,4.4781915999999995E1,3.1941817599999996E2,8.0583488E1,6.0881159999999994E1,1.9612288E1,6.887594399999999E1,4.0038788E1,3.1070823999999998E1,5.4926956E1,8.5284944E1,1.5901637E1,1.9970692E1,2.2819599999999998E1,1.3713439999999999E1,1,3,8,11,14,17,18,22,23,28,32,19,15,7,3,6,8,7,12,9,4,7,7,2,
1570187966,2019-10-04 11:19:26.438,Acquired,Acquired,Acquired,Acquired,Acquired,Acquired,Acquired,Acquired,Acquired,Acquired,Acquired,Acquired,7.2994288E1,2.42621296E2,1.68119328E2,1.55296336E2,6.6987636E1,3.11760672E2,1.07498896E2,2.4396630399999998E2,1.84850528E2,2.67631216E2,4.4781915999999995E1,3.1941817599999996E2,8.0583488E1,6.0881159999999994E1,1.9612288E1,6.887594399999999E1,4.0038788E1,3.1070823999999998E1,5.4926956E1,8.5284944E1,1.5901637E1,1.9970692E1,2.2819599999999998E1,1.3713439999999999E1,1,3,8,11,14,17,18,22,23,28,32,19,15,7,3,6,8,7,12,9,4,7,7,2,
1570188026,2019-10-04 11:20:26.438,Acquired,Acquired,Acquired,Acquired,Acquired,Acquired,Acquired,Acquired,Acquired,Acquired,Acquired,Acquired,7.2994288E1,2.42621296E2,1.68119328E2,1.55296336E2,6.6987636E1,3.11760672E2,1.07498896E2,2.4396630399999998E2,1.84850528E2,2.67631216E2,4.4781915999999995E1,3.1941817599999996E2,8.0583488E1,6.0881159999999994E1,1.9612288E1,6.887594399999999E1,4.0038788E1,3.1070823999999998E1,5.4926956E1,8.5284944E1,1.5901637E1,1.9970692E1,2.2819599999999998E1,1.3713439999999999E1,1,3,8,11,14,17,18,22,23,28,32,19,15,7,3,6,8,7,12,9,4,7,7,2,
1570188086,2019-10-04 11:21:26.438,Acquired,Acquired,Acquired,Acquired,Acquired,Acquired,Acquired,Acquired,Acquired,Acquired,Acquired,Acquired,7.2994288E1,2.42621296E2,1.68119328E2,1.55296336E2,6.6987636E1,3.11760672E2,1.07498896E2,2.4396630399999998E2,1.84850528E2,2.67631216E2,4.4781915999999995E1,3.1941817599999996E2,8.0583488E1,6.0881159999999994E1,1.9612288E1,6.887594399999999E1,4.0038788E1,3.1070823999999998E1,5.4926956E1,8.5284944E1,1.5901637E1,1.9970692E1,2.2819599999999998E1,1.3713439999999999E1,1,3,8,11,14,17,18,22,23,28,32,19,15,7,3,6,8,7,12,9,4,7,7,2,
1570188146,2019-10-04 11:22:26.439,Acquired,Acquired,Acquired,Acquired,Acquired,Acquired,Acquired,Acquired,Acquired,Acquired,Acquired,Acquired,7.2994288E1,2.42621296E2,1.68119328E2,1.55296336E2,6.6987636E1,3.11760672E2,1.07498896E2,2.4396630399999998E2,1.84850528E2,2.67631216E2,4.4781915999999995E1,3.1941817599999996E2,8.0583488E1,6.0881159999999994E1,1.9612288E1,6.887594399999999E1,4.0038788E1,3.1070823999999998E1,5.4926956E1,8.5284944E1,1.5901637E1,1.9970692E1,2.2819599999999998E1,1.3713439999999999E1,1,3,8,11,14,17,18,22,23,28,32,19,15,7,3,6,8,7,12,9,4,7,7,2,
1570188206,2019-10-04 11:23:26.438,Acquired,Acquired,Acquired,Acquired,Acquired,Acquired,Acquired,Acquired,Acquired,Acquired,Acquired,Acquired,7.2994288E1,2.42621296E2,1.68119328E2,1.55296336E2,6.6987636E1,3.11760672E2,1.07498896E2,2.4396630399999998E2,1.84850528E2,2.67631216E2,4.4781915999999995E1,3.1941817599999996E2,8.0583488E1,6.0881159999999994E1,1.9612288E1,6.887594399999999E1,4.0038788E1,3.1070823999999998E1,5.4926956E1,8.5284944E1,1.5901637E1,1.9970692E1,2.2819599999999998E1,1.3713439999999999E1,1,3,8,11,14,17,18,22,23,28,32,19,15,7,3,6,8,7,12,9,4,7,7,2,
1570188266,2019-10-04 11:24:26.439,Acquired,Acquired,Acquired,Acquired,Acquired,Acquired,Acquired,Acquired,Acquired,Acquired,Acquired,Acquired,7.2994288E1,2.42621296E2,1.68119328E2,1.55296336E2,6.6987636E1,3.11760672E2,1.07498896E2,2.4396630399999998E2,1.84850528E2,2.67631216E2,4.4781915999999995E1,3.1941817599999996E2,8.0583488E1,6.0881159999999994E1,1.9612288E1,6.887594399999999E1,4.0038788E1,3.1070823999999998E1,5.4926956E1,8.5284944E1,1.5901637E1,1.9970692E1,2.2819599999999998E1,1.3713439999999999E1,1,3,8,11,14,17,18,22,23,28,32,19,15,7,3,6,8,7,12,9,4,7,7,2,
1570188326,2019-10-04 11:25:26.480,Acquired,Acquired,Acquired,Acquired,Acquired,Acquired,Acquired,Acquired,Acquired,Acquired,Acquired,Acquired,7.2994288E1,2.42621296E2,1.68119328E2,1.55296336E2,6.6987636E1,3.11760672E2,1.07498896E2,2.4396630399999998E2,1.84850528E2,2.67631216E2,4.4781915999999995E1,3.1941817599999996E2,8.0583488E1,6.0881159999999994E1,1.9612288E1,6.887594399999999E1,4.0038788E1,3.1070823999999998E1,5.4926956E1,8.5284944E1,1.5901637E1,1.9970692E1,2.2819599999999998E1,1.3713439999999999E1,1,3,8,11,14,17,18,22,23,28,32,19,15,7,3,6,8,7,12,9,4,7,7,2,
1570188386,2019-10-04 11:26:26.438,Acquired,Acquired,Acquired,Acquired,Acquired,Acquired,Acquired,Acquired,Acquired,Acquired,Acquired,Acquired,7.2994288E1,2.42621296E2,1.68119328E2,1.55296336E2,6.6987636E1,3.11760672E2,1.07498896E2,2.4396630399999998E2,1.84850528E2,2.67631216E2,4.4781915999999995E1,3.1941817599999996E2,8.0583488E1,6.0881159999999994E1,1.9612288E1,6.887594399999999E1,4.0038788E1,3.1070823999999998E1,5.4926956E1,8.5284944E1,1.5901637E1,1.9970692E1,2.2819599999999998E1,1.3713439999999999E1,1,3,8,11,14,17,18,22,23,28,32,19,15,7,3,6,8,7,12,9,4,7,7,2,
1570188446,2019-10-04 11:27:26.438,Acquired,Acquired,Acquired,Acquired,Acquired,Acquired,Acquired,Acquired,Acquired,Acquired,Acquired,Acquired,7.2994288E1,2.42621296E2,1.68119328E2,1.55296336E2,6.6987636E1,3.11760672E2,1.07498896E2,2.4396630399999998E2,1.84850528E2,2.67631216E2,4.4781915999999995E1,3.1941817599999996E2,8.0583488E1,6.0881159999999994E1,1.9612288E1,6.887594399999999E1,4.0038788E1,3.1070823999999998E1,5.4926956E1,8.5284944E1,1.5901637E1,1.9970692E1,2.2819599999999998E1,1.3713439999999999E1,1,3,8,11,14,17,18,22,23,28,32,19,15,7,3,6,8,7,12,9,4,7,7,2,
1570188506,2019-10-04 11:28:26.438,Acquired,Acquired,Acquired,Acquired,Acquired,Acquired,Acquired,Acquired,Acquired,Acquired,Acquired,Acquired,7.2994288E1,2.42621296E2,1.68119328E2,1.55296336E2,6.6987636E1,3.11760672E2,1.07498896E2,2.4396630399999998E2,1.84850528E2,2.67631216E2,4.4781915999999995E1,3.1941817599999996E2,8.0583488E1,6.0881159999999994E1,1.9612288E1,6.887594399999999E1,4.0038788E1,3.1070823999999998E1,5.4926956E1,8.5284944E1,1.5901637E1,1.9970692E1,2.2819599999999998E1,1.3713439999999999E1,1,3,8,11,14,17,18,22,23,28,32,19,15,7,3,6,8,7,12,9,4,7,7,2,
1570188566,2019-10-04 11:29:26.439,Acquired,Acquired,Acquired,Acquired,Acquired,Acquired,Acquired,Acquired,Acquired,Acquired,Acquired,Acquired,7.2994288E1,2.42621296E2,1.68119328E2,1.55296336E2,6.6987636E1,3.11760672E2,1.07498896E2,2.4396630399999998E2,1.84850528E2,2.67631216E2,4.4781915999999995E1,3.1941817599999996E2,8.0583488E1,6.0881159999999994E1,1.9612288E1,6.887594399999999E1,4.0038788E1,3.1070823999999998E1,5.4926956E1,8.5284944E1,1.5901637E1,1.9970692E1,2.2819599999999998E1,1.3713439999999999E1,1,3,8,11,14,17,18,22,23,28,32,19,15,7,3,6,8,7,12,9,4,7,7,2,
1570188626,2019-10-04 11:30:26.438,Acquired,Acquired,Acquired,Acquired,Acquired,Acquired,Acquired,Acquired,Acquired,Acquired,Acquired,Acquired,7.2994288E1,2.42621296E2,1.68119328E2,1.55296336E2,6.6987636E1,3.11760672E2,1.07498896E2,2.4396630399999998E2,1.84850528E2,2.67631216E2,4.4781915999999995E1,3.1941817599999996E2,8.0583488E1,6.0881159999999994E1,1.9612288E1,6.887594399999999E1,4.0038788E1,3.1070823999999998E1,5.4926956E1,8.5284944E1,1.5901637E1,1.9970692E1,2.2819599999999998E1,1.3713439999999999E1,1,3,8,11,14,17,18,22,23,28,32,19,15,7,3,6,8,7,12,9,4,7,7,2,
1570188686,2019-10-04 11:31:26.438,Acquired,Acquired,Acquired,Acquired,Acquired,Acquired,Acquired,Acquired,Acquired,Acquired,Acquired,Acquired,7.2994288E1,2.42621296E2,1.68119328E2,1.55296336E2,6.6987636E1,3.11760672E2,1.07498896E2,2.4396630399999998E2,1.84850528E2,2.67631216E2,4.4781915999999995E1,3.1941817599999996E2,8.0583488E1,6.0881159999999994E1,1.9612288E1,6.887594399999999E1,4.0038788E1,3.1070823999999998E1,5.4926956E1,8.5284944E1,1.5901637E1,1.9970692E1,2.2819599999999998E1,1.3713439999999999E1,1,3,8,11,14,17,18,22,23,28,32,19,15,7,3,6,8,7,12,9,4,7,7,2,
1570188746,2019-10-04 11:32:26.439,Acquired,Acquired,Acquired,Acquired,Acquired,Acquired,Acquired,Acquired,Acquired,Acquired,Acquired,Acquired,7.2994288E1,2.42621296E2,1.68119328E2,1.55296336E2,6.6987636E1,3.11760672E2,1.07498896E2,2.4396630399999998E2,1.84850528E2,2.67631216E2,4.4781915999999995E1,3.1941817599999996E2,8.0583488E1,6.0881159999999994E1,1.9612288E1,6.887594399999999E1,4.0038788E1,3.1070823999999998E1,5.4926956E1,8.5284944E1,1.5901637E1,1.9970692E1,2.2819599999999998E1,1.3713439999999999E1,1,3,8,11,14,17,18,22,23,28,32,19,15,7,3,6,8,7,12,9,4,7,7,2,
1570188806,2019-10-04 11:33:26.439,Acquired,Acquired,Acquired,Acquired,Acquired,Acquired,Acquired,Acquired,Acquired,Acquired,Acquired,Acquired,7.2994288E1,2.42621296E2,1.68119328E2,1.55296336E2,6.6987636E1,3.11760672E2,1.07498896E2,2.4396630399999998E2,1.84850528E2,2.67631216E2,4.4781915999999995E1,3.1941817599999996E2,8.0583488E1,6.0881159999999994E1,1.9612288E1,6.887594399999999E1,4.0038788E1,3.1070823999999998E1,5.4926956E1,8.5284944E1,1.5901637E1,1.9970692E1,2.2819599999999998E1,1.3713439999999999E1,1,3,8,11,14,17,18,22,23,28,32,19,15,7,3,6,8,7,12,9,4,7,7,2,
1570188866,2019-10-04 11:34:26.438,Acquired,Acquired,Acquired,Acquired,Acquired,Acquired,Acquired,Acquired,Acquired,Acquired,Acquired,Acquired,7.2994288E1,2.42621296E2,1.68119328E2,1.55296336E2,6.6987636E1,3.11760672E2,1.07498896E2,2.4396630399999998E2,1.84850528E2,2.67631216E2,4.4781915999999995E1,3.1941817599999996E2,8.0583488E1,6.0881159999999994E1,1.9612288E1,6.887594399999999E1,4.0038788E1,3.1070823999999998E1,5.4926956E1,8.5284944E1,1.5901637E1,1.9970692E1,2.2819599999999998E1,1.3713439999999999E1,1,3,8,11,14,17,18,22,23,28,32,19,15,7,3,6,8,7,12,9,4,7,7,2,
1570188926,2019-10-04 11:35:26.438,Acquired,Acquired,Acquired,Acquired,Acquired,Acquired,Acquired,Acquired,Acquired,Acquired,Acquired,Acquired,7.2994288E1,2.42621296E2,1.68119328E2,1.55296336E2,6.6987636E1,3.11760672E2,1.07498896E2,2.4396630399999998E2,1.84850528E2,2.67631216E2,4.4781915999999995E1,3.1941817599999996E2,8.0583488E1,6.0881159999999994E1,1.9612288E1,6.887594399999999E1,4.0038788E1,3.1070823999999998E1,5.4926956E1,8.5284944E1,1.5901637E1,1.9970692E1,2.2819599999999998E1,1.3713439999999999E1,1,3,8,11,14,17,18,22,23,28,32,19,15,7,3,6,8,7,12,9,4,7,7,2,
1570188986,2019-10-04 11:36:26.439,Acquired,Acquired,Acquired,Acquired,Acquired,Acquired,Acquired,Acquired,Acquired,Acquired,Acquired,Acquired,7.2994288E1,2.42621296E2,1.68119328E2,1.55296336E2,6.6987636E1,3.11760672E2,1.07498896E2,2.4396630399999998E2,1.84850528E2,2.67631216E2,4.4781915999999995E1,3.1941817599999996E2,8.0583488E1,6.0881159999999994E1,1.9612288E1,6.887594399999999E1,4.0038788E1,3.1070823999999998E1,5.4926956E1,8.5284944E1,1.5901637E1,1.9970692E1,2.2819599999999998E1,1.3713439999999999E1,1,3,8,11,14,17,18,22,23,28,32,19,15,7,3,6,8,7,12,9,4,7,7,2,
1570189046,2019-10-04 11:37:26.438,Acquired,Acquired,Acquired,Acquired,Acquired,Acquired,Acquired,Acquired,Acquired,Acquired,Acquired,Acquired,7.2994288E1,2.42621296E2,1.68119328E2,1.55296336E2,6.6987636E1,3.11760672E2,1.07498896E2,2.4396630399999998E2,1.84850528E2,2.67631216E2,4.4781915999999995E1,3.1941817599999996E2,8.0583488E1,6.0881159999999994E1,1.9612288E1,6.887594399999999E1,4.0038788E1,3.1070823999999998E1,5.4926956E1,8.5284944E1,1.5901637E1,1.9970692E1,2.2819599999999998E1,1.3713439999999999E1,1,3,8,11,14,17,18,22,23,28,32,19,15,7,3,6,8,7,12,9,4,7,7,2,
1570189106,2019-10-04 11:38:26.438,Acquired,Acquired,Acquired,Acquired,Acquired,Acquired,Acquired,Acquired,Acquired,Acquired,Acquired,Acquired,7.2994288E1,2.42621296E2,1.68119328E2,1.55296336E2,6.6987636E1,3.11760672E2,1.07498896E2,2.4396630399999998E2,1.84850528E2,2.67631216E2,4.4781915999999995E1,3.1941817599999996E2,8.0583488E1,6.0881159999999994E1,1.9612288E1,6.887594399999999E1,4.0038788E1,3.1070823999999998E1,5.4926956E1,8.5284944E1,1.5901637E1,1.9970692E1,2.2819599999999998E1,1.3713439999999999E1,1,3,8,11,14,17,18,22,23,28,32,19,15,7,3,6,8,7,12,9,4,7,7,2,
1570189166,2019-10-04 11:39:26.439,Acquired,Acquired,Acquired,Acquired,Acquired,Acquired,Acquired,Acquired,Acquired,Acquired,Acquired,Acquired,7.2994288E1,2.42621296E2,1.68119328E2,1.55296336E2,6.6987636E1,3.11760672E2,1.07498896E2,2.4396630399999998E2,1.84850528E2,2.67631216E2,4.4781915999999995E1,3.1941817599999996E2,8.0583488E1,6.0881159999999994E1,1.9612288E1,6.887594399999999E1,4.0038788E1,3.1070823999999998E1,5.4926956E1,8.5284944E1,1.5901637E1,1.9970692E1,2.2819599999999998E1,1.3713439999999999E1,1,3,8,11,14,17,18,22,23,28,32,19,15,7,3,6,8,7,12,9,4,7,7,2,
1570189226,2019-10-04 11:40:26.439,Acquired,Acquired,Acquired,Acquired,Acquired,Acquired,Acquired,Acquired,Acquired,Acquired,Acquired,Acquired,7.2994288E1,2.42621296E2,1.68119328E2,1.55296336E2,6.6987636E1,3.11760672E2,1.07498896E2,2.4396630399999998E2,1.84850528E2,2.67631216E2,4.4781915999999995E1,3.1941817599999996E2,8.0583488E1,6.0881159999999994E1,1.9612288E1,6.887594399999999E1,4.0038788E1,3.1070823999999998E1,5.4926956E1,8.5284944E1,1.5901637E1,1.9970692E1,2.2819599999999998E1,1.3713439999999999E1,1,3,8,11,14,17,18,22,23,28,32,19,15,7,3,6,8,7,12,9,4,7,7,2,
1570189286,2019-10-04 11:41:26.438,Acquired,Acquired,Acquired,Acquired,Acquired,Acquired,Acquired,Acquired,Acquired,Acquired,Acquired,Acquired,7.2994288E1,2.42621296E2,1.68119328E2,1.55296336E2,6.6987636E1,3.11760672E2,1.07498896E2,2.4396630399999998E2,1.84850528E2,2.67631216E2,4.4781915999999995E1,3.1941817599999996E2,8.0583488E1,6.0881159999999994E1,1.9612288E1,6.887594399999999E1,4.0038788E1,3.1070823999999998E1,5.4926956E1,8.5284944E1,1.5901637E1,1.9970692E1,2.2819599999999998E1,1.3713439999999999E1,1,3,8,11,14,17,18,22,23,28,32,19,15,7,3,6,8,7,12,9,4,7,7,2,
1570189346,2019-10-04 11:42:26.438,Acquired,Acquired,Acquired,Acquired,Acquired,Acquired,Acquired,Acquired,Acquired,Acquired,Acquired,Acquired,7.2994288E1,2.42621296E2,1.68119328E2,1.55296336E2,6.6987636E1,3.11760672E2,1.07498896E2,2.4396630399999998E2,1.84850528E2,2.67631216E2,4.4781915999999995E1,3.1941817599999996E2,8.0583488E1,6.0881159999999994E1,1.9612288E1,6.887594399999999E1,4.0038788E1,3.1070823999999998E1,5.4926956E1,8.5284944E1,1.5901637E1,1.9970692E1,2.2819599999999998E1,1.3713439999999999E1,1,3,8,11,14,17,18,22,23,28,32,19,15,7,3,6,8,7,12,9,4,7,7,2,
1570189406,2019-10-04 11:43:26.439,Acquired,Acquired,Acquired,Acquired,Acquired,Acquired,Acquired,Acquired,Acquired,Acquired,Acquired,Acquired,7.2994288E1,2.42621296E2,1.68119328E2,1.55296336E2,6.6987636E1,3.11760672E2,1.07498896E2,2.4396630399999998E2,1.84850528E2,2.67631216E2,4.4781915999999995E1,3.1941817599999996E2,8.0583488E1,6.0881159999999994E1,1.9612288E1,6.887594399999999E1,4.0038788E1,3.1070823999999998E1,5.4926956E1,8.5284944E1,1.5901637E1,1.9970692E1,2.2819599999999998E1,1.3713439999999999E1,1,3,8,11,14,17,18,22,23,28,32,19,15,7,3,6,8,7,12,9,4,7,7,2,
1570189466,2019-10-04 11:44:26.477,Acquired,Acquired,Acquired,Acquired,Acquired,Acquired,Acquired,Acquired,Acquired,Acquired,Acquired,Acquired,7.2994288E1,2.42621296E2,1.68119328E2,1.55296336E2,6.6987636E1,3.11760672E2,1.07498896E2,2.4396630399999998E2,1.84850528E2,2.67631216E2,4.4781915999999995E1,3.1941817599999996E2,8.0583488E1,6.0881159999999994E1,1.9612288E1,6.887594399999999E1,4.0038788E1,3.1070823999999998E1,5.4926956E1,8.5284944E1,1.5901637E1,1.9970692E1,2.2819599999999998E1,1.3713439999999999E1,1,3,8,11,14,17,18,22,23,28,32,19,15,7,3,6,8,7,12,9,4,7,7,2,
1570189526,2019-10-04 11:45:26.438,Acquired,Acquired,Acquired,Acquired,Acquired,Acquired,Acquired,Acquired,Acquired,Acquired,Acquired,Acquired,7.2994288E1,2.42621296E2,1.68119328E2,1.55296336E2,6.6987636E1,3.11760672E2,1.07498896E2,2.4396630399999998E2,1.84850528E2,2.67631216E2,4.4781915999999995E1,3.1941817599999996E2,8.0583488E1,6.0881159999999994E1,1.9612288E1,6.887594399999999E1,4.0038788E1,3.1070823999999998E1,5.4926956E1,8.5284944E1,1.5901637E1,1.9970692E1,2.2819599999999998E1,1.3713439999999999E1,1,3,8,11,14,17,18,22,23,28,32,19,15,7,3,6,8,7,12,9,4,7,7,2,
1570189586,2019-10-04 11:46:26.438,Acquired,Acquired,Acquired,Acquired,Acquired,Acquired,Acquired,Acquired,Acquired,Acquired,Acquired,Acquired,7.2994288E1,2.42621296E2,1.68119328E2,1.55296336E2,6.6987636E1,3.11760672E2,1.07498896E2,2.4396630399999998E2,1.84850528E2,2.67631216E2,4.4781915999999995E1,3.1941817599999996E2,8.0583488E1,6.0881159999999994E1,1.9612288E1,6.887594399999999E1,4.0038788E1,3.1070823999999998E1,5.4926956E1,8.5284944E1,1.5901637E1,1.9970692E1,2.2819599999999998E1,1.3713439999999999E1,1,3,8,11,14,17,18,22,23,28,32,19,15,7,3,6,8,7,12,9,4,7,7,2,
1570189646,2019-10-04 11:47:26.438,Acquired,Acquired,Acquired,Acquired,Acquired,Acquired,Acquired,Acquired,Acquired,Acquired,Acquired,Acquired,7.2994288E1,2.42621296E2,1.68119328E2,1.55296336E2,6.6987636E1,3.11760672E2,1.07498896E2,2.4396630399999998E2,1.84850528E2,2.67631216E2,4.4781915999999995E1,3.1941817599999996E2,8.0583488E1,6.0881159999999994E1,1.9612288E1,6.887594399999999E1,4.0038788E1,3.1070823999999998E1,5.4926956E1,8.5284944E1,1.5901637E1,1.9970692E1,2.2819599999999998E1,1.3713439999999999E1,1,3,8,11,14,17,18,22,23,28,32,19,15,7,3,6,8,7,12,9,4,7,7,2,
1570189706,2019-10-04 11:48:26.438,Acquired,Acquired,Acquired,Acquired,Acquired,Acquired,Acquired,Acquired,Acquired,Acquired,Acquired,Acquired,7.2994288E1,2.42621296E2,1.68119328E2,1.55296336E2,6.6987636E1,3.11760672E2,1.07498896E2,2.4396630399999998E2,1.84850528E2,2.67631216E2,4.4781915999999995E1,3.1941817599999996E2,8.0583488E1,6.0881159999999994E1,1.9612288E1,6.887594399999999E1,4.0038788E1,3.1070823999999998E1,5.4926956E1,8.5284944E1,1.5901637E1,1.9970692E1,2.2819599999999998E1,1.3713439999999999E1,1,3,8,11,14,17,18,22,23,28,32,19,15,7,3,6,8,7,12,9,4,7,7,2,
1570189766,2019-10-04 11:49:26.438,Acquired,Acquired,Acquired,Acquired,Acquired,Acquired,Acquired,Acquired,Acquired,Acquired,Acquired,Acquired,7.2994288E1,2.42621296E2,1.68119328E2,1.55296336E2,6.6987636E1,3.11760672E2,1.07498896E2,2.4396630399999998E2,1.84850528E2,2.67631216E2,4.4781915999999995E1,3.1941817599999996E2,8.0583488E1,6.0881159999999994E1,1.9612288E1,6.887594399999999E1,4.0038788E1,3.1070823999999998E1,5.4926956E1,8.5284944E1,1.5901637E1,1.9970692E1,2.2819599999999998E1,1.3713439999999999E1,1,3,8,11,14,17,18,22,23,28,32,19,15,7,3,6,8,7,12,9,4,7,7,2,
1570189826,2019-10-04 11:50:26.438,Acquired,Acquired,Acquired,Acquired,Acquired,Acquired,Acquired,Acquired,Acquired,Acquired,Acquired,Acquired,7.2994288E1,2.42621296E2,1.68119328E2,1.55296336E2,6.6987636E1,3.11760672E2,1.07498896E2,2.4396630399999998E2,1.84850528E2,2.67631216E2,4.4781915999999995E1,3.1941817599999996E2,8.0583488E1,6.0881159999999994E1,1.9612288E1,6.887594399999999E1,4.0038788E1,3.1070823999999998E1,5.4926956E1,8.5284944E1,1.5901637E1,1.9970692E1,2.2819599999999998E1,1.3713439999999999E1,1,3,8,11,14,17,18,22,23,28,32,19,15,7,3,6,8,7,12,9,4,7,7,2,
1570189886,2019-10-04 11:51:26.438,Acquired,Acquired,Acquired,Acquired,Acquired,Acquired,Acquired,Acquired,Acquired,Acquired,Acquired,Acquired,7.2994288E1,2.42621296E2,1.68119328E2,1.55296336E2,6.6987636E1,3.11760672E2,1.07498896E2,2.4396630399999998E2,1.84850528E2,2.67631216E2,4.4781915999999995E1,3.1941817599999996E2,8.0583488E1,6.0881159999999994E1,1.9612288E1,6.887594399999999E1,4.0038788E1,3.1070823999999998E1,5.4926956E1,8.5284944E1,1.5901637E1,1.9970692E1,2.2819599999999998E1,1.3713439999999999E1,1,3,8,11,14,17,18,22,23,28,32,19,15,7,3,6,8,7,12,9,4,7,7,2,
1570189946,2019-10-04 11:52:26.438,Acquired,Acquired,Acquired,Acquired,Acquired,Acquired,Acquired,Acquired,Acquired,Acquired,Acquired,Acquired,7.2994288E1,2.42621296E2,1.68119328E2,1.55296336E2,6.6987636E1,3.11760672E2,1.07498896E2,2.4396630399999998E2,1.84850528E2,2.67631216E2,4.4781915999999995E1,3.1941817599999996E2,8.0583488E1,6.0881159999999994E1,1.9612288E1,6.887594399999999E1,4.0038788E1,3.1070823999999998E1,5.4926956E1,8.5284944E1,1.5901637E1,1.9970692E1,2.2819599999999998E1,1.3713439999999999E1,1,3,8,11,14,17,18,22,23,28,32,19,15,7,3,6,8,7,12,9,4,7,7,2,
1570190006,2019-10-04 11:53:26.438,Acquired,Acquired,Acquired,Acquired,Acquired,Acquired,Acquired,Acquired,Acquired,Acquired,Acquired,Acquired,7.2994288E1,2.42621296E2,1.68119328E2,1.55296336E2,6.6987636E1,3.11760672E2,1.07498896E2,2.4396630399999998E2,1.84850528E2,2.67631216E2,4.4781915999999995E1,3.1941817599999996E2,8.0583488E1,6.0881159999999994E1,1.9612288E1,6.887594399999999E1,4.0038788E1,3.1070823999999998E1,5.4926956E1,8.5284944E1,1.5901637E1,1.9970692E1,2.2819599999999998E1,1.3713439999999999E1,1,3,8,11,14,17,18,22,23,28,32,19,15,7,3,6,8,7,12,9,4,7,7,2,
1570190066,2019-10-04 11:54:26.438,Acquired,Acquired,Acquired,Acquired,Acquired,Acquired,Acquired,Acquired,Acquired,Acquired,Acquired,Acquired,7.2994288E1,2.42621296E2,1.68119328E2,1.55296336E2,6.6987636E1,3.11760672E2,1.07498896E2,2.4396630399999998E2,1.84850528E2,2.67631216E2,4.4781915999999995E1,3.1941817599999996E2,8.0583488E1,6.0881159999999994E1,1.9612288E1,6.887594399999999E1,4.0038788E1,3.1070823999999998E1,5.4926956E1,8.5284944E1,1.5901637E1,1.9970692E1,2.2819599999999998E1,1.3713439999999999E1,1,3,8,11,14,17,18,22,23,28,32,19,15,7,3,6,8,7,12,9,4,7,7,2,
1570190126,2019-10-04 11:55:26.438,Acquired,Acquired,Acquired,Acquired,Acquired,Acquired,Acquired,Acquired,Acquired,Acquired,Acquired,Acquired,7.2994288E1,2.42621296E2,1.68119328E2,1.55296336E2,6.6987636E1,3.11760672E2,1.07498896E2,2.4396630399999998E2,1.84850528E2,2.67631216E2,4.4781915999999995E1,3.1941817599999996E2,8.0583488E1,6.0881159999999994E1,1.9612288E1,6.887594399999999E1,4.0038788E1,3.1070823999999998E1,5.4926956E1,8.5284944E1,1.5901637E1,1.9970692E1,2.2819599999999998E1,1.3713439999999999E1,1,3,8,11,14,17,18,22,23,28,32,19,15,7,3,6,8,7,12,9,4,7,7,2,
1570190186,2019-10-04 11:56:26.439,Acquired,Acquired,Acquired,Acquired,Acquired,Acquired,Acquired,Acquired,Acquired,Acquired,Acquired,Acquired,7.2994288E1,2.42621296E2,1.68119328E2,1.55296336E2,6.6987636E1,3.11760672E2,1.07498896E2,2.4396630399999998E2,1.84850528E2,2.67631216E2,4.4781915999999995E1,3.1941817599999996E2,8.0583488E1,6.0881159999999994E1,1.9612288E1,6.887594399999999E1,4.0038788E1,3.1070823999999998E1,5.4926956E1,8.5284944E1,1.5901637E1,1.9970692E1,2.2819599999999998E1,1.3713439999999999E1,1,3,8,11,14,17,18,22,23,28,32,19,15,7,3,6,8,7,12,9,4,7,7,2,
1570190246,2019-10-04 11:57:26.439,Acquired,Acquired,Acquired,Acquired,Acquired,Acquired,Acquired,Acquired,Acquired,Acquired,Acquired,Acquired,7.2994288E1,2.42621296E2,1.68119328E2,1.55296336E2,6.6987636E1,3.11760672E2,1.07498896E2,2.4396630399999998E2,1.84850528E2,2.67631216E2,4.4781915999999995E1,3.1941817599999996E2,8.0583488E1,6.0881159999999994E1,1.9612288E1,6.887594399999999E1,4.0038788E1,3.1070823999999998E1,5.4926956E1,8.5284944E1,1.5901637E1,1.9970692E1,2.2819599999999998E1,1.3713439999999999E1,1,3,8,11,14,17,18,22,23,28,32,19,15,7,3,6,8,7,12,9,4,7,7,2,
1570190306,2019-10-04 11:58:26.438,Acquired,Acquired,Acquired,Acquired,Acquired,Acquired,Acquired,Acquired,Acquired,Acquired,Acquired,Acquired,7.2994288E1,2.42621296E2,1.68119328E2,1.55296336E2,6.6987636E1,3.11760672E2,1.07498896E2,2.4396630399999998E2,1.84850528E2,2.67631216E2,4.4781915999999995E1,3.1941817599999996E2,8.0583488E1,6.0881159999999994E1,1.9612288E1,6.887594399999999E1,4.0038788E1,3.1070823999999998E1,5.4926956E1,8.5284944E1,1.5901637E1,1.9970692E1,2.2819599999999998E1,1.3713439999999999E1,1,3,8,11,14,17,18,22,23,28,32,19,15,7,3,6,8,7,12,9,4,7,7,2,
1570190366,2019-10-04 11:59:26.438,Acquired,Acquired,Acquired,Acquired,Acquired,Acquired,Acquired,Acquired,Acquired,Acquired,Acquired,Acquired,7.2994288E1,2.42621296E2,1.68119328E2,1.55296336E2,6.6987636E1,3.11760672E2,1.07498896E2,2.4396630399999998E2,1.84850528E2,2.67631216E2,4.4781915999999995E1,3.1941817599999996E2,8.0583488E1,6.0881159999999994E1,1.9612288E1,6.887594399999999E1,4.0038788E1,3.1070823999999998E1,5.4926956E1,8.5284944E1,1.5901637E1,1.9970692E1,2.2819599999999998E1,1.3713439999999999E1,1,3,8,11,14,17,18,22,23,28,32,19,15,7,3,6,8,7,12,9,4,7,7,2,
