Time(longsecs),Time(UTC),Earth Location,GPS Receiver Status,GPS Satellites Used,GPS PDOP,GPS TDOP,Timing Status,Timing Phase Lock,Timing Uncertainty(ns),DAC Count,Timing Error(ns),GPS Last Update Time,
1570226426,2019-10-04 22:00:26.438,47.638754N 0.549087E 184m,Off,8,2.307337,1.2012707,Time OK,Free running,1600,8678,0,2019-10-04 21:58:42.000000000,
1570226486,2019-10-04 22:01:26.438,47.638754N 0.549087E 184m,Off,8,2.307337,1.2012707,Time OK,Free running,2800,8678,0,2019-10-04 21:58:42.000000000,
1570226546,2019-10-04 22:02:26.438,47.638754N 0.549087E 184m,Off,8,2.307337,1.2012707,Time OK,Free running,3800,8678,0,2019-10-04 21:58:42.000000000,
1570226606,2019-10-04 22:03:26.438,47.638754N 0.549087E 184m,Off,8,2.307337,1.2012707,Time OK,Free running,4800,8678,0,2019-10-04 21:58:42.000000000,
1570226666,2019-10-04 22:04:26.441,47.638754N 0.549087E 184m,Off,8,2.307337,1.2012707,Time OK,Free running,6200,8678,0,2019-10-04 21:58:42.000000000,
1570226726,2019-10-04 22:05:26.438,47.638754N 0.549087E 184m,Off,8,2.307337,1.2012707,Time OK,Free running,7500,8678,0,2019-10-04 21:58:42.000000000,
1570226786,2019-10-04 22:06:26.438,47.638754N 0.549087E 184m,Off,8,2.307337,1.2012707,Time OK,Free running,8800,8678,0,2019-10-04 21:58:42.000000000,
1570226846,2019-10-04 22:07:26.438,47.638754N 0.549087E 184m,Off,8,2.307337,1.2012707,Time OK,Free running,10000,8678,0,2019-10-04 21:58:42.000000000,
1570226906,2019-10-04 22:08:26.438,47.638754N 0.549087E 184m,Off,8,2.307337,1.2012707,Time OK,Free running,11000,8678,0,2019-10-04 21:58:42.000000000,
1570226966,2019-10-04 22:09:26.438,47.638754N 0.549087E 184m,Off,8,2.307337,1.2012707,Time OK,Free running,12200,8678,0,2019-10-04 21:58:42.000000000,
1570227026,2019-10-04 22:10:26.439,47.638754N 0.549087E 184m,Off,8,2.307337,1.2012707,Time OK,Free running,13300,8678,0,2019-10-04 21:58:42.000000000,
1570227086,2019-10-04 22:11:26.439,47.638754N 0.549087E 184m,Off,8,2.307337,1.2012707,Time OK,Free running,14300,8678,0,2019-10-04 21:58:42.000000000,
1570227146,2019-10-04 22:12:26.438,47.638754N 0.549087E 184m,Off,8,2.307337,1.2012707,Time OK,Free running,15500,8678,0,2019-10-04 21:58:42.000000000,
1570227206,2019-10-04 22:13:26.438,47.638754N 0.549087E 184m,Off,8,2.307337,1.2012707,Time OK,Free running,16400,8678,0,2019-10-04 21:58:42.000000000,
1570227266,2019-10-04 22:14:26.438,47.638754N 0.549087E 184m,Off,8,2.307337,1.2012707,Time OK,Free running,17300,8678,0,2019-10-04 21:58:42.000000000,
1570227326,2019-10-04 22:15:26.441,47.638754N 0.549087E 184m,Off,8,2.307337,1.2012707,Time OK,Free running,18400,8678,0,2019-10-04 21:58:42.000000000,
1570227386,2019-10-04 22:16:26.439,47.638754N 0.549087E 184m,Off,8,2.307337,1.2012707,Time OK,Free running,19500,8678,0,2019-10-04 21:58:42.000000000,
1570227446,2019-10-04 22:17:26.439,47.638754N 0.549087E 184m,Off,8,2.307337,1.2012707,Time OK,Free running,20400,8678,0,2019-10-04 21:58:42.000000000,
1570227506,2019-10-04 22:18:26.439,47.638754N 0.549087E 184m,Off,8,2.307337,1.2012707,Time OK,Free running,21500,8678,0,2019-10-04 21:58:42.000000000,
1570227566,2019-10-04 22:19:26.451,47.638754N 0.549087E 184m,Off,8,2.307337,1.2012707,Time OK,Free running,22700,8678,0,2019-10-04 21:58:42.000000000,
1570227626,2019-10-04 22:20:26.438,47.638754N 0.549087E 184m,Off,8,2.307337,1.2012707,Time OK,Free running,23900,8678,0,2019-10-04 21:58:42.000000000,
1570227686,2019-10-04 22:21:26.438,47.638754N 0.549087E 184m,Off,8,2.307337,1.2012707,Time OK,Free running,25000,8678,0,2019-10-04 21:58:42.000000000,
1570227746,2019-10-04 22:22:26.438,47.638754N 0.549087E 184m,Off,8,2.307337,1.2012707,Time OK,Free running,26000,8678,0,2019-10-04 21:58:42.000000000,
1570227806,2019-10-04 22:23:26.438,47.638754N 0.549087E 184m,Off,8,2.307337,1.2012707,Time OK,Free running,27100,8678,0,2019-10-04 21:58:42.000000000,
1570227866,2019-10-04 22:24:26.438,47.638754N 0.549087E 184m,Off,8,2.307337,1.2012707,Time OK,Free running,28100,8678,0,2019-10-04 21:58:42.000000000,
1570227926,2019-10-04 22:25:26.438,47.638754N 0.549087E 184m,Off,8,2.307337,1.2012707,Time OK,Free running,29000,8678,0,2019-10-04 21:58:42.000000000,
1570227986,2019-10-04 22:26:26.438,47.638754N 0.549087E 184m,Off,8,2.307337,1.2012707,Time OK,Free running,29800,8678,0,2019-10-04 21:58:42.000000000,
1570228046,2019-10-04 22:27:26.438,47.638754N 0.549087E 184m,Off,8,2.307337,1.2012707,Time OK,Free running,30700,8678,0,2019-10-04 21:58:42.000000000,
1570228106,2019-10-04 22:28:26.438,47.638754N 0.549087E 184m,Off,8,2.307337,1.2012707,Time OK,Free running,31600,8678,0,2019-10-04 21:58:42.000000000,
1570228166,2019-10-04 22:29:26.438,47.638754N 0.549087E 184m,Off,8,2.307337,1.2012707,Time OK,Free running,32500,8678,0,2019-10-04 21:58:42.000000000,
1570228226,2019-10-04 22:30:26.438,47.638754N 0.549087E 184m,Off,8,2.307337,1.2012707,Time OK,Free running,33400,8678,0,2019-10-04 21:58:42.000000000,
1570228286,2019-10-04 22:31:26.438,47.638754N 0.549087E 184m,Off,8,2.307337,1.2012707,Time OK,Free running,34300,8678,0,2019-10-04 21:58:42.000000000,
1570228346,2019-10-04 22:32:26.438,47.638754N 0.549087E 184m,Off,8,2.307337,1.2012707,Time OK,Free running,35200,8678,0,2019-10-04 21:58:42.000000000,
1570228406,2019-10-04 22:33:26.438,47.638754N 0.549087E 184m,Off,8,2.307337,1.2012707,Time OK,Free running,36100,8678,0,2019-10-04 21:58:42.000000000,
1570228466,2019-10-04 22:34:26.438,47.638754N 0.549087E 184m,Off,8,2.307337,1.2012707,Time OK,Free running,36900,8678,0,2019-10-04 21:58:42.000000000,
1570228526,2019-10-04 22:35:26.478,47.638754N 0.549087E 184m,Off,8,2.307337,1.2012707,Time OK,Free running,37700,8678,0,2019-10-04 21:58:42.000000000,
1570228586,2019-10-04 22:36:26.438,47.638754N 0.549087E 184m,Off,8,2.307337,1.2012707,Time OK,Free running,38900,8678,0,2019-10-04 21:58:42.000000000,
1570228646,2019-10-04 22:37:26.438,47.638754N 0.549087E 184m,Off,8,2.307337,1.2012707,Time OK,Free running,40000,8678,0,2019-10-04 21:58:42.000000000,
1570228706,2019-10-04 22:38:26.438,47.638754N 0.549087E 184m,Off,8,2.307337,1.2012707,Time OK,Free running,41000,8678,0,2019-10-04 21:58:42.000000000,
1570228766,2019-10-04 22:39:26.438,47.638754N 0.549087E 184m,Off,8,2.307337,1.2012707,Time OK,Free running,42100,8678,0,2019-10-04 21:58:42.000000000,
1570228826,2019-10-04 22:40:26.439,47.638754N 0.549087E 184m,Off,8,2.307337,1.2012707,Time OK,Free running,43000,8678,0,2019-10-04 21:58:42.000000000,
1570228886,2019-10-04 22:41:26.438,47.638754N 0.549087E 184m,Off,8,2.307337,1.2012707,Time OK,Free running,44000,8678,0,2019-10-04 21:58:42.000000000,
1570228946,2019-10-04 22:42:26.478,47.638754N 0.549087E 184m,Off,8,2.307337,1.2012707,Time OK,Free running,44900,8678,0,2019-10-04 21:58:42.000000000,
1570229006,2019-10-04 22:43:26.449,47.638754N 0.549087E 184m,Off,8,2.307337,1.2012707,Time OK,Free running,45800,8678,0,2019-10-04 21:58:42.000000000,
1570229066,2019-10-04 22:44:26.438,47.638754N 0.549087E 184m,Off,8,2.307337,1.2012707,Time OK,Free running,46700,8678,0,2019-10-04 21:58:42.000000000,
1570229126,2019-10-04 22:45:26.438,47.638754N 0.549087E 184m,Off,8,2.307337,1.2012707,Time OK,Free running,47700,8678,0,2019-10-04 21:58:42.000000000,
1570229186,2019-10-04 22:46:26.439,47.638754N 0.549087E 184m,Off,8,2.307337,1.2012707,Time OK,Free running,48600,8678,0,2019-10-04 21:58:42.000000000,
1570229246,2019-10-04 22:47:26.438,47.638754N 0.549087E 184m,Off,8,2.307337,1.2012707,Time OK,Free running,49400,8678,0,2019-10-04 21:58:42.000000000,
1570229306,2019-10-04 22:48:26.438,47.638754N 0.549087E 184m,Off,8,2.307337,1.2012707,Time OK,Free running,50400,8678,0,2019-10-04 21:58:42.000000000,
1570229366,2019-10-04 22:49:26.439,47.638754N 0.549087E 184m,Doing fixes,7,2.8406575,1.1484482,Time OK,Coarse lock,100,9466,-4687,2019-10-04 22:49:23.000000000,
1570229426,2019-10-04 22:50:26.439,47.638754N 0.549087E 184m,Doing fixes,8,1.870909,0.91115874,Time OK,Coarse lock,100,8682,104,2019-10-04 22:50:23.000000000,
1570229486,2019-10-04 22:51:26.439,47.638754N 0.549087E 184m,Off,6,3.3795772,1.547762,Time OK,Free running,300,8703,0,2019-10-04 22:51:03.000000000,
1570229546,2019-10-04 22:52:26.438,47.638754N 0.549087E 184m,Off,6,3.3795772,1.547762,Time OK,Free running,1400,8703,0,2019-10-04 22:51:03.000000000,
1570229606,2019-10-04 22:53:26.441,47.638754N 0.549087E 184m,Off,6,3.3795772,1.547762,Time OK,Free running,2500,8703,0,2019-10-04 22:51:03.000000000,
1570229666,2019-10-04 22:54:26.476,47.638754N 0.549087E 184m,Off,6,3.3795772,1.547762,Time OK,Free running,3500,8703,0,2019-10-04 22:51:03.000000000,
1570229726,2019-10-04 22:55:26.489,47.638754N 0.549087E 184m,Off,6,3.3795772,1.547762,Time OK,Free running,4500,8703,0,2019-10-04 22:51:03.000000000,
1570229786,2019-10-04 22:56:26.439,47.638754N 0.549087E 184m,Off,6,3.3795772,1.547762,Time OK,Free running,5300,8703,0,2019-10-04 22:51:03.000000000,
1570229846,2019-10-04 22:57:26.438,47.638754N 0.549087E 184m,Off,6,3.3795772,1.547762,Time OK,Free running,6100,8703,0,2019-10-04 22:51:03.000000000,
1570229906,2019-10-04 22:58:26.439,47.638754N 0.549087E 184m,Off,6,3.3795772,1.547762,Time OK,Free running,7400,8703,0,2019-10-04 22:51:03.000000000,
1570229966,2019-10-04 22:59:26.438,47.638754N 0.549087E 184m,Off,6,3.3795772,1.547762,Time OK,Free running,8700,8703,0,2019-10-04 22:51:03.000000000,
