Time(longsecs),Time(UTC),GPS Satellite Acquisition Flag 1,GPS Satellite Acquisition Flag 2,GPS Satellite Acquisition Flag 3,GPS Satellite Acquisition Flag 4,GPS Satellite Acquisition Flag 5,GPS Satellite Acquisition Flag 6,GPS Satellite Acquisition Flag 7,GPS Satellite Acquisition Flag 8,GPS Satellite Acquisition Flag 9,GPS Satellite Acquisition Flag 10,GPS Satellite Acquisition Flag 11,GPS Satellite Acquisition Flag 12,GPS Satellite Azimuth 1(Degrees),GPS Satellite Azimuth 2(Degrees),GPS Satellite Azimuth 3(Degrees),GPS Satellite Azimuth 4(Degrees),GPS Satellite Azimuth 5(Degrees),GPS Satellite Azimuth 6(Degrees),GPS Satellite Azimuth 7(Degrees),GPS Satellite Azimuth 8(Degrees),GPS Satellite Azimuth 9(Degrees),GPS Satellite Azimuth 10(Degrees),GPS Satellite Azimuth 11(Degrees),GPS Satellite Azimuth 12(Degrees),GPS Satellite Elevation 1(Degrees),GPS Satellite Elevation 2(Degrees),GPS Satellite Elevation 3(Degrees),GPS Satellite Elevation 4(Degrees),GPS Satellite Elevation 5(Degrees),GPS Satellite Elevation 6(Degrees),GPS Satellite Elevation 7(Degrees),GPS Satellite Elevation 8(Degrees),GPS Satellite Elevation 9(Degrees),GPS Satellite Elevation 10(Degrees),GPS Satellite Elevation 11(Degrees),GPS Satellite Elevation 12(Degrees),GPS Satellite PRN 1,GPS Satellite PRN 2,GPS Satellite PRN 3,GPS Satellite PRN 4,GPS Satellite PRN 5,GPS Satellite PRN 6,GPS Satellite PRN 7,GPS Satellite PRN 8,GPS Satellite PRN 9,GPS Satellite PRN 10,GPS Satellite PRN 11,GPS Satellite PRN 12,GPS Satellite Signal Level 1(AMU),GPS Satellite Signal Level 2(AMU),GPS Satellite Signal Level 3(AMU),GPS Satellite Signal Level 4(AMU),GPS Satellite Signal Level 5(AMU),GPS Satellite Signal Level 6(AMU),GPS Satellite Signal Level 7(AMU),GPS Satellite Signal Level 8(AMU),GPS Satellite Signal Level 9(AMU),GPS Satellite Signal Level 10(AMU),GPS Satellite Signal Level 11(AMU),GPS Satellite Signal Level 12(AMU),
1570176026,2019-10-04 08:00:26.441,Acquired,Acquired,Acquired,Acquired,Acquired,Acquired,Acquired,Acquired,Acquired,Acquired,Acquired,Acquired,2.99824768E2,1.01579864E2,2.69564192E2,1.79068144E2,2.5171063999999998E2,6.2043664E1,6.8138584E1,9.1818336E1,2.47514448E2,2.87045856E2,2.9827942E1,1.69726016E2,5.548638E1,5.7323631999999996E1,1.4324110999999998E1,3.4315052E1,2.9794507999999997E1,4.162842E1,1.8618844E1,8.171903999999999E1,8.134167E0,1.1857809999999999E1,6.060381E0,9.67375E0,8,10,11,16,18,20,21,27,1,7,15,26,6,10,9,6,12,9,3,10,2,1,9,3,
1570176086,2019-10-04 08:01:26.473,Acquired,Acquired,Acquired,Acquired,Acquired,Acquired,Acquired,Acquired,Acquired,Acquired,Acquired,Acquired,2.99824768E2,1.01579864E2,2.69564192E2,1.79068144E2,2.5171063999999998E2,6.2043664E1,6.8138584E1,9.1818336E1,2.47514448E2,2.87045856E2,2.9827942E1,1.69726016E2,5.548638E1,5.7323631999999996E1,1.4324110999999998E1,3.4315052E1,2.9794507999999997E1,4.162842E1,1.8618844E1,8.171903999999999E1,8.134167E0,1.1857809999999999E1,6.060381E0,9.67375E0,8,10,11,16,18,20,21,27,1,7,15,26,6,10,9,6,12,9,3,10,2,1,9,3,
1570176146,2019-10-04 08:02:26.439,Acquired,Acquired,Acquired,Acquired,Acquired,Acquired,Acquired,Acquired,Acquired,Acquired,Acquired,Acquired,2.99824768E2,1.01579864E2,2.69564192E2,1.79068144E2,2.5171063999999998E2,6.2043664E1,6.8138584E1,9.1818336E1,2.47514448E2,2.87045856E2,2.9827942E1,1.69726016E2,5.548638E1,5.7323631999999996E1,1.4324110999999998E1,3.4315052E1,2.9794507999999997E1,4.162842E1,1.8618844E1,8.171903999999999E1,8.134167E0,1.1857809999999999E1,6.060381E0,9.67375E0,8,10,11,16,18,20,21,27,1,7,15,26,6,10,9,6,12,9,3,10,2,1,9,3,
1570176206,2019-10-04 08:03:26.439,Acquired,Acquired,Acquired,Acquired,Acquired,Acquired,Acquired,Acquired,Acquired,Acquired,Acquired,Acquired,2.99824768E2,1.01579864E2,2.69564192E2,1.79068144E2,2.5171063999999998E2,6.2043664E1,6.8138584E1,9.1818336E1,2.47514448E2,2.87045856E2,2.9827942E1,1.69726016E2,5.548638E1,5.7323631999999996E1,1.4324110999999998E1,3.4315052E1,2.9794507999999997E1,4.162842E1,1.8618844E1,8.171903999999999E1,8.134167E0,1.1857809999999999E1,6.060381E0,9.67375E0,8,10,11,16,18,20,21,27,1,7,15,26,6,10,9,6,12,9,3,10,2,1,9,3,
1570176266,2019-10-04 08:04:26.440,Acquired,Acquired,Acquired,Acquired,Acquired,Acquired,Acquired,Acquired,Acquired,Acquired,Acquired,Acquired,2.99824768E2,1.01579864E2,2.69564192E2,1.79068144E2,2.5171063999999998E2,6.2043664E1,6.8138584E1,9.1818336E1,2.47514448E2,2.87045856E2,2.9827942E1,1.69726016E2,5.548638E1,5.7323631999999996E1,1.4324110999999998E1,3.4315052E1,2.9794507999999997E1,4.162842E1,1.8618844E1,8.171903999999999E1,8.134167E0,1.1857809999999999E1,6.060381E0,9.67375E0,8,10,11,16,18,20,21,27,1,7,15,26,6,10,9,6,12,9,3,10,2,1,9,3,
1570176326,2019-10-04 08:05:26.439,Acquired,Acquired,Acquired,Acquired,Acquired,Acquired,Acquired,Acquired,Acquired,Acquired,Acquired,Acquired,2.99824768E2,1.01579864E2,2.69564192E2,1.79068144E2,2.5171063999999998E2,6.2043664E1,6.8138584E1,9.1818336E1,2.47514448E2,2.87045856E2,2.9827942E1,1.69726016E2,5.548638E1,5.7323631999999996E1,1.4324110999999998E1,3.4315052E1,2.9794507999999997E1,4.162842E1,1.8618844E1,8.171903999999999E1,8.134167E0,1.1857809999999999E1,6.060381E0,9.67375E0,8,10,11,16,18,20,21,27,1,7,15,26,6,10,9,6,12,9,3,10,2,1,9,3,
1570176386,2019-10-04 08:06:26.439,Acquired,Acquired,Acquired,Acquired,Acquired,Acquired,Acquired,Acquired,Acquired,Acquired,Acquired,Acquired,2.99824768E2,1.01579864E2,2.69564192E2,1.79068144E2,2.5171063999999998E2,6.2043664E1,6.8138584E1,9.1818336E1,2.47514448E2,2.87045856E2,2.9827942E1,1.69726016E2,5.548638E1,5.7323631999999996E1,1.4324110999999998E1,3.4315052E1,2.9794507999999997E1,4.162842E1,1.8618844E1,8.171903999999999E1,8.134167E0,1.1857809999999999E1,6.060381E0,9.67375E0,8,10,11,16,18,20,21,27,1,7,15,26,6,10,9,6,12,9,3,10,2,1,9,3,
1570176446,2019-10-04 08:07:26.439,Acquired,Acquired,Acquired,Acquired,Acquired,Acquired,Acquired,Acquired,Acquired,Acquired,Acquired,Acquired,2.99824768E2,1.01579864E2,2.69564192E2,1.79068144E2,2.5171063999999998E2,6.2043664E1,6.8138584E1,9.1818336E1,2.47514448E2,2.87045856E2,2.9827942E1,1.69726016E2,5.548638E1,5.7323631999999996E1,1.4324110999999998E1,3.4315052E1,2.9794507999999997E1,4.162842E1,1.8618844E1,8.171903999999999E1,8.134167E0,1.1857809999999999E1,6.060381E0,9.67375E0,8,10,11,16,18,20,21,27,1,7,15,26,6,10,9,6,12,9,3,10,2,1,9,3,
1570176506,2019-10-04 08:08:26.439,Acquired,Acquired,Acquired,Acquired,Acquired,Acquired,Acquired,Acquired,Acquired,Acquired,Acquired,Acquired,2.99824768E2,1.01579864E2,2.69564192E2,1.79068144E2,2.5171063999999998E2,6.2043664E1,6.8138584E1,9.1818336E1,2.47514448E2,2.87045856E2,2.9827942E1,1.69726016E2,5.548638E1,5.7323631999999996E1,1.4324110999999998E1,3.4315052E1,2.9794507999999997E1,4.162842E1,1.8618844E1,8.171903999999999E1,8.134167E0,1.1857809999999999E1,6.060381E0,9.67375E0,8,10,11,16,18,20,21,27,1,7,15,26,6,10,9,6,12,9,3,10,2,1,9,3,
1570176566,2019-10-04 08:09:26.439,Acquired,Acquired,Acquired,Acquired,Acquired,Acquired,Acquired,Acquired,Acquired,Acquired,Acquired,Acquired,2.99824768E2,1.01579864E2,2.69564192E2,1.79068144E2,2.5171063999999998E2,6.2043664E1,6.8138584E1,9.1818336E1,2.47514448E2,2.87045856E2,2.9827942E1,1.69726016E2,5.548638E1,5.7323631999999996E1,1.4324110999999998E1,3.4315052E1,2.9794507999999997E1,4.162842E1,1.8618844E1,8.171903999999999E1,8.134167E0,1.1857809999999999E1,6.060381E0,9.67375E0,8,10,11,16,18,20,21,27,1,7,15,26,6,10,9,6,12,9,3,10,2,1,9,3,
1570176626,2019-10-04 08:10:26.441,Acquired,Acquired,Acquired,Acquired,Acquired,Acquired,Acquired,Acquired,Acquired,Acquired,Acquired,Acquired,2.99824768E2,1.01579864E2,2.69564192E2,1.79068144E2,2.5171063999999998E2,6.2043664E1,6.8138584E1,9.1818336E1,2.47514448E2,2.87045856E2,2.9827942E1,1.69726016E2,5.548638E1,5.7323631999999996E1,1.4324110999999998E1,3.4315052E1,2.9794507999999997E1,4.162842E1,1.8618844E1,8.171903999999999E1,8.134167E0,1.1857809999999999E1,6.060381E0,9.67375E0,8,10,11,16,18,20,21,27,1,7,15,26,6,10,9,6,12,9,3,10,2,1,9,3,
1570176686,2019-10-04 08:11:26.439,Acquired,Acquired,Acquired,Acquired,Acquired,Acquired,Acquired,Acquired,Acquired,Acquired,Acquired,Acquired,2.99824768E2,1.01579864E2,2.69564192E2,1.79068144E2,2.5171063999999998E2,6.2043664E1,6.8138584E1,9.1818336E1,2.47514448E2,2.87045856E2,2.9827942E1,1.69726016E2,5.548638E1,5.7323631999999996E1,1.4324110999999998E1,3.4315052E1,2.9794507999999997E1,4.162842E1,1.8618844E1,8.171903999999999E1,8.134167E0,1.1857809999999999E1,6.060381E0,9.67375E0,8,10,11,16,18,20,21,27,1,7,15,26,6,10,9,6,12,9,3,10,2,1,9,3,
1570176746,2019-10-04 08:12:26.439,Acquired,Acquired,Acquired,Acquired,Acquired,Acquired,Acquired,Acquired,Acquired,Acquired,Acquired,Acquired,2.99824768E2,1.01579864E2,2.69564192E2,1.79068144E2,2.5171063999999998E2,6.2043664E1,6.8138584E1,9.1818336E1,2.47514448E2,2.87045856E2,2.9827942E1,1.69726016E2,5.548638E1,5.7323631999999996E1,1.4324110999999998E1,3.4315052E1,2.9794507999999997E1,4.162842E1,1.8618844E1,8.171903999999999E1,8.134167E0,1.1857809999999999E1,6.060381E0,9.67375E0,8,10,11,16,18,20,21,27,1,7,15,26,6,10,9,6,12,9,3,10,2,1,9,3,
1570176806,2019-10-04 08:13:26.439,Acquired,Acquired,Acquired,Acquired,Acquired,Acquired,Acquired,Acquired,Acquired,Acquired,Acquired,Acquired,2.99824768E2,1.01579864E2,2.69564192E2,1.79068144E2,2.5171063999999998E2,6.2043664E1,6.8138584E1,9.1818336E1,2.47514448E2,2.87045856E2,2.9827942E1,1.69726016E2,5.548638E1,5.7323631999999996E1,1.4324110999999998E1,3.4315052E1,2.9794507999999997E1,4.162842E1,1.8618844E1,8.171903999999999E1,8.134167E0,1.1857809999999999E1,6.060381E0,9.67375E0,8,10,11,16,18,20,21,27,1,7,15,26,6,10,9,6,12,9,3,10,2,1,9,3,
1570176866,2019-10-04 08:14:26.439,Acquired,Acquired,Acquired,Acquired,Acquired,Acquired,Acquired,Acquired,Acquired,Acquired,Acquired,Acquired,2.9992879999999997E2,1.0071999199999999E2,2.69784896E2,1.79038512E2,2.519956E2,6.16378E1,6.832328799999999E1,9.3859104E1,2.47765312E2,2.8664848E2,2.9455468E1,1.69709184E2,5.592284E1,5.7384436E1,1.4673827E1,3.3833904E1,3.0202022E1,4.1315912E1,1.8256562E1,8.132292799999999E1,8.508213999999999E0,1.1668695999999999E1,5.946313E0,9.250509E0,8,10,11,16,18,20,21,27,1,7,15,26,6,9,10,6,13,8,3,9,2,1,11,2,
1570176926,2019-10-04 08:15:26.439,,,Acquired,Acquired,Acquired,Acquired,Acquired,Acquired,Not acquired,Not acquired,Not acquired,Acquired,,,7.1732304E1,2.7778934399999997E2,1.78188192E2,2.6310096E2,5.2095828E1,1.2396888E2,1.20228816E2,7.5548296E1,2.08549312E2,3.03072448E2,,,5.3541148E1,2.805292E1,1.7418084E1,4.4956632E1,2.8583461999999997E1,6.526103599999999E1,1.3068392E1,5.806087E0,5.88507E0,6.544143999999999E0,,,10,11,16,18,20,27,32,21,22,30,,,7,12,5,14,12,13,0,0,0,6,
1570176986,2019-10-04 08:16:26.439,Acquired,Acquired,Acquired,Acquired,Acquired,Acquired,Acquired,Acquired,Not acquired,Not acquired,Acquired,Acquired,2.5760481599999997E2,2.98136192E2,7.108676E1,2.78010432E2,1.7816089599999998E2,2.63438288E2,5.1947368E1,1.2438154399999999E2,1.19938672E2,7.576172E1,2.08609312E2,3.026968E2,2.2382824E1,7.280556E1,5.3282784E1,2.8448829999999997E1,1.6971358E1,4.5369648E1,2.8205508E1,6.480224799999999E1,1.3397912E1,5.474119E0,6.288016E0,6.411822E0,1,8,10,11,16,18,20,27,32,21,22,30,5,14,8,12,4,13,12,10,0,0,4,8,
1570177046,2019-10-04 08:17:26.439,Acquired,Acquired,Acquired,Acquired,Acquired,Acquired,Acquired,Acquired,Not acquired,Not acquired,,Acquired,2.57883712E2,2.97782112E2,7.0488248E1,2.7822208E2,1.78134176E2,2.6377507199999997E2,5.180508E1,1.24783024E2,1.19649368E2,7.5974088E1,,3.02324768E2,2.2757514E1,7.3253176E1,5.3032768E1,2.8829666E1,1.6543739E1,4.5779748E1,2.7829795999999998E1,6.4346912E1,1.3724568999999999E1,5.145282E0,,6.2741739999999995E0,1,8,10,11,16,18,20,27,32,21,,30,5,15,10,13,4,12,12,10,0,0,,5,
1570177106,2019-10-04 08:18:26.440,Acquired,Acquired,Acquired,Acquired,Acquired,Acquired,Acquired,Acquired,Not acquired,Not acquired,,Acquired,2.57883712E2,2.97782112E2,7.0488248E1,2.7822208E2,1.78134176E2,2.6377507199999997E2,5.180508E1,1.24783024E2,1.19649368E2,7.5974088E1,,3.02324768E2,2.2757514E1,7.3253176E1,5.3032768E1,2.8829666E1,1.6543739E1,4.5779748E1,2.7829795999999998E1,6.4346912E1,1.3724568999999999E1,5.145282E0,,6.2741739999999995E0,1,8,10,11,16,18,20,27,32,21,,30,5,15,10,13,4,12,12,10,0,0,,5,
1570177166,2019-10-04 08:19:26.439,Acquired,Acquired,Acquired,Acquired,Acquired,Acquired,Acquired,Acquired,Not acquired,Not acquired,,Acquired,2.57883712E2,2.97782112E2,7.0488248E1,2.7822208E2,1.78134176E2,2.6377507199999997E2,5.180508E1,1.24783024E2,1.19649368E2,7.5974088E1,,3.02324768E2,2.2757514E1,7.3253176E1,5.3032768E1,2.8829666E1,1.6543739E1,4.5779748E1,2.7829795999999998E1,6.4346912E1,1.3724568999999999E1,5.145282E0,,6.2741739999999995E0,1,8,10,11,16,18,20,27,32,21,,30,5,15,10,13,4,12,12,10,0,0,,5,
1570177226,2019-10-04 08:20:26.439,Acquired,Acquired,Acquired,Acquired,Acquired,Acquired,Acquired,Acquired,Not acquired,Not acquired,,Acquired,2.57883712E2,2.97782112E2,7.0488248E1,2.7822208E2,1.78134176E2,2.6377507199999997E2,5.180508E1,1.24783024E2,1.19649368E2,7.5974088E1,,3.02324768E2,2.2757514E1,7.3253176E1,5.3032768E1,2.8829666E1,1.6543739E1,4.5779748E1,2.7829795999999998E1,6.4346912E1,1.3724568999999999E1,5.145282E0,,6.2741739999999995E0,1,8,10,11,16,18,20,27,32,21,,30,5,15,10,13,4,12,12,10,0,0,,5,
1570177286,2019-10-04 08:21:26.439,Acquired,Acquired,Acquired,Acquired,Acquired,Acquired,Acquired,Acquired,Not acquired,Not acquired,,Acquired,2.57883712E2,2.97782112E2,7.0488248E1,2.7822208E2,1.78134176E2,2.6377507199999997E2,5.180508E1,1.24783024E2,1.19649368E2,7.5974088E1,,3.02324768E2,2.2757514E1,7.3253176E1,5.3032768E1,2.8829666E1,1.6543739E1,4.5779748E1,2.7829795999999998E1,6.4346912E1,1.3724568999999999E1,5.145282E0,,6.2741739999999995E0,1,8,10,11,16,18,20,27,32,21,,30,5,15,10,13,4,12,12,10,0,0,,5,
1570177346,2019-10-04 08:22:26.439,Acquired,Acquired,Acquired,Acquired,Acquired,Acquired,Acquired,Acquired,Not acquired,Not acquired,,Acquired,2.57883712E2,2.97782112E2,7.0488248E1,2.7822208E2,1.78134176E2,2.6377507199999997E2,5.180508E1,1.24783024E2,1.19649368E2,7.5974088E1,,3.02324768E2,2.2757514E1,7.3253176E1,5.3032768E1,2.8829666E1,1.6543739E1,4.5779748E1,2.7829795999999998E1,6.4346912E1,1.3724568999999999E1,5.145282E0,,6.2741739999999995E0,1,8,10,11,16,18,20,27,32,21,,30,5,15,10,13,4,12,12,10,0,0,,5,
1570177406,2019-10-04 08:23:26.439,Acquired,Acquired,Acquired,Acquired,Acquired,Acquired,Acquired,Acquired,Not acquired,Not acquired,,Acquired,2.57883712E2,2.97782112E2,7.0488248E1,2.7822208E2,1.78134176E2,2.6377507199999997E2,5.180508E1,1.24783024E2,1.19649368E2,7.5974088E1,,3.02324768E2,2.2757514E1,7.3253176E1,5.3032768E1,2.8829666E1,1.6543739E1,4.5779748E1,2.7829795999999998E1,6.4346912E1,1.3724568999999999E1,5.145282E0,,6.2741739999999995E0,1,8,10,11,16,18,20,27,32,21,,30,5,15,10,13,4,12,12,10,0,0,,5,
1570177466,2019-10-04 08:24:26.439,Acquired,Acquired,Acquired,Acquired,Acquired,Acquired,Acquired,Acquired,Not acquired,Not acquired,,Acquired,2.57883712E2,2.97782112E2,7.0488248E1,2.7822208E2,1.78134176E2,2.6377507199999997E2,5.180508E1,1.24783024E2,1.19649368E2,7.5974088E1,,3.02324768E2,2.2757514E1,7.3253176E1,5.3032768E1,2.8829666E1,1.6543739E1,4.5779748E1,2.7829795999999998E1,6.4346912E1,1.3724568999999999E1,5.145282E0,,6.2741739999999995E0,1,8,10,11,16,18,20,27,32,21,,30,5,15,10,13,4,12,12,10,0,0,,5,
1570177526,2019-10-04 08:25:26.441,Acquired,Acquired,Acquired,Acquired,Acquired,Acquired,Acquired,Acquired,Not acquired,Not acquired,,Acquired,2.57883712E2,2.97782112E2,7.0488248E1,2.7822208E2,1.78134176E2,2.6377507199999997E2,5.180508E1,1.24783024E2,1.19649368E2,7.5974088E1,,3.02324768E2,2.2757514E1,7.3253176E1,5.3032768E1,2.8829666E1,1.6543739E1,4.5779748E1,2.7829795999999998E1,6.4346912E1,1.3724568999999999E1,5.145282E0,,6.2741739999999995E0,1,8,10,11,16,18,20,27,32,21,,30,5,15,10,13,4,12,12,10,0,0,,5,
1570177586,2019-10-04 08:26:26.439,Acquired,Acquired,Acquired,Acquired,Acquired,Acquired,Acquired,Acquired,Not acquired,Not acquired,,Acquired,2.57883712E2,2.97782112E2,7.0488248E1,2.7822208E2,1.78134176E2,2.6377507199999997E2,5.180508E1,1.24783024E2,1.19649368E2,7.5974088E1,,3.02324768E2,2.2757514E1,7.3253176E1,5.3032768E1,2.8829666E1,1.6543739E1,4.5779748E1,2.7829795999999998E1,6.4346912E1,1.3724568999999999E1,5.145282E0,,6.2741739999999995E0,1,8,10,11,16,18,20,27,32,21,,30,5,15,10,13,4,12,12,10,0,0,,5,
1570177646,2019-10-04 08:27:26.439,Acquired,Acquired,Acquired,Acquired,Acquired,Acquired,Acquired,Acquired,Not acquired,Not acquired,,Acquired,2.57883712E2,2.97782112E2,7.0488248E1,2.7822208E2,1.78134176E2,2.6377507199999997E2,5.180508E1,1.24783024E2,1.19649368E2,7.5974088E1,,3.02324768E2,2.2757514E1,7.3253176E1,5.3032768E1,2.8829666E1,1.6543739E1,4.5779748E1,2.7829795999999998E1,6.4346912E1,1.3724568999999999E1,5.145282E0,,6.2741739999999995E0,1,8,10,11,16,18,20,27,32,21,,30,5,15,10,13,4,12,12,10,0,0,,5,
1570177706,2019-10-04 08:28:26.439,Acquired,Acquired,Acquired,Acquired,Acquired,Acquired,Acquired,Acquired,Not acquired,Not acquired,,Acquired,2.57883712E2,2.97782112E2,7.0488248E1,2.7822208E2,1.78134176E2,2.6377507199999997E2,5.180508E1,1.24783024E2,1.19649368E2,7.5974088E1,,3.02324768E2,2.2757514E1,7.3253176E1,5.3032768E1,2.8829666E1,1.6543739E1,4.5779748E1,2.7829795999999998E1,6.4346912E1,1.3724568999999999E1,5.145282E0,,6.2741739999999995E0,1,8,10,11,16,18,20,27,32,21,,30,5,15,10,13,4,12,12,10,0,0,,5,
1570177766,2019-10-04 08:29:26.439,Acquired,Acquired,Acquired,Acquired,Acquired,Acquired,Acquired,Acquired,Not acquired,Not acquired,,Acquired,2.57883712E2,2.97782112E2,7.0488248E1,2.7822208E2,1.78134176E2,2.6377507199999997E2,5.180508E1,1.24783024E2,1.19649368E2,7.5974088E1,,3.02324768E2,2.2757514E1,7.3253176E1,5.3032768E1,2.8829666E1,1.6543739E1,4.5779748E1,2.7829795999999998E1,6.4346912E1,1.3724568999999999E1,5.145282E0,,6.2741739999999995E0,1,8,10,11,16,18,20,27,32,21,,30,5,15,10,13,4,12,12,10,0,0,,5,
1570177826,2019-10-04 08:30:26.451,Acquired,Acquired,Acquired,Acquired,Acquired,Acquired,Acquired,Acquired,Not acquired,Not acquired,,Acquired,2.57883712E2,2.97782112E2,7.0488248E1,2.7822208E2,1.78134176E2,2.6377507199999997E2,5.180508E1,1.24783024E2,1.19649368E2,7.5974088E1,,3.02324768E2,2.2757514E1,7.3253176E1,5.3032768E1,2.8829666E1,1.6543739E1,4.5779748E1,2.7829795999999998E1,6.4346912E1,1.3724568999999999E1,5.145282E0,,6.2741739999999995E0,1,8,10,11,16,18,20,27,32,21,,30,5,15,10,13,4,12,12,10,0,0,,5,
1570177886,2019-10-04 08:31:26.439,Acquired,Acquired,Acquired,Acquired,Acquired,Acquired,Acquired,Acquired,Not acquired,Not acquired,,Acquired,2.57883712E2,2.97782112E2,7.0488248E1,2.7822208E2,1.78134176E2,2.6377507199999997E2,5.180508E1,1.24783024E2,1.19649368E2,7.5974088E1,,3.02324768E2,2.2757514E1,7.3253176E1,5.3032768E1,2.8829666E1,1.6543739E1,4.5779748E1,2.7829795999999998E1,6.4346912E1,1.3724568999999999E1,5.145282E0,,6.2741739999999995E0,1,8,10,11,16,18,20,27,32,21,,30,5,15,10,13,4,12,12,10,0,0,,5,
1570177946,2019-10-04 08:32:26.439,Acquired,Acquired,Acquired,Acquired,Acquired,Acquired,Acquired,Acquired,Not acquired,Not acquired,,Acquired,2.57883712E2,2.97782112E2,7.0488248E1,2.7822208E2,1.78134176E2,2.6377507199999997E2,5.180508E1,1.24783024E2,1.19649368E2,7.5974088E1,,3.02324768E2,2.2757514E1,7.3253176E1,5.3032768E1,2.8829666E1,1.6543739E1,4.5779748E1,2.7829795999999998E1,6.4346912E1,1.3724568999999999E1,5.145282E0,,6.2741739999999995E0,1,8,10,11,16,18,20,27,32,21,,30,5,15,10,13,4,12,12,10,0,0,,5,
1570178006,2019-10-04 08:33:26.439,Acquired,Acquired,Acquired,Acquired,Acquired,Acquired,Acquired,Acquired,Not acquired,Not acquired,,Acquired,2.57883712E2,2.97782112E2,7.0488248E1,2.7822208E2,1.78134176E2,2.6377507199999997E2,5.180508E1,1.24783024E2,1.19649368E2,7.5974088E1,,3.02324768E2,2.2757514E1,7.3253176E1,5.3032768E1,2.8829666E1,1.6543739E1,4.5779748E1,2.7829795999999998E1,6.4346912E1,1.3724568999999999E1,5.145282E0,,6.2741739999999995E0,1,8,10,11,16,18,20,27,32,21,,30,5,15,10,13,4,12,12,10,0,0,,5,
1570178066,2019-10-04 08:34:26.439,Acquired,Acquired,Acquired,Acquired,Acquired,Acquired,Acquired,Acquired,Not acquired,Not acquired,,Acquired,2.57883712E2,2.97782112E2,7.0488248E1,2.7822208E2,1.78134176E2,2.6377507199999997E2,5.180508E1,1.24783024E2,1.19649368E2,7.5974088E1,,3.02324768E2,2.2757514E1,7.3253176E1,5.3032768E1,2.8829666E1,1.6543739E1,4.5779748E1,2.7829795999999998E1,6.4346912E1,1.3724568999999999E1,5.145282E0,,6.2741739999999995E0,1,8,10,11,16,18,20,27,32,21,,30,5,15,10,13,4,12,12,10,0,0,,5,
1570178126,2019-10-04 08:35:26.439,Acquired,Acquired,Acquired,Acquired,Acquired,Acquired,Acquired,Acquired,Not acquired,Not acquired,,Acquired,2.57883712E2,2.97782112E2,7.0488248E1,2.7822208E2,1.78134176E2,2.6377507199999997E2,5.180508E1,1.24783024E2,1.19649368E2,7.5974088E1,,3.02324768E2,2.2757514E1,7.3253176E1,5.3032768E1,2.8829666E1,1.6543739E1,4.5779748E1,2.7829795999999998E1,6.4346912E1,1.3724568999999999E1,5.145282E0,,6.2741739999999995E0,1,8,10,11,16,18,20,27,32,21,,30,5,15,10,13,4,12,12,10,0,0,,5,
1570178186,2019-10-04 08:36:26.441,Acquired,Acquired,Acquired,Acquired,Acquired,Acquired,Acquired,Acquired,Not acquired,Not acquired,,Acquired,2.57883712E2,2.97782112E2,7.0488248E1,2.7822208E2,1.78134176E2,2.6377507199999997E2,5.180508E1,1.24783024E2,1.19649368E2,7.5974088E1,,3.02324768E2,2.2757514E1,7.3253176E1,5.3032768E1,2.8829666E1,1.6543739E1,4.5779748E1,2.7829795999999998E1,6.4346912E1,1.3724568999999999E1,5.145282E0,,6.2741739999999995E0,1,8,10,11,16,18,20,27,32,21,,30,5,15,10,13,4,12,12,10,0,0,,5,
1570178246,2019-10-04 08:37:26.439,Acquired,Acquired,Acquired,Acquired,Acquired,Acquired,Acquired,Acquired,Not acquired,Not acquired,,Acquired,2.57883712E2,2.97782112E2,7.0488248E1,2.7822208E2,1.78134176E2,2.6377507199999997E2,5.180508E1,1.24783024E2,1.19649368E2,7.5974088E1,,3.02324768E2,2.2757514E1,7.3253176E1,5.3032768E1,2.8829666E1,1.6543739E1,4.5779748E1,2.7829795999999998E1,6.4346912E1,1.3724568999999999E1,5.145282E0,,6.2741739999999995E0,1,8,10,11,16,18,20,27,32,21,,30,5,15,10,13,4,12,12,10,0,0,,5,
1570178306,2019-10-04 08:38:26.439,Acquired,Acquired,Acquired,Acquired,Acquired,Acquired,Acquired,Acquired,Not acquired,Not acquired,,Acquired,2.57883712E2,2.97782112E2,7.0488248E1,2.7822208E2,1.78134176E2,2.6377507199999997E2,5.180508E1,1.24783024E2,1.19649368E2,7.5974088E1,,3.02324768E2,2.2757514E1,7.3253176E1,5.3032768E1,2.8829666E1,1.6543739E1,4.5779748E1,2.7829795999999998E1,6.4346912E1,1.3724568999999999E1,5.145282E0,,6.2741739999999995E0,1,8,10,11,16,18,20,27,32,21,,30,5,15,10,13,4,12,12,10,0,0,,5,
1570178366,2019-10-04 08:39:26.439,Acquired,Acquired,Acquired,Acquired,Acquired,Acquired,Acquired,Acquired,Not acquired,Not acquired,,Acquired,2.57883712E2,2.97782112E2,7.0488248E1,2.7822208E2,1.78134176E2,2.6377507199999997E2,5.180508E1,1.24783024E2,1.19649368E2,7.5974088E1,,3.02324768E2,2.2757514E1,7.3253176E1,5.3032768E1,2.8829666E1,1.6543739E1,4.5779748E1,2.7829795999999998E1,6.4346912E1,1.3724568999999999E1,5.145282E0,,6.2741739999999995E0,1,8,10,11,16,18,20,27,32,21,,30,5,15,10,13,4,12,12,10,0,0,,5,
1570178426,2019-10-04 08:40:26.439,Acquired,Acquired,Acquired,Acquired,Acquired,Acquired,Acquired,Acquired,Not acquired,Not acquired,,Acquired,2.57883712E2,2.97782112E2,7.0488248E1,2.7822208E2,1.78134176E2,2.6377507199999997E2,5.180508E1,1.24783024E2,1.19649368E2,7.5974088E1,,3.02324768E2,2.2757514E1,7.3253176E1,5.3032768E1,2.8829666E1,1.6543739E1,4.5779748E1,2.7829795999999998E1,6.4346912E1,1.3724568999999999E1,5.145282E0,,6.2741739999999995E0,1,8,10,11,16,18,20,27,32,21,,30,5,15,10,13,4,12,12,10,0,0,,5,
1570178486,2019-10-04 08:41:26.439,Acquired,Acquired,Acquired,Acquired,Acquired,Acquired,Acquired,Acquired,Not acquired,Not acquired,,Acquired,2.57883712E2,2.97782112E2,7.0488248E1,2.7822208E2,1.78134176E2,2.6377507199999997E2,5.180508E1,1.24783024E2,1.19649368E2,7.5974088E1,,3.02324768E2,2.2757514E1,7.3253176E1,5.3032768E1,2.8829666E1,1.6543739E1,4.5779748E1,2.7829795999999998E1,6.4346912E1,1.3724568999999999E1,5.145282E0,,6.2741739999999995E0,1,8,10,11,16,18,20,27,32,21,,30,5,15,10,13,4,12,12,10,0,0,,5,
1570178546,2019-10-04 08:42:26.459,Acquired,Acquired,Acquired,Acquired,Acquired,Acquired,Acquired,Acquired,Not acquired,Not acquired,,Acquired,2.57883712E2,2.97782112E2,7.0488248E1,2.7822208E2,1.78134176E2,2.6377507199999997E2,5.180508E1,1.24783024E2,1.19649368E2,7.5974088E1,,3.02324768E2,2.2757514E1,7.3253176E1,5.3032768E1,2.8829666E1,1.6543739E1,4.5779748E1,2.7829795999999998E1,6.4346912E1,1.3724568999999999E1,5.145282E0,,6.2741739999999995E0,1,8,10,11,16,18,20,27,32,21,,30,5,15,10,13,4,12,12,10,0,0,,5,
1570178606,2019-10-04 08:43:26.439,Acquired,Acquired,Acquired,Acquired,Acquired,Acquired,Acquired,Acquired,Not acquired,,Acquired,Acquired,2.58172816E2,2.97382272E2,6.9864008E1,2.7844019199999997E2,1.7810601599999998E2,2.64125248E2,5.1663208E1,1.2518979999999999E2,1.1934848799999999E2,,2.08736E2,3.0194140799999997E2,2.3145011999999998E1,7.3714552E1,5.2760723999999996E1,2.9224034E1,1.6103106999999998E1,4.620384E1,2.7440853999999998E1,6.3876304E1,1.4061601999999999E1,,7.106832E0,6.128925E0,1,8,10,11,16,18,20,27,32,,22,30,5,15,11,13,4,13,10,11,0,,5,5,
1570178666,2019-10-04 08:44:26.439,Acquired,Acquired,Acquired,Acquired,Acquired,Acquired,Acquired,Acquired,Not acquired,Acquired,Not acquired,Acquired,2.65947568E2,2.54634368E2,5.8132819999999995E1,2.83795136E2,2.74124704E2,4.9586284E1,2.10899136E2,1.33708848E2,3.2565119999999996E2,1.1085003999999999E2,1.3218752E2,1.7710894399999998E2,3.3240158E1,8.366274399999999E1,4.4295035999999996E1,3.9685704E1,5.721536E1,1.7304812E1,1.8075329999999997E1,5.1782059999999994E1,1.3274035999999999E1,2.2440936E1,1.0396754E1,5.193496E0,1,8,10,11,18,20,22,27,28,32,14,16,8,11,14,14,6,8,2,3,0,4,0,4,
1570178726,2019-10-04 08:45:26.438,Acquired,Acquired,Acquired,Acquired,Acquired,Acquired,Acquired,Acquired,Acquired,Acquired,Not acquired,Acquired,2.66251616E2,2.5055721599999998E2,5.7831232E1,2.83983136E2,2.74547424E2,4.9559779999999996E1,2.1099732799999998E2,1.3397531999999998E2,3.25455424E2,1.104982E2,1.31940024E2,1.7705888E2,3.3622831999999995E1,8.3818224E1,4.3936E1,4.008942E1,5.7630219999999994E1,1.6924478E1,1.849479E1,5.1331736E1,1.3571432E1,2.27377E1,1.0741932E1,4.801678E0,1,8,10,11,18,20,22,27,28,32,14,16,7,11,13,15,6,8,2,2,2,4,0,5,
1570178786,2019-10-04 08:46:26.439,Acquired,Acquired,Acquired,Acquired,Acquired,Acquired,Acquired,Acquired,Acquired,Acquired,Not acquired,Acquired,2.66251616E2,2.5055721599999998E2,5.7831232E1,2.83983136E2,2.74547424E2,4.9559779999999996E1,2.1099732799999998E2,1.3397531999999998E2,3.25455424E2,1.104982E2,1.31940024E2,1.7705888E2,3.3622831999999995E1,8.3818224E1,4.3936E1,4.008942E1,5.7630219999999994E1,1.6924478E1,1.849479E1,5.1331736E1,1.3571432E1,2.27377E1,1.0741932E1,4.801678E0,1,8,10,11,18,20,22,27,28,32,14,16,7,11,13,15,6,8,2,2,2,4,0,5,
1570178846,2019-10-04 08:47:26.438,Acquired,Acquired,Acquired,Acquired,Acquired,Acquired,Acquired,Acquired,Acquired,Acquired,Not acquired,Acquired,2.66251616E2,2.5055721599999998E2,5.7831232E1,2.83983136E2,2.74547424E2,4.9559779999999996E1,2.1099732799999998E2,1.3397531999999998E2,3.25455424E2,1.104982E2,1.31940024E2,1.7705888E2,3.3622831999999995E1,8.3818224E1,4.3936E1,4.008942E1,5.7630219999999994E1,1.6924478E1,1.849479E1,5.1331736E1,1.3571432E1,2.27377E1,1.0741932E1,4.801678E0,1,8,10,11,18,20,22,27,28,32,14,16,7,11,13,15,6,8,2,2,2,4,0,5,
1570178906,2019-10-04 08:48:26.438,Acquired,Acquired,Acquired,Acquired,Acquired,Acquired,Acquired,Acquired,Acquired,Acquired,Not acquired,Acquired,2.66251616E2,2.5055721599999998E2,5.7831232E1,2.83983136E2,2.74547424E2,4.9559779999999996E1,2.1099732799999998E2,1.3397531999999998E2,3.25455424E2,1.104982E2,1.31940024E2,1.7705888E2,3.3622831999999995E1,8.3818224E1,4.3936E1,4.008942E1,5.7630219999999994E1,1.6924478E1,1.849479E1,5.1331736E1,1.3571432E1,2.27377E1,1.0741932E1,4.801678E0,1,8,10,11,18,20,22,27,28,32,14,16,7,11,13,15,6,8,2,2,2,4,0,5,
1570178966,2019-10-04 08:49:26.439,Acquired,Acquired,Acquired,Acquired,Acquired,Acquired,Acquired,Acquired,Acquired,Acquired,Not acquired,Acquired,2.66251616E2,2.5055721599999998E2,5.7831232E1,2.83983136E2,2.74547424E2,4.9559779999999996E1,2.1099732799999998E2,1.3397531999999998E2,3.25455424E2,1.104982E2,1.31940024E2,1.7705888E2,3.3622831999999995E1,8.3818224E1,4.3936E1,4.008942E1,5.7630219999999994E1,1.6924478E1,1.849479E1,5.1331736E1,1.3571432E1,2.27377E1,1.0741932E1,4.801678E0,1,8,10,11,18,20,22,27,28,32,14,16,7,11,13,15,6,8,2,2,2,4,0,5,
1570179026,2019-10-04 08:50:26.439,Acquired,Acquired,Acquired,Acquired,Acquired,Acquired,Acquired,Acquired,Acquired,Acquired,Not acquired,Acquired,2.66251616E2,2.5055721599999998E2,5.7831232E1,2.83983136E2,2.74547424E2,4.9559779999999996E1,2.1099732799999998E2,1.3397531999999998E2,3.25455424E2,1.104982E2,1.31940024E2,1.7705888E2,3.3622831999999995E1,8.3818224E1,4.3936E1,4.008942E1,5.7630219999999994E1,1.6924478E1,1.849479E1,5.1331736E1,1.3571432E1,2.27377E1,1.0741932E1,4.801678E0,1,8,10,11,18,20,22,27,28,32,14,16,7,11,13,15,6,8,2,2,2,4,0,5,
1570179086,2019-10-04 08:51:26.438,Acquired,Acquired,Acquired,Acquired,Acquired,Acquired,Acquired,Acquired,Acquired,Acquired,Not acquired,Acquired,2.66251616E2,2.5055721599999998E2,5.7831232E1,2.83983136E2,2.74547424E2,4.9559779999999996E1,2.1099732799999998E2,1.3397531999999998E2,3.25455424E2,1.104982E2,1.31940024E2,1.7705888E2,3.3622831999999995E1,8.3818224E1,4.3936E1,4.008942E1,5.7630219999999994E1,1.6924478E1,1.849479E1,5.1331736E1,1.3571432E1,2.27377E1,1.0741932E1,4.801678E0,1,8,10,11,18,20,22,27,28,32,14,16,7,11,13,15,6,8,2,2,2,4,0,5,
1570179146,2019-10-04 08:52:26.438,Acquired,Acquired,Acquired,Acquired,Acquired,Acquired,Acquired,Acquired,Acquired,Acquired,Not acquired,Acquired,2.66251616E2,2.5055721599999998E2,5.7831232E1,2.83983136E2,2.74547424E2,4.9559779999999996E1,2.1099732799999998E2,1.3397531999999998E2,3.25455424E2,1.104982E2,1.31940024E2,1.7705888E2,3.3622831999999995E1,8.3818224E1,4.3936E1,4.008942E1,5.7630219999999994E1,1.6924478E1,1.849479E1,5.1331736E1,1.3571432E1,2.27377E1,1.0741932E1,4.801678E0,1,8,10,11,18,20,22,27,28,32,14,16,7,11,13,15,6,8,2,2,2,4,0,5,
1570179206,2019-10-04 08:53:26.441,Acquired,Acquired,Acquired,Acquired,Acquired,Acquired,Acquired,Acquired,Acquired,Acquired,Not acquired,Acquired,2.66251616E2,2.5055721599999998E2,5.7831232E1,2.83983136E2,2.74547424E2,4.9559779999999996E1,2.1099732799999998E2,1.3397531999999998E2,3.25455424E2,1.104982E2,1.31940024E2,1.7705888E2,3.3622831999999995E1,8.3818224E1,4.3936E1,4.008942E1,5.7630219999999994E1,1.6924478E1,1.849479E1,5.1331736E1,1.3571432E1,2.27377E1,1.0741932E1,4.801678E0,1,8,10,11,18,20,22,27,28,32,14,16,7,11,13,15,6,8,2,2,2,4,0,5,
1570179266,2019-10-04 08:54:26.439,Acquired,Acquired,Acquired,Acquired,Acquired,Acquired,Acquired,Acquired,Acquired,Acquired,Not acquired,Acquired,2.66251616E2,2.5055721599999998E2,5.7831232E1,2.83983136E2,2.74547424E2,4.9559779999999996E1,2.1099732799999998E2,1.3397531999999998E2,3.25455424E2,1.104982E2,1.31940024E2,1.7705888E2,3.3622831999999995E1,8.3818224E1,4.3936E1,4.008942E1,5.7630219999999994E1,1.6924478E1,1.849479E1,5.1331736E1,1.3571432E1,2.27377E1,1.0741932E1,4.801678E0,1,8,10,11,18,20,22,27,28,32,14,16,7,11,13,15,6,8,2,2,2,4,0,5,
1570179326,2019-10-04 08:55:26.439,Acquired,Acquired,Acquired,Acquired,Acquired,Acquired,Acquired,Acquired,Acquired,Acquired,Not acquired,Acquired,2.66251616E2,2.5055721599999998E2,5.7831232E1,2.83983136E2,2.74547424E2,4.9559779999999996E1,2.1099732799999998E2,1.3397531999999998E2,3.25455424E2,1.104982E2,1.31940024E2,1.7705888E2,3.3622831999999995E1,8.3818224E1,4.3936E1,4.008942E1,5.7630219999999994E1,1.6924478E1,1.849479E1,5.1331736E1,1.3571432E1,2.27377E1,1.0741932E1,4.801678E0,1,8,10,11,18,20,22,27,28,32,14,16,7,11,13,15,6,8,2,2,2,4,0,5,
1570179386,2019-10-04 08:56:26.438,Acquired,Acquired,Acquired,Acquired,Acquired,Acquired,Acquired,Acquired,Acquired,Acquired,Not acquired,Acquired,2.66251616E2,2.5055721599999998E2,5.7831232E1,2.83983136E2,2.74547424E2,4.9559779999999996E1,2.1099732799999998E2,1.3397531999999998E2,3.25455424E2,1.104982E2,1.31940024E2,1.7705888E2,3.3622831999999995E1,8.3818224E1,4.3936E1,4.008942E1,5.7630219999999994E1,1.6924478E1,1.849479E1,5.1331736E1,1.3571432E1,2.27377E1,1.0741932E1,4.801678E0,1,8,10,11,18,20,22,27,28,32,14,16,7,11,13,15,6,8,2,2,2,4,0,5,
1570179446,2019-10-04 08:57:26.438,Acquired,Acquired,Acquired,Acquired,Acquired,Acquired,Acquired,Acquired,Acquired,Acquired,Not acquired,Acquired,2.66251616E2,2.5055721599999998E2,5.7831232E1,2.83983136E2,2.74547424E2,4.9559779999999996E1,2.1099732799999998E2,1.3397531999999998E2,3.25455424E2,1.104982E2,1.31940024E2,1.7705888E2,3.3622831999999995E1,8.3818224E1,4.3936E1,4.008942E1,5.7630219999999994E1,1.6924478E1,1.849479E1,5.1331736E1,1.3571432E1,2.27377E1,1.0741932E1,4.801678E0,1,8,10,11,18,20,22,27,28,32,14,16,7,11,13,15,6,8,2,2,2,4,0,5,
1570179506,2019-10-04 08:58:26.488,Acquired,Acquired,Acquired,Acquired,Acquired,Acquired,Acquired,Acquired,Acquired,Acquired,Not acquired,Acquired,2.66251616E2,2.5055721599999998E2,5.7831232E1,2.83983136E2,2.74547424E2,4.9559779999999996E1,2.1099732799999998E2,1.3397531999999998E2,3.25455424E2,1.104982E2,1.31940024E2,1.7705888E2,3.3622831999999995E1,8.3818224E1,4.3936E1,4.008942E1,5.7630219999999994E1,1.6924478E1,1.849479E1,5.1331736E1,1.3571432E1,2.27377E1,1.0741932E1,4.801678E0,1,8,10,11,18,20,22,27,28,32,14,16,7,11,13,15,6,8,2,2,2,4,0,5,
1570179566,2019-10-04 08:59:26.439,Acquired,Acquired,Acquired,Acquired,Acquired,Acquired,Acquired,Acquired,Acquired,Acquired,Not acquired,Acquired,2.66251616E2,2.5055721599999998E2,5.7831232E1,2.83983136E2,2.74547424E2,4.9559779999999996E1,2.1099732799999998E2,1.3397531999999998E2,3.25455424E2,1.104982E2,1.31940024E2,1.7705888E2,3.3622831999999995E1,8.3818224E1,4.3936E1,4.008942E1,5.7630219999999994E1,1.6924478E1,1.849479E1,5.1331736E1,1.3571432E1,2.27377E1,1.0741932E1,4.801678E0,1,8,10,11,18,20,22,27,28,32,14,16,7,11,13,15,6,8,2,2,2,4,0,5,
