Time(longsecs),Time(UTC),Supply Voltage(mV),Temperature(&deg;C),NMX Bus Current(mA),Sensor Current(mA),Serial Port Current(mA),Controller Current(mA),Digitizer Current(mA),
1570266011,2019-10-05 09:00:11.767,16429,2.2306458E1,0,6,0,59,44,
1570266071,2019-10-05 09:01:11.767,16443,2.2355743E1,0,13,0,60,42,
1570266131,2019-10-05 09:02:11.767,16443,2.2285034E1,0,9,0,50,41,
1570266191,2019-10-05 09:03:11.767,16457,2.2260406E1,0,11,0,50,42,
1570266251,2019-10-05 09:04:11.767,16470,2.2105072E1,0,14,0,60,43,
1570266311,2019-10-05 09:05:11.767,16470,2.2328949E1,0,13,0,60,44,
1570266371,2019-10-05 09:06:11.767,16498,2.2377167E1,0,8,0,67,42,
1570266431,2019-10-05 09:07:11.767,16511,2.24393E1,0,8,0,60,42,
1570266491,2019-10-05 09:08:11.767,16498,2.2452148E1,0,8,0,60,42,
1570266551,2019-10-05 09:09:11.770,16538,2.2490723E1,0,11,0,66,39,
1570266611,2019-10-05 09:10:11.767,16608,2.2511078E1,0,6,0,60,39,
1570266671,2019-10-05 09:11:11.767,16635,2.2476807E1,0,7,0,58,42,
1570266731,2019-10-05 09:12:11.767,16621,2.2617126E1,0,10,0,50,39,
1570266791,2019-10-05 09:13:11.767,16662,2.2412506E1,0,9,0,50,38,
1570266851,2019-10-05 09:14:11.767,16662,2.2494995E1,0,9,0,59,40,
1570266911,2019-10-05 09:15:11.767,16648,2.2532501E1,0,2,0,59,39,
1570266971,2019-10-05 09:16:11.767,16662,2.2529297E1,0,8,0,59,40,
1570267031,2019-10-05 09:17:11.767,16635,2.2746765E1,0,6,0,50,41,
1570267091,2019-10-05 09:18:11.767,16635,2.2647125E1,0,9,0,50,37,
1570267151,2019-10-05 09:19:11.767,16635,2.259784E1,0,9,0,58,40,
1570267211,2019-10-05 09:20:11.773,16621,2.2654633E1,0,4,0,57,43,
1570267271,2019-10-05 09:21:11.767,16580,2.2575348E1,0,9,0,58,42,
1570267331,2019-10-05 09:22:11.767,16566,2.2611786E1,0,11,0,50,39,
1570267391,2019-10-05 09:23:11.767,16608,2.2657837E1,0,5,0,50,35,
1570267451,2019-10-05 09:24:11.785,16676,2.273819E1,0,13,0,58,41,
1570267511,2019-10-05 09:25:11.767,16648,2.2725342E1,0,8,0,60,38,
1570267571,2019-10-05 09:26:11.767,16621,2.2665344E1,0,10,0,50,43,
1570267631,2019-10-05 09:27:11.767,16635,2.266214E1,0,0,0,50,42,
1570267691,2019-10-05 09:28:11.767,16635,2.2728546E1,0,11,0,50,41,
1570267751,2019-10-05 09:29:11.767,16635,2.2944946E1,0,27,0,60,39,
1570267811,2019-10-05 09:30:11.767,16635,2.2684631E1,0,12,0,60,37,
1570267871,2019-10-05 09:31:11.767,16676,2.279068E1,0,9,0,60,36,
1570267931,2019-10-05 09:32:11.767,16662,2.305957E1,0,6,0,50,40,
1570267991,2019-10-05 09:33:11.767,16635,2.2812103E1,0,8,0,54,38,
1570268051,2019-10-05 09:34:11.767,16635,2.2988861E1,0,9,0,59,42,
1570268111,2019-10-05 09:35:11.767,16621,2.2972778E1,0,4,0,64,41,
1570268171,2019-10-05 09:36:11.767,16621,2.3065979E1,0,9,0,50,38,
1570268231,2019-10-05 09:37:11.769,16689,2.2769257E1,0,9,0,51,40,
1570268291,2019-10-05 09:38:11.769,16648,2.3134552E1,0,4,0,45,34,
1570268351,2019-10-05 09:39:11.777,16635,2.305957E1,0,9,0,58,46,
1570268411,2019-10-05 09:40:11.767,16621,2.3084198E1,0,5,0,59,41,
1570268471,2019-10-05 09:41:11.769,16621,2.3104553E1,0,7,0,60,37,
1570268531,2019-10-05 09:42:11.769,16621,2.3049927E1,0,11,0,54,40,
1570268591,2019-10-05 09:43:11.767,16635,2.3097046E1,0,5,0,59,40,
1570268651,2019-10-05 09:44:11.767,16635,2.3350952E1,0,5,0,59,40,
1570268711,2019-10-05 09:45:11.767,16621,2.300708E1,0,10,0,68,38,
1570268771,2019-10-05 09:46:11.767,16621,2.3284515E1,0,4,0,60,39,
1570268831,2019-10-05 09:47:11.767,16635,2.3385223E1,0,11,0,50,45,
1570268891,2019-10-05 09:48:11.769,16635,2.3332733E1,0,10,0,50,44,
1570268951,2019-10-05 09:49:11.767,16676,2.3394867E1,0,10,0,60,40,
1570269011,2019-10-05 09:50:11.767,16662,2.3288818E1,0,10,0,59,41,
1570269071,2019-10-05 09:51:11.767,16621,2.347522E1,0,12,0,54,39,
1570269131,2019-10-05 09:52:11.767,16635,2.3519135E1,0,7,0,50,39,
1570269191,2019-10-05 09:53:11.767,16511,2.3641266E1,0,8,0,50,42,
1570269251,2019-10-05 09:54:11.767,16635,2.3538422E1,0,5,0,57,41,
1570269311,2019-10-05 09:55:11.767,16635,2.386621E1,0,9,0,60,40,
1570269371,2019-10-05 09:56:11.767,16635,2.3698029E1,0,6,0,60,38,
1570269431,2019-10-05 09:57:11.781,16635,2.3665894E1,0,9,0,53,38,
1570269491,2019-10-05 09:58:11.767,16621,2.3752686E1,0,9,0,51,43,
1570269551,2019-10-05 09:59:11.767,16621,2.3805176E1,0,8,0,60,40,
