Time(longsecs),Time(UTC),External SOH Voltage 1(V),External SOH Voltage 2(V),External SOH Voltage 3(V),External SOH Voltage 4(V),Sensor SOH Voltage 1(V),Sensor SOH Voltage 2(V),Sensor SOH Voltage 3(V),
1570240811,2019-10-05 02:00:11.767,-6.3900948E-3,-6.9379807E-4,-5.018711E-3,9.083748E-4,1.9411278E-1,1.9707108E-1,1.968689E-1,
1570240871,2019-10-05 02:01:11.767,-6.2024593E-3,-1.5678406E-3,-3.7853718E-3,1.0056496E-3,1.9645882E-1,1.9831467E-1,1.9907665E-1,
1570240931,2019-10-05 02:02:11.767,-3.4761429E-3,1.6124249E-3,-1.917839E-3,3.7693977E-3,2.0154953E-1,2.0276928E-1,2.0462227E-1,
1570240991,2019-10-05 02:03:11.767,-1.8725395E-3,2.6214123E-3,-1.21831894E-4,5.9809685E-3,2.0743942E-1,2.0955753E-1,1.9624424E-1,
1570241051,2019-10-05 02:04:11.767,-1.9629002E-3,3.207922E-3,3.4332275E-4,5.586624E-3,2.078085E-1,2.093544E-1,1.9713497E-1,
1570241111,2019-10-05 02:05:11.799,-6.3900948E-3,-1.3432503E-3,-4.5101643E-3,1.2321472E-3,1.9222736E-1,1.8863392E-1,1.9198608E-1,
1570241171,2019-10-05 02:06:11.767,-3.738165E-3,9.176731E-4,-2.4404526E-3,3.4718513E-3,2.015686E-1,2.0301342E-1,1.9773388E-1,
1570241231,2019-10-05 02:07:11.767,-3.8180351E-3,1.0807514E-3,-2.2387505E-3,3.7591457E-3,2.0004177E-1,2.025137E-1,1.929636E-1,
1570241291,2019-10-05 02:08:11.769,-4.2352676E-3,6.842613E-4,-2.4533272E-3,3.6599636E-3,2.0331192E-1,2.0617771E-1,2.0324707E-1,
1570241351,2019-10-05 02:09:11.767,-4.5261383E-3,9.908676E-4,-2.8922558E-3,3.6206245E-3,1.9846249E-1,2.0150185E-1,1.9957829E-1,
1570241411,2019-10-05 02:10:11.767,-1.7409325E-3,3.029585E-3,-6.5660477E-4,5.3491592E-3,2.0990372E-1,2.1149254E-1,2.0599556E-1,
1570241471,2019-10-05 02:11:11.767,-6.151676E-3,-1.2421608E-3,-4.0471554E-3,1.2905598E-3,1.9686508E-1,1.9924068E-1,1.9708538E-1,
1570241531,2019-10-05 02:12:11.767,-4.5821667E-3,7.016659E-4,-2.3167133E-3,3.1514168E-3,2.0282078E-1,2.0401955E-1,1.9948769E-1,
1570241591,2019-10-05 02:13:11.767,-1.3861656E-3,3.175974E-3,-8.6021423E-4,5.585432E-3,2.0932674E-1,2.1120262E-1,2.0694351E-1,
1570241651,2019-10-05 02:14:11.767,-1.6429424E-3,2.8898716E-3,-6.651878E-5,5.748987E-3,2.0890808E-1,2.1025276E-1,2.0310879E-1,
1570241711,2019-10-05 02:15:11.769,-2.0005703E-3,3.09062E-3,-9.036064E-4,5.18322E-3,2.0709515E-1,2.0944309E-1,2.0889091E-1,
1570241771,2019-10-05 02:16:11.767,-1.8355846E-3,3.815651E-3,-5.2571297E-4,5.4285526E-3,2.0934391E-1,2.1058655E-1,2.0081139E-1,
1570241831,2019-10-05 02:17:11.767,-4.042864E-3,5.431175E-4,-2.5348663E-3,3.4732819E-3,2.0217037E-1,2.0475674E-1,1.9803238E-1,
1570241891,2019-10-05 02:18:11.767,-6.1762333E-3,-8.6951256E-4,-4.430294E-3,1.5487671E-3,1.9792175E-1,1.9921875E-1,1.8388748E-1,
1570241951,2019-10-05 02:19:11.773,-3.4377575E-3,1.2469292E-3,-2.221346E-3,4.057646E-3,2.028246E-1,2.0627022E-1,2.0195293E-1,
1570242011,2019-10-05 02:20:11.767,-2.0623207E-3,2.9482841E-3,-5.185604E-4,5.1267147E-3,2.054882E-1,2.0792007E-1,2.0218754E-1,
1570242071,2019-10-05 02:21:11.767,-2.2542477E-3,3.0088425E-3,-4.1341782E-4,5.277157E-3,2.0711422E-1,2.0843983E-1,2.039938E-1,
1570242131,2019-10-05 02:22:11.767,-4.0910244E-3,1.3563633E-3,-2.010107E-3,3.6845207E-3,2.0379353E-1,2.0467758E-1,2.0323372E-1,
1570242191,2019-10-05 02:23:11.767,-6.018162E-3,-1.2979507E-3,-4.4617653E-3,1.414299E-3,1.9366074E-1,1.9650173E-1,1.9538498E-1,
1570242251,2019-10-05 02:24:11.804,-3.8278103E-3,1.2080669E-3,-2.3431778E-3,4.0183067E-3,2.0294285E-1,2.0592117E-1,2.0270634E-1,
1570242311,2019-10-05 02:25:11.767,-4.252672E-3,2.1338463E-4,-1.7268658E-3,2.6123524E-3,1.9964409E-1,2.0339775E-1,2.0054817E-1,
1570242371,2019-10-05 02:26:11.767,-6.662607E-3,-1.278162E-3,-4.9188137E-3,1.7712116E-3,1.944437E-1,1.9573212E-1,2.0160007E-1,
1570242431,2019-10-05 02:27:11.767,-1.906395E-3,2.7194023E-3,-5.5909157E-4,5.7883263E-3,2.0737934E-1,2.0755768E-1,2.0355701E-1,
1570242491,2019-10-05 02:28:11.767,-1.87397E-3,3.4179688E-3,2.5510788E-5,5.4559708E-3,2.0709133E-1,2.0943356E-1,2.1361637E-1,
1570242551,2019-10-05 02:29:11.767,-4.537344E-3,5.824566E-4,-3.1421185E-3,3.323555E-3,2.0664024E-1,2.0921516E-1,2.0910645E-1,
1570242611,2019-10-05 02:30:11.767,-6.220579E-3,-1.834631E-3,-4.597664E-3,1.6067028E-3,1.9653797E-1,1.9904709E-1,1.889E-1,
1570242671,2019-10-05 02:31:11.769,-3.7407875E-3,1.1684895E-3,-2.1903515E-3,4.034519E-3,1.9930744E-1,2.0176792E-1,1.9962502E-1,
1570242731,2019-10-05 02:32:11.767,-4.5030117E-3,9.5009804E-4,-2.4542809E-3,3.054142E-3,2.0040226E-1,2.0133305E-1,2.0699596E-1,
1570242791,2019-10-05 02:33:11.767,-6.220579E-3,-1.1694431E-3,-4.9111843E-3,1.922369E-3,1.9649887E-1,1.9915581E-1,1.9521523E-1,
1570242851,2019-10-05 02:34:11.767,-3.922224E-3,1.0466576E-3,-1.8684864E-3,3.6857128E-3,2.0212936E-1,2.0398903E-1,2.0344734E-1,
1570242911,2019-10-05 02:35:11.767,-1.4929771E-3,3.750801E-3,-2.1386147E-4,6.07872E-3,2.0692635E-1,2.0992851E-1,1.9393444E-1,
1570242971,2019-10-05 02:36:11.767,-4.075527E-3,9.763241E-4,-2.0215511E-3,4.0950775E-3,2.0328903E-1,2.0565414E-1,1.9584846E-1,
1570243031,2019-10-05 02:37:11.767,-4.7678947E-3,9.384155E-4,-1.9669533E-3,3.0779839E-3,2.0070553E-1,2.0290947E-1,2.0736122E-1,
1570243091,2019-10-05 02:38:11.767,-6.05917E-3,-1.2614727E-3,-4.492283E-3,9.3483925E-4,1.9461346E-1,1.972065E-1,1.9533634E-1,
1570243151,2019-10-05 02:39:11.767,-3.5760403E-3,1.237154E-3,-2.5060177E-3,3.4782887E-3,2.03228E-1,2.0463943E-1,2.0332623E-1,
1570243211,2019-10-05 02:40:11.767,-4.1582584E-3,6.7186356E-4,-2.3009777E-3,3.0798912E-3,2.0225525E-1,2.0452023E-1,1.9712257E-1,
1570243271,2019-10-05 02:41:11.767,-3.6923885E-3,7.6055527E-4,-2.1693707E-3,3.0186176E-3,2.022152E-1,2.0507908E-1,2.00593E-1,
1570243331,2019-10-05 02:42:11.767,-4.4608116E-3,8.1157684E-4,-2.6462078E-3,3.2310486E-3,2.0199966E-1,2.0392227E-1,2.0044136E-1,
1570243391,2019-10-05 02:43:11.767,-6.4344406E-3,-1.5678406E-3,-4.4310093E-3,1.024723E-3,1.9627571E-1,1.9793034E-1,1.9393253E-1,
1570243451,2019-10-05 02:44:11.767,-3.9744377E-3,9.7060204E-4,-1.8002987E-3,3.3726692E-3,2.0175838E-1,2.0422554E-1,2.0045471E-1,
1570243511,2019-10-05 02:45:11.767,-4.9078465E-3,6.5898895E-4,-2.7720928E-3,3.3490658E-3,2.00593E-1,2.0327663E-1,1.9868279E-1,
1570243571,2019-10-05 02:46:11.767,-4.457712E-3,2.1338463E-4,-2.8998852E-3,3.1366348E-3,2.0207977E-1,2.0426369E-1,1.9961739E-1,
1570243631,2019-10-05 02:47:11.767,-6.3490868E-3,-8.1562996E-4,-4.5087337E-3,1.5950203E-3,2.0058632E-1,2.0226002E-1,2.0533657E-1,
1570243691,2019-10-05 02:48:11.777,-1.8427372E-3,3.0453205E-3,-8.1539154E-4,5.6352615E-3,2.0644379E-1,2.0964527E-1,2.0394516E-1,
1570243751,2019-10-05 02:49:11.767,-2.1317005E-3,2.439499E-3,-2.1719933E-4,5.74255E-3,2.0486736E-1,2.076788E-1,2.0837975E-1,
1570243811,2019-10-05 02:50:11.767,-6.064892E-3,-1.0516644E-3,-4.269123E-3,6.3848495E-4,1.9726944E-1,1.9890308E-1,1.9668484E-1,
1570243871,2019-10-05 02:51:11.767,-2.4092197E-3,2.6445389E-3,-1.9335747E-4,5.4097176E-3,2.0878792E-1,2.1053696E-1,2.1167183E-1,
1570243931,2019-10-05 02:52:11.767,-4.238367E-3,2.0813942E-4,-2.614975E-3,3.1371117E-3,2.0061493E-1,2.0307064E-1,1.9871998E-1,
1570243991,2019-10-05 02:53:11.767,-3.6673546E-3,5.7792664E-4,-2.2404194E-3,3.332138E-3,2.0227337E-1,2.030487E-1,1.9433212E-1,
1570244051,2019-10-05 02:54:11.767,-3.8986206E-3,1.1332035E-3,-2.5484562E-3,4.147291E-3,2.0179653E-1,2.0173359E-1,2.0573235E-1,
1570244111,2019-10-05 02:55:11.767,-6.200075E-3,-1.4750957E-3,-4.2033195E-3,1.0619164E-3,1.9424343E-1,1.9736671E-1,1.9119549E-1,
1570244171,2019-10-05 02:56:11.767,-4.024029E-3,5.927086E-4,-2.159357E-3,3.8764477E-3,2.0307922E-1,2.0628071E-1,2.0278835E-1,
1570244231,2019-10-05 02:57:11.767,-4.2107105E-3,8.845329E-4,-3.1836033E-3,3.3290386E-3,2.027607E-1,2.0528507E-1,1.9172192E-1,
1570244291,2019-10-05 02:58:11.767,-6.6945553E-3,-1.462698E-3,-4.840374E-3,8.559227E-4,1.9473076E-1,1.9715881E-1,1.9276047E-1,
1570244351,2019-10-05 02:59:11.767,-6.231308E-3,-1.303196E-3,-4.8418045E-3,1.1372566E-3,1.9712639E-1,1.9917393E-1,2.006731E-1,
