Time(longsecs),Time(UTC),Earth Location,GPS Receiver Status,GPS Satellites Used,GPS PDOP,GPS TDOP,Timing Status,Timing Phase Lock,Timing Uncertainty(ns),DAC Count,Timing Error(ns),GPS Last Update Time,
1570240811,2019-10-05 02:00:11.767,47.651114N 0.578011E 192m,Off,5,3.0192332,1.9476604,Time OK,Free running,30400,8576,0,2019-10-05 01:31:15.000000000,
1570240871,2019-10-05 02:01:11.767,47.651114N 0.578011E 192m,Off,5,3.0192332,1.9476604,Time OK,Free running,31400,8576,0,2019-10-05 01:31:15.000000000,
1570240931,2019-10-05 02:02:11.767,47.651114N 0.578011E 192m,Off,5,3.0192332,1.9476604,Time OK,Free running,32600,8576,0,2019-10-05 01:31:15.000000000,
1570240991,2019-10-05 02:03:11.767,47.651114N 0.578011E 192m,Off,5,3.0192332,1.9476604,Time OK,Free running,33900,8576,0,2019-10-05 01:31:15.000000000,
1570241051,2019-10-05 02:04:11.767,47.651114N 0.578011E 192m,Off,5,3.0192332,1.9476604,Time OK,Free running,35100,8576,0,2019-10-05 01:31:15.000000000,
1570241111,2019-10-05 02:05:11.799,47.651114N 0.578011E 192m,Off,5,3.0192332,1.9476604,Time OK,Free running,36300,8576,0,2019-10-05 01:31:15.000000000,
1570241171,2019-10-05 02:06:11.767,47.651114N 0.578011E 192m,Off,5,3.0192332,1.9476604,Time OK,Free running,37400,8576,0,2019-10-05 01:31:15.000000000,
1570241231,2019-10-05 02:07:11.767,47.651114N 0.578011E 192m,Off,5,3.0192332,1.9476604,Time OK,Free running,38300,8576,0,2019-10-05 01:31:15.000000000,
1570241291,2019-10-05 02:08:11.769,47.651114N 0.578011E 192m,Off,5,3.0192332,1.9476604,Time OK,Free running,39100,8576,0,2019-10-05 01:31:15.000000000,
1570241351,2019-10-05 02:09:11.767,47.651114N 0.578011E 192m,Off,5,3.0192332,1.9476604,Time OK,Free running,40000,8576,0,2019-10-05 01:31:15.000000000,
1570241411,2019-10-05 02:10:11.767,47.651114N 0.578011E 192m,Off,5,3.0192332,1.9476604,Time OK,Free running,41300,8576,0,2019-10-05 01:31:15.000000000,
1570241471,2019-10-05 02:11:11.767,47.651114N 0.578011E 192m,Off,5,3.0192332,1.9476604,Time OK,Free running,42500,8576,0,2019-10-05 01:31:15.000000000,
1570241531,2019-10-05 02:12:11.767,47.651114N 0.578011E 192m,Off,5,3.0192332,1.9476604,Time OK,Free running,43300,8576,0,2019-10-05 01:31:15.000000000,
1570241591,2019-10-05 02:13:11.767,47.651114N 0.578011E 192m,Off,5,3.0192332,1.9476604,Time OK,Free running,44300,8576,0,2019-10-05 01:31:15.000000000,
1570241651,2019-10-05 02:14:11.767,47.651114N 0.578011E 192m,Off,5,3.0192332,1.9476604,Time OK,Free running,45300,8576,0,2019-10-05 01:31:15.000000000,
1570241711,2019-10-05 02:15:11.769,47.651114N 0.578011E 192m,Off,5,3.0192332,1.9476604,Time OK,Free running,46500,8576,0,2019-10-05 01:31:15.000000000,
1570241771,2019-10-05 02:16:11.767,47.651114N 0.578011E 192m,Off,5,3.0192332,1.9476604,Time OK,Free running,47700,8576,0,2019-10-05 01:31:15.000000000,
1570241831,2019-10-05 02:17:11.767,47.651114N 0.578011E 192m,Off,5,3.0192332,1.9476604,Time OK,Free running,48800,8576,0,2019-10-05 01:31:15.000000000,
1570241891,2019-10-05 02:18:11.767,47.651114N 0.578011E 192m,Off,5,3.0192332,1.9476604,Time OK,Free running,49700,8576,0,2019-10-05 01:31:15.000000000,
1570241951,2019-10-05 02:19:11.773,47.651114N 0.578011E 192m,Off,5,3.0192332,1.9476604,Time OK,Free running,50700,8576,0,2019-10-05 01:31:15.000000000,
1570242011,2019-10-05 02:20:11.767,47.651114N 0.578011E 192m,Doing fixes,4,3.551903,0.5545452,Time OK,Fine lock,100,8580,0,2019-10-05 02:20:10.000000000,
1570242071,2019-10-05 02:21:11.767,47.651114N 0.578011E 192m,Doing fixes,6,2.411158,1.1294951,Time OK,Fine lock,100,8576,0,2019-10-05 02:21:10.000000000,
1570242131,2019-10-05 02:22:11.767,47.651114N 0.578011E 192m,Off,5,3.3424838,1.5871896,Time OK,Free running,500,8575,0,2019-10-05 02:21:35.000000000,
1570242191,2019-10-05 02:23:11.767,47.651114N 0.578011E 192m,Off,5,3.3424838,1.5871896,Time OK,Free running,1700,8575,0,2019-10-05 02:21:35.000000000,
1570242251,2019-10-05 02:24:11.804,47.651114N 0.578011E 192m,Off,5,3.3424838,1.5871896,Time OK,Free running,2800,8575,0,2019-10-05 02:21:35.000000000,
1570242311,2019-10-05 02:25:11.767,47.651114N 0.578011E 192m,Off,5,3.3424838,1.5871896,Time OK,Free running,3600,8575,0,2019-10-05 02:21:35.000000000,
1570242371,2019-10-05 02:26:11.767,47.651114N 0.578011E 192m,Off,5,3.3424838,1.5871896,Time OK,Free running,4600,8575,0,2019-10-05 02:21:35.000000000,
1570242431,2019-10-05 02:27:11.767,47.651114N 0.578011E 192m,Off,5,3.3424838,1.5871896,Time OK,Free running,5600,8575,0,2019-10-05 02:21:35.000000000,
1570242491,2019-10-05 02:28:11.767,47.651114N 0.578011E 192m,Off,5,3.3424838,1.5871896,Time OK,Free running,6400,8575,0,2019-10-05 02:21:35.000000000,
1570242551,2019-10-05 02:29:11.767,47.651114N 0.578011E 192m,Off,5,3.3424838,1.5871896,Time OK,Free running,7400,8575,0,2019-10-05 02:21:35.000000000,
1570242611,2019-10-05 02:30:11.767,47.651114N 0.578011E 192m,Off,5,3.3424838,1.5871896,Time OK,Free running,8400,8575,0,2019-10-05 02:21:35.000000000,
1570242671,2019-10-05 02:31:11.769,47.651114N 0.578011E 192m,Off,5,3.3424838,1.5871896,Time OK,Free running,9200,8575,0,2019-10-05 02:21:35.000000000,
1570242731,2019-10-05 02:32:11.767,47.651114N 0.578011E 192m,Off,5,3.3424838,1.5871896,Time OK,Free running,10200,8575,0,2019-10-05 02:21:35.000000000,
1570242791,2019-10-05 02:33:11.767,47.651114N 0.578011E 192m,Off,5,3.3424838,1.5871896,Time OK,Free running,11000,8575,0,2019-10-05 02:21:35.000000000,
1570242851,2019-10-05 02:34:11.767,47.651114N 0.578011E 192m,Off,5,3.3424838,1.5871896,Time OK,Free running,11800,8575,0,2019-10-05 02:21:35.000000000,
1570242911,2019-10-05 02:35:11.767,47.651114N 0.578011E 192m,Off,5,3.3424838,1.5871896,Time OK,Free running,12800,8575,0,2019-10-05 02:21:35.000000000,
1570242971,2019-10-05 02:36:11.767,47.651114N 0.578011E 192m,Off,5,3.3424838,1.5871896,Time OK,Free running,13700,8575,0,2019-10-05 02:21:35.000000000,
1570243031,2019-10-05 02:37:11.767,47.651114N 0.578011E 192m,Off,5,3.3424838,1.5871896,Time OK,Free running,14600,8575,0,2019-10-05 02:21:35.000000000,
1570243091,2019-10-05 02:38:11.767,47.651114N 0.578011E 192m,Off,5,3.3424838,1.5871896,Time OK,Free running,15700,8575,0,2019-10-05 02:21:35.000000000,
1570243151,2019-10-05 02:39:11.767,47.651114N 0.578011E 192m,Off,5,3.3424838,1.5871896,Time OK,Free running,16500,8575,0,2019-10-05 02:21:35.000000000,
1570243211,2019-10-05 02:40:11.767,47.651114N 0.578011E 192m,Off,5,3.3424838,1.5871896,Time OK,Free running,17400,8575,0,2019-10-05 02:21:35.000000000,
1570243271,2019-10-05 02:41:11.767,47.651114N 0.578011E 192m,Off,5,3.3424838,1.5871896,Time OK,Free running,18400,8575,0,2019-10-05 02:21:35.000000000,
1570243331,2019-10-05 02:42:11.767,47.651114N 0.578011E 192m,Off,5,3.3424838,1.5871896,Time OK,Free running,19300,8575,0,2019-10-05 02:21:35.000000000,
1570243391,2019-10-05 02:43:11.767,47.651114N 0.578011E 192m,Off,5,3.3424838,1.5871896,Time OK,Free running,20300,8575,0,2019-10-05 02:21:35.000000000,
1570243451,2019-10-05 02:44:11.767,47.651114N 0.578011E 192m,Off,5,3.3424838,1.5871896,Time OK,Free running,21400,8575,0,2019-10-05 02:21:35.000000000,
1570243511,2019-10-05 02:45:11.767,47.651114N 0.578011E 192m,Off,5,3.3424838,1.5871896,Time OK,Free running,22200,8575,0,2019-10-05 02:21:35.000000000,
1570243571,2019-10-05 02:46:11.767,47.651114N 0.578011E 192m,Off,5,3.3424838,1.5871896,Time OK,Free running,23100,8575,0,2019-10-05 02:21:35.000000000,
1570243631,2019-10-05 02:47:11.767,47.651114N 0.578011E 192m,Off,5,3.3424838,1.5871896,Time OK,Free running,24300,8575,0,2019-10-05 02:21:35.000000000,
1570243691,2019-10-05 02:48:11.777,47.651114N 0.578011E 192m,Off,5,3.3424838,1.5871896,Time OK,Free running,25200,8575,0,2019-10-05 02:21:35.000000000,
1570243751,2019-10-05 02:49:11.767,47.651114N 0.578011E 192m,Off,5,3.3424838,1.5871896,Time OK,Free running,26100,8575,0,2019-10-05 02:21:35.000000000,
1570243811,2019-10-05 02:50:11.767,47.651114N 0.578011E 192m,Off,5,3.3424838,1.5871896,Time OK,Free running,27000,8575,0,2019-10-05 02:21:35.000000000,
1570243871,2019-10-05 02:51:11.767,47.651114N 0.578011E 192m,Off,5,3.3424838,1.5871896,Time OK,Free running,27800,8575,0,2019-10-05 02:21:35.000000000,
1570243931,2019-10-05 02:52:11.767,47.651114N 0.578011E 192m,Off,5,3.3424838,1.5871896,Time OK,Free running,28800,8575,0,2019-10-05 02:21:35.000000000,
1570243991,2019-10-05 02:53:11.767,47.651114N 0.578011E 192m,Off,5,3.3424838,1.5871896,Time OK,Free running,29700,8575,0,2019-10-05 02:21:35.000000000,
1570244051,2019-10-05 02:54:11.767,47.651114N 0.578011E 192m,Off,5,3.3424838,1.5871896,Time OK,Free running,30500,8575,0,2019-10-05 02:21:35.000000000,
1570244111,2019-10-05 02:55:11.767,47.651114N 0.578011E 192m,Off,5,3.3424838,1.5871896,Time OK,Free running,31400,8575,0,2019-10-05 02:21:35.000000000,
1570244171,2019-10-05 02:56:11.767,47.651114N 0.578011E 192m,Off,5,3.3424838,1.5871896,Time OK,Free running,32500,8575,0,2019-10-05 02:21:35.000000000,
1570244231,2019-10-05 02:57:11.767,47.651114N 0.578011E 192m,Off,5,3.3424838,1.5871896,Time OK,Free running,33500,8575,0,2019-10-05 02:21:35.000000000,
1570244291,2019-10-05 02:58:11.767,47.651114N 0.578011E 192m,Off,5,3.3424838,1.5871896,Time OK,Free running,34300,8575,0,2019-10-05 02:21:35.000000000,
1570244351,2019-10-05 02:59:11.767,47.651114N 0.578011E 192m,Off,5,3.3424838,1.5871896,Time OK,Free running,35400,8575,0,2019-10-05 02:21:35.000000000,
