Time(longsecs),Time(UTC),External SOH Voltage 1(V),External SOH Voltage 2(V),External SOH Voltage 3(V),External SOH Voltage 4(V),Sensor SOH Voltage 1(V),Sensor SOH Voltage 2(V),Sensor SOH Voltage 3(V),
1570244411,2019-10-05 03:00:11.767,-3.4394264E-3,1.783371E-3,-1.6469955E-3,3.581047E-3,2.0229244E-1,2.036953E-1,2.0715523E-1,
1570244471,2019-10-05 03:01:11.767,-6.5209866E-3,-1.4452934E-3,-4.7843456E-3,1.0409355E-3,1.9620323E-1,1.9791222E-1,1.9677448E-1,
1570244531,2019-10-05 03:02:11.767,-6.2799454E-3,-1.3554096E-3,-3.9582253E-3,9.315014E-4,1.964016E-1,1.9896698E-1,2.0035076E-1,
1570244591,2019-10-05 03:03:11.767,-5.9940815E-3,-9.85384E-4,-4.3838024E-3,1.0848045E-3,1.9618511E-1,1.9736671E-1,1.889782E-1,
1570244651,2019-10-05 03:04:11.767,-4.5866966E-3,1.9073486E-5,-2.1455288E-3,3.4470558E-3,2.0135498E-1,2.026434E-1,1.9899082E-1,
1570244711,2019-10-05 03:05:11.777,-4.27413E-3,8.90255E-4,-2.3682117E-3,2.9895306E-3,2.0084953E-1,2.0425129E-1,1.9913101E-1,
1570244771,2019-10-05 03:06:11.767,-6.578684E-3,-1.3697147E-3,-4.2996407E-3,9.7608566E-4,1.9651222E-1,1.9893456E-1,2.009201E-1,
1570244831,2019-10-05 03:07:11.767,-3.99518E-3,9.3078613E-4,-2.1936893E-3,3.1580925E-3,2.0373344E-1,2.0497894E-1,2.0143223E-1,
1570244891,2019-10-05 03:08:11.767,-2.106905E-3,3.1580925E-3,-1.809597E-4,5.145073E-3,2.129345E-1,2.1601105E-1,2.0732689E-1,
1570244951,2019-10-05 03:09:11.767,-4.3866634E-3,8.7976456E-5,-2.3953915E-3,2.9392242E-3,2.0222282E-1,2.0534325E-1,1.9477844E-1,
1570245011,2019-10-05 03:10:11.767,-1.8248558E-3,2.850771E-3,-3.6239624E-5,5.8779716E-3,2.0454979E-1,2.0681953E-1,2.0728111E-1,
1570245071,2019-10-05 03:11:11.767,-4.4174194E-3,7.0619583E-4,-2.5343895E-3,2.8805733E-3,2.0063877E-1,2.0407295E-1,2.024622E-1,
1570245131,2019-10-05 03:12:11.767,-4.41885E-3,6.558895E-4,-2.7692318E-3,3.4923553E-3,2.015419E-1,2.0422554E-1,2.0201397E-1,
1570245191,2019-10-05 03:13:11.767,-6.010771E-3,-1.4386177E-3,-4.7090054E-3,1.1546612E-3,1.9743347E-1,1.9959831E-1,1.9940376E-1,
1570245251,2019-10-05 03:14:11.767,-3.7183762E-3,8.75473E-4,-2.1169186E-3,3.2467842E-3,2.0136642E-1,2.039175E-1,2.0092678E-1,
1570245311,2019-10-05 03:15:11.767,-3.5202503E-3,1.3003349E-3,-1.9316673E-3,3.3450127E-3,2.0110416E-1,2.0391369E-1,2.0612526E-1,
1570245371,2019-10-05 03:16:11.767,-1.8846989E-3,2.7694702E-3,-3.926754E-4,5.77116E-3,2.0710182E-1,2.1023369E-1,2.0258522E-1,
1570245431,2019-10-05 03:17:11.767,-4.0023327E-3,1.4953613E-3,-1.8618107E-3,4.315138E-3,2.0127201E-1,2.0398521E-1,1.9631863E-1,
1570245491,2019-10-05 03:18:11.767,-3.9925575E-3,1.1341572E-3,-1.8873215E-3,3.947258E-3,2.0439243E-1,2.0636463E-1,2.0546627E-1,
1570245551,2019-10-05 03:19:11.767,-4.1069984E-3,8.583069E-4,-3.1917095E-3,3.749609E-3,2.0174408E-1,2.0485497E-1,1.9576073E-1,
1570245611,2019-10-05 03:20:11.767,-6.533146E-3,-8.3708763E-4,-3.9069653E-3,1.8610954E-3,1.9431686E-1,1.970129E-1,1.9404984E-1,
1570245671,2019-10-05 03:21:11.767,-3.975153E-3,7.1525574E-4,-2.2091866E-3,3.5860538E-3,2.0159912E-1,2.0397186E-1,2.0347214E-1,
1570245731,2019-10-05 03:22:11.767,-2.0155907E-3,3.2196045E-3,-2.4032593E-4,5.1653385E-3,2.0784378E-1,2.1267796E-1,2.1102238E-1,
1570245791,2019-10-05 03:23:11.767,-6.210804E-3,-9.06229E-4,-4.4608116E-3,1.2483597E-3,1.9667244E-1,1.99646E-1,1.9115067E-1,
1570245851,2019-10-05 03:24:11.767,-2.257347E-3,3.1514168E-3,-1.1467934E-4,6.002426E-3,2.0908642E-1,2.1102047E-1,2.1133137E-1,
1570245911,2019-10-05 03:25:11.767,-6.62899E-3,-1.1966228E-3,-4.062891E-3,1.3496876E-3,1.9664001E-1,1.9919872E-1,1.8914604E-1,
1570245971,2019-10-05 03:26:11.767,-4.3928623E-3,1.8668175E-4,-3.0434132E-3,2.7439594E-3,2.0130539E-1,2.0441437E-1,2.0528889E-1,
1570246031,2019-10-05 03:27:11.767,-3.6764145E-3,9.777546E-4,-1.8715858E-3,3.2715797E-3,2.0143127E-1,2.026434E-1,1.9845295E-1,
1570246091,2019-10-05 03:28:11.767,-4.197836E-3,1.5745163E-3,-2.260685E-3,3.2420158E-3,2.0629883E-1,2.0977783E-1,2.0376396E-1,
1570246151,2019-10-05 03:29:11.767,-4.4841766E-3,5.3334236E-4,-2.6140213E-3,2.7050972E-3,2.0263004E-1,2.0458412E-1,2.0404148E-1,
1570246211,2019-10-05 03:30:11.767,-1.9438267E-3,2.8042793E-3,-9.9897385E-5,6.249428E-3,2.0850277E-1,2.1266842E-1,2.035408E-1,
1570246271,2019-10-05 03:31:11.767,-4.0459633E-3,9.622574E-4,-2.6171207E-3,3.4332275E-3,2.081356E-1,2.0897198E-1,2.0162868E-1,
1570246331,2019-10-05 03:32:11.767,-5.945921E-3,-8.854866E-4,-5.167246E-3,1.1258125E-3,1.9787216E-1,1.98102E-1,1.9769382E-1,
1570246391,2019-10-05 03:33:11.767,-3.9801598E-3,3.466606E-4,-2.2568703E-3,3.348112E-3,2.0261478E-1,2.0518112E-1,2.0835686E-1,
1570246451,2019-10-05 03:34:11.767,-3.7710667E-3,1.0738373E-3,-2.4058819E-3,3.9770603E-3,2.0164013E-1,2.0489788E-1,2.0743752E-1,
1570246511,2019-10-05 03:35:11.767,-2.4206638E-3,2.5446415E-3,-4.8041344E-4,5.909443E-3,2.0856953E-1,2.1098042E-1,2.0342636E-1,
1570246571,2019-10-05 03:36:11.767,-4.4760704E-3,6.747246E-4,-2.2559166E-3,3.178835E-3,1.9789219E-1,2.0061111E-1,2.0002079E-1,
1570246631,2019-10-05 03:37:11.767,-6.182909E-3,-1.0371208E-3,-4.2402744E-3,9.894371E-4,1.92832E-1,1.9512653E-1,1.9383335E-1,
1570246691,2019-10-05 03:38:11.767,-4.5235157E-3,5.8603287E-4,-2.578497E-3,3.209114E-3,2.0103359E-1,2.0374393E-1,1.9870758E-1,
1570246751,2019-10-05 03:39:11.767,-4.372835E-3,6.3848495E-4,-2.2518635E-3,3.569603E-3,2.0688534E-1,2.1023846E-1,2.08457E-1,
1570246811,2019-10-05 03:40:11.799,-6.9174767E-3,-1.7540455E-3,-4.725218E-3,1.4772415E-3,1.9711304E-1,1.9306183E-1,1.9585705E-1,
1570246871,2019-10-05 03:41:11.801,-4.8730373E-3,5.9747696E-4,-2.727747E-3,2.9613972E-3,2.0065498E-1,2.0061493E-1,1.990385E-1,
1570246931,2019-10-05 03:42:11.798,-4.4813156E-3,8.1062317E-4,-2.8767586E-3,3.1330585E-3,1.9839382E-1,2.0072079E-1,1.9902515E-1,
1570246991,2019-10-05 03:43:11.767,-1.4321804E-3,3.2048225E-3,2.3722649E-4,5.6385994E-3,2.0966244E-1,2.1355534E-1,2.1480846E-1,
1570247051,2019-10-05 03:44:11.767,-5.9587955E-3,-6.8473816E-4,-4.3826103E-3,1.1372566E-3,1.9716072E-1,1.9879341E-1,1.9815254E-1,
1570247111,2019-10-05 03:45:11.767,-3.9253235E-3,1.4824867E-3,-2.1209717E-3,3.2377243E-3,2.0399094E-1,2.0589447E-1,2.0426273E-1,
1570247171,2019-10-05 03:46:11.767,-4.1251183E-3,1.1744499E-3,-1.8601418E-3,3.1983852E-3,2.002449E-1,2.0291138E-1,1.9666481E-1,
1570247231,2019-10-05 03:47:11.767,-2.1028519E-3,3.0591488E-3,-3.6144257E-4,4.8525333E-3,2.0589066E-1,2.0962429E-1,2.0278168E-1,
1570247291,2019-10-05 03:48:11.767,-4.2307377E-3,1.1916161E-3,-2.4175644E-3,3.4036636E-3,2.0083046E-1,2.041254E-1,1.9637871E-1,
1570247351,2019-10-05 03:49:11.799,-2.0649433E-3,2.919197E-3,-5.1021576E-4,5.8174133E-3,2.0997524E-1,1.967659E-1,2.067728E-1,
1570247411,2019-10-05 03:50:11.767,-3.8626194E-3,1.9307137E-3,-2.0971298E-3,3.5960674E-3,2.021141E-1,2.0590973E-1,2.0468044E-1,
1570247471,2019-10-05 03:51:11.767,-3.7662983E-3,8.1801414E-4,-2.3415089E-3,3.834486E-3,2.0450687E-1,2.055378E-1,2.0356846E-1,
1570247531,2019-10-05 03:52:11.767,-2.0706654E-3,2.7611256E-3,-9.2434883E-4,5.768776E-3,2.0936012E-1,2.116909E-1,2.0123577E-1,
1570247591,2019-10-05 03:53:11.767,-3.4723282E-3,7.7295303E-4,-2.023697E-3,3.4327507E-3,2.0362663E-1,2.0618248E-1,2.025156E-1,
1570247651,2019-10-05 03:54:11.767,-2.0067692E-3,2.8061867E-3,-5.533695E-4,5.8641434E-3,2.0954418E-1,2.1074867E-1,2.0811558E-1,
1570247711,2019-10-05 03:55:11.767,-1.708746E-3,3.0977726E-3,-1.3017654E-4,5.5236816E-3,2.0864773E-1,2.1154022E-1,2.0929337E-1,
1570247771,2019-10-05 03:56:11.767,-4.336834E-3,6.3323975E-4,-2.3629665E-3,3.7429333E-3,2.0073509E-1,2.0254707E-1,1.9950008E-1,
1570247831,2019-10-05 03:57:11.767,-5.8858395E-3,-1.4154911E-3,-4.493952E-3,1.6014576E-3,2.0180225E-1,2.0464516E-1,1.9193077E-1,
1570247891,2019-10-05 03:58:11.801,-2.4969578E-3,2.7360916E-3,-2.272129E-4,5.44858E-3,2.0996761E-1,2.0641041E-1,2.0722294E-1,
1570247951,2019-10-05 03:59:11.767,-6.453514E-3,-7.326603E-4,-4.688263E-3,1.5876293E-3,1.9312859E-1,1.9650173E-1,1.9624424E-1,
