Time(longsecs),Time(UTC),Earth Location,GPS Receiver Status,GPS Satellites Used,GPS PDOP,GPS TDOP,Timing Status,Timing Phase Lock,Timing Uncertainty(ns),DAC Count,Timing Error(ns),GPS Last Update Time,
1570417247,2019-10-07 03:00:47.257,47.636202N 0.583807E 215m,Off,5,3.700719,2.4954019,Time OK,Free running,10000,9146,0,2019-10-07 02:50:44.000000000,
1570417307,2019-10-07 03:01:47.260,47.636202N 0.583807E 215m,Off,5,3.700719,2.4954019,Time OK,Free running,10900,9146,0,2019-10-07 02:50:44.000000000,
1570417367,2019-10-07 03:02:47.257,47.636202N 0.583807E 215m,Off,5,3.700719,2.4954019,Time OK,Free running,11900,9146,0,2019-10-07 02:50:44.000000000,
1570417427,2019-10-07 03:03:47.257,47.636202N 0.583807E 215m,Off,5,3.700719,2.4954019,Time OK,Free running,12700,9146,0,2019-10-07 02:50:44.000000000,
1570417487,2019-10-07 03:04:47.257,47.636202N 0.583807E 215m,Off,5,3.700719,2.4954019,Time OK,Free running,13600,9146,0,2019-10-07 02:50:44.000000000,
1570417547,2019-10-07 03:05:47.257,47.636202N 0.583807E 215m,Off,5,3.700719,2.4954019,Time OK,Free running,14500,9146,0,2019-10-07 02:50:44.000000000,
1570417607,2019-10-07 03:06:47.257,47.636202N 0.583807E 215m,Off,5,3.700719,2.4954019,Time OK,Free running,15300,9146,0,2019-10-07 02:50:44.000000000,
1570417667,2019-10-07 03:07:47.257,47.636202N 0.583807E 215m,Off,5,3.700719,2.4954019,Time OK,Free running,16100,9146,0,2019-10-07 02:50:44.000000000,
1570417727,2019-10-07 03:08:47.257,47.636202N 0.583807E 215m,Off,5,3.700719,2.4954019,Time OK,Free running,17000,9146,0,2019-10-07 02:50:44.000000000,
1570417787,2019-10-07 03:09:47.257,47.636202N 0.583807E 215m,Off,5,3.700719,2.4954019,Time OK,Free running,17800,9146,0,2019-10-07 02:50:44.000000000,
1570417847,2019-10-07 03:10:47.257,47.636202N 0.583807E 215m,Off,5,3.700719,2.4954019,Time OK,Free running,18900,9146,0,2019-10-07 02:50:44.000000000,
1570417907,2019-10-07 03:11:47.257,47.636202N 0.583807E 215m,Off,5,3.700719,2.4954019,Time OK,Free running,19900,9146,0,2019-10-07 02:50:44.000000000,
1570417967,2019-10-07 03:12:47.260,47.636202N 0.583807E 215m,Off,5,3.700719,2.4954019,Time OK,Free running,20700,9146,0,2019-10-07 02:50:44.000000000,
1570418027,2019-10-07 03:13:47.257,47.636202N 0.583807E 215m,Off,5,3.700719,2.4954019,Time OK,Free running,21700,9146,0,2019-10-07 02:50:44.000000000,
1570418087,2019-10-07 03:14:47.257,47.636202N 0.583807E 215m,Off,5,3.700719,2.4954019,Time OK,Free running,22700,9146,0,2019-10-07 02:50:44.000000000,
1570418147,2019-10-07 03:15:47.257,47.636202N 0.583807E 215m,Off,5,3.700719,2.4954019,Time OK,Free running,23600,9146,0,2019-10-07 02:50:44.000000000,
1570418207,2019-10-07 03:16:47.257,47.636202N 0.583807E 215m,Off,5,3.700719,2.4954019,Time OK,Free running,24400,9146,0,2019-10-07 02:50:44.000000000,
1570418267,2019-10-07 03:17:47.257,47.636202N 0.583807E 215m,Off,5,3.700719,2.4954019,Time OK,Free running,25400,9146,0,2019-10-07 02:50:44.000000000,
1570418327,2019-10-07 03:18:47.257,47.636202N 0.583807E 215m,Off,5,3.700719,2.4954019,Time OK,Free running,26400,9146,0,2019-10-07 02:50:44.000000000,
1570418387,2019-10-07 03:19:47.257,47.636202N 0.583807E 215m,Off,5,3.700719,2.4954019,Time OK,Free running,27600,9146,0,2019-10-07 02:50:44.000000000,
1570418447,2019-10-07 03:20:47.258,47.636202N 0.583807E 215m,Off,5,3.700719,2.4954019,Time OK,Free running,28800,9146,0,2019-10-07 02:50:44.000000000,
1570418507,2019-10-07 03:21:47.257,47.636202N 0.583807E 215m,Off,5,3.700719,2.4954019,Time OK,Free running,29700,9146,0,2019-10-07 02:50:44.000000000,
1570418567,2019-10-07 03:22:47.257,47.636202N 0.583807E 215m,Off,5,3.700719,2.4954019,Time OK,Free running,30900,9146,0,2019-10-07 02:50:44.000000000,
1570418627,2019-10-07 03:23:47.257,47.636202N 0.583807E 215m,Off,5,3.700719,2.4954019,Time OK,Free running,32400,9146,0,2019-10-07 02:50:44.000000000,
1570418687,2019-10-07 03:24:47.257,47.636202N 0.583807E 215m,Off,5,3.700719,2.4954019,Time OK,Free running,33500,9146,0,2019-10-07 02:50:44.000000000,
1570418747,2019-10-07 03:25:47.257,47.636202N 0.583807E 215m,Off,5,3.700719,2.4954019,Time OK,Free running,34300,9146,0,2019-10-07 02:50:44.000000000,
1570418807,2019-10-07 03:26:47.298,47.636202N 0.583807E 215m,Off,5,3.700719,2.4954019,Time OK,Free running,35200,9146,0,2019-10-07 02:50:44.000000000,
1570418867,2019-10-07 03:27:47.257,47.636202N 0.583807E 215m,Off,5,3.700719,2.4954019,Time OK,Free running,36100,9146,0,2019-10-07 02:50:44.000000000,
1570418927,2019-10-07 03:28:47.257,47.636202N 0.583807E 215m,Off,5,3.700719,2.4954019,Time OK,Free running,37100,9146,0,2019-10-07 02:50:44.000000000,
1570418987,2019-10-07 03:29:47.257,47.636202N 0.583807E 215m,Off,5,3.700719,2.4954019,Time OK,Free running,38400,9146,0,2019-10-07 02:50:44.000000000,
1570419047,2019-10-07 03:30:47.257,47.636202N 0.583807E 215m,Off,5,3.700719,2.4954019,Time OK,Free running,39500,9146,0,2019-10-07 02:50:44.000000000,
1570419107,2019-10-07 03:31:47.257,47.636202N 0.583807E 215m,Off,5,3.700719,2.4954019,Time OK,Free running,40600,9146,0,2019-10-07 02:50:44.000000000,
1570419167,2019-10-07 03:32:47.258,47.636202N 0.583807E 215m,Off,5,3.700719,2.4954019,Time OK,Free running,41800,9146,0,2019-10-07 02:50:44.000000000,
1570419227,2019-10-07 03:33:47.257,47.636202N 0.583807E 215m,Off,5,3.700719,2.4954019,Time OK,Free running,42900,9146,0,2019-10-07 02:50:44.000000000,
1570419287,2019-10-07 03:34:47.257,47.636202N 0.583807E 215m,Off,5,3.700719,2.4954019,Time OK,Free running,44200,9146,0,2019-10-07 02:50:44.000000000,
1570419347,2019-10-07 03:35:47.257,47.636202N 0.583807E 215m,Off,5,3.700719,2.4954019,Time OK,Free running,45400,9146,0,2019-10-07 02:50:44.000000000,
1570419407,2019-10-07 03:36:47.257,47.636202N 0.583807E 215m,Off,5,3.700719,2.4954019,Time OK,Free running,46300,9146,0,2019-10-07 02:50:44.000000000,
1570419467,2019-10-07 03:37:47.257,47.636202N 0.583807E 215m,Off,5,3.700719,2.4954019,Time OK,Free running,47700,9146,0,2019-10-07 02:50:44.000000000,
1570419527,2019-10-07 03:38:47.257,47.636202N 0.583807E 215m,Off,5,3.700719,2.4954019,Time OK,Free running,49100,9146,0,2019-10-07 02:50:44.000000000,
1570419587,2019-10-07 03:39:47.257,47.636202N 0.583807E 215m,Off,5,3.700719,2.4954019,Time OK,Free running,50200,9146,0,2019-10-07 02:50:44.000000000,
1570419647,2019-10-07 03:40:47.257,47.636202N 0.583807E 215m,No GPS time,5,3.700719,2.4954019,Time OK,Free running,51500,9146,0,2019-10-07 02:50:44.000000000,
1570419707,2019-10-07 03:41:47.290,47.636202N 0.583807E 215m,Doing fixes,5,5.534471,4.0704203,Time OK,Coarse lock,100,9124,-208,2019-10-07 03:41:44.000000000,
1570419767,2019-10-07 03:42:47.258,47.636202N 0.583807E 215m,Doing fixes,5,3.4568202,2.14341,Time OK,Fine lock,100,9138,0,2019-10-07 03:42:44.000000000,
1570419827,2019-10-07 03:43:47.258,47.636202N 0.583807E 215m,Doing fixes,5,3.3863177,2.1207054,Time OK,Fine lock,100,9136,0,2019-10-07 03:43:44.000000000,
1570419887,2019-10-07 03:44:47.258,47.636202N 0.583807E 215m,Doing fixes,5,3.3738666,2.1080468,Time OK,Fine lock,100,9136,0,2019-10-07 03:44:44.000000000,
1570419947,2019-10-07 03:45:47.257,47.636202N 0.583807E 215m,Off,6,2.9149823,1.8492161,Time OK,Free running,300,9136,0,2019-10-07 03:45:24.000000000,
1570420007,2019-10-07 03:46:47.257,47.636202N 0.583807E 215m,Off,6,2.9149823,1.8492161,Time OK,Free running,1200,9136,0,2019-10-07 03:45:24.000000000,
1570420067,2019-10-07 03:47:47.257,47.636202N 0.583807E 215m,Off,6,2.9149823,1.8492161,Time OK,Free running,2000,9136,0,2019-10-07 03:45:24.000000000,
1570420127,2019-10-07 03:48:47.257,47.636202N 0.583807E 215m,Off,6,2.9149823,1.8492161,Time OK,Free running,2800,9136,0,2019-10-07 03:45:24.000000000,
1570420187,2019-10-07 03:49:47.257,47.636202N 0.583807E 215m,Off,6,2.9149823,1.8492161,Time OK,Free running,3700,9136,0,2019-10-07 03:45:24.000000000,
1570420247,2019-10-07 03:50:47.257,47.636202N 0.583807E 215m,Off,6,2.9149823,1.8492161,Time OK,Free running,4500,9136,0,2019-10-07 03:45:24.000000000,
1570420307,2019-10-07 03:51:47.257,47.636202N 0.583807E 215m,Off,6,2.9149823,1.8492161,Time OK,Free running,5300,9136,0,2019-10-07 03:45:24.000000000,
1570420367,2019-10-07 03:52:47.257,47.636202N 0.583807E 215m,Off,6,2.9149823,1.8492161,Time OK,Free running,6200,9136,0,2019-10-07 03:45:24.000000000,
1570420427,2019-10-07 03:53:47.260,47.636202N 0.583807E 215m,Off,6,2.9149823,1.8492161,Time OK,Free running,7000,9136,0,2019-10-07 03:45:24.000000000,
1570420487,2019-10-07 03:54:47.257,47.636202N 0.583807E 215m,Off,6,2.9149823,1.8492161,Time OK,Free running,7900,9136,0,2019-10-07 03:45:24.000000000,
1570420547,2019-10-07 03:55:47.257,47.636202N 0.583807E 215m,Off,6,2.9149823,1.8492161,Time OK,Free running,9100,9136,0,2019-10-07 03:45:24.000000000,
1570420607,2019-10-07 03:56:47.257,47.636202N 0.583807E 215m,Off,6,2.9149823,1.8492161,Time OK,Free running,10100,9136,0,2019-10-07 03:45:24.000000000,
1570420667,2019-10-07 03:57:47.257,47.636202N 0.583807E 215m,Off,6,2.9149823,1.8492161,Time OK,Free running,11000,9136,0,2019-10-07 03:45:24.000000000,
1570420727,2019-10-07 03:58:47.257,47.636202N 0.583807E 215m,Off,6,2.9149823,1.8492161,Time OK,Free running,11900,9136,0,2019-10-07 03:45:24.000000000,
1570420787,2019-10-07 03:59:47.257,47.636202N 0.583807E 215m,Off,6,2.9149823,1.8492161,Time OK,Free running,12700,9136,0,2019-10-07 03:45:24.000000000,
