Time(longsecs),Time(UTC),GPS Satellite Acquisition Flag 1,GPS Satellite Acquisition Flag 2,GPS Satellite Acquisition Flag 3,GPS Satellite Acquisition Flag 4,GPS Satellite Acquisition Flag 5,GPS Satellite Acquisition Flag 6,GPS Satellite Acquisition Flag 7,GPS Satellite Acquisition Flag 8,GPS Satellite Acquisition Flag 9,GPS Satellite Acquisition Flag 10,GPS Satellite Acquisition Flag 11,GPS Satellite Acquisition Flag 12,GPS Satellite Azimuth 1(Degrees),GPS Satellite Azimuth 2(Degrees),GPS Satellite Azimuth 3(Degrees),GPS Satellite Azimuth 4(Degrees),GPS Satellite Azimuth 5(Degrees),GPS Satellite Azimuth 6(Degrees),GPS Satellite Azimuth 7(Degrees),GPS Satellite Azimuth 8(Degrees),GPS Satellite Azimuth 9(Degrees),GPS Satellite Azimuth 10(Degrees),GPS Satellite Azimuth 11(Degrees),GPS Satellite Azimuth 12(Degrees),GPS Satellite Elevation 1(Degrees),GPS Satellite Elevation 2(Degrees),GPS Satellite Elevation 3(Degrees),GPS Satellite Elevation 4(Degrees),GPS Satellite Elevation 5(Degrees),GPS Satellite Elevation 6(Degrees),GPS Satellite Elevation 7(Degrees),GPS Satellite Elevation 8(Degrees),GPS Satellite Elevation 9(Degrees),GPS Satellite Elevation 10(Degrees),GPS Satellite Elevation 11(Degrees),GPS Satellite Elevation 12(Degrees),GPS Satellite PRN 1,GPS Satellite PRN 2,GPS Satellite PRN 3,GPS Satellite PRN 4,GPS Satellite PRN 5,GPS Satellite PRN 6,GPS Satellite PRN 7,GPS Satellite PRN 8,GPS Satellite PRN 9,GPS Satellite PRN 10,GPS Satellite PRN 11,GPS Satellite PRN 12,GPS Satellite Signal Level 1(AMU),GPS Satellite Signal Level 2(AMU),GPS Satellite Signal Level 3(AMU),GPS Satellite Signal Level 4(AMU),GPS Satellite Signal Level 5(AMU),GPS Satellite Signal Level 6(AMU),GPS Satellite Signal Level 7(AMU),GPS Satellite Signal Level 8(AMU),GPS Satellite Signal Level 9(AMU),GPS Satellite Signal Level 10(AMU),GPS Satellite Signal Level 11(AMU),GPS Satellite Signal Level 12(AMU),
1570410047,2019-10-07 01:00:47.257,Acquired,Not acquired,Acquired,Acquired,Acquired,Acquired,Acquired,Acquired,Acquired,Not acquired,,,9.8165576E1,5.414494E1,5.9755496E1,3.0312543999999997E2,1.33761672E2,2.75440768E2,1.94496544E2,3.0310895999999997E2,2.7019648E2,3.7513992E1,,,2.5403924E1,1.9958766E1,6.253856E1,3.3519718E1,3.828036E1,6.6779292E1,2.9303116E1,1.6718736E1,4.3509119999999996E1,7.426616999999999E0,,,2,6,12,14,24,25,29,31,32,19,,,3,0,4,4,15,13,8,3,5,0,,,
1570410107,2019-10-07 01:01:47.257,Acquired,Not acquired,Acquired,Acquired,Acquired,Acquired,Acquired,Acquired,Acquired,Not acquired,,,9.8165576E1,5.414494E1,5.9755496E1,3.0312543999999997E2,1.33761672E2,2.75440768E2,1.94496544E2,3.0310895999999997E2,2.7019648E2,3.7513992E1,,,2.5403924E1,1.9958766E1,6.253856E1,3.3519718E1,3.828036E1,6.6779292E1,2.9303116E1,1.6718736E1,4.3509119999999996E1,7.426616999999999E0,,,2,6,12,14,24,25,29,31,32,19,,,3,0,4,4,15,13,8,3,5,0,,,
1570410167,2019-10-07 01:02:47.257,Acquired,Not acquired,Acquired,Acquired,Acquired,Acquired,Acquired,Acquired,Acquired,Not acquired,,,9.8165576E1,5.414494E1,5.9755496E1,3.0312543999999997E2,1.33761672E2,2.75440768E2,1.94496544E2,3.0310895999999997E2,2.7019648E2,3.7513992E1,,,2.5403924E1,1.9958766E1,6.253856E1,3.3519718E1,3.828036E1,6.6779292E1,2.9303116E1,1.6718736E1,4.3509119999999996E1,7.426616999999999E0,,,2,6,12,14,24,25,29,31,32,19,,,3,0,4,4,15,13,8,3,5,0,,,
1570410227,2019-10-07 01:03:47.260,Acquired,Not acquired,Acquired,Acquired,Acquired,Acquired,Acquired,Acquired,Acquired,Not acquired,,,9.8165576E1,5.414494E1,5.9755496E1,3.0312543999999997E2,1.33761672E2,2.75440768E2,1.94496544E2,3.0310895999999997E2,2.7019648E2,3.7513992E1,,,2.5403924E1,1.9958766E1,6.253856E1,3.3519718E1,3.828036E1,6.6779292E1,2.9303116E1,1.6718736E1,4.3509119999999996E1,7.426616999999999E0,,,2,6,12,14,24,25,29,31,32,19,,,3,0,4,4,15,13,8,3,5,0,,,
1570410287,2019-10-07 01:04:47.257,Acquired,Not acquired,Acquired,Acquired,Acquired,Acquired,Acquired,Acquired,Acquired,Not acquired,,,9.8165576E1,5.414494E1,5.9755496E1,3.0312543999999997E2,1.33761672E2,2.75440768E2,1.94496544E2,3.0310895999999997E2,2.7019648E2,3.7513992E1,,,2.5403924E1,1.9958766E1,6.253856E1,3.3519718E1,3.828036E1,6.6779292E1,2.9303116E1,1.6718736E1,4.3509119999999996E1,7.426616999999999E0,,,2,6,12,14,24,25,29,31,32,19,,,3,0,4,4,15,13,8,3,5,0,,,
1570410347,2019-10-07 01:05:47.257,Acquired,Not acquired,Acquired,Acquired,Acquired,Acquired,Acquired,Acquired,Acquired,Not acquired,,,9.8165576E1,5.414494E1,5.9755496E1,3.0312543999999997E2,1.33761672E2,2.75440768E2,1.94496544E2,3.0310895999999997E2,2.7019648E2,3.7513992E1,,,2.5403924E1,1.9958766E1,6.253856E1,3.3519718E1,3.828036E1,6.6779292E1,2.9303116E1,1.6718736E1,4.3509119999999996E1,7.426616999999999E0,,,2,6,12,14,24,25,29,31,32,19,,,3,0,4,4,15,13,8,3,5,0,,,
1570410407,2019-10-07 01:06:47.269,Acquired,Not acquired,Acquired,Acquired,Acquired,Acquired,Acquired,Acquired,Acquired,Not acquired,,,9.8165576E1,5.414494E1,5.9755496E1,3.0312543999999997E2,1.33761672E2,2.75440768E2,1.94496544E2,3.0310895999999997E2,2.7019648E2,3.7513992E1,,,2.5403924E1,1.9958766E1,6.253856E1,3.3519718E1,3.828036E1,6.6779292E1,2.9303116E1,1.6718736E1,4.3509119999999996E1,7.426616999999999E0,,,2,6,12,14,24,25,29,31,32,19,,,3,0,4,4,15,13,8,3,5,0,,,
1570410467,2019-10-07 01:07:47.257,Acquired,Not acquired,Acquired,Acquired,Acquired,Acquired,Acquired,Acquired,Acquired,Not acquired,,,9.8165576E1,5.414494E1,5.9755496E1,3.0312543999999997E2,1.33761672E2,2.75440768E2,1.94496544E2,3.0310895999999997E2,2.7019648E2,3.7513992E1,,,2.5403924E1,1.9958766E1,6.253856E1,3.3519718E1,3.828036E1,6.6779292E1,2.9303116E1,1.6718736E1,4.3509119999999996E1,7.426616999999999E0,,,2,6,12,14,24,25,29,31,32,19,,,3,0,4,4,15,13,8,3,5,0,,,
1570410527,2019-10-07 01:08:47.257,Acquired,Not acquired,Acquired,Acquired,Acquired,Acquired,Acquired,Acquired,Acquired,Not acquired,,,9.8165576E1,5.414494E1,5.9755496E1,3.0312543999999997E2,1.33761672E2,2.75440768E2,1.94496544E2,3.0310895999999997E2,2.7019648E2,3.7513992E1,,,2.5403924E1,1.9958766E1,6.253856E1,3.3519718E1,3.828036E1,6.6779292E1,2.9303116E1,1.6718736E1,4.3509119999999996E1,7.426616999999999E0,,,2,6,12,14,24,25,29,31,32,19,,,3,0,4,4,15,13,8,3,5,0,,,
1570410587,2019-10-07 01:09:47.257,Acquired,Not acquired,Acquired,Acquired,Acquired,Acquired,Acquired,Acquired,Acquired,Not acquired,,,9.8165576E1,5.414494E1,5.9755496E1,3.0312543999999997E2,1.33761672E2,2.75440768E2,1.94496544E2,3.0310895999999997E2,2.7019648E2,3.7513992E1,,,2.5403924E1,1.9958766E1,6.253856E1,3.3519718E1,3.828036E1,6.6779292E1,2.9303116E1,1.6718736E1,4.3509119999999996E1,7.426616999999999E0,,,2,6,12,14,24,25,29,31,32,19,,,3,0,4,4,15,13,8,3,5,0,,,
1570410647,2019-10-07 01:10:47.257,Acquired,Not acquired,Acquired,Acquired,Acquired,Acquired,Acquired,Acquired,Acquired,Not acquired,,,9.8165576E1,5.414494E1,5.9755496E1,3.0312543999999997E2,1.33761672E2,2.75440768E2,1.94496544E2,3.0310895999999997E2,2.7019648E2,3.7513992E1,,,2.5403924E1,1.9958766E1,6.253856E1,3.3519718E1,3.828036E1,6.6779292E1,2.9303116E1,1.6718736E1,4.3509119999999996E1,7.426616999999999E0,,,2,6,12,14,24,25,29,31,32,19,,,3,0,4,4,15,13,8,3,5,0,,,
1570410707,2019-10-07 01:11:47.260,Acquired,Not acquired,Acquired,Acquired,Acquired,Acquired,Acquired,Acquired,Acquired,Not acquired,,,9.8165576E1,5.414494E1,5.9755496E1,3.0312543999999997E2,1.33761672E2,2.75440768E2,1.94496544E2,3.0310895999999997E2,2.7019648E2,3.7513992E1,,,2.5403924E1,1.9958766E1,6.253856E1,3.3519718E1,3.828036E1,6.6779292E1,2.9303116E1,1.6718736E1,4.3509119999999996E1,7.426616999999999E0,,,2,6,12,14,24,25,29,31,32,19,,,3,0,4,4,15,13,8,3,5,0,,,
1570410767,2019-10-07 01:12:47.257,Acquired,Not acquired,Acquired,Acquired,Acquired,Acquired,Acquired,Acquired,Acquired,Not acquired,,,9.8165576E1,5.414494E1,5.9755496E1,3.0312543999999997E2,1.33761672E2,2.75440768E2,1.94496544E2,3.0310895999999997E2,2.7019648E2,3.7513992E1,,,2.5403924E1,1.9958766E1,6.253856E1,3.3519718E1,3.828036E1,6.6779292E1,2.9303116E1,1.6718736E1,4.3509119999999996E1,7.426616999999999E0,,,2,6,12,14,24,25,29,31,32,19,,,3,0,4,4,15,13,8,3,5,0,,,
1570410827,2019-10-07 01:13:47.257,Acquired,Not acquired,Acquired,Acquired,Acquired,Acquired,Acquired,Acquired,Acquired,Not acquired,,,9.8165576E1,5.414494E1,5.9755496E1,3.0312543999999997E2,1.33761672E2,2.75440768E2,1.94496544E2,3.0310895999999997E2,2.7019648E2,3.7513992E1,,,2.5403924E1,1.9958766E1,6.253856E1,3.3519718E1,3.828036E1,6.6779292E1,2.9303116E1,1.6718736E1,4.3509119999999996E1,7.426616999999999E0,,,2,6,12,14,24,25,29,31,32,19,,,3,0,4,4,15,13,8,3,5,0,,,
1570410887,2019-10-07 01:14:47.258,Acquired,Not acquired,Acquired,Acquired,Acquired,Acquired,Acquired,Acquired,Acquired,Not acquired,,,9.8165576E1,5.414494E1,5.9755496E1,3.0312543999999997E2,1.33761672E2,2.75440768E2,1.94496544E2,3.0310895999999997E2,2.7019648E2,3.7513992E1,,,2.5403924E1,1.9958766E1,6.253856E1,3.3519718E1,3.828036E1,6.6779292E1,2.9303116E1,1.6718736E1,4.3509119999999996E1,7.426616999999999E0,,,2,6,12,14,24,25,29,31,32,19,,,3,0,4,4,15,13,8,3,5,0,,,
1570410947,2019-10-07 01:15:47.257,Acquired,Not acquired,Acquired,Acquired,Acquired,Acquired,Acquired,Acquired,Acquired,Not acquired,,,9.7761648E1,5.3708268E1,6.0108391999999995E1,3.0270390399999997E2,1.3396735999999999E2,2.7610512E2,1.94553376E2,3.0321203199999997E2,2.6957075199999997E2,3.7462724E1,,,2.5643866E1,1.9944551999999998E1,6.2105536E1,3.3728004E1,3.7850096E1,6.718395199999999E1,2.9769154E1,1.71102E1,4.3436623999999995E1,7.044175999999999E0,,,2,6,12,14,24,25,29,31,32,19,,,5,1,3,4,12,11,8,1,10,0,,,
1570411007,2019-10-07 01:16:47.257,Acquired,Not acquired,Acquired,Acquired,Acquired,Acquired,Acquired,Acquired,Acquired,Not acquired,,,9.7761648E1,5.3708268E1,6.0108391999999995E1,3.0270390399999997E2,1.3396735999999999E2,2.7610512E2,1.94553376E2,3.0321203199999997E2,2.6957075199999997E2,3.7462724E1,,,2.5643866E1,1.9944551999999998E1,6.2105536E1,3.3728004E1,3.7850096E1,6.718395199999999E1,2.9769154E1,1.71102E1,4.3436623999999995E1,7.044175999999999E0,,,2,6,12,14,24,25,29,31,32,19,,,5,1,3,4,12,11,8,1,10,0,,,
1570411067,2019-10-07 01:17:47.257,Acquired,Not acquired,Acquired,Acquired,Acquired,Acquired,Acquired,Acquired,Acquired,Not acquired,,,9.7761648E1,5.3708268E1,6.0108391999999995E1,3.0270390399999997E2,1.3396735999999999E2,2.7610512E2,1.94553376E2,3.0321203199999997E2,2.6957075199999997E2,3.7462724E1,,,2.5643866E1,1.9944551999999998E1,6.2105536E1,3.3728004E1,3.7850096E1,6.718395199999999E1,2.9769154E1,1.71102E1,4.3436623999999995E1,7.044175999999999E0,,,2,6,12,14,24,25,29,31,32,19,,,5,1,3,4,12,11,8,1,10,0,,,
1570411127,2019-10-07 01:18:47.258,Acquired,Not acquired,Acquired,Acquired,Acquired,Acquired,Acquired,Acquired,Acquired,Not acquired,,,9.7761648E1,5.3708268E1,6.0108391999999995E1,3.0270390399999997E2,1.3396735999999999E2,2.7610512E2,1.94553376E2,3.0321203199999997E2,2.6957075199999997E2,3.7462724E1,,,2.5643866E1,1.9944551999999998E1,6.2105536E1,3.3728004E1,3.7850096E1,6.718395199999999E1,2.9769154E1,1.71102E1,4.3436623999999995E1,7.044175999999999E0,,,2,6,12,14,24,25,29,31,32,19,,,5,1,3,4,12,11,8,1,10,0,,,
1570411187,2019-10-07 01:19:47.257,Acquired,Not acquired,Acquired,Acquired,Acquired,Acquired,Acquired,Acquired,Acquired,Not acquired,,,9.7761648E1,5.3708268E1,6.0108391999999995E1,3.0270390399999997E2,1.3396735999999999E2,2.7610512E2,1.94553376E2,3.0321203199999997E2,2.6957075199999997E2,3.7462724E1,,,2.5643866E1,1.9944551999999998E1,6.2105536E1,3.3728004E1,3.7850096E1,6.718395199999999E1,2.9769154E1,1.71102E1,4.3436623999999995E1,7.044175999999999E0,,,2,6,12,14,24,25,29,31,32,19,,,5,1,3,4,12,11,8,1,10,0,,,
1570411247,2019-10-07 01:20:47.257,Acquired,Not acquired,Acquired,Acquired,Acquired,Acquired,Acquired,Acquired,Acquired,Not acquired,,,9.7761648E1,5.3708268E1,6.0108391999999995E1,3.0270390399999997E2,1.3396735999999999E2,2.7610512E2,1.94553376E2,3.0321203199999997E2,2.6957075199999997E2,3.7462724E1,,,2.5643866E1,1.9944551999999998E1,6.2105536E1,3.3728004E1,3.7850096E1,6.718395199999999E1,2.9769154E1,1.71102E1,4.3436623999999995E1,7.044175999999999E0,,,2,6,12,14,24,25,29,31,32,19,,,5,1,3,4,12,11,8,1,10,0,,,
1570411307,2019-10-07 01:21:47.257,Acquired,Not acquired,Acquired,Acquired,Acquired,Acquired,Acquired,Acquired,Acquired,Not acquired,,,9.7761648E1,5.3708268E1,6.0108391999999995E1,3.0270390399999997E2,1.3396735999999999E2,2.7610512E2,1.94553376E2,3.0321203199999997E2,2.6957075199999997E2,3.7462724E1,,,2.5643866E1,1.9944551999999998E1,6.2105536E1,3.3728004E1,3.7850096E1,6.718395199999999E1,2.9769154E1,1.71102E1,4.3436623999999995E1,7.044175999999999E0,,,2,6,12,14,24,25,29,31,32,19,,,5,1,3,4,12,11,8,1,10,0,,,
1570411367,2019-10-07 01:22:47.257,Acquired,Not acquired,Acquired,Acquired,Acquired,Acquired,Acquired,Acquired,Acquired,Not acquired,,,9.7761648E1,5.3708268E1,6.0108391999999995E1,3.0270390399999997E2,1.3396735999999999E2,2.7610512E2,1.94553376E2,3.0321203199999997E2,2.6957075199999997E2,3.7462724E1,,,2.5643866E1,1.9944551999999998E1,6.2105536E1,3.3728004E1,3.7850096E1,6.718395199999999E1,2.9769154E1,1.71102E1,4.3436623999999995E1,7.044175999999999E0,,,2,6,12,14,24,25,29,31,32,19,,,5,1,3,4,12,11,8,1,10,0,,,
1570411427,2019-10-07 01:23:47.257,Acquired,Not acquired,Acquired,Acquired,Acquired,Acquired,Acquired,Acquired,Acquired,Not acquired,,,9.7761648E1,5.3708268E1,6.0108391999999995E1,3.0270390399999997E2,1.3396735999999999E2,2.7610512E2,1.94553376E2,3.0321203199999997E2,2.6957075199999997E2,3.7462724E1,,,2.5643866E1,1.9944551999999998E1,6.2105536E1,3.3728004E1,3.7850096E1,6.718395199999999E1,2.9769154E1,1.71102E1,4.3436623999999995E1,7.044175999999999E0,,,2,6,12,14,24,25,29,31,32,19,,,5,1,3,4,12,11,8,1,10,0,,,
1570411487,2019-10-07 01:24:47.257,Acquired,Not acquired,Acquired,Acquired,Acquired,Acquired,Acquired,Acquired,Acquired,Not acquired,,,9.7761648E1,5.3708268E1,6.0108391999999995E1,3.0270390399999997E2,1.3396735999999999E2,2.7610512E2,1.94553376E2,3.0321203199999997E2,2.6957075199999997E2,3.7462724E1,,,2.5643866E1,1.9944551999999998E1,6.2105536E1,3.3728004E1,3.7850096E1,6.718395199999999E1,2.9769154E1,1.71102E1,4.3436623999999995E1,7.044175999999999E0,,,2,6,12,14,24,25,29,31,32,19,,,5,1,3,4,12,11,8,1,10,0,,,
1570411547,2019-10-07 01:25:47.257,Acquired,Not acquired,Acquired,Acquired,Acquired,Acquired,Acquired,Acquired,Acquired,Not acquired,,,9.7761648E1,5.3708268E1,6.0108391999999995E1,3.0270390399999997E2,1.3396735999999999E2,2.7610512E2,1.94553376E2,3.0321203199999997E2,2.6957075199999997E2,3.7462724E1,,,2.5643866E1,1.9944551999999998E1,6.2105536E1,3.3728004E1,3.7850096E1,6.718395199999999E1,2.9769154E1,1.71102E1,4.3436623999999995E1,7.044175999999999E0,,,2,6,12,14,24,25,29,31,32,19,,,5,1,3,4,12,11,8,1,10,0,,,
1570411607,2019-10-07 01:26:47.259,Acquired,Not acquired,Acquired,Acquired,Acquired,Acquired,Acquired,Acquired,Acquired,Not acquired,,,9.7761648E1,5.3708268E1,6.0108391999999995E1,3.0270390399999997E2,1.3396735999999999E2,2.7610512E2,1.94553376E2,3.0321203199999997E2,2.6957075199999997E2,3.7462724E1,,,2.5643866E1,1.9944551999999998E1,6.2105536E1,3.3728004E1,3.7850096E1,6.718395199999999E1,2.9769154E1,1.71102E1,4.3436623999999995E1,7.044175999999999E0,,,2,6,12,14,24,25,29,31,32,19,,,5,1,3,4,12,11,8,1,10,0,,,
1570411667,2019-10-07 01:27:47.257,Acquired,Not acquired,Acquired,Acquired,Acquired,Acquired,Acquired,Acquired,Acquired,Not acquired,,,9.7761648E1,5.3708268E1,6.0108391999999995E1,3.0270390399999997E2,1.3396735999999999E2,2.7610512E2,1.94553376E2,3.0321203199999997E2,2.6957075199999997E2,3.7462724E1,,,2.5643866E1,1.9944551999999998E1,6.2105536E1,3.3728004E1,3.7850096E1,6.718395199999999E1,2.9769154E1,1.71102E1,4.3436623999999995E1,7.044175999999999E0,,,2,6,12,14,24,25,29,31,32,19,,,5,1,3,4,12,11,8,1,10,0,,,
1570411727,2019-10-07 01:28:47.257,Acquired,Not acquired,Acquired,Acquired,Acquired,Acquired,Acquired,Acquired,Acquired,Not acquired,,,9.7761648E1,5.3708268E1,6.0108391999999995E1,3.0270390399999997E2,1.3396735999999999E2,2.7610512E2,1.94553376E2,3.0321203199999997E2,2.6957075199999997E2,3.7462724E1,,,2.5643866E1,1.9944551999999998E1,6.2105536E1,3.3728004E1,3.7850096E1,6.718395199999999E1,2.9769154E1,1.71102E1,4.3436623999999995E1,7.044175999999999E0,,,2,6,12,14,24,25,29,31,32,19,,,5,1,3,4,12,11,8,1,10,0,,,
1570411787,2019-10-07 01:29:47.257,Acquired,Not acquired,Acquired,Acquired,Acquired,Acquired,Acquired,Acquired,Acquired,Not acquired,,,9.7761648E1,5.3708268E1,6.0108391999999995E1,3.0270390399999997E2,1.3396735999999999E2,2.7610512E2,1.94553376E2,3.0321203199999997E2,2.6957075199999997E2,3.7462724E1,,,2.5643866E1,1.9944551999999998E1,6.2105536E1,3.3728004E1,3.7850096E1,6.718395199999999E1,2.9769154E1,1.71102E1,4.3436623999999995E1,7.044175999999999E0,,,2,6,12,14,24,25,29,31,32,19,,,5,1,3,4,12,11,8,1,10,0,,,
1570411847,2019-10-07 01:30:47.258,Acquired,Not acquired,Acquired,Acquired,Acquired,Acquired,Acquired,Acquired,Acquired,Not acquired,,,9.7761648E1,5.3708268E1,6.0108391999999995E1,3.0270390399999997E2,1.3396735999999999E2,2.7610512E2,1.94553376E2,3.0321203199999997E2,2.6957075199999997E2,3.7462724E1,,,2.5643866E1,1.9944551999999998E1,6.2105536E1,3.3728004E1,3.7850096E1,6.718395199999999E1,2.9769154E1,1.71102E1,4.3436623999999995E1,7.044175999999999E0,,,2,6,12,14,24,25,29,31,32,19,,,5,1,3,4,12,11,8,1,10,0,,,
1570411907,2019-10-07 01:31:47.257,Acquired,Not acquired,Acquired,Acquired,Acquired,Acquired,Acquired,Acquired,Acquired,Not acquired,,,9.7761648E1,5.3708268E1,6.0108391999999995E1,3.0270390399999997E2,1.3396735999999999E2,2.7610512E2,1.94553376E2,3.0321203199999997E2,2.6957075199999997E2,3.7462724E1,,,2.5643866E1,1.9944551999999998E1,6.2105536E1,3.3728004E1,3.7850096E1,6.718395199999999E1,2.9769154E1,1.71102E1,4.3436623999999995E1,7.044175999999999E0,,,2,6,12,14,24,25,29,31,32,19,,,5,1,3,4,12,11,8,1,10,0,,,
1570411967,2019-10-07 01:32:47.257,Acquired,Not acquired,Acquired,Acquired,Acquired,Acquired,Acquired,Acquired,Acquired,Not acquired,,,9.7761648E1,5.3708268E1,6.0108391999999995E1,3.0270390399999997E2,1.3396735999999999E2,2.7610512E2,1.94553376E2,3.0321203199999997E2,2.6957075199999997E2,3.7462724E1,,,2.5643866E1,1.9944551999999998E1,6.2105536E1,3.3728004E1,3.7850096E1,6.718395199999999E1,2.9769154E1,1.71102E1,4.3436623999999995E1,7.044175999999999E0,,,2,6,12,14,24,25,29,31,32,19,,,5,1,3,4,12,11,8,1,10,0,,,
1570412027,2019-10-07 01:33:47.257,Acquired,Not acquired,Acquired,Acquired,Acquired,Acquired,Acquired,Acquired,Acquired,Not acquired,,,9.7761648E1,5.3708268E1,6.0108391999999995E1,3.0270390399999997E2,1.3396735999999999E2,2.7610512E2,1.94553376E2,3.0321203199999997E2,2.6957075199999997E2,3.7462724E1,,,2.5643866E1,1.9944551999999998E1,6.2105536E1,3.3728004E1,3.7850096E1,6.718395199999999E1,2.9769154E1,1.71102E1,4.3436623999999995E1,7.044175999999999E0,,,2,6,12,14,24,25,29,31,32,19,,,5,1,3,4,12,11,8,1,10,0,,,
1570412087,2019-10-07 01:34:47.257,Acquired,Not acquired,Acquired,Acquired,Acquired,Acquired,Acquired,Acquired,Acquired,Not acquired,,,9.7761648E1,5.3708268E1,6.0108391999999995E1,3.0270390399999997E2,1.3396735999999999E2,2.7610512E2,1.94553376E2,3.0321203199999997E2,2.6957075199999997E2,3.7462724E1,,,2.5643866E1,1.9944551999999998E1,6.2105536E1,3.3728004E1,3.7850096E1,6.718395199999999E1,2.9769154E1,1.71102E1,4.3436623999999995E1,7.044175999999999E0,,,2,6,12,14,24,25,29,31,32,19,,,5,1,3,4,12,11,8,1,10,0,,,
1570412147,2019-10-07 01:35:47.257,Acquired,Not acquired,Acquired,Acquired,Acquired,Acquired,Acquired,Acquired,Acquired,Not acquired,,,9.7761648E1,5.3708268E1,6.0108391999999995E1,3.0270390399999997E2,1.3396735999999999E2,2.7610512E2,1.94553376E2,3.0321203199999997E2,2.6957075199999997E2,3.7462724E1,,,2.5643866E1,1.9944551999999998E1,6.2105536E1,3.3728004E1,3.7850096E1,6.718395199999999E1,2.9769154E1,1.71102E1,4.3436623999999995E1,7.044175999999999E0,,,2,6,12,14,24,25,29,31,32,19,,,5,1,3,4,12,11,8,1,10,0,,,
1570412207,2019-10-07 01:36:47.257,Acquired,Not acquired,Acquired,Acquired,Acquired,Acquired,Acquired,Acquired,Acquired,Not acquired,,,9.7761648E1,5.3708268E1,6.0108391999999995E1,3.0270390399999997E2,1.3396735999999999E2,2.7610512E2,1.94553376E2,3.0321203199999997E2,2.6957075199999997E2,3.7462724E1,,,2.5643866E1,1.9944551999999998E1,6.2105536E1,3.3728004E1,3.7850096E1,6.718395199999999E1,2.9769154E1,1.71102E1,4.3436623999999995E1,7.044175999999999E0,,,2,6,12,14,24,25,29,31,32,19,,,5,1,3,4,12,11,8,1,10,0,,,
1570412267,2019-10-07 01:37:47.257,Acquired,Not acquired,Acquired,Acquired,Acquired,Acquired,Acquired,Acquired,Acquired,Not acquired,,,9.7761648E1,5.3708268E1,6.0108391999999995E1,3.0270390399999997E2,1.3396735999999999E2,2.7610512E2,1.94553376E2,3.0321203199999997E2,2.6957075199999997E2,3.7462724E1,,,2.5643866E1,1.9944551999999998E1,6.2105536E1,3.3728004E1,3.7850096E1,6.718395199999999E1,2.9769154E1,1.71102E1,4.3436623999999995E1,7.044175999999999E0,,,2,6,12,14,24,25,29,31,32,19,,,5,1,3,4,12,11,8,1,10,0,,,
1570412327,2019-10-07 01:38:47.257,Acquired,Not acquired,Acquired,Acquired,Acquired,Acquired,Acquired,Acquired,Acquired,Not acquired,,,9.7761648E1,5.3708268E1,6.0108391999999995E1,3.0270390399999997E2,1.3396735999999999E2,2.7610512E2,1.94553376E2,3.0321203199999997E2,2.6957075199999997E2,3.7462724E1,,,2.5643866E1,1.9944551999999998E1,6.2105536E1,3.3728004E1,3.7850096E1,6.718395199999999E1,2.9769154E1,1.71102E1,4.3436623999999995E1,7.044175999999999E0,,,2,6,12,14,24,25,29,31,32,19,,,5,1,3,4,12,11,8,1,10,0,,,
1570412387,2019-10-07 01:39:47.257,Acquired,Not acquired,Acquired,Acquired,Acquired,Acquired,Acquired,Acquired,Acquired,Not acquired,,,9.7761648E1,5.3708268E1,6.0108391999999995E1,3.0270390399999997E2,1.3396735999999999E2,2.7610512E2,1.94553376E2,3.0321203199999997E2,2.6957075199999997E2,3.7462724E1,,,2.5643866E1,1.9944551999999998E1,6.2105536E1,3.3728004E1,3.7850096E1,6.718395199999999E1,2.9769154E1,1.71102E1,4.3436623999999995E1,7.044175999999999E0,,,2,6,12,14,24,25,29,31,32,19,,,5,1,3,4,12,11,8,1,10,0,,,
1570412447,2019-10-07 01:40:47.257,Acquired,Not acquired,Acquired,Acquired,Acquired,Acquired,Acquired,Acquired,Acquired,Not acquired,,,9.7761648E1,5.3708268E1,6.0108391999999995E1,3.0270390399999997E2,1.3396735999999999E2,2.7610512E2,1.94553376E2,3.0321203199999997E2,2.6957075199999997E2,3.7462724E1,,,2.5643866E1,1.9944551999999998E1,6.2105536E1,3.3728004E1,3.7850096E1,6.718395199999999E1,2.9769154E1,1.71102E1,4.3436623999999995E1,7.044175999999999E0,,,2,6,12,14,24,25,29,31,32,19,,,5,1,3,4,12,11,8,1,10,0,,,
1570412507,2019-10-07 01:41:47.257,Acquired,Not acquired,Acquired,Acquired,Acquired,Acquired,Acquired,Acquired,Acquired,Not acquired,,,9.7761648E1,5.3708268E1,6.0108391999999995E1,3.0270390399999997E2,1.3396735999999999E2,2.7610512E2,1.94553376E2,3.0321203199999997E2,2.6957075199999997E2,3.7462724E1,,,2.5643866E1,1.9944551999999998E1,6.2105536E1,3.3728004E1,3.7850096E1,6.718395199999999E1,2.9769154E1,1.71102E1,4.3436623999999995E1,7.044175999999999E0,,,2,6,12,14,24,25,29,31,32,19,,,5,1,3,4,12,11,8,1,10,0,,,
1570412567,2019-10-07 01:42:47.257,Acquired,Not acquired,Acquired,Acquired,Acquired,Acquired,Acquired,Acquired,Acquired,Not acquired,,,9.7761648E1,5.3708268E1,6.0108391999999995E1,3.0270390399999997E2,1.3396735999999999E2,2.7610512E2,1.94553376E2,3.0321203199999997E2,2.6957075199999997E2,3.7462724E1,,,2.5643866E1,1.9944551999999998E1,6.2105536E1,3.3728004E1,3.7850096E1,6.718395199999999E1,2.9769154E1,1.71102E1,4.3436623999999995E1,7.044175999999999E0,,,2,6,12,14,24,25,29,31,32,19,,,5,1,3,4,12,11,8,1,10,0,,,
1570412627,2019-10-07 01:43:47.257,Acquired,Not acquired,Acquired,Acquired,Acquired,Acquired,Acquired,Acquired,Acquired,Not acquired,,,9.7761648E1,5.3708268E1,6.0108391999999995E1,3.0270390399999997E2,1.3396735999999999E2,2.7610512E2,1.94553376E2,3.0321203199999997E2,2.6957075199999997E2,3.7462724E1,,,2.5643866E1,1.9944551999999998E1,6.2105536E1,3.3728004E1,3.7850096E1,6.718395199999999E1,2.9769154E1,1.71102E1,4.3436623999999995E1,7.044175999999999E0,,,2,6,12,14,24,25,29,31,32,19,,,5,1,3,4,12,11,8,1,10,0,,,
1570412687,2019-10-07 01:44:47.257,Acquired,Not acquired,Acquired,Acquired,Acquired,Acquired,Acquired,Acquired,Acquired,Not acquired,,,9.7761648E1,5.3708268E1,6.0108391999999995E1,3.0270390399999997E2,1.3396735999999999E2,2.7610512E2,1.94553376E2,3.0321203199999997E2,2.6957075199999997E2,3.7462724E1,,,2.5643866E1,1.9944551999999998E1,6.2105536E1,3.3728004E1,3.7850096E1,6.718395199999999E1,2.9769154E1,1.71102E1,4.3436623999999995E1,7.044175999999999E0,,,2,6,12,14,24,25,29,31,32,19,,,5,1,3,4,12,11,8,1,10,0,,,
1570412747,2019-10-07 01:45:47.257,Acquired,Not acquired,Acquired,Acquired,Acquired,Acquired,Acquired,Acquired,Acquired,Not acquired,,,9.7761648E1,5.3708268E1,6.0108391999999995E1,3.0270390399999997E2,1.3396735999999999E2,2.7610512E2,1.94553376E2,3.0321203199999997E2,2.6957075199999997E2,3.7462724E1,,,2.5643866E1,1.9944551999999998E1,6.2105536E1,3.3728004E1,3.7850096E1,6.718395199999999E1,2.9769154E1,1.71102E1,4.3436623999999995E1,7.044175999999999E0,,,2,6,12,14,24,25,29,31,32,19,,,5,1,3,4,12,11,8,1,10,0,,,
1570412807,2019-10-07 01:46:47.257,Acquired,Not acquired,Acquired,Acquired,Acquired,Acquired,Acquired,Acquired,Acquired,Not acquired,,,9.7761648E1,5.3708268E1,6.0108391999999995E1,3.0270390399999997E2,1.3396735999999999E2,2.7610512E2,1.94553376E2,3.0321203199999997E2,2.6957075199999997E2,3.7462724E1,,,2.5643866E1,1.9944551999999998E1,6.2105536E1,3.3728004E1,3.7850096E1,6.718395199999999E1,2.9769154E1,1.71102E1,4.3436623999999995E1,7.044175999999999E0,,,2,6,12,14,24,25,29,31,32,19,,,5,1,3,4,12,11,8,1,10,0,,,
1570412867,2019-10-07 01:47:47.258,Acquired,Not acquired,Acquired,Acquired,Acquired,Acquired,Acquired,Acquired,Acquired,Not acquired,,,9.7761648E1,5.3708268E1,6.0108391999999995E1,3.0270390399999997E2,1.3396735999999999E2,2.7610512E2,1.94553376E2,3.0321203199999997E2,2.6957075199999997E2,3.7462724E1,,,2.5643866E1,1.9944551999999998E1,6.2105536E1,3.3728004E1,3.7850096E1,6.718395199999999E1,2.9769154E1,1.71102E1,4.3436623999999995E1,7.044175999999999E0,,,2,6,12,14,24,25,29,31,32,19,,,5,1,3,4,12,11,8,1,10,0,,,
1570412927,2019-10-07 01:48:47.257,Acquired,Not acquired,Acquired,Acquired,Acquired,Acquired,Acquired,Acquired,Acquired,Not acquired,,,9.7761648E1,5.3708268E1,6.0108391999999995E1,3.0270390399999997E2,1.3396735999999999E2,2.7610512E2,1.94553376E2,3.0321203199999997E2,2.6957075199999997E2,3.7462724E1,,,2.5643866E1,1.9944551999999998E1,6.2105536E1,3.3728004E1,3.7850096E1,6.718395199999999E1,2.9769154E1,1.71102E1,4.3436623999999995E1,7.044175999999999E0,,,2,6,12,14,24,25,29,31,32,19,,,5,1,3,4,12,11,8,1,10,0,,,
1570412987,2019-10-07 01:49:47.257,Acquired,Not acquired,Acquired,Acquired,Acquired,Acquired,Acquired,Acquired,Acquired,Not acquired,,,9.7761648E1,5.3708268E1,6.0108391999999995E1,3.0270390399999997E2,1.3396735999999999E2,2.7610512E2,1.94553376E2,3.0321203199999997E2,2.6957075199999997E2,3.7462724E1,,,2.5643866E1,1.9944551999999998E1,6.2105536E1,3.3728004E1,3.7850096E1,6.718395199999999E1,2.9769154E1,1.71102E1,4.3436623999999995E1,7.044175999999999E0,,,2,6,12,14,24,25,29,31,32,19,,,5,1,3,4,12,11,8,1,10,0,,,
1570413047,2019-10-07 01:50:47.257,Acquired,Not acquired,Acquired,Acquired,Acquired,Acquired,Acquired,Acquired,Acquired,Not acquired,,,9.7761648E1,5.3708268E1,6.0108391999999995E1,3.0270390399999997E2,1.3396735999999999E2,2.7610512E2,1.94553376E2,3.0321203199999997E2,2.6957075199999997E2,3.7462724E1,,,2.5643866E1,1.9944551999999998E1,6.2105536E1,3.3728004E1,3.7850096E1,6.718395199999999E1,2.9769154E1,1.71102E1,4.3436623999999995E1,7.044175999999999E0,,,2,6,12,14,24,25,29,31,32,19,,,5,1,3,4,12,11,8,1,10,0,,,
1570413107,2019-10-07 01:51:47.257,Acquired,Not acquired,Acquired,Acquired,Acquired,Acquired,Acquired,Acquired,Acquired,Not acquired,,,9.7761648E1,5.3708268E1,6.0108391999999995E1,3.0270390399999997E2,1.3396735999999999E2,2.7610512E2,1.94553376E2,3.0321203199999997E2,2.6957075199999997E2,3.7462724E1,,,2.5643866E1,1.9944551999999998E1,6.2105536E1,3.3728004E1,3.7850096E1,6.718395199999999E1,2.9769154E1,1.71102E1,4.3436623999999995E1,7.044175999999999E0,,,2,6,12,14,24,25,29,31,32,19,,,5,1,3,4,12,11,8,1,10,0,,,
1570413167,2019-10-07 01:52:47.260,Acquired,Not acquired,Acquired,Acquired,Acquired,Acquired,Acquired,Acquired,Acquired,Not acquired,,,9.7761648E1,5.3708268E1,6.0108391999999995E1,3.0270390399999997E2,1.3396735999999999E2,2.7610512E2,1.94553376E2,3.0321203199999997E2,2.6957075199999997E2,3.7462724E1,,,2.5643866E1,1.9944551999999998E1,6.2105536E1,3.3728004E1,3.7850096E1,6.718395199999999E1,2.9769154E1,1.71102E1,4.3436623999999995E1,7.044175999999999E0,,,2,6,12,14,24,25,29,31,32,19,,,5,1,3,4,12,11,8,1,10,0,,,
1570413227,2019-10-07 01:53:47.257,Acquired,Not acquired,Acquired,Acquired,Acquired,Acquired,Acquired,Acquired,Acquired,Not acquired,,,9.7761648E1,5.3708268E1,6.0108391999999995E1,3.0270390399999997E2,1.3396735999999999E2,2.7610512E2,1.94553376E2,3.0321203199999997E2,2.6957075199999997E2,3.7462724E1,,,2.5643866E1,1.9944551999999998E1,6.2105536E1,3.3728004E1,3.7850096E1,6.718395199999999E1,2.9769154E1,1.71102E1,4.3436623999999995E1,7.044175999999999E0,,,2,6,12,14,24,25,29,31,32,19,,,5,1,3,4,12,11,8,1,10,0,,,
1570413287,2019-10-07 01:54:47.257,Acquired,Not acquired,Acquired,Acquired,Acquired,Acquired,Acquired,Acquired,Acquired,Not acquired,,,9.7761648E1,5.3708268E1,6.0108391999999995E1,3.0270390399999997E2,1.3396735999999999E2,2.7610512E2,1.94553376E2,3.0321203199999997E2,2.6957075199999997E2,3.7462724E1,,,2.5643866E1,1.9944551999999998E1,6.2105536E1,3.3728004E1,3.7850096E1,6.718395199999999E1,2.9769154E1,1.71102E1,4.3436623999999995E1,7.044175999999999E0,,,2,6,12,14,24,25,29,31,32,19,,,5,1,3,4,12,11,8,1,10,0,,,
1570413347,2019-10-07 01:55:47.257,Acquired,Not acquired,Acquired,Acquired,Acquired,Acquired,Acquired,Acquired,Acquired,Not acquired,,,9.7761648E1,5.3708268E1,6.0108391999999995E1,3.0270390399999997E2,1.3396735999999999E2,2.7610512E2,1.94553376E2,3.0321203199999997E2,2.6957075199999997E2,3.7462724E1,,,2.5643866E1,1.9944551999999998E1,6.2105536E1,3.3728004E1,3.7850096E1,6.718395199999999E1,2.9769154E1,1.71102E1,4.3436623999999995E1,7.044175999999999E0,,,2,6,12,14,24,25,29,31,32,19,,,5,1,3,4,12,11,8,1,10,0,,,
1570413407,2019-10-07 01:56:47.257,Acquired,Not acquired,Acquired,Acquired,Acquired,Acquired,Acquired,Acquired,Acquired,Not acquired,,,9.7761648E1,5.3708268E1,6.0108391999999995E1,3.0270390399999997E2,1.3396735999999999E2,2.7610512E2,1.94553376E2,3.0321203199999997E2,2.6957075199999997E2,3.7462724E1,,,2.5643866E1,1.9944551999999998E1,6.2105536E1,3.3728004E1,3.7850096E1,6.718395199999999E1,2.9769154E1,1.71102E1,4.3436623999999995E1,7.044175999999999E0,,,2,6,12,14,24,25,29,31,32,19,,,5,1,3,4,12,11,8,1,10,0,,,
1570413467,2019-10-07 01:57:47.257,Acquired,Not acquired,Acquired,Acquired,Acquired,Acquired,Acquired,Acquired,Acquired,Not acquired,,,9.7761648E1,5.3708268E1,6.0108391999999995E1,3.0270390399999997E2,1.3396735999999999E2,2.7610512E2,1.94553376E2,3.0321203199999997E2,2.6957075199999997E2,3.7462724E1,,,2.5643866E1,1.9944551999999998E1,6.2105536E1,3.3728004E1,3.7850096E1,6.718395199999999E1,2.9769154E1,1.71102E1,4.3436623999999995E1,7.044175999999999E0,,,2,6,12,14,24,25,29,31,32,19,,,5,1,3,4,12,11,8,1,10,0,,,
1570413527,2019-10-07 01:58:47.257,Acquired,Not acquired,Acquired,Acquired,Acquired,Acquired,Acquired,Acquired,Acquired,Not acquired,,,9.7761648E1,5.3708268E1,6.0108391999999995E1,3.0270390399999997E2,1.3396735999999999E2,2.7610512E2,1.94553376E2,3.0321203199999997E2,2.6957075199999997E2,3.7462724E1,,,2.5643866E1,1.9944551999999998E1,6.2105536E1,3.3728004E1,3.7850096E1,6.718395199999999E1,2.9769154E1,1.71102E1,4.3436623999999995E1,7.044175999999999E0,,,2,6,12,14,24,25,29,31,32,19,,,5,1,3,4,12,11,8,1,10,0,,,
1570413587,2019-10-07 01:59:47.257,Acquired,Not acquired,Acquired,Acquired,Acquired,Acquired,Acquired,Acquired,Acquired,Not acquired,,,9.7761648E1,5.3708268E1,6.0108391999999995E1,3.0270390399999997E2,1.3396735999999999E2,2.7610512E2,1.94553376E2,3.0321203199999997E2,2.6957075199999997E2,3.7462724E1,,,2.5643866E1,1.9944551999999998E1,6.2105536E1,3.3728004E1,3.7850096E1,6.718395199999999E1,2.9769154E1,1.71102E1,4.3436623999999995E1,7.044175999999999E0,,,2,6,12,14,24,25,29,31,32,19,,,5,1,3,4,12,11,8,1,10,0,,,
