Time(longsecs),Time(UTC),Supply Voltage(mV),Temperature(&deg;C),NMX Bus Current(mA),Sensor Current(mA),Serial Port Current(mA),Controller Current(mA),Digitizer Current(mA),
1570478447,2019-10-07 20:00:47.257,16509,2.3704071E1,0,6,0,49,41,
1570478507,2019-10-07 20:01:47.257,16509,2.3842316E1,0,8,0,54,40,
1570478567,2019-10-07 20:02:47.257,16509,2.3738617E1,0,8,0,58,37,
1570478627,2019-10-07 20:03:47.257,16496,2.3668427E1,0,8,0,59,38,
1570478687,2019-10-07 20:04:47.258,16496,2.3787231E1,0,8,0,64,36,
1570478747,2019-10-07 20:05:47.263,16496,2.3670563E1,0,11,0,57,38,
1570478807,2019-10-07 20:06:47.258,16496,2.3699738E1,0,8,0,70,36,
1570478867,2019-10-07 20:07:47.257,16524,2.3623047E1,0,6,0,77,37,
1570478927,2019-10-07 20:08:47.257,16509,2.3522583E1,0,6,0,58,39,
1570478987,2019-10-07 20:09:47.257,16496,2.351178E1,0,6,0,49,36,
1570479047,2019-10-07 20:10:47.257,16592,2.3516113E1,0,9,0,49,35,
1570479107,2019-10-07 20:11:47.257,16496,2.351178E1,0,6,0,57,38,
1570479167,2019-10-07 20:12:47.257,16496,2.3577667E1,0,13,0,50,37,
1570479227,2019-10-07 20:13:47.257,16482,2.362088E1,0,9,0,85,42,
1570479287,2019-10-07 20:14:47.257,16482,2.3455597E1,0,8,0,70,40,
1570479347,2019-10-07 20:15:47.257,16509,2.3651123E1,0,13,0,50,41,
1570479407,2019-10-07 20:16:47.296,16509,2.3714874E1,0,8,0,58,36,
1570479467,2019-10-07 20:17:47.257,16509,2.3573364E1,0,7,0,57,35,
1570479527,2019-10-07 20:18:47.257,16496,2.3621979E1,0,4,0,57,34,
1570479587,2019-10-07 20:19:47.257,16496,2.3411316E1,0,5,0,50,36,
1570479647,2019-10-07 20:20:47.257,16509,2.342212E1,0,6,0,50,34,
1570479707,2019-10-07 20:21:47.257,16496,2.3494507E1,3,6,0,55,37,
1570479767,2019-10-07 20:22:47.257,16496,2.3616577E1,0,9,0,56,41,
1570479827,2019-10-07 20:23:47.257,16496,2.3256836E1,0,8,0,55,37,
1570479887,2019-10-07 20:24:47.257,16496,2.3475067E1,0,8,0,49,37,
1570479947,2019-10-07 20:25:47.257,16496,2.3329224E1,0,2,0,70,32,
1570480007,2019-10-07 20:26:47.257,16496,2.3490173E1,0,7,0,57,36,
1570480067,2019-10-07 20:27:47.257,16469,2.3149902E1,0,6,0,87,38,
1570480127,2019-10-07 20:28:47.257,16496,2.3365967E1,0,4,0,58,39,
1570480187,2019-10-07 20:29:47.257,16346,2.3225525E1,0,10,0,78,36,
1570480247,2019-10-07 20:30:47.257,16496,2.34664E1,0,9,0,49,34,
1570480307,2019-10-07 20:31:47.257,16469,2.3268738E1,0,9,0,66,36,
1570480367,2019-10-07 20:32:47.260,16482,2.337674E1,0,9,0,59,40,
1570480427,2019-10-07 20:33:47.257,16482,2.33638E1,0,7,0,57,39,
1570480487,2019-10-07 20:34:47.257,16496,2.3120728E1,0,7,0,55,41,
1570480547,2019-10-07 20:35:47.257,16496,2.3233093E1,0,7,0,60,35,
1570480607,2019-10-07 20:36:47.257,16482,2.3276306E1,0,8,0,58,34,
1570480667,2019-10-07 20:37:47.257,16482,2.3148834E1,0,4,0,58,38,
1570480727,2019-10-07 20:38:47.257,16496,2.3330292E1,0,9,0,57,35,
1570480787,2019-10-07 20:39:47.257,16496,2.3419952E1,0,7,0,49,38,
1570480847,2019-10-07 20:40:47.257,16496,2.3159637E1,0,9,0,52,36,
1570480907,2019-10-07 20:41:47.257,16496,2.3265503E1,0,11,0,61,38,
1570480967,2019-10-07 20:42:47.260,16482,2.3313019E1,0,10,0,57,37,
1570481027,2019-10-07 20:43:47.257,16482,2.3345428E1,0,2,0,57,33,
1570481087,2019-10-07 20:44:47.258,16482,2.3301147E1,0,12,0,57,37,
1570481147,2019-10-07 20:45:47.258,16482,2.313153E1,0,6,0,57,35,
1570481207,2019-10-07 20:46:47.258,16482,2.3334625E1,0,8,0,66,40,
1570481267,2019-10-07 20:47:47.257,16482,2.3213654E1,0,10,0,57,36,
1570481327,2019-10-07 20:48:47.257,16482,2.3122894E1,0,9,0,58,36,
1570481387,2019-10-07 20:49:47.258,16482,2.3156403E1,0,8,0,58,38,
1570481447,2019-10-07 20:50:47.257,16455,2.321579E1,0,4,0,50,40,
1570481507,2019-10-07 20:51:47.257,16482,2.2985718E1,0,7,0,58,41,
1570481567,2019-10-07 20:52:47.257,16482,2.3316254E1,0,8,0,58,39,
1570481627,2019-10-07 20:53:47.289,16482,2.3269806E1,0,6,0,57,40,
1570481687,2019-10-07 20:54:47.257,16496,2.321579E1,0,9,0,49,38,
1570481747,2019-10-07 20:55:47.257,16482,2.3390808E1,0,7,0,48,42,
1570481807,2019-10-07 20:56:47.258,16524,2.2993286E1,0,10,0,56,39,
1570481867,2019-10-07 20:57:47.258,16482,2.3134796E1,0,9,0,56,35,
1570481927,2019-10-07 20:58:47.257,16482,2.322876E1,0,8,0,54,38,
1570481987,2019-10-07 20:59:47.257,16496,2.2996521E1,0,6,0,50,42,
