Time(longsecs),Time(UTC),Supply Voltage(mV),Temperature(&deg;C),NMX Bus Current(mA),Sensor Current(mA),Serial Port Current(mA),Controller Current(mA),Digitizer Current(mA),
1570428047,2019-10-07 06:00:47.260,16292,1.9651062E1,0,6,0,57,39,
1570428107,2019-10-07 06:01:47.257,16278,1.9831451E1,0,11,0,59,37,
1570428167,2019-10-07 06:02:47.257,16292,1.9597046E1,0,11,0,61,38,
1570428227,2019-10-07 06:03:47.257,16278,1.9721283E1,0,4,0,59,35,
1570428287,2019-10-07 06:04:47.296,16292,1.9724518E1,0,6,0,50,37,
1570428347,2019-10-07 06:05:47.257,16292,1.9863861E1,0,10,0,50,39,
1570428407,2019-10-07 06:06:47.257,16319,1.9585175E1,0,9,0,58,37,
1570428467,2019-10-07 06:07:47.257,16264,1.962622E1,0,8,0,58,35,
1570428527,2019-10-07 06:08:47.257,16292,1.9790405E1,0,8,0,58,37,
1570428587,2019-10-07 06:09:47.257,16292,1.9418823E1,0,8,0,59,38,
1570428647,2019-10-07 06:10:47.257,16292,1.9606781E1,0,10,0,50,36,
1570428707,2019-10-07 06:11:47.257,16292,1.9835785E1,0,7,0,57,35,
1570428767,2019-10-07 06:12:47.257,16278,1.9597046E1,0,8,0,59,36,
1570428827,2019-10-07 06:13:47.257,16278,1.9525757E1,0,9,0,57,37,
1570428887,2019-10-07 06:14:47.257,16292,1.9571136E1,0,14,0,50,37,
1570428947,2019-10-07 06:15:47.260,16319,1.9692108E1,0,11,0,59,39,
1570429007,2019-10-07 06:16:47.277,16360,1.9727753E1,0,8,0,57,37,
1570429067,2019-10-07 06:17:47.257,16278,1.9681305E1,0,9,0,58,38,
1570429127,2019-10-07 06:18:47.257,16278,1.9687775E1,0,7,0,56,40,
1570429187,2019-10-07 06:19:47.257,16278,1.9893036E1,0,7,2,50,34,
1570429247,2019-10-07 06:20:47.293,16155,1.9735321E1,0,2,0,59,35,
1570429307,2019-10-07 06:21:47.257,16292,1.9624054E1,0,7,0,57,36,
1570429367,2019-10-07 06:22:47.257,16278,1.9708313E1,0,8,0,58,36,
1570429427,2019-10-07 06:23:47.260,16278,1.9664032E1,0,5,0,61,39,
1570429487,2019-10-07 06:24:47.257,16278,1.9661865E1,0,8,0,50,39,
1570429547,2019-10-07 06:25:47.258,16278,1.961325E1,0,9,0,54,38,
1570429607,2019-10-07 06:26:47.257,16264,1.9701843E1,0,4,0,57,38,
1570429667,2019-10-07 06:27:47.257,16278,1.9790405E1,0,7,0,57,38,
1570429727,2019-10-07 06:28:47.257,16210,1.9772034E1,0,12,0,59,40,
1570429787,2019-10-07 06:29:47.257,16278,1.9817413E1,0,7,0,50,37,
1570429847,2019-10-07 06:30:47.257,16278,1.9628387E1,0,6,0,51,36,
1570429907,2019-10-07 06:31:47.257,16250,1.9675903E1,0,1,0,58,35,
1570429967,2019-10-07 06:32:47.257,16278,1.9837952E1,0,4,0,57,38,
1570430027,2019-10-07 06:33:47.296,16292,1.9635925E1,0,12,0,58,37,
1570430087,2019-10-07 06:34:47.257,16278,1.9688873E1,0,9,0,50,36,
1570430147,2019-10-07 06:35:47.260,16373,1.971695E1,0,6,0,55,38,
1570430207,2019-10-07 06:36:47.257,16278,1.9834686E1,0,6,0,59,44,
1570430267,2019-10-07 06:37:47.257,16278,1.9715881E1,0,6,28,57,36,
1570430327,2019-10-07 06:38:47.260,16278,1.9722351E1,0,2,0,58,39,
1570430387,2019-10-07 06:39:47.257,16292,1.9685638E1,0,13,0,50,36,
1570430447,2019-10-07 06:40:47.298,16319,1.9722351E1,0,6,0,49,35,
1570430507,2019-10-07 06:41:47.257,16210,1.9695343E1,0,6,0,58,40,
1570430567,2019-10-07 06:42:47.257,16278,1.9781769E1,0,2,0,59,33,
1570430627,2019-10-07 06:43:47.257,16292,1.978717E1,0,9,0,57,35,
1570430687,2019-10-07 06:44:47.257,16278,1.9773132E1,0,6,0,56,38,
1570430747,2019-10-07 06:45:47.257,16032,1.967807E1,0,7,0,50,34,
1570430807,2019-10-07 06:46:47.260,16319,1.9692108E1,0,4,0,59,37,
1570430867,2019-10-07 06:47:47.257,16292,1.9519287E1,0,8,0,59,40,
1570430927,2019-10-07 06:48:47.257,16223,1.971048E1,0,9,0,57,38,
1570430987,2019-10-07 06:49:47.257,16305,1.983255E1,0,7,0,50,34,
1570431047,2019-10-07 06:50:47.257,16305,1.9777435E1,0,4,0,50,39,
1570431107,2019-10-07 06:51:47.257,16305,1.978717E1,0,5,0,57,36,
1570431167,2019-10-07 06:52:47.260,16305,1.9539795E1,0,7,0,60,37,
1570431227,2019-10-07 06:53:47.258,16373,1.9597046E1,0,6,0,58,36,
1570431287,2019-10-07 06:54:47.257,16264,1.997406E1,0,9,0,60,36,
1570431347,2019-10-07 06:55:47.258,16305,1.9730988E1,0,7,0,61,34,
1570431407,2019-10-07 06:56:47.258,16305,1.9847656E1,0,7,0,65,36,
1570431467,2019-10-07 06:57:47.260,16305,1.9485779E1,0,11,0,58,39,
1570431527,2019-10-07 06:58:47.257,16305,1.9782837E1,0,8,0,58,36,
1570431587,2019-10-07 06:59:47.257,16305,1.9802307E1,0,6,0,50,38,
