Time(longsecs),Time(UTC),Supply Voltage(mV),Temperature(&deg;C),NMX Bus Current(mA),Sensor Current(mA),Serial Port Current(mA),Controller Current(mA),Digitizer Current(mA),
1572372011,2019-10-29 18:00:11.767,16538,1.5590729E1,0,9,0,33,42,
1572372071,2019-10-29 18:01:11.768,16553,1.5350769E1,0,2,0,36,39,
1572372131,2019-10-29 18:02:11.810,16387,1.5346466E1,0,9,0,38,36,
1572372191,2019-10-29 18:03:11.767,16580,1.5637848E1,0,8,0,35,38,
1572372251,2019-10-29 18:04:11.767,16538,1.5236145E1,0,6,0,38,37,
1572372311,2019-10-29 18:05:11.769,16525,1.5419312E1,0,5,0,38,35,
1572372371,2019-10-29 18:06:11.767,16525,1.5406464E1,0,15,0,36,38,
1572372431,2019-10-29 18:07:11.767,16525,1.544931E1,0,8,0,37,36,
1572372491,2019-10-29 18:08:11.767,16525,1.5527527E1,0,10,0,36,37,
1572372551,2019-10-29 18:09:11.767,16525,1.5299347E1,0,2,0,38,39,
1572372611,2019-10-29 18:10:11.767,16525,1.5338959E1,0,9,0,33,40,
1572372671,2019-10-29 18:11:11.767,16525,1.5231842E1,0,12,0,38,39,
1572372731,2019-10-29 18:12:11.796,16525,1.5200775E1,0,16,0,40,37,
1572372791,2019-10-29 18:13:11.767,16525,1.5328247E1,0,11,0,38,37,
1572372851,2019-10-29 18:14:11.767,16525,1.5390381E1,0,6,0,33,41,
1572372911,2019-10-29 18:15:11.767,16525,1.53186035E1,0,15,0,33,37,
1572372971,2019-10-29 18:16:11.767,16525,1.5062592E1,0,8,0,38,36,
1572373031,2019-10-29 18:17:11.810,16525,1.5412903E1,0,10,0,38,39,
1572373091,2019-10-29 18:18:11.767,16525,1.5216858E1,0,3,0,38,37,
1572373151,2019-10-29 18:19:11.767,16292,1.5172913E1,0,9,0,38,38,
1572373211,2019-10-29 18:20:11.767,16525,1.5037933E1,0,16,0,35,41,
1572373271,2019-10-29 18:21:11.767,16525,1.5191132E1,0,11,0,38,38,
1572373331,2019-10-29 18:22:11.767,16525,1.5141846E1,0,11,0,37,38,
1572373391,2019-10-29 18:23:11.767,16525,1.5365753E1,0,10,0,42,37,
1572373451,2019-10-29 18:24:11.786,16525,1.5106506E1,0,8,0,33,38,
1572373511,2019-10-29 18:25:11.767,16525,1.5164368E1,0,5,0,36,39,
1572373571,2019-10-29 18:26:11.767,16525,1.4996155E1,0,9,0,37,36,
1572373631,2019-10-29 18:27:11.767,16525,1.4998322E1,0,0,0,35,40,
1572373691,2019-10-29 18:28:11.768,16525,1.4991882E1,0,7,0,37,39,
1572373751,2019-10-29 18:29:11.767,16525,1.5058289E1,0,9,0,32,39,
1572373811,2019-10-29 18:30:11.767,16525,1.5132233E1,0,9,0,33,39,
1572373871,2019-10-29 18:31:11.767,16525,1.4984375E1,0,9,353,38,39,
1572373931,2019-10-29 18:32:11.769,16525,1.4777618E1,0,8,0,37,39,
1572373991,2019-10-29 18:33:11.767,16525,1.5020813E1,0,8,0,37,39,
1572374051,2019-10-29 18:34:11.767,16511,1.5101166E1,0,8,0,41,36,
1572374111,2019-10-29 18:35:11.767,16525,1.4924408E1,0,9,0,40,36,
1572374171,2019-10-29 18:36:11.767,16511,1.4976898E1,0,2,0,41,39,
1572374231,2019-10-29 18:37:11.767,16511,1.5039032E1,0,9,0,33,39,
1572374291,2019-10-29 18:38:11.767,16511,1.4972595E1,0,5,0,38,35,
1572374351,2019-10-29 18:39:11.767,16511,1.4968323E1,0,8,0,38,39,
1572374411,2019-10-29 18:40:11.769,16525,1.471228E1,0,11,0,41,39,
1572374471,2019-10-29 18:41:11.769,16525,1.489975E1,0,13,0,38,36,
1572374531,2019-10-29 18:42:11.767,16511,1.4859039E1,0,11,0,36,36,
1572374591,2019-10-29 18:43:11.769,16525,1.5134369E1,0,7,0,38,34,
1572374651,2019-10-29 18:44:11.769,16525,1.4716583E1,0,7,0,32,36,
1572374711,2019-10-29 18:45:11.767,16511,1.4824768E1,0,10,0,33,35,
1572374771,2019-10-29 18:46:11.767,16511,1.494046E1,0,10,0,32,38,
1572374831,2019-10-29 18:47:11.767,16511,1.5003662E1,0,6,0,38,40,
1572374891,2019-10-29 18:48:11.791,16525,1.4791565E1,0,10,0,44,39,
1572374951,2019-10-29 18:49:11.767,16538,1.4931885E1,0,7,0,33,39,
1572375011,2019-10-29 18:50:11.767,16498,1.4779785E1,0,13,0,32,37,
1572375071,2019-10-29 18:51:11.767,16498,1.4761566E1,0,9,0,43,43,
1572375131,2019-10-29 18:52:11.767,16483,1.4889038E1,0,9,0,35,37,
1572375191,2019-10-29 18:53:11.768,16525,1.4789429E1,0,6,0,37,38,
1572375251,2019-10-29 18:54:11.767,16525,1.4763702E1,0,2,0,38,40,
1572375311,2019-10-29 18:55:11.767,16525,1.5255402E1,0,10,0,35,42,
1572375371,2019-10-29 18:56:11.767,16525,1.4744415E1,0,10,0,40,35,
1572375431,2019-10-29 18:57:11.767,16511,1.4803345E1,0,9,0,40,38,
1572375491,2019-10-29 18:58:11.767,16511,1.4846191E1,0,9,0,36,39,
1572375551,2019-10-29 18:59:11.767,16525,1.4861176E1,0,9,0,38,38,
