Time(longsecs),Time(UTC),External SOH Voltage 1(V),External SOH Voltage 2(V),External SOH Voltage 3(V),External SOH Voltage 4(V),Sensor SOH Voltage 1(V),Sensor SOH Voltage 2(V),Sensor SOH Voltage 3(V),
1572314411,2019-10-29 02:00:11.767,-3.742218E-3,1.5377998E-3,-2.2904873E-3,3.967762E-3,2.1852016E-1,2.206564E-1,2.0998096E-1,
1572314471,2019-10-29 02:01:11.767,-6.504774E-3,-1.46842E-3,-4.617691E-3,1.4567375E-3,2.0683956E-1,2.1251774E-1,2.1163177E-1,
1572314531,2019-10-29 02:02:11.767,-4.1258335E-3,9.4795227E-4,-2.1162033E-3,3.6082268E-3,2.1773815E-1,2.207737E-1,2.1288586E-1,
1572314591,2019-10-29 02:03:11.767,-4.2846203E-3,8.0156326E-4,-2.7430058E-3,2.8293133E-3,2.1774006E-1,2.1969128E-1,2.1341896E-1,
1572314651,2019-10-29 02:04:11.767,-4.4424534E-3,1.5568733E-4,-2.6154518E-3,3.3085346E-3,2.2006702E-1,2.2284317E-1,2.2220898E-1,
1572314711,2019-10-29 02:05:11.769,-6.177664E-3,-1.4281273E-3,-4.539013E-3,1.0313988E-3,2.1245193E-1,2.1454716E-1,2.080555E-1,
1572314771,2019-10-29 02:06:11.767,-1.9242764E-3,3.1731129E-3,-5.6743622E-5,5.219698E-3,2.2583008E-1,2.2705841E-1,2.1953869E-1,
1572314831,2019-10-29 02:07:11.767,-3.4389496E-3,1.5234947E-3,-2.3319721E-3,3.8497448E-3,2.2203732E-1,2.2237206E-1,2.253828E-1,
1572314891,2019-10-29 02:08:11.767,-4.5547485E-3,6.0105324E-4,-2.8710365E-3,3.2503605E-3,2.1637535E-1,2.1920776E-1,2.1913433E-1,
1572314951,2019-10-29 02:09:11.767,-2.1584034E-3,3.0460358E-3,-1.8835068E-5,5.2058697E-3,2.2522831E-1,2.270441E-1,2.234354E-1,
1572315011,2019-10-29 02:10:11.767,-3.5579205E-3,1.4681816E-3,-2.1574497E-3,3.7324429E-3,2.184372E-1,2.2219372E-1,2.1071625E-1,
1572315071,2019-10-29 02:11:11.767,-6.412506E-3,-8.2731247E-4,-4.679203E-3,9.319782E-4,2.0955086E-1,2.1475887E-1,2.1307755E-1,
1572315131,2019-10-29 02:12:11.767,-1.8994808E-3,2.935648E-3,-3.209114E-4,5.568266E-3,2.1959496E-1,2.2398281E-1,2.2147751E-1,
1572315191,2019-10-29 02:13:11.767,-1.967907E-3,3.0460358E-3,-5.9103966E-4,5.861759E-3,2.267065E-1,2.2812271E-1,2.2307014E-1,
1572315251,2019-10-29 02:14:11.767,-2.1719933E-3,3.1597614E-3,-8.544922E-4,5.759001E-3,2.2768402E-1,2.2912598E-1,2.2570133E-1,
1572315311,2019-10-29 02:15:11.767,-6.2224865E-3,-1.2626648E-3,-4.579544E-3,1.6386509E-3,2.1585083E-1,2.1711159E-1,2.1502686E-1,
1572315371,2019-10-29 02:16:11.767,-4.307747E-3,5.5646896E-4,-2.6688576E-3,3.4487247E-3,2.1874619E-1,2.2035122E-1,2.1980572E-1,
1572315431,2019-10-29 02:17:11.769,-6.370783E-3,-1.5432835E-3,-4.2641163E-3,1.4731884E-3,2.2050953E-1,2.1514606E-1,2.1511555E-1,
1572315491,2019-10-29 02:18:11.767,-3.989935E-3,1.313448E-3,-2.112627E-3,3.5595894E-3,2.1778202E-1,2.2157955E-1,2.2519016E-1,
1572315551,2019-10-29 02:19:11.779,-6.2537193E-3,-2.023697E-3,-4.766941E-3,1.222372E-3,2.1201801E-1,2.141571E-1,2.1585941E-1,
1572315611,2019-10-29 02:20:11.767,-3.6776066E-3,6.623268E-4,-2.1440983E-3,4.1177273E-3,2.1310234E-1,2.1735859E-1,2.2011852E-1,
1572315671,2019-10-29 02:21:11.767,-6.689787E-3,-1.4593601E-3,-4.1754246E-3,1.0409355E-3,2.1299267E-1,2.1508503E-1,2.1442413E-1,
1572315731,2019-10-29 02:22:11.767,-3.3836365E-3,1.2841225E-3,-2.0534992E-3,3.963709E-3,2.1862221E-1,2.2381496E-1,2.1833801E-1,
1572315791,2019-10-29 02:23:11.769,-2.0971298E-3,3.0155182E-3,-6.277561E-4,5.672455E-3,2.2315788E-1,2.2612667E-1,2.233963E-1,
1572315851,2019-10-29 02:24:11.795,-6.2708855E-3,-9.801388E-4,-4.187584E-3,9.7060204E-4,2.1374512E-1,2.1480846E-1,2.1084595E-1,
1572315911,2019-10-29 02:25:11.781,-1.480341E-3,3.0868053E-3,-6.8736076E-4,5.8455467E-3,2.2377396E-1,2.2960377E-1,2.2722054E-1,
1572315971,2019-10-29 02:26:11.767,-6.4435005E-3,-1.6443729E-3,-5.0337315E-3,1.1870861E-3,2.1454144E-1,2.1594715E-1,2.1002674E-1,
1572316031,2019-10-29 02:27:11.767,-4.3563843E-3,6.0105324E-4,-3.1251907E-3,3.1261444E-3,2.168293E-1,2.1967411E-1,2.1421432E-1,
1572316091,2019-10-29 02:28:11.767,-6.633997E-3,-1.430273E-3,-4.3103695E-3,1.3430119E-3,2.1025753E-1,2.1371746E-1,2.0580006E-1,
1572316151,2019-10-29 02:29:11.767,-4.3103695E-3,1.0459423E-3,-2.6929379E-3,2.7759075E-3,2.1825027E-1,2.2025299E-1,2.1857452E-1,
1572316211,2019-10-29 02:30:11.767,-4.4765472E-3,3.5715103E-4,-2.968073E-3,2.9530525E-3,2.1790981E-1,2.2153473E-1,2.2487926E-1,
1572316271,2019-10-29 02:31:11.767,-1.781702E-3,3.2556057E-3,-1.7666817E-4,6.0198307E-3,2.267828E-1,2.297821E-1,2.2185707E-1,
1572316331,2019-10-29 02:32:11.767,-4.4863224E-3,8.046627E-4,-2.637148E-3,2.9866695E-3,2.1845818E-1,2.2064781E-1,2.2362614E-1,
1572316391,2019-10-29 02:33:11.767,-1.8048286E-3,3.1638145E-3,-3.5619736E-4,5.7291985E-3,2.2916031E-1,2.3075104E-1,2.3425484E-1,
1572316451,2019-10-29 02:34:11.767,-6.1719418E-3,-1.2512207E-3,-4.6715736E-3,1.0859966E-3,2.1366215E-1,2.1614933E-1,2.0802116E-1,
1572316511,2019-10-29 02:35:11.767,-4.445076E-3,4.7826767E-4,-2.7432442E-3,3.054142E-3,2.1934986E-1,2.2023106E-1,2.073307E-1,
1572316571,2019-10-29 02:36:11.767,-2.4368763E-3,3.1261444E-3,-8.8214874E-5,5.8419704E-3,2.2331238E-1,2.2514534E-1,2.1568298E-1,
1572316631,2019-10-29 02:37:11.767,-6.214142E-3,-1.483202E-3,-4.1720867E-3,7.543564E-4,2.1258354E-1,2.1410179E-1,2.1937752E-1,
1572316691,2019-10-29 02:38:11.767,-6.104231E-3,-1.3103485E-3,-4.72188E-3,1.8219948E-3,2.1497822E-1,2.1719074E-1,2.1154308E-1,
1572316751,2019-10-29 02:39:11.767,-4.3644905E-3,9.3483925E-4,-2.4766922E-3,3.0858517E-3,2.2052479E-1,2.2310925E-1,2.2019863E-1,
1572316811,2019-10-29 02:40:11.796,-4.2419434E-3,3.2186508E-4,-2.9177666E-3,3.4389496E-3,2.2051334E-1,2.2070312E-1,2.1668243E-1,
1572316871,2019-10-29 02:41:11.767,-4.2352676E-3,6.3848495E-4,-2.809763E-3,3.4332275E-3,2.1629906E-1,2.2039795E-1,2.2351933E-1,
1572316931,2019-10-29 02:42:11.768,-1.5594959E-3,3.3342838E-3,-4.825592E-4,5.6762695E-3,2.2748375E-1,2.2990131E-1,2.2430706E-1,
1572316991,2019-10-29 02:43:11.767,-4.422188E-3,8.4114075E-4,-2.48003E-3,3.4122467E-3,2.190342E-1,2.2207928E-1,2.2031021E-1,
1572317051,2019-10-29 02:44:11.767,-4.493952E-3,6.842613E-4,-2.5622845E-3,3.0181408E-3,2.209177E-1,2.2303581E-1,2.2611332E-1,
1572317111,2019-10-29 02:45:11.767,-1.7287731E-3,2.717495E-3,-7.0643425E-4,5.8808327E-3,2.2331238E-1,2.2503948E-1,2.2903347E-1,
1572317171,2019-10-29 02:46:11.767,-3.9434433E-3,1.005888E-3,-2.8395653E-3,3.442049E-3,2.1945667E-1,2.2092438E-1,2.1187687E-1,
1572317231,2019-10-29 02:47:11.799,-4.337549E-3,5.877018E-4,-2.197504E-3,2.9625893E-3,2.174406E-1,2.1814442E-1,2.1814442E-1,
1572317291,2019-10-29 02:48:11.768,-6.8445206E-3,-1.652956E-3,-4.4472218E-3,1.1980534E-3,2.1533298E-1,2.1627712E-1,2.1509838E-1,
1572317351,2019-10-29 02:49:11.797,-6.643772E-3,-1.234293E-3,-4.591942E-3,1.3382435E-3,2.1356392E-1,2.1528149E-1,2.1478367E-1,
1572317411,2019-10-29 02:50:11.767,-3.6416054E-3,1.6794205E-3,-2.3727417E-3,3.856182E-3,2.1941662E-1,2.2175312E-1,2.264452E-1,
1572317471,2019-10-29 02:51:11.767,-1.8615723E-3,2.9416084E-3,-6.4206123E-4,5.369425E-3,2.2838688E-1,2.2811985E-1,2.2775745E-1,
1572317531,2019-10-29 02:52:11.770,-6.6781044E-3,-7.8606606E-4,-4.260063E-3,1.7094612E-3,2.1195126E-1,2.1331692E-1,2.1846771E-1,
1572317591,2019-10-29 02:53:11.770,-1.8312931E-3,3.0822754E-3,-3.5738945E-4,5.7473183E-3,2.2340012E-1,2.2706795E-1,2.2244072E-1,
1572317651,2019-10-29 02:54:11.767,-4.108429E-3,6.33955E-4,-2.6843548E-3,3.3552647E-3,2.1797466E-1,2.2267056E-1,2.2982025E-1,
1572317711,2019-10-29 02:55:11.767,-1.9767284E-3,3.2413006E-3,-4.9853325E-4,5.964756E-3,2.264595E-1,2.2670078E-1,2.2293282E-1,
1572317771,2019-10-29 02:56:11.767,-6.355524E-3,-1.5101433E-3,-4.742384E-3,1.4047623E-3,2.1148205E-1,2.161398E-1,2.1857548E-1,
1572317831,2019-10-29 02:57:11.767,-2.0399094E-3,3.5636425E-3,-4.2891502E-4,5.65958E-3,2.2728539E-1,2.2966099E-1,2.3238182E-1,
1572317891,2019-10-29 02:58:11.767,-4.4362545E-3,5.6886673E-4,-2.6245117E-3,3.2064915E-3,2.200222E-1,2.2180271E-1,2.1836185E-1,
1572317951,2019-10-29 02:59:11.767,-3.4220219E-3,1.3093948E-3,-2.3565292E-3,4.2135715E-3,2.21591E-1,2.2226048E-1,2.2241306E-1,
