Time(longsecs),Time(UTC),External SOH Voltage 1(V),External SOH Voltage 2(V),External SOH Voltage 3(V),External SOH Voltage 4(V),Sensor SOH Voltage 1(V),Sensor SOH Voltage 2(V),Sensor SOH Voltage 3(V),
1572364811,2019-10-29 16:00:11.767,-3.9126873E-3,1.4078617E-3,-2.0167828E-3,3.2830238E-3,2.2163773E-1,2.2394371E-1,2.2204399E-1,
1572364871,2019-10-29 16:01:11.767,-4.217148E-3,5.760193E-4,-2.9997826E-3,3.2684803E-3,2.2616768E-1,2.2802448E-1,2.2397709E-1,
1572364931,2019-10-29 16:02:11.767,-6.15716E-3,-9.717941E-4,-4.341364E-3,1.2295246E-3,2.166977E-1,2.179451E-1,2.1154308E-1,
1572364991,2019-10-29 16:03:11.767,-1.7790794E-3,2.9211044E-3,-2.977848E-4,5.894661E-3,2.3278046E-1,2.3481846E-1,2.252922E-1,
1572365051,2019-10-29 16:04:11.767,-6.7937374E-3,-1.9271374E-3,-5.0549507E-3,9.686947E-4,2.196207E-1,2.2139263E-1,2.1899033E-1,
1572365111,2019-10-29 16:05:11.767,-4.4107437E-3,3.9434433E-4,-3.1085014E-3,3.1089783E-3,2.2143173E-1,2.2162247E-1,2.199812E-1,
1572365171,2019-10-29 16:06:11.778,-4.499197E-3,4.968643E-4,-2.8116703E-3,3.1645298E-3,2.2684193E-1,2.2912025E-1,2.3056984E-1,
1572365231,2019-10-29 16:07:11.767,-4.6355724E-3,4.6658516E-4,-3.1802654E-3,3.024578E-3,2.2253513E-1,2.2550106E-1,2.279892E-1,
1572365291,2019-10-29 16:08:11.768,-1.7359257E-3,3.2320023E-3,-5.62191E-4,5.615473E-3,2.2924805E-1,2.3106384E-1,2.3330212E-1,
1572365351,2019-10-29 16:09:11.767,-4.426241E-3,1.6450882E-4,-2.7487278E-3,3.4840107E-3,2.222166E-1,2.2444534E-1,2.1139431E-1,
1572365411,2019-10-29 16:10:11.767,-3.9186478E-3,8.49247E-4,-2.2354126E-3,3.5808086E-3,2.2258282E-1,2.2513866E-1,2.2162628E-1,
1572365471,2019-10-29 16:11:11.767,-3.6034584E-3,1.5385151E-3,-1.8525124E-3,3.8626194E-3,2.2172165E-1,2.2258663E-1,2.2145844E-1,
1572365531,2019-10-29 16:12:11.767,-6.256342E-3,-1.4965534E-3,-4.643917E-3,1.0697842E-3,2.1586514E-1,2.190752E-1,2.1351337E-1,
1572365591,2019-10-29 16:13:11.767,-6.29735E-3,-1.2266636E-3,-4.994154E-3,1.650095E-3,2.1710873E-1,2.1933651E-1,2.2186565E-1,
1572365651,2019-10-29 16:14:11.767,-4.9250126E-3,5.8054924E-4,-2.147913E-3,3.0443668E-3,2.2006893E-1,2.2297382E-1,2.1694374E-1,
1572365711,2019-10-29 16:15:11.767,-5.8090687E-3,-1.0721684E-3,-4.4248104E-3,1.4879704E-3,2.2040462E-1,2.2286224E-1,2.1792603E-1,
1572365771,2019-10-29 16:16:11.799,-4.3809414E-3,7.9607964E-4,-2.0725727E-3,3.405571E-3,2.2181511E-1,2.2842026E-1,2.1962261E-1,
1572365831,2019-10-29 16:17:11.767,-2.267599E-3,2.9673576E-3,-3.9482117E-4,5.5451393E-3,2.3083591E-1,2.3050404E-1,2.3735046E-1,
1572365891,2019-10-29 16:18:11.767,-6.1917305E-3,-1.2972355E-3,-5.0373077E-3,1.2147427E-3,2.2068596E-1,2.2208214E-1,2.280817E-1,
1572365951,2019-10-29 16:19:11.767,-4.40979E-3,7.021427E-4,-2.3722649E-3,3.5054684E-3,2.2068977E-1,2.2319984E-1,2.2686386E-1,
1572366011,2019-10-29 16:20:11.767,-2.0956993E-3,2.7134418E-3,-3.182888E-4,6.4189434E-3,2.2905064E-1,2.3103046E-1,2.177906E-1,
1572366071,2019-10-29 16:21:11.767,-4.0197372E-3,1.1935234E-3,-2.9449463E-3,3.717661E-3,2.2234821E-1,2.2467232E-1,2.2221756E-1,
1572366131,2019-10-29 16:22:11.767,-4.154682E-3,1.3101101E-3,-1.9464493E-3,4.0328503E-3,2.2334576E-1,2.2514343E-1,2.2749138E-1,
1572366191,2019-10-29 16:23:11.767,-2.1061897E-3,3.064394E-3,-6.4206123E-4,5.867481E-3,2.2737312E-1,2.2871685E-1,2.1900368E-1,
1572366251,2019-10-29 16:24:11.767,-4.141569E-3,4.8065186E-4,-2.7639866E-3,3.6993027E-3,2.2307682E-1,2.2430134E-1,2.2369766E-1,
1572366311,2019-10-29 16:25:11.767,-4.2932034E-3,9.5009804E-4,-1.5928745E-3,3.9274693E-3,2.2316074E-1,2.248888E-1,2.211237E-1,
1572366371,2019-10-29 16:26:11.767,-3.338337E-3,1.1603832E-3,-2.114296E-3,3.6993027E-3,2.241745E-1,2.255621E-1,2.2737694E-1,
1572366431,2019-10-29 16:27:11.767,-4.4431686E-3,7.853508E-4,-2.9358864E-3,3.1261444E-3,2.2329617E-1,2.2393227E-1,2.1730232E-1,
1572366491,2019-10-29 16:28:11.767,-3.9203167E-3,1.3701916E-3,-2.3036003E-3,3.6549568E-3,2.2363949E-1,2.2504425E-1,2.2528648E-1,
1572366551,2019-10-29 16:29:11.767,-6.039381E-3,-1.336813E-3,-4.6286583E-3,1.2624264E-3,2.2261715E-1,2.2776127E-1,2.221117E-1,
1572366611,2019-10-29 16:30:11.767,-4.057646E-3,1.7025471E-3,-2.5811195E-3,4.014492E-3,2.2047806E-1,2.2335625E-1,2.1378613E-1,
1572366671,2019-10-29 16:31:11.787,-4.073143E-3,9.653568E-4,-2.6443005E-3,3.0534267E-3,2.2306156E-1,2.25564E-1,2.2140312E-1,
1572366731,2019-10-29 16:32:11.767,-6.503582E-3,-9.4652176E-4,-5.326748E-3,6.759167E-4,2.1708393E-1,2.1872902E-1,2.2064877E-1,
1572366791,2019-10-29 16:33:11.849,-4.3838024E-3,1.0538101E-4,-3.2224655E-3,2.7916431E-3,2.2145844E-1,2.2151947E-1,2.2662926E-1,
1572366851,2019-10-29 16:34:11.767,-6.1068535E-3,-1.2550354E-3,-4.437208E-3,1.4994144E-3,2.1713352E-1,2.1913815E-1,2.1535873E-1,
1572366911,2019-10-29 16:35:11.767,-6.4828396E-3,-1.2319088E-3,-4.6081543E-3,1.5900135E-3,2.1698284E-1,2.1782589E-1,2.2268009E-1,
1572366971,2019-10-29 16:36:11.767,-5.9804916E-3,-1.326561E-3,-4.217148E-3,1.0082722E-3,2.1517181E-1,2.1692467E-1,2.1805096E-1,
1572367031,2019-10-29 16:37:11.767,-6.054163E-3,-1.3241768E-3,-4.7836304E-3,1.3413429E-3,2.2070312E-1,2.2228432E-1,2.1687603E-1,
1572367091,2019-10-29 16:38:11.767,-6.440401E-3,-9.4532967E-4,-4.1959286E-3,1.1792183E-3,2.1593666E-1,2.1925068E-1,2.1779251E-1,
1572367151,2019-10-29 16:39:11.796,-3.9904118E-3,8.1300735E-4,-2.6025772E-3,3.8497448E-3,2.2735119E-1,2.2925186E-1,2.2375965E-1,
1572367211,2019-10-29 16:40:11.767,-1.8081665E-3,2.9489994E-3,-6.4373016E-5,5.2394867E-3,2.2927952E-1,2.3119831E-1,2.3036957E-1,
1572367271,2019-10-29 16:41:11.767,-6.2594414E-3,-1.2478828E-3,-4.868269E-3,1.1882782E-3,2.1892071E-1,2.2241497E-1,2.1962643E-1,
1572367331,2019-10-29 16:42:11.768,-4.4140816E-3,8.933544E-4,-3.150463E-3,4.132509E-3,2.218132E-1,2.2486591E-1,2.1830368E-1,
1572367391,2019-10-29 16:43:11.768,-4.267454E-3,1.1217594E-3,-2.6216507E-3,3.0519962E-3,2.260561E-1,2.2827244E-1,2.2404575E-1,
1572367451,2019-10-29 16:44:11.768,-4.5170784E-3,1.2278557E-4,-2.2547245E-3,3.3380985E-3,2.2636795E-1,2.2823238E-1,2.2792053E-1,
1572367511,2019-10-29 16:45:11.768,-6.209135E-3,-1.5883446E-3,-3.6680698E-3,9.570122E-4,2.171421E-1,2.1904469E-1,2.0912933E-1,
1572367571,2019-10-29 16:46:11.810,-3.978491E-3,1.1534691E-3,-2.4750233E-3,3.632307E-3,2.2405624E-1,2.2685146E-1,2.2183418E-1,
1572367631,2019-10-29 16:47:11.767,-6.519556E-3,-1.2857914E-3,-4.395008E-3,1.2688637E-3,2.2066021E-1,2.2134972E-1,2.2252846E-1,
1572367691,2019-10-29 16:48:11.768,-2.361536E-3,2.8719902E-3,-5.4478645E-4,5.846739E-3,2.350092E-1,2.363491E-1,2.2589111E-1,
1572367751,2019-10-29 16:49:11.767,-4.5256615E-3,6.1535835E-4,-1.6930103E-3,2.821684E-3,2.2663498E-1,2.2956562E-1,2.2473621E-1,
1572367811,2019-10-29 16:50:11.767,-6.40893E-3,-1.2133121E-3,-4.0552616E-3,1.7986298E-3,2.1737194E-1,2.1758175E-1,2.1949387E-1,
1572367871,2019-10-29 16:51:11.770,-3.9827824E-3,1.1291504E-3,-2.2132397E-3,3.7112236E-3,2.2660542E-1,2.272911E-1,2.179079E-1,
1572367931,2019-10-29 16:52:11.769,-4.063368E-3,7.209778E-4,-2.4912357E-3,3.4649372E-3,2.2141361E-1,2.240839E-1,2.1426392E-1,
1572367991,2019-10-29 16:53:11.768,-6.029606E-3,-1.7719269E-3,-4.8377514E-3,8.1300735E-4,2.1773243E-1,2.1862221E-1,2.2070312E-1,
1572368051,2019-10-29 16:54:11.768,-1.8987656E-3,2.5486946E-3,-8.1300735E-5,5.540371E-3,2.324915E-1,2.3455143E-1,2.4030209E-1,
1572368111,2019-10-29 16:55:11.768,-3.91531E-3,1.5900135E-3,-1.5277863E-3,4.0454865E-3,2.230978E-1,2.2575569E-1,2.2653008E-1,
1572368171,2019-10-29 16:56:11.768,-4.3661594E-3,5.283356E-4,-3.0500889E-3,2.599001E-3,2.2837543E-1,2.3057747E-1,2.2322083E-1,
1572368231,2019-10-29 16:57:11.767,-6.376505E-3,-1.0931492E-3,-4.437208E-3,8.883476E-4,2.1631813E-1,2.184763E-1,2.171669E-1,
1572368291,2019-10-29 16:58:11.767,-1.8212795E-3,2.9482841E-3,-2.6917458E-4,6.170273E-3,2.2910309E-1,2.3195457E-1,2.2224712E-1,
1572368351,2019-10-29 16:59:11.769,-3.832817E-3,1.6255379E-3,-2.3224354E-3,3.850937E-3,2.2341919E-1,2.2538567E-1,2.217598E-1,
