Time(longsecs),Time(UTC),Earth Location,GPS Receiver Status,GPS Satellites Used,GPS PDOP,GPS TDOP,Timing Status,Timing Phase Lock,Timing Uncertainty(ns),DAC Count,Timing Error(ns),GPS Last Update Time,
1572382811,2019-10-29 21:00:11.767,47.651102N 0.578109E 182m,Off,7,2.053286,1.0966227,Time OK,Free running,1600,8412,0,2019-10-29 20:58:16.000000000,
1572382871,2019-10-29 21:01:11.767,47.651102N 0.578109E 182m,Off,7,2.053286,1.0966227,Time OK,Free running,2600,8412,0,2019-10-29 20:58:16.000000000,
1572382931,2019-10-29 21:02:11.779,47.651102N 0.578109E 182m,Off,7,2.053286,1.0966227,Time OK,Free running,3800,8412,0,2019-10-29 20:58:16.000000000,
1572382991,2019-10-29 21:03:11.767,47.651102N 0.578109E 182m,Off,7,2.053286,1.0966227,Time OK,Free running,4600,8412,0,2019-10-29 20:58:16.000000000,
1572383051,2019-10-29 21:04:11.768,47.651102N 0.578109E 182m,Off,7,2.053286,1.0966227,Time OK,Free running,5500,8412,0,2019-10-29 20:58:16.000000000,
1572383111,2019-10-29 21:05:11.815,47.651102N 0.578109E 182m,Off,7,2.053286,1.0966227,Time OK,Free running,6600,8412,0,2019-10-29 20:58:16.000000000,
1572383171,2019-10-29 21:06:11.767,47.651102N 0.578109E 182m,Off,7,2.053286,1.0966227,Time OK,Free running,7400,8412,0,2019-10-29 20:58:16.000000000,
1572383231,2019-10-29 21:07:11.769,47.651102N 0.578109E 182m,Off,7,2.053286,1.0966227,Time OK,Free running,8300,8412,0,2019-10-29 20:58:16.000000000,
1572383291,2019-10-29 21:08:11.768,47.651102N 0.578109E 182m,Off,7,2.053286,1.0966227,Time OK,Free running,9300,8412,0,2019-10-29 20:58:16.000000000,
1572383351,2019-10-29 21:09:11.767,47.651102N 0.578109E 182m,Off,7,2.053286,1.0966227,Time OK,Free running,10500,8412,0,2019-10-29 20:58:16.000000000,
1572383411,2019-10-29 21:10:11.767,47.651102N 0.578109E 182m,Off,7,2.053286,1.0966227,Time OK,Free running,11800,8412,0,2019-10-29 20:58:16.000000000,
1572383471,2019-10-29 21:11:11.767,47.651102N 0.578109E 182m,Off,7,2.053286,1.0966227,Time OK,Free running,13200,8412,0,2019-10-29 20:58:16.000000000,
1572383531,2019-10-29 21:12:11.798,47.651102N 0.578109E 182m,Off,7,2.053286,1.0966227,Time OK,Free running,14500,8412,0,2019-10-29 20:58:16.000000000,
1572383591,2019-10-29 21:13:11.767,47.651102N 0.578109E 182m,Off,7,2.053286,1.0966227,Time OK,Free running,15600,8412,0,2019-10-29 20:58:16.000000000,
1572383651,2019-10-29 21:14:11.798,47.651102N 0.578109E 182m,Off,7,2.053286,1.0966227,Time OK,Free running,16600,8412,0,2019-10-29 20:58:16.000000000,
1572383711,2019-10-29 21:15:11.767,47.651102N 0.578109E 182m,Off,7,2.053286,1.0966227,Time OK,Free running,17600,8412,0,2019-10-29 20:58:16.000000000,
1572383771,2019-10-29 21:16:11.767,47.651102N 0.578109E 182m,Off,7,2.053286,1.0966227,Time OK,Free running,18400,8412,0,2019-10-29 20:58:16.000000000,
1572383831,2019-10-29 21:17:11.768,47.651102N 0.578109E 182m,Off,7,2.053286,1.0966227,Time OK,Free running,19600,8412,0,2019-10-29 20:58:16.000000000,
1572383891,2019-10-29 21:18:11.767,47.651102N 0.578109E 182m,Off,7,2.053286,1.0966227,Time OK,Free running,20900,8412,0,2019-10-29 20:58:16.000000000,
1572383951,2019-10-29 21:19:11.767,47.651102N 0.578109E 182m,Off,7,2.053286,1.0966227,Time OK,Free running,22200,8412,0,2019-10-29 20:58:16.000000000,
1572384011,2019-10-29 21:20:11.767,47.651102N 0.578109E 182m,Off,7,2.053286,1.0966227,Time OK,Free running,23400,8412,0,2019-10-29 20:58:16.000000000,
1572384071,2019-10-29 21:21:11.767,47.651102N 0.578109E 182m,Off,7,2.053286,1.0966227,Time OK,Free running,24400,8412,0,2019-10-29 20:58:16.000000000,
1572384131,2019-10-29 21:22:11.767,47.651102N 0.578109E 182m,Off,7,2.053286,1.0966227,Time OK,Free running,25600,8412,0,2019-10-29 20:58:16.000000000,
1572384191,2019-10-29 21:23:11.796,47.651102N 0.578109E 182m,Off,7,2.053286,1.0966227,Time OK,Free running,26900,8412,0,2019-10-29 20:58:16.000000000,
1572384251,2019-10-29 21:24:11.767,47.651102N 0.578109E 182m,Off,7,2.053286,1.0966227,Time OK,Free running,27800,8412,0,2019-10-29 20:58:16.000000000,
1572384311,2019-10-29 21:25:11.767,47.651102N 0.578109E 182m,Off,7,2.053286,1.0966227,Time OK,Free running,28900,8412,0,2019-10-29 20:58:16.000000000,
1572384371,2019-10-29 21:26:11.768,47.651102N 0.578109E 182m,Off,7,2.053286,1.0966227,Time OK,Free running,30100,8412,0,2019-10-29 20:58:16.000000000,
1572384431,2019-10-29 21:27:11.767,47.651102N 0.578109E 182m,Off,7,2.053286,1.0966227,Time OK,Free running,31400,8412,0,2019-10-29 20:58:16.000000000,
1572384491,2019-10-29 21:28:11.767,47.651102N 0.578109E 182m,Off,7,2.053286,1.0966227,Time OK,Free running,32900,8412,0,2019-10-29 20:58:16.000000000,
1572384551,2019-10-29 21:29:11.767,47.651102N 0.578109E 182m,Off,7,2.053286,1.0966227,Time OK,Free running,34200,8412,0,2019-10-29 20:58:16.000000000,
1572384611,2019-10-29 21:30:11.767,47.651102N 0.578109E 182m,Off,7,2.053286,1.0966227,Time OK,Free running,35200,8412,0,2019-10-29 20:58:16.000000000,
1572384671,2019-10-29 21:31:11.767,47.651102N 0.578109E 182m,Off,7,2.053286,1.0966227,Time OK,Free running,36400,8412,0,2019-10-29 20:58:16.000000000,
1572384731,2019-10-29 21:32:11.767,47.651102N 0.578109E 182m,Off,7,2.053286,1.0966227,Time OK,Free running,37900,8412,0,2019-10-29 20:58:16.000000000,
1572384791,2019-10-29 21:33:11.767,47.651102N 0.578109E 182m,Off,7,2.053286,1.0966227,Time OK,Free running,39300,8412,0,2019-10-29 20:58:16.000000000,
1572384851,2019-10-29 21:34:11.767,47.651102N 0.578109E 182m,Off,7,2.053286,1.0966227,Time OK,Free running,40500,8412,0,2019-10-29 20:58:16.000000000,
1572384911,2019-10-29 21:35:11.767,47.651102N 0.578109E 182m,Off,7,2.053286,1.0966227,Time OK,Free running,41600,8412,0,2019-10-29 20:58:16.000000000,
1572384971,2019-10-29 21:36:11.767,47.651102N 0.578109E 182m,Off,7,2.053286,1.0966227,Time OK,Free running,42700,8412,0,2019-10-29 20:58:16.000000000,
1572385031,2019-10-29 21:37:11.767,47.651102N 0.578109E 182m,Off,7,2.053286,1.0966227,Time OK,Free running,43800,8412,0,2019-10-29 20:58:16.000000000,
1572385091,2019-10-29 21:38:11.767,47.651102N 0.578109E 182m,Off,7,2.053286,1.0966227,Time OK,Free running,44900,8412,0,2019-10-29 20:58:16.000000000,
1572385151,2019-10-29 21:39:11.767,47.651102N 0.578109E 182m,Off,7,2.053286,1.0966227,Time OK,Free running,46000,8412,0,2019-10-29 20:58:16.000000000,
1572385211,2019-10-29 21:40:11.767,47.651102N 0.578109E 182m,Off,7,2.053286,1.0966227,Time OK,Free running,47300,8412,0,2019-10-29 20:58:16.000000000,
1572385271,2019-10-29 21:41:11.767,47.651102N 0.578109E 182m,Off,7,2.053286,1.0966227,Time OK,Free running,48700,8412,0,2019-10-29 20:58:16.000000000,
1572385331,2019-10-29 21:42:11.767,47.651102N 0.578109E 182m,Off,7,2.053286,1.0966227,Time OK,Free running,49700,8412,0,2019-10-29 20:58:16.000000000,
1572385391,2019-10-29 21:43:11.769,47.651102N 0.578109E 182m,Off,7,2.053286,1.0966227,Time OK,Free running,50700,8412,0,2019-10-29 20:58:16.000000000,
1572385451,2019-10-29 21:44:11.767,47.651102N 0.578109E 182m,Doing fixes,6,2.0303583,1.1550364,Time OK,Coarse lock,100,8460,-208,2019-10-29 21:44:11.000000000,
1572385511,2019-10-29 21:45:11.767,47.651102N 0.578109E 182m,Doing fixes,5,2.0697477,1.037698,Time OK,Fine lock,100,8413,0,2019-10-29 21:45:11.000000000,
1572385571,2019-10-29 21:46:11.767,47.651102N 0.578109E 182m,Off,5,3.7718203,2.5229156,Time OK,Free running,500,8414,0,2019-10-29 21:45:36.000000000,
1572385631,2019-10-29 21:47:11.767,47.651102N 0.578109E 182m,Off,5,3.7718203,2.5229156,Time OK,Free running,1300,8414,0,2019-10-29 21:45:36.000000000,
1572385691,2019-10-29 21:48:11.768,47.651102N 0.578109E 182m,Off,5,3.7718203,2.5229156,Time OK,Free running,2200,8414,0,2019-10-29 21:45:36.000000000,
1572385751,2019-10-29 21:49:11.767,47.651102N 0.578109E 182m,Off,5,3.7718203,2.5229156,Time OK,Free running,3000,8414,0,2019-10-29 21:45:36.000000000,
1572385811,2019-10-29 21:50:11.767,47.651102N 0.578109E 182m,Off,5,3.7718203,2.5229156,Time OK,Free running,3800,8414,0,2019-10-29 21:45:36.000000000,
1572385871,2019-10-29 21:51:11.768,47.651102N 0.578109E 182m,Off,5,3.7718203,2.5229156,Time OK,Free running,4700,8414,0,2019-10-29 21:45:36.000000000,
1572385931,2019-10-29 21:52:11.767,47.651102N 0.578109E 182m,Off,5,3.7718203,2.5229156,Time OK,Free running,5600,8414,0,2019-10-29 21:45:36.000000000,
1572385991,2019-10-29 21:53:11.768,47.651102N 0.578109E 182m,Off,5,3.7718203,2.5229156,Time OK,Free running,6500,8414,0,2019-10-29 21:45:36.000000000,
1572386051,2019-10-29 21:54:11.767,47.651102N 0.578109E 182m,Off,5,3.7718203,2.5229156,Time OK,Free running,7500,8414,0,2019-10-29 21:45:36.000000000,
1572386111,2019-10-29 21:55:11.767,47.651102N 0.578109E 182m,Off,5,3.7718203,2.5229156,Time OK,Free running,8400,8414,0,2019-10-29 21:45:36.000000000,
1572386171,2019-10-29 21:56:11.767,47.651102N 0.578109E 182m,Off,5,3.7718203,2.5229156,Time OK,Free running,9300,8414,0,2019-10-29 21:45:36.000000000,
1572386231,2019-10-29 21:57:11.767,47.651102N 0.578109E 182m,Off,5,3.7718203,2.5229156,Time OK,Free running,10400,8414,0,2019-10-29 21:45:36.000000000,
1572386291,2019-10-29 21:58:11.767,47.651102N 0.578109E 182m,Off,5,3.7718203,2.5229156,Time OK,Free running,11400,8414,0,2019-10-29 21:45:36.000000000,
1572386351,2019-10-29 21:59:11.767,47.651102N 0.578109E 182m,Off,5,3.7718203,2.5229156,Time OK,Free running,12300,8414,0,2019-10-29 21:45:36.000000000,
