Time(longsecs),Time(UTC),External SOH Voltage 1(V),External SOH Voltage 2(V),External SOH Voltage 3(V),External SOH Voltage 4(V),Sensor SOH Voltage 1(V),Sensor SOH Voltage 2(V),Sensor SOH Voltage 3(V),
1572339611,2019-10-29 09:00:11.767,-3.54743E-3,1.1975765E-3,-1.7969608E-3,4.175186E-3,2.2268105E-1,2.2522259E-1,2.2455883E-1,
1572339671,2019-10-29 09:01:11.767,-1.7740726E-3,3.5851002E-3,1.4853477E-4,5.6107044E-3,2.3354149E-1,2.3521328E-1,2.2598934E-1,
1572339731,2019-10-29 09:02:11.767,-6.422043E-3,-1.0683537E-3,-4.2090416E-3,1.6329288E-3,2.1832752E-1,2.1890545E-1,2.18153E-1,
1572339791,2019-10-29 09:03:11.767,-6.0493946E-3,-1.0740757E-3,-4.737377E-3,1.108408E-3,2.2233486E-1,2.2338963E-1,2.2017384E-1,
1572339851,2019-10-29 09:04:11.767,-4.1737556E-3,6.353855E-4,-2.2444725E-3,3.3681393E-3,2.2877502E-1,2.3002815E-1,2.2225475E-1,
1572339911,2019-10-29 09:05:11.767,-2.364397E-3,2.981186E-3,-1.02996826E-4,5.619526E-3,2.2870827E-1,2.3193741E-1,2.300663E-1,
1572339971,2019-10-29 09:06:11.767,-2.0074844E-3,3.1454563E-3,4.1627884E-4,5.451679E-3,2.348156E-1,2.372036E-1,2.3248863E-1,
1572340031,2019-10-29 09:07:11.767,-6.142378E-3,-1.1577606E-3,-4.889965E-3,1.0674E-3,2.17556E-1,2.1848202E-1,2.1911812E-1,
1572340091,2019-10-29 09:08:11.767,-4.2905807E-3,7.77483E-4,-2.7341843E-3,3.5505295E-3,2.2776985E-1,2.2824478E-1,2.201376E-1,
1572340151,2019-10-29 09:09:11.767,-6.3631535E-3,-1.1789799E-3,-5.3579807E-3,1.4607906E-3,2.2095299E-1,2.2271919E-1,2.2104073E-1,
1572340211,2019-10-29 09:10:11.767,-4.514456E-3,5.38826E-4,-3.0691624E-3,3.2625198E-3,2.2234344E-1,2.2270775E-1,2.1064377E-1,
1572340271,2019-10-29 09:11:11.767,-4.326105E-3,1.0240078E-3,-3.4229755E-3,3.586769E-3,2.2276592E-1,2.2421837E-1,2.1935844E-1,
1572340331,2019-10-29 09:12:11.768,-4.150629E-3,6.74963E-4,-2.6476383E-3,3.0517578E-3,2.257042E-1,2.2851086E-1,2.1705818E-1,
1572340391,2019-10-29 09:13:11.767,-3.6830902E-3,1.2278557E-3,-1.8558502E-3,3.7019253E-3,2.2777367E-1,2.2966957E-1,2.1607399E-1,
1572340451,2019-10-29 09:14:11.767,-4.590988E-3,1.8429756E-4,-2.765417E-3,3.3652782E-3,2.2340298E-1,2.2361755E-1,2.2950172E-1,
1572340511,2019-10-29 09:15:11.767,-3.8731098E-3,7.324219E-4,-2.0420551E-3,3.8807392E-3,2.2939014E-1,2.3014927E-1,2.2385311E-1,
1572340571,2019-10-29 09:16:11.767,-6.2696934E-3,-1.2171268E-3,-3.9463043E-3,1.1036396E-3,2.2159672E-1,2.2170353E-1,2.1163177E-1,
1572340631,2019-10-29 09:17:11.767,-6.075144E-3,-5.745888E-4,-5.1088333E-3,1.3356209E-3,2.1954918E-1,2.212143E-1,2.14777E-1,
1572340691,2019-10-29 09:18:11.767,-6.575346E-3,-1.3408661E-3,-4.361391E-3,1.1560917E-3,2.2084713E-1,2.2297478E-1,2.2250271E-1,
1572340751,2019-10-29 09:19:11.812,-1.9407272E-3,3.0798912E-3,-5.6123734E-4,5.5999756E-3,2.3476028E-1,2.4382496E-1,2.3314476E-1,
1572340811,2019-10-29 09:20:11.767,-1.9390583E-3,3.8042068E-3,-5.0807E-4,5.26762E-3,2.3488426E-1,2.3616886E-1,2.3203945E-1,
1572340871,2019-10-29 09:21:11.767,-1.8684864E-3,3.3710003E-3,-1.3279915E-4,5.6841373E-3,2.3278141E-1,2.3450375E-1,2.3194599E-1,
1572340931,2019-10-29 09:22:11.767,-4.5366287E-3,6.015301E-4,-3.0386448E-3,3.5762787E-3,2.2221756E-1,2.2537518E-1,2.2378445E-1,
1572340991,2019-10-29 09:23:11.767,-6.229639E-3,-1.4338493E-3,-4.983902E-3,1.9011497E-3,2.2321224E-1,2.2411346E-1,2.2226524E-1,
1572341051,2019-10-29 09:24:11.767,-3.6842823E-3,9.520054E-4,-1.7669201E-3,3.5851002E-3,2.2771263E-1,2.2874546E-1,2.2689056E-1,
1572341111,2019-10-29 09:25:11.769,-3.7391186E-3,1.1181831E-3,-1.9350052E-3,3.8337708E-3,2.3161888E-1,2.3312283E-1,2.3165226E-1,
1572341171,2019-10-29 09:26:11.767,-2.1102428E-3,3.0198097E-3,1.4543533E-5,5.6355E-3,2.2884178E-1,2.3089123E-1,2.2147751E-1,
1572341231,2019-10-29 09:27:11.769,-3.878355E-3,1.2893677E-3,-2.3152828E-3,3.5309792E-3,2.2752953E-1,2.2927094E-1,2.2930622E-1,
1572341291,2019-10-29 09:28:11.767,-3.830433E-3,1.0592937E-3,-1.9521713E-3,3.8557053E-3,2.2557259E-1,2.2925758E-1,2.1506023E-1,
1572341351,2019-10-29 09:29:11.799,-4.2955875E-3,8.559227E-4,-2.5663376E-3,3.216982E-3,2.2686577E-1,2.264185E-1,2.2067356E-1,
1572341411,2019-10-29 09:30:11.767,-6.5948963E-3,-7.3361397E-4,-4.498005E-3,7.8082085E-4,2.2030354E-1,2.2173023E-1,2.1829987E-1,
1572341471,2019-10-29 09:31:11.816,-1.8889904E-3,3.0741692E-3,1.2469292E-4,6.107807E-3,2.3445034E-1,2.3405457E-1,2.2839737E-1,
1572341531,2019-10-29 09:32:11.767,-4.866123E-3,8.625984E-4,-3.2217503E-3,3.4124851E-3,2.2589588E-1,2.2839737E-1,2.2683811E-1,
1572341591,2019-10-29 09:33:11.767,-6.6752434E-3,-1.0902882E-3,-4.41885E-3,1.1515617E-3,2.2068691E-1,2.2244072E-1,2.24576E-1,
1572341651,2019-10-29 09:34:11.767,-1.8782616E-3,3.2947063E-3,-4.1985512E-4,5.4676533E-3,2.3238468E-1,2.3499966E-1,2.2796631E-1,
1572341711,2019-10-29 09:35:11.767,-1.773119E-3,3.5572052E-3,-3.9172173E-4,6.1917305E-3,2.3496342E-1,2.3687172E-1,2.3255539E-1,
1572341771,2019-10-29 09:36:11.802,-6.162882E-3,-8.9621544E-4,-4.5616627E-3,1.2443066E-3,2.1523285E-1,2.1302414E-1,2.1878052E-1,
1572341831,2019-10-29 09:37:11.769,-2.3860931E-3,2.2377968E-3,-2.641678E-4,5.07164E-3,2.3492241E-1,2.3555851E-1,2.2769928E-1,
1572341891,2019-10-29 09:38:11.767,-6.05011E-3,-9.0289116E-4,-4.9040318E-3,1.3885498E-3,2.2201538E-1,2.2384548E-1,2.1557713E-1,
1572341951,2019-10-29 09:39:11.767,-3.795147E-3,1.139164E-3,-2.4518967E-3,3.4360886E-3,2.2972965E-1,2.3012257E-1,2.3027897E-1,
1572342011,2019-10-29 09:40:11.767,-6.4833164E-3,-1.2516975E-3,-4.5011044E-3,1.4014244E-3,2.2084045E-1,2.2282124E-1,2.2008514E-1,
1572342071,2019-10-29 09:41:11.767,-4.617691E-3,6.2823296E-4,-2.2883415E-3,2.9184818E-3,2.2894478E-1,2.3018265E-1,2.2692871E-1,
1572342131,2019-10-29 09:42:11.767,-3.6981106E-3,8.3470345E-4,-2.2189617E-3,3.9327145E-3,2.234087E-1,2.2564983E-1,2.2647E-1,
1572342191,2019-10-29 09:43:11.767,-6.2999725E-3,-9.434223E-4,-4.98271E-3,1.1997223E-3,2.2171688E-1,2.2389984E-1,2.2565842E-1,
1572342251,2019-10-29 09:44:11.767,-6.4651966E-3,-1.4724731E-3,-4.8565865E-3,1.2814999E-3,2.2272778E-1,2.2429466E-1,2.1810246E-1,
1572342311,2019-10-29 09:45:11.767,-3.594637E-3,1.1062622E-3,-2.1584034E-3,3.875494E-3,2.303505E-1,2.3126411E-1,2.3187447E-1,
1572342371,2019-10-29 09:46:11.767,-3.6156178E-3,1.5201569E-3,-2.4609566E-3,3.8824081E-3,2.230568E-1,2.2468281E-1,2.1315956E-1,
1572342431,2019-10-29 09:47:11.769,-5.863428E-3,-9.0932846E-4,-5.0427914E-3,1.4529228E-3,2.1757889E-1,2.1930218E-1,2.1403599E-1,
1572342491,2019-10-29 09:48:11.806,-1.8846989E-3,2.28405E-3,-5.4073334E-4,5.376816E-3,2.3314476E-1,2.3052025E-1,2.2677803E-1,
1572342551,2019-10-29 09:49:11.767,-4.1778088E-3,1.0125637E-3,-1.9187927E-3,4.272461E-3,2.2368431E-1,2.261324E-1,2.198267E-1,
1572342611,2019-10-29 09:50:11.767,-2.1162033E-3,2.550602E-3,-6.644726E-4,6.05011E-3,2.3264313E-1,2.3480701E-1,2.3544502E-1,
1572342671,2019-10-29 09:51:11.767,-3.7572384E-3,1.6784668E-3,-3.0312538E-3,4.160166E-3,2.2560215E-1,2.2822952E-1,2.2855377E-1,
1572342731,2019-10-29 09:52:11.767,-3.778696E-3,1.7194748E-3,-9.901524E-4,3.9920807E-3,2.2445107E-1,2.2561646E-1,2.2609234E-1,
1572342791,2019-10-29 09:53:11.767,-4.1205883E-3,1.9621849E-4,-2.9127598E-3,3.885746E-3,2.2930622E-1,2.303667E-1,2.2741413E-1,
1572342851,2019-10-29 09:54:11.767,-1.958847E-3,3.2439232E-3,1.1944771E-4,6.0346127E-3,2.291975E-1,2.3077106E-1,2.2685528E-1,
1572342911,2019-10-29 09:55:11.767,-4.4875145E-3,3.7002563E-4,-2.8846264E-3,3.4942627E-3,2.215662E-1,2.2519684E-1,2.2282124E-1,
1572342971,2019-10-29 09:56:11.816,-3.6821365E-3,7.0261955E-4,-2.227068E-3,3.770113E-3,2.2873211E-1,2.3180008E-1,2.3122025E-1,
1572343031,2019-10-29 09:57:11.767,-6.624937E-3,-1.2202263E-3,-4.6708584E-3,1.5199184E-3,2.2286224E-1,2.2401237E-1,2.2059345E-1,
1572343091,2019-10-29 09:58:11.767,-2.1686554E-3,2.7740002E-3,-2.9468536E-4,5.2964687E-3,2.3418617E-1,2.3785973E-1,2.3277664E-1,
1572343151,2019-10-29 09:59:11.767,-6.8233013E-3,-1.3711452E-3,-4.4841766E-3,1.4116764E-3,2.200985E-1,2.22126E-1,2.176466E-1,
