Time(longsecs),Time(UTC),Supply Voltage(mV),Temperature(&deg;C),NMX Bus Current(mA),Sensor Current(mA),Serial Port Current(mA),Controller Current(mA),Digitizer Current(mA),
1572559220,2019-10-31 22:00:20.663,16461,1.6214447E1,0,9,0,26,37,
1572559280,2019-10-31 22:01:20.664,16461,1.6363617E1,0,13,0,35,36,
1572559340,2019-10-31 22:02:20.696,16461,1.6165436E1,0,6,0,26,39,
1572559400,2019-10-31 22:03:20.663,16488,1.6181396E1,0,6,0,37,38,
1572559460,2019-10-31 22:04:20.667,16420,1.6324188E1,0,6,0,36,36,
1572559520,2019-10-31 22:05:20.663,16461,1.6000275E1,0,9,0,48,36,
1572559580,2019-10-31 22:06:20.663,16461,1.6065277E1,0,9,0,30,42,
1572559640,2019-10-31 22:07:20.663,16461,1.5927826E1,0,11,0,37,39,
1572559700,2019-10-31 22:08:20.663,16461,1.6193115E1,0,7,0,36,35,
1572559760,2019-10-31 22:09:20.663,16406,1.6175018E1,25,6,0,36,37,
1572559820,2019-10-31 22:10:20.663,16461,1.629541E1,0,10,0,31,36,
1572559880,2019-10-31 22:11:20.663,16475,1.62901E1,0,7,0,37,34,
1572559940,2019-10-31 22:12:20.664,16502,1.6211243E1,0,10,0,43,37,
1572560000,2019-10-31 22:13:20.664,16366,1.6275177E1,0,6,0,44,39,
1572560060,2019-10-31 22:14:20.696,16448,1.625705E1,0,9,0,45,35,
1572560120,2019-10-31 22:15:20.664,16448,1.6162231E1,0,12,0,47,38,
1572560180,2019-10-31 22:16:20.663,16461,1.6183533E1,0,7,0,36,35,
1572560240,2019-10-31 22:17:20.663,16461,1.5984283E1,0,5,0,36,36,
1572560300,2019-10-31 22:18:20.663,16380,1.617395E1,0,9,0,37,36,
1572560360,2019-10-31 22:19:20.663,16502,1.5994934E1,0,9,0,36,37,
1572560420,2019-10-31 22:20:20.663,16461,1.6137726E1,0,9,0,36,33,
1572560480,2019-10-31 22:21:20.663,16461,1.5939545E1,0,3,0,38,37,
1572560540,2019-10-31 22:22:20.663,16461,1.6106812E1,0,7,0,38,36,
1572560600,2019-10-31 22:23:20.663,16461,1.610788E1,0,9,0,36,40,
1572560660,2019-10-31 22:24:20.663,16461,1.6081238E1,0,9,0,36,36,
1572560720,2019-10-31 22:25:20.696,16461,1.601944E1,22,8,0,34,36,
1572560780,2019-10-31 22:26:20.697,16461,1.6134521E1,0,9,0,41,36,
1572560840,2019-10-31 22:27:20.694,16461,1.6042877E1,0,4,0,36,32,
1572560900,2019-10-31 22:28:20.684,16461,1.6302856E1,0,9,0,31,38,
1572560960,2019-10-31 22:29:20.663,16461,1.6178192E1,0,9,0,36,38,
1572561020,2019-10-31 22:30:20.663,16461,1.6016235E1,0,8,0,31,35,
1572561080,2019-10-31 22:31:20.663,16393,1.5974701E1,0,9,0,36,36,
1572561140,2019-10-31 22:32:20.663,16448,1.6100433E1,0,9,0,37,35,
1572561200,2019-10-31 22:33:20.665,16461,1.6015198E1,0,9,0,37,41,
1572561260,2019-10-31 22:34:20.663,16461,1.6046082E1,0,8,0,36,37,
1572561320,2019-10-31 22:35:20.663,16461,1.6130249E1,0,8,0,31,36,
1572561380,2019-10-31 22:36:20.663,16461,1.5982147E1,0,9,0,31,34,
1572561440,2019-10-31 22:37:20.663,16461,1.5884125E1,0,8,0,31,34,
1572561500,2019-10-31 22:38:20.663,16461,1.614624E1,0,11,0,31,36,
1572561560,2019-10-31 22:39:20.663,16461,1.5946991E1,0,9,0,36,38,
1572561620,2019-10-31 22:40:20.663,16461,1.6120667E1,0,9,0,31,40,
1572561680,2019-10-31 22:41:20.663,16461,1.594165E1,0,9,0,36,34,
1572561740,2019-10-31 22:42:20.665,16461,1.6027985E1,0,8,0,37,39,
1572561800,2019-10-31 22:43:20.663,16366,1.6205902E1,0,2,0,36,34,
1572561860,2019-10-31 22:44:20.663,16488,1.6132385E1,0,9,0,37,34,
1572561920,2019-10-31 22:45:20.674,16448,1.6089783E1,0,8,0,33,34,
1572561980,2019-10-31 22:46:20.663,16433,1.603543E1,0,15,0,37,37,
1572562040,2019-10-31 22:47:20.663,16461,1.6227234E1,0,8,0,36,36,
1572562100,2019-10-31 22:48:20.663,16393,1.5972565E1,0,9,0,36,35,
1572562160,2019-10-31 22:49:20.663,16461,1.6149445E1,0,9,0,34,35,
1572562220,2019-10-31 22:50:20.663,16461,1.622934E1,0,10,0,34,36,
1572562280,2019-10-31 22:51:20.664,16461,1.5957642E1,0,3,0,32,36,
1572562340,2019-10-31 22:52:20.665,16461,1.5974701E1,0,10,0,36,34,
1572562400,2019-10-31 22:53:20.663,16461,1.5994934E1,0,11,0,32,35,
1572562460,2019-10-31 22:54:20.696,16461,1.5971497E1,0,14,0,37,33,
1572562520,2019-10-31 22:55:20.663,16461,1.615158E1,0,8,0,31,34,
1572562580,2019-10-31 22:56:20.663,16461,1.5900116E1,0,6,0,37,36,
1572562640,2019-10-31 22:57:20.663,16461,1.6071655E1,0,7,0,42,37,
1572562700,2019-10-31 22:58:20.665,16502,1.61409E1,0,11,0,36,34,
1572562760,2019-10-31 22:59:20.663,16461,1.6054596E1,0,8,0,36,40,
