Time(longsecs),Time(UTC),Supply Voltage(mV),Temperature(&deg;C),NMX Bus Current(mA),Sensor Current(mA),Serial Port Current(mA),Controller Current(mA),Digitizer Current(mA),
1570464026,2019-10-07 16:00:26.438,16225,3.3610535E1,0,10,0,64,40,
1570464086,2019-10-07 16:01:26.438,16211,3.344055E1,0,11,0,60,36,
1570464146,2019-10-07 16:02:26.440,16211,3.332831E1,0,14,0,62,39,
1570464206,2019-10-07 16:03:26.438,16211,3.3409546E1,0,11,0,61,37,
1570464266,2019-10-07 16:04:26.438,16211,3.330371E1,0,13,0,61,37,
1570464326,2019-10-07 16:05:26.440,16197,3.3368927E1,0,11,0,63,39,
1570464386,2019-10-07 16:06:26.438,16211,3.349295E1,0,13,0,64,37,
1570464446,2019-10-07 16:07:26.470,16211,3.3250275E1,0,13,0,52,38,
1570464506,2019-10-07 16:08:26.438,16225,3.323529E1,0,10,0,52,35,
1570464566,2019-10-07 16:09:26.438,16211,3.3085632E1,0,14,0,61,35,
1570464626,2019-10-07 16:10:26.441,16211,3.2889984E1,0,15,0,59,39,
1570464686,2019-10-07 16:11:26.438,16211,3.285257E1,0,7,0,59,36,
1570464746,2019-10-07 16:12:26.438,16211,3.2902832E1,0,11,0,52,35,
1570464806,2019-10-07 16:13:26.438,16197,3.2791626E1,0,7,0,62,37,
1570464866,2019-10-07 16:14:26.439,16197,3.25885E1,0,11,0,60,37,
1570464926,2019-10-07 16:15:26.438,16197,3.2530792E1,0,12,0,62,34,
1570464986,2019-10-07 16:16:26.438,16183,3.26131E1,0,10,0,61,40,
1570465046,2019-10-07 16:17:26.438,16197,3.245703E1,0,6,0,52,41,
1570465106,2019-10-07 16:18:26.440,16211,3.2276337E1,0,9,0,59,40,
1570465166,2019-10-07 16:19:26.440,16197,3.218869E1,0,11,0,61,40,
1570465226,2019-10-07 16:20:26.438,16183,3.233087E1,0,9,0,64,38,
1570465286,2019-10-07 16:21:26.438,16183,3.2192963E1,0,12,0,61,37,
1570465346,2019-10-07 16:22:26.439,16197,3.2128815E1,0,11,0,63,40,
1570465406,2019-10-07 16:23:26.439,16197,3.2025116E1,0,11,0,63,36,
1570465466,2019-10-07 16:24:26.438,16183,3.1980225E1,0,8,0,69,39,
1570465526,2019-10-07 16:25:26.438,16170,3.1969543E1,0,8,0,68,34,
1570465586,2019-10-07 16:26:26.438,16183,3.1844452E1,0,11,0,61,38,
1570465646,2019-10-07 16:27:26.440,16156,3.192035E1,0,10,0,61,40,
1570465706,2019-10-07 16:28:26.438,16170,3.1790985E1,0,10,0,52,39,
1570465766,2019-10-07 16:29:26.438,16183,3.1940674E1,0,8,0,65,37,
1570465826,2019-10-07 16:30:26.438,16183,3.1893616E1,0,10,0,61,37,
1570465886,2019-10-07 16:31:26.440,16183,3.1720428E1,0,9,0,61,37,
1570465946,2019-10-07 16:32:26.438,16183,3.157077E1,0,8,0,52,39,
1570466006,2019-10-07 16:33:26.440,16183,3.170868E1,0,10,0,52,33,
1570466066,2019-10-07 16:34:26.438,16170,3.1320618E1,0,11,0,61,39,
1570466126,2019-10-07 16:35:26.439,16170,3.132489E1,0,16,0,59,35,
1570466186,2019-10-07 16:36:26.448,16170,3.1199799E1,0,8,0,59,36,
1570466246,2019-10-07 16:37:26.438,16170,3.1332367E1,0,6,0,52,37,
1570466306,2019-10-07 16:38:26.438,16143,3.1013794E1,0,10,0,61,35,
1570466366,2019-10-07 16:39:26.438,16143,3.1200867E1,0,10,0,64,38,
1570466426,2019-10-07 16:40:26.438,16156,3.111322E1,0,13,0,59,38,
1570466486,2019-10-07 16:41:26.438,16170,3.0905823E1,0,10,0,65,36,
1570466546,2019-10-07 16:42:26.438,16156,3.1052277E1,0,10,0,59,37,
1570466606,2019-10-07 16:43:26.439,16183,3.0873749E1,0,10,0,59,39,
1570466666,2019-10-07 16:44:26.438,16156,3.0673828E1,0,9,0,62,40,
1570466726,2019-10-07 16:45:26.440,16156,3.0807465E1,0,13,0,61,40,
1570466786,2019-10-07 16:46:26.438,16156,3.0598999E1,0,15,0,59,39,
1570466846,2019-10-07 16:47:26.438,16156,3.093576E1,0,13,0,52,38,
1570466906,2019-10-07 16:48:26.438,16156,3.0694153E1,0,7,0,52,38,
1570466966,2019-10-07 16:49:26.439,16156,3.0573334E1,0,7,0,59,35,
1570467026,2019-10-07 16:50:26.439,16143,3.051773E1,0,10,0,71,37,
1570467086,2019-10-07 16:51:26.438,16129,3.0349915E1,0,11,0,71,34,
1570467146,2019-10-07 16:52:26.439,15885,3.0427948E1,0,11,0,68,36,
1570467206,2019-10-07 16:53:26.438,16143,3.0447174E1,0,5,0,52,38,
1570467266,2019-10-07 16:54:26.457,16170,3.0308197E1,0,9,0,61,37,
1570467326,2019-10-07 16:55:26.440,16143,3.0096527E1,0,12,0,61,38,
1570467386,2019-10-07 16:56:26.475,16143,3.011258E1,0,9,0,61,39,
1570467446,2019-10-07 16:57:26.438,16156,3.0064453E1,0,9,0,52,37,
1570467506,2019-10-07 16:58:26.439,16143,3.0009949E1,0,10,0,55,39,
1570467566,2019-10-07 16:59:26.438,16143,2.9673187E1,0,6,0,61,36,
