Time(longsecs),Time(UTC),External SOH Voltage 1(V),External SOH Voltage 2(V),External SOH Voltage 3(V),External SOH Voltage 4(V),Sensor SOH Voltage 1(V),Sensor SOH Voltage 2(V),Sensor SOH Voltage 3(V),
1570442426,2019-10-07 10:00:26.438,-4.7023296E-3,-4.1069984E-3,4.400015E-3,-2.2342205E-3,4.413452E-1,4.396448E-1,4.3034458E-1,
1570442486,2019-10-07 10:01:26.440,-7.056713E-3,-6.0224533E-3,2.231598E-3,-4.0807724E-3,4.266634E-1,4.270668E-1,4.3310833E-1,
1570442546,2019-10-07 10:02:26.438,-4.1151047E-3,-2.9685497E-3,5.6262016E-3,-1.5149117E-3,4.2989635E-1,4.2973328E-1,4.3131256E-1,
1570442606,2019-10-07 10:03:26.471,-4.7717094E-3,-4.177332E-3,4.1406155E-3,-2.1102428E-3,4.3461037E-1,4.3135548E-1,4.30748E-1,
1570442666,2019-10-07 10:04:26.450,-2.2568703E-3,-1.1093616E-3,7.3139668E-3,3.6144257E-4,4.4570637E-1,4.4563103E-1,4.4347668E-1,
1570442726,2019-10-07 10:05:26.439,-7.2340965E-3,-6.030798E-3,2.6216507E-3,-4.3320656E-3,4.289446E-1,4.274807E-1,4.227953E-1,
1570442786,2019-10-07 10:06:26.439,-4.9419403E-3,-3.9992332E-3,4.6277046E-3,-2.1708012E-3,4.3568897E-1,4.3436813E-1,4.3199158E-1,
1570442846,2019-10-07 10:07:26.438,-6.780386E-3,-5.6803226E-3,2.5029182E-3,-4.156351E-3,4.2978954E-1,4.2892742E-1,4.2516232E-1,
1570442906,2019-10-07 10:08:26.438,-4.798889E-3,-3.4966469E-3,4.832506E-3,-1.450777E-3,4.3531322E-1,4.338293E-1,4.2993546E-1,
1570442966,2019-10-07 10:09:26.438,-4.924059E-3,-3.8604736E-3,4.392624E-3,-2.3846626E-3,4.3536758E-1,4.3387032E-1,4.328556E-1,
1570443026,2019-10-07 10:10:26.438,-4.2717457E-3,-3.2110214E-3,5.408287E-3,-1.1866093E-3,4.3586922E-1,4.3626785E-1,4.2965984E-1,
1570443086,2019-10-07 10:11:26.440,-2.270937E-3,-1.3916492E-3,7.214546E-3,5.505085E-4,4.465065E-1,4.4160175E-1,4.3970203E-1,
1570443146,2019-10-07 10:12:26.438,-6.829262E-3,-5.9936047E-3,2.5558472E-3,-4.390478E-3,4.3062878E-1,4.2916203E-1,4.3121243E-1,
1570443206,2019-10-07 10:13:26.440,-6.725073E-3,-6.1211586E-3,2.5138855E-3,-4.409075E-3,4.23666E-1,4.2205906E-1,4.264326E-1,
1570443266,2019-10-07 10:14:26.438,-4.579544E-3,-3.7333965E-3,4.310131E-3,-2.421856E-3,4.345646E-1,4.3407822E-1,4.2747688E-1,
1570443326,2019-10-07 10:15:26.438,-6.6456795E-3,-5.5134296E-3,2.5086403E-3,-3.978014E-3,4.2970848E-1,4.2965508E-1,4.2519283E-1,
1570443386,2019-10-07 10:16:26.439,-3.898859E-3,-3.1647682E-3,5.1705837E-3,-1.1589527E-3,4.3591785E-1,4.3540287E-1,4.3238258E-1,
1570443446,2019-10-07 10:17:26.439,-2.6237965E-3,-1.1284351E-3,7.1811676E-3,1.2564659E-4,4.3980598E-1,4.4007206E-1,4.4025898E-1,
1570443506,2019-10-07 10:18:26.438,-2.3231506E-3,-1.2555122E-3,7.189989E-3,5.722046E-4,4.4179726E-1,4.397459E-1,4.421196E-1,
1570443566,2019-10-07 10:19:26.439,-2.701044E-3,-1.4398098E-3,6.855011E-3,-2.6226044E-5,4.4095325E-1,4.4050694E-1,4.3833447E-1,
1570443626,2019-10-07 10:20:26.438,-4.58622E-3,-3.2918453E-3,5.295992E-3,-1.3930798E-3,4.3546772E-1,4.352579E-1,4.314518E-1,
1570443686,2019-10-07 10:21:26.438,-6.4041615E-3,-5.6188107E-3,3.0009747E-3,-4.2505264E-3,4.2865086E-1,4.2742252E-1,4.228382E-1,
1570443746,2019-10-07 10:22:26.478,-4.728079E-3,-3.8795471E-3,4.80175E-3,-2.9447079E-3,4.4037628E-1,4.3383503E-1,4.3014145E-1,
1570443806,2019-10-07 10:23:26.439,-5.1686764E-3,-3.7209988E-3,4.526615E-3,-1.6596317E-3,4.3354893E-1,4.341402E-1,4.369774E-1,
1570443866,2019-10-07 10:24:26.438,-4.018545E-3,-3.2246113E-3,5.3288937E-3,-1.2369156E-3,4.330759E-1,4.305935E-1,4.351263E-1,
1570443926,2019-10-07 10:25:26.438,-2.347231E-3,-1.708746E-3,6.587267E-3,2.8157234E-4,4.427824E-1,4.4063282E-1,4.374981E-1,
1570443986,2019-10-07 10:26:26.438,-4.1515827E-3,-2.9520988E-3,5.2740574E-3,-1.4958382E-3,4.3710995E-1,4.3656826E-1,4.343443E-1,
1570444046,2019-10-07 10:27:26.438,-6.8416595E-3,-5.7706833E-3,2.7785301E-3,-4.496336E-3,4.2962933E-1,4.2834473E-1,4.2473793E-1,
1570444106,2019-10-07 10:28:26.438,-4.400015E-3,-3.7310123E-3,5.248308E-3,-1.5070438E-3,4.3467712E-1,4.3451977E-1,4.3489838E-1,
1570444166,2019-10-07 10:29:26.438,-2.5031567E-3,-1.544714E-3,6.7374706E-3,2.8562546E-4,4.3985367E-1,4.389515E-1,4.3629265E-1,
1570444226,2019-10-07 10:30:26.438,-5.125761E-3,-4.032612E-3,4.4853687E-3,-1.5010834E-3,4.3292427E-1,4.3190193E-1,4.30624E-1,
1570444286,2019-10-07 10:31:26.439,-6.5932274E-3,-6.0288906E-3,2.7017593E-3,-4.030466E-3,4.245329E-1,4.2477798E-1,4.2572975E-1,
1570444346,2019-10-07 10:32:26.438,-4.1120052E-3,-3.3917427E-3,4.919052E-3,-1.8956661E-3,4.339733E-1,4.3357277E-1,4.254799E-1,
1570444406,2019-10-07 10:33:26.438,-4.181862E-3,-3.1194687E-3,5.220175E-3,-1.6860962E-3,4.4086266E-1,4.396782E-1,4.2989445E-1,
1570444466,2019-10-07 10:34:26.438,-6.5932274E-3,-5.4192543E-3,2.4056435E-3,-4.061699E-3,4.2802334E-1,4.287386E-1,4.298029E-1,
1570444526,2019-10-07 10:35:26.438,-4.0647984E-3,-3.0674934E-3,5.320549E-3,-1.3451576E-3,4.3249798E-1,4.3225288E-1,4.3177986E-1,
1570444586,2019-10-07 10:36:26.438,-5.2285194E-3,-3.909111E-3,4.5113564E-3,-2.355814E-3,4.3313313E-1,4.3303108E-1,4.284954E-1,
1570444646,2019-10-07 10:37:26.438,-6.6080093E-3,-5.8534145E-3,2.5846958E-3,-3.578186E-3,4.279709E-1,4.272108E-1,4.2584515E-1,
1570444706,2019-10-07 10:38:26.451,-4.377842E-3,-3.08609E-3,4.8515797E-3,-1.8081665E-3,4.3261337E-1,4.3993187E-1,4.3648624E-1,
1570444766,2019-10-07 10:39:26.438,-6.7977905E-3,-5.410433E-3,2.5196075E-3,-3.795147E-3,4.249115E-1,4.2476463E-1,4.2499542E-1,
1570444826,2019-10-07 10:40:26.438,-2.5718212E-3,-1.4104843E-3,6.801605E-3,7.843971E-5,4.4125748E-1,4.4091415E-1,4.3990612E-1,
1570444886,2019-10-07 10:41:26.438,-4.2586327E-3,-3.5717487E-3,5.019188E-3,-1.4696121E-3,4.3514538E-1,4.343977E-1,4.3122864E-1,
1570444946,2019-10-07 10:42:26.438,-4.7380924E-3,-3.909111E-3,4.324436E-3,-2.0234585E-3,4.328251E-1,4.3244934E-1,4.3193436E-1,
1570445006,2019-10-07 10:43:26.480,-4.1701794E-3,-3.3085346E-3,5.7656765E-3,-1.1959076E-3,4.3287945E-1,4.311552E-1,4.2940807E-1,
1570445066,2019-10-07 10:44:26.438,-4.47917E-3,-3.570795E-3,4.8952103E-3,-1.3096333E-3,4.4045162E-1,4.3760872E-1,4.3114376E-1,
1570445126,2019-10-07 10:45:26.440,-4.3797493E-3,-3.0691624E-3,5.471945E-3,-1.5809536E-3,4.3268204E-1,4.338541E-1,4.377489E-1,
1570445186,2019-10-07 10:46:26.438,-4.6315193E-3,-4.1234493E-3,4.3747425E-3,-1.8808842E-3,4.252777E-1,4.2597103E-1,4.2848778E-1,
1570445246,2019-10-07 10:47:26.438,-6.8206787E-3,-5.6521893E-3,2.9873848E-3,-4.029274E-3,4.289751E-1,4.2881775E-1,4.2201233E-1,
1570445306,2019-10-07 10:48:26.439,-2.3350716E-3,-1.7285347E-3,6.913662E-3,5.686283E-4,4.415722E-1,4.400301E-1,4.3668175E-1,
1570445366,2019-10-07 10:49:26.438,-6.9298744E-3,-5.8898926E-3,2.4783611E-3,-3.957987E-3,4.2331028E-1,4.2474174E-1,4.252615E-1,
1570445426,2019-10-07 10:50:26.438,-6.7029E-3,-5.7582855E-3,2.5453568E-3,-3.8306713E-3,4.278555E-1,4.287777E-1,4.269657E-1,
1570445486,2019-10-07 10:51:26.438,-4.581213E-3,-3.8998127E-3,4.678488E-3,-1.8172264E-3,4.3127823E-1,4.3141937E-1,4.292822E-1,
1570445546,2019-10-07 10:52:26.440,-4.4014454E-3,-3.2844543E-3,5.166769E-3,-1.2280941E-3,4.339218E-1,4.3476868E-1,4.33774E-1,
1570445606,2019-10-07 10:53:26.438,-7.1616173E-3,-5.346298E-3,2.1383762E-3,-4.077196E-3,4.2669106E-1,4.2600536E-1,4.2496967E-1,
1570445666,2019-10-07 10:54:26.441,-3.8363934E-3,-3.1721592E-3,4.848957E-3,-9.901524E-4,4.337244E-1,4.2896175E-1,4.2303562E-1,
1570445726,2019-10-07 10:55:26.439,-7.263899E-3,-6.211996E-3,3.0961037E-3,-4.503727E-3,4.275856E-1,4.2466164E-1,4.213009E-1,
1570445786,2019-10-07 10:56:26.438,-5.1965714E-3,-3.6320686E-3,4.644394E-3,-1.9943714E-3,4.3156242E-1,4.371872E-1,4.3610573E-1,
1570445846,2019-10-07 10:57:26.439,-6.7243576E-3,-5.6192875E-3,3.273487E-3,-3.8957596E-3,4.2308807E-1,4.2750454E-1,4.2425442E-1,
1570445906,2019-10-07 10:58:26.438,-4.8635006E-3,-4.483938E-3,4.238844E-3,-2.5923252E-3,4.339695E-1,4.303341E-1,4.2896175E-1,
1570445966,2019-10-07 10:59:26.438,-4.1763783E-3,-3.128767E-3,5.032301E-3,-1.4746189E-3,4.3378067E-1,4.3452263E-1,4.3121147E-1,
