Time(longsecs),Time(UTC),External SOH Voltage 1(V),External SOH Voltage 2(V),External SOH Voltage 3(V),External SOH Voltage 4(V),Sensor SOH Voltage 1(V),Sensor SOH Voltage 2(V),Sensor SOH Voltage 3(V),
1570460426,2019-10-07 15:00:26.439,-6.521225E-3,-5.526781E-3,2.5348663E-3,-4.363537E-3,4.0983868E-1,4.090271E-1,4.0617752E-1,
1570460486,2019-10-07 15:01:26.438,-2.2394657E-3,-9.1052055E-4,7.3714256E-3,2.6512146E-4,4.259367E-1,4.213009E-1,4.196968E-1,
1570460546,2019-10-07 15:02:26.472,-4.7724247E-3,-3.881693E-3,5.0008297E-3,-2.9017925E-3,4.192934E-1,4.196558E-1,4.16502E-1,
1570460606,2019-10-07 15:03:26.438,-6.318569E-3,-5.2831173E-3,3.1206608E-3,-3.7992E-3,4.074993E-1,4.0942574E-1,4.0811062E-1,
1570460666,2019-10-07 15:04:26.438,-4.7209263E-3,-3.7298203E-3,4.2994022E-3,-2.505064E-3,4.1270256E-1,4.1412926E-1,4.1148853E-1,
1570460726,2019-10-07 15:05:26.438,-7.1046352E-3,-5.874872E-3,2.932787E-3,-4.1160583E-3,4.0746975E-1,4.1375542E-1,4.101963E-1,
1570460786,2019-10-07 15:06:26.438,-2.5966167E-3,-8.223057E-4,6.7925453E-3,1.1134148E-4,4.217205E-1,4.199257E-1,4.1737175E-1,
1570460846,2019-10-07 15:07:26.438,-4.2123795E-3,-3.1149387E-3,5.6927204E-3,-1.8160343E-3,4.15905E-1,4.0939236E-1,4.0689754E-1,
1570460906,2019-10-07 15:08:26.438,-4.4424534E-3,-3.1056404E-3,5.6738853E-3,-1.5306473E-3,4.2115498E-1,4.1934586E-1,4.1731644E-1,
1570460966,2019-10-07 15:09:26.438,-7.014036E-3,-5.499363E-3,2.7799606E-3,-3.7884712E-3,4.0891552E-1,4.1323566E-1,4.1015244E-1,
1570461026,2019-10-07 15:10:26.439,-6.6781044E-3,-5.768299E-3,2.7947426E-3,-3.8306713E-3,4.0379047E-1,4.086218E-1,4.066429E-1,
1570461086,2019-10-07 15:11:26.438,-4.0442944E-3,-2.985239E-3,5.1341057E-3,-1.3873577E-3,4.1909885E-1,4.1166687E-1,4.1152287E-1,
1570461146,2019-10-07 15:12:26.438,-2.07448E-3,-1.5728474E-3,7.001877E-3,5.083084E-4,4.3024063E-1,4.2136765E-1,4.185667E-1,
1570461206,2019-10-07 15:13:26.438,-5.045891E-3,-3.8654804E-3,4.446268E-3,-2.4561882E-3,4.1414928E-1,4.1845798E-1,4.161272E-1,
1570461266,2019-10-07 15:14:26.438,-6.718874E-3,-5.742073E-3,2.6698112E-3,-4.0557384E-3,4.0885162E-1,4.093485E-1,4.069538E-1,
1570461326,2019-10-07 15:15:26.477,-2.5224686E-3,-1.2054443E-3,6.90341E-3,-3.127575E-3,4.208746E-1,4.225893E-1,4.1855526E-1,
1570461386,2019-10-07 15:16:26.439,-2.2087097E-3,-1.2214184E-3,6.869316E-3,5.290508E-4,4.2268372E-1,4.196005E-1,4.1768837E-1,
1570461446,2019-10-07 15:17:26.438,-6.706953E-3,-5.970478E-3,2.408266E-3,-3.7968159E-3,4.0811062E-1,4.096899E-1,4.073286E-1,
1570461506,2019-10-07 15:18:26.438,-4.9316883E-3,-3.7679672E-3,4.2619705E-3,-3.3655167E-3,4.107914E-1,4.1059685E-1,4.0850163E-1,
1570461566,2019-10-07 15:19:26.438,-3.964424E-3,-3.0674934E-3,5.0082207E-3,-1.8327236E-3,4.2093372E-1,4.1967106E-1,4.182577E-1,
1570461626,2019-10-07 15:20:26.438,-6.626129E-3,-5.284071E-3,2.868414E-3,-3.8206577E-3,4.077406E-1,4.1492367E-1,4.1218185E-1,
1570461686,2019-10-07 15:21:26.440,-4.800558E-3,-3.7572384E-3,4.47464E-3,-2.0580292E-3,4.1184235E-1,4.1452503E-1,4.1218376E-1,
1570461746,2019-10-07 15:22:26.438,-2.383709E-3,-1.4901161E-3,7.03001E-3,3.2758713E-4,4.2146397E-1,4.1860676E-1,4.1631126E-1,
1570461806,2019-10-07 15:23:26.438,-4.4739246E-3,-3.1449795E-3,5.3288937E-3,-1.6405582E-3,4.1514015E-1,4.1562366E-1,4.128008E-1,
1570461866,2019-10-07 15:24:26.438,-2.0189285E-3,-1.1794567E-3,7.0581436E-3,3.8146973E-4,4.2160988E-1,4.2624378E-1,4.2373657E-1,
1570461926,2019-10-07 15:25:26.471,-6.2310696E-3,-5.532503E-3,2.7470589E-3,-2.9683113E-3,4.079895E-1,4.0714455E-1,4.044361E-1,
1570461986,2019-10-07 15:26:26.438,-2.4356842E-3,-1.8913746E-3,6.8130493E-3,4.7278404E-4,4.1622543E-1,4.1885185E-1,4.1788578E-1,
1570462046,2019-10-07 15:27:26.439,-6.537676E-3,-5.556345E-3,2.547741E-3,-4.0466785E-3,4.095974E-1,4.0694046E-1,4.051056E-1,
1570462106,2019-10-07 15:28:26.439,-4.8725605E-3,-3.7481785E-3,4.7740936E-3,-1.72472E-3,4.1573048E-1,4.1277695E-1,4.1034603E-1,
1570462166,2019-10-07 15:29:26.438,-2.4681091E-3,-1.3635159E-3,7.089138E-3,7.991791E-4,4.2216682E-1,4.1579723E-1,4.1337776E-1,
1570462226,2019-10-07 15:30:26.438,-4.2574406E-3,-2.9330254E-3,4.7729015E-3,-1.6613007E-3,4.2084694E-1,4.2011452E-1,4.183054E-1,
1570462286,2019-10-07 15:31:26.438,-6.6673756E-3,-5.9041977E-3,2.2194386E-3,-4.107952E-3,4.093771E-1,4.1218567E-1,4.1078758E-1,
1570462346,2019-10-07 15:32:26.438,-2.145052E-3,-1.4121532E-3,6.8802834E-3,-9.298325E-6,4.1822147E-1,4.1936684E-1,4.1649532E-1,
1570462406,2019-10-07 15:33:26.438,-5.0935745E-3,-3.8752556E-3,4.2090416E-3,-2.110958E-3,4.1312218E-1,4.1478443E-1,4.128008E-1,
1570462466,2019-10-07 15:34:26.438,-6.563425E-3,-5.3367615E-3,2.7065277E-3,-4.179001E-3,4.0957165E-1,4.0778065E-1,4.0446377E-1,
1570462526,2019-10-07 15:35:26.438,-4.3275356E-3,-3.5188198E-3,4.7822E-3,-1.4612675E-3,4.1482544E-1,4.158821E-1,4.1316795E-1,
1570462586,2019-10-07 15:36:26.479,-4.0483475E-3,-3.1590462E-3,5.3699017E-3,4.5919418E-4,4.1552448E-1,4.150238E-1,4.131422E-1,
1570462646,2019-10-07 15:37:26.473,-2.5861263E-3,-1.6372204E-3,6.7665577E-3,6.7949295E-4,4.2345142E-1,4.2147446E-1,4.1868973E-1,
1570462706,2019-10-07 15:38:26.482,-4.2119026E-3,-3.6501884E-3,4.8439503E-3,-9.226799E-4,4.115286E-1,4.1162395E-1,4.0919876E-1,
1570462766,2019-10-07 15:39:26.438,-4.1959286E-3,-3.045559E-3,4.991293E-3,-1.7015934E-3,4.1182137E-1,4.1423702E-1,4.1293716E-1,
1570462826,2019-10-07 15:40:26.438,-7.0798397E-3,-5.8517456E-3,2.7735233E-3,-4.2686462E-3,4.0995693E-1,4.031868E-1,3.993559E-1,
1570462886,2019-10-07 15:41:26.438,-6.659031E-3,-5.908489E-3,2.6712418E-3,-4.083395E-3,4.1439342E-1,4.1270256E-1,4.1079426E-1,
1570462946,2019-10-07 15:42:26.438,-4.9517155E-3,-3.9806366E-3,4.8012733E-3,-1.9555092E-3,4.1519356E-1,4.1859436E-1,4.1711235E-1,
1570463006,2019-10-07 15:43:26.438,-6.816864E-3,-5.96714E-3,2.4881363E-3,-3.9548874E-3,4.0453815E-1,4.084406E-1,4.0740013E-1,
1570463066,2019-10-07 15:44:26.438,-4.4481754E-3,-3.0009747E-3,5.175829E-3,-1.0170937E-3,4.1646862E-1,4.1242027E-1,4.1348553E-1,
1570463126,2019-10-07 15:45:26.438,-6.659031E-3,-5.104065E-3,2.892971E-3,-4.4078827E-3,4.1045284E-1,4.0944958E-1,4.0890598E-1,
1570463186,2019-10-07 15:46:26.471,-4.8673153E-3,-3.5176277E-3,4.4760704E-3,7.073879E-4,4.1333294E-1,4.1220284E-1,4.117546E-1,
1570463246,2019-10-07 15:47:26.438,-3.787756E-3,-3.1495094E-3,5.3088665E-3,-1.3427734E-3,4.1598415E-1,4.1754436E-1,4.1371155E-1,
1570463306,2019-10-07 15:48:26.438,-2.4416447E-3,-1.2133121E-3,6.7956448E-3,6.072521E-4,4.2149925E-1,4.2240906E-1,4.1894817E-1,
1570463366,2019-10-07 15:49:26.439,-6.5145493E-3,-5.6996346E-3,2.8326511E-3,-4.225731E-3,4.0872192E-1,4.0743828E-1,4.0437222E-1,
1570463426,2019-10-07 15:50:26.438,-5.184412E-3,-4.082918E-3,4.3640137E-3,-2.0489693E-3,4.141798E-1,4.1812897E-1,4.1533184E-1,
1570463486,2019-10-07 15:51:26.438,-3.8268566E-3,-2.837658E-3,5.6450367E-3,-1.1701584E-3,4.1307545E-1,4.1182137E-1,4.092312E-1,
1570463546,2019-10-07 15:52:26.438,-4.2390823E-3,-3.1888485E-3,5.206108E-3,-1.5332699E-3,4.1955948E-1,4.1571426E-1,4.131775E-1,
1570463606,2019-10-07 15:53:26.438,-4.02236E-3,-2.9993057E-3,5.431175E-3,-1.711607E-3,4.175167E-1,4.203701E-1,4.1974163E-1,
1570463666,2019-10-07 15:54:26.439,-6.22797E-3,-5.6140423E-3,2.786398E-3,-4.093647E-3,4.0276337E-1,4.0694046E-1,4.0582561E-1,
1570463726,2019-10-07 15:55:26.439,-6.4935684E-3,-5.865574E-3,2.3114681E-3,-4.3108463E-3,4.0411377E-1,4.0487957E-1,4.0111065E-1,
1570463786,2019-10-07 15:56:26.438,-2.4375916E-3,-1.4734268E-3,7.048607E-3,-1.3017654E-4,4.1788673E-1,4.1869736E-1,4.1589355E-1,
1570463846,2019-10-07 15:57:26.471,-6.618023E-3,-5.680084E-3,2.827406E-3,-3.904581E-3,4.0739536E-1,4.0735054E-1,4.0448093E-1,
1570463906,2019-10-07 15:58:26.438,-2.7537346E-3,-1.6155243E-3,6.9465637E-3,-6.341934E-5,4.1947746E-1,4.1845798E-1,4.1567326E-1,
1570463966,2019-10-07 15:59:26.438,-2.3686886E-3,-1.5621185E-3,6.560564E-3,5.633831E-4,4.2230892E-1,4.1670704E-1,4.1573048E-1,
