Time(longsecs),Time(UTC),Supply Voltage(mV),Temperature(&deg;C),NMX Bus Current(mA),Sensor Current(mA),Serial Port Current(mA),Controller Current(mA),Digitizer Current(mA),
1570471226,2019-10-07 18:00:26.440,16089,2.6904327E1,0,9,0,62,38,
1570471286,2019-10-07 18:01:26.438,16075,2.6953491E1,0,11,0,61,36,
1570471346,2019-10-07 18:02:26.438,16075,2.6932129E1,0,15,0,61,37,
1570471406,2019-10-07 18:03:26.438,16102,2.6834839E1,0,11,0,52,37,
1570471466,2019-10-07 18:04:26.438,16089,2.6827362E1,0,9,0,58,35,
1570471526,2019-10-07 18:05:26.438,16089,2.659964E1,0,11,0,60,38,
1570471586,2019-10-07 18:06:26.440,16062,2.6677673E1,0,4,0,61,39,
1570471646,2019-10-07 18:07:26.438,16089,2.6517334E1,0,11,0,52,38,
1570471706,2019-10-07 18:08:26.438,16075,2.660498E1,0,12,0,53,38,
1570471766,2019-10-07 18:09:26.438,16089,2.6358032E1,0,10,0,60,38,
1570471826,2019-10-07 18:10:26.439,16089,2.64628E1,0,11,0,69,37,
1570471886,2019-10-07 18:11:26.439,16075,2.6501282E1,0,11,0,67,39,
1570471946,2019-10-07 18:12:26.468,16089,2.6214783E1,0,13,0,52,40,
1570472006,2019-10-07 18:13:26.438,16075,2.6352692E1,0,9,0,61,38,
1570472066,2019-10-07 18:14:26.438,16075,2.6211578E1,0,13,0,60,40,
1570472126,2019-10-07 18:15:26.438,16075,2.627359E1,0,17,0,61,39,
1570472186,2019-10-07 18:16:26.438,16062,2.629068E1,0,7,0,63,38,
1570472246,2019-10-07 18:17:26.440,16075,2.6446777E1,0,13,0,62,38,
1570472306,2019-10-07 18:18:26.438,16075,2.6127106E1,0,12,0,51,36,
1570472366,2019-10-07 18:19:26.438,16075,2.6237244E1,0,11,0,61,39,
1570472426,2019-10-07 18:20:26.438,16075,2.6139954E1,0,9,0,60,41,
1570472486,2019-10-07 18:21:26.438,15980,2.6167755E1,0,11,0,61,38,
1570472546,2019-10-07 18:22:26.438,15913,2.6024475E1,0,12,0,52,37,
1570472606,2019-10-07 18:23:26.438,16048,2.6095032E1,0,11,0,52,37,
1570472666,2019-10-07 18:24:26.440,16048,2.5866272E1,0,9,0,60,35,
1570472726,2019-10-07 18:25:26.438,16062,2.592508E1,0,11,0,59,38,
1570472786,2019-10-07 18:26:26.438,16048,2.5700562E1,0,9,0,63,40,
1570472846,2019-10-07 18:27:26.438,16089,2.5936829E1,0,9,0,52,36,
1570472906,2019-10-07 18:28:26.438,16062,2.5983856E1,0,9,0,62,33,
1570472966,2019-10-07 18:29:26.438,16048,2.5690948E1,0,18,0,59,36,
1570473026,2019-10-07 18:30:26.440,16062,2.5779663E1,0,10,0,61,42,
1570473086,2019-10-07 18:31:26.438,16075,2.569629E1,0,9,0,61,38,
1570473146,2019-10-07 18:32:26.438,16062,2.5817078E1,0,9,0,52,40,
1570473206,2019-10-07 18:33:26.438,16062,2.5586182E1,0,10,0,52,36,
1570473266,2019-10-07 18:34:26.440,16062,2.5476074E1,0,10,0,60,38,
1570473326,2019-10-07 18:35:26.438,16048,2.5510284E1,0,9,0,61,37,
1570473386,2019-10-07 18:36:26.438,16048,2.5255829E1,0,9,0,57,37,
1570473446,2019-10-07 18:37:26.438,16062,2.563855E1,0,10,0,52,36,
1570473506,2019-10-07 18:38:26.438,16048,2.5586182E1,0,11,0,52,37,
1570473566,2019-10-07 18:39:26.439,16048,2.5325317E1,0,8,0,70,38,
1570473626,2019-10-07 18:40:26.439,16048,2.5171387E1,0,14,0,66,37,
1570473686,2019-10-07 18:41:26.438,16062,2.5284698E1,0,12,0,69,35,
1570473746,2019-10-07 18:42:26.439,16048,2.5396942E1,0,3,0,59,38,
1570473806,2019-10-07 18:43:26.446,16034,2.5433289E1,0,5,0,52,37,
1570473866,2019-10-07 18:44:26.438,16062,2.5024933E1,0,9,0,66,36,
1570473926,2019-10-07 18:45:26.438,16048,2.523233E1,0,8,0,61,35,
1570473986,2019-10-07 18:46:26.438,16075,2.5247284E1,0,9,0,60,38,
1570474046,2019-10-07 18:47:26.438,16048,2.531784E1,0,10,0,52,35,
1570474106,2019-10-07 18:48:26.449,16048,2.5221619E1,0,11,0,45,38,
1570474166,2019-10-07 18:49:26.438,16062,2.5239807E1,0,9,0,59,38,
1570474226,2019-10-07 18:50:26.438,16048,2.5093323E1,0,9,0,59,36,
1570474286,2019-10-07 18:51:26.438,16034,2.4920135E1,0,10,0,58,36,
1570474346,2019-10-07 18:52:26.438,16048,2.5044159E1,0,6,0,52,35,
1570474406,2019-10-07 18:53:26.438,16034,2.4994995E1,0,11,0,53,35,
1570474466,2019-10-07 18:54:26.438,16048,2.4881653E1,0,13,0,61,34,
1570474526,2019-10-07 18:55:26.438,16034,2.4968262E1,0,14,0,61,39,
1570474586,2019-10-07 18:56:26.438,16048,2.5038818E1,0,11,0,61,35,
1570474646,2019-10-07 18:57:26.438,16048,2.4996063E1,0,8,0,52,37,
1570474706,2019-10-07 18:58:26.439,16034,2.492978E1,0,9,0,59,38,
1570474766,2019-10-07 18:59:26.438,16034,2.4821808E1,0,11,0,61,37,
