Time(longsecs),Time(UTC),Earth Location,GPS Receiver Status,GPS Satellites Used,GPS PDOP,GPS TDOP,Timing Status,Timing Phase Lock,Timing Uncertainty(ns),DAC Count,Timing Error(ns),GPS Last Update Time,
1570953622,2019-10-13 08:00:22.352,47.644894N 0.586896E 217m,Off,4,1.8905953,0.55545425,Time OK,Free running,46300,9056,0,2019-10-13 07:12:49.000000000,
1570953682,2019-10-13 08:01:22.352,47.644894N 0.586896E 217m,Off,4,1.8905953,0.55545425,Time OK,Free running,47200,9056,0,2019-10-13 07:12:49.000000000,
1570953742,2019-10-13 08:02:22.352,47.644894N 0.586896E 217m,Off,4,1.8905953,0.55545425,Time OK,Free running,48100,9056,0,2019-10-13 07:12:49.000000000,
1570953802,2019-10-13 08:03:22.352,47.644894N 0.586896E 217m,Off,4,1.8905953,0.55545425,Time OK,Free running,48900,9056,0,2019-10-13 07:12:49.000000000,
1570953862,2019-10-13 08:04:22.352,47.644894N 0.586896E 217m,Off,4,1.8905953,0.55545425,Time OK,Free running,49900,9056,0,2019-10-13 07:12:49.000000000,
1570953922,2019-10-13 08:05:22.352,47.644894N 0.586896E 217m,Off,4,1.8905953,0.55545425,Time OK,Free running,50900,9056,0,2019-10-13 07:12:49.000000000,
1570953982,2019-10-13 08:06:22.352,47.644894N 0.586896E 217m,Doing fixes,4,3.9814463,2.6047843,Time OK,Coarse lock,100,9422,-3958,2019-10-13 08:06:19.000000000,
1570954042,2019-10-13 08:07:22.352,47.644894N 0.586896E 217m,Doing fixes,4,3.4679182,2.047835,Time OK,Fine lock,100,9060,0,2019-10-13 08:07:19.000000000,
1570954102,2019-10-13 08:08:22.352,47.644894N 0.586896E 217m,Doing fixes,4,3.4555686,2.0378966,Time OK,Fine lock,100,9062,0,2019-10-13 08:08:19.000000000,
1570954162,2019-10-13 08:09:22.352,47.644894N 0.586896E 217m,Off,4,3.4445918,2.029007,Time OK,Free running,100,9057,0,2019-10-13 08:09:19.000000000,
1570954222,2019-10-13 08:10:22.352,47.644894N 0.586896E 217m,Off,4,3.4445918,2.029007,Time OK,Free running,1200,9057,0,2019-10-13 08:09:19.000000000,
1570954282,2019-10-13 08:11:22.352,47.644894N 0.586896E 217m,Off,4,3.4445918,2.029007,Time OK,Free running,2400,9057,0,2019-10-13 08:09:19.000000000,
1570954342,2019-10-13 08:12:22.352,47.644894N 0.586896E 217m,Off,4,3.4445918,2.029007,Time OK,Free running,3500,9057,0,2019-10-13 08:09:19.000000000,
1570954402,2019-10-13 08:13:22.352,47.644894N 0.586896E 217m,Off,4,3.4445918,2.029007,Time OK,Free running,4500,9057,0,2019-10-13 08:09:19.000000000,
1570954462,2019-10-13 08:14:22.376,47.644894N 0.586896E 217m,Off,4,3.4445918,2.029007,Time OK,Free running,5600,9057,0,2019-10-13 08:09:19.000000000,
1570954522,2019-10-13 08:15:22.352,47.644894N 0.586896E 217m,Off,4,3.4445918,2.029007,Time OK,Free running,6700,9057,0,2019-10-13 08:09:19.000000000,
1570954582,2019-10-13 08:16:22.385,47.644894N 0.586896E 217m,Off,4,3.4445918,2.029007,Time OK,Free running,7500,9057,0,2019-10-13 08:09:19.000000000,
1570954642,2019-10-13 08:17:22.352,47.644894N 0.586896E 217m,Off,4,3.4445918,2.029007,Time OK,Free running,8300,9057,0,2019-10-13 08:09:19.000000000,
1570954702,2019-10-13 08:18:22.352,47.644894N 0.586896E 217m,Off,4,3.4445918,2.029007,Time OK,Free running,9400,9057,0,2019-10-13 08:09:19.000000000,
1570954762,2019-10-13 08:19:22.353,47.644894N 0.586896E 217m,Off,4,3.4445918,2.029007,Time OK,Free running,10900,9057,0,2019-10-13 08:09:19.000000000,
1570954822,2019-10-13 08:20:22.352,47.644894N 0.586896E 217m,Off,4,3.4445918,2.029007,Time OK,Free running,12200,9057,0,2019-10-13 08:09:19.000000000,
1570954882,2019-10-13 08:21:22.352,47.644894N 0.586896E 217m,Off,4,3.4445918,2.029007,Time OK,Free running,13300,9057,0,2019-10-13 08:09:19.000000000,
1570954942,2019-10-13 08:22:22.352,47.644894N 0.586896E 217m,Off,4,3.4445918,2.029007,Time OK,Free running,14700,9057,0,2019-10-13 08:09:19.000000000,
1570955002,2019-10-13 08:23:22.352,47.644894N 0.586896E 217m,Off,4,3.4445918,2.029007,Time OK,Free running,15900,9057,0,2019-10-13 08:09:19.000000000,
1570955062,2019-10-13 08:24:22.352,47.644894N 0.586896E 217m,Off,4,3.4445918,2.029007,Time OK,Free running,17200,9057,0,2019-10-13 08:09:19.000000000,
1570955122,2019-10-13 08:25:22.356,47.644894N 0.586896E 217m,Off,4,3.4445918,2.029007,Time OK,Free running,18200,9057,0,2019-10-13 08:09:19.000000000,
1570955182,2019-10-13 08:26:22.385,47.644894N 0.586896E 217m,Off,4,3.4445918,2.029007,Time OK,Free running,19100,9057,0,2019-10-13 08:09:19.000000000,
1570955242,2019-10-13 08:27:22.352,47.644894N 0.586896E 217m,Off,4,3.4445918,2.029007,Time OK,Free running,20200,9057,0,2019-10-13 08:09:19.000000000,
1570955302,2019-10-13 08:28:22.352,47.644894N 0.586896E 217m,Off,4,3.4445918,2.029007,Time OK,Free running,21200,9057,0,2019-10-13 08:09:19.000000000,
1570955362,2019-10-13 08:29:22.354,47.644894N 0.586896E 217m,Off,4,3.4445918,2.029007,Time OK,Free running,22100,9057,0,2019-10-13 08:09:19.000000000,
1570955422,2019-10-13 08:30:22.352,47.644894N 0.586896E 217m,Off,4,3.4445918,2.029007,Time OK,Free running,23000,9057,0,2019-10-13 08:09:19.000000000,
1570955482,2019-10-13 08:31:22.352,47.644894N 0.586896E 217m,Off,4,3.4445918,2.029007,Time OK,Free running,24100,9057,0,2019-10-13 08:09:19.000000000,
1570955542,2019-10-13 08:32:22.352,47.644894N 0.586896E 217m,Off,4,3.4445918,2.029007,Time OK,Free running,25300,9057,0,2019-10-13 08:09:19.000000000,
1570955602,2019-10-13 08:33:22.355,47.644894N 0.586896E 217m,Off,4,3.4445918,2.029007,Time OK,Free running,26300,9057,0,2019-10-13 08:09:19.000000000,
1570955662,2019-10-13 08:34:22.352,47.644894N 0.586896E 217m,Off,4,3.4445918,2.029007,Time OK,Free running,27300,9057,0,2019-10-13 08:09:19.000000000,
1570955722,2019-10-13 08:35:22.354,47.644894N 0.586896E 217m,Off,4,3.4445918,2.029007,Time OK,Free running,28300,9057,0,2019-10-13 08:09:19.000000000,
1570955782,2019-10-13 08:36:22.352,47.644894N 0.586896E 217m,Off,4,3.4445918,2.029007,Time OK,Free running,29300,9057,0,2019-10-13 08:09:19.000000000,
1570955842,2019-10-13 08:37:22.352,47.644894N 0.586896E 217m,Off,4,3.4445918,2.029007,Time OK,Free running,30400,9057,0,2019-10-13 08:09:19.000000000,
1570955902,2019-10-13 08:38:22.352,47.644894N 0.586896E 217m,Off,4,3.4445918,2.029007,Time OK,Free running,31300,9057,0,2019-10-13 08:09:19.000000000,
1570955962,2019-10-13 08:39:22.352,47.644894N 0.586896E 217m,Off,4,3.4445918,2.029007,Time OK,Free running,32200,9057,0,2019-10-13 08:09:19.000000000,
1570956022,2019-10-13 08:40:22.352,47.644894N 0.586896E 217m,Off,4,3.4445918,2.029007,Time OK,Free running,33200,9057,0,2019-10-13 08:09:19.000000000,
1570956082,2019-10-13 08:41:22.352,47.644894N 0.586896E 217m,Off,4,3.4445918,2.029007,Time OK,Free running,34100,9057,0,2019-10-13 08:09:19.000000000,
1570956142,2019-10-13 08:42:22.352,47.644894N 0.586896E 217m,Off,4,3.4445918,2.029007,Time OK,Free running,35000,9057,0,2019-10-13 08:09:19.000000000,
1570956202,2019-10-13 08:43:22.352,47.644894N 0.586896E 217m,Off,4,3.4445918,2.029007,Time OK,Free running,35800,9057,0,2019-10-13 08:09:19.000000000,
1570956262,2019-10-13 08:44:22.352,47.644894N 0.586896E 217m,Off,4,3.4445918,2.029007,Time OK,Free running,36600,9057,0,2019-10-13 08:09:19.000000000,
1570956322,2019-10-13 08:45:22.352,47.644894N 0.586896E 217m,Off,4,3.4445918,2.029007,Time OK,Free running,37500,9057,0,2019-10-13 08:09:19.000000000,
1570956382,2019-10-13 08:46:22.352,47.644894N 0.586896E 217m,Off,4,3.4445918,2.029007,Time OK,Free running,38300,9057,0,2019-10-13 08:09:19.000000000,
1570956442,2019-10-13 08:47:22.352,47.644894N 0.586896E 217m,Off,4,3.4445918,2.029007,Time OK,Free running,39100,9057,0,2019-10-13 08:09:19.000000000,
1570956502,2019-10-13 08:48:22.352,47.644894N 0.586896E 217m,Off,4,3.4445918,2.029007,Time OK,Free running,40000,9057,0,2019-10-13 08:09:19.000000000,
1570956562,2019-10-13 08:49:22.352,47.644894N 0.586896E 217m,Off,4,3.4445918,2.029007,Time OK,Free running,40900,9057,0,2019-10-13 08:09:19.000000000,
1570956622,2019-10-13 08:50:22.352,47.644894N 0.586896E 217m,Off,4,3.4445918,2.029007,Time OK,Free running,42000,9057,0,2019-10-13 08:09:19.000000000,
1570956682,2019-10-13 08:51:22.354,47.644894N 0.586896E 217m,Off,4,3.4445918,2.029007,Time OK,Free running,43000,9057,0,2019-10-13 08:09:19.000000000,
1570956742,2019-10-13 08:52:22.390,47.644894N 0.586896E 217m,Off,4,3.4445918,2.029007,Time OK,Free running,43800,9057,0,2019-10-13 08:09:19.000000000,
1570956802,2019-10-13 08:53:22.352,47.644894N 0.586896E 217m,Off,4,3.4445918,2.029007,Time OK,Free running,44700,9057,0,2019-10-13 08:09:19.000000000,
1570956862,2019-10-13 08:54:22.352,47.644894N 0.586896E 217m,Off,4,3.4445918,2.029007,Time OK,Free running,45900,9057,0,2019-10-13 08:09:19.000000000,
1570956922,2019-10-13 08:55:22.352,47.644894N 0.586896E 217m,Off,4,3.4445918,2.029007,Time OK,Free running,47000,9057,0,2019-10-13 08:09:19.000000000,
1570956982,2019-10-13 08:56:22.352,47.644894N 0.586896E 217m,Off,4,3.4445918,2.029007,Time OK,Free running,47900,9057,0,2019-10-13 08:09:19.000000000,
1570957042,2019-10-13 08:57:22.352,47.644894N 0.586896E 217m,Off,4,3.4445918,2.029007,Time OK,Free running,49100,9057,0,2019-10-13 08:09:19.000000000,
1570957102,2019-10-13 08:58:22.352,47.644894N 0.586896E 217m,Off,4,3.4445918,2.029007,Time OK,Free running,50500,9057,0,2019-10-13 08:09:19.000000000,
1570957162,2019-10-13 08:59:22.352,47.644894N 0.586896E 217m,No GPS time,4,3.4445918,2.029007,Time OK,Free running,51700,9057,0,2019-10-13 08:09:19.000000000,
