Time(longsecs),Time(UTC),Supply voltage(V),Total current(A),Temperature(&deg;C),
1570467600,2019-10-07 17:00:00.000,1.3220808389999998E1,1.17739403453664E-1,2.9656000000000002E1,
1570467900,2019-10-07 17:05:00.000,1.3220808389999998E1,1.17739403453664E-1,2.9687E1,
1570468200,2019-10-07 17:10:00.000,1.3220808389999998E1,1.15559044130448E-1,2.9656000000000002E1,
1570468500,2019-10-07 17:15:00.000,1.3220808389999998E1,1.1628583057152E-1,2.9593E1,
1570468800,2019-10-07 17:20:00.000,1.3220808389999998E1,1.15559044130448E-1,2.9593E1,
1570469100,2019-10-07 17:25:00.000,1.3220808389999998E1,1.15559044130448E-1,2.9562E1,
1570469400,2019-10-07 17:30:00.000,1.3220808389999998E1,1.15559044130448E-1,2.9562E1,
1570469700,2019-10-07 17:35:00.000,1.3207345244999999E1,1.1628583057152E-1,2.9531000000000002E1,
1570470000,2019-10-07 17:40:00.000,1.3207345244999999E1,1.15559044130448E-1,2.9531000000000002E1,
1570470300,2019-10-07 17:45:00.000,1.3207345244999999E1,1.35182278039392E-1,2.95E1,
1570470600,2019-10-07 17:50:00.000,1.31938821E1,1.47537647537616E-1,2.9468E1,
1570470900,2019-10-07 17:55:00.000,1.3220808389999998E1,1.17012617012592E-1,2.9468E1,
