Time(longsecs),Time(UTC),Sensor SOH Voltage A 1(uV),Sensor SOH Voltage A 2(uV),Sensor SOH Voltage A 3(uV),External SOH Voltage 1(uV),External SOH Voltage 2(uV),External SOH Voltage 3(uV),
1571824800,2019-10-23 10:00:00.000,-623770,,,,,,
1571825100,2019-10-23 10:05:00.000,-623770,,,,,,
1571825400,2019-10-23 10:10:00.000,-623770,,,,,,
1571825700,2019-10-23 10:15:00.000,-633494,,,,,,
1571826000,2019-10-23 10:20:00.000,-633494,,,,,,
1571826300,2019-10-23 10:25:00.000,-633494,,,,,,
1571826600,2019-10-23 10:30:00.000,-633494,,,,,,
1571826900,2019-10-23 10:35:00.000,-633494,,,,,,
1571827200,2019-10-23 10:40:00.000,-633494,,,,,,
1571827500,2019-10-23 10:45:00.000,-633494,,,,,,
1571827800,2019-10-23 10:50:00.000,-633494,,,,,,
1571828100,2019-10-23 10:55:00.000,-633494,,,,,,
