Time(longsecs),Time(UTC),Supply voltage(V),Total current(A),Temperature(&deg;C),
1571187600,2019-10-16 01:00:00.000,1.3247734679999999E1,9.1575091575072E-2,2.3437E1,
1571187900,2019-10-16 01:05:00.000,1.3247734679999999E1,9.1575091575072E-2,2.3437E1,
1571188200,2019-10-16 01:10:00.000,1.3247734679999999E1,9.230187801614399E-2,2.3437E1,
1571188500,2019-10-16 01:15:00.000,1.3247734679999999E1,9.3028664457216E-2,2.3437E1,
1571188800,2019-10-16 01:20:00.000,1.3247734679999999E1,9.1575091575072E-2,2.3468E1,
1571189100,2019-10-16 01:25:00.000,1.3220808389999998E1,1.28641200069744E-1,2.3437E1,
1571189400,2019-10-16 01:30:00.000,1.3247734679999999E1,9.230187801614399E-2,2.35E1,
1571189700,2019-10-16 01:35:00.000,1.3234271535E1,9.230187801614399E-2,2.35E1,
1571190000,2019-10-16 01:40:00.000,1.3247734679999999E1,9.230187801614399E-2,2.35E1,
1571190300,2019-10-16 01:45:00.000,1.3247734679999999E1,9.1575091575072E-2,2.3468E1,
1571190600,2019-10-16 01:50:00.000,1.3234271535E1,9.5209023780432E-2,2.3468E1,
1571190900,2019-10-16 01:55:00.000,1.3220808389999998E1,1.2210012210009599E-1,2.3468E1,
