Time(longsecs),Time(UTC),Supply voltage(V),Total current(A),Temperature(&deg;C),
1571295600,2019-10-17 07:00:00.000,1.3247734679999999E1,9.3755450898288E-2,2.3062E1,
1571295900,2019-10-17 07:05:00.000,1.3261197825E1,9.1575091575072E-2,2.3062E1,
1571296200,2019-10-17 07:10:00.000,1.3261197825E1,1.24280481423312E-1,2.3031E1,
1571296500,2019-10-17 07:15:00.000,1.330158726E1,9.0848305134E-2,2.3062E1,
1571296800,2019-10-17 07:20:00.000,1.3328513549999998E1,9.1575091575072E-2,2.3062E1,
1571297100,2019-10-17 07:25:00.000,1.3328513549999998E1,9.230187801614399E-2,2.3062E1,
1571297400,2019-10-17 07:30:00.000,1.3355439839999999E1,9.1575091575072E-2,2.3031E1,
1571297700,2019-10-17 07:35:00.000,1.338236613E1,9.0848305134E-2,2.3031E1,
1571298000,2019-10-17 07:40:00.000,1.338236613E1,9.230187801614399E-2,2.3031E1,
1571298300,2019-10-17 07:45:00.000,1.3368902985E1,9.0848305134E-2,2.3031E1,
1571298600,2019-10-17 07:50:00.000,1.3328513549999998E1,1.06110820396512E-1,2.3031E1,
1571298900,2019-10-17 07:55:00.000,1.3328513549999998E1,9.1575091575072E-2,2.3031E1,
