Time(longsecs),Time(UTC),Sensor SOH Voltage A 1(uV),Sensor SOH Voltage A 2(uV),Sensor SOH Voltage A 3(uV),External SOH Voltage 1(uV),External SOH Voltage 2(uV),External SOH Voltage 3(uV),
1571860800,2019-10-23 20:00:00.000,-633494,,,,,,
1571861100,2019-10-23 20:05:00.000,-623770,,,,,,
1571861400,2019-10-23 20:10:00.000,-633494,,,,,,
1571861700,2019-10-23 20:15:00.000,-633494,,,,,,
1571862000,2019-10-23 20:20:00.000,-623770,,,,,,
1571862300,2019-10-23 20:25:00.000,-633494,,,,,,
1571862600,2019-10-23 20:30:00.000,-633494,,,,,,
1571862900,2019-10-23 20:35:00.000,-633494,,,,,,
1571863200,2019-10-23 20:40:00.000,-643217,,,,,,
1571863500,2019-10-23 20:45:00.000,-633494,,,,,,
1571863800,2019-10-23 20:50:00.000,-633494,,,,,,
1571864100,2019-10-23 20:55:00.000,-633494,,,,,,
