Time(longsecs),Time(UTC),Earth location,GNSS receiver status,GNSS satellites used,Timing status,Phase lock loop status,Time uncertainty(ns),Timing DAC count,Time quality(&#37;),Time error(ns),
1571846400,2019-10-23 16:00:00.000,47.646509N 0.559596E 162m,Off,5,Time OK,Free running,14700,9526,90,0,
1571846700,2019-10-23 16:05:00.000,47.646509N 0.559596E 162m,Off,5,Time OK,Free running,25100,9526,90,0,
1571847000,2019-10-23 16:10:00.000,47.646509N 0.559596E 162m,Off,5,Time OK,Free running,36900,9526,90,0,
1571847300,2019-10-23 16:15:00.000,47.646509N 0.559596E 162m,Off,5,Time OK,Free running,49600,9526,90,0,
1571847600,2019-10-23 16:20:00.000,47.646509N 0.559596E 162m,Off,7,Time OK,Free running,4800,9527,90,0,
1571847900,2019-10-23 16:25:00.000,47.646509N 0.559596E 162m,Off,7,Time OK,Free running,13500,9527,90,0,
1571848200,2019-10-23 16:30:00.000,47.646509N 0.559596E 162m,Off,7,Time OK,Free running,23300,9527,90,0,
1571848500,2019-10-23 16:35:00.000,47.646509N 0.559596E 162m,Off,7,Time OK,Free running,33900,9527,90,0,
1571848800,2019-10-23 16:40:00.000,47.646509N 0.559596E 162m,Off,7,Time OK,Free running,45500,9527,90,0,
1571849100,2019-10-23 16:45:00.000,47.646509N 0.559596E 162m,GNSS locked,4,Time OK,Coarse lock,1500,9336,90,1458,
1571849400,2019-10-23 16:50:00.000,47.646509N 0.559596E 162m,Off,5,Time OK,Free running,7400,9526,90,0,
1571849700,2019-10-23 16:55:00.000,47.646509N 0.559596E 162m,Off,5,Time OK,Free running,16000,9526,90,0,
