Time(longsecs),Time(UTC),Sensor SOH Voltage A 1(uV),Sensor SOH Voltage A 2(uV),Sensor SOH Voltage A 3(uV),External SOH Voltage 1(uV),External SOH Voltage 2(uV),External SOH Voltage 3(uV),
1571014800,2019-10-14 01:00:00.000,-633494,,,,,,
1571015100,2019-10-14 01:05:00.000,-633494,,,,,,
1571015400,2019-10-14 01:10:00.000,-633494,,,,,,
1571015700,2019-10-14 01:15:00.000,-633494,,,,,,
1571016000,2019-10-14 01:20:00.000,-643217,,,,,,
1571016300,2019-10-14 01:25:00.000,-633494,,,,,,
1571016600,2019-10-14 01:30:00.000,-633494,,,,,,
1571016900,2019-10-14 01:35:00.000,-633494,,,,,,
1571017200,2019-10-14 01:40:00.000,-623770,,,,,,
1571017500,2019-10-14 01:45:00.000,-633494,,,,,,
1571017800,2019-10-14 01:50:00.000,-633494,,,,,,
1571018100,2019-10-14 01:55:00.000,-633494,,,,,,
