Time(longsecs),Time(UTC),Sensor SOH Voltage A 1(uV),Sensor SOH Voltage A 2(uV),Sensor SOH Voltage A 3(uV),External SOH Voltage 1(uV),External SOH Voltage 2(uV),External SOH Voltage 3(uV),
1571990400,2019-10-25 08:00:00.000,-633494,,,,,,
1571990700,2019-10-25 08:05:00.000,-623770,,,,,,
1571991000,2019-10-25 08:10:00.000,-633494,,,,,,
1571991300,2019-10-25 08:15:00.000,-623770,,,,,,
1571991600,2019-10-25 08:20:00.000,-623770,,,,,,
1571991900,2019-10-25 08:25:00.000,-633494,,,,,,
1571992200,2019-10-25 08:30:00.000,-633494,,,,,,
1571992500,2019-10-25 08:35:00.000,-633494,,,,,,
1571992800,2019-10-25 08:40:00.000,-623770,,,,,,
1571993100,2019-10-25 08:45:00.000,-623770,,,,,,
1571993400,2019-10-25 08:50:00.000,-623770,,,,,,
1571993700,2019-10-25 08:55:00.000,-623770,,,,,,
