Time(longsecs),Time(UTC),Supply voltage(V),Total current(A),Temperature(&deg;C),
1571972400,2019-10-25 03:00:00.000,1.3234271535E1,9.1575091575072E-2,2.1875E1,
1571972700,2019-10-25 03:05:00.000,1.3234271535E1,9.230187801614399E-2,2.1843E1,
1571973000,2019-10-25 03:10:00.000,1.3234271535E1,9.1575091575072E-2,2.1843E1,
1571973300,2019-10-25 03:15:00.000,1.3234271535E1,9.3755450898288E-2,2.1812E1,
1571973600,2019-10-25 03:20:00.000,1.3207345244999999E1,1.40269783126896E-1,2.1843E1,
1571973900,2019-10-25 03:25:00.000,1.3234271535E1,9.1575091575072E-2,2.1843E1,
1571974200,2019-10-25 03:30:00.000,1.3234271535E1,9.1575091575072E-2,2.1875E1,
1571974500,2019-10-25 03:35:00.000,1.3234271535E1,9.3028664457216E-2,2.1875E1,
1571974800,2019-10-25 03:40:00.000,1.3234271535E1,9.593581022150399E-2,2.1843E1,
1571975100,2019-10-25 03:45:00.000,1.3234271535E1,9.1575091575072E-2,2.1843E1,
1571975400,2019-10-25 03:50:00.000,1.3220808389999998E1,1.24280481423312E-1,2.1843E1,
1571975700,2019-10-25 03:55:00.000,1.3220808389999998E1,9.448223733936E-2,2.1875E1,
