Time(longsecs),Time(UTC),Earth location,GNSS receiver status,GNSS satellites used,Timing status,Phase lock loop status,Time uncertainty(ns),Timing DAC count,Time quality(&#37;),Time error(ns),
1571526000,2019-10-19 23:00:00.000,47.646509N 0.559596E 162m,Off,8,Time OK,Free running,17200,9524,90,0,
1571526300,2019-10-19 23:05:00.000,47.646509N 0.559596E 162m,Off,8,Time OK,Free running,26100,9524,90,0,
1571526600,2019-10-19 23:10:00.000,47.646509N 0.559596E 162m,Off,8,Time OK,Free running,34600,9524,90,0,
1571526900,2019-10-19 23:15:00.000,47.646509N 0.559596E 162m,Off,8,Time OK,Free running,43200,9524,90,0,
1571527200,2019-10-19 23:20:00.000,47.646509N 0.559596E 162m,GNSS locked,6,Time OK,Coarse lock,1200,9380,90,1145,
1571527500,2019-10-19 23:25:00.000,47.646509N 0.559596E 162m,Off,6,Time OK,Free running,7400,9525,90,0,
1571527800,2019-10-19 23:30:00.000,47.646509N 0.559596E 162m,Off,6,Time OK,Free running,16200,9525,90,0,
1571528100,2019-10-19 23:35:00.000,47.646509N 0.559596E 162m,Off,6,Time OK,Free running,25000,9525,90,0,
1571528400,2019-10-19 23:40:00.000,47.646509N 0.559596E 162m,Off,6,Time OK,Free running,33400,9525,90,0,
1571528700,2019-10-19 23:45:00.000,47.646509N 0.559596E 162m,Off,6,Time OK,Free running,42200,9525,90,0,
1571529000,2019-10-19 23:50:00.000,47.646509N 0.559596E 162m,GNSS unlocked,0,Time OK,Free running,51500,9525,90,0,
1571529300,2019-10-19 23:55:00.000,47.646509N 0.559596E 162m,Off,9,Time OK,Free running,6600,9524,90,0,
