Time(longsecs),Time(UTC),Earth location,GNSS receiver status,GNSS satellites used,Timing status,Phase lock loop status,Time uncertainty(ns),Timing DAC count,Time quality(&#37;),Time error(ns),
1572109200,2019-10-26 17:00:00.000,47.646509N 0.559596E 162m,Off,5,Time OK,Free running,33300,9528,90,0,
1572109500,2019-10-26 17:05:00.000,47.646509N 0.559596E 162m,Off,5,Time OK,Free running,45400,9528,90,0,
1572109800,2019-10-26 17:10:00.000,47.646509N 0.559596E 162m,Off,7,Time OK,Free running,2100,9531,90,0,
1572110100,2019-10-26 17:15:00.000,47.646509N 0.559596E 162m,Off,7,Time OK,Free running,10900,9531,90,0,
1572110400,2019-10-26 17:20:00.000,47.646509N 0.559596E 162m,Off,7,Time OK,Free running,20700,9531,90,0,
1572110700,2019-10-26 17:25:00.000,47.646509N 0.559596E 162m,Off,7,Time OK,Free running,31200,9531,90,0,
1572111000,2019-10-26 17:30:00.000,47.646509N 0.559596E 162m,Off,7,Time OK,Free running,42500,9531,90,0,
1572111300,2019-10-26 17:35:00.000,47.646509N 0.559596E 162m,GNSS locked,7,Time OK,Fine lock,100,9529,100,0,
1572111600,2019-10-26 17:40:00.000,47.646509N 0.559596E 162m,Off,7,Time OK,Free running,8500,9529,90,0,
1572111900,2019-10-26 17:45:00.000,47.646509N 0.559596E 162m,Off,7,Time OK,Free running,17800,9529,90,0,
1572112200,2019-10-26 17:50:00.000,47.646509N 0.559596E 162m,Off,7,Time OK,Free running,27900,9529,90,0,
1572112500,2019-10-26 17:55:00.000,47.646509N 0.559596E 162m,Off,7,Time OK,Free running,38800,9529,90,0,
