Time(longsecs),Time(UTC),Supply voltage(V),Total current(A),Temperature(&deg;C),
1570932000,2019-10-13 02:00:00.000,1.31938821E1,1.15559044130448E-1,2.7843E1,
1570932300,2019-10-13 02:05:00.000,1.3180418954999999E1,1.3808942380368E-1,2.7812E1,
1570932600,2019-10-13 02:10:00.000,1.3180418954999999E1,1.1628583057152E-1,2.7843E1,
1570932900,2019-10-13 02:15:00.000,1.3180418954999999E1,1.1628583057152E-1,2.7875E1,
1570933200,2019-10-13 02:20:00.000,1.31938821E1,1.1628583057152E-1,2.7875E1,
1570933500,2019-10-13 02:25:00.000,1.31938821E1,1.18466189894736E-1,2.7875E1,
1570933800,2019-10-13 02:30:00.000,1.31938821E1,1.15559044130448E-1,2.7875E1,
1570934100,2019-10-13 02:35:00.000,1.3180418954999999E1,1.17739403453664E-1,2.7906E1,
1570934400,2019-10-13 02:40:00.000,1.3180418954999999E1,1.15559044130448E-1,2.7906E1,
1570934700,2019-10-13 02:45:00.000,1.31938821E1,1.1628583057152E-1,2.7937E1,
1570935000,2019-10-13 02:50:00.000,1.3180418954999999E1,1.17012617012592E-1,2.7937E1,
1570935300,2019-10-13 02:55:00.000,1.3180418954999999E1,1.17012617012592E-1,2.7968E1,
