Time(longsecs),Time(UTC),Earth location,GNSS receiver status,GNSS satellites used,Timing status,Phase lock loop status,Time uncertainty(ns),Timing DAC count,Time quality(&#37;),Time error(ns),
1572066000,2019-10-26 05:00:00.000,47.646509N 0.559596E 162m,Off,6,Time OK,Free running,19000,9533,90,0,
1572066300,2019-10-26 05:05:00.000,47.646509N 0.559596E 162m,Off,6,Time OK,Free running,27400,9533,90,0,
1572066600,2019-10-26 05:10:00.000,47.646509N 0.559596E 162m,Off,6,Time OK,Free running,35900,9533,90,0,
1572066900,2019-10-26 05:15:00.000,47.646509N 0.559596E 162m,Off,6,Time OK,Free running,44900,9533,90,0,
1572067200,2019-10-26 05:20:00.000,47.646509N 0.559596E 162m,Off,8,Time OK,Free running,400,9534,90,0,
1572067500,2019-10-26 05:25:00.000,47.646509N 0.559596E 162m,Off,8,Time OK,Free running,9200,9534,90,0,
1572067800,2019-10-26 05:30:00.000,47.646509N 0.559596E 162m,Off,8,Time OK,Free running,17900,9534,90,0,
1572068100,2019-10-26 05:35:00.000,47.646509N 0.559596E 162m,Off,8,Time OK,Free running,26400,9534,90,0,
1572068400,2019-10-26 05:40:00.000,47.646509N 0.559596E 162m,Off,8,Time OK,Free running,34900,9534,90,0,
1572068700,2019-10-26 05:45:00.000,47.646509N 0.559596E 162m,Off,8,Time OK,Free running,44000,9534,90,0,
1572069000,2019-10-26 05:50:00.000,47.646509N 0.559596E 162m,GNSS locked,8,Time OK,Coarse lock,100,9536,90,0,
1572069300,2019-10-26 05:55:00.000,47.646509N 0.559596E 162m,Off,8,Time OK,Free running,8400,9537,90,0,
