Time(longsecs),Time(UTC),Sensor SOH Voltage A 1(uV),Sensor SOH Voltage A 2(uV),Sensor SOH Voltage A 3(uV),External SOH Voltage 1(uV),External SOH Voltage 2(uV),External SOH Voltage 3(uV),
1571198400,2019-10-16 04:00:00.000,-643217,,,,,,
1571198700,2019-10-16 04:05:00.000,-633494,,,,,,
1571199000,2019-10-16 04:10:00.000,-633494,,,,,,
1571199300,2019-10-16 04:15:00.000,-633494,,,,,,
1571199600,2019-10-16 04:20:00.000,-633494,,,,,,
1571199900,2019-10-16 04:25:00.000,-633494,,,,,,
1571200200,2019-10-16 04:30:00.000,-643217,,,,,,
1571200500,2019-10-16 04:35:00.000,-643217,,,,,,
1571200800,2019-10-16 04:40:00.000,-633494,,,,,,
1571201100,2019-10-16 04:45:00.000,-643217,,,,,,
1571201400,2019-10-16 04:50:00.000,-633494,,,,,,
1571201700,2019-10-16 04:55:00.000,-643217,,,,,,
