Time(longsecs),Time(UTC),Sensor SOH Voltage A 1(uV),Sensor SOH Voltage A 2(uV),Sensor SOH Voltage A 3(uV),External SOH Voltage 1(uV),External SOH Voltage 2(uV),External SOH Voltage 3(uV),
1571058000,2019-10-14 13:00:00.000,-643217,,,,,,
1571058300,2019-10-14 13:05:00.000,-643217,,,,,,
1571058600,2019-10-14 13:10:00.000,-643217,,,,,,
1571058900,2019-10-14 13:15:00.000,-633494,,,,,,
1571059200,2019-10-14 13:20:00.000,-643217,,,,,,
1571059500,2019-10-14 13:25:00.000,-633494,,,,,,
1571059800,2019-10-14 13:30:00.000,-643217,,,,,,
1571060100,2019-10-14 13:35:00.000,-633494,,,,,,
1571060400,2019-10-14 13:40:00.000,-643217,,,,,,
1571060700,2019-10-14 13:45:00.000,-643217,,,,,,
1571061000,2019-10-14 13:50:00.000,-643217,,,,,,
1571061300,2019-10-14 13:55:00.000,-643217,,,,,,
