Time(longsecs),Time(UTC),Sensor SOH Voltage A 1(uV),Sensor SOH Voltage A 2(uV),Sensor SOH Voltage A 3(uV),External SOH Voltage 1(uV),External SOH Voltage 2(uV),External SOH Voltage 3(uV),
1571371200,2019-10-18 04:00:00.000,-633494,,,,,,
1571371500,2019-10-18 04:05:00.000,-633494,,,,,,
1571371800,2019-10-18 04:10:00.000,-633494,,,,,,
1571372100,2019-10-18 04:15:00.000,-633494,,,,,,
1571372400,2019-10-18 04:20:00.000,-633494,,,,,,
1571372700,2019-10-18 04:25:00.000,-633494,,,,,,
1571373000,2019-10-18 04:30:00.000,-633494,,,,,,
1571373300,2019-10-18 04:35:00.000,-633494,,,,,,
1571373600,2019-10-18 04:40:00.000,-643217,,,,,,
1571373900,2019-10-18 04:45:00.000,-633494,,,,,,
1571374200,2019-10-18 04:50:00.000,-643217,,,,,,
1571374500,2019-10-18 04:55:00.000,-633494,,,,,,
