Time(longsecs),Time(UTC),Supply voltage(V),Total current(A),Temperature(&deg;C),
1571634000,2019-10-21 05:00:00.000,1.3234271535E1,9.230187801614399E-2,2.1906E1,
1571634300,2019-10-21 05:05:00.000,1.3234271535E1,9.3028664457216E-2,2.1937E1,
1571634600,2019-10-21 05:10:00.000,1.3220808389999998E1,9.1575091575072E-2,2.1968E1,
1571634900,2019-10-21 05:15:00.000,1.3220808389999998E1,9.0848305134E-2,2.1968E1,
1571635200,2019-10-21 05:20:00.000,1.3234271535E1,9.3755450898288E-2,2.1937E1,
1571635500,2019-10-21 05:25:00.000,1.3234271535E1,9.1575091575072E-2,2.1937E1,
1571635800,2019-10-21 05:30:00.000,1.3220808389999998E1,9.230187801614399E-2,2.1937E1,
1571636100,2019-10-21 05:35:00.000,1.3234271535E1,9.1575091575072E-2,2.1968E1,
1571636400,2019-10-21 05:40:00.000,1.3220808389999998E1,9.1575091575072E-2,2.2E1,
1571636700,2019-10-21 05:45:00.000,1.3220808389999998E1,9.3028664457216E-2,2.2E1,
1571637000,2019-10-21 05:50:00.000,1.3234271535E1,9.3028664457216E-2,2.2E1,
1571637300,2019-10-21 05:55:00.000,1.3220808389999998E1,1.0901796616079999E-1,2.1968E1,
