Time(longsecs),Time(UTC),Supply voltage(V),Total current(A),Temperature(&deg;C),
1571587200,2019-10-20 16:00:00.000,1.3288124114999999E1,9.230187801614399E-2,2.4156E1,
1571587500,2019-10-20 16:05:00.000,1.3288124114999999E1,9.1575091575072E-2,2.4093E1,
1571587800,2019-10-20 16:10:00.000,1.327466097E1,9.1575091575072E-2,2.4031E1,
1571588100,2019-10-20 16:15:00.000,1.327466097E1,9.230187801614399E-2,2.3968E1,
1571588400,2019-10-20 16:20:00.000,1.3261197825E1,1.26460840746528E-1,2.3937E1,
1571588700,2019-10-20 16:25:00.000,1.3261197825E1,1.11925111925088E-1,2.3875E1,
1571589000,2019-10-20 16:30:00.000,1.327466097E1,9.1575091575072E-2,2.3843E1,
1571589300,2019-10-20 16:35:00.000,1.327466097E1,9.1575091575072E-2,2.3781E1,
1571589600,2019-10-20 16:40:00.000,1.3261197825E1,9.230187801614399E-2,2.3687E1,
1571589900,2019-10-20 16:45:00.000,1.3247734679999999E1,1.2355369498224E-1,2.3687E1,
1571590200,2019-10-20 16:50:00.000,1.3261197825E1,9.1575091575072E-2,2.3656E1,
1571590500,2019-10-20 16:55:00.000,1.3261197825E1,9.1575091575072E-2,2.3625E1,
