Time(longsecs),Time(UTC),Supply voltage(V),Total current(A),Temperature(&deg;C),
1569916800,2019-10-01 08:00:00.000,1.3220808389999998E1,1.1628583057152E-1,3.025E1,
1569917100,2019-10-01 08:05:00.000,1.3341976695E1,1.14832257689376E-1,3.0281000000000002E1,
1569917400,2019-10-01 08:10:00.000,1.362470274E1,1.1265189836615999E-1,3.0281000000000002E1,
1569917700,2019-10-01 08:15:00.000,1.3355439839999999E1,1.14832257689376E-1,3.0281000000000002E1,
1569918000,2019-10-01 08:20:00.000,1.327466097E1,1.1628583057152E-1,3.0312E1,
1569918300,2019-10-01 08:25:00.000,1.3261197825E1,1.17012617012592E-1,3.0312E1,
1569918600,2019-10-01 08:30:00.000,1.3395829274999999E1,1.1628583057152E-1,3.0343E1,
1569918900,2019-10-01 08:35:00.000,1.3395829274999999E1,1.14105471248304E-1,3.0375E1,
1569919200,2019-10-01 08:40:00.000,1.3449681855E1,1.14105471248304E-1,3.0343E1,
1569919500,2019-10-01 08:45:00.000,1.3422755565E1,1.13378684807232E-1,3.0375E1,
1569919800,2019-10-01 08:50:00.000,1.3422755565E1,1.47537647537616E-1,3.0406000000000002E1,
1569920100,2019-10-01 08:55:00.000,1.3463144999999999E1,1.14105471248304E-1,3.0437E1,
