Time(longsecs),Time(UTC),Sensor SOH Voltage A 1(uV),Sensor SOH Voltage A 2(uV),Sensor SOH Voltage A 3(uV),External SOH Voltage 1(uV),External SOH Voltage 2(uV),External SOH Voltage 3(uV),
1570762800,2019-10-11 03:00:00.000,-623770,,,,,,
1570763100,2019-10-11 03:05:00.000,-623770,,,,,,
1570763400,2019-10-11 03:10:00.000,-623770,,,,,,
1570763700,2019-10-11 03:15:00.000,-623770,,,,,,
1570764000,2019-10-11 03:20:00.000,-623770,,,,,,
1570764300,2019-10-11 03:25:00.000,-623770,,,,,,
1570764600,2019-10-11 03:30:00.000,-623770,,,,,,
1570764900,2019-10-11 03:35:00.000,-623770,,,,,,
1570765200,2019-10-11 03:40:00.000,-623770,,,,,,
1570765500,2019-10-11 03:45:00.000,-633494,,,,,,
1570765800,2019-10-11 03:50:00.000,-623770,,,,,,
1570766100,2019-10-11 03:55:00.000,-633494,,,,,,
