Time(longsecs),Time(UTC),Sensor SOH Voltage A 1(uV),Sensor SOH Voltage A 2(uV),Sensor SOH Voltage A 3(uV),External SOH Voltage 1(uV),External SOH Voltage 2(uV),External SOH Voltage 3(uV),
1571626800,2019-10-21 03:00:00.000,-633494,,,,,,
1571627100,2019-10-21 03:05:00.000,-623770,,,,,,
1571627400,2019-10-21 03:10:00.000,-633494,,,,,,
1571627700,2019-10-21 03:15:00.000,-633494,,,,,,
1571628000,2019-10-21 03:20:00.000,-623770,,,,,,
1571628300,2019-10-21 03:25:00.000,-633494,,,,,,
1571628600,2019-10-21 03:30:00.000,-633494,,,,,,
1571628900,2019-10-21 03:35:00.000,-623770,,,,,,
1571629200,2019-10-21 03:40:00.000,-623770,,,,,,
1571629500,2019-10-21 03:45:00.000,-633494,,,,,,
1571629800,2019-10-21 03:50:00.000,-623770,,,,,,
1571630100,2019-10-21 03:55:00.000,-633494,,,,,,
