Time(longsecs),Time(UTC),Earth location,GNSS receiver status,GNSS satellites used,Timing status,Phase lock loop status,Time uncertainty(ns),Timing DAC count,Time quality(&#37;),Time error(ns),
1572120000,2019-10-26 20:00:00.000,47.646509N 0.559596E 162m,Off,8,Time OK,Free running,12700,9533,90,0,
1572120300,2019-10-26 20:05:00.000,47.646509N 0.559596E 162m,Off,8,Time OK,Free running,21300,9533,90,0,
1572120600,2019-10-26 20:10:00.000,47.646509N 0.559596E 162m,Off,8,Time OK,Free running,30300,9533,90,0,
1572120900,2019-10-26 20:15:00.000,47.646509N 0.559596E 162m,Off,8,Time OK,Free running,39800,9533,90,0,
1572121200,2019-10-26 20:20:00.000,47.646509N 0.559596E 162m,Off,8,Time OK,Free running,49800,9533,90,0,
1572121500,2019-10-26 20:25:00.000,47.646509N 0.559596E 162m,Off,7,Time OK,Free running,5000,9532,90,0,
1572121800,2019-10-26 20:30:00.000,47.646509N 0.559596E 162m,Off,7,Time OK,Free running,13600,9532,90,0,
1572122100,2019-10-26 20:35:00.000,47.646509N 0.559596E 162m,Off,7,Time OK,Free running,22100,9532,90,0,
1572122400,2019-10-26 20:40:00.000,47.646509N 0.559596E 162m,Off,7,Time OK,Free running,30900,9532,90,0,
1572122700,2019-10-26 20:45:00.000,47.646509N 0.559596E 162m,Off,7,Time OK,Free running,40300,9532,90,0,
1572123000,2019-10-26 20:50:00.000,47.646509N 0.559596E 162m,Off,7,Time OK,Free running,50100,9532,90,0,
1572123300,2019-10-26 20:55:00.000,47.646509N 0.559596E 162m,Off,7,Time OK,Free running,5500,9530,90,0,
