Time(longsecs),Time(UTC),Sensor SOH Voltage A 1(uV),Sensor SOH Voltage A 2(uV),Sensor SOH Voltage A 3(uV),External SOH Voltage 1(uV),External SOH Voltage 2(uV),External SOH Voltage 3(uV),
1570802400,2019-10-11 14:00:00.000,-633494,,,,,,
1570802700,2019-10-11 14:05:00.000,-633494,,,,,,
1570803000,2019-10-11 14:10:00.000,-633494,,,,,,
1570803300,2019-10-11 14:15:00.000,-633494,,,,,,
1570803600,2019-10-11 14:20:00.000,-633494,,,,,,
1570803900,2019-10-11 14:25:00.000,-633494,,,,,,
1570804200,2019-10-11 14:30:00.000,-633494,,,,,,
1570804500,2019-10-11 14:35:00.000,-643217,,,,,,
1570804800,2019-10-11 14:40:00.000,-633494,,,,,,
1570805100,2019-10-11 14:45:00.000,-633494,,,,,,
1570805400,2019-10-11 14:50:00.000,-633494,,,,,,
1570805700,2019-10-11 14:55:00.000,-633494,,,,,,
