Time(longsecs),Time(UTC),Sensor SOH Voltage A 1(uV),Sensor SOH Voltage A 2(uV),Sensor SOH Voltage A 3(uV),External SOH Voltage 1(uV),External SOH Voltage 2(uV),External SOH Voltage 3(uV),
1571720400,2019-10-22 05:00:00.000,-623770,,,,,,
1571720700,2019-10-22 05:05:00.000,-633494,,,,,,
1571721000,2019-10-22 05:10:00.000,-623770,,,,,,
1571721300,2019-10-22 05:15:00.000,-623770,,,,,,
1571721600,2019-10-22 05:20:00.000,-633494,,,,,,
1571721900,2019-10-22 05:25:00.000,-633494,,,,,,
1571722200,2019-10-22 05:30:00.000,-633494,,,,,,
1571722500,2019-10-22 05:35:00.000,-623770,,,,,,
1571722800,2019-10-22 05:40:00.000,-633494,,,,,,
1571723100,2019-10-22 05:45:00.000,-623770,,,,,,
1571723400,2019-10-22 05:50:00.000,-623770,,,,,,
1571723700,2019-10-22 05:55:00.000,-623770,,,,,,
