Time(longsecs),Time(UTC),Sensor SOH Voltage A 1(uV),Sensor SOH Voltage A 2(uV),Sensor SOH Voltage A 3(uV),External SOH Voltage 1(uV),External SOH Voltage 2(uV),External SOH Voltage 3(uV),
1572163200,2019-10-27 08:00:00.000,-633494,,,,,,
1572163500,2019-10-27 08:05:00.000,-633494,,,,,,
1572163800,2019-10-27 08:10:00.000,-623770,,,,,,
1572164100,2019-10-27 08:15:00.000,-623770,,,,,,
1572164400,2019-10-27 08:20:00.000,-633494,,,,,,
1572164700,2019-10-27 08:25:00.000,-633494,,,,,,
1572165000,2019-10-27 08:30:00.000,-633494,,,,,,
1572165300,2019-10-27 08:35:00.000,-633494,,,,,,
1572165600,2019-10-27 08:40:00.000,-633494,,,,,,
1572165900,2019-10-27 08:45:00.000,-633494,,,,,,
1572166200,2019-10-27 08:50:00.000,-633494,,,,,,
1572166500,2019-10-27 08:55:00.000,-633494,,,,,,
