Time(longsecs),Time(UTC),Sensor SOH Voltage A 1(uV),Sensor SOH Voltage A 2(uV),Sensor SOH Voltage A 3(uV),External SOH Voltage 1(uV),External SOH Voltage 2(uV),External SOH Voltage 3(uV),
1572444000,2019-10-30 14:00:00.000,-623770,,,,,,
1572444300,2019-10-30 14:05:00.000,-623770,,,,,,
1572444600,2019-10-30 14:10:00.000,-633494,,,,,,
1572444900,2019-10-30 14:15:00.000,-633494,,,,,,
1572445200,2019-10-30 14:20:00.000,-643217,,,,,,
1572445500,2019-10-30 14:25:00.000,-633494,,,,,,
1572445800,2019-10-30 14:30:00.000,-633494,,,,,,
1572446100,2019-10-30 14:35:00.000,-633494,,,,,,
1572446400,2019-10-30 14:40:00.000,-623770,,,,,,
1572446700,2019-10-30 14:45:00.000,-633494,,,,,,
1572447000,2019-10-30 14:50:00.000,-633494,,,,,,
1572447300,2019-10-30 14:55:00.000,-623770,,,,,,
