Time(longsecs),Time(UTC),Supply voltage(V),Total current(A),Temperature(&deg;C),
1571054400,2019-10-14 12:00:00.000,1.349007129E1,1.14105471248304E-1,3.0312E1,
1571054700,2019-10-14 12:05:00.000,1.3530460725E1,1.13378684807232E-1,3.0281000000000002E1,
1571055000,2019-10-14 12:10:00.000,1.367855532E1,1.1265189836615999E-1,3.0312E1,
1571055300,2019-10-14 12:15:00.000,1.3759334189999999E1,1.11925111925088E-1,3.0281000000000002E1,
1571055600,2019-10-14 12:20:00.000,1.4176691685E1,1.10471539042944E-1,3.025E1,
1571055900,2019-10-14 12:25:00.000,1.3934355075E1,1.09744752601872E-1,3.025E1,
1571056200,2019-10-14 12:30:00.000,1.3961281365E1,1.19192976335808E-1,3.0218E1,
1571056500,2019-10-14 12:35:00.000,1.3961281365E1,1.38816210244752E-1,3.0187E1,
1571056800,2019-10-14 12:40:00.000,1.3961281365E1,1.10471539042944E-1,3.0187E1,
1571057100,2019-10-14 12:45:00.000,1.3974744509999999E1,1.0901796616079999E-1,3.0218E1,
1571057400,2019-10-14 12:50:00.000,1.3961281365E1,1.11925111925088E-1,3.0187E1,
1571057700,2019-10-14 12:55:00.000,1.3974744509999999E1,1.09744752601872E-1,3.0187E1,
