Time(longsecs),Time(UTC),Sensor SOH Voltage A 1(uV),Sensor SOH Voltage A 2(uV),Sensor SOH Voltage A 3(uV),External SOH Voltage 1(uV),External SOH Voltage 2(uV),External SOH Voltage 3(uV),
1571803200,2019-10-23 04:00:00.000,-633494,,,,,,
1571803500,2019-10-23 04:05:00.000,-643217,,,,,,
1571803800,2019-10-23 04:10:00.000,-633494,,,,,,
1571804100,2019-10-23 04:15:00.000,-633494,,,,,,
1571804400,2019-10-23 04:20:00.000,-623770,,,,,,
1571804700,2019-10-23 04:25:00.000,-623770,,,,,,
1571805000,2019-10-23 04:30:00.000,-633494,,,,,,
1571805300,2019-10-23 04:35:00.000,-633494,,,,,,
1571805600,2019-10-23 04:40:00.000,-623770,,,,,,
1571805900,2019-10-23 04:45:00.000,-633494,,,,,,
1571806200,2019-10-23 04:50:00.000,-633494,,,,,,
1571806500,2019-10-23 04:55:00.000,-633494,,,,,,
