Time(longsecs),Time(UTC),Sensor SOH Voltage A 1(uV),Sensor SOH Voltage A 2(uV),Sensor SOH Voltage A 3(uV),External SOH Voltage 1(uV),External SOH Voltage 2(uV),External SOH Voltage 3(uV),
1572033600,2019-10-25 20:00:00.000,-623770,,,,,,
1572033900,2019-10-25 20:05:00.000,-633494,,,,,,
1572034200,2019-10-25 20:10:00.000,-623770,,,,,,
1572034500,2019-10-25 20:15:00.000,-633494,,,,,,
1572034800,2019-10-25 20:20:00.000,-633494,,,,,,
1572035100,2019-10-25 20:25:00.000,-633494,,,,,,
1572035400,2019-10-25 20:30:00.000,-633494,,,,,,
1572035700,2019-10-25 20:35:00.000,-643217,,,,,,
1572036000,2019-10-25 20:40:00.000,-633494,,,,,,
1572036300,2019-10-25 20:45:00.000,-633494,,,,,,
1572036600,2019-10-25 20:50:00.000,-633494,,,,,,
1572036900,2019-10-25 20:55:00.000,-623770,,,,,,
