Time(longsecs),Time(UTC),Sensor SOH Voltage A 1(uV),Sensor SOH Voltage A 2(uV),Sensor SOH Voltage A 3(uV),External SOH Voltage 1(uV),External SOH Voltage 2(uV),External SOH Voltage 3(uV),
1571209200,2019-10-16 07:00:00.000,-633494,,,,,,
1571209500,2019-10-16 07:05:00.000,-623770,,,,,,
1571209800,2019-10-16 07:10:00.000,-633494,,,,,,
1571210100,2019-10-16 07:15:00.000,-633494,,,,,,
1571210400,2019-10-16 07:20:00.000,-633494,,,,,,
1571210700,2019-10-16 07:25:00.000,-633494,,,,,,
1571211000,2019-10-16 07:30:00.000,-633494,,,,,,
1571211300,2019-10-16 07:35:00.000,-633494,,,,,,
1571211600,2019-10-16 07:40:00.000,-643217,,,,,,
1571211900,2019-10-16 07:45:00.000,-643217,,,,,,
1571212200,2019-10-16 07:50:00.000,-633494,,,,,,
1571212500,2019-10-16 07:55:00.000,-633494,,,,,,
