Time(longsecs),Time(UTC),Earth location,GNSS receiver status,GNSS satellites used,Timing status,Phase lock loop status,Time uncertainty(ns),Timing DAC count,Time quality(&#37;),Time error(ns),
1570993200,2019-10-13 19:00:00.000,47.646509N 0.559596E 162m,Off,7,Time OK,Free running,23500,9511,90,0,
1570993500,2019-10-13 19:05:00.000,47.646509N 0.559596E 162m,Off,7,Time OK,Free running,33700,9511,90,0,
1570993800,2019-10-13 19:10:00.000,47.646509N 0.559596E 162m,Off,7,Time OK,Free running,44500,9511,90,0,
1570994100,2019-10-13 19:15:00.000,47.646509N 0.559596E 162m,Off,6,Time OK,Free running,600,9510,90,0,
1570994400,2019-10-13 19:20:00.000,47.646509N 0.559596E 162m,Off,6,Time OK,Free running,9200,9510,90,0,
1570994700,2019-10-13 19:25:00.000,47.646509N 0.559596E 162m,Off,6,Time OK,Free running,18000,9510,90,0,
1570995000,2019-10-13 19:30:00.000,47.646509N 0.559596E 162m,Off,6,Time OK,Free running,27400,9510,90,0,
1570995300,2019-10-13 19:35:00.000,47.646509N 0.559596E 162m,Off,6,Time OK,Free running,37600,9510,90,0,
1570995600,2019-10-13 19:40:00.000,47.646509N 0.559596E 162m,Off,6,Time OK,Free running,48400,9510,90,0,
1570995900,2019-10-13 19:45:00.000,47.646509N 0.559596E 162m,Off,6,Time OK,Free running,3800,9511,90,0,
1570996200,2019-10-13 19:50:00.000,47.646509N 0.559596E 162m,Off,6,Time OK,Free running,12400,9511,90,0,
1570996500,2019-10-13 19:55:00.000,47.646509N 0.559596E 162m,Off,6,Time OK,Free running,21000,9511,90,0,
