Time(longsecs),Time(UTC),Earth location,GNSS receiver status,GNSS satellites used,Timing status,Phase lock loop status,Time uncertainty(ns),Timing DAC count,Time quality(&#37;),Time error(ns),
1570964400,2019-10-13 11:00:00.000,47.646509N 0.559596E 162m,Off,10,Time OK,Free running,6100,9503,90,0,
1570964700,2019-10-13 11:05:00.000,47.646509N 0.559596E 162m,Off,10,Time OK,Free running,17900,9503,90,0,
1570965000,2019-10-13 11:10:00.000,47.646509N 0.559596E 162m,Off,10,Time OK,Free running,31900,9503,90,0,
1570965300,2019-10-13 11:15:00.000,47.646509N 0.559596E 162m,Off,10,Time OK,Free running,46600,9503,90,0,
1570965600,2019-10-13 11:20:00.000,47.646509N 0.559596E 162m,Off,9,Time OK,Free running,3000,9498,90,0,
1570965900,2019-10-13 11:25:00.000,47.646509N 0.559596E 162m,Off,9,Time OK,Free running,11500,9498,90,0,
1570966200,2019-10-13 11:30:00.000,47.646509N 0.559596E 162m,Off,9,Time OK,Free running,20100,9498,90,0,
1570966500,2019-10-13 11:35:00.000,47.646509N 0.559596E 162m,Off,9,Time OK,Free running,28700,9498,90,0,
1570966800,2019-10-13 11:40:00.000,47.646509N 0.559596E 162m,Off,9,Time OK,Free running,38200,9498,90,0,
1570967100,2019-10-13 11:45:00.000,47.646509N 0.559596E 162m,Off,9,Time OK,Free running,48400,9498,90,0,
1570967400,2019-10-13 11:50:00.000,47.646509N 0.559596E 162m,Off,9,Time OK,Free running,3900,9500,90,0,
1570967700,2019-10-13 11:55:00.000,47.646509N 0.559596E 162m,Off,9,Time OK,Free running,12400,9500,90,0,
