Time(longsecs),Time(UTC),Earth location,GNSS receiver status,GNSS satellites used,Timing status,Phase lock loop status,Time uncertainty(ns),Timing DAC count,Time quality(&#37;),Time error(ns),
1571598000,2019-10-20 19:00:00.000,47.646509N 0.559596E 162m,Off,6,Time OK,Free running,34500,9526,90,0,
1571598300,2019-10-20 19:05:00.000,47.646509N 0.559596E 162m,Off,6,Time OK,Free running,44600,9526,90,0,
1571598600,2019-10-20 19:10:00.000,47.646509N 0.559596E 162m,GNSS locked,5,Time OK,Fine lock,600,9514,100,-520,
1571598900,2019-10-20 19:15:00.000,47.646509N 0.559596E 162m,Off,6,Time OK,Free running,6100,9535,90,0,
1571599200,2019-10-20 19:20:00.000,47.646509N 0.559596E 162m,Off,6,Time OK,Free running,14800,9535,90,0,
1571599500,2019-10-20 19:25:00.000,47.646509N 0.559596E 162m,Off,6,Time OK,Free running,23400,9535,90,0,
1571599800,2019-10-20 19:30:00.000,47.646509N 0.559596E 162m,Off,6,Time OK,Free running,32700,9535,90,0,
1571600100,2019-10-20 19:35:00.000,47.646509N 0.559596E 162m,Off,6,Time OK,Free running,42700,9535,90,0,
1571600400,2019-10-20 19:40:00.000,47.646509N 0.559596E 162m,GNSS locked,8,Time OK,Coarse lock,100,9531,90,0,
1571600700,2019-10-20 19:45:00.000,47.646509N 0.559596E 162m,Off,8,Time OK,Free running,8200,9525,90,0,
1571601000,2019-10-20 19:50:00.000,47.646509N 0.559596E 162m,Off,8,Time OK,Free running,17500,9525,90,0,
1571601300,2019-10-20 19:55:00.000,47.646509N 0.559596E 162m,Off,8,Time OK,Free running,27100,9525,90,0,
