Time(longsecs),Time(UTC),Earth location,GNSS receiver status,GNSS satellites used,Timing status,Phase lock loop status,Time uncertainty(ns),Timing DAC count,Time quality(&#37;),Time error(ns),
1571090400,2019-10-14 22:00:00.000,47.646509N 0.559596E 162m,Off,7,Time OK,Free running,9200,9516,90,0,
1571090700,2019-10-14 22:05:00.000,47.646509N 0.559596E 162m,Off,7,Time OK,Free running,17800,9516,90,0,
1571091000,2019-10-14 22:10:00.000,47.646509N 0.559596E 162m,Off,7,Time OK,Free running,26400,9516,90,0,
1571091300,2019-10-14 22:15:00.000,47.646509N 0.559596E 162m,Off,7,Time OK,Free running,34900,9516,90,0,
1571091600,2019-10-14 22:20:00.000,47.646509N 0.559596E 162m,Off,7,Time OK,Free running,43600,9516,90,0,
1571091900,2019-10-14 22:25:00.000,47.646509N 0.559596E 162m,GNSS locked,7,Time OK,Coarse lock,500,9455,90,416,
1571092200,2019-10-14 22:30:00.000,47.646509N 0.559596E 162m,Off,7,Time OK,Free running,7600,9516,90,0,
1571092500,2019-10-14 22:35:00.000,47.646509N 0.559596E 162m,Off,7,Time OK,Free running,16200,9516,90,0,
1571092800,2019-10-14 22:40:00.000,47.646509N 0.559596E 162m,Off,7,Time OK,Free running,24700,9516,90,0,
1571093100,2019-10-14 22:45:00.000,47.646509N 0.559596E 162m,Off,7,Time OK,Free running,33700,9516,90,0,
1571093400,2019-10-14 22:50:00.000,47.646509N 0.559596E 162m,Off,7,Time OK,Free running,42800,9516,90,0,
1571093700,2019-10-14 22:55:00.000,47.646509N 0.559596E 162m,GNSS locked,6,Time OK,Coarse lock,1600,9327,90,1562,
