Time(longsecs),Time(UTC),Sensor SOH Voltage A 1(uV),Sensor SOH Voltage A 2(uV),Sensor SOH Voltage A 3(uV),External SOH Voltage 1(uV),External SOH Voltage 2(uV),External SOH Voltage 3(uV),
1570809600,2019-10-11 16:00:00.000,-633494,,,,,,
1570809900,2019-10-11 16:05:00.000,-633494,,,,,,
1570810200,2019-10-11 16:10:00.000,-643217,,,,,,
1570810500,2019-10-11 16:15:00.000,-633494,,,,,,
1570810800,2019-10-11 16:20:00.000,-633494,,,,,,
1570811100,2019-10-11 16:25:00.000,-633494,,,,,,
1570811400,2019-10-11 16:30:00.000,-633494,,,,,,
1570811700,2019-10-11 16:35:00.000,-643217,,,,,,
1570812000,2019-10-11 16:40:00.000,-633494,,,,,,
1570812300,2019-10-11 16:45:00.000,-633494,,,,,,
1570812600,2019-10-11 16:50:00.000,-633494,,,,,,
1570812900,2019-10-11 16:55:00.000,-633494,,,,,,
