Time(longsecs),Time(UTC),Supply voltage(V),Total current(A),Temperature(&deg;C),
1571328000,2019-10-17 16:00:00.000,1.3974744509999999E1,8.8667945810784E-2,2.6187E1,
1571328300,2019-10-17 16:05:00.000,1.3974744509999999E1,8.6487586487568E-2,2.6093E1,
1571328600,2019-10-17 16:10:00.000,1.3934355075E1,1.19192976335808E-1,2.6031E1,
1571328900,2019-10-17 16:15:00.000,1.3907428784999999E1,8.8667945810784E-2,2.5968E1,
1571329200,2019-10-17 16:20:00.000,1.3799723624999999E1,8.7941159369712E-2,2.5906E1,
1571329500,2019-10-17 16:25:00.000,1.3718944754999999E1,8.9394732251856E-2,2.5843E1,
1571329800,2019-10-17 16:30:00.000,1.3651629029999999E1,8.9394732251856E-2,2.5781E1,
1571330100,2019-10-17 16:35:00.000,1.3570850159999999E1,1.11198325484016E-1,2.5718E1,
1571330400,2019-10-17 16:40:00.000,1.3570850159999999E1,9.0121518692928E-2,2.5687E1,
1571330700,2019-10-17 16:45:00.000,1.3543923869999999E1,8.9394732251856E-2,2.5593E1,
1571331000,2019-10-17 16:50:00.000,1.3503534434999999E1,9.0121518692928E-2,2.5562E1,
1571331300,2019-10-17 16:55:00.000,1.3463144999999999E1,9.0848305134E-2,2.55E1,
