Time(longsecs),Time(UTC),Supply voltage(V),Total current(A),Temperature(&deg;C),
1570924800,2019-10-13 00:00:00.000,1.31938821E1,1.17012617012592E-1,2.7906E1,
1570925100,2019-10-13 00:05:00.000,1.31938821E1,1.17739403453664E-1,2.7875E1,
1570925400,2019-10-13 00:10:00.000,1.31938821E1,1.1628583057152E-1,2.7875E1,
1570925700,2019-10-13 00:15:00.000,1.31938821E1,1.17012617012592E-1,2.7843E1,
1570926000,2019-10-13 00:20:00.000,1.31938821E1,1.15559044130448E-1,2.7843E1,
1570926300,2019-10-13 00:25:00.000,1.31938821E1,1.15559044130448E-1,2.7812E1,
1570926600,2019-10-13 00:30:00.000,1.31938821E1,1.1628583057152E-1,2.7812E1,
1570926900,2019-10-13 00:35:00.000,1.31938821E1,1.1628583057152E-1,2.7781E1,
1570927200,2019-10-13 00:40:00.000,1.31938821E1,1.17012617012592E-1,2.7781E1,
1570927500,2019-10-13 00:45:00.000,1.31938821E1,1.15559044130448E-1,2.7781E1,
1570927800,2019-10-13 00:50:00.000,1.31938821E1,1.15559044130448E-1,2.775E1,
1570928100,2019-10-13 00:55:00.000,1.31938821E1,1.15559044130448E-1,2.7781E1,
