Time(longsecs),Time(UTC),Earth location,GNSS receiver status,GNSS satellites used,Timing status,Phase lock loop status,Time uncertainty(ns),Timing DAC count,Time quality(&#37;),Time error(ns),
1570701600,2019-10-10 10:00:00.000,47.646509N 0.559596E 162m,Off,7,Time OK,Free running,400,9520,90,0,
1570701900,2019-10-10 10:05:00.000,47.646509N 0.559596E 162m,Off,7,Time OK,Free running,9400,9520,90,0,
1570702200,2019-10-10 10:10:00.000,47.646509N 0.559596E 162m,Off,7,Time OK,Free running,19500,9520,90,0,
1570702500,2019-10-10 10:15:00.000,47.646509N 0.559596E 162m,Off,7,Time OK,Free running,31000,9520,90,0,
1570702800,2019-10-10 10:20:00.000,47.646509N 0.559596E 162m,Off,7,Time OK,Free running,43200,9520,90,0,
1570703100,2019-10-10 10:25:00.000,47.646509N 0.559596E 162m,Off,9,Time OK,Free running,1300,9522,90,0,
1570703400,2019-10-10 10:30:00.000,47.646509N 0.559596E 162m,Off,9,Time OK,Free running,11900,9522,90,0,
1570703700,2019-10-10 10:35:00.000,47.646509N 0.559596E 162m,Off,9,Time OK,Free running,25400,9522,90,0,
1570704000,2019-10-10 10:40:00.000,47.646509N 0.559596E 162m,Off,9,Time OK,Free running,42000,9522,90,0,
1570704300,2019-10-10 10:45:00.000,47.646509N 0.559596E 162m,Off,10,Time OK,Free running,1300,9515,90,0,
1570704600,2019-10-10 10:50:00.000,47.646509N 0.559596E 162m,Off,10,Time OK,Free running,12200,9515,90,0,
1570704900,2019-10-10 10:55:00.000,47.646509N 0.559596E 162m,Off,10,Time OK,Free running,26400,9515,90,0,
