Time(longsecs),Time(UTC),Supply voltage(V),Total current(A),Temperature(&deg;C),
1570975200,2019-10-13 14:00:00.000,1.3853576205E1,1.29367986510816E-1,3.0125E1,
1570975500,2019-10-13 14:05:00.000,1.3988207655E1,1.09744752601872E-1,3.0125E1,
1570975800,2019-10-13 14:10:00.000,1.4068986525E1,1.0901796616079999E-1,3.0125E1,
1570976100,2019-10-13 14:15:00.000,1.3974744509999999E1,1.43176928891184E-1,3.0093E1,
1570976400,2019-10-13 14:20:00.000,1.3947818219999998E1,1.10471539042944E-1,3.0187E1,
1570976700,2019-10-13 14:25:00.000,1.389396564E1,1.09744752601872E-1,3.0156000000000002E1,
1570977000,2019-10-13 14:30:00.000,1.3745871045E1,1.11925111925088E-1,3.0156000000000002E1,
1570977300,2019-10-13 14:35:00.000,1.3651629029999999E1,1.1265189836615999E-1,3.0156000000000002E1,
1570977600,2019-10-13 14:40:00.000,1.359777645E1,1.13378684807232E-1,3.0125E1,
1570977900,2019-10-13 14:45:00.000,1.3543923869999999E1,1.1265189836615999E-1,3.0125E1,
1570978200,2019-10-13 14:50:00.000,1.3570850159999999E1,1.14105471248304E-1,3.0156000000000002E1,
1570978500,2019-10-13 14:55:00.000,1.359777645E1,1.11925111925088E-1,3.0156000000000002E1,
