Time(longsecs),Time(UTC),Supply voltage(V),Total current(A),Temperature(&deg;C),
1570690800,2019-10-10 07:00:00.000,1.3140029519999999E1,1.17012617012592E-1,2.6593E1,
1570691100,2019-10-10 07:05:00.000,1.3140029519999999E1,1.1628583057152E-1,2.6593E1,
1570691400,2019-10-10 07:10:00.000,1.3126566375E1,1.49718006860832E-1,2.6562E1,
1570691700,2019-10-10 07:15:00.000,1.3140029519999999E1,1.17012617012592E-1,2.6625E1,
1570692000,2019-10-10 07:20:00.000,1.3126566375E1,1.17012617012592E-1,2.6625E1,
1570692300,2019-10-10 07:25:00.000,1.3140029519999999E1,1.1628583057152E-1,2.6593E1,
1570692600,2019-10-10 07:30:00.000,1.3140029519999999E1,1.31548345834032E-1,2.6625E1,
1570692900,2019-10-10 07:35:00.000,1.3126566375E1,1.1628583057152E-1,2.6625E1,
1570693200,2019-10-10 07:40:00.000,1.3140029519999999E1,1.20646549217952E-1,2.6562E1,
1570693500,2019-10-10 07:45:00.000,1.3153492665E1,1.17012617012592E-1,2.6593E1,
1570693800,2019-10-10 07:50:00.000,1.3153492665E1,1.1628583057152E-1,2.6625E1,
1570694100,2019-10-10 07:55:00.000,1.3247734679999999E1,1.15559044130448E-1,2.6625E1,
