Time(longsecs),Time(UTC),Earth location,GNSS receiver status,GNSS satellites used,Timing status,Phase lock loop status,Time uncertainty(ns),Timing DAC count,Time quality(&#37;),Time error(ns),
1572386400,2019-10-29 22:00:00.000,47.645998N 0.559812E 130m,Off,8,Time OK,Free running,38300,9536,90,0,
1572386700,2019-10-29 22:05:00.000,47.645998N 0.559812E 130m,Off,8,Time OK,Free running,47100,9536,90,0,
1572387000,2019-10-29 22:10:00.000,47.645998N 0.559812E 130m,Off,8,Time OK,Free running,2400,9538,90,0,
1572387300,2019-10-29 22:15:00.000,47.645998N 0.559812E 130m,Off,8,Time OK,Free running,11000,9538,90,0,
1572387600,2019-10-29 22:20:00.000,47.645998N 0.559812E 130m,Off,8,Time OK,Free running,19300,9538,90,0,
1572387900,2019-10-29 22:25:00.000,47.645998N 0.559812E 130m,Off,8,Time OK,Free running,28500,9538,90,0,
1572388200,2019-10-29 22:30:00.000,47.645998N 0.559812E 130m,Off,8,Time OK,Free running,37400,9538,90,0,
1572388500,2019-10-29 22:35:00.000,47.645998N 0.559812E 130m,Off,8,Time OK,Free running,46900,9538,90,0,
1572388800,2019-10-29 22:40:00.000,47.645998N 0.559812E 130m,Off,7,Time OK,Free running,2400,9536,90,0,
1572389100,2019-10-29 22:45:00.000,47.645998N 0.559812E 130m,Off,7,Time OK,Free running,11000,9536,90,0,
1572389400,2019-10-29 22:50:00.000,47.645998N 0.559812E 130m,Off,7,Time OK,Free running,19400,9536,90,0,
1572389700,2019-10-29 22:55:00.000,47.645998N 0.559812E 130m,Off,7,Time OK,Free running,27900,9536,90,0,
