Time(longsecs),Time(UTC),Supply voltage(V),Total current(A),Temperature(&deg;C),
1571713200,2019-10-22 03:00:00.000,1.3234271535E1,9.230187801614399E-2,2.1781E1,
1571713500,2019-10-22 03:05:00.000,1.3234271535E1,9.3028664457216E-2,2.1812E1,
1571713800,2019-10-22 03:10:00.000,1.3234271535E1,9.230187801614399E-2,2.1812E1,
1571714100,2019-10-22 03:15:00.000,1.3234271535E1,9.5209023780432E-2,2.1812E1,
1571714400,2019-10-22 03:20:00.000,1.3234271535E1,9.3755450898288E-2,2.1781E1,
1571714700,2019-10-22 03:25:00.000,1.3234271535E1,9.1575091575072E-2,2.1843E1,
1571715000,2019-10-22 03:30:00.000,1.3234271535E1,9.3755450898288E-2,2.1812E1,
1571715300,2019-10-22 03:35:00.000,1.3234271535E1,9.0848305134E-2,2.1812E1,
1571715600,2019-10-22 03:40:00.000,1.3234271535E1,9.230187801614399E-2,2.1812E1,
1571715900,2019-10-22 03:45:00.000,1.3234271535E1,9.1575091575072E-2,2.1812E1,
1571716200,2019-10-22 03:50:00.000,1.3220808389999998E1,1.22826908541168E-1,2.1812E1,
1571716500,2019-10-22 03:55:00.000,1.3234271535E1,9.3028664457216E-2,2.1812E1,
