Time(longsecs),Time(UTC),Sensor SOH Voltage A 1(uV),Sensor SOH Voltage A 2(uV),Sensor SOH Voltage A 3(uV),External SOH Voltage 1(uV),External SOH Voltage 2(uV),External SOH Voltage 3(uV),
1572314400,2019-10-29 02:00:00.000,-623770,,,,,,
1572314700,2019-10-29 02:05:00.000,-623770,,,,,,
1572315000,2019-10-29 02:10:00.000,-623770,,,,,,
1572315300,2019-10-29 02:15:00.000,-623770,,,,,,
1572315600,2019-10-29 02:20:00.000,-623770,,,,,,
1572315900,2019-10-29 02:25:00.000,-633494,,,,,,
1572316200,2019-10-29 02:30:00.000,-623770,,,,,,
1572316500,2019-10-29 02:35:00.000,-633494,,,,,,
1572316800,2019-10-29 02:40:00.000,-623770,,,,,,
1572317100,2019-10-29 02:45:00.000,-614047,,,,,,
1572317400,2019-10-29 02:50:00.000,-623770,,,,,,
1572317700,2019-10-29 02:55:00.000,-623770,,,,,,
