Time(longsecs),Time(UTC),Supply voltage(V),Total current(A),Temperature(&deg;C),
1570651200,2019-10-09 20:00:00.000,1.3207345244999999E1,1.17012617012592E-1,2.7687E1,
1570651500,2019-10-09 20:05:00.000,1.3207345244999999E1,1.15559044130448E-1,2.7625E1,
1570651800,2019-10-09 20:10:00.000,1.3207345244999999E1,1.1628583057152E-1,2.7625E1,
1570652100,2019-10-09 20:15:00.000,1.3207345244999999E1,1.17012617012592E-1,2.7656E1,
1570652400,2019-10-09 20:20:00.000,1.3207345244999999E1,1.15559044130448E-1,2.7593E1,
1570652700,2019-10-09 20:25:00.000,1.3207345244999999E1,1.1628583057152E-1,2.7562E1,
1570653000,2019-10-09 20:30:00.000,1.3207345244999999E1,1.15559044130448E-1,2.7531E1,
1570653300,2019-10-09 20:35:00.000,1.31938821E1,1.4899122041975998E-1,2.75E1,
1570653600,2019-10-09 20:40:00.000,1.31938821E1,1.1628583057152E-1,2.7531E1,
1570653900,2019-10-09 20:45:00.000,1.3207345244999999E1,1.1628583057152E-1,2.7531E1,
1570654200,2019-10-09 20:50:00.000,1.3207345244999999E1,1.15559044130448E-1,2.7531E1,
1570654500,2019-10-09 20:55:00.000,1.3207345244999999E1,1.1628583057152E-1,2.7468E1,
