Time(longsecs),Time(UTC),Supply voltage(V),Total current(A),Temperature(&deg;C),
1571241600,2019-10-16 16:00:00.000,1.327466097E1,9.230187801614399E-2,2.55E1,
1571241900,2019-10-16 16:05:00.000,1.327466097E1,9.1575091575072E-2,2.5437E1,
1571242200,2019-10-16 16:10:00.000,1.327466097E1,9.3028664457216E-2,2.5406E1,
1571242500,2019-10-16 16:15:00.000,1.327466097E1,9.448223733936E-2,2.5281E1,
1571242800,2019-10-16 16:20:00.000,1.3261197825E1,9.3028664457216E-2,2.5218E1,
1571243100,2019-10-16 16:25:00.000,1.327466097E1,9.1575091575072E-2,2.5156E1,
1571243400,2019-10-16 16:30:00.000,1.327466097E1,9.0848305134E-2,2.5062E1,
1571243700,2019-10-16 16:35:00.000,1.3261197825E1,9.1575091575072E-2,2.5062E1,
1571244000,2019-10-16 16:40:00.000,1.3261197825E1,9.1575091575072E-2,2.5E1,
1571244300,2019-10-16 16:45:00.000,1.3261197825E1,9.448223733936E-2,2.4906E1,
1571244600,2019-10-16 16:50:00.000,1.3261197825E1,9.3028664457216E-2,2.4906E1,
1571244900,2019-10-16 16:55:00.000,1.3261197825E1,9.1575091575072E-2,2.4875E1,
