Time(longsecs),Time(UTC),Supply voltage(V),Total current(A),Temperature(&deg;C),
1570276800,2019-10-05 12:00:00.000,1.3355439839999999E1,1.14832257689376E-1,3.0281000000000002E1,
1570277100,2019-10-05 12:05:00.000,1.3395829274999999E1,1.15559044130448E-1,3.0218E1,
1570277400,2019-10-05 12:10:00.000,1.3395829274999999E1,1.15559044130448E-1,3.0187E1,
1570277700,2019-10-05 12:15:00.000,1.3341976695E1,1.15559044130448E-1,3.0156000000000002E1,
1570278000,2019-10-05 12:20:00.000,1.3328513549999998E1,1.1628583057152E-1,3.0156000000000002E1,
1570278300,2019-10-05 12:25:00.000,1.3355439839999999E1,1.14832257689376E-1,3.0125E1,
1570278600,2019-10-05 12:30:00.000,1.338236613E1,1.15559044130448E-1,3.0062E1,
1570278900,2019-10-05 12:35:00.000,1.3395829274999999E1,1.1628583057152E-1,3.0E1,
1570279200,2019-10-05 12:40:00.000,1.3422755565E1,1.14105471248304E-1,3.0E1,
1570279500,2019-10-05 12:45:00.000,1.3436218709999999E1,1.13378684807232E-1,2.9968E1,
1570279800,2019-10-05 12:50:00.000,1.3395829274999999E1,1.14105471248304E-1,2.9968E1,
1570280100,2019-10-05 12:55:00.000,1.340929242E1,1.17012617012592E-1,2.9937E1,
