Time(longsecs),Time(UTC),Supply voltage(V),Total current(A),Temperature(&deg;C),
1571356800,2019-10-18 00:00:00.000,1.3234271535E1,9.3028664457216E-2,2.3593E1,
1571357100,2019-10-18 00:05:00.000,1.3220808389999998E1,1.25007267864384E-1,2.3593E1,
1571357400,2019-10-18 00:10:00.000,1.3234271535E1,9.448223733936E-2,2.3625E1,
1571357700,2019-10-18 00:15:00.000,1.3247734679999999E1,9.3755450898288E-2,2.3625E1,
1571358000,2019-10-18 00:20:00.000,1.3247734679999999E1,9.1575091575072E-2,2.3593E1,
1571358300,2019-10-18 00:25:00.000,1.3234271535E1,1.01023315309008E-1,2.3625E1,
1571358600,2019-10-18 00:30:00.000,1.3234271535E1,9.1575091575072E-2,2.3562E1,
1571358900,2019-10-18 00:35:00.000,1.3220808389999998E1,1.24280481423312E-1,2.3562E1,
1571359200,2019-10-18 00:40:00.000,1.3247734679999999E1,9.3028664457216E-2,2.3593E1,
1571359500,2019-10-18 00:45:00.000,1.3247734679999999E1,9.3755450898288E-2,2.3562E1,
1571359800,2019-10-18 00:50:00.000,1.3247734679999999E1,9.1575091575072E-2,2.3562E1,
1571360100,2019-10-18 00:55:00.000,1.3247734679999999E1,9.1575091575072E-2,2.3593E1,
