Time(longsecs),Time(UTC),Sensor SOH Voltage A 1(uV),Sensor SOH Voltage A 2(uV),Sensor SOH Voltage A 3(uV),External SOH Voltage 1(uV),External SOH Voltage 2(uV),External SOH Voltage 3(uV),
1571558400,2019-10-20 08:00:00.000,-633494,,,,,,
1571558700,2019-10-20 08:05:00.000,-633494,,,,,,
1571559000,2019-10-20 08:10:00.000,-633494,,,,,,
1571559300,2019-10-20 08:15:00.000,-633494,,,,,,
1571559600,2019-10-20 08:20:00.000,-633494,,,,,,
1571559900,2019-10-20 08:25:00.000,-633494,,,,,,
1571560200,2019-10-20 08:30:00.000,-633494,,,,,,
1571560500,2019-10-20 08:35:00.000,-633494,,,,,,
1571560800,2019-10-20 08:40:00.000,-633494,,,,,,
1571561100,2019-10-20 08:45:00.000,-623770,,,,,,
1571561400,2019-10-20 08:50:00.000,-633494,,,,,,
1571561700,2019-10-20 08:55:00.000,-633494,,,,,,
