Time(longsecs),Time(UTC),Earth location,GNSS receiver status,GNSS satellites used,Timing status,Phase lock loop status,Time uncertainty(ns),Timing DAC count,Time quality(&#37;),Time error(ns),
1571810400,2019-10-23 06:00:00.000,47.646509N 0.559596E 162m,Off,9,Time OK,Free running,38300,9529,90,0,
1571810700,2019-10-23 06:05:00.000,47.646509N 0.559596E 162m,Off,9,Time OK,Free running,47600,9529,90,0,
1571811000,2019-10-23 06:10:00.000,47.646509N 0.559596E 162m,Off,10,Time OK,Free running,3300,9532,90,0,
1571811300,2019-10-23 06:15:00.000,47.646509N 0.559596E 162m,Off,10,Time OK,Free running,11900,9532,90,0,
1571811600,2019-10-23 06:20:00.000,47.646509N 0.559596E 162m,Off,10,Time OK,Free running,20400,9532,90,0,
1571811900,2019-10-23 06:25:00.000,47.646509N 0.559596E 162m,Off,10,Time OK,Free running,28900,9532,90,0,
1571812200,2019-10-23 06:30:00.000,47.646509N 0.559596E 162m,Off,10,Time OK,Free running,37800,9532,90,0,
1571812500,2019-10-23 06:35:00.000,47.646509N 0.559596E 162m,Off,10,Time OK,Free running,46800,9532,90,0,
1571812800,2019-10-23 06:40:00.000,47.646509N 0.559596E 162m,Off,8,Time OK,Free running,1400,9531,90,0,
1571813100,2019-10-23 06:45:00.000,47.646509N 0.559596E 162m,Off,8,Time OK,Free running,10500,9531,90,0,
1571813400,2019-10-23 06:50:00.000,47.646509N 0.559596E 162m,Off,8,Time OK,Free running,19700,9531,90,0,
1571813700,2019-10-23 06:55:00.000,47.646509N 0.559596E 162m,Off,8,Time OK,Free running,28800,9531,90,0,
