Time(longsecs),Time(UTC),Earth location,GNSS receiver status,GNSS satellites used,Timing status,Phase lock loop status,Time uncertainty(ns),Timing DAC count,Time quality(&#37;),Time error(ns),
1571580000,2019-10-20 14:00:00.000,47.646509N 0.559596E 162m,Off,7,Time OK,Free running,2900,9507,90,0,
1571580300,2019-10-20 14:05:00.000,47.646509N 0.559596E 162m,Off,7,Time OK,Free running,11400,9507,90,0,
1571580600,2019-10-20 14:10:00.000,47.646509N 0.559596E 162m,Off,7,Time OK,Free running,29500,9507,90,0,
1571580900,2019-10-20 14:15:00.000,47.646509N 0.559596E 162m,GNSS locked,7,Time OK,Coarse lock,600,9438,90,520,
1571581200,2019-10-20 14:20:00.000,47.646509N 0.559596E 162m,Off,7,Time OK,Free running,9500,9507,90,0,
1571581500,2019-10-20 14:25:00.000,47.646509N 0.559596E 162m,Off,7,Time OK,Free running,25500,9507,90,0,
1571581800,2019-10-20 14:30:00.000,47.646509N 0.559596E 162m,Off,7,Time OK,Free running,46700,9507,90,0,
1571582100,2019-10-20 14:35:00.000,47.646509N 0.559596E 162m,Off,7,Time OK,Free running,4300,9511,90,0,
1571582400,2019-10-20 14:40:00.000,47.646509N 0.559596E 162m,Off,7,Time OK,Free running,16800,9511,90,0,
1571582700,2019-10-20 14:45:00.000,47.646509N 0.559596E 162m,Off,7,Time OK,Free running,33600,9511,90,0,
1571583000,2019-10-20 14:50:00.000,47.646509N 0.559596E 162m,GNSS unlocked,0,Time OK,Free running,54700,9511,90,0,
1571583300,2019-10-20 14:55:00.000,47.646509N 0.559596E 162m,Off,7,Time OK,Free running,7000,9521,90,0,
