Time(longsecs),Time(UTC),Earth location,GNSS receiver status,GNSS satellites used,Timing status,Phase lock loop status,Time uncertainty(ns),Timing DAC count,Time quality(&#37;),Time error(ns),
1570888800,2019-10-12 14:00:00.000,47.646509N 0.559596E 162m,Off,8,Time OK,Free running,41400,9509,90,0,
1570889100,2019-10-12 14:05:00.000,47.646509N 0.559596E 162m,GNSS unlocked,0,Time OK,Free running,51200,9509,90,0,
1570889400,2019-10-12 14:10:00.000,47.646509N 0.559596E 162m,Off,6,Time OK,Free running,6800,9509,90,0,
1570889700,2019-10-12 14:15:00.000,47.646509N 0.559596E 162m,Off,6,Time OK,Free running,16300,9509,90,0,
1570890000,2019-10-12 14:20:00.000,47.646509N 0.559596E 162m,Off,6,Time OK,Free running,26000,9509,90,0,
1570890300,2019-10-12 14:25:00.000,47.646509N 0.559596E 162m,Off,6,Time OK,Free running,35900,9509,90,0,
1570890600,2019-10-12 14:30:00.000,47.646509N 0.559596E 162m,Off,6,Time OK,Free running,45500,9509,90,0,
1570890900,2019-10-12 14:35:00.000,47.646509N 0.559596E 162m,Off,6,Time OK,Free running,1300,9509,90,0,
1570891200,2019-10-12 14:40:00.000,47.646509N 0.559596E 162m,Off,6,Time OK,Free running,10500,9509,90,0,
1570891500,2019-10-12 14:45:00.000,47.646509N 0.559596E 162m,Off,6,Time OK,Free running,19900,9509,90,0,
1570891800,2019-10-12 14:50:00.000,47.646509N 0.559596E 162m,Off,6,Time OK,Free running,29400,9509,90,0,
1570892100,2019-10-12 14:55:00.000,47.646509N 0.559596E 162m,Off,6,Time OK,Free running,38700,9509,90,0,
