Time(longsecs),Time(UTC),Earth location,GNSS receiver status,GNSS satellites used,Timing status,Phase lock loop status,Time uncertainty(ns),Timing DAC count,Time quality(&#37;),Time error(ns),
1572249600,2019-10-28 08:00:00.000,47.645998N 0.559812E 130m,Off,7,Time OK,Free running,47600,9537,90,0,
1572249900,2019-10-28 08:05:00.000,47.645998N 0.559812E 130m,Off,9,Time OK,Free running,3400,9540,90,0,
1572250200,2019-10-28 08:10:00.000,47.645998N 0.559812E 130m,Off,9,Time OK,Free running,12100,9540,90,0,
1572250500,2019-10-28 08:15:00.000,47.645998N 0.559812E 130m,Off,9,Time OK,Free running,20800,9540,90,0,
1572250800,2019-10-28 08:20:00.000,47.645998N 0.559812E 130m,Off,9,Time OK,Free running,29400,9540,90,0,
1572251100,2019-10-28 08:25:00.000,47.645998N 0.559812E 130m,Off,9,Time OK,Free running,38300,9540,90,0,
1572251400,2019-10-28 08:30:00.000,47.645998N 0.559812E 130m,Off,9,Time OK,Free running,47500,9540,90,0,
1572251700,2019-10-28 08:35:00.000,47.645998N 0.559812E 130m,Off,7,Time OK,Free running,3000,9539,90,0,
1572252000,2019-10-28 08:40:00.000,47.645998N 0.559812E 130m,Off,7,Time OK,Free running,12000,9539,90,0,
1572252300,2019-10-28 08:45:00.000,47.645998N 0.559812E 130m,Off,7,Time OK,Free running,21100,9539,90,0,
1572252600,2019-10-28 08:50:00.000,47.645998N 0.559812E 130m,Off,7,Time OK,Free running,30000,9539,90,0,
1572252900,2019-10-28 08:55:00.000,47.645998N 0.559812E 130m,Off,7,Time OK,Free running,39000,9539,90,0,
