Time(longsecs),Time(UTC),Earth location,GNSS receiver status,GNSS satellites used,Timing status,Phase lock loop status,Time uncertainty(ns),Timing DAC count,Time quality(&#37;),Time error(ns),
1571882400,2019-10-24 02:00:00.000,47.646509N 0.559596E 162m,Off,7,Time OK,Free running,10700,9533,90,0,
1571882700,2019-10-24 02:05:00.000,47.646509N 0.559596E 162m,Off,7,Time OK,Free running,19300,9533,90,0,
1571883000,2019-10-24 02:10:00.000,47.646509N 0.559596E 162m,Off,7,Time OK,Free running,27900,9533,90,0,
1571883300,2019-10-24 02:15:00.000,47.646509N 0.559596E 162m,Off,7,Time OK,Free running,37000,9533,90,0,
1571883600,2019-10-24 02:20:00.000,47.646509N 0.559596E 162m,Off,7,Time OK,Free running,46400,9533,90,0,
1571883900,2019-10-24 02:25:00.000,47.646509N 0.559596E 162m,Off,6,Time OK,Free running,2100,9532,90,0,
1571884200,2019-10-24 02:30:00.000,47.646509N 0.559596E 162m,Off,6,Time OK,Free running,10700,9532,90,0,
1571884500,2019-10-24 02:35:00.000,47.646509N 0.559596E 162m,Off,6,Time OK,Free running,19300,9532,90,0,
1571884800,2019-10-24 02:40:00.000,47.646509N 0.559596E 162m,Off,6,Time OK,Free running,27800,9532,90,0,
1571885100,2019-10-24 02:45:00.000,47.646509N 0.559596E 162m,Off,6,Time OK,Free running,36400,9532,90,0,
1571885400,2019-10-24 02:50:00.000,47.646509N 0.559596E 162m,Off,6,Time OK,Free running,45500,9532,90,0,
1571885700,2019-10-24 02:55:00.000,47.646509N 0.559596E 162m,Off,5,Time OK,Free running,1300,9532,90,0,
