Time(longsecs),Time(UTC),Supply voltage(V),Total current(A),Temperature(&deg;C),
1572508800,2019-10-31 08:00:00.000,1.3234271535E1,9.1575091575072E-2,2.0875E1,
1572509100,2019-10-31 08:05:00.000,1.3234271535E1,9.3028664457216E-2,2.0875E1,
1572509400,2019-10-31 08:10:00.000,1.3234271535E1,1.2355369498224E-1,2.0843E1,
1572509700,2019-10-31 08:15:00.000,1.3234271535E1,1.13378684807232E-1,2.0906E1,
1572510000,2019-10-31 08:20:00.000,1.3247734679999999E1,9.0848305134E-2,2.0906E1,
1572510300,2019-10-31 08:25:00.000,1.3247734679999999E1,9.3755450898288E-2,2.0906E1,
1572510600,2019-10-31 08:30:00.000,1.3261197825E1,9.0848305134E-2,2.0906E1,
1572510900,2019-10-31 08:35:00.000,1.3261197825E1,9.1575091575072E-2,2.0875E1,
1572511200,2019-10-31 08:40:00.000,1.3247734679999999E1,9.3755450898288E-2,2.0875E1,
1572511500,2019-10-31 08:45:00.000,1.3261197825E1,9.1575091575072E-2,2.0906E1,
1572511800,2019-10-31 08:50:00.000,1.3261197825E1,9.1575091575072E-2,2.0906E1,
1572512100,2019-10-31 08:55:00.000,1.327466097E1,9.1575091575072E-2,2.0937E1,
