Time(longsecs),Time(UTC),Supply voltage(V),Total current(A),Temperature(&deg;C),
1569974400,2019-10-02 00:00:00.000,1.3207345244999999E1,1.1628583057152E-1,2.9468E1,
1569974700,2019-10-02 00:05:00.000,1.31938821E1,1.1628583057152E-1,2.9437E1,
1569975000,2019-10-02 00:10:00.000,1.3207345244999999E1,1.15559044130448E-1,2.9437E1,
1569975300,2019-10-02 00:15:00.000,1.31938821E1,1.14832257689376E-1,2.9406000000000002E1,
1569975600,2019-10-02 00:20:00.000,1.31938821E1,1.4899122041975998E-1,2.9375E1,
1569975900,2019-10-02 00:25:00.000,1.31938821E1,1.1628583057152E-1,2.9437E1,
1569976200,2019-10-02 00:30:00.000,1.31938821E1,1.17012617012592E-1,2.9437E1,
1569976500,2019-10-02 00:35:00.000,1.31938821E1,1.24280481423312E-1,2.9406000000000002E1,
1569976800,2019-10-02 00:40:00.000,1.31938821E1,1.1628583057152E-1,2.9406000000000002E1,
1569977100,2019-10-02 00:45:00.000,1.31938821E1,1.1628583057152E-1,2.9406000000000002E1,
1569977400,2019-10-02 00:50:00.000,1.31938821E1,1.17012617012592E-1,2.9375E1,
1569977700,2019-10-02 00:55:00.000,1.31938821E1,1.17739403453664E-1,2.9406000000000002E1,
