Time(longsecs),Time(UTC),Supply voltage(V),Total current(A),Temperature(&deg;C),
1571497200,2019-10-19 15:00:00.000,1.3961281365E1,8.721437292864E-2,2.6281E1,
1571497500,2019-10-19 15:05:00.000,1.3961281365E1,1.19192976335808E-1,2.6125E1,
1571497800,2019-10-19 15:10:00.000,1.3974744509999999E1,8.721437292864E-2,2.6031E1,
1571498100,2019-10-19 15:15:00.000,1.3974744509999999E1,8.7941159369712E-2,2.5906E1,
1571498400,2019-10-19 15:20:00.000,1.3974744509999999E1,9.0848305134E-2,2.5781E1,
1571498700,2019-10-19 15:25:00.000,1.3961281365E1,1.17012617012592E-1,2.5656E1,
1571499000,2019-10-19 15:30:00.000,1.3974744509999999E1,8.721437292864E-2,2.5625E1,
1571499300,2019-10-19 15:35:00.000,1.3974744509999999E1,9.0121518692928E-2,2.55E1,
1571499600,2019-10-19 15:40:00.000,1.3974744509999999E1,8.721437292864E-2,2.5437E1,
1571499900,2019-10-19 15:45:00.000,1.3974744509999999E1,8.721437292864E-2,2.5375E1,
1571500200,2019-10-19 15:50:00.000,1.3961281365E1,1.1991976277688E-1,2.5312E1,
1571500500,2019-10-19 15:55:00.000,1.3974744509999999E1,8.7941159369712E-2,2.5281E1,
