Time(longsecs),Time(UTC),Earth location,GNSS receiver status,GNSS satellites used,Timing status,Phase lock loop status,Time uncertainty(ns),Timing DAC count,Time quality(&#37;),Time error(ns),
1571814000,2019-10-23 07:00:00.000,47.646509N 0.559596E 162m,Off,8,Time OK,Free running,37900,9531,90,0,
1571814300,2019-10-23 07:05:00.000,47.646509N 0.559596E 162m,Off,8,Time OK,Free running,46400,9531,90,0,
1571814600,2019-10-23 07:10:00.000,47.646509N 0.559596E 162m,Off,8,Time OK,Free running,1400,9531,90,0,
1571814900,2019-10-23 07:15:00.000,47.646509N 0.559596E 162m,Off,8,Time OK,Free running,10100,9531,90,0,
1571815200,2019-10-23 07:20:00.000,47.646509N 0.559596E 162m,Off,8,Time OK,Free running,18600,9531,90,0,
1571815500,2019-10-23 07:25:00.000,47.646509N 0.559596E 162m,Off,8,Time OK,Free running,27200,9531,90,0,
1571815800,2019-10-23 07:30:00.000,47.646509N 0.559596E 162m,Off,8,Time OK,Free running,35600,9531,90,0,
1571816100,2019-10-23 07:35:00.000,47.646509N 0.559596E 162m,Off,8,Time OK,Free running,44400,9531,90,0,
1571816400,2019-10-23 07:40:00.000,47.646509N 0.559596E 162m,GNSS locked,8,Time OK,Fine lock,100,9532,100,0,
1571816700,2019-10-23 07:45:00.000,47.646509N 0.559596E 162m,Off,8,Time OK,Free running,8400,9532,90,0,
1571817000,2019-10-23 07:50:00.000,47.646509N 0.559596E 162m,Off,8,Time OK,Free running,17100,9532,90,0,
1571817300,2019-10-23 07:55:00.000,47.646509N 0.559596E 162m,Off,8,Time OK,Free running,26000,9532,90,0,
