Time(longsecs),Time(UTC),Earth location,GNSS receiver status,GNSS satellites used,Timing status,Phase lock loop status,Time uncertainty(ns),Timing DAC count,Time quality(&#37;),Time error(ns),
1571180400,2019-10-15 23:00:00.000,47.646509N 0.559596E 162m,Off,6,Time OK,Free running,16500,9518,90,0,
1571180700,2019-10-15 23:05:00.000,47.646509N 0.559596E 162m,Off,6,Time OK,Free running,25100,9518,90,0,
1571181000,2019-10-15 23:10:00.000,47.646509N 0.559596E 162m,Off,6,Time OK,Free running,33900,9518,90,0,
1571181300,2019-10-15 23:15:00.000,47.646509N 0.559596E 162m,Off,6,Time OK,Free running,43000,9518,90,0,
1571181600,2019-10-15 23:20:00.000,47.646509N 0.559596E 162m,GNSS locked,9,Time OK,Coarse lock,700,9429,90,625,
1571181900,2019-10-15 23:25:00.000,47.646509N 0.559596E 162m,Off,9,Time OK,Free running,7400,9517,90,0,
1571182200,2019-10-15 23:30:00.000,47.646509N 0.559596E 162m,Off,9,Time OK,Free running,15900,9517,90,0,
1571182500,2019-10-15 23:35:00.000,47.646509N 0.559596E 162m,Off,9,Time OK,Free running,24600,9517,90,0,
1571182800,2019-10-15 23:40:00.000,47.646509N 0.559596E 162m,Off,9,Time OK,Free running,33700,9517,90,0,
1571183100,2019-10-15 23:45:00.000,47.646509N 0.559596E 162m,Off,9,Time OK,Free running,43200,9517,90,0,
1571183400,2019-10-15 23:50:00.000,47.646509N 0.559596E 162m,GNSS locked,8,Time OK,Coarse lock,300,9488,90,208,
1571183700,2019-10-15 23:55:00.000,47.646509N 0.559596E 162m,Off,8,Time OK,Free running,7700,9519,90,0,
