Time(longsecs),Time(UTC),GPS Satellite Acquisition Flag 1,GPS Satellite Acquisition Flag 2,GPS Satellite Acquisition Flag 3,GPS Satellite Acquisition Flag 4,GPS Satellite Acquisition Flag 5,GPS Satellite Acquisition Flag 6,GPS Satellite Acquisition Flag 7,GPS Satellite Acquisition Flag 8,GPS Satellite Acquisition Flag 9,GPS Satellite Acquisition Flag 10,GPS Satellite Acquisition Flag 11,GPS Satellite Acquisition Flag 12,GPS Satellite Azimuth 1(Degrees),GPS Satellite Azimuth 2(Degrees),GPS Satellite Azimuth 3(Degrees),GPS Satellite Azimuth 4(Degrees),GPS Satellite Azimuth 5(Degrees),GPS Satellite Azimuth 6(Degrees),GPS Satellite Azimuth 7(Degrees),GPS Satellite Azimuth 8(Degrees),GPS Satellite Azimuth 9(Degrees),GPS Satellite Azimuth 10(Degrees),GPS Satellite Azimuth 11(Degrees),GPS Satellite Azimuth 12(Degrees),GPS Satellite Elevation 1(Degrees),GPS Satellite Elevation 2(Degrees),GPS Satellite Elevation 3(Degrees),GPS Satellite Elevation 4(Degrees),GPS Satellite Elevation 5(Degrees),GPS Satellite Elevation 6(Degrees),GPS Satellite Elevation 7(Degrees),GPS Satellite Elevation 8(Degrees),GPS Satellite Elevation 9(Degrees),GPS Satellite Elevation 10(Degrees),GPS Satellite Elevation 11(Degrees),GPS Satellite Elevation 12(Degrees),GPS Satellite PRN 1,GPS Satellite PRN 2,GPS Satellite PRN 3,GPS Satellite PRN 4,GPS Satellite PRN 5,GPS Satellite PRN 6,GPS Satellite PRN 7,GPS Satellite PRN 8,GPS Satellite PRN 9,GPS Satellite PRN 10,GPS Satellite PRN 11,GPS Satellite PRN 12,GPS Satellite Signal Level 1(AMU),GPS Satellite Signal Level 2(AMU),GPS Satellite Signal Level 3(AMU),GPS Satellite Signal Level 4(AMU),GPS Satellite Signal Level 5(AMU),GPS Satellite Signal Level 6(AMU),GPS Satellite Signal Level 7(AMU),GPS Satellite Signal Level 8(AMU),GPS Satellite Signal Level 9(AMU),GPS Satellite Signal Level 10(AMU),GPS Satellite Signal Level 11(AMU),GPS Satellite Signal Level 12(AMU),
1571850030,2019-10-23 17:00:30.929,Acquired,Acquired,Acquired,Acquired,Acquired,Acquired,Acquired,Not acquired,Acquired,,,,2.4507404799999998E2,5.706428E1,2.83065472E2,2.84203744E2,1.4042566399999998E2,7.931455199999999E1,2.17507072E2,9.6868944E1,3.31591584E2,,,,6.9169472E1,3.8718419999999995E1,4.9564699999999995E1,1.5409296E1,2.8058895999999997E1,7.186224E1,7.917019E0,6.619828E0,8.068667E0,,,,5,7,13,15,28,30,2,9,21,,,,15,15,13,10,9,15,6,0,3,,,,
1571850090,2019-10-23 17:01:30.926,Acquired,Acquired,Acquired,Acquired,Acquired,Acquired,Acquired,Not acquired,Acquired,,,,2.4507404799999998E2,5.706428E1,2.83065472E2,2.84203744E2,1.4042566399999998E2,7.931455199999999E1,2.17507072E2,9.6868944E1,3.31591584E2,,,,6.9169472E1,3.8718419999999995E1,4.9564699999999995E1,1.5409296E1,2.8058895999999997E1,7.186224E1,7.917019E0,6.619828E0,8.068667E0,,,,5,7,13,15,28,30,2,9,21,,,,15,15,13,10,9,15,6,0,3,,,,
1571850150,2019-10-23 17:02:30.926,Acquired,Acquired,Acquired,Acquired,Acquired,Acquired,Acquired,Not acquired,Acquired,,,,2.4507404799999998E2,5.706428E1,2.83065472E2,2.84203744E2,1.4042566399999998E2,7.931455199999999E1,2.17507072E2,9.6868944E1,3.31591584E2,,,,6.9169472E1,3.8718419999999995E1,4.9564699999999995E1,1.5409296E1,2.8058895999999997E1,7.186224E1,7.917019E0,6.619828E0,8.068667E0,,,,5,7,13,15,28,30,2,9,21,,,,15,15,13,10,9,15,6,0,3,,,,
1571850210,2019-10-23 17:03:30.926,Acquired,Acquired,Acquired,Acquired,Acquired,Acquired,Acquired,Not acquired,Acquired,,,,2.4507404799999998E2,5.706428E1,2.83065472E2,2.84203744E2,1.4042566399999998E2,7.931455199999999E1,2.17507072E2,9.6868944E1,3.31591584E2,,,,6.9169472E1,3.8718419999999995E1,4.9564699999999995E1,1.5409296E1,2.8058895999999997E1,7.186224E1,7.917019E0,6.619828E0,8.068667E0,,,,5,7,13,15,28,30,2,9,21,,,,15,15,13,10,9,15,6,0,3,,,,
1571850270,2019-10-23 17:04:30.926,Acquired,Acquired,Acquired,Acquired,Acquired,Acquired,Acquired,Not acquired,Acquired,,,,2.4507404799999998E2,5.706428E1,2.83065472E2,2.84203744E2,1.4042566399999998E2,7.931455199999999E1,2.17507072E2,9.6868944E1,3.31591584E2,,,,6.9169472E1,3.8718419999999995E1,4.9564699999999995E1,1.5409296E1,2.8058895999999997E1,7.186224E1,7.917019E0,6.619828E0,8.068667E0,,,,5,7,13,15,28,30,2,9,21,,,,15,15,13,10,9,15,6,0,3,,,,
1571850330,2019-10-23 17:05:30.926,Acquired,Acquired,Acquired,Acquired,Acquired,Acquired,Acquired,Not acquired,Acquired,,,,2.4507404799999998E2,5.706428E1,2.83065472E2,2.84203744E2,1.4042566399999998E2,7.931455199999999E1,2.17507072E2,9.6868944E1,3.31591584E2,,,,6.9169472E1,3.8718419999999995E1,4.9564699999999995E1,1.5409296E1,2.8058895999999997E1,7.186224E1,7.917019E0,6.619828E0,8.068667E0,,,,5,7,13,15,28,30,2,9,21,,,,15,15,13,10,9,15,6,0,3,,,,
1571850390,2019-10-23 17:06:30.926,Acquired,Acquired,Acquired,Acquired,Acquired,Acquired,Acquired,Not acquired,Acquired,,,,2.4507404799999998E2,5.706428E1,2.83065472E2,2.84203744E2,1.4042566399999998E2,7.931455199999999E1,2.17507072E2,9.6868944E1,3.31591584E2,,,,6.9169472E1,3.8718419999999995E1,4.9564699999999995E1,1.5409296E1,2.8058895999999997E1,7.186224E1,7.917019E0,6.619828E0,8.068667E0,,,,5,7,13,15,28,30,2,9,21,,,,15,15,13,10,9,15,6,0,3,,,,
1571850450,2019-10-23 17:07:30.926,Acquired,Acquired,Acquired,Acquired,Acquired,Acquired,Acquired,Not acquired,Acquired,,,,2.4507404799999998E2,5.706428E1,2.83065472E2,2.84203744E2,1.4042566399999998E2,7.931455199999999E1,2.17507072E2,9.6868944E1,3.31591584E2,,,,6.9169472E1,3.8718419999999995E1,4.9564699999999995E1,1.5409296E1,2.8058895999999997E1,7.186224E1,7.917019E0,6.619828E0,8.068667E0,,,,5,7,13,15,28,30,2,9,21,,,,15,15,13,10,9,15,6,0,3,,,,
1571850510,2019-10-23 17:08:30.926,Acquired,Acquired,Acquired,Acquired,Acquired,Acquired,Acquired,Not acquired,Acquired,,,,2.4507404799999998E2,5.706428E1,2.83065472E2,2.84203744E2,1.4042566399999998E2,7.931455199999999E1,2.17507072E2,9.6868944E1,3.31591584E2,,,,6.9169472E1,3.8718419999999995E1,4.9564699999999995E1,1.5409296E1,2.8058895999999997E1,7.186224E1,7.917019E0,6.619828E0,8.068667E0,,,,5,7,13,15,28,30,2,9,21,,,,15,15,13,10,9,15,6,0,3,,,,
1571850570,2019-10-23 17:09:30.926,Acquired,Acquired,Acquired,Acquired,Acquired,Acquired,Acquired,Not acquired,Acquired,,,,2.4507404799999998E2,5.706428E1,2.83065472E2,2.84203744E2,1.4042566399999998E2,7.931455199999999E1,2.17507072E2,9.6868944E1,3.31591584E2,,,,6.9169472E1,3.8718419999999995E1,4.9564699999999995E1,1.5409296E1,2.8058895999999997E1,7.186224E1,7.917019E0,6.619828E0,8.068667E0,,,,5,7,13,15,28,30,2,9,21,,,,15,15,13,10,9,15,6,0,3,,,,
1571850630,2019-10-23 17:10:30.926,Acquired,Acquired,Acquired,Acquired,Acquired,Acquired,Acquired,Not acquired,Acquired,,,,2.4507404799999998E2,5.706428E1,2.83065472E2,2.84203744E2,1.4042566399999998E2,7.931455199999999E1,2.17507072E2,9.6868944E1,3.31591584E2,,,,6.9169472E1,3.8718419999999995E1,4.9564699999999995E1,1.5409296E1,2.8058895999999997E1,7.186224E1,7.917019E0,6.619828E0,8.068667E0,,,,5,7,13,15,28,30,2,9,21,,,,15,15,13,10,9,15,6,0,3,,,,
1571850690,2019-10-23 17:11:30.929,Acquired,Acquired,Acquired,Acquired,Acquired,Acquired,Acquired,Not acquired,Acquired,,,,2.4507404799999998E2,5.706428E1,2.83065472E2,2.84203744E2,1.4042566399999998E2,7.931455199999999E1,2.17507072E2,9.6868944E1,3.31591584E2,,,,6.9169472E1,3.8718419999999995E1,4.9564699999999995E1,1.5409296E1,2.8058895999999997E1,7.186224E1,7.917019E0,6.619828E0,8.068667E0,,,,5,7,13,15,28,30,2,9,21,,,,15,15,13,10,9,15,6,0,3,,,,
1571850750,2019-10-23 17:12:30.926,Acquired,Acquired,Acquired,Acquired,Acquired,Acquired,Acquired,Not acquired,Acquired,,,,2.4507404799999998E2,5.706428E1,2.83065472E2,2.84203744E2,1.4042566399999998E2,7.931455199999999E1,2.17507072E2,9.6868944E1,3.31591584E2,,,,6.9169472E1,3.8718419999999995E1,4.9564699999999995E1,1.5409296E1,2.8058895999999997E1,7.186224E1,7.917019E0,6.619828E0,8.068667E0,,,,5,7,13,15,28,30,2,9,21,,,,15,15,13,10,9,15,6,0,3,,,,
1571850810,2019-10-23 17:13:30.927,Acquired,Acquired,Acquired,Acquired,Acquired,Acquired,Acquired,Not acquired,Acquired,,,,2.4507404799999998E2,5.706428E1,2.83065472E2,2.84203744E2,1.4042566399999998E2,7.931455199999999E1,2.17507072E2,9.6868944E1,3.31591584E2,,,,6.9169472E1,3.8718419999999995E1,4.9564699999999995E1,1.5409296E1,2.8058895999999997E1,7.186224E1,7.917019E0,6.619828E0,8.068667E0,,,,5,7,13,15,28,30,2,9,21,,,,15,15,13,10,9,15,6,0,3,,,,
1571850870,2019-10-23 17:14:30.926,Acquired,Acquired,Acquired,Acquired,Acquired,Acquired,Acquired,Not acquired,Acquired,,,,2.4507404799999998E2,5.706428E1,2.83065472E2,2.84203744E2,1.4042566399999998E2,7.931455199999999E1,2.17507072E2,9.6868944E1,3.31591584E2,,,,6.9169472E1,3.8718419999999995E1,4.9564699999999995E1,1.5409296E1,2.8058895999999997E1,7.186224E1,7.917019E0,6.619828E0,8.068667E0,,,,5,7,13,15,28,30,2,9,21,,,,15,15,13,10,9,15,6,0,3,,,,
1571850930,2019-10-23 17:15:30.926,Acquired,Acquired,Acquired,Acquired,Acquired,Acquired,Acquired,Not acquired,Acquired,,,,2.4507404799999998E2,5.706428E1,2.83065472E2,2.84203744E2,1.4042566399999998E2,7.931455199999999E1,2.17507072E2,9.6868944E1,3.31591584E2,,,,6.9169472E1,3.8718419999999995E1,4.9564699999999995E1,1.5409296E1,2.8058895999999997E1,7.186224E1,7.917019E0,6.619828E0,8.068667E0,,,,5,7,13,15,28,30,2,9,21,,,,15,15,13,10,9,15,6,0,3,,,,
1571850990,2019-10-23 17:16:30.928,Acquired,Acquired,Acquired,Acquired,Acquired,Acquired,Acquired,Not acquired,Acquired,,,,2.4507404799999998E2,5.706428E1,2.83065472E2,2.84203744E2,1.4042566399999998E2,7.931455199999999E1,2.17507072E2,9.6868944E1,3.31591584E2,,,,6.9169472E1,3.8718419999999995E1,4.9564699999999995E1,1.5409296E1,2.8058895999999997E1,7.186224E1,7.917019E0,6.619828E0,8.068667E0,,,,5,7,13,15,28,30,2,9,21,,,,15,15,13,10,9,15,6,0,3,,,,
1571851050,2019-10-23 17:17:30.926,Acquired,Acquired,Acquired,Acquired,Acquired,Acquired,Acquired,Not acquired,Acquired,,,,2.4507404799999998E2,5.706428E1,2.83065472E2,2.84203744E2,1.4042566399999998E2,7.931455199999999E1,2.17507072E2,9.6868944E1,3.31591584E2,,,,6.9169472E1,3.8718419999999995E1,4.9564699999999995E1,1.5409296E1,2.8058895999999997E1,7.186224E1,7.917019E0,6.619828E0,8.068667E0,,,,5,7,13,15,28,30,2,9,21,,,,15,15,13,10,9,15,6,0,3,,,,
1571851110,2019-10-23 17:18:30.928,Acquired,Acquired,Acquired,Acquired,Acquired,Acquired,Acquired,Not acquired,Acquired,,,,2.4507404799999998E2,5.706428E1,2.83065472E2,2.84203744E2,1.4042566399999998E2,7.931455199999999E1,2.17507072E2,9.6868944E1,3.31591584E2,,,,6.9169472E1,3.8718419999999995E1,4.9564699999999995E1,1.5409296E1,2.8058895999999997E1,7.186224E1,7.917019E0,6.619828E0,8.068667E0,,,,5,7,13,15,28,30,2,9,21,,,,15,15,13,10,9,15,6,0,3,,,,
1571851170,2019-10-23 17:19:30.926,Acquired,Acquired,Acquired,Acquired,Acquired,Acquired,Acquired,Not acquired,Acquired,,,,2.4507404799999998E2,5.706428E1,2.83065472E2,2.84203744E2,1.4042566399999998E2,7.931455199999999E1,2.17507072E2,9.6868944E1,3.31591584E2,,,,6.9169472E1,3.8718419999999995E1,4.9564699999999995E1,1.5409296E1,2.8058895999999997E1,7.186224E1,7.917019E0,6.619828E0,8.068667E0,,,,5,7,13,15,28,30,2,9,21,,,,15,15,13,10,9,15,6,0,3,,,,
1571851230,2019-10-23 17:20:30.926,Acquired,Acquired,Acquired,Acquired,Acquired,Acquired,Acquired,Not acquired,Acquired,,,,2.4507404799999998E2,5.706428E1,2.83065472E2,2.84203744E2,1.4042566399999998E2,7.931455199999999E1,2.17507072E2,9.6868944E1,3.31591584E2,,,,6.9169472E1,3.8718419999999995E1,4.9564699999999995E1,1.5409296E1,2.8058895999999997E1,7.186224E1,7.917019E0,6.619828E0,8.068667E0,,,,5,7,13,15,28,30,2,9,21,,,,15,15,13,10,9,15,6,0,3,,,,
1571851290,2019-10-23 17:21:30.926,Acquired,Acquired,Acquired,Acquired,Acquired,Acquired,Acquired,Not acquired,Acquired,,,,2.4507404799999998E2,5.706428E1,2.83065472E2,2.84203744E2,1.4042566399999998E2,7.931455199999999E1,2.17507072E2,9.6868944E1,3.31591584E2,,,,6.9169472E1,3.8718419999999995E1,4.9564699999999995E1,1.5409296E1,2.8058895999999997E1,7.186224E1,7.917019E0,6.619828E0,8.068667E0,,,,5,7,13,15,28,30,2,9,21,,,,15,15,13,10,9,15,6,0,3,,,,
1571851350,2019-10-23 17:22:30.926,Acquired,Acquired,Acquired,Acquired,Acquired,Acquired,Acquired,Not acquired,Acquired,,,,2.4507404799999998E2,5.706428E1,2.83065472E2,2.84203744E2,1.4042566399999998E2,7.931455199999999E1,2.17507072E2,9.6868944E1,3.31591584E2,,,,6.9169472E1,3.8718419999999995E1,4.9564699999999995E1,1.5409296E1,2.8058895999999997E1,7.186224E1,7.917019E0,6.619828E0,8.068667E0,,,,5,7,13,15,28,30,2,9,21,,,,15,15,13,10,9,15,6,0,3,,,,
1571851410,2019-10-23 17:23:30.926,Acquired,Acquired,Acquired,Acquired,Acquired,Acquired,Acquired,Not acquired,Acquired,,,,2.4507404799999998E2,5.706428E1,2.83065472E2,2.84203744E2,1.4042566399999998E2,7.931455199999999E1,2.17507072E2,9.6868944E1,3.31591584E2,,,,6.9169472E1,3.8718419999999995E1,4.9564699999999995E1,1.5409296E1,2.8058895999999997E1,7.186224E1,7.917019E0,6.619828E0,8.068667E0,,,,5,7,13,15,28,30,2,9,21,,,,15,15,13,10,9,15,6,0,3,,,,
1571851470,2019-10-23 17:24:30.926,Acquired,Acquired,Acquired,Acquired,Acquired,Acquired,Acquired,Not acquired,Acquired,,,,2.4507404799999998E2,5.706428E1,2.83065472E2,2.84203744E2,1.4042566399999998E2,7.931455199999999E1,2.17507072E2,9.6868944E1,3.31591584E2,,,,6.9169472E1,3.8718419999999995E1,4.9564699999999995E1,1.5409296E1,2.8058895999999997E1,7.186224E1,7.917019E0,6.619828E0,8.068667E0,,,,5,7,13,15,28,30,2,9,21,,,,15,15,13,10,9,15,6,0,3,,,,
1571851530,2019-10-23 17:25:30.926,Acquired,,Acquired,Acquired,Acquired,Acquired,Acquired,Not acquired,Acquired,,,,2.4369111999999998E2,,2.83398912E2,2.8440617599999996E2,1.4016195199999999E2,7.8373768E1,2.17276784E2,9.711192E1,3.31282688E2,,,,6.909605599999999E1,,4.996698E1,1.5786505E1,2.8466061999999997E1,7.1514848E1,7.5547189999999995E0,6.279563E0,8.230872999999999E0,,,,5,,13,15,28,30,2,9,21,,,,15,,13,10,10,15,5,0,3,,,,
1571851590,2019-10-23 17:26:30.926,Acquired,Acquired,Acquired,Acquired,Acquired,Acquired,Acquired,Acquired,,,,,2.11076336E2,5.8274899999999995E1,2.95406688E2,2.90362784E2,1.29381472E2,6.3788979999999995E1,4.3927631999999996E1,3.20259232E2,,,,,6.08726E1,2.5226626E1,6.3347676E1,2.8351043999999998E1,4.1166343999999995E1,5.8331627999999995E1,6.307043999999999E0,1.1708727999999999E1,,,,,5,7,13,15,28,30,8,21,,,,,15,14,11,15,12,16,9,2,,,,,
1571851650,2019-10-23 17:27:30.926,Acquired,Acquired,Acquired,Acquired,Acquired,Acquired,Acquired,Acquired,,,,,2.11076336E2,5.8274899999999995E1,2.95406688E2,2.90362784E2,1.29381472E2,6.3788979999999995E1,4.3927631999999996E1,3.20259232E2,,,,,6.08726E1,2.5226626E1,6.3347676E1,2.8351043999999998E1,4.1166343999999995E1,5.8331627999999995E1,6.307043999999999E0,1.1708727999999999E1,,,,,5,7,13,15,28,30,8,21,,,,,15,14,11,15,12,16,9,2,,,,,
1571851710,2019-10-23 17:28:30.926,Acquired,Acquired,Acquired,Acquired,Acquired,Acquired,Acquired,Acquired,,,,,2.11076336E2,5.8274899999999995E1,2.95406688E2,2.90362784E2,1.29381472E2,6.3788979999999995E1,4.3927631999999996E1,3.20259232E2,,,,,6.08726E1,2.5226626E1,6.3347676E1,2.8351043999999998E1,4.1166343999999995E1,5.8331627999999995E1,6.307043999999999E0,1.1708727999999999E1,,,,,5,7,13,15,28,30,8,21,,,,,15,14,11,15,12,16,9,2,,,,,
1571851770,2019-10-23 17:29:30.926,Acquired,Acquired,Acquired,Acquired,Acquired,Acquired,Acquired,Acquired,,,,,2.11076336E2,5.8274899999999995E1,2.95406688E2,2.90362784E2,1.29381472E2,6.3788979999999995E1,4.3927631999999996E1,3.20259232E2,,,,,6.08726E1,2.5226626E1,6.3347676E1,2.8351043999999998E1,4.1166343999999995E1,5.8331627999999995E1,6.307043999999999E0,1.1708727999999999E1,,,,,5,7,13,15,28,30,8,21,,,,,15,14,11,15,12,16,9,2,,,,,
1571851830,2019-10-23 17:30:30.926,Acquired,Acquired,Acquired,Acquired,Acquired,Acquired,Acquired,Acquired,,,,,2.11076336E2,5.8274899999999995E1,2.95406688E2,2.90362784E2,1.29381472E2,6.3788979999999995E1,4.3927631999999996E1,3.20259232E2,,,,,6.08726E1,2.5226626E1,6.3347676E1,2.8351043999999998E1,4.1166343999999995E1,5.8331627999999995E1,6.307043999999999E0,1.1708727999999999E1,,,,,5,7,13,15,28,30,8,21,,,,,15,14,11,15,12,16,9,2,,,,,
1571851890,2019-10-23 17:31:30.926,Acquired,Acquired,Acquired,Acquired,Acquired,Acquired,Acquired,Acquired,,,,,2.11076336E2,5.8274899999999995E1,2.95406688E2,2.90362784E2,1.29381472E2,6.3788979999999995E1,4.3927631999999996E1,3.20259232E2,,,,,6.08726E1,2.5226626E1,6.3347676E1,2.8351043999999998E1,4.1166343999999995E1,5.8331627999999995E1,6.307043999999999E0,1.1708727999999999E1,,,,,5,7,13,15,28,30,8,21,,,,,15,14,11,15,12,16,9,2,,,,,
1571851950,2019-10-23 17:32:30.926,Acquired,Acquired,Acquired,Acquired,Acquired,Acquired,Acquired,Acquired,,,,,2.11076336E2,5.8274899999999995E1,2.95406688E2,2.90362784E2,1.29381472E2,6.3788979999999995E1,4.3927631999999996E1,3.20259232E2,,,,,6.08726E1,2.5226626E1,6.3347676E1,2.8351043999999998E1,4.1166343999999995E1,5.8331627999999995E1,6.307043999999999E0,1.1708727999999999E1,,,,,5,7,13,15,28,30,8,21,,,,,15,14,11,15,12,16,9,2,,,,,
1571852010,2019-10-23 17:33:30.926,Acquired,Acquired,Acquired,Acquired,Acquired,Acquired,Acquired,Acquired,,,,,2.11076336E2,5.8274899999999995E1,2.95406688E2,2.90362784E2,1.29381472E2,6.3788979999999995E1,4.3927631999999996E1,3.20259232E2,,,,,6.08726E1,2.5226626E1,6.3347676E1,2.8351043999999998E1,4.1166343999999995E1,5.8331627999999995E1,6.307043999999999E0,1.1708727999999999E1,,,,,5,7,13,15,28,30,8,21,,,,,15,14,11,15,12,16,9,2,,,,,
1571852070,2019-10-23 17:34:30.926,Acquired,Acquired,Acquired,Acquired,Acquired,Acquired,Acquired,Acquired,,,,,2.11076336E2,5.8274899999999995E1,2.95406688E2,2.90362784E2,1.29381472E2,6.3788979999999995E1,4.3927631999999996E1,3.20259232E2,,,,,6.08726E1,2.5226626E1,6.3347676E1,2.8351043999999998E1,4.1166343999999995E1,5.8331627999999995E1,6.307043999999999E0,1.1708727999999999E1,,,,,5,7,13,15,28,30,8,21,,,,,15,14,11,15,12,16,9,2,,,,,
1571852130,2019-10-23 17:35:30.964,Acquired,Acquired,Acquired,Acquired,Acquired,Acquired,Acquired,Acquired,,,,,2.11076336E2,5.8274899999999995E1,2.95406688E2,2.90362784E2,1.29381472E2,6.3788979999999995E1,4.3927631999999996E1,3.20259232E2,,,,,6.08726E1,2.5226626E1,6.3347676E1,2.8351043999999998E1,4.1166343999999995E1,5.8331627999999995E1,6.307043999999999E0,1.1708727999999999E1,,,,,5,7,13,15,28,30,8,21,,,,,15,14,11,15,12,16,9,2,,,,,
1571852190,2019-10-23 17:36:30.926,Acquired,Acquired,Acquired,Acquired,Acquired,Acquired,Acquired,Acquired,,,,,2.11076336E2,5.8274899999999995E1,2.95406688E2,2.90362784E2,1.29381472E2,6.3788979999999995E1,4.3927631999999996E1,3.20259232E2,,,,,6.08726E1,2.5226626E1,6.3347676E1,2.8351043999999998E1,4.1166343999999995E1,5.8331627999999995E1,6.307043999999999E0,1.1708727999999999E1,,,,,5,7,13,15,28,30,8,21,,,,,15,14,11,15,12,16,9,2,,,,,
1571852250,2019-10-23 17:37:30.926,Acquired,Acquired,Acquired,Acquired,Acquired,Acquired,Acquired,Acquired,,,,,2.11076336E2,5.8274899999999995E1,2.95406688E2,2.90362784E2,1.29381472E2,6.3788979999999995E1,4.3927631999999996E1,3.20259232E2,,,,,6.08726E1,2.5226626E1,6.3347676E1,2.8351043999999998E1,4.1166343999999995E1,5.8331627999999995E1,6.307043999999999E0,1.1708727999999999E1,,,,,5,7,13,15,28,30,8,21,,,,,15,14,11,15,12,16,9,2,,,,,
1571852310,2019-10-23 17:38:30.926,Acquired,Acquired,Acquired,Acquired,Acquired,Acquired,Acquired,Acquired,,,,,2.11076336E2,5.8274899999999995E1,2.95406688E2,2.90362784E2,1.29381472E2,6.3788979999999995E1,4.3927631999999996E1,3.20259232E2,,,,,6.08726E1,2.5226626E1,6.3347676E1,2.8351043999999998E1,4.1166343999999995E1,5.8331627999999995E1,6.307043999999999E0,1.1708727999999999E1,,,,,5,7,13,15,28,30,8,21,,,,,15,14,11,15,12,16,9,2,,,,,
1571852370,2019-10-23 17:39:30.926,Acquired,Acquired,Acquired,Acquired,Acquired,Acquired,Acquired,Acquired,,,,,2.11076336E2,5.8274899999999995E1,2.95406688E2,2.90362784E2,1.29381472E2,6.3788979999999995E1,4.3927631999999996E1,3.20259232E2,,,,,6.08726E1,2.5226626E1,6.3347676E1,2.8351043999999998E1,4.1166343999999995E1,5.8331627999999995E1,6.307043999999999E0,1.1708727999999999E1,,,,,5,7,13,15,28,30,8,21,,,,,15,14,11,15,12,16,9,2,,,,,
1571852430,2019-10-23 17:40:30.927,Acquired,Acquired,Acquired,Acquired,Acquired,Acquired,Acquired,Acquired,,,,,2.11076336E2,5.8274899999999995E1,2.95406688E2,2.90362784E2,1.29381472E2,6.3788979999999995E1,4.3927631999999996E1,3.20259232E2,,,,,6.08726E1,2.5226626E1,6.3347676E1,2.8351043999999998E1,4.1166343999999995E1,5.8331627999999995E1,6.307043999999999E0,1.1708727999999999E1,,,,,5,7,13,15,28,30,8,21,,,,,15,14,11,15,12,16,9,2,,,,,
1571852490,2019-10-23 17:41:30.926,Acquired,Acquired,Acquired,Acquired,Acquired,Acquired,Acquired,Acquired,,,,,2.11076336E2,5.8274899999999995E1,2.95406688E2,2.90362784E2,1.29381472E2,6.3788979999999995E1,4.3927631999999996E1,3.20259232E2,,,,,6.08726E1,2.5226626E1,6.3347676E1,2.8351043999999998E1,4.1166343999999995E1,5.8331627999999995E1,6.307043999999999E0,1.1708727999999999E1,,,,,5,7,13,15,28,30,8,21,,,,,15,14,11,15,12,16,9,2,,,,,
1571852550,2019-10-23 17:42:30.926,Acquired,Acquired,Acquired,Acquired,Acquired,Acquired,Acquired,Acquired,,,,,2.11076336E2,5.8274899999999995E1,2.95406688E2,2.90362784E2,1.29381472E2,6.3788979999999995E1,4.3927631999999996E1,3.20259232E2,,,,,6.08726E1,2.5226626E1,6.3347676E1,2.8351043999999998E1,4.1166343999999995E1,5.8331627999999995E1,6.307043999999999E0,1.1708727999999999E1,,,,,5,7,13,15,28,30,8,21,,,,,15,14,11,15,12,16,9,2,,,,,
1571852610,2019-10-23 17:43:30.926,Acquired,Acquired,Acquired,Acquired,Acquired,Acquired,Acquired,Acquired,,,,,2.11076336E2,5.8274899999999995E1,2.95406688E2,2.90362784E2,1.29381472E2,6.3788979999999995E1,4.3927631999999996E1,3.20259232E2,,,,,6.08726E1,2.5226626E1,6.3347676E1,2.8351043999999998E1,4.1166343999999995E1,5.8331627999999995E1,6.307043999999999E0,1.1708727999999999E1,,,,,5,7,13,15,28,30,8,21,,,,,15,14,11,15,12,16,9,2,,,,,
1571852670,2019-10-23 17:44:30.926,Acquired,Acquired,Acquired,Acquired,Acquired,Acquired,Acquired,Acquired,,,,,2.11076336E2,5.8274899999999995E1,2.95406688E2,2.90362784E2,1.29381472E2,6.3788979999999995E1,4.3927631999999996E1,3.20259232E2,,,,,6.08726E1,2.5226626E1,6.3347676E1,2.8351043999999998E1,4.1166343999999995E1,5.8331627999999995E1,6.307043999999999E0,1.1708727999999999E1,,,,,5,7,13,15,28,30,8,21,,,,,15,14,11,15,12,16,9,2,,,,,
1571852730,2019-10-23 17:45:30.926,Acquired,Acquired,Acquired,Acquired,Acquired,Acquired,Acquired,Acquired,,,,,2.11076336E2,5.8274899999999995E1,2.95406688E2,2.90362784E2,1.29381472E2,6.3788979999999995E1,4.3927631999999996E1,3.20259232E2,,,,,6.08726E1,2.5226626E1,6.3347676E1,2.8351043999999998E1,4.1166343999999995E1,5.8331627999999995E1,6.307043999999999E0,1.1708727999999999E1,,,,,5,7,13,15,28,30,8,21,,,,,15,14,11,15,12,16,9,2,,,,,
1571852790,2019-10-23 17:46:30.928,Acquired,Acquired,Acquired,Acquired,Acquired,Acquired,Acquired,Acquired,,,,,2.11076336E2,5.8274899999999995E1,2.95406688E2,2.90362784E2,1.29381472E2,6.3788979999999995E1,4.3927631999999996E1,3.20259232E2,,,,,6.08726E1,2.5226626E1,6.3347676E1,2.8351043999999998E1,4.1166343999999995E1,5.8331627999999995E1,6.307043999999999E0,1.1708727999999999E1,,,,,5,7,13,15,28,30,8,21,,,,,15,14,11,15,12,16,9,2,,,,,
1571852850,2019-10-23 17:47:30.926,Acquired,Acquired,Acquired,Acquired,Acquired,Acquired,Acquired,Acquired,,,,,2.11076336E2,5.8274899999999995E1,2.95406688E2,2.90362784E2,1.29381472E2,6.3788979999999995E1,4.3927631999999996E1,3.20259232E2,,,,,6.08726E1,2.5226626E1,6.3347676E1,2.8351043999999998E1,4.1166343999999995E1,5.8331627999999995E1,6.307043999999999E0,1.1708727999999999E1,,,,,5,7,13,15,28,30,8,21,,,,,15,14,11,15,12,16,9,2,,,,,
1571852910,2019-10-23 17:48:30.926,Acquired,Acquired,Acquired,Acquired,Acquired,Acquired,Acquired,Acquired,,,,,2.11076336E2,5.8274899999999995E1,2.95406688E2,2.90362784E2,1.29381472E2,6.3788979999999995E1,4.3927631999999996E1,3.20259232E2,,,,,6.08726E1,2.5226626E1,6.3347676E1,2.8351043999999998E1,4.1166343999999995E1,5.8331627999999995E1,6.307043999999999E0,1.1708727999999999E1,,,,,5,7,13,15,28,30,8,21,,,,,15,14,11,15,12,16,9,2,,,,,
1571852970,2019-10-23 17:49:30.926,Acquired,Acquired,Acquired,Acquired,Acquired,Acquired,Acquired,Acquired,,,,,2.11076336E2,5.8274899999999995E1,2.95406688E2,2.90362784E2,1.29381472E2,6.3788979999999995E1,4.3927631999999996E1,3.20259232E2,,,,,6.08726E1,2.5226626E1,6.3347676E1,2.8351043999999998E1,4.1166343999999995E1,5.8331627999999995E1,6.307043999999999E0,1.1708727999999999E1,,,,,5,7,13,15,28,30,8,21,,,,,15,14,11,15,12,16,9,2,,,,,
1571853030,2019-10-23 17:50:30.926,Acquired,Acquired,Acquired,Acquired,Acquired,Acquired,Acquired,Acquired,,,,,2.11076336E2,5.8274899999999995E1,2.95406688E2,2.90362784E2,1.29381472E2,6.3788979999999995E1,4.3927631999999996E1,3.20259232E2,,,,,6.08726E1,2.5226626E1,6.3347676E1,2.8351043999999998E1,4.1166343999999995E1,5.8331627999999995E1,6.307043999999999E0,1.1708727999999999E1,,,,,5,7,13,15,28,30,8,21,,,,,15,14,11,15,12,16,9,2,,,,,
1571853090,2019-10-23 17:51:30.944,Acquired,Acquired,Acquired,Acquired,Acquired,Acquired,Acquired,Acquired,,,,,2.11076336E2,5.8274899999999995E1,2.95406688E2,2.90362784E2,1.29381472E2,6.3788979999999995E1,4.3927631999999996E1,3.20259232E2,,,,,6.08726E1,2.5226626E1,6.3347676E1,2.8351043999999998E1,4.1166343999999995E1,5.8331627999999995E1,6.307043999999999E0,1.1708727999999999E1,,,,,5,7,13,15,28,30,8,21,,,,,15,14,11,15,12,16,9,2,,,,,
1571853150,2019-10-23 17:52:30.926,Acquired,Acquired,Acquired,Acquired,Acquired,Acquired,Acquired,Acquired,,,,,2.11076336E2,5.8274899999999995E1,2.95406688E2,2.90362784E2,1.29381472E2,6.3788979999999995E1,4.3927631999999996E1,3.20259232E2,,,,,6.08726E1,2.5226626E1,6.3347676E1,2.8351043999999998E1,4.1166343999999995E1,5.8331627999999995E1,6.307043999999999E0,1.1708727999999999E1,,,,,5,7,13,15,28,30,8,21,,,,,15,14,11,15,12,16,9,2,,,,,
1571853210,2019-10-23 17:53:30.928,Acquired,Acquired,Acquired,Acquired,Acquired,Acquired,Acquired,Acquired,,,,,2.11076336E2,5.8274899999999995E1,2.95406688E2,2.90362784E2,1.29381472E2,6.3788979999999995E1,4.3927631999999996E1,3.20259232E2,,,,,6.08726E1,2.5226626E1,6.3347676E1,2.8351043999999998E1,4.1166343999999995E1,5.8331627999999995E1,6.307043999999999E0,1.1708727999999999E1,,,,,5,7,13,15,28,30,8,21,,,,,15,14,11,15,12,16,9,2,,,,,
1571853270,2019-10-23 17:54:30.926,Acquired,Acquired,Acquired,Acquired,Acquired,Acquired,Acquired,Acquired,,,,,2.11076336E2,5.8274899999999995E1,2.95406688E2,2.90362784E2,1.29381472E2,6.3788979999999995E1,4.3927631999999996E1,3.20259232E2,,,,,6.08726E1,2.5226626E1,6.3347676E1,2.8351043999999998E1,4.1166343999999995E1,5.8331627999999995E1,6.307043999999999E0,1.1708727999999999E1,,,,,5,7,13,15,28,30,8,21,,,,,15,14,11,15,12,16,9,2,,,,,
1571853330,2019-10-23 17:55:30.926,Acquired,Acquired,Acquired,Acquired,Acquired,Acquired,Acquired,Acquired,,,,,2.11076336E2,5.8274899999999995E1,2.95406688E2,2.90362784E2,1.29381472E2,6.3788979999999995E1,4.3927631999999996E1,3.20259232E2,,,,,6.08726E1,2.5226626E1,6.3347676E1,2.8351043999999998E1,4.1166343999999995E1,5.8331627999999995E1,6.307043999999999E0,1.1708727999999999E1,,,,,5,7,13,15,28,30,8,21,,,,,15,14,11,15,12,16,9,2,,,,,
1571853390,2019-10-23 17:56:30.927,Acquired,Acquired,Acquired,Acquired,Acquired,Acquired,Acquired,Acquired,,,,,2.11076336E2,5.8274899999999995E1,2.95406688E2,2.90362784E2,1.29381472E2,6.3788979999999995E1,4.3927631999999996E1,3.20259232E2,,,,,6.08726E1,2.5226626E1,6.3347676E1,2.8351043999999998E1,4.1166343999999995E1,5.8331627999999995E1,6.307043999999999E0,1.1708727999999999E1,,,,,5,7,13,15,28,30,8,21,,,,,15,14,11,15,12,16,9,2,,,,,
1571853450,2019-10-23 17:57:30.926,Acquired,Acquired,Acquired,Acquired,Acquired,Acquired,Acquired,Acquired,,,,,2.11076336E2,5.8274899999999995E1,2.95406688E2,2.90362784E2,1.29381472E2,6.3788979999999995E1,4.3927631999999996E1,3.20259232E2,,,,,6.08726E1,2.5226626E1,6.3347676E1,2.8351043999999998E1,4.1166343999999995E1,5.8331627999999995E1,6.307043999999999E0,1.1708727999999999E1,,,,,5,7,13,15,28,30,8,21,,,,,15,14,11,15,12,16,9,2,,,,,
1571853510,2019-10-23 17:58:30.926,Acquired,Acquired,Acquired,Acquired,Acquired,Acquired,Acquired,Acquired,,,,,2.11076336E2,5.8274899999999995E1,2.95406688E2,2.90362784E2,1.29381472E2,6.3788979999999995E1,4.3927631999999996E1,3.20259232E2,,,,,6.08726E1,2.5226626E1,6.3347676E1,2.8351043999999998E1,4.1166343999999995E1,5.8331627999999995E1,6.307043999999999E0,1.1708727999999999E1,,,,,5,7,13,15,28,30,8,21,,,,,15,14,11,15,12,16,9,2,,,,,
1571853570,2019-10-23 17:59:30.926,Acquired,Acquired,Acquired,Acquired,Acquired,Acquired,Acquired,Acquired,,,,,2.10429776E2,5.8366423999999995E1,2.95841248E2,2.9052883199999997E2,1.28952728E2,6.3638008E1,4.353566E1,3.19887904E2,,,,,6.0485552E1,2.4823909999999998E1,6.377666E1,2.8760991999999998E1,4.1535512E1,5.7892156E1,6.401809E0,1.1758015E1,,,,,5,7,13,15,28,30,8,21,,,,,15,13,11,15,12,16,9,3,,,,,
