Time(longsecs),Time(UTC),External SOH Voltage 1(V),External SOH Voltage 2(V),External SOH Voltage 3(V),External SOH Voltage 4(V),Sensor SOH Voltage 1(V),Sensor SOH Voltage 2(V),Sensor SOH Voltage 3(V),
1571832030,2019-10-23 12:00:30.926,-3.910303E-3,-3.4794807E-3,5.135536E-3,-1.4207363E-3,4.690132E-1,4.6879864E-1,4.6564674E-1,
1571832090,2019-10-23 12:01:30.926,-6.5557957E-3,-5.5339336E-3,2.48456E-3,-4.37665E-3,4.5177364E-1,4.5189667E-1,4.4890594E-1,
1571832150,2019-10-23 12:02:30.926,-4.1360855E-3,-3.2122135E-3,5.4490566E-3,-1.2283325E-3,4.6567535E-1,4.6500587E-1,4.631424E-1,
1571832210,2019-10-23 12:03:30.927,-2.0542145E-3,-1.3549328E-3,6.777048E-3,7.2813034E-4,4.6926403E-1,4.7060585E-1,4.6621227E-1,
1571832270,2019-10-23 12:04:30.926,-4.8599243E-3,-3.970623E-3,4.1804314E-3,-2.1426678E-3,4.6467018E-1,4.6353626E-1,4.6218777E-1,
1571832330,2019-10-23 12:05:30.926,-2.3696423E-3,-1.5172958E-3,6.706238E-3,3.7837029E-4,4.7119236E-1,4.7072506E-1,4.6864223E-1,
1571832390,2019-10-23 12:06:30.926,-6.572485E-3,-6.0460567E-3,2.3729801E-3,-4.259348E-3,4.588194E-1,4.5723915E-1,4.5541668E-1,
1571832450,2019-10-23 12:07:30.926,-4.337549E-3,-3.3905506E-3,5.0315857E-3,-1.0199547E-3,4.6590805E-1,4.6589088E-1,4.6341515E-1,
1571832510,2019-10-23 12:08:30.926,-6.745577E-3,-5.68223E-3,2.8481483E-3,-3.7856102E-3,4.5673847E-1,4.5649624E-1,4.5418167E-1,
1571832570,2019-10-23 12:09:30.926,-4.6024323E-3,-3.730774E-3,4.4403076E-3,-2.7430058E-3,4.6518993E-1,4.650383E-1,4.6385288E-1,
1571832630,2019-10-23 12:10:30.926,-6.509781E-3,-5.577326E-3,2.9530525E-3,-3.8468838E-3,4.6542168E-1,4.6457863E-1,4.6126842E-1,
1571832690,2019-10-23 12:11:30.926,-2.418518E-3,-1.8644333E-3,6.9873333E-3,3.9887428E-4,4.72723E-1,4.7201633E-1,4.6934605E-1,
1571832750,2019-10-23 12:12:30.926,-4.15349E-3,-3.2250881E-3,4.787445E-3,-1.8086433E-3,4.626255E-1,4.6123314E-1,4.5912838E-1,
1571832810,2019-10-23 12:13:30.928,-4.6551228E-3,-4.3985844E-3,4.3947697E-3,-2.23732E-3,4.6390152E-1,4.6401882E-1,4.6180534E-1,
1571832870,2019-10-23 12:14:30.926,-2.0012856E-3,-1.606226E-3,7.1246624E-3,-1.2660027E-4,4.6921444E-1,4.6791935E-1,4.656229E-1,
1571832930,2019-10-23 12:15:30.926,-5.1221848E-3,-4.212141E-3,4.4238567E-3,-2.2728443E-3,4.643402E-1,4.6412468E-1,4.6129322E-1,
1571832990,2019-10-23 12:16:30.926,-2.0172596E-3,-1.5561581E-3,7.140875E-3,2.3126602E-4,4.7146034E-1,4.7108173E-1,4.693842E-1,
1571833050,2019-10-23 12:17:30.926,-4.32086E-3,-3.3113956E-3,4.9624443E-3,-1.2423992E-3,4.65003E-1,4.6517658E-1,4.623642E-1,
1571833110,2019-10-23 12:18:30.927,-2.2230148E-3,-1.7063618E-3,6.7038536E-3,3.452301E-4,4.68915E-1,4.6780968E-1,4.668255E-1,
1571833170,2019-10-23 12:19:30.928,-2.5320053E-3,-1.6293526E-3,7.0438385E-3,4.7063828E-4,4.6997643E-1,4.6881866E-1,4.6690178E-1,
1571833230,2019-10-23 12:20:30.928,-4.1823387E-3,-3.4794807E-3,5.0566196E-3,-1.7488003E-3,4.655428E-1,4.6485138E-1,4.6343422E-1,
1571833290,2019-10-23 12:21:30.927,-6.436348E-3,-5.9719086E-3,2.5572777E-3,-3.446579E-3,4.6480465E-1,4.64386E-1,4.619665E-1,
1571833350,2019-10-23 12:22:30.926,-6.3767433E-3,-5.960226E-3,2.9594898E-3,-4.19569E-3,4.5905495E-1,4.5814705E-1,4.5613003E-1,
1571833410,2019-10-23 12:23:30.926,-4.429102E-3,-3.1950474E-3,5.0005913E-3,-1.5797615E-3,4.5962238E-1,4.590931E-1,4.5753002E-1,
1571833470,2019-10-23 12:24:30.928,-4.585743E-3,-4.160166E-3,4.679203E-3,-2.2087097E-3,4.6857548E-1,4.6683598E-1,4.6609592E-1,
1571833530,2019-10-23 12:25:30.926,-6.467581E-3,-5.528927E-3,2.8192997E-3,-4.0540695E-3,4.589653E-1,4.5764923E-1,4.5734024E-1,
1571833590,2019-10-23 12:26:30.927,-3.8895607E-3,-3.4229755E-3,5.1107407E-3,-1.7063618E-3,4.6539593E-1,4.6597195E-1,4.6299076E-1,
1571833650,2019-10-23 12:27:30.926,-2.673626E-3,-1.7063618E-3,6.477833E-3,-3.7431717E-5,4.7085667E-1,4.7019386E-1,4.6863556E-1,
1571833710,2019-10-23 12:28:30.926,-6.7486763E-3,-5.993843E-3,2.523899E-3,-4.215479E-3,4.5888424E-1,4.5829582E-1,4.551115E-1,
1571833770,2019-10-23 12:29:30.926,-4.7483444E-3,-4.0609837E-3,4.3735504E-3,-1.8918514E-3,4.6331024E-1,4.6166515E-1,4.5844173E-1,
1571833830,2019-10-23 12:30:30.926,-6.970644E-3,-6.029606E-3,2.514124E-3,-3.946066E-3,4.5689774E-1,4.563198E-1,4.5479202E-1,
1571833890,2019-10-23 12:31:30.938,-4.2369366E-3,-3.367424E-3,5.028248E-3,-1.6272068E-3,4.6942234E-1,4.6925545E-1,4.659958E-1,
1571833950,2019-10-23 12:32:30.929,-2.1698475E-3,-1.3854504E-3,7.142544E-3,4.15802E-4,4.769945E-1,4.7681236E-1,4.7386742E-1,
1571834010,2019-10-23 12:33:30.926,-6.8228245E-3,-6.031275E-3,2.7263165E-3,-4.117012E-3,4.5926476E-1,4.5861816E-1,4.5734596E-1,
1571834070,2019-10-23 12:34:30.926,-2.4666786E-3,-1.3046265E-3,6.7253113E-3,5.4359436E-4,4.6812534E-1,4.6717167E-1,4.6502495E-1,
1571834130,2019-10-23 12:35:30.926,-4.539013E-3,-4.184246E-3,4.6458244E-3,-2.349615E-3,4.6482468E-1,4.6366024E-1,4.6220684E-1,
1571834190,2019-10-23 12:36:30.926,-2.3469925E-3,-1.6112328E-3,6.966114E-3,3.3807755E-4,4.713173E-1,4.7071743E-1,4.6769238E-1,
1571834250,2019-10-23 12:37:30.926,-2.334118E-3,-1.6155243E-3,6.574154E-3,3.5429E-4,4.681759E-1,4.684353E-1,4.6565723E-1,
1571834310,2019-10-23 12:38:30.926,-2.0062923E-3,-1.2648106E-3,6.60491E-3,3.695488E-4,4.7049713E-1,4.7148705E-1,4.6955776E-1,
1571834370,2019-10-23 12:39:30.926,-6.7796707E-3,-5.7036877E-3,2.7871132E-3,-3.7972927E-3,4.584608E-1,4.5845318E-1,4.5747566E-1,
1571834430,2019-10-23 12:40:30.926,-2.7403831E-3,-1.4436245E-3,7.071495E-3,4.8828125E-4,4.7085667E-1,4.6770096E-1,4.6635628E-1,
1571834490,2019-10-23 12:41:30.926,-4.123926E-3,-3.1466484E-3,4.8873425E-3,-1.7654896E-3,4.6339607E-1,4.6360493E-1,4.6000004E-1,
1571834550,2019-10-23 12:42:30.926,-4.850626E-3,-4.1823387E-3,4.6298504E-3,-2.2509098E-3,4.6255684E-1,4.625702E-1,4.5910168E-1,
1571834610,2019-10-23 12:43:30.926,-4.630327E-3,-4.057884E-3,4.6629906E-3,-1.9321442E-3,4.6856976E-1,4.6824265E-1,4.659872E-1,
1571834670,2019-10-23 12:44:30.926,-5.0456524E-3,-3.8466454E-3,4.4937134E-3,-2.1014214E-3,4.632473E-1,4.6372318E-1,4.5954514E-1,
1571834730,2019-10-23 12:45:30.926,-6.85668E-3,-5.8612823E-3,2.753973E-3,-4.2788982E-3,4.5208645E-1,4.510517E-1,4.493513E-1,
1571834790,2019-10-23 12:46:30.926,-4.789114E-3,-3.8261414E-3,4.327297E-3,-2.2127628E-3,4.650135E-1,4.634266E-1,4.6236992E-1,
1571834850,2019-10-23 12:47:30.926,-4.121542E-3,-3.3078194E-3,5.049944E-3,-1.3070107E-3,4.6499443E-1,4.6458244E-1,4.628954E-1,
1571834910,2019-10-23 12:48:30.928,-4.0388107E-3,-3.0863285E-3,5.257845E-3,-1.3754368E-3,4.6551323E-1,4.6446323E-1,4.629116E-1,
1571834970,2019-10-23 12:49:30.927,-6.8027973E-3,-5.913973E-3,2.5043488E-3,-3.9339066E-3,4.5727825E-1,4.5602703E-1,4.5455837E-1,
1571835030,2019-10-23 12:50:30.926,-2.1326542E-3,-1.2714863E-3,6.757736E-3,5.2928925E-4,4.6842575E-1,4.6701527E-1,4.658804E-1,
1571835090,2019-10-23 12:51:30.926,-2.2351742E-3,-1.4879704E-3,6.509781E-3,5.836487E-4,4.6918488E-1,4.674158E-1,4.6655846E-1,
1571835150,2019-10-23 12:52:30.936,-6.6792965E-3,-5.130291E-3,2.595663E-3,-3.9293766E-3,4.5851707E-1,4.5867634E-1,4.562397E-1,
1571835210,2019-10-23 12:53:30.926,-4.2886734E-3,-4.0290356E-3,4.412174E-3,-2.4781227E-3,4.685564E-1,4.686718E-1,4.6596146E-1,
1571835270,2019-10-23 12:54:30.959,-6.762266E-3,-5.637884E-3,2.5880337E-3,-4.1987896E-3,4.633541E-1,4.6163464E-1,4.6051407E-1,
1571835330,2019-10-23 12:55:30.928,-6.7107677E-3,-5.9330463E-3,2.575159E-3,-4.245043E-3,4.557829E-1,4.5426083E-1,4.5170212E-1,
1571835390,2019-10-23 12:56:30.926,-6.414652E-3,-5.8100224E-3,2.609253E-3,-3.669262E-3,4.533043E-1,4.5189095E-1,4.5082664E-1,
1571835450,2019-10-23 12:57:30.926,-6.4661503E-3,-5.439043E-3,2.735138E-3,-4.1992664E-3,4.5853424E-1,4.5700264E-1,4.5744038E-1,
1571835510,2019-10-23 12:58:30.926,-2.566576E-3,-1.6765594E-3,7.22003E-3,4.620552E-4,4.715948E-1,4.708233E-1,4.6908855E-1,
1571835570,2019-10-23 12:59:30.926,-2.207756E-3,-1.3744831E-3,6.9639683E-3,6.392002E-4,4.6953583E-1,4.6807384E-1,4.6574497E-1,
