Time(longsecs),Time(UTC),GPS Satellite Acquisition Flag 1,GPS Satellite Acquisition Flag 2,GPS Satellite Acquisition Flag 3,GPS Satellite Acquisition Flag 4,GPS Satellite Acquisition Flag 5,GPS Satellite Acquisition Flag 6,GPS Satellite Acquisition Flag 7,GPS Satellite Acquisition Flag 8,GPS Satellite Acquisition Flag 9,GPS Satellite Acquisition Flag 10,GPS Satellite Acquisition Flag 11,GPS Satellite Acquisition Flag 12,GPS Satellite Azimuth 1(Degrees),GPS Satellite Azimuth 2(Degrees),GPS Satellite Azimuth 3(Degrees),GPS Satellite Azimuth 4(Degrees),GPS Satellite Azimuth 5(Degrees),GPS Satellite Azimuth 6(Degrees),GPS Satellite Azimuth 7(Degrees),GPS Satellite Azimuth 8(Degrees),GPS Satellite Azimuth 9(Degrees),GPS Satellite Azimuth 10(Degrees),GPS Satellite Azimuth 11(Degrees),GPS Satellite Azimuth 12(Degrees),GPS Satellite Elevation 1(Degrees),GPS Satellite Elevation 2(Degrees),GPS Satellite Elevation 3(Degrees),GPS Satellite Elevation 4(Degrees),GPS Satellite Elevation 5(Degrees),GPS Satellite Elevation 6(Degrees),GPS Satellite Elevation 7(Degrees),GPS Satellite Elevation 8(Degrees),GPS Satellite Elevation 9(Degrees),GPS Satellite Elevation 10(Degrees),GPS Satellite Elevation 11(Degrees),GPS Satellite Elevation 12(Degrees),GPS Satellite PRN 1,GPS Satellite PRN 2,GPS Satellite PRN 3,GPS Satellite PRN 4,GPS Satellite PRN 5,GPS Satellite PRN 6,GPS Satellite PRN 7,GPS Satellite PRN 8,GPS Satellite PRN 9,GPS Satellite PRN 10,GPS Satellite PRN 11,GPS Satellite PRN 12,GPS Satellite Signal Level 1(AMU),GPS Satellite Signal Level 2(AMU),GPS Satellite Signal Level 3(AMU),GPS Satellite Signal Level 4(AMU),GPS Satellite Signal Level 5(AMU),GPS Satellite Signal Level 6(AMU),GPS Satellite Signal Level 7(AMU),GPS Satellite Signal Level 8(AMU),GPS Satellite Signal Level 9(AMU),GPS Satellite Signal Level 10(AMU),GPS Satellite Signal Level 11(AMU),GPS Satellite Signal Level 12(AMU),
1571860830,2019-10-23 20:00:30.926,Acquired,Acquired,Acquired,Acquired,Acquired,Acquired,Acquired,Acquired,Acquired,,Acquired,,3.2398166399999997E2,2.06171472E2,1.28529232E2,2.3274254399999998E2,1.02176864E2,1.23602712E2,2.9762726399999997E2,2.7131555199999997E2,5.3189372E1,,7.8935744E1,,1.431808E1,1.4094216E1,5.6428532E1,7.7766776E1,2.4097174E1,1.5380379E1,2.7412508E1,4.3884236E1,3.8989084E1,,6.670298E0,,10,12,13,15,17,19,20,24,28,,30,,5,12,13,15,10,2,9,12,14,,1,,
1571860890,2019-10-23 20:01:30.926,Acquired,Acquired,Acquired,Acquired,Acquired,Acquired,Acquired,Acquired,Acquired,,Acquired,,3.2398166399999997E2,2.06171472E2,1.28529232E2,2.3274254399999998E2,1.02176864E2,1.23602712E2,2.9762726399999997E2,2.7131555199999997E2,5.3189372E1,,7.8935744E1,,1.431808E1,1.4094216E1,5.6428532E1,7.7766776E1,2.4097174E1,1.5380379E1,2.7412508E1,4.3884236E1,3.8989084E1,,6.670298E0,,10,12,13,15,17,19,20,24,28,,30,,5,12,13,15,10,2,9,12,14,,1,,
1571860950,2019-10-23 20:02:30.926,Acquired,Acquired,Acquired,Acquired,Acquired,Acquired,Acquired,Acquired,Acquired,,Acquired,,3.2398166399999997E2,2.06171472E2,1.28529232E2,2.3274254399999998E2,1.02176864E2,1.23602712E2,2.9762726399999997E2,2.7131555199999997E2,5.3189372E1,,7.8935744E1,,1.431808E1,1.4094216E1,5.6428532E1,7.7766776E1,2.4097174E1,1.5380379E1,2.7412508E1,4.3884236E1,3.8989084E1,,6.670298E0,,10,12,13,15,17,19,20,24,28,,30,,5,12,13,15,10,2,9,12,14,,1,,
1571861010,2019-10-23 20:03:30.926,Acquired,Acquired,Acquired,Acquired,Acquired,Acquired,Acquired,Acquired,Acquired,,Acquired,,3.2398166399999997E2,2.06171472E2,1.28529232E2,2.3274254399999998E2,1.02176864E2,1.23602712E2,2.9762726399999997E2,2.7131555199999997E2,5.3189372E1,,7.8935744E1,,1.431808E1,1.4094216E1,5.6428532E1,7.7766776E1,2.4097174E1,1.5380379E1,2.7412508E1,4.3884236E1,3.8989084E1,,6.670298E0,,10,12,13,15,17,19,20,24,28,,30,,5,12,13,15,10,2,9,12,14,,1,,
1571861070,2019-10-23 20:04:30.926,Acquired,Acquired,Acquired,Acquired,Acquired,Acquired,Acquired,Acquired,Acquired,,Acquired,,3.2398166399999997E2,2.06171472E2,1.28529232E2,2.3274254399999998E2,1.02176864E2,1.23602712E2,2.9762726399999997E2,2.7131555199999997E2,5.3189372E1,,7.8935744E1,,1.431808E1,1.4094216E1,5.6428532E1,7.7766776E1,2.4097174E1,1.5380379E1,2.7412508E1,4.3884236E1,3.8989084E1,,6.670298E0,,10,12,13,15,17,19,20,24,28,,30,,5,12,13,15,10,2,9,12,14,,1,,
1571861130,2019-10-23 20:05:30.926,Acquired,Acquired,Acquired,Acquired,Acquired,Acquired,Acquired,Acquired,Acquired,,Acquired,,3.2398166399999997E2,2.06171472E2,1.28529232E2,2.3274254399999998E2,1.02176864E2,1.23602712E2,2.9762726399999997E2,2.7131555199999997E2,5.3189372E1,,7.8935744E1,,1.431808E1,1.4094216E1,5.6428532E1,7.7766776E1,2.4097174E1,1.5380379E1,2.7412508E1,4.3884236E1,3.8989084E1,,6.670298E0,,10,12,13,15,17,19,20,24,28,,30,,5,12,13,15,10,2,9,12,14,,1,,
1571861190,2019-10-23 20:06:30.926,Acquired,Acquired,Acquired,Acquired,Acquired,Acquired,Acquired,Acquired,Acquired,,Acquired,,3.2398166399999997E2,2.06171472E2,1.28529232E2,2.3274254399999998E2,1.02176864E2,1.23602712E2,2.9762726399999997E2,2.7131555199999997E2,5.3189372E1,,7.8935744E1,,1.431808E1,1.4094216E1,5.6428532E1,7.7766776E1,2.4097174E1,1.5380379E1,2.7412508E1,4.3884236E1,3.8989084E1,,6.670298E0,,10,12,13,15,17,19,20,24,28,,30,,5,12,13,15,10,2,9,12,14,,1,,
1571861250,2019-10-23 20:07:30.928,Acquired,Acquired,Acquired,Acquired,Acquired,Acquired,Acquired,Acquired,Acquired,,Acquired,,3.2398166399999997E2,2.06171472E2,1.28529232E2,2.3274254399999998E2,1.02176864E2,1.23602712E2,2.9762726399999997E2,2.7131555199999997E2,5.3189372E1,,7.8935744E1,,1.431808E1,1.4094216E1,5.6428532E1,7.7766776E1,2.4097174E1,1.5380379E1,2.7412508E1,4.3884236E1,3.8989084E1,,6.670298E0,,10,12,13,15,17,19,20,24,28,,30,,5,12,13,15,10,2,9,12,14,,1,,
1571861310,2019-10-23 20:08:30.926,Acquired,Acquired,Acquired,Acquired,Acquired,Acquired,Acquired,Acquired,Acquired,,Acquired,,3.2398166399999997E2,2.06171472E2,1.28529232E2,2.3274254399999998E2,1.02176864E2,1.23602712E2,2.9762726399999997E2,2.7131555199999997E2,5.3189372E1,,7.8935744E1,,1.431808E1,1.4094216E1,5.6428532E1,7.7766776E1,2.4097174E1,1.5380379E1,2.7412508E1,4.3884236E1,3.8989084E1,,6.670298E0,,10,12,13,15,17,19,20,24,28,,30,,5,12,13,15,10,2,9,12,14,,1,,
1571861370,2019-10-23 20:09:30.926,Acquired,Acquired,Acquired,Acquired,Acquired,Acquired,Acquired,Acquired,Acquired,,Acquired,,3.2398166399999997E2,2.06171472E2,1.28529232E2,2.3274254399999998E2,1.02176864E2,1.23602712E2,2.9762726399999997E2,2.7131555199999997E2,5.3189372E1,,7.8935744E1,,1.431808E1,1.4094216E1,5.6428532E1,7.7766776E1,2.4097174E1,1.5380379E1,2.7412508E1,4.3884236E1,3.8989084E1,,6.670298E0,,10,12,13,15,17,19,20,24,28,,30,,5,12,13,15,10,2,9,12,14,,1,,
1571861430,2019-10-23 20:10:30.926,Acquired,Acquired,Acquired,Acquired,Acquired,Acquired,Acquired,Acquired,Acquired,,Acquired,,3.2398166399999997E2,2.06171472E2,1.28529232E2,2.3274254399999998E2,1.02176864E2,1.23602712E2,2.9762726399999997E2,2.7131555199999997E2,5.3189372E1,,7.8935744E1,,1.431808E1,1.4094216E1,5.6428532E1,7.7766776E1,2.4097174E1,1.5380379E1,2.7412508E1,4.3884236E1,3.8989084E1,,6.670298E0,,10,12,13,15,17,19,20,24,28,,30,,5,12,13,15,10,2,9,12,14,,1,,
1571861490,2019-10-23 20:11:30.926,Acquired,Acquired,Acquired,Acquired,Acquired,Acquired,Acquired,Acquired,Acquired,,Acquired,,3.2398166399999997E2,2.06171472E2,1.28529232E2,2.3274254399999998E2,1.02176864E2,1.23602712E2,2.9762726399999997E2,2.7131555199999997E2,5.3189372E1,,7.8935744E1,,1.431808E1,1.4094216E1,5.6428532E1,7.7766776E1,2.4097174E1,1.5380379E1,2.7412508E1,4.3884236E1,3.8989084E1,,6.670298E0,,10,12,13,15,17,19,20,24,28,,30,,5,12,13,15,10,2,9,12,14,,1,,
1571861550,2019-10-23 20:12:30.927,Acquired,Acquired,Acquired,Acquired,Acquired,Acquired,Acquired,Acquired,Acquired,,Acquired,,3.2398166399999997E2,2.06171472E2,1.28529232E2,2.3274254399999998E2,1.02176864E2,1.23602712E2,2.9762726399999997E2,2.7131555199999997E2,5.3189372E1,,7.8935744E1,,1.431808E1,1.4094216E1,5.6428532E1,7.7766776E1,2.4097174E1,1.5380379E1,2.7412508E1,4.3884236E1,3.8989084E1,,6.670298E0,,10,12,13,15,17,19,20,24,28,,30,,5,12,13,15,10,2,9,12,14,,1,,
1571861610,2019-10-23 20:13:30.965,Acquired,Acquired,Acquired,Acquired,Acquired,Acquired,Acquired,Acquired,Acquired,,Acquired,,3.2398166399999997E2,2.06171472E2,1.28529232E2,2.3274254399999998E2,1.02176864E2,1.23602712E2,2.9762726399999997E2,2.7131555199999997E2,5.3189372E1,,7.8935744E1,,1.431808E1,1.4094216E1,5.6428532E1,7.7766776E1,2.4097174E1,1.5380379E1,2.7412508E1,4.3884236E1,3.8989084E1,,6.670298E0,,10,12,13,15,17,19,20,24,28,,30,,5,12,13,15,10,2,9,12,14,,1,,
1571861670,2019-10-23 20:14:30.926,Acquired,Acquired,Acquired,Acquired,Acquired,Acquired,Acquired,Acquired,Acquired,,Acquired,,3.2398166399999997E2,2.06171472E2,1.28529232E2,2.3274254399999998E2,1.02176864E2,1.23602712E2,2.9762726399999997E2,2.7131555199999997E2,5.3189372E1,,7.8935744E1,,1.431808E1,1.4094216E1,5.6428532E1,7.7766776E1,2.4097174E1,1.5380379E1,2.7412508E1,4.3884236E1,3.8989084E1,,6.670298E0,,10,12,13,15,17,19,20,24,28,,30,,5,12,13,15,10,2,9,12,14,,1,,
1571861730,2019-10-23 20:15:30.926,Acquired,Acquired,Acquired,Acquired,Acquired,Acquired,Acquired,Acquired,Acquired,,Acquired,,3.2398166399999997E2,2.06171472E2,1.28529232E2,2.3274254399999998E2,1.02176864E2,1.23602712E2,2.9762726399999997E2,2.7131555199999997E2,5.3189372E1,,7.8935744E1,,1.431808E1,1.4094216E1,5.6428532E1,7.7766776E1,2.4097174E1,1.5380379E1,2.7412508E1,4.3884236E1,3.8989084E1,,6.670298E0,,10,12,13,15,17,19,20,24,28,,30,,5,12,13,15,10,2,9,12,14,,1,,
1571861790,2019-10-23 20:16:30.926,Acquired,Acquired,Acquired,Acquired,Acquired,Acquired,Acquired,Acquired,Acquired,,Acquired,,3.2398166399999997E2,2.06171472E2,1.28529232E2,2.3274254399999998E2,1.02176864E2,1.23602712E2,2.9762726399999997E2,2.7131555199999997E2,5.3189372E1,,7.8935744E1,,1.431808E1,1.4094216E1,5.6428532E1,7.7766776E1,2.4097174E1,1.5380379E1,2.7412508E1,4.3884236E1,3.8989084E1,,6.670298E0,,10,12,13,15,17,19,20,24,28,,30,,5,12,13,15,10,2,9,12,14,,1,,
1571861850,2019-10-23 20:17:30.926,Acquired,Acquired,Acquired,Acquired,Acquired,Acquired,Acquired,Acquired,Acquired,,Acquired,,3.23704832E2,2.0626756799999998E2,1.28836032E2,2.30491568E2,1.0178679199999999E2,1.2331506399999999E2,2.97158816E2,2.7161670399999997E2,5.2951248E1,,7.9155E1,,1.4590632999999999E1,1.4519615E1,5.5964695999999996E1,7.7702264E1,2.4379388E1,1.5733734E1,2.7487978E1,4.4293456E1,3.8631147999999996E1,,6.3204389999999995E0,,10,12,13,15,17,19,20,24,28,,30,,4,13,13,15,10,3,8,12,13,,1,,
1571861910,2019-10-23 20:18:30.936,Acquired,Acquired,,,Acquired,Acquired,Acquired,Acquired,Acquired,,,,3.08662848E2,2.1167376E2,,,8.2493624E1,1.0857131199999999E2,2.7676752E2,2.85705376E2,4.8102108E1,,,,2.317053E1,3.3500175999999996E1,,,3.321524E1,2.9846871999999998E1,2.6118926E1,6.1970732E1,2.2749675999999997E1,,,,10,12,,,17,19,20,24,28,,,,6,14,,,12,8,11,15,6,,,,
1571861970,2019-10-23 20:19:30.965,Acquired,Acquired,,,Acquired,Acquired,Acquired,Acquired,Acquired,,,,3.08662848E2,2.1167376E2,,,8.2493624E1,1.0857131199999999E2,2.7676752E2,2.85705376E2,4.8102108E1,,,,2.317053E1,3.3500175999999996E1,,,3.321524E1,2.9846871999999998E1,2.6118926E1,6.1970732E1,2.2749675999999997E1,,,,10,12,,,17,19,20,24,28,,,,6,14,,,12,8,11,15,6,,,,
1571862030,2019-10-23 20:20:30.926,Acquired,Acquired,,,Acquired,Acquired,Acquired,Acquired,Acquired,,,,3.08662848E2,2.1167376E2,,,8.2493624E1,1.0857131199999999E2,2.7676752E2,2.85705376E2,4.8102108E1,,,,2.317053E1,3.3500175999999996E1,,,3.321524E1,2.9846871999999998E1,2.6118926E1,6.1970732E1,2.2749675999999997E1,,,,10,12,,,17,19,20,24,28,,,,6,14,,,12,8,11,15,6,,,,
1571862090,2019-10-23 20:21:30.926,Acquired,Acquired,,,Acquired,Acquired,Acquired,Acquired,Acquired,,,,3.08662848E2,2.1167376E2,,,8.2493624E1,1.0857131199999999E2,2.7676752E2,2.85705376E2,4.8102108E1,,,,2.317053E1,3.3500175999999996E1,,,3.321524E1,2.9846871999999998E1,2.6118926E1,6.1970732E1,2.2749675999999997E1,,,,10,12,,,17,19,20,24,28,,,,6,14,,,12,8,11,15,6,,,,
1571862150,2019-10-23 20:22:30.926,Acquired,Acquired,,,Acquired,Acquired,Acquired,Acquired,Acquired,,,,3.08662848E2,2.1167376E2,,,8.2493624E1,1.0857131199999999E2,2.7676752E2,2.85705376E2,4.8102108E1,,,,2.317053E1,3.3500175999999996E1,,,3.321524E1,2.9846871999999998E1,2.6118926E1,6.1970732E1,2.2749675999999997E1,,,,10,12,,,17,19,20,24,28,,,,6,14,,,12,8,11,15,6,,,,
1571862210,2019-10-23 20:23:30.926,Acquired,Acquired,,,Acquired,Acquired,Acquired,Acquired,Acquired,,,,3.08662848E2,2.1167376E2,,,8.2493624E1,1.0857131199999999E2,2.7676752E2,2.85705376E2,4.8102108E1,,,,2.317053E1,3.3500175999999996E1,,,3.321524E1,2.9846871999999998E1,2.6118926E1,6.1970732E1,2.2749675999999997E1,,,,10,12,,,17,19,20,24,28,,,,6,14,,,12,8,11,15,6,,,,
1571862270,2019-10-23 20:24:30.926,Acquired,Acquired,,,Acquired,Acquired,Acquired,Acquired,Acquired,,,,3.08662848E2,2.1167376E2,,,8.2493624E1,1.0857131199999999E2,2.7676752E2,2.85705376E2,4.8102108E1,,,,2.317053E1,3.3500175999999996E1,,,3.321524E1,2.9846871999999998E1,2.6118926E1,6.1970732E1,2.2749675999999997E1,,,,10,12,,,17,19,20,24,28,,,,6,14,,,12,8,11,15,6,,,,
1571862330,2019-10-23 20:25:30.926,Acquired,Acquired,,,Acquired,Acquired,Acquired,Acquired,Acquired,,,,3.08662848E2,2.1167376E2,,,8.2493624E1,1.0857131199999999E2,2.7676752E2,2.85705376E2,4.8102108E1,,,,2.317053E1,3.3500175999999996E1,,,3.321524E1,2.9846871999999998E1,2.6118926E1,6.1970732E1,2.2749675999999997E1,,,,10,12,,,17,19,20,24,28,,,,6,14,,,12,8,11,15,6,,,,
1571862390,2019-10-23 20:26:30.926,Acquired,Acquired,,,Acquired,Acquired,Acquired,Acquired,Acquired,,,,3.08662848E2,2.1167376E2,,,8.2493624E1,1.0857131199999999E2,2.7676752E2,2.85705376E2,4.8102108E1,,,,2.317053E1,3.3500175999999996E1,,,3.321524E1,2.9846871999999998E1,2.6118926E1,6.1970732E1,2.2749675999999997E1,,,,10,12,,,17,19,20,24,28,,,,6,14,,,12,8,11,15,6,,,,
1571862450,2019-10-23 20:27:30.926,Acquired,Acquired,,,Acquired,Acquired,Acquired,Acquired,Acquired,,,,3.08662848E2,2.1167376E2,,,8.2493624E1,1.0857131199999999E2,2.7676752E2,2.85705376E2,4.8102108E1,,,,2.317053E1,3.3500175999999996E1,,,3.321524E1,2.9846871999999998E1,2.6118926E1,6.1970732E1,2.2749675999999997E1,,,,10,12,,,17,19,20,24,28,,,,6,14,,,12,8,11,15,6,,,,
1571862510,2019-10-23 20:28:30.926,Acquired,Acquired,,,Acquired,Acquired,Acquired,Acquired,Acquired,,,,3.08662848E2,2.1167376E2,,,8.2493624E1,1.0857131199999999E2,2.7676752E2,2.85705376E2,4.8102108E1,,,,2.317053E1,3.3500175999999996E1,,,3.321524E1,2.9846871999999998E1,2.6118926E1,6.1970732E1,2.2749675999999997E1,,,,10,12,,,17,19,20,24,28,,,,6,14,,,12,8,11,15,6,,,,
1571862570,2019-10-23 20:29:30.926,Acquired,Acquired,,,Acquired,Acquired,Acquired,Acquired,Acquired,,,,3.08662848E2,2.1167376E2,,,8.2493624E1,1.0857131199999999E2,2.7676752E2,2.85705376E2,4.8102108E1,,,,2.317053E1,3.3500175999999996E1,,,3.321524E1,2.9846871999999998E1,2.6118926E1,6.1970732E1,2.2749675999999997E1,,,,10,12,,,17,19,20,24,28,,,,6,14,,,12,8,11,15,6,,,,
1571862630,2019-10-23 20:30:30.926,Acquired,Acquired,,,Acquired,Acquired,Acquired,Acquired,Acquired,,,,3.08662848E2,2.1167376E2,,,8.2493624E1,1.0857131199999999E2,2.7676752E2,2.85705376E2,4.8102108E1,,,,2.317053E1,3.3500175999999996E1,,,3.321524E1,2.9846871999999998E1,2.6118926E1,6.1970732E1,2.2749675999999997E1,,,,10,12,,,17,19,20,24,28,,,,6,14,,,12,8,11,15,6,,,,
1571862690,2019-10-23 20:31:30.926,Acquired,Acquired,,,Acquired,Acquired,Acquired,Acquired,Acquired,,,,3.08662848E2,2.1167376E2,,,8.2493624E1,1.0857131199999999E2,2.7676752E2,2.85705376E2,4.8102108E1,,,,2.317053E1,3.3500175999999996E1,,,3.321524E1,2.9846871999999998E1,2.6118926E1,6.1970732E1,2.2749675999999997E1,,,,10,12,,,17,19,20,24,28,,,,6,14,,,12,8,11,15,6,,,,
1571862750,2019-10-23 20:32:30.926,Acquired,Acquired,,,Acquired,Acquired,Acquired,Acquired,Acquired,,,,3.08662848E2,2.1167376E2,,,8.2493624E1,1.0857131199999999E2,2.7676752E2,2.85705376E2,4.8102108E1,,,,2.317053E1,3.3500175999999996E1,,,3.321524E1,2.9846871999999998E1,2.6118926E1,6.1970732E1,2.2749675999999997E1,,,,10,12,,,17,19,20,24,28,,,,6,14,,,12,8,11,15,6,,,,
1571862810,2019-10-23 20:33:30.928,Acquired,Acquired,,,Acquired,Acquired,Acquired,Acquired,Acquired,,,,3.08662848E2,2.1167376E2,,,8.2493624E1,1.0857131199999999E2,2.7676752E2,2.85705376E2,4.8102108E1,,,,2.317053E1,3.3500175999999996E1,,,3.321524E1,2.9846871999999998E1,2.6118926E1,6.1970732E1,2.2749675999999997E1,,,,10,12,,,17,19,20,24,28,,,,6,14,,,12,8,11,15,6,,,,
1571862870,2019-10-23 20:34:30.926,Acquired,Acquired,,,Acquired,Acquired,Acquired,Acquired,Acquired,,,,3.08662848E2,2.1167376E2,,,8.2493624E1,1.0857131199999999E2,2.7676752E2,2.85705376E2,4.8102108E1,,,,2.317053E1,3.3500175999999996E1,,,3.321524E1,2.9846871999999998E1,2.6118926E1,6.1970732E1,2.2749675999999997E1,,,,10,12,,,17,19,20,24,28,,,,6,14,,,12,8,11,15,6,,,,
1571862930,2019-10-23 20:35:30.926,Acquired,Acquired,,,Acquired,Acquired,Acquired,Acquired,Acquired,,,,3.08662848E2,2.1167376E2,,,8.2493624E1,1.0857131199999999E2,2.7676752E2,2.85705376E2,4.8102108E1,,,,2.317053E1,3.3500175999999996E1,,,3.321524E1,2.9846871999999998E1,2.6118926E1,6.1970732E1,2.2749675999999997E1,,,,10,12,,,17,19,20,24,28,,,,6,14,,,12,8,11,15,6,,,,
1571862990,2019-10-23 20:36:30.927,Acquired,Acquired,,,Acquired,Acquired,Acquired,Acquired,Acquired,,,,3.08662848E2,2.1167376E2,,,8.2493624E1,1.0857131199999999E2,2.7676752E2,2.85705376E2,4.8102108E1,,,,2.317053E1,3.3500175999999996E1,,,3.321524E1,2.9846871999999998E1,2.6118926E1,6.1970732E1,2.2749675999999997E1,,,,10,12,,,17,19,20,24,28,,,,6,14,,,12,8,11,15,6,,,,
1571863050,2019-10-23 20:37:30.926,Acquired,Acquired,,,Acquired,Acquired,Acquired,Acquired,Acquired,,,,3.08662848E2,2.1167376E2,,,8.2493624E1,1.0857131199999999E2,2.7676752E2,2.85705376E2,4.8102108E1,,,,2.317053E1,3.3500175999999996E1,,,3.321524E1,2.9846871999999998E1,2.6118926E1,6.1970732E1,2.2749675999999997E1,,,,10,12,,,17,19,20,24,28,,,,6,14,,,12,8,11,15,6,,,,
1571863110,2019-10-23 20:38:30.926,Acquired,Acquired,,,Acquired,Acquired,Acquired,Acquired,Acquired,,,,3.08662848E2,2.1167376E2,,,8.2493624E1,1.0857131199999999E2,2.7676752E2,2.85705376E2,4.8102108E1,,,,2.317053E1,3.3500175999999996E1,,,3.321524E1,2.9846871999999998E1,2.6118926E1,6.1970732E1,2.2749675999999997E1,,,,10,12,,,17,19,20,24,28,,,,6,14,,,12,8,11,15,6,,,,
1571863170,2019-10-23 20:39:30.926,Acquired,Acquired,,,Acquired,Acquired,Acquired,Acquired,Acquired,,,,3.08662848E2,2.1167376E2,,,8.2493624E1,1.0857131199999999E2,2.7676752E2,2.85705376E2,4.8102108E1,,,,2.317053E1,3.3500175999999996E1,,,3.321524E1,2.9846871999999998E1,2.6118926E1,6.1970732E1,2.2749675999999997E1,,,,10,12,,,17,19,20,24,28,,,,6,14,,,12,8,11,15,6,,,,
1571863230,2019-10-23 20:40:30.926,Acquired,Acquired,,,Acquired,Acquired,Acquired,Acquired,Acquired,,,,3.08662848E2,2.1167376E2,,,8.2493624E1,1.0857131199999999E2,2.7676752E2,2.85705376E2,4.8102108E1,,,,2.317053E1,3.3500175999999996E1,,,3.321524E1,2.9846871999999998E1,2.6118926E1,6.1970732E1,2.2749675999999997E1,,,,10,12,,,17,19,20,24,28,,,,6,14,,,12,8,11,15,6,,,,
1571863290,2019-10-23 20:41:30.926,Acquired,Acquired,,,Acquired,Acquired,Acquired,Acquired,Acquired,,,,3.08662848E2,2.1167376E2,,,8.2493624E1,1.0857131199999999E2,2.7676752E2,2.85705376E2,4.8102108E1,,,,2.317053E1,3.3500175999999996E1,,,3.321524E1,2.9846871999999998E1,2.6118926E1,6.1970732E1,2.2749675999999997E1,,,,10,12,,,17,19,20,24,28,,,,6,14,,,12,8,11,15,6,,,,
1571863350,2019-10-23 20:42:30.926,Acquired,Acquired,,,Acquired,Acquired,Acquired,Acquired,Acquired,,,,3.08662848E2,2.1167376E2,,,8.2493624E1,1.0857131199999999E2,2.7676752E2,2.85705376E2,4.8102108E1,,,,2.317053E1,3.3500175999999996E1,,,3.321524E1,2.9846871999999998E1,2.6118926E1,6.1970732E1,2.2749675999999997E1,,,,10,12,,,17,19,20,24,28,,,,6,14,,,12,8,11,15,6,,,,
1571863410,2019-10-23 20:43:30.965,Acquired,Acquired,,,Acquired,Acquired,Acquired,Acquired,Acquired,,,,3.08662848E2,2.1167376E2,,,8.2493624E1,1.0857131199999999E2,2.7676752E2,2.85705376E2,4.8102108E1,,,,2.317053E1,3.3500175999999996E1,,,3.321524E1,2.9846871999999998E1,2.6118926E1,6.1970732E1,2.2749675999999997E1,,,,10,12,,,17,19,20,24,28,,,,6,14,,,12,8,11,15,6,,,,
1571863470,2019-10-23 20:44:30.926,Acquired,Acquired,,,Acquired,Acquired,Acquired,Acquired,Acquired,,,,3.08662848E2,2.1167376E2,,,8.2493624E1,1.0857131199999999E2,2.7676752E2,2.85705376E2,4.8102108E1,,,,2.317053E1,3.3500175999999996E1,,,3.321524E1,2.9846871999999998E1,2.6118926E1,6.1970732E1,2.2749675999999997E1,,,,10,12,,,17,19,20,24,28,,,,6,14,,,12,8,11,15,6,,,,
1571863530,2019-10-23 20:45:30.926,Acquired,Acquired,,,Acquired,Acquired,Acquired,Acquired,Acquired,,,,3.08662848E2,2.1167376E2,,,8.2493624E1,1.0857131199999999E2,2.7676752E2,2.85705376E2,4.8102108E1,,,,2.317053E1,3.3500175999999996E1,,,3.321524E1,2.9846871999999998E1,2.6118926E1,6.1970732E1,2.2749675999999997E1,,,,10,12,,,17,19,20,24,28,,,,6,14,,,12,8,11,15,6,,,,
1571863590,2019-10-23 20:46:30.926,Acquired,Acquired,,,Acquired,Acquired,Acquired,Acquired,Acquired,,,,3.08662848E2,2.1167376E2,,,8.2493624E1,1.0857131199999999E2,2.7676752E2,2.85705376E2,4.8102108E1,,,,2.317053E1,3.3500175999999996E1,,,3.321524E1,2.9846871999999998E1,2.6118926E1,6.1970732E1,2.2749675999999997E1,,,,10,12,,,17,19,20,24,28,,,,6,14,,,12,8,11,15,6,,,,
1571863650,2019-10-23 20:47:30.926,Acquired,Acquired,,,Acquired,Acquired,Acquired,Acquired,Acquired,,,,3.08662848E2,2.1167376E2,,,8.2493624E1,1.0857131199999999E2,2.7676752E2,2.85705376E2,4.8102108E1,,,,2.317053E1,3.3500175999999996E1,,,3.321524E1,2.9846871999999998E1,2.6118926E1,6.1970732E1,2.2749675999999997E1,,,,10,12,,,17,19,20,24,28,,,,6,14,,,12,8,11,15,6,,,,
1571863710,2019-10-23 20:48:30.926,Acquired,Acquired,,,Acquired,Acquired,Acquired,Acquired,Acquired,,,,3.08662848E2,2.1167376E2,,,8.2493624E1,1.0857131199999999E2,2.7676752E2,2.85705376E2,4.8102108E1,,,,2.317053E1,3.3500175999999996E1,,,3.321524E1,2.9846871999999998E1,2.6118926E1,6.1970732E1,2.2749675999999997E1,,,,10,12,,,17,19,20,24,28,,,,6,14,,,12,8,11,15,6,,,,
1571863770,2019-10-23 20:49:30.926,Acquired,Acquired,,,Acquired,Acquired,Acquired,Acquired,Acquired,,,,3.08662848E2,2.1167376E2,,,8.2493624E1,1.0857131199999999E2,2.7676752E2,2.85705376E2,4.8102108E1,,,,2.317053E1,3.3500175999999996E1,,,3.321524E1,2.9846871999999998E1,2.6118926E1,6.1970732E1,2.2749675999999997E1,,,,10,12,,,17,19,20,24,28,,,,6,14,,,12,8,11,15,6,,,,
1571863830,2019-10-23 20:50:30.926,Acquired,Acquired,,,Acquired,Acquired,Acquired,Acquired,Acquired,,,,3.08662848E2,2.1167376E2,,,8.2493624E1,1.0857131199999999E2,2.7676752E2,2.85705376E2,4.8102108E1,,,,2.317053E1,3.3500175999999996E1,,,3.321524E1,2.9846871999999998E1,2.6118926E1,6.1970732E1,2.2749675999999997E1,,,,10,12,,,17,19,20,24,28,,,,6,14,,,12,8,11,15,6,,,,
1571863890,2019-10-23 20:51:30.926,Acquired,Acquired,,,Acquired,Acquired,Acquired,Acquired,Acquired,,,,3.08662848E2,2.1167376E2,,,8.2493624E1,1.0857131199999999E2,2.7676752E2,2.85705376E2,4.8102108E1,,,,2.317053E1,3.3500175999999996E1,,,3.321524E1,2.9846871999999998E1,2.6118926E1,6.1970732E1,2.2749675999999997E1,,,,10,12,,,17,19,20,24,28,,,,6,14,,,12,8,11,15,6,,,,
1571863950,2019-10-23 20:52:30.926,Acquired,Acquired,,,Acquired,Acquired,Acquired,Acquired,Acquired,,,,3.08662848E2,2.1167376E2,,,8.2493624E1,1.0857131199999999E2,2.7676752E2,2.85705376E2,4.8102108E1,,,,2.317053E1,3.3500175999999996E1,,,3.321524E1,2.9846871999999998E1,2.6118926E1,6.1970732E1,2.2749675999999997E1,,,,10,12,,,17,19,20,24,28,,,,6,14,,,12,8,11,15,6,,,,
1571864010,2019-10-23 20:53:30.926,Acquired,Acquired,,,Acquired,Acquired,Acquired,Acquired,Acquired,,,,3.08662848E2,2.1167376E2,,,8.2493624E1,1.0857131199999999E2,2.7676752E2,2.85705376E2,4.8102108E1,,,,2.317053E1,3.3500175999999996E1,,,3.321524E1,2.9846871999999998E1,2.6118926E1,6.1970732E1,2.2749675999999997E1,,,,10,12,,,17,19,20,24,28,,,,6,14,,,12,8,11,15,6,,,,
1571864070,2019-10-23 20:54:30.926,Acquired,Acquired,,,Acquired,Acquired,Acquired,Acquired,Acquired,,,,3.08662848E2,2.1167376E2,,,8.2493624E1,1.0857131199999999E2,2.7676752E2,2.85705376E2,4.8102108E1,,,,2.317053E1,3.3500175999999996E1,,,3.321524E1,2.9846871999999998E1,2.6118926E1,6.1970732E1,2.2749675999999997E1,,,,10,12,,,17,19,20,24,28,,,,6,14,,,12,8,11,15,6,,,,
1571864130,2019-10-23 20:55:30.926,Acquired,Acquired,,,Acquired,Acquired,Acquired,Acquired,Acquired,,,,3.08662848E2,2.1167376E2,,,8.2493624E1,1.0857131199999999E2,2.7676752E2,2.85705376E2,4.8102108E1,,,,2.317053E1,3.3500175999999996E1,,,3.321524E1,2.9846871999999998E1,2.6118926E1,6.1970732E1,2.2749675999999997E1,,,,10,12,,,17,19,20,24,28,,,,6,14,,,12,8,11,15,6,,,,
1571864190,2019-10-23 20:56:30.926,Acquired,Acquired,Acquired,Acquired,Acquired,Acquired,Acquired,Acquired,Acquired,,,,3.08224928E2,2.1183592E2,1.3946984E2,1.81863488E2,8.1966104E1,1.08132936E2,2.76287936E2,2.86100256E2,4.8084312E1,,,,2.3292142E1,3.3977115999999995E1,3.6165327999999995E1,6.2841975999999995E1,3.3333824E1,3.0148747999999998E1,2.5980771999999998E1,6.2408428E1,2.2358262E1,,,,10,12,13,15,17,19,20,24,28,,,,6,13,9,13,12,6,10,15,7,,,,
1571864250,2019-10-23 20:57:30.939,Acquired,,Acquired,Acquired,Acquired,Acquired,Acquired,Acquired,Not acquired,Acquired,Acquired,,2.9067807999999997E2,,1.45985728E2,1.7526728E2,6.208416E1,8.8521496E1,2.60086832E2,3.0822812799999997E2,2.2958566399999998E2,4.9675284E1,3.16936032E2,,2.424676E1,,1.9403015999999997E1,4.4828939999999996E1,3.3639384E1,3.8444151999999995E1,1.8180124E1,7.8791584E1,1.0050360999999999E1,7.987436E0,9.126909999999999E0,,10,,13,15,17,19,20,24,25,28,32,,9,,4,13,12,11,6,15,0,8,5,,
1571864310,2019-10-23 20:58:30.926,Acquired,Acquired,Acquired,Acquired,Acquired,Acquired,Acquired,Acquired,Acquired,Acquired,Acquired,,2.9020086399999997E2,2.19310512E2,1.4613142399999998E2,1.7519708799999998E2,6.157552E1,8.7914056E1,2.59698032E2,3.09348416E2,2.29782016E2,4.9769583999999995E1,3.1691779199999996E2,,2.4175652E1,5.2712896E1,1.8961983999999998E1,4.4342492E1,3.3535061999999996E1,3.8564912E1,1.7913224E1,7.9223744E1,1.0456305E1,7.607729E0,9.516843999999999E0,,10,12,13,15,17,19,20,24,25,28,32,,8,14,5,14,13,12,7,15,3,7,3,,
1571864370,2019-10-23 20:59:30.926,Acquired,Acquired,Acquired,Acquired,Acquired,Acquired,Acquired,Acquired,Acquired,Acquired,Acquired,,2.89720416E2,2.19541488E2,1.46272448E2,1.7513123199999998E2,6.1081036E1,8.7317112E1,2.59320096E2,3.1051408E2,2.2997731199999998E2,4.9864076E1,3.1689667199999997E2,,2.409904E1,5.3205327999999994E1,1.8531157999999998E1,4.3867008E1,3.3427516E1,3.8676708E1,1.7650002E1,7.964435999999999E1,1.0854605E1,7.236758E0,9.898377E0,,10,12,13,15,17,19,20,24,25,28,32,,8,15,5,14,12,12,7,15,3,8,3,,
