Time(longsecs),Time(UTC),GPS Satellite Acquisition Flag 1,GPS Satellite Acquisition Flag 2,GPS Satellite Acquisition Flag 3,GPS Satellite Acquisition Flag 4,GPS Satellite Acquisition Flag 5,GPS Satellite Acquisition Flag 6,GPS Satellite Acquisition Flag 7,GPS Satellite Acquisition Flag 8,GPS Satellite Acquisition Flag 9,GPS Satellite Acquisition Flag 10,GPS Satellite Acquisition Flag 11,GPS Satellite Acquisition Flag 12,GPS Satellite Azimuth 1(Degrees),GPS Satellite Azimuth 2(Degrees),GPS Satellite Azimuth 3(Degrees),GPS Satellite Azimuth 4(Degrees),GPS Satellite Azimuth 5(Degrees),GPS Satellite Azimuth 6(Degrees),GPS Satellite Azimuth 7(Degrees),GPS Satellite Azimuth 8(Degrees),GPS Satellite Azimuth 9(Degrees),GPS Satellite Azimuth 10(Degrees),GPS Satellite Azimuth 11(Degrees),GPS Satellite Azimuth 12(Degrees),GPS Satellite Elevation 1(Degrees),GPS Satellite Elevation 2(Degrees),GPS Satellite Elevation 3(Degrees),GPS Satellite Elevation 4(Degrees),GPS Satellite Elevation 5(Degrees),GPS Satellite Elevation 6(Degrees),GPS Satellite Elevation 7(Degrees),GPS Satellite Elevation 8(Degrees),GPS Satellite Elevation 9(Degrees),GPS Satellite Elevation 10(Degrees),GPS Satellite Elevation 11(Degrees),GPS Satellite Elevation 12(Degrees),GPS Satellite PRN 1,GPS Satellite PRN 2,GPS Satellite PRN 3,GPS Satellite PRN 4,GPS Satellite PRN 5,GPS Satellite PRN 6,GPS Satellite PRN 7,GPS Satellite PRN 8,GPS Satellite PRN 9,GPS Satellite PRN 10,GPS Satellite PRN 11,GPS Satellite PRN 12,GPS Satellite Signal Level 1(AMU),GPS Satellite Signal Level 2(AMU),GPS Satellite Signal Level 3(AMU),GPS Satellite Signal Level 4(AMU),GPS Satellite Signal Level 5(AMU),GPS Satellite Signal Level 6(AMU),GPS Satellite Signal Level 7(AMU),GPS Satellite Signal Level 8(AMU),GPS Satellite Signal Level 9(AMU),GPS Satellite Signal Level 10(AMU),GPS Satellite Signal Level 11(AMU),GPS Satellite Signal Level 12(AMU),
1571796038,2019-10-23 02:00:38.772,Acquired,Acquired,Acquired,Not acquired,Acquired,Acquired,Acquired,Acquired,Acquired,,,,4.420624E1,9.6427464E1,2.4461076799999998E2,1.77536992E2,9.150468E1,2.87455808E2,1.15032384E2,2.7509184E2,2.2099915199999998E2,,,,2.2219932E1,1.4052527E1,2.171414E1,1.5904399999999999E1,5.7036488E1,2.6830143999999997E1,8.578132E1,6.2359936E1,7.475959E0,,,,2,12,14,21,25,26,29,31,32,,,,2,3,1,1,1,13,11,5,3,,,,
1571796098,2019-10-23 02:01:38.746,Acquired,Acquired,Acquired,Not acquired,Acquired,Acquired,Acquired,Acquired,Acquired,,,,4.420624E1,9.6427464E1,2.4461076799999998E2,1.77536992E2,9.150468E1,2.87455808E2,1.15032384E2,2.7509184E2,2.2099915199999998E2,,,,2.2219932E1,1.4052527E1,2.171414E1,1.5904399999999999E1,5.7036488E1,2.6830143999999997E1,8.578132E1,6.2359936E1,7.475959E0,,,,2,12,14,21,25,26,29,31,32,,,,2,3,1,1,1,13,11,5,3,,,,
1571796158,2019-10-23 02:02:38.746,Acquired,Acquired,Acquired,Not acquired,Acquired,Acquired,Acquired,Acquired,Acquired,,,,4.420624E1,9.6427464E1,2.4461076799999998E2,1.77536992E2,9.150468E1,2.87455808E2,1.15032384E2,2.7509184E2,2.2099915199999998E2,,,,2.2219932E1,1.4052527E1,2.171414E1,1.5904399999999999E1,5.7036488E1,2.6830143999999997E1,8.578132E1,6.2359936E1,7.475959E0,,,,2,12,14,21,25,26,29,31,32,,,,2,3,1,1,1,13,11,5,3,,,,
1571796218,2019-10-23 02:03:38.746,Acquired,Acquired,Acquired,Not acquired,Acquired,Acquired,Acquired,Acquired,Acquired,,,,4.420624E1,9.6427464E1,2.4461076799999998E2,1.77536992E2,9.150468E1,2.87455808E2,1.15032384E2,2.7509184E2,2.2099915199999998E2,,,,2.2219932E1,1.4052527E1,2.171414E1,1.5904399999999999E1,5.7036488E1,2.6830143999999997E1,8.578132E1,6.2359936E1,7.475959E0,,,,2,12,14,21,25,26,29,31,32,,,,2,3,1,1,1,13,11,5,3,,,,
1571796278,2019-10-23 02:04:38.746,Acquired,Acquired,Acquired,Not acquired,Acquired,Acquired,Acquired,Acquired,Acquired,,,,4.420624E1,9.6427464E1,2.4461076799999998E2,1.77536992E2,9.150468E1,2.87455808E2,1.15032384E2,2.7509184E2,2.2099915199999998E2,,,,2.2219932E1,1.4052527E1,2.171414E1,1.5904399999999999E1,5.7036488E1,2.6830143999999997E1,8.578132E1,6.2359936E1,7.475959E0,,,,2,12,14,21,25,26,29,31,32,,,,2,3,1,1,1,13,11,5,3,,,,
1571796338,2019-10-23 02:05:38.746,Acquired,Acquired,Acquired,Not acquired,Acquired,Acquired,Acquired,Acquired,Acquired,,,,4.420624E1,9.6427464E1,2.4461076799999998E2,1.77536992E2,9.150468E1,2.87455808E2,1.15032384E2,2.7509184E2,2.2099915199999998E2,,,,2.2219932E1,1.4052527E1,2.171414E1,1.5904399999999999E1,5.7036488E1,2.6830143999999997E1,8.578132E1,6.2359936E1,7.475959E0,,,,2,12,14,21,25,26,29,31,32,,,,2,3,1,1,1,13,11,5,3,,,,
1571796398,2019-10-23 02:06:38.746,Acquired,Acquired,Acquired,Not acquired,Acquired,Acquired,Acquired,Acquired,Acquired,,,,4.3931028E1,9.670301599999999E1,2.4426065599999998E2,1.77455696E2,9.1962656E1,2.87666272E2,1.08534272E2,2.74137504E2,2.2075575999999998E2,,,,2.1936128E1,1.3694089E1,2.138092E1,1.6355242999999998E1,5.6620115999999996E1,2.7225293999999998E1,8.5651152E1,6.253704E1,7.11306E0,,,,2,12,14,21,25,26,29,31,32,,,,2,2,1,1,3,9,8,2,1,,,,
1571796458,2019-10-23 02:07:38.746,Acquired,Acquired,Acquired,Not acquired,Acquired,Acquired,Acquired,Acquired,Acquired,,,,4.3931028E1,9.670301599999999E1,2.4426065599999998E2,1.77455696E2,9.1962656E1,2.87666272E2,1.08534272E2,2.74137504E2,2.2075575999999998E2,,,,2.1936128E1,1.3694089E1,2.138092E1,1.6355242999999998E1,5.6620115999999996E1,2.7225293999999998E1,8.5651152E1,6.253704E1,7.11306E0,,,,2,12,14,21,25,26,29,31,32,,,,2,2,1,1,3,9,8,2,1,,,,
1571796518,2019-10-23 02:08:38.746,Acquired,Acquired,Acquired,Not acquired,Acquired,Acquired,Acquired,Acquired,Acquired,,,,4.3931028E1,9.670301599999999E1,2.4426065599999998E2,1.77455696E2,9.1962656E1,2.87666272E2,1.08534272E2,2.74137504E2,2.2075575999999998E2,,,,2.1936128E1,1.3694089E1,2.138092E1,1.6355242999999998E1,5.6620115999999996E1,2.7225293999999998E1,8.5651152E1,6.253704E1,7.11306E0,,,,2,12,14,21,25,26,29,31,32,,,,2,2,1,1,3,9,8,2,1,,,,
1571796578,2019-10-23 02:09:38.746,Acquired,Acquired,Acquired,Not acquired,Acquired,Acquired,Acquired,Acquired,Acquired,,,,4.3931028E1,9.670301599999999E1,2.4426065599999998E2,1.77455696E2,9.1962656E1,2.87666272E2,1.08534272E2,2.74137504E2,2.2075575999999998E2,,,,2.1936128E1,1.3694089E1,2.138092E1,1.6355242999999998E1,5.6620115999999996E1,2.7225293999999998E1,8.5651152E1,6.253704E1,7.11306E0,,,,2,12,14,21,25,26,29,31,32,,,,2,2,1,1,3,9,8,2,1,,,,
1571796638,2019-10-23 02:10:38.746,Acquired,Acquired,Acquired,Not acquired,Acquired,Acquired,Acquired,Acquired,Acquired,,,,4.3931028E1,9.670301599999999E1,2.4426065599999998E2,1.77455696E2,9.1962656E1,2.87666272E2,1.08534272E2,2.74137504E2,2.2075575999999998E2,,,,2.1936128E1,1.3694089E1,2.138092E1,1.6355242999999998E1,5.6620115999999996E1,2.7225293999999998E1,8.5651152E1,6.253704E1,7.11306E0,,,,2,12,14,21,25,26,29,31,32,,,,2,2,1,1,3,9,8,2,1,,,,
1571796698,2019-10-23 02:11:38.746,Acquired,Acquired,Acquired,Not acquired,Acquired,Acquired,Acquired,Acquired,Acquired,,,,4.3931028E1,9.670301599999999E1,2.4426065599999998E2,1.77455696E2,9.1962656E1,2.87666272E2,1.08534272E2,2.74137504E2,2.2075575999999998E2,,,,2.1936128E1,1.3694089E1,2.138092E1,1.6355242999999998E1,5.6620115999999996E1,2.7225293999999998E1,8.5651152E1,6.253704E1,7.11306E0,,,,2,12,14,21,25,26,29,31,32,,,,2,2,1,1,3,9,8,2,1,,,,
1571796758,2019-10-23 02:12:38.746,Acquired,Acquired,Acquired,Not acquired,Acquired,Acquired,Acquired,Acquired,Acquired,,,,4.3931028E1,9.670301599999999E1,2.4426065599999998E2,1.77455696E2,9.1962656E1,2.87666272E2,1.08534272E2,2.74137504E2,2.2075575999999998E2,,,,2.1936128E1,1.3694089E1,2.138092E1,1.6355242999999998E1,5.6620115999999996E1,2.7225293999999998E1,8.5651152E1,6.253704E1,7.11306E0,,,,2,12,14,21,25,26,29,31,32,,,,2,2,1,1,3,9,8,2,1,,,,
1571796818,2019-10-23 02:13:38.746,Acquired,Acquired,Acquired,Not acquired,Acquired,Acquired,Acquired,Acquired,Acquired,,,,4.3931028E1,9.670301599999999E1,2.4426065599999998E2,1.77455696E2,9.1962656E1,2.87666272E2,1.08534272E2,2.74137504E2,2.2075575999999998E2,,,,2.1936128E1,1.3694089E1,2.138092E1,1.6355242999999998E1,5.6620115999999996E1,2.7225293999999998E1,8.5651152E1,6.253704E1,7.11306E0,,,,2,12,14,21,25,26,29,31,32,,,,2,2,1,1,3,9,8,2,1,,,,
1571796878,2019-10-23 02:14:38.746,Acquired,Acquired,Acquired,Not acquired,Acquired,Acquired,Acquired,Acquired,Acquired,,,,4.3931028E1,9.670301599999999E1,2.4426065599999998E2,1.77455696E2,9.1962656E1,2.87666272E2,1.08534272E2,2.74137504E2,2.2075575999999998E2,,,,2.1936128E1,1.3694089E1,2.138092E1,1.6355242999999998E1,5.6620115999999996E1,2.7225293999999998E1,8.5651152E1,6.253704E1,7.11306E0,,,,2,12,14,21,25,26,29,31,32,,,,2,2,1,1,3,9,8,2,1,,,,
1571796938,2019-10-23 02:15:38.746,Acquired,Acquired,Acquired,Not acquired,Acquired,Acquired,Acquired,Acquired,Acquired,,,,4.3931028E1,9.670301599999999E1,2.4426065599999998E2,1.77455696E2,9.1962656E1,2.87666272E2,1.08534272E2,2.74137504E2,2.2075575999999998E2,,,,2.1936128E1,1.3694089E1,2.138092E1,1.6355242999999998E1,5.6620115999999996E1,2.7225293999999998E1,8.5651152E1,6.253704E1,7.11306E0,,,,2,12,14,21,25,26,29,31,32,,,,2,2,1,1,3,9,8,2,1,,,,
1571796998,2019-10-23 02:16:38.746,Acquired,Acquired,Acquired,Not acquired,Acquired,Acquired,Acquired,Acquired,Acquired,,,,4.3931028E1,9.670301599999999E1,2.4426065599999998E2,1.77455696E2,9.1962656E1,2.87666272E2,1.08534272E2,2.74137504E2,2.2075575999999998E2,,,,2.1936128E1,1.3694089E1,2.138092E1,1.6355242999999998E1,5.6620115999999996E1,2.7225293999999998E1,8.5651152E1,6.253704E1,7.11306E0,,,,2,12,14,21,25,26,29,31,32,,,,2,2,1,1,3,9,8,2,1,,,,
1571797058,2019-10-23 02:17:38.746,Acquired,Acquired,Acquired,Not acquired,Acquired,Acquired,Acquired,Acquired,Acquired,,,,4.3931028E1,9.670301599999999E1,2.4426065599999998E2,1.77455696E2,9.1962656E1,2.87666272E2,1.08534272E2,2.74137504E2,2.2075575999999998E2,,,,2.1936128E1,1.3694089E1,2.138092E1,1.6355242999999998E1,5.6620115999999996E1,2.7225293999999998E1,8.5651152E1,6.253704E1,7.11306E0,,,,2,12,14,21,25,26,29,31,32,,,,2,2,1,1,3,9,8,2,1,,,,
1571797118,2019-10-23 02:18:38.748,Acquired,Acquired,Acquired,Not acquired,Acquired,Acquired,Acquired,Acquired,Acquired,,,,4.3931028E1,9.670301599999999E1,2.4426065599999998E2,1.77455696E2,9.1962656E1,2.87666272E2,1.08534272E2,2.74137504E2,2.2075575999999998E2,,,,2.1936128E1,1.3694089E1,2.138092E1,1.6355242999999998E1,5.6620115999999996E1,2.7225293999999998E1,8.5651152E1,6.253704E1,7.11306E0,,,,2,12,14,21,25,26,29,31,32,,,,2,2,1,1,3,9,8,2,1,,,,
1571797178,2019-10-23 02:19:38.746,Acquired,Acquired,Acquired,Not acquired,Acquired,Acquired,Acquired,Acquired,Acquired,,,,4.3931028E1,9.670301599999999E1,2.4426065599999998E2,1.77455696E2,9.1962656E1,2.87666272E2,1.08534272E2,2.74137504E2,2.2075575999999998E2,,,,2.1936128E1,1.3694089E1,2.138092E1,1.6355242999999998E1,5.6620115999999996E1,2.7225293999999998E1,8.5651152E1,6.253704E1,7.11306E0,,,,2,12,14,21,25,26,29,31,32,,,,2,2,1,1,3,9,8,2,1,,,,
1571797238,2019-10-23 02:20:38.746,Acquired,Acquired,Acquired,Not acquired,Acquired,Acquired,Acquired,Acquired,Acquired,,,,4.3931028E1,9.670301599999999E1,2.4426065599999998E2,1.77455696E2,9.1962656E1,2.87666272E2,1.08534272E2,2.74137504E2,2.2075575999999998E2,,,,2.1936128E1,1.3694089E1,2.138092E1,1.6355242999999998E1,5.6620115999999996E1,2.7225293999999998E1,8.5651152E1,6.253704E1,7.11306E0,,,,2,12,14,21,25,26,29,31,32,,,,2,2,1,1,3,9,8,2,1,,,,
1571797298,2019-10-23 02:21:38.746,Acquired,Acquired,Acquired,Not acquired,Acquired,Acquired,Acquired,Acquired,Acquired,,,,4.3931028E1,9.670301599999999E1,2.4426065599999998E2,1.77455696E2,9.1962656E1,2.87666272E2,1.08534272E2,2.74137504E2,2.2075575999999998E2,,,,2.1936128E1,1.3694089E1,2.138092E1,1.6355242999999998E1,5.6620115999999996E1,2.7225293999999998E1,8.5651152E1,6.253704E1,7.11306E0,,,,2,12,14,21,25,26,29,31,32,,,,2,2,1,1,3,9,8,2,1,,,,
1571797358,2019-10-23 02:22:38.746,Acquired,Acquired,Acquired,Not acquired,Acquired,Acquired,Acquired,Acquired,Acquired,,,,4.3931028E1,9.670301599999999E1,2.4426065599999998E2,1.77455696E2,9.1962656E1,2.87666272E2,1.08534272E2,2.74137504E2,2.2075575999999998E2,,,,2.1936128E1,1.3694089E1,2.138092E1,1.6355242999999998E1,5.6620115999999996E1,2.7225293999999998E1,8.5651152E1,6.253704E1,7.11306E0,,,,2,12,14,21,25,26,29,31,32,,,,2,2,1,1,3,9,8,2,1,,,,
1571797418,2019-10-23 02:23:38.748,Acquired,Acquired,Acquired,Not acquired,Acquired,Acquired,Acquired,Acquired,Acquired,,,,4.3931028E1,9.670301599999999E1,2.4426065599999998E2,1.77455696E2,9.1962656E1,2.87666272E2,1.08534272E2,2.74137504E2,2.2075575999999998E2,,,,2.1936128E1,1.3694089E1,2.138092E1,1.6355242999999998E1,5.6620115999999996E1,2.7225293999999998E1,8.5651152E1,6.253704E1,7.11306E0,,,,2,12,14,21,25,26,29,31,32,,,,2,2,1,1,3,9,8,2,1,,,,
1571797478,2019-10-23 02:24:38.746,Acquired,Acquired,Acquired,Not acquired,Acquired,Acquired,Acquired,Acquired,Acquired,,,,4.3931028E1,9.670301599999999E1,2.4426065599999998E2,1.77455696E2,9.1962656E1,2.87666272E2,1.08534272E2,2.74137504E2,2.2075575999999998E2,,,,2.1936128E1,1.3694089E1,2.138092E1,1.6355242999999998E1,5.6620115999999996E1,2.7225293999999998E1,8.5651152E1,6.253704E1,7.11306E0,,,,2,12,14,21,25,26,29,31,32,,,,2,2,1,1,3,9,8,2,1,,,,
1571797538,2019-10-23 02:25:38.746,Acquired,Acquired,Acquired,Not acquired,Acquired,Acquired,Acquired,Acquired,Acquired,,,,4.3931028E1,9.670301599999999E1,2.4426065599999998E2,1.77455696E2,9.1962656E1,2.87666272E2,1.08534272E2,2.74137504E2,2.2075575999999998E2,,,,2.1936128E1,1.3694089E1,2.138092E1,1.6355242999999998E1,5.6620115999999996E1,2.7225293999999998E1,8.5651152E1,6.253704E1,7.11306E0,,,,2,12,14,21,25,26,29,31,32,,,,2,2,1,1,3,9,8,2,1,,,,
1571797598,2019-10-23 02:26:38.746,Acquired,Acquired,Acquired,Not acquired,Acquired,Acquired,Acquired,Acquired,Acquired,,,,4.3931028E1,9.670301599999999E1,2.4426065599999998E2,1.77455696E2,9.1962656E1,2.87666272E2,1.08534272E2,2.74137504E2,2.2075575999999998E2,,,,2.1936128E1,1.3694089E1,2.138092E1,1.6355242999999998E1,5.6620115999999996E1,2.7225293999999998E1,8.5651152E1,6.253704E1,7.11306E0,,,,2,12,14,21,25,26,29,31,32,,,,2,2,1,1,3,9,8,2,1,,,,
1571797658,2019-10-23 02:27:38.746,Acquired,Acquired,Acquired,Not acquired,Acquired,Acquired,Acquired,Acquired,Acquired,,,,4.3931028E1,9.670301599999999E1,2.4426065599999998E2,1.77455696E2,9.1962656E1,2.87666272E2,1.08534272E2,2.74137504E2,2.2075575999999998E2,,,,2.1936128E1,1.3694089E1,2.138092E1,1.6355242999999998E1,5.6620115999999996E1,2.7225293999999998E1,8.5651152E1,6.253704E1,7.11306E0,,,,2,12,14,21,25,26,29,31,32,,,,2,2,1,1,3,9,8,2,1,,,,
1571797718,2019-10-23 02:28:38.746,Acquired,Acquired,Acquired,Not acquired,Acquired,Acquired,Acquired,Acquired,Acquired,,,,4.3931028E1,9.670301599999999E1,2.4426065599999998E2,1.77455696E2,9.1962656E1,2.87666272E2,1.08534272E2,2.74137504E2,2.2075575999999998E2,,,,2.1936128E1,1.3694089E1,2.138092E1,1.6355242999999998E1,5.6620115999999996E1,2.7225293999999998E1,8.5651152E1,6.253704E1,7.11306E0,,,,2,12,14,21,25,26,29,31,32,,,,2,2,1,1,3,9,8,2,1,,,,
1571797778,2019-10-23 02:29:38.746,Acquired,Acquired,Acquired,Not acquired,Acquired,Acquired,Acquired,Acquired,Acquired,,,,4.3931028E1,9.670301599999999E1,2.4426065599999998E2,1.77455696E2,9.1962656E1,2.87666272E2,1.08534272E2,2.74137504E2,2.2075575999999998E2,,,,2.1936128E1,1.3694089E1,2.138092E1,1.6355242999999998E1,5.6620115999999996E1,2.7225293999999998E1,8.5651152E1,6.253704E1,7.11306E0,,,,2,12,14,21,25,26,29,31,32,,,,2,2,1,1,3,9,8,2,1,,,,
1571797838,2019-10-23 02:30:38.746,Acquired,Acquired,Acquired,Not acquired,Acquired,Acquired,Acquired,Acquired,Acquired,,,,4.3931028E1,9.670301599999999E1,2.4426065599999998E2,1.77455696E2,9.1962656E1,2.87666272E2,1.08534272E2,2.74137504E2,2.2075575999999998E2,,,,2.1936128E1,1.3694089E1,2.138092E1,1.6355242999999998E1,5.6620115999999996E1,2.7225293999999998E1,8.5651152E1,6.253704E1,7.11306E0,,,,2,12,14,21,25,26,29,31,32,,,,2,2,1,1,3,9,8,2,1,,,,
1571797898,2019-10-23 02:31:38.746,Acquired,Acquired,Acquired,Not acquired,Acquired,Acquired,Acquired,Acquired,Acquired,,,,4.3931028E1,9.670301599999999E1,2.4426065599999998E2,1.77455696E2,9.1962656E1,2.87666272E2,1.08534272E2,2.74137504E2,2.2075575999999998E2,,,,2.1936128E1,1.3694089E1,2.138092E1,1.6355242999999998E1,5.6620115999999996E1,2.7225293999999998E1,8.5651152E1,6.253704E1,7.11306E0,,,,2,12,14,21,25,26,29,31,32,,,,2,2,1,1,3,9,8,2,1,,,,
1571797958,2019-10-23 02:32:38.746,Acquired,Acquired,Acquired,Not acquired,Acquired,Acquired,Acquired,Acquired,Acquired,,,,4.3931028E1,9.670301599999999E1,2.4426065599999998E2,1.77455696E2,9.1962656E1,2.87666272E2,1.08534272E2,2.74137504E2,2.2075575999999998E2,,,,2.1936128E1,1.3694089E1,2.138092E1,1.6355242999999998E1,5.6620115999999996E1,2.7225293999999998E1,8.5651152E1,6.253704E1,7.11306E0,,,,2,12,14,21,25,26,29,31,32,,,,2,2,1,1,3,9,8,2,1,,,,
1571798018,2019-10-23 02:33:38.746,Acquired,Acquired,Acquired,Not acquired,Acquired,Acquired,Acquired,Acquired,Acquired,,,,4.3931028E1,9.670301599999999E1,2.4426065599999998E2,1.77455696E2,9.1962656E1,2.87666272E2,1.08534272E2,2.74137504E2,2.2075575999999998E2,,,,2.1936128E1,1.3694089E1,2.138092E1,1.6355242999999998E1,5.6620115999999996E1,2.7225293999999998E1,8.5651152E1,6.253704E1,7.11306E0,,,,2,12,14,21,25,26,29,31,32,,,,2,2,1,1,3,9,8,2,1,,,,
1571798078,2019-10-23 02:34:38.746,Acquired,Acquired,Acquired,Not acquired,Acquired,Acquired,Acquired,Acquired,Acquired,,,,4.3931028E1,9.670301599999999E1,2.4426065599999998E2,1.77455696E2,9.1962656E1,2.87666272E2,1.08534272E2,2.74137504E2,2.2075575999999998E2,,,,2.1936128E1,1.3694089E1,2.138092E1,1.6355242999999998E1,5.6620115999999996E1,2.7225293999999998E1,8.5651152E1,6.253704E1,7.11306E0,,,,2,12,14,21,25,26,29,31,32,,,,2,2,1,1,3,9,8,2,1,,,,
1571798138,2019-10-23 02:35:38.746,Acquired,Acquired,Acquired,Not acquired,Acquired,Acquired,Acquired,Acquired,Acquired,,,,4.3931028E1,9.670301599999999E1,2.4426065599999998E2,1.77455696E2,9.1962656E1,2.87666272E2,1.08534272E2,2.74137504E2,2.2075575999999998E2,,,,2.1936128E1,1.3694089E1,2.138092E1,1.6355242999999998E1,5.6620115999999996E1,2.7225293999999998E1,8.5651152E1,6.253704E1,7.11306E0,,,,2,12,14,21,25,26,29,31,32,,,,2,2,1,1,3,9,8,2,1,,,,
1571798198,2019-10-23 02:36:38.746,Acquired,Acquired,Acquired,Not acquired,Acquired,Acquired,Acquired,Acquired,Acquired,,,,4.3931028E1,9.670301599999999E1,2.4426065599999998E2,1.77455696E2,9.1962656E1,2.87666272E2,1.08534272E2,2.74137504E2,2.2075575999999998E2,,,,2.1936128E1,1.3694089E1,2.138092E1,1.6355242999999998E1,5.6620115999999996E1,2.7225293999999998E1,8.5651152E1,6.253704E1,7.11306E0,,,,2,12,14,21,25,26,29,31,32,,,,2,2,1,1,3,9,8,2,1,,,,
1571798258,2019-10-23 02:37:38.746,Acquired,Acquired,Acquired,Not acquired,Acquired,Acquired,Acquired,Acquired,Acquired,,,,4.3931028E1,9.670301599999999E1,2.4426065599999998E2,1.77455696E2,9.1962656E1,2.87666272E2,1.08534272E2,2.74137504E2,2.2075575999999998E2,,,,2.1936128E1,1.3694089E1,2.138092E1,1.6355242999999998E1,5.6620115999999996E1,2.7225293999999998E1,8.5651152E1,6.253704E1,7.11306E0,,,,2,12,14,21,25,26,29,31,32,,,,2,2,1,1,3,9,8,2,1,,,,
1571798318,2019-10-23 02:38:38.746,Acquired,Acquired,Acquired,Not acquired,Acquired,Acquired,Acquired,Acquired,Acquired,,,,4.3931028E1,9.670301599999999E1,2.4426065599999998E2,1.77455696E2,9.1962656E1,2.87666272E2,1.08534272E2,2.74137504E2,2.2075575999999998E2,,,,2.1936128E1,1.3694089E1,2.138092E1,1.6355242999999998E1,5.6620115999999996E1,2.7225293999999998E1,8.5651152E1,6.253704E1,7.11306E0,,,,2,12,14,21,25,26,29,31,32,,,,2,2,1,1,3,9,8,2,1,,,,
1571798378,2019-10-23 02:39:38.746,Acquired,Acquired,Acquired,Not acquired,Acquired,Acquired,Acquired,Acquired,Acquired,,,,4.3931028E1,9.670301599999999E1,2.4426065599999998E2,1.77455696E2,9.1962656E1,2.87666272E2,1.08534272E2,2.74137504E2,2.2075575999999998E2,,,,2.1936128E1,1.3694089E1,2.138092E1,1.6355242999999998E1,5.6620115999999996E1,2.7225293999999998E1,8.5651152E1,6.253704E1,7.11306E0,,,,2,12,14,21,25,26,29,31,32,,,,2,2,1,1,3,9,8,2,1,,,,
1571798438,2019-10-23 02:40:38.747,Acquired,Acquired,Acquired,Not acquired,Acquired,Acquired,Acquired,Acquired,Acquired,,,,4.3931028E1,9.670301599999999E1,2.4426065599999998E2,1.77455696E2,9.1962656E1,2.87666272E2,1.08534272E2,2.74137504E2,2.2075575999999998E2,,,,2.1936128E1,1.3694089E1,2.138092E1,1.6355242999999998E1,5.6620115999999996E1,2.7225293999999998E1,8.5651152E1,6.253704E1,7.11306E0,,,,2,12,14,21,25,26,29,31,32,,,,2,2,1,1,3,9,8,2,1,,,,
1571798498,2019-10-23 02:41:38.746,Acquired,Not acquired,Acquired,Acquired,Acquired,Acquired,Not acquired,Not acquired,Not acquired,Acquired,,,2.91930144E2,1.7326643199999998E2,1.09177208E2,2.9578950399999997E2,5.619314E1,2.2798092799999998E2,3.5690276E1,6.7814032E1,2.303592E2,3.2245660799999996E2,,,1.9088766E1,3.8120016E1,3.74767E1,4.6491644E1,6.5170628E1,5.8717203999999995E1,6.822235E0,1.1704507E1,5.300489E0,8.441775999999999E0,,,16,21,25,26,29,31,2,5,14,23,,,9,0,2,12,7,1,0,0,0,5,,,
1571798558,2019-10-23 02:42:38.746,Not acquired,Acquired,Acquired,Acquired,Acquired,Not acquired,Acquired,Acquired,Not acquired,,,,5.3173663999999995E1,2.984536E2,1.66591376E2,1.18966392E2,2.97364896E2,6.0904888E1,2.1020192E2,3.0900272E2,2.52515648E2,,,,1.4907159E1,3.3284642E1,5.4634456E1,2.3582646E1,6.1977636E1,4.9400892E1,4.5551412E1,6.879690999999999E0,6.531268E0,,,,5,16,21,25,26,29,31,23,27,,,,0,7,4,2,8,0,5,2,0,,,,
1571798618,2019-10-23 02:43:38.746,Not acquired,Acquired,Acquired,Acquired,Acquired,Not acquired,Acquired,Acquired,Not acquired,,,,5.3173663999999995E1,2.984536E2,1.66591376E2,1.18966392E2,2.97364896E2,6.0904888E1,2.1020192E2,3.0900272E2,2.52515648E2,,,,1.4907159E1,3.3284642E1,5.4634456E1,2.3582646E1,6.1977636E1,4.9400892E1,4.5551412E1,6.879690999999999E0,6.531268E0,,,,5,16,21,25,26,29,31,23,27,,,,0,7,4,2,8,0,5,2,0,,,,
1571798678,2019-10-23 02:44:38.746,Not acquired,Acquired,Acquired,Acquired,Acquired,Not acquired,Acquired,Acquired,Not acquired,,,,5.3173663999999995E1,2.984536E2,1.66591376E2,1.18966392E2,2.97364896E2,6.0904888E1,2.1020192E2,3.0900272E2,2.52515648E2,,,,1.4907159E1,3.3284642E1,5.4634456E1,2.3582646E1,6.1977636E1,4.9400892E1,4.5551412E1,6.879690999999999E0,6.531268E0,,,,5,16,21,25,26,29,31,23,27,,,,0,7,4,2,8,0,5,2,0,,,,
1571798738,2019-10-23 02:45:38.746,Not acquired,Acquired,Acquired,Acquired,Acquired,Not acquired,Acquired,Acquired,Not acquired,,,,5.3173663999999995E1,2.984536E2,1.66591376E2,1.18966392E2,2.97364896E2,6.0904888E1,2.1020192E2,3.0900272E2,2.52515648E2,,,,1.4907159E1,3.3284642E1,5.4634456E1,2.3582646E1,6.1977636E1,4.9400892E1,4.5551412E1,6.879690999999999E0,6.531268E0,,,,5,16,21,25,26,29,31,23,27,,,,0,7,4,2,8,0,5,2,0,,,,
1571798798,2019-10-23 02:46:38.746,Not acquired,Acquired,Acquired,Acquired,Acquired,Not acquired,Acquired,Acquired,Not acquired,,,,5.3173663999999995E1,2.984536E2,1.66591376E2,1.18966392E2,2.97364896E2,6.0904888E1,2.1020192E2,3.0900272E2,2.52515648E2,,,,1.4907159E1,3.3284642E1,5.4634456E1,2.3582646E1,6.1977636E1,4.9400892E1,4.5551412E1,6.879690999999999E0,6.531268E0,,,,5,16,21,25,26,29,31,23,27,,,,0,7,4,2,8,0,5,2,0,,,,
1571798858,2019-10-23 02:47:38.746,Not acquired,Acquired,Acquired,Acquired,Acquired,Not acquired,Acquired,Acquired,Not acquired,,,,5.3173663999999995E1,2.984536E2,1.66591376E2,1.18966392E2,2.97364896E2,6.0904888E1,2.1020192E2,3.0900272E2,2.52515648E2,,,,1.4907159E1,3.3284642E1,5.4634456E1,2.3582646E1,6.1977636E1,4.9400892E1,4.5551412E1,6.879690999999999E0,6.531268E0,,,,5,16,21,25,26,29,31,23,27,,,,0,7,4,2,8,0,5,2,0,,,,
1571798918,2019-10-23 02:48:38.746,Not acquired,Acquired,Acquired,Acquired,Acquired,Not acquired,Acquired,Acquired,Not acquired,,,,5.3173663999999995E1,2.984536E2,1.66591376E2,1.18966392E2,2.97364896E2,6.0904888E1,2.1020192E2,3.0900272E2,2.52515648E2,,,,1.4907159E1,3.3284642E1,5.4634456E1,2.3582646E1,6.1977636E1,4.9400892E1,4.5551412E1,6.879690999999999E0,6.531268E0,,,,5,16,21,25,26,29,31,23,27,,,,0,7,4,2,8,0,5,2,0,,,,
1571798978,2019-10-23 02:49:38.746,Not acquired,Acquired,Acquired,Acquired,Acquired,Not acquired,Acquired,Acquired,Not acquired,,,,5.3173663999999995E1,2.984536E2,1.66591376E2,1.18966392E2,2.97364896E2,6.0904888E1,2.1020192E2,3.0900272E2,2.52515648E2,,,,1.4907159E1,3.3284642E1,5.4634456E1,2.3582646E1,6.1977636E1,4.9400892E1,4.5551412E1,6.879690999999999E0,6.531268E0,,,,5,16,21,25,26,29,31,23,27,,,,0,7,4,2,8,0,5,2,0,,,,
1571799038,2019-10-23 02:50:38.746,Not acquired,Acquired,Acquired,Acquired,Acquired,Not acquired,Acquired,Acquired,Not acquired,,,,5.3173663999999995E1,2.984536E2,1.66591376E2,1.18966392E2,2.97364896E2,6.0904888E1,2.1020192E2,3.0900272E2,2.52515648E2,,,,1.4907159E1,3.3284642E1,5.4634456E1,2.3582646E1,6.1977636E1,4.9400892E1,4.5551412E1,6.879690999999999E0,6.531268E0,,,,5,16,21,25,26,29,31,23,27,,,,0,7,4,2,8,0,5,2,0,,,,
1571799098,2019-10-23 02:51:38.746,Not acquired,Acquired,Acquired,Acquired,Acquired,Not acquired,Acquired,Acquired,Not acquired,,,,5.3173663999999995E1,2.984536E2,1.66591376E2,1.18966392E2,2.97364896E2,6.0904888E1,2.1020192E2,3.0900272E2,2.52515648E2,,,,1.4907159E1,3.3284642E1,5.4634456E1,2.3582646E1,6.1977636E1,4.9400892E1,4.5551412E1,6.879690999999999E0,6.531268E0,,,,5,16,21,25,26,29,31,23,27,,,,0,7,4,2,8,0,5,2,0,,,,
1571799158,2019-10-23 02:52:38.746,Not acquired,Acquired,Acquired,Acquired,Acquired,Not acquired,Acquired,Acquired,Not acquired,,,,5.3173663999999995E1,2.984536E2,1.66591376E2,1.18966392E2,2.97364896E2,6.0904888E1,2.1020192E2,3.0900272E2,2.52515648E2,,,,1.4907159E1,3.3284642E1,5.4634456E1,2.3582646E1,6.1977636E1,4.9400892E1,4.5551412E1,6.879690999999999E0,6.531268E0,,,,5,16,21,25,26,29,31,23,27,,,,0,7,4,2,8,0,5,2,0,,,,
1571799218,2019-10-23 02:53:38.746,Not acquired,Acquired,Acquired,Acquired,Acquired,Not acquired,Acquired,Acquired,Not acquired,,,,5.3173663999999995E1,2.984536E2,1.66591376E2,1.18966392E2,2.97364896E2,6.0904888E1,2.1020192E2,3.0900272E2,2.52515648E2,,,,1.4907159E1,3.3284642E1,5.4634456E1,2.3582646E1,6.1977636E1,4.9400892E1,4.5551412E1,6.879690999999999E0,6.531268E0,,,,5,16,21,25,26,29,31,23,27,,,,0,7,4,2,8,0,5,2,0,,,,
1571799278,2019-10-23 02:54:38.746,Not acquired,Acquired,Acquired,Acquired,Acquired,Not acquired,Acquired,Acquired,Not acquired,,,,5.3173663999999995E1,2.984536E2,1.66591376E2,1.18966392E2,2.97364896E2,6.0904888E1,2.1020192E2,3.0900272E2,2.52515648E2,,,,1.4907159E1,3.3284642E1,5.4634456E1,2.3582646E1,6.1977636E1,4.9400892E1,4.5551412E1,6.879690999999999E0,6.531268E0,,,,5,16,21,25,26,29,31,23,27,,,,0,7,4,2,8,0,5,2,0,,,,
1571799338,2019-10-23 02:55:38.746,Not acquired,Acquired,Acquired,Acquired,Acquired,Not acquired,Acquired,Acquired,Not acquired,,,,5.3173663999999995E1,2.984536E2,1.66591376E2,1.18966392E2,2.97364896E2,6.0904888E1,2.1020192E2,3.0900272E2,2.52515648E2,,,,1.4907159E1,3.3284642E1,5.4634456E1,2.3582646E1,6.1977636E1,4.9400892E1,4.5551412E1,6.879690999999999E0,6.531268E0,,,,5,16,21,25,26,29,31,23,27,,,,0,7,4,2,8,0,5,2,0,,,,
1571799398,2019-10-23 02:56:38.746,Not acquired,Acquired,Acquired,Acquired,Acquired,Not acquired,Acquired,Acquired,Not acquired,,,,5.3173663999999995E1,2.984536E2,1.66591376E2,1.18966392E2,2.97364896E2,6.0904888E1,2.1020192E2,3.0900272E2,2.52515648E2,,,,1.4907159E1,3.3284642E1,5.4634456E1,2.3582646E1,6.1977636E1,4.9400892E1,4.5551412E1,6.879690999999999E0,6.531268E0,,,,5,16,21,25,26,29,31,23,27,,,,0,7,4,2,8,0,5,2,0,,,,
1571799458,2019-10-23 02:57:38.746,Not acquired,Acquired,Acquired,Acquired,Acquired,Not acquired,Acquired,Acquired,Not acquired,,,,5.3173663999999995E1,2.984536E2,1.66591376E2,1.18966392E2,2.97364896E2,6.0904888E1,2.1020192E2,3.0900272E2,2.52515648E2,,,,1.4907159E1,3.3284642E1,5.4634456E1,2.3582646E1,6.1977636E1,4.9400892E1,4.5551412E1,6.879690999999999E0,6.531268E0,,,,5,16,21,25,26,29,31,23,27,,,,0,7,4,2,8,0,5,2,0,,,,
1571799518,2019-10-23 02:58:38.746,Not acquired,Acquired,Acquired,Acquired,Acquired,Not acquired,Acquired,Acquired,Not acquired,,,,5.3173663999999995E1,2.984536E2,1.66591376E2,1.18966392E2,2.97364896E2,6.0904888E1,2.1020192E2,3.0900272E2,2.52515648E2,,,,1.4907159E1,3.3284642E1,5.4634456E1,2.3582646E1,6.1977636E1,4.9400892E1,4.5551412E1,6.879690999999999E0,6.531268E0,,,,5,16,21,25,26,29,31,23,27,,,,0,7,4,2,8,0,5,2,0,,,,
1571799578,2019-10-23 02:59:38.746,Not acquired,Acquired,Acquired,Acquired,Acquired,Not acquired,Acquired,Acquired,Not acquired,,,,5.3173663999999995E1,2.984536E2,1.66591376E2,1.18966392E2,2.97364896E2,6.0904888E1,2.1020192E2,3.0900272E2,2.52515648E2,,,,1.4907159E1,3.3284642E1,5.4634456E1,2.3582646E1,6.1977636E1,4.9400892E1,4.5551412E1,6.879690999999999E0,6.531268E0,,,,5,16,21,25,26,29,31,23,27,,,,0,7,4,2,8,0,5,2,0,,,,
