Time(longsecs),Time(UTC),GPS Satellite Acquisition Flag 1,GPS Satellite Acquisition Flag 2,GPS Satellite Acquisition Flag 3,GPS Satellite Acquisition Flag 4,GPS Satellite Acquisition Flag 5,GPS Satellite Acquisition Flag 6,GPS Satellite Acquisition Flag 7,GPS Satellite Acquisition Flag 8,GPS Satellite Acquisition Flag 9,GPS Satellite Acquisition Flag 10,GPS Satellite Acquisition Flag 11,GPS Satellite Acquisition Flag 12,GPS Satellite Azimuth 1(Degrees),GPS Satellite Azimuth 2(Degrees),GPS Satellite Azimuth 3(Degrees),GPS Satellite Azimuth 4(Degrees),GPS Satellite Azimuth 5(Degrees),GPS Satellite Azimuth 6(Degrees),GPS Satellite Azimuth 7(Degrees),GPS Satellite Azimuth 8(Degrees),GPS Satellite Azimuth 9(Degrees),GPS Satellite Azimuth 10(Degrees),GPS Satellite Azimuth 11(Degrees),GPS Satellite Azimuth 12(Degrees),GPS Satellite Elevation 1(Degrees),GPS Satellite Elevation 2(Degrees),GPS Satellite Elevation 3(Degrees),GPS Satellite Elevation 4(Degrees),GPS Satellite Elevation 5(Degrees),GPS Satellite Elevation 6(Degrees),GPS Satellite Elevation 7(Degrees),GPS Satellite Elevation 8(Degrees),GPS Satellite Elevation 9(Degrees),GPS Satellite Elevation 10(Degrees),GPS Satellite Elevation 11(Degrees),GPS Satellite Elevation 12(Degrees),GPS Satellite PRN 1,GPS Satellite PRN 2,GPS Satellite PRN 3,GPS Satellite PRN 4,GPS Satellite PRN 5,GPS Satellite PRN 6,GPS Satellite PRN 7,GPS Satellite PRN 8,GPS Satellite PRN 9,GPS Satellite PRN 10,GPS Satellite PRN 11,GPS Satellite PRN 12,GPS Satellite Signal Level 1(AMU),GPS Satellite Signal Level 2(AMU),GPS Satellite Signal Level 3(AMU),GPS Satellite Signal Level 4(AMU),GPS Satellite Signal Level 5(AMU),GPS Satellite Signal Level 6(AMU),GPS Satellite Signal Level 7(AMU),GPS Satellite Signal Level 8(AMU),GPS Satellite Signal Level 9(AMU),GPS Satellite Signal Level 10(AMU),GPS Satellite Signal Level 11(AMU),GPS Satellite Signal Level 12(AMU),
1571821238,2019-10-23 09:00:38.786,Acquired,Acquired,Acquired,Not acquired,Acquired,Acquired,Acquired,Acquired,Acquired,Acquired,,,2.9218624E2,2.2203336E2,1.6497233599999998E2,5.1513963999999994E1,2.90188192E2,1.1000947199999999E2,2.2081719999999999E2,1.4776015999999998E2,3.02290752E2,7.7473856E1,,,6.1999691999999996E1,2.6553881999999998E1,5.506184E1,1.6380602E1,7.0370784E1,3.3735231999999996E1,4.9667584E1,2.0266938E1,2.7903062E1,3.5779376E1,,,1,3,8,10,11,14,22,27,28,32,,,4,4,5,0,7,3,1,2,15,3,,,
1571821298,2019-10-23 09:01:38.746,Acquired,Acquired,Acquired,Not acquired,Acquired,Acquired,Acquired,Acquired,Acquired,Acquired,,,2.9218624E2,2.2203336E2,1.6497233599999998E2,5.1513963999999994E1,2.90188192E2,1.1000947199999999E2,2.2081719999999999E2,1.4776015999999998E2,3.02290752E2,7.7473856E1,,,6.1999691999999996E1,2.6553881999999998E1,5.506184E1,1.6380602E1,7.0370784E1,3.3735231999999996E1,4.9667584E1,2.0266938E1,2.7903062E1,3.5779376E1,,,1,3,8,10,11,14,22,27,28,32,,,4,4,5,0,7,3,1,2,15,3,,,
1571821358,2019-10-23 09:02:38.746,Acquired,Acquired,Acquired,Not acquired,Acquired,Acquired,Acquired,Acquired,Acquired,Acquired,,,2.9218624E2,2.2203336E2,1.6497233599999998E2,5.1513963999999994E1,2.90188192E2,1.1000947199999999E2,2.2081719999999999E2,1.4776015999999998E2,3.02290752E2,7.7473856E1,,,6.1999691999999996E1,2.6553881999999998E1,5.506184E1,1.6380602E1,7.0370784E1,3.3735231999999996E1,4.9667584E1,2.0266938E1,2.7903062E1,3.5779376E1,,,1,3,8,10,11,14,22,27,28,32,,,4,4,5,0,7,3,1,2,15,3,,,
1571821418,2019-10-23 09:03:38.746,Acquired,Acquired,Acquired,Not acquired,Acquired,Acquired,Acquired,Acquired,Acquired,Acquired,,,2.9218624E2,2.2203336E2,1.6497233599999998E2,5.1513963999999994E1,2.90188192E2,1.1000947199999999E2,2.2081719999999999E2,1.4776015999999998E2,3.02290752E2,7.7473856E1,,,6.1999691999999996E1,2.6553881999999998E1,5.506184E1,1.6380602E1,7.0370784E1,3.3735231999999996E1,4.9667584E1,2.0266938E1,2.7903062E1,3.5779376E1,,,1,3,8,10,11,14,22,27,28,32,,,4,4,5,0,7,3,1,2,15,3,,,
1571821478,2019-10-23 09:04:38.746,Acquired,Acquired,Acquired,Not acquired,Acquired,Acquired,Acquired,Acquired,Acquired,Acquired,,,2.9218624E2,2.2203336E2,1.6497233599999998E2,5.1513963999999994E1,2.90188192E2,1.1000947199999999E2,2.2081719999999999E2,1.4776015999999998E2,3.02290752E2,7.7473856E1,,,6.1999691999999996E1,2.6553881999999998E1,5.506184E1,1.6380602E1,7.0370784E1,3.3735231999999996E1,4.9667584E1,2.0266938E1,2.7903062E1,3.5779376E1,,,1,3,8,10,11,14,22,27,28,32,,,4,4,5,0,7,3,1,2,15,3,,,
1571821538,2019-10-23 09:05:38.746,Acquired,Acquired,Acquired,Not acquired,Acquired,Acquired,Acquired,Acquired,Acquired,Acquired,,,2.9218624E2,2.2203336E2,1.6497233599999998E2,5.1513963999999994E1,2.90188192E2,1.1000947199999999E2,2.2081719999999999E2,1.4776015999999998E2,3.02290752E2,7.7473856E1,,,6.1999691999999996E1,2.6553881999999998E1,5.506184E1,1.6380602E1,7.0370784E1,3.3735231999999996E1,4.9667584E1,2.0266938E1,2.7903062E1,3.5779376E1,,,1,3,8,10,11,14,22,27,28,32,,,4,4,5,0,7,3,1,2,15,3,,,
1571821598,2019-10-23 09:06:38.746,Acquired,Acquired,Acquired,Not acquired,Acquired,Acquired,Acquired,Acquired,Acquired,Acquired,,,2.9218624E2,2.2203336E2,1.6497233599999998E2,5.1513963999999994E1,2.90188192E2,1.1000947199999999E2,2.2081719999999999E2,1.4776015999999998E2,3.02290752E2,7.7473856E1,,,6.1999691999999996E1,2.6553881999999998E1,5.506184E1,1.6380602E1,7.0370784E1,3.3735231999999996E1,4.9667584E1,2.0266938E1,2.7903062E1,3.5779376E1,,,1,3,8,10,11,14,22,27,28,32,,,4,4,5,0,7,3,1,2,15,3,,,
1571821658,2019-10-23 09:07:38.746,Acquired,Acquired,Acquired,Not acquired,Acquired,Acquired,Acquired,Acquired,Acquired,Acquired,,,2.9218624E2,2.2203336E2,1.6497233599999998E2,5.1513963999999994E1,2.90188192E2,1.1000947199999999E2,2.2081719999999999E2,1.4776015999999998E2,3.02290752E2,7.7473856E1,,,6.1999691999999996E1,2.6553881999999998E1,5.506184E1,1.6380602E1,7.0370784E1,3.3735231999999996E1,4.9667584E1,2.0266938E1,2.7903062E1,3.5779376E1,,,1,3,8,10,11,14,22,27,28,32,,,4,4,5,0,7,3,1,2,15,3,,,
1571821718,2019-10-23 09:08:38.746,Acquired,Acquired,Acquired,Not acquired,Acquired,Acquired,Acquired,Acquired,Acquired,Acquired,,,2.9218624E2,2.2203336E2,1.6497233599999998E2,5.1513963999999994E1,2.90188192E2,1.1000947199999999E2,2.2081719999999999E2,1.4776015999999998E2,3.02290752E2,7.7473856E1,,,6.1999691999999996E1,2.6553881999999998E1,5.506184E1,1.6380602E1,7.0370784E1,3.3735231999999996E1,4.9667584E1,2.0266938E1,2.7903062E1,3.5779376E1,,,1,3,8,10,11,14,22,27,28,32,,,4,4,5,0,7,3,1,2,15,3,,,
1571821778,2019-10-23 09:09:38.746,Acquired,Acquired,Acquired,Not acquired,Acquired,Acquired,Acquired,Acquired,Acquired,Acquired,,,2.9218624E2,2.2203336E2,1.6497233599999998E2,5.1513963999999994E1,2.90188192E2,1.1000947199999999E2,2.2081719999999999E2,1.4776015999999998E2,3.02290752E2,7.7473856E1,,,6.1999691999999996E1,2.6553881999999998E1,5.506184E1,1.6380602E1,7.0370784E1,3.3735231999999996E1,4.9667584E1,2.0266938E1,2.7903062E1,3.5779376E1,,,1,3,8,10,11,14,22,27,28,32,,,4,4,5,0,7,3,1,2,15,3,,,
1571821838,2019-10-23 09:10:38.748,Acquired,Acquired,Acquired,Not acquired,Acquired,Acquired,Acquired,Acquired,Acquired,Acquired,,,2.9218624E2,2.2203336E2,1.6497233599999998E2,5.1513963999999994E1,2.90188192E2,1.1000947199999999E2,2.2081719999999999E2,1.4776015999999998E2,3.02290752E2,7.7473856E1,,,6.1999691999999996E1,2.6553881999999998E1,5.506184E1,1.6380602E1,7.0370784E1,3.3735231999999996E1,4.9667584E1,2.0266938E1,2.7903062E1,3.5779376E1,,,1,3,8,10,11,14,22,27,28,32,,,4,4,5,0,7,3,1,2,15,3,,,
1571821898,2019-10-23 09:11:38.746,Acquired,Acquired,Acquired,Not acquired,Acquired,Acquired,Acquired,Acquired,Acquired,Acquired,,,2.9218624E2,2.2203336E2,1.6497233599999998E2,5.1513963999999994E1,2.90188192E2,1.1000947199999999E2,2.2081719999999999E2,1.4776015999999998E2,3.02290752E2,7.7473856E1,,,6.1999691999999996E1,2.6553881999999998E1,5.506184E1,1.6380602E1,7.0370784E1,3.3735231999999996E1,4.9667584E1,2.0266938E1,2.7903062E1,3.5779376E1,,,1,3,8,10,11,14,22,27,28,32,,,4,4,5,0,7,3,1,2,15,3,,,
1571821958,2019-10-23 09:12:38.746,Acquired,Acquired,Acquired,Not acquired,Acquired,Acquired,Acquired,Acquired,Acquired,Acquired,,,2.9218624E2,2.2203336E2,1.6497233599999998E2,5.1513963999999994E1,2.90188192E2,1.1000947199999999E2,2.2081719999999999E2,1.4776015999999998E2,3.02290752E2,7.7473856E1,,,6.1999691999999996E1,2.6553881999999998E1,5.506184E1,1.6380602E1,7.0370784E1,3.3735231999999996E1,4.9667584E1,2.0266938E1,2.7903062E1,3.5779376E1,,,1,3,8,10,11,14,22,27,28,32,,,4,4,5,0,7,3,1,2,15,3,,,
1571822018,2019-10-23 09:13:38.748,Acquired,Acquired,Acquired,Not acquired,Acquired,Acquired,Acquired,Acquired,Acquired,Acquired,,,2.9218624E2,2.2203336E2,1.6497233599999998E2,5.1513963999999994E1,2.90188192E2,1.1000947199999999E2,2.2081719999999999E2,1.4776015999999998E2,3.02290752E2,7.7473856E1,,,6.1999691999999996E1,2.6553881999999998E1,5.506184E1,1.6380602E1,7.0370784E1,3.3735231999999996E1,4.9667584E1,2.0266938E1,2.7903062E1,3.5779376E1,,,1,3,8,10,11,14,22,27,28,32,,,4,4,5,0,7,3,1,2,15,3,,,
1571822078,2019-10-23 09:14:38.746,Acquired,Acquired,Acquired,Not acquired,Acquired,Acquired,Acquired,Acquired,Acquired,Acquired,,,2.9218624E2,2.2203336E2,1.6497233599999998E2,5.1513963999999994E1,2.90188192E2,1.1000947199999999E2,2.2081719999999999E2,1.4776015999999998E2,3.02290752E2,7.7473856E1,,,6.1999691999999996E1,2.6553881999999998E1,5.506184E1,1.6380602E1,7.0370784E1,3.3735231999999996E1,4.9667584E1,2.0266938E1,2.7903062E1,3.5779376E1,,,1,3,8,10,11,14,22,27,28,32,,,4,4,5,0,7,3,1,2,15,3,,,
1571822138,2019-10-23 09:15:38.746,Acquired,Acquired,Acquired,Not acquired,Acquired,Acquired,Acquired,Acquired,Acquired,Acquired,,,2.9218624E2,2.2203336E2,1.6497233599999998E2,5.1513963999999994E1,2.90188192E2,1.1000947199999999E2,2.2081719999999999E2,1.4776015999999998E2,3.02290752E2,7.7473856E1,,,6.1999691999999996E1,2.6553881999999998E1,5.506184E1,1.6380602E1,7.0370784E1,3.3735231999999996E1,4.9667584E1,2.0266938E1,2.7903062E1,3.5779376E1,,,1,3,8,10,11,14,22,27,28,32,,,4,4,5,0,7,3,1,2,15,3,,,
1571822198,2019-10-23 09:16:38.746,Acquired,Acquired,Acquired,Not acquired,Acquired,Acquired,Acquired,Acquired,Acquired,Acquired,,,2.9218624E2,2.2203336E2,1.6497233599999998E2,5.1513963999999994E1,2.90188192E2,1.1000947199999999E2,2.2081719999999999E2,1.4776015999999998E2,3.02290752E2,7.7473856E1,,,6.1999691999999996E1,2.6553881999999998E1,5.506184E1,1.6380602E1,7.0370784E1,3.3735231999999996E1,4.9667584E1,2.0266938E1,2.7903062E1,3.5779376E1,,,1,3,8,10,11,14,22,27,28,32,,,4,4,5,0,7,3,1,2,15,3,,,
1571822258,2019-10-23 09:17:38.746,Acquired,Acquired,Acquired,Not acquired,Acquired,Acquired,Acquired,Acquired,Acquired,Acquired,,,2.9218624E2,2.2203336E2,1.6497233599999998E2,5.1513963999999994E1,2.90188192E2,1.1000947199999999E2,2.2081719999999999E2,1.4776015999999998E2,3.02290752E2,7.7473856E1,,,6.1999691999999996E1,2.6553881999999998E1,5.506184E1,1.6380602E1,7.0370784E1,3.3735231999999996E1,4.9667584E1,2.0266938E1,2.7903062E1,3.5779376E1,,,1,3,8,10,11,14,22,27,28,32,,,4,4,5,0,7,3,1,2,15,3,,,
1571822318,2019-10-23 09:18:38.747,Acquired,Acquired,Acquired,Acquired,Acquired,Acquired,Not acquired,Not acquired,Acquired,Acquired,,,2.92673504E2,2.22221216E2,1.6497639999999998E2,5.1567395999999995E1,2.90006624E2,1.09571888E2,2.2099656E2,1.4790033599999998E2,3.0184031999999996E2,7.6930672E1,,,6.2414032E1,2.6984831999999997E1,5.4568963999999994E1,1.5988717999999999E1,7.083503999999999E1,3.4007356E1,5.0129836E1,1.9841988E1,2.7974905999999997E1,3.5798656E1,,,1,3,8,10,11,14,22,27,28,32,,,8,5,4,1,4,3,1,1,11,1,,,
1571822378,2019-10-23 09:19:38.746,Acquired,Acquired,Acquired,Acquired,Not acquired,Acquired,Acquired,Acquired,Not acquired,,,,3.2950928E2,2.31807552E2,1.6645676799999998E2,1.97708624E2,8.7130904E1,3.15840384E2,2.2988662399999998E2,2.82027424E2,5.57954E1,,,,7.9379176E1,4.5682483999999995E1,3.4063492E1,8.3926296E1,4.1701004E1,1.9437117999999998E1,6.9894312E1,2.6538943999999997E1,3.1487834E1,,,,1,3,8,11,14,17,22,28,32,,,,7,2,4,4,0,8,3,11,0,,,,
1571822438,2019-10-23 09:20:38.746,Acquired,Acquired,Acquired,Acquired,Not acquired,Acquired,Acquired,Acquired,Not acquired,,,,3.2950928E2,2.31807552E2,1.6645676799999998E2,1.97708624E2,8.7130904E1,3.15840384E2,2.2988662399999998E2,2.82027424E2,5.57954E1,,,,7.9379176E1,4.5682483999999995E1,3.4063492E1,8.3926296E1,4.1701004E1,1.9437117999999998E1,6.9894312E1,2.6538943999999997E1,3.1487834E1,,,,1,3,8,11,14,17,22,28,32,,,,7,2,4,4,0,8,3,11,0,,,,
1571822498,2019-10-23 09:21:38.787,Acquired,Acquired,Acquired,Acquired,Not acquired,Acquired,Acquired,Acquired,Not acquired,,,,3.2950928E2,2.31807552E2,1.6645676799999998E2,1.97708624E2,8.7130904E1,3.15840384E2,2.2988662399999998E2,2.82027424E2,5.57954E1,,,,7.9379176E1,4.5682483999999995E1,3.4063492E1,8.3926296E1,4.1701004E1,1.9437117999999998E1,6.9894312E1,2.6538943999999997E1,3.1487834E1,,,,1,3,8,11,14,17,22,28,32,,,,7,2,4,4,0,8,3,11,0,,,,
1571822558,2019-10-23 09:22:38.746,Acquired,Acquired,Acquired,Acquired,Not acquired,Acquired,Acquired,Acquired,Not acquired,,,,3.2950928E2,2.31807552E2,1.6645676799999998E2,1.97708624E2,8.7130904E1,3.15840384E2,2.2988662399999998E2,2.82027424E2,5.57954E1,,,,7.9379176E1,4.5682483999999995E1,3.4063492E1,8.3926296E1,4.1701004E1,1.9437117999999998E1,6.9894312E1,2.6538943999999997E1,3.1487834E1,,,,1,3,8,11,14,17,22,28,32,,,,7,2,4,4,0,8,3,11,0,,,,
1571822618,2019-10-23 09:23:38.786,Acquired,Acquired,Acquired,Acquired,Not acquired,Acquired,Acquired,Acquired,Not acquired,,,,3.2950928E2,2.31807552E2,1.6645676799999998E2,1.97708624E2,8.7130904E1,3.15840384E2,2.2988662399999998E2,2.82027424E2,5.57954E1,,,,7.9379176E1,4.5682483999999995E1,3.4063492E1,8.3926296E1,4.1701004E1,1.9437117999999998E1,6.9894312E1,2.6538943999999997E1,3.1487834E1,,,,1,3,8,11,14,17,22,28,32,,,,7,2,4,4,0,8,3,11,0,,,,
1571822678,2019-10-23 09:24:38.746,Acquired,Acquired,Acquired,Acquired,Not acquired,Acquired,Acquired,Acquired,Not acquired,,,,3.2950928E2,2.31807552E2,1.6645676799999998E2,1.97708624E2,8.7130904E1,3.15840384E2,2.2988662399999998E2,2.82027424E2,5.57954E1,,,,7.9379176E1,4.5682483999999995E1,3.4063492E1,8.3926296E1,4.1701004E1,1.9437117999999998E1,6.9894312E1,2.6538943999999997E1,3.1487834E1,,,,1,3,8,11,14,17,22,28,32,,,,7,2,4,4,0,8,3,11,0,,,,
1571822738,2019-10-23 09:25:38.746,Acquired,Acquired,Acquired,Acquired,Not acquired,Acquired,Acquired,Acquired,Not acquired,,,,3.2950928E2,2.31807552E2,1.6645676799999998E2,1.97708624E2,8.7130904E1,3.15840384E2,2.2988662399999998E2,2.82027424E2,5.57954E1,,,,7.9379176E1,4.5682483999999995E1,3.4063492E1,8.3926296E1,4.1701004E1,1.9437117999999998E1,6.9894312E1,2.6538943999999997E1,3.1487834E1,,,,1,3,8,11,14,17,22,28,32,,,,7,2,4,4,0,8,3,11,0,,,,
1571822798,2019-10-23 09:26:38.746,Acquired,Acquired,Acquired,Acquired,Not acquired,Acquired,Acquired,Acquired,Not acquired,,,,3.2950928E2,2.31807552E2,1.6645676799999998E2,1.97708624E2,8.7130904E1,3.15840384E2,2.2988662399999998E2,2.82027424E2,5.57954E1,,,,7.9379176E1,4.5682483999999995E1,3.4063492E1,8.3926296E1,4.1701004E1,1.9437117999999998E1,6.9894312E1,2.6538943999999997E1,3.1487834E1,,,,1,3,8,11,14,17,22,28,32,,,,7,2,4,4,0,8,3,11,0,,,,
1571822858,2019-10-23 09:27:38.746,Acquired,Acquired,Acquired,Acquired,Not acquired,Acquired,Acquired,Acquired,Not acquired,,,,3.2950928E2,2.31807552E2,1.6645676799999998E2,1.97708624E2,8.7130904E1,3.15840384E2,2.2988662399999998E2,2.82027424E2,5.57954E1,,,,7.9379176E1,4.5682483999999995E1,3.4063492E1,8.3926296E1,4.1701004E1,1.9437117999999998E1,6.9894312E1,2.6538943999999997E1,3.1487834E1,,,,1,3,8,11,14,17,22,28,32,,,,7,2,4,4,0,8,3,11,0,,,,
1571822918,2019-10-23 09:28:38.746,Acquired,Acquired,Acquired,Acquired,Not acquired,Acquired,Acquired,Acquired,Not acquired,,,,3.2950928E2,2.31807552E2,1.6645676799999998E2,1.97708624E2,8.7130904E1,3.15840384E2,2.2988662399999998E2,2.82027424E2,5.57954E1,,,,7.9379176E1,4.5682483999999995E1,3.4063492E1,8.3926296E1,4.1701004E1,1.9437117999999998E1,6.9894312E1,2.6538943999999997E1,3.1487834E1,,,,1,3,8,11,14,17,22,28,32,,,,7,2,4,4,0,8,3,11,0,,,,
1571822978,2019-10-23 09:29:38.746,Acquired,Acquired,Acquired,Acquired,Not acquired,Acquired,Acquired,Acquired,Not acquired,,,,3.2950928E2,2.31807552E2,1.6645676799999998E2,1.97708624E2,8.7130904E1,3.15840384E2,2.2988662399999998E2,2.82027424E2,5.57954E1,,,,7.9379176E1,4.5682483999999995E1,3.4063492E1,8.3926296E1,4.1701004E1,1.9437117999999998E1,6.9894312E1,2.6538943999999997E1,3.1487834E1,,,,1,3,8,11,14,17,22,28,32,,,,7,2,4,4,0,8,3,11,0,,,,
1571823038,2019-10-23 09:30:38.746,Acquired,Acquired,Acquired,Acquired,Not acquired,Acquired,Acquired,Acquired,Not acquired,,,,3.2950928E2,2.31807552E2,1.6645676799999998E2,1.97708624E2,8.7130904E1,3.15840384E2,2.2988662399999998E2,2.82027424E2,5.57954E1,,,,7.9379176E1,4.5682483999999995E1,3.4063492E1,8.3926296E1,4.1701004E1,1.9437117999999998E1,6.9894312E1,2.6538943999999997E1,3.1487834E1,,,,1,3,8,11,14,17,22,28,32,,,,7,2,4,4,0,8,3,11,0,,,,
1571823098,2019-10-23 09:31:38.746,Acquired,Acquired,Acquired,Acquired,Not acquired,Acquired,Acquired,Acquired,Not acquired,,,,3.2950928E2,2.31807552E2,1.6645676799999998E2,1.97708624E2,8.7130904E1,3.15840384E2,2.2988662399999998E2,2.82027424E2,5.57954E1,,,,7.9379176E1,4.5682483999999995E1,3.4063492E1,8.3926296E1,4.1701004E1,1.9437117999999998E1,6.9894312E1,2.6538943999999997E1,3.1487834E1,,,,1,3,8,11,14,17,22,28,32,,,,7,2,4,4,0,8,3,11,0,,,,
1571823158,2019-10-23 09:32:38.746,Acquired,Acquired,Acquired,Acquired,Not acquired,Acquired,Acquired,Acquired,Not acquired,,,,3.2950928E2,2.31807552E2,1.6645676799999998E2,1.97708624E2,8.7130904E1,3.15840384E2,2.2988662399999998E2,2.82027424E2,5.57954E1,,,,7.9379176E1,4.5682483999999995E1,3.4063492E1,8.3926296E1,4.1701004E1,1.9437117999999998E1,6.9894312E1,2.6538943999999997E1,3.1487834E1,,,,1,3,8,11,14,17,22,28,32,,,,7,2,4,4,0,8,3,11,0,,,,
1571823218,2019-10-23 09:33:38.746,Acquired,Acquired,Acquired,Acquired,Not acquired,Acquired,Acquired,Acquired,Not acquired,,,,3.2950928E2,2.31807552E2,1.6645676799999998E2,1.97708624E2,8.7130904E1,3.15840384E2,2.2988662399999998E2,2.82027424E2,5.57954E1,,,,7.9379176E1,4.5682483999999995E1,3.4063492E1,8.3926296E1,4.1701004E1,1.9437117999999998E1,6.9894312E1,2.6538943999999997E1,3.1487834E1,,,,1,3,8,11,14,17,22,28,32,,,,7,2,4,4,0,8,3,11,0,,,,
1571823278,2019-10-23 09:34:38.746,Acquired,Acquired,Acquired,Acquired,Not acquired,Acquired,Acquired,Acquired,Not acquired,,,,3.2950928E2,2.31807552E2,1.6645676799999998E2,1.97708624E2,8.7130904E1,3.15840384E2,2.2988662399999998E2,2.82027424E2,5.57954E1,,,,7.9379176E1,4.5682483999999995E1,3.4063492E1,8.3926296E1,4.1701004E1,1.9437117999999998E1,6.9894312E1,2.6538943999999997E1,3.1487834E1,,,,1,3,8,11,14,17,22,28,32,,,,7,2,4,4,0,8,3,11,0,,,,
1571823338,2019-10-23 09:35:38.746,Acquired,Acquired,Acquired,Acquired,Not acquired,Acquired,Acquired,Acquired,Not acquired,,,,3.2950928E2,2.31807552E2,1.6645676799999998E2,1.97708624E2,8.7130904E1,3.15840384E2,2.2988662399999998E2,2.82027424E2,5.57954E1,,,,7.9379176E1,4.5682483999999995E1,3.4063492E1,8.3926296E1,4.1701004E1,1.9437117999999998E1,6.9894312E1,2.6538943999999997E1,3.1487834E1,,,,1,3,8,11,14,17,22,28,32,,,,7,2,4,4,0,8,3,11,0,,,,
1571823398,2019-10-23 09:36:38.746,Acquired,Acquired,Acquired,Acquired,Not acquired,Acquired,Acquired,Acquired,Not acquired,,,,3.2950928E2,2.31807552E2,1.6645676799999998E2,1.97708624E2,8.7130904E1,3.15840384E2,2.2988662399999998E2,2.82027424E2,5.57954E1,,,,7.9379176E1,4.5682483999999995E1,3.4063492E1,8.3926296E1,4.1701004E1,1.9437117999999998E1,6.9894312E1,2.6538943999999997E1,3.1487834E1,,,,1,3,8,11,14,17,22,28,32,,,,7,2,4,4,0,8,3,11,0,,,,
1571823458,2019-10-23 09:37:38.746,Acquired,Acquired,Acquired,Acquired,Not acquired,Acquired,Acquired,Acquired,Not acquired,,,,3.2950928E2,2.31807552E2,1.6645676799999998E2,1.97708624E2,8.7130904E1,3.15840384E2,2.2988662399999998E2,2.82027424E2,5.57954E1,,,,7.9379176E1,4.5682483999999995E1,3.4063492E1,8.3926296E1,4.1701004E1,1.9437117999999998E1,6.9894312E1,2.6538943999999997E1,3.1487834E1,,,,1,3,8,11,14,17,22,28,32,,,,7,2,4,4,0,8,3,11,0,,,,
1571823518,2019-10-23 09:38:38.746,Acquired,Acquired,Acquired,Acquired,Not acquired,Acquired,Acquired,Acquired,Not acquired,,,,3.2950928E2,2.31807552E2,1.6645676799999998E2,1.97708624E2,8.7130904E1,3.15840384E2,2.2988662399999998E2,2.82027424E2,5.57954E1,,,,7.9379176E1,4.5682483999999995E1,3.4063492E1,8.3926296E1,4.1701004E1,1.9437117999999998E1,6.9894312E1,2.6538943999999997E1,3.1487834E1,,,,1,3,8,11,14,17,22,28,32,,,,7,2,4,4,0,8,3,11,0,,,,
1571823578,2019-10-23 09:39:38.746,Acquired,Acquired,Acquired,Acquired,Not acquired,Acquired,Acquired,Acquired,Not acquired,,,,3.2950928E2,2.31807552E2,1.6645676799999998E2,1.97708624E2,8.7130904E1,3.15840384E2,2.2988662399999998E2,2.82027424E2,5.57954E1,,,,7.9379176E1,4.5682483999999995E1,3.4063492E1,8.3926296E1,4.1701004E1,1.9437117999999998E1,6.9894312E1,2.6538943999999997E1,3.1487834E1,,,,1,3,8,11,14,17,22,28,32,,,,7,2,4,4,0,8,3,11,0,,,,
1571823638,2019-10-23 09:40:38.746,Acquired,Acquired,Acquired,Acquired,Not acquired,Acquired,Acquired,Acquired,Not acquired,,,,3.2950928E2,2.31807552E2,1.6645676799999998E2,1.97708624E2,8.7130904E1,3.15840384E2,2.2988662399999998E2,2.82027424E2,5.57954E1,,,,7.9379176E1,4.5682483999999995E1,3.4063492E1,8.3926296E1,4.1701004E1,1.9437117999999998E1,6.9894312E1,2.6538943999999997E1,3.1487834E1,,,,1,3,8,11,14,17,22,28,32,,,,7,2,4,4,0,8,3,11,0,,,,
1571823698,2019-10-23 09:41:38.746,Acquired,Acquired,Acquired,Acquired,Not acquired,Acquired,Acquired,Acquired,Not acquired,,,,3.2950928E2,2.31807552E2,1.6645676799999998E2,1.97708624E2,8.7130904E1,3.15840384E2,2.2988662399999998E2,2.82027424E2,5.57954E1,,,,7.9379176E1,4.5682483999999995E1,3.4063492E1,8.3926296E1,4.1701004E1,1.9437117999999998E1,6.9894312E1,2.6538943999999997E1,3.1487834E1,,,,1,3,8,11,14,17,22,28,32,,,,7,2,4,4,0,8,3,11,0,,,,
1571823758,2019-10-23 09:42:38.746,Acquired,Acquired,Acquired,Acquired,Not acquired,Acquired,Acquired,Acquired,Not acquired,,,,3.2950928E2,2.31807552E2,1.6645676799999998E2,1.97708624E2,8.7130904E1,3.15840384E2,2.2988662399999998E2,2.82027424E2,5.57954E1,,,,7.9379176E1,4.5682483999999995E1,3.4063492E1,8.3926296E1,4.1701004E1,1.9437117999999998E1,6.9894312E1,2.6538943999999997E1,3.1487834E1,,,,1,3,8,11,14,17,22,28,32,,,,7,2,4,4,0,8,3,11,0,,,,
1571823818,2019-10-23 09:43:38.748,Acquired,Acquired,Acquired,Acquired,Not acquired,Acquired,Acquired,Acquired,Not acquired,,,,3.2950928E2,2.31807552E2,1.6645676799999998E2,1.97708624E2,8.7130904E1,3.15840384E2,2.2988662399999998E2,2.82027424E2,5.57954E1,,,,7.9379176E1,4.5682483999999995E1,3.4063492E1,8.3926296E1,4.1701004E1,1.9437117999999998E1,6.9894312E1,2.6538943999999997E1,3.1487834E1,,,,1,3,8,11,14,17,22,28,32,,,,7,2,4,4,0,8,3,11,0,,,,
1571823878,2019-10-23 09:44:38.746,Acquired,Acquired,Acquired,Acquired,Not acquired,Acquired,Acquired,Acquired,Not acquired,,,,3.2950928E2,2.31807552E2,1.6645676799999998E2,1.97708624E2,8.7130904E1,3.15840384E2,2.2988662399999998E2,2.82027424E2,5.57954E1,,,,7.9379176E1,4.5682483999999995E1,3.4063492E1,8.3926296E1,4.1701004E1,1.9437117999999998E1,6.9894312E1,2.6538943999999997E1,3.1487834E1,,,,1,3,8,11,14,17,22,28,32,,,,7,2,4,4,0,8,3,11,0,,,,
1571823938,2019-10-23 09:45:38.746,Acquired,Acquired,Acquired,Acquired,Not acquired,Acquired,Acquired,Acquired,Not acquired,,,,3.2950928E2,2.31807552E2,1.6645676799999998E2,1.97708624E2,8.7130904E1,3.15840384E2,2.2988662399999998E2,2.82027424E2,5.57954E1,,,,7.9379176E1,4.5682483999999995E1,3.4063492E1,8.3926296E1,4.1701004E1,1.9437117999999998E1,6.9894312E1,2.6538943999999997E1,3.1487834E1,,,,1,3,8,11,14,17,22,28,32,,,,7,2,4,4,0,8,3,11,0,,,,
1571823998,2019-10-23 09:46:38.746,Acquired,Acquired,Acquired,Acquired,Not acquired,Acquired,Acquired,Acquired,Not acquired,,,,3.2950928E2,2.31807552E2,1.6645676799999998E2,1.97708624E2,8.7130904E1,3.15840384E2,2.2988662399999998E2,2.82027424E2,5.57954E1,,,,7.9379176E1,4.5682483999999995E1,3.4063492E1,8.3926296E1,4.1701004E1,1.9437117999999998E1,6.9894312E1,2.6538943999999997E1,3.1487834E1,,,,1,3,8,11,14,17,22,28,32,,,,7,2,4,4,0,8,3,11,0,,,,
1571824058,2019-10-23 09:47:38.746,Acquired,Acquired,Acquired,Acquired,Not acquired,Acquired,Acquired,Acquired,Not acquired,,,,3.2950928E2,2.31807552E2,1.6645676799999998E2,1.97708624E2,8.7130904E1,3.15840384E2,2.2988662399999998E2,2.82027424E2,5.57954E1,,,,7.9379176E1,4.5682483999999995E1,3.4063492E1,8.3926296E1,4.1701004E1,1.9437117999999998E1,6.9894312E1,2.6538943999999997E1,3.1487834E1,,,,1,3,8,11,14,17,22,28,32,,,,7,2,4,4,0,8,3,11,0,,,,
1571824118,2019-10-23 09:48:38.746,Acquired,Acquired,Acquired,Acquired,Not acquired,Acquired,Acquired,Acquired,Not acquired,,,,3.2950928E2,2.31807552E2,1.6645676799999998E2,1.97708624E2,8.7130904E1,3.15840384E2,2.2988662399999998E2,2.82027424E2,5.57954E1,,,,7.9379176E1,4.5682483999999995E1,3.4063492E1,8.3926296E1,4.1701004E1,1.9437117999999998E1,6.9894312E1,2.6538943999999997E1,3.1487834E1,,,,1,3,8,11,14,17,22,28,32,,,,7,2,4,4,0,8,3,11,0,,,,
1571824178,2019-10-23 09:49:38.748,Acquired,Acquired,Acquired,Acquired,Not acquired,Acquired,Acquired,Acquired,Not acquired,,,,3.2950928E2,2.31807552E2,1.6645676799999998E2,1.97708624E2,8.7130904E1,3.15840384E2,2.2988662399999998E2,2.82027424E2,5.57954E1,,,,7.9379176E1,4.5682483999999995E1,3.4063492E1,8.3926296E1,4.1701004E1,1.9437117999999998E1,6.9894312E1,2.6538943999999997E1,3.1487834E1,,,,1,3,8,11,14,17,22,28,32,,,,7,2,4,4,0,8,3,11,0,,,,
1571824238,2019-10-23 09:50:38.746,Acquired,Acquired,Acquired,Acquired,Not acquired,Acquired,Acquired,Acquired,Not acquired,,,,3.2950928E2,2.31807552E2,1.6645676799999998E2,1.97708624E2,8.7130904E1,3.15840384E2,2.2988662399999998E2,2.82027424E2,5.57954E1,,,,7.9379176E1,4.5682483999999995E1,3.4063492E1,8.3926296E1,4.1701004E1,1.9437117999999998E1,6.9894312E1,2.6538943999999997E1,3.1487834E1,,,,1,3,8,11,14,17,22,28,32,,,,7,2,4,4,0,8,3,11,0,,,,
1571824298,2019-10-23 09:51:38.746,Acquired,Acquired,Acquired,Acquired,Not acquired,Acquired,Acquired,Acquired,Not acquired,,,,3.2950928E2,2.31807552E2,1.6645676799999998E2,1.97708624E2,8.7130904E1,3.15840384E2,2.2988662399999998E2,2.82027424E2,5.57954E1,,,,7.9379176E1,4.5682483999999995E1,3.4063492E1,8.3926296E1,4.1701004E1,1.9437117999999998E1,6.9894312E1,2.6538943999999997E1,3.1487834E1,,,,1,3,8,11,14,17,22,28,32,,,,7,2,4,4,0,8,3,11,0,,,,
1571824358,2019-10-23 09:52:38.746,Acquired,Acquired,Acquired,Acquired,Not acquired,Acquired,Acquired,Acquired,Not acquired,,,,3.2950928E2,2.31807552E2,1.6645676799999998E2,1.97708624E2,8.7130904E1,3.15840384E2,2.2988662399999998E2,2.82027424E2,5.57954E1,,,,7.9379176E1,4.5682483999999995E1,3.4063492E1,8.3926296E1,4.1701004E1,1.9437117999999998E1,6.9894312E1,2.6538943999999997E1,3.1487834E1,,,,1,3,8,11,14,17,22,28,32,,,,7,2,4,4,0,8,3,11,0,,,,
1571824418,2019-10-23 09:53:38.747,Acquired,Acquired,Acquired,Acquired,Not acquired,Acquired,Acquired,Acquired,Not acquired,,,,3.2950928E2,2.31807552E2,1.6645676799999998E2,1.97708624E2,8.7130904E1,3.15840384E2,2.2988662399999998E2,2.82027424E2,5.57954E1,,,,7.9379176E1,4.5682483999999995E1,3.4063492E1,8.3926296E1,4.1701004E1,1.9437117999999998E1,6.9894312E1,2.6538943999999997E1,3.1487834E1,,,,1,3,8,11,14,17,22,28,32,,,,7,2,4,4,0,8,3,11,0,,,,
1571824478,2019-10-23 09:54:38.746,Acquired,Acquired,Acquired,Acquired,Not acquired,Acquired,Acquired,Acquired,Acquired,,,,3.31341248E2,2.32075424E2,1.6650096E2,1.9382316799999998E2,8.654315199999999E1,3.1577772799999997E2,2.3013601599999998E2,2.81576768E2,5.5382272E1,,,,7.9716016E1,4.6126287999999995E1,3.3598248E1,8.367819999999999E1,4.1764863999999996E1,1.981079E1,7.0356016E1,2.6404685999999998E1,3.1279339999999998E1,,,,1,3,8,11,14,17,22,28,32,,,,6,1,1,5,1,10,2,12,1,,,,
1571824538,2019-10-23 09:55:38.746,Acquired,Acquired,Acquired,Acquired,Not acquired,Acquired,Acquired,Acquired,Acquired,,,,3.31341248E2,2.32075424E2,1.6650096E2,1.9382316799999998E2,8.654315199999999E1,3.1577772799999997E2,2.3013601599999998E2,2.81576768E2,5.5382272E1,,,,7.9716016E1,4.6126287999999995E1,3.3598248E1,8.367819999999999E1,4.1764863999999996E1,1.981079E1,7.0356016E1,2.6404685999999998E1,3.1279339999999998E1,,,,1,3,8,11,14,17,22,28,32,,,,6,1,1,5,1,10,2,12,1,,,,
1571824598,2019-10-23 09:56:38.746,Acquired,Acquired,Acquired,Acquired,Not acquired,Acquired,Acquired,Acquired,Acquired,,,,3.31341248E2,2.32075424E2,1.6650096E2,1.9382316799999998E2,8.654315199999999E1,3.1577772799999997E2,2.3013601599999998E2,2.81576768E2,5.5382272E1,,,,7.9716016E1,4.6126287999999995E1,3.3598248E1,8.367819999999999E1,4.1764863999999996E1,1.981079E1,7.0356016E1,2.6404685999999998E1,3.1279339999999998E1,,,,1,3,8,11,14,17,22,28,32,,,,6,1,1,5,1,10,2,12,1,,,,
1571824658,2019-10-23 09:57:38.746,Acquired,Acquired,Acquired,Acquired,Not acquired,Acquired,Acquired,Acquired,Acquired,,,,3.31341248E2,2.32075424E2,1.6650096E2,1.9382316799999998E2,8.654315199999999E1,3.1577772799999997E2,2.3013601599999998E2,2.81576768E2,5.5382272E1,,,,7.9716016E1,4.6126287999999995E1,3.3598248E1,8.367819999999999E1,4.1764863999999996E1,1.981079E1,7.0356016E1,2.6404685999999998E1,3.1279339999999998E1,,,,1,3,8,11,14,17,22,28,32,,,,6,1,1,5,1,10,2,12,1,,,,
1571824718,2019-10-23 09:58:38.746,Acquired,Acquired,Acquired,Acquired,Not acquired,Acquired,Acquired,Acquired,Acquired,,,,3.31341248E2,2.32075424E2,1.6650096E2,1.9382316799999998E2,8.654315199999999E1,3.1577772799999997E2,2.3013601599999998E2,2.81576768E2,5.5382272E1,,,,7.9716016E1,4.6126287999999995E1,3.3598248E1,8.367819999999999E1,4.1764863999999996E1,1.981079E1,7.0356016E1,2.6404685999999998E1,3.1279339999999998E1,,,,1,3,8,11,14,17,22,28,32,,,,6,1,1,5,1,10,2,12,1,,,,
1571824778,2019-10-23 09:59:38.746,Acquired,Acquired,Acquired,Acquired,Not acquired,Acquired,Acquired,Acquired,Acquired,,,,3.31341248E2,2.32075424E2,1.6650096E2,1.9382316799999998E2,8.654315199999999E1,3.1577772799999997E2,2.3013601599999998E2,2.81576768E2,5.5382272E1,,,,7.9716016E1,4.6126287999999995E1,3.3598248E1,8.367819999999999E1,4.1764863999999996E1,1.981079E1,7.0356016E1,2.6404685999999998E1,3.1279339999999998E1,,,,1,3,8,11,14,17,22,28,32,,,,6,1,1,5,1,10,2,12,1,,,,
