Time(longsecs),Time(UTC),External SOH Voltage 1(V),External SOH Voltage 2(V),External SOH Voltage 3(V),External SOH Voltage 4(V),Sensor SOH Voltage 1(V),Sensor SOH Voltage 2(V),Sensor SOH Voltage 3(V),
1571032822,2019-10-14 06:00:22.352,1.5084743E-3,-6.0338974E-3,2.9182434E-4,2.527237E-4,3.5946083E-1,3.5419846E-1,3.62648E-1,
1571032882,2019-10-14 06:01:22.352,-2.0208359E-3,-1.0429859E-2,-3.4315586E-3,-4.4784546E-3,3.450079E-1,3.3901024E-1,3.4625244E-1,
1571032942,2019-10-14 06:02:22.352,-4.2915344E-5,-8.178234E-3,-1.7380714E-3,-1.9803047E-3,3.5392857E-1,3.478546E-1,3.564329E-1,
1571033002,2019-10-14 06:03:22.354,1.0900497E-3,-5.8374405E-3,-3.004074E-4,-1.7666817E-4,3.5925293E-1,3.548355E-1,3.621025E-1,
1571033062,2019-10-14 06:04:22.383,1.3525486E-3,-6.878376E-3,3.964901E-4,1.1472702E-3,3.6230755E-1,3.572483E-1,3.625002E-1,
1571033122,2019-10-14 06:05:22.352,-4.2176247E-4,-8.140564E-3,-1.3895035E-3,-2.439499E-3,3.5285664E-1,3.479042E-1,3.56081E-1,
1571033182,2019-10-14 06:06:22.352,-1.0006428E-3,-8.287191E-3,-2.0797253E-3,-1.4281273E-3,3.532095E-1,3.4857368E-1,3.5726166E-1,
1571033242,2019-10-14 06:07:22.352,-2.2375584E-3,-9.627104E-3,-4.3931007E-3,-3.4940243E-3,3.486004E-1,3.4169102E-1,3.5112476E-1,
1571033302,2019-10-14 06:08:22.352,-6.6781044E-4,-8.4273815E-3,-6.933212E-4,-2.349615E-3,3.5499763E-1,3.5126686E-1,3.5771084E-1,
1571033362,2019-10-14 06:09:22.352,-1.344204E-3,-1.0195494E-2,-3.7109852E-3,-3.7841797E-3,3.486824E-1,3.4266663E-1,3.5004997E-1,
1571033422,2019-10-14 06:10:22.352,-3.1125546E-3,-1.0293722E-2,-3.029108E-3,-3.1189919E-3,3.4700298E-1,3.4304237E-1,3.5214424E-1,
1571033482,2019-10-14 06:11:22.354,-2.5660992E-3,-9.823084E-3,-3.206253E-3,-4.4765472E-3,3.4980106E-1,3.4475708E-1,3.5352325E-1,
1571033542,2019-10-14 06:12:22.353,1.6613007E-3,-5.944729E-3,3.5595894E-4,5.848408E-4,3.6027622E-1,3.5515118E-1,3.626337E-1,
1571033602,2019-10-14 06:13:22.354,2.051115E-3,-5.7373047E-3,5.617142E-4,6.699562E-5,3.6236763E-1,3.5614586E-1,3.6572456E-1,
1571033662,2019-10-14 06:14:22.389,2.399683E-3,-6.312847E-3,-4.0769577E-4,5.51939E-4,3.6283207E-1,3.567047E-1,3.637991E-1,
1571033722,2019-10-14 06:15:22.352,1.4336109E-3,-6.095648E-3,6.747246E-4,8.738041E-4,3.6195374E-1,3.5741806E-1,3.649454E-1,
1571033782,2019-10-14 06:16:22.354,-2.1457672E-5,-7.782221E-3,-9.5272064E-4,-1.2242794E-3,3.5494137E-1,3.4906864E-1,3.5613728E-1,
1571033842,2019-10-14 06:17:22.352,-1.1796951E-3,-7.6208115E-3,-1.3184547E-3,-2.0728111E-3,3.5295105E-1,3.4724903E-1,3.5490227E-1,
1571033902,2019-10-14 06:18:22.352,1.6727448E-3,-6.9117546E-3,5.531311E-5,-1.2207031E-4,3.6088085E-1,3.550253E-1,3.628559E-1,
1571033962,2019-10-14 06:19:22.352,-2.4621487E-3,-1.1326313E-2,-3.7572384E-3,-3.961563E-3,3.490305E-1,3.4480572E-1,3.5261154E-1,
1571034022,2019-10-14 06:20:22.352,-1.8074512E-3,-1.038003E-2,-3.9417744E-3,-3.9696693E-3,3.50235E-1,3.459339E-1,3.523016E-1,
1571034082,2019-10-14 06:21:22.352,-2.23732E-3,-1.0291815E-2,-3.802061E-3,-4.0488243E-3,3.4519005E-1,3.384552E-1,3.4742737E-1,
1571034142,2019-10-14 06:22:22.352,-9.3221664E-4,-9.191275E-3,-2.3126602E-3,-2.5322437E-3,3.5415936E-1,3.4928417E-1,3.5610008E-1,
1571034202,2019-10-14 06:23:22.352,0.0E0,-7.865429E-3,-1.9392967E-3,-2.1705627E-3,3.5274982E-1,3.4829712E-1,3.554077E-1,
1571034262,2019-10-14 06:24:22.352,-4.274845E-4,-7.6606274E-3,-1.6932487E-3,-1.9218922E-3,3.542509E-1,3.4892273E-1,3.5566425E-1,
1571034322,2019-10-14 06:25:22.352,2.1452904E-3,-6.2527657E-3,-1.02996826E-4,6.737709E-4,3.598671E-1,3.5470963E-1,3.6135197E-1,
1571034382,2019-10-14 06:26:22.352,-2.138853E-3,-9.339809E-3,-2.3124218E-3,-3.4413338E-3,3.478737E-1,3.4302807E-1,3.5030937E-1,
1571034442,2019-10-14 06:27:22.352,1.9898415E-3,-5.705118E-3,-2.8300285E-4,-7.1907043E-4,3.5848522E-1,3.5509777E-1,3.6141014E-1,
1571034502,2019-10-14 06:28:22.352,1.9388199E-3,-6.1860085E-3,7.712841E-4,-3.0612946E-4,3.635769E-1,3.5909557E-1,3.6686516E-1,
1571034562,2019-10-14 06:29:22.352,-4.942417E-4,-8.012056E-3,-1.6670227E-3,-2.0754337E-3,3.5643005E-1,3.5137558E-1,3.5883617E-1,
1571034622,2019-10-14 06:30:22.352,-3.6001205E-4,-8.001089E-3,-1.6849041E-3,-1.1646748E-3,3.5023212E-1,3.4540367E-1,3.5311604E-1,
1571034682,2019-10-14 06:31:22.352,-1.1069775E-3,-8.402586E-3,-1.471281E-3,-1.9114017E-3,3.5395813E-1,3.4857082E-1,3.5453987E-1,
1571034742,2019-10-14 06:32:22.390,1.2714863E-3,-7.4584484E-3,-6.365776E-4,-1.4424324E-3,3.507023E-1,3.454466E-1,3.5363197E-1,
1571034802,2019-10-14 06:33:22.352,-2.9325485E-4,-7.8520775E-3,-1.6634464E-3,-1.8668175E-3,3.5694885E-1,3.5070515E-1,3.5905552E-1,
1571034862,2019-10-14 06:34:22.352,2.0356178E-3,-6.035328E-3,4.9972534E-4,2.939701E-4,3.6081886E-1,3.541317E-1,3.6139488E-1,
1571034922,2019-10-14 06:35:22.352,-8.5258484E-4,-7.717371E-3,-7.97987E-4,-1.260519E-3,3.5834694E-1,3.5205555E-1,3.601284E-1,
1571034982,2019-10-14 06:36:22.352,2.4852753E-3,-6.0198307E-3,2.3937225E-4,9.796619E-4,3.5968113E-1,3.535757E-1,3.6250687E-1,
1571035042,2019-10-14 06:37:22.352,6.2704086E-4,-9.846687E-3,-2.390623E-3,-1.8537045E-3,3.539152E-1,3.484316E-1,3.5596752E-1,
1571035102,2019-10-14 06:38:22.352,2.3014545E-3,-5.293131E-3,1.3203621E-3,1.0998249E-3,3.6304474E-1,3.5715485E-1,3.652811E-1,
1571035162,2019-10-14 06:39:22.352,-1.8036366E-3,-9.279728E-3,-1.8484592E-3,-1.4281273E-3,3.51449E-1,3.4837437E-1,3.5548973E-1,
1571035222,2019-10-14 06:40:22.355,-6.1035156E-5,-7.829428E-3,-1.2714863E-3,-1.1427402E-3,3.5667515E-1,3.527527E-1,3.5821533E-1,
1571035282,2019-10-14 06:41:22.352,-2.932787E-3,-1.026535E-2,-3.2761097E-3,-4.027605E-3,3.494091E-1,3.449545E-1,3.5213566E-1,
1571035342,2019-10-14 06:42:22.352,-2.4876595E-3,-1.0746002E-2,-3.5493374E-3,-3.4432411E-3,3.4656525E-1,3.4238338E-1,3.5057926E-1,
1571035402,2019-10-14 06:43:22.366,6.670952E-4,-7.1110725E-3,-7.901192E-4,-2.657175E-3,3.5335636E-1,3.480587E-1,3.5661697E-1,
1571035462,2019-10-14 06:44:22.352,1.6958714E-3,-5.7151318E-3,5.970001E-4,-5.059242E-4,3.5863113E-1,3.53611E-1,3.6133575E-1,
1571035522,2019-10-14 06:45:22.352,1.718998E-3,-6.2515736E-3,8.010864E-4,5.4359436E-4,3.6080742E-1,3.5678864E-1,3.6485577E-1,
1571035582,2019-10-14 06:46:22.352,1.5349388E-3,-5.7423115E-3,5.402565E-4,2.5701523E-4,3.5877705E-1,3.5589886E-1,3.615904E-1,
1571035642,2019-10-14 06:47:22.352,-1.5835762E-3,-1.01697445E-2,-2.8498173E-3,-3.7379265E-3,3.4984875E-1,3.4508038E-1,3.5258675E-1,
1571035702,2019-10-14 06:48:22.352,-2.5923252E-3,-1.0277033E-2,-3.518343E-3,-4.2784214E-3,3.446617E-1,3.385563E-1,3.475151E-1,
1571035762,2019-10-14 06:49:22.352,1.6887188E-3,-6.7994595E-3,9.288788E-4,1.0998249E-3,3.630085E-1,3.593979E-1,3.6637974E-1,
1571035822,2019-10-14 06:50:22.381,-2.3076534E-3,-1.0140896E-2,-3.417492E-3,-4.4970512E-3,3.4758377E-1,3.4262657E-1,3.5049915E-1,
1571035882,2019-10-14 06:51:22.368,-2.6123524E-3,-1.0568619E-2,-3.6280155E-3,-3.7314892E-3,3.4630108E-1,3.422289E-1,3.510809E-1,
1571035942,2019-10-14 06:52:22.352,1.8570423E-3,-6.241083E-3,1.2254715E-3,2.2387505E-4,3.61022E-1,3.5426235E-1,3.613453E-1,
1571036002,2019-10-14 06:53:22.352,-2.2141933E-3,-1.000762E-2,-3.9789677E-3,-4.4419765E-3,3.5264874E-1,3.4557915E-1,3.5469723E-1,
1571036062,2019-10-14 06:54:22.354,-3.1085014E-3,-9.828091E-3,-3.280878E-3,-3.948927E-3,3.4785748E-1,3.4186268E-1,3.5114002E-1,
1571036122,2019-10-14 06:55:22.352,-2.5801659E-3,-1.0126591E-2,-3.481865E-3,-4.2505264E-3,3.476696E-1,3.4256268E-1,3.495121E-1,
1571036182,2019-10-14 06:56:22.352,1.904726E-3,-5.897045E-3,7.760525E-4,4.1151047E-4,3.603859E-1,3.5407734E-1,3.6187553E-1,
1571036242,2019-10-14 06:57:22.352,1.385212E-4,-6.8290234E-3,-9.93967E-4,-1.1780262E-3,3.549347E-1,3.4949684E-1,3.5751534E-1,
1571036302,2019-10-14 06:58:22.352,1.8334389E-4,-8.516073E-3,-2.7136803E-3,-2.5372505E-3,3.5729408E-1,3.516922E-1,3.5894203E-1,
1571036362,2019-10-14 06:59:22.352,-2.8452873E-3,-9.525061E-3,-3.8554668E-3,-3.602028E-3,3.496399E-1,3.4493446E-1,3.5201645E-1,
