Time(longsecs),Time(UTC),External SOH Voltage 1(V),External SOH Voltage 2(V),External SOH Voltage 3(V),External SOH Voltage 4(V),Sensor SOH Voltage 1(V),Sensor SOH Voltage 2(V),Sensor SOH Voltage 3(V),
1571025622,2019-10-14 04:00:22.352,-5.578995E-4,-7.0648193E-3,-1.6560555E-3,-1.6825199E-3,3.5074425E-1,3.451624E-1,3.5554314E-1,
1571025682,2019-10-14 04:01:22.352,-4.97818E-4,-7.874489E-3,-1.691103E-3,-1.9445419E-3,3.502741E-1,3.4442997E-1,3.5308075E-1,
1571025742,2019-10-14 04:02:22.352,2.670288E-4,-8.57687E-3,-1.2745857E-3,-1.7025471E-3,3.530197E-1,3.482151E-1,3.5596752E-1,
1571025802,2019-10-14 04:03:22.352,8.368492E-5,-8.8682175E-3,-1.7023087E-3,-2.106905E-3,3.535509E-1,3.4773827E-1,3.5401535E-1,
1571025862,2019-10-14 04:04:22.352,3.437996E-4,-8.262873E-3,-7.965565E-4,-1.2135506E-3,3.5119343E-1,3.4561443E-1,3.5154533E-1,
1571025922,2019-10-14 04:05:22.352,-1.2571812E-3,-7.2319508E-3,-1.2145042E-3,-1.6155243E-3,3.5387707E-1,3.4817028E-1,3.5695553E-1,
1571025982,2019-10-14 04:06:22.355,-2.2871494E-3,-1.125288E-2,-3.0462742E-3,-4.06456E-3,3.4800148E-1,3.4128475E-1,3.4964752E-1,
1571026042,2019-10-14 04:07:22.352,-5.378723E-4,-7.944584E-3,-1.4886856E-3,-2.3002625E-3,3.5653782E-1,3.508711E-1,3.5731697E-1,
1571026102,2019-10-14 04:08:22.354,9.536743E-5,-9.369612E-3,-1.4944077E-3,-3.1392574E-3,3.525505E-1,3.475294E-1,3.554964E-1,
1571026162,2019-10-14 04:09:22.354,-1.096487E-3,-8.723021E-3,-1.9686222E-3,-1.9276142E-3,3.530922E-1,3.491459E-1,3.549862E-1,
1571026222,2019-10-14 04:10:22.352,1.1923313E-3,-6.207466E-3,6.3586235E-4,5.1784515E-4,3.6011124E-1,3.5385132E-1,3.6163616E-1,
1571026282,2019-10-14 04:11:22.352,-8.5377693E-4,-8.410931E-3,-1.7769337E-3,-1.7979145E-3,3.4927368E-1,3.4282112E-1,3.533144E-1,
1571026342,2019-10-14 04:12:22.352,1.1684895E-3,-6.4365864E-3,1.3980865E-3,-2.3937225E-4,3.5596752E-1,3.5085964E-1,3.5905743E-1,
1571026402,2019-10-14 04:13:22.352,-3.2606125E-3,-1.0695457E-2,-3.6783218E-3,-3.3249855E-3,3.4741402E-1,3.4194565E-1,3.4907246E-1,
1571026462,2019-10-14 04:14:22.352,1.3940334E-3,-5.915165E-3,6.763935E-4,-4.994869E-4,3.6008644E-1,3.5517502E-1,3.6123657E-1,
1571026522,2019-10-14 04:15:22.352,-7.414818E-5,-8.248329E-3,-9.975433E-4,-1.7478466E-3,3.549881E-1,3.4956455E-1,3.5894203E-1,
1571026582,2019-10-14 04:16:22.357,-1.2443066E-3,-8.794069E-3,-1.2259483E-3,-1.8684864E-3,3.536749E-1,3.4923267E-1,3.560772E-1,
1571026642,2019-10-14 04:17:22.366,-7.2979927E-4,-8.498192E-3,-1.3818741E-3,-2.7008057E-3,3.4973335E-1,3.4609413E-1,3.5512447E-1,
1571026702,2019-10-14 04:18:22.352,-6.644726E-4,-8.064747E-3,-2.6040077E-3,-2.0754337E-3,3.541975E-1,3.4819126E-1,3.5651875E-1,
1571026762,2019-10-14 04:19:22.352,1.1832714E-3,-6.2966347E-3,1.1627674E-3,1.3637543E-4,3.5979366E-1,3.5457325E-1,3.6022282E-1,
1571026822,2019-10-14 04:20:22.352,-2.6345253E-4,-8.519888E-3,-2.153635E-3,-2.4001598E-3,3.536148E-1,3.4992027E-1,3.5520744E-1,
1571026882,2019-10-14 04:21:22.352,-5.378723E-4,-8.917093E-3,-1.3914108E-3,-2.6564598E-3,3.5251522E-1,3.477354E-1,3.559456E-1,
1571026942,2019-10-14 04:22:22.352,-5.9604645E-4,-8.231878E-3,-1.4944077E-3,-1.6443729E-3,3.5390377E-1,3.4797287E-1,3.5419273E-1,
1571027002,2019-10-14 04:23:22.352,-1.411438E-4,-7.3564053E-3,-1.6720295E-3,-1.7573833E-3,3.5033894E-1,3.4540367E-1,3.5477734E-1,
1571027062,2019-10-14 04:24:22.352,-3.169775E-3,-1.0042429E-2,-3.5247803E-3,-3.8518906E-3,3.448553E-1,3.4009933E-1,3.5057926E-1,
1571027122,2019-10-14 04:25:22.352,-1.0871887E-4,-7.4937344E-3,-1.4514923E-3,-8.0013275E-4,3.4770012E-1,3.4438324E-1,3.571911E-1,
1571027182,2019-10-14 04:26:22.352,-3.054142E-4,-8.419991E-3,-1.4202595E-3,-1.7569065E-3,3.5405445E-1,3.4888554E-1,3.5033417E-1,
1571027242,2019-10-14 04:27:22.362,1.9009113E-3,-5.612612E-3,1.2412071E-3,4.5776367E-4,3.5970402E-1,3.5536575E-1,3.5914707E-1,
1571027302,2019-10-14 04:28:22.352,1.6283989E-4,-8.070469E-3,-8.9883804E-4,-2.1152496E-3,3.505926E-1,3.459978E-1,3.581581E-1,
1571027362,2019-10-14 04:29:22.352,6.432533E-4,-7.7898502E-3,-9.16481E-4,-8.819103E-4,3.555069E-1,3.5120678E-1,3.5340786E-1,
1571027422,2019-10-14 04:30:22.352,-5.2928925E-4,-8.022308E-3,-2.077341E-3,-2.6855469E-3,3.540392E-1,3.487444E-1,3.5532475E-1,
1571027482,2019-10-14 04:31:22.352,-3.1638145E-4,-8.10647E-3,-1.5256405E-3,-1.4901161E-3,3.5035515E-1,3.4393215E-1,3.5336685E-1,
1571027542,2019-10-14 04:32:22.352,1.6067028E-3,-6.052971E-3,1.487732E-4,5.443096E-4,3.623743E-1,3.5731983E-1,3.63863E-1,
1571027602,2019-10-14 04:33:22.354,4.069805E-4,-9.011984E-3,-2.1967888E-3,-2.0029545E-3,3.4992695E-1,3.4390163E-1,3.530407E-1,
1571027662,2019-10-14 04:34:22.352,-3.7670135E-5,-9.247541E-3,-1.6679764E-3,-2.8190613E-3,3.495512E-1,3.4387589E-1,3.5309982E-1,
1571027722,2019-10-14 04:35:22.352,-7.660389E-4,-7.851362E-3,-1.1763573E-3,-2.4425983E-3,3.4927368E-1,3.4356213E-1,3.5037994E-1,
1571027782,2019-10-14 04:36:22.352,1.7004013E-3,-5.950451E-3,1.0299683E-3,5.657673E-4,3.5713005E-1,3.5179996E-1,3.593769E-1,
1571027842,2019-10-14 04:37:22.352,-6.968975E-4,-8.14271E-3,-2.1474361E-3,-1.8484592E-3,3.526888E-1,3.4870338E-1,3.567438E-1,
1571027902,2019-10-14 04:38:22.352,2.2640228E-3,-6.376505E-3,5.3167343E-4,1.0941029E-3,3.6317158E-1,3.5631943E-1,3.6325264E-1,
1571027962,2019-10-14 04:39:22.352,-7.7438354E-4,-7.849455E-3,-1.5861988E-3,-1.3730526E-3,3.538208E-1,3.473854E-1,3.5501862E-1,
1571028022,2019-10-14 04:40:22.352,1.282692E-4,-7.509947E-3,-1.1789799E-3,-1.085043E-3,3.5053158E-1,3.453169E-1,3.5575962E-1,
1571028082,2019-10-14 04:41:22.352,-2.1147728E-4,-7.6811314E-3,-2.3367405E-3,-2.0484924E-3,3.498211E-1,3.4539223E-1,3.571167E-1,
1571028142,2019-10-14 04:42:22.352,-1.1847019E-3,-8.515596E-3,-1.5950203E-3,-1.4331341E-3,3.5359573E-1,3.4886265E-1,3.5656834E-1,
1571028202,2019-10-14 04:43:22.352,-1.083374E-3,-8.646965E-3,-1.1014938E-3,-2.146721E-3,3.542986E-1,3.4972477E-1,3.5235023E-1,
1571028262,2019-10-14 04:44:22.355,-2.5892258E-3,-1.04055405E-2,-3.0648708E-3,-3.940344E-3,3.4511662E-1,3.3945847E-1,3.5058117E-1,
1571028322,2019-10-14 04:45:22.354,-2.1100044E-4,-7.8058243E-3,-1.2640953E-3,-1.4438629E-3,3.5131168E-1,3.454628E-1,3.5672188E-1,
1571028382,2019-10-14 04:46:22.352,-2.737999E-3,-9.71365E-3,-3.836155E-3,-3.905058E-3,3.437357E-1,3.3826828E-1,3.4733295E-1,
1571028442,2019-10-14 04:47:22.352,1.5950203E-4,-8.036375E-3,-1.0931492E-3,-1.0972023E-3,3.5440826E-1,3.4920692E-1,3.5781288E-1,
1571028502,2019-10-14 04:48:22.352,-4.0364265E-4,-8.934259E-3,-1.200676E-3,-2.2392273E-3,3.5401726E-1,3.4938622E-1,3.530941E-1,
1571028562,2019-10-14 04:49:22.352,-2.7825832E-3,-9.680748E-3,-3.1793118E-3,-3.3874512E-3,3.4779644E-1,3.4300232E-1,3.466587E-1,
1571028622,2019-10-14 04:50:22.352,-2.4416447E-3,-1.0020971E-2,-4.134178E-3,-4.575491E-3,3.4849834E-1,3.4158993E-1,3.5071182E-1,
1571028682,2019-10-14 04:51:22.354,1.2784004E-3,-6.110668E-3,7.5650215E-4,-3.759861E-4,3.6030006E-1,3.544464E-1,3.6218166E-1,
1571028742,2019-10-14 04:52:22.352,-6.1035156E-5,-7.2619915E-3,-4.1913986E-4,-1.0581017E-3,3.5319614E-1,3.450222E-1,3.52623E-1,
1571028802,2019-10-14 04:53:22.355,-5.4073334E-4,-7.5571537E-3,-6.480217E-4,-1.531601E-3,3.500204E-1,3.4449673E-1,3.526373E-1,
1571028862,2019-10-14 04:54:22.352,-2.9854774E-3,-1.0309935E-2,-3.0658245E-3,-3.895998E-3,3.5000038E-1,3.4470844E-1,3.5064316E-1,
1571028922,2019-10-14 04:55:22.352,-2.9275417E-3,-1.0273457E-2,-5.0108433E-3,-4.4329166E-3,3.448553E-1,3.37718E-1,3.458519E-1,
1571028982,2019-10-14 04:56:22.352,-7.479191E-4,-7.385254E-3,-8.428097E-4,-1.0552406E-3,3.4961224E-1,3.4497356E-1,3.5762405E-1,
1571029042,2019-10-14 04:57:22.352,-3.182888E-4,-8.229494E-3,-1.8212795E-3,-1.9965172E-3,3.4979153E-1,3.4375858E-1,3.5080242E-1,
1571029102,2019-10-14 04:58:22.352,-2.0270348E-3,-1.0553598E-2,-4.1804314E-3,-4.6310425E-3,3.4783268E-1,3.43091E-1,3.5116386E-1,
1571029162,2019-10-14 04:59:22.352,1.1487007E-3,-6.8354607E-3,1.0588169E-3,1.6727448E-3,3.5583687E-1,3.5206413E-1,3.6285114E-1,
