Time(longsecs),Time(UTC),Earth Location,GPS Receiver Status,GPS Satellites Used,GPS PDOP,GPS TDOP,Timing Status,Timing Phase Lock,Timing Uncertainty(ns),DAC Count,Timing Error(ns),GPS Last Update Time,
1571572811,2019-10-20 12:00:11.767,47.651138N 0.578048E 182m,Off,9,1.9945508,1.2265989,Time OK,Free running,43700,8554,0,2019-10-20 11:38:56.000000000,
1571572871,2019-10-20 12:01:11.767,47.651138N 0.578048E 182m,Off,9,1.9945508,1.2265989,Time OK,Free running,46600,8554,0,2019-10-20 11:38:56.000000000,
1571572931,2019-10-20 12:02:11.767,47.651138N 0.578048E 182m,Off,9,1.9945508,1.2265989,Time OK,Free running,49600,8554,0,2019-10-20 11:38:56.000000000,
1571572991,2019-10-20 12:03:11.767,47.651138N 0.578048E 182m,Off,9,1.9945508,1.2265989,Time OK,Free running,53100,8554,0,2019-10-20 11:38:56.000000000,
1571573051,2019-10-20 12:04:11.767,47.651138N 0.578048E 182m,Doing fixes,6,3.6987662,2.6701546,Time OK,Free running,56700,8554,0,2019-10-20 12:04:11.000000000,
1571573111,2019-10-20 12:05:11.770,47.651138N 0.578048E 182m,Doing fixes,7,3.2757096,2.2638886,Time OK,Fine lock,100,8576,208,2019-10-20 12:05:11.000000000,
1571573171,2019-10-20 12:06:11.767,47.651138N 0.578048E 182m,Doing fixes,7,3.881937,2.722302,Time OK,Fine lock,100,8593,-104,2019-10-20 12:06:11.000000000,
1571573231,2019-10-20 12:07:11.767,47.651138N 0.578048E 182m,Off,7,3.8794541,2.719766,Time OK,Free running,800,8582,0,2019-10-20 12:06:16.000000000,
1571573291,2019-10-20 12:08:11.768,47.651138N 0.578048E 182m,Off,7,3.8794541,2.719766,Time OK,Free running,1900,8582,0,2019-10-20 12:06:16.000000000,
1571573351,2019-10-20 12:09:11.767,47.651138N 0.578048E 182m,Off,7,3.8794541,2.719766,Time OK,Free running,3000,8582,0,2019-10-20 12:06:16.000000000,
1571573411,2019-10-20 12:10:11.778,47.651138N 0.578048E 182m,Off,7,3.8794541,2.719766,Time OK,Free running,3900,8582,0,2019-10-20 12:06:16.000000000,
1571573471,2019-10-20 12:11:11.767,47.651138N 0.578048E 182m,Off,7,3.8794541,2.719766,Time OK,Free running,4800,8582,0,2019-10-20 12:06:16.000000000,
1571573531,2019-10-20 12:12:11.767,47.651138N 0.578048E 182m,Off,7,3.8794541,2.719766,Time OK,Free running,5800,8582,0,2019-10-20 12:06:16.000000000,
1571573591,2019-10-20 12:13:11.767,47.651138N 0.578048E 182m,Off,7,3.8794541,2.719766,Time OK,Free running,6700,8582,0,2019-10-20 12:06:16.000000000,
1571573651,2019-10-20 12:14:11.767,47.651138N 0.578048E 182m,Off,7,3.8794541,2.719766,Time OK,Free running,7700,8582,0,2019-10-20 12:06:16.000000000,
1571573711,2019-10-20 12:15:11.767,47.651138N 0.578048E 182m,Off,7,3.8794541,2.719766,Time OK,Free running,8500,8582,0,2019-10-20 12:06:16.000000000,
1571573771,2019-10-20 12:16:11.767,47.651138N 0.578048E 182m,Off,7,3.8794541,2.719766,Time OK,Free running,9400,8582,0,2019-10-20 12:06:16.000000000,
1571573831,2019-10-20 12:17:11.796,47.651138N 0.578048E 182m,Off,7,3.8794541,2.719766,Time OK,Free running,10200,8582,0,2019-10-20 12:06:16.000000000,
1571573891,2019-10-20 12:18:11.767,47.651138N 0.578048E 182m,Off,7,3.8794541,2.719766,Time OK,Free running,11100,8582,0,2019-10-20 12:06:16.000000000,
1571573951,2019-10-20 12:19:11.767,47.651138N 0.578048E 182m,Off,7,3.8794541,2.719766,Time OK,Free running,12100,8582,0,2019-10-20 12:06:16.000000000,
1571574011,2019-10-20 12:20:11.767,47.651138N 0.578048E 182m,Off,7,3.8794541,2.719766,Time OK,Free running,13100,8582,0,2019-10-20 12:06:16.000000000,
1571574071,2019-10-20 12:21:11.767,47.651138N 0.578048E 182m,Off,7,3.8794541,2.719766,Time OK,Free running,13900,8582,0,2019-10-20 12:06:16.000000000,
1571574131,2019-10-20 12:22:11.767,47.651138N 0.578048E 182m,Off,7,3.8794541,2.719766,Time OK,Free running,14900,8582,0,2019-10-20 12:06:16.000000000,
1571574191,2019-10-20 12:23:11.767,47.651138N 0.578048E 182m,Off,7,3.8794541,2.719766,Time OK,Free running,15800,8582,0,2019-10-20 12:06:16.000000000,
1571574251,2019-10-20 12:24:11.767,47.651138N 0.578048E 182m,Off,7,3.8794541,2.719766,Time OK,Free running,16900,8582,0,2019-10-20 12:06:16.000000000,
1571574311,2019-10-20 12:25:11.769,47.651138N 0.578048E 182m,Off,7,3.8794541,2.719766,Time OK,Free running,18200,8582,0,2019-10-20 12:06:16.000000000,
1571574371,2019-10-20 12:26:11.767,47.651138N 0.578048E 182m,Off,7,3.8794541,2.719766,Time OK,Free running,19300,8582,0,2019-10-20 12:06:16.000000000,
1571574431,2019-10-20 12:27:11.817,47.651138N 0.578048E 182m,Off,7,3.8794541,2.719766,Time OK,Free running,20500,8582,0,2019-10-20 12:06:16.000000000,
1571574491,2019-10-20 12:28:11.776,47.651138N 0.578048E 182m,Off,7,3.8794541,2.719766,Time OK,Free running,22000,8582,0,2019-10-20 12:06:16.000000000,
1571574551,2019-10-20 12:29:11.767,47.651138N 0.578048E 182m,Off,7,3.8794541,2.719766,Time OK,Free running,23300,8582,0,2019-10-20 12:06:16.000000000,
1571574611,2019-10-20 12:30:11.767,47.651138N 0.578048E 182m,Off,7,3.8794541,2.719766,Time OK,Free running,24600,8582,0,2019-10-20 12:06:16.000000000,
1571574671,2019-10-20 12:31:11.767,47.651138N 0.578048E 182m,Off,7,3.8794541,2.719766,Time OK,Free running,26100,8582,0,2019-10-20 12:06:16.000000000,
1571574731,2019-10-20 12:32:11.767,47.651138N 0.578048E 182m,Off,7,3.8794541,2.719766,Time OK,Free running,27500,8582,0,2019-10-20 12:06:16.000000000,
1571574791,2019-10-20 12:33:11.767,47.651138N 0.578048E 182m,Off,7,3.8794541,2.719766,Time OK,Free running,28900,8582,0,2019-10-20 12:06:16.000000000,
1571574851,2019-10-20 12:34:11.769,47.651138N 0.578048E 182m,Off,7,3.8794541,2.719766,Time OK,Free running,30400,8582,0,2019-10-20 12:06:16.000000000,
1571574911,2019-10-20 12:35:11.767,47.651138N 0.578048E 182m,Off,7,3.8794541,2.719766,Time OK,Free running,31800,8582,0,2019-10-20 12:06:16.000000000,
1571574971,2019-10-20 12:36:11.767,47.651138N 0.578048E 182m,Off,7,3.8794541,2.719766,Time OK,Free running,33100,8582,0,2019-10-20 12:06:16.000000000,
1571575031,2019-10-20 12:37:11.767,47.651138N 0.578048E 182m,Off,7,3.8794541,2.719766,Time OK,Free running,34600,8582,0,2019-10-20 12:06:16.000000000,
1571575091,2019-10-20 12:38:11.767,47.651138N 0.578048E 182m,Off,7,3.8794541,2.719766,Time OK,Free running,36000,8582,0,2019-10-20 12:06:16.000000000,
1571575151,2019-10-20 12:39:11.767,47.651138N 0.578048E 182m,Off,7,3.8794541,2.719766,Time OK,Free running,37500,8582,0,2019-10-20 12:06:16.000000000,
1571575211,2019-10-20 12:40:11.767,47.651138N 0.578048E 182m,Off,7,3.8794541,2.719766,Time OK,Free running,39200,8582,0,2019-10-20 12:06:16.000000000,
1571575271,2019-10-20 12:41:11.767,47.651138N 0.578048E 182m,Off,7,3.8794541,2.719766,Time OK,Free running,40800,8582,0,2019-10-20 12:06:16.000000000,
1571575331,2019-10-20 12:42:11.767,47.651138N 0.578048E 182m,Off,7,3.8794541,2.719766,Time OK,Free running,42400,8582,0,2019-10-20 12:06:16.000000000,
1571575391,2019-10-20 12:43:11.767,47.651138N 0.578048E 182m,Off,7,3.8794541,2.719766,Time OK,Free running,44300,8582,0,2019-10-20 12:06:16.000000000,
1571575451,2019-10-20 12:44:11.767,47.651138N 0.578048E 182m,Off,7,3.8794541,2.719766,Time OK,Free running,46200,8582,0,2019-10-20 12:06:16.000000000,
1571575511,2019-10-20 12:45:11.767,47.651138N 0.578048E 182m,Off,7,3.8794541,2.719766,Time OK,Free running,48000,8582,0,2019-10-20 12:06:16.000000000,
1571575571,2019-10-20 12:46:11.769,47.651138N 0.578048E 182m,Off,7,3.8794541,2.719766,Time OK,Free running,49900,8582,0,2019-10-20 12:06:16.000000000,
1571575631,2019-10-20 12:47:11.767,47.651138N 0.578048E 182m,Off,7,3.8794541,2.719766,Time OK,Free running,51900,8582,0,2019-10-20 12:06:16.000000000,
1571575691,2019-10-20 12:48:11.767,47.651138N 0.578048E 182m,Doing fixes,7,2.8398247,1.6366307,Time OK,Coarse lock,100,8868,-1250,2019-10-20 12:48:11.000000000,
1571575751,2019-10-20 12:49:11.767,47.651138N 0.578048E 182m,Doing fixes,6,3.439626,2.2646194,Time OK,Fine lock,100,8608,0,2019-10-20 12:49:11.000000000,
1571575811,2019-10-20 12:50:11.767,47.651138N 0.578048E 182m,Off,6,3.4371376,2.2559962,Time OK,Free running,500,8606,0,2019-10-20 12:49:36.000000000,
1571575871,2019-10-20 12:51:11.767,47.651138N 0.578048E 182m,Off,6,3.4371376,2.2559962,Time OK,Free running,1400,8606,0,2019-10-20 12:49:36.000000000,
1571575931,2019-10-20 12:52:11.776,47.651138N 0.578048E 182m,Off,6,3.4371376,2.2559962,Time OK,Free running,2300,8606,0,2019-10-20 12:49:36.000000000,
1571575991,2019-10-20 12:53:11.767,47.651138N 0.578048E 182m,Off,6,3.4371376,2.2559962,Time OK,Free running,3400,8606,0,2019-10-20 12:49:36.000000000,
1571576051,2019-10-20 12:54:11.767,47.651138N 0.578048E 182m,Off,6,3.4371376,2.2559962,Time OK,Free running,4300,8606,0,2019-10-20 12:49:36.000000000,
1571576111,2019-10-20 12:55:11.767,47.651138N 0.578048E 182m,Off,6,3.4371376,2.2559962,Time OK,Free running,5400,8606,0,2019-10-20 12:49:36.000000000,
1571576171,2019-10-20 12:56:11.767,47.651138N 0.578048E 182m,Off,6,3.4371376,2.2559962,Time OK,Free running,6600,8606,0,2019-10-20 12:49:36.000000000,
1571576231,2019-10-20 12:57:11.767,47.651138N 0.578048E 182m,Off,6,3.4371376,2.2559962,Time OK,Free running,7600,8606,0,2019-10-20 12:49:36.000000000,
1571576291,2019-10-20 12:58:11.767,47.651138N 0.578048E 182m,Off,6,3.4371376,2.2559962,Time OK,Free running,8600,8606,0,2019-10-20 12:49:36.000000000,
1571576351,2019-10-20 12:59:11.767,47.651138N 0.578048E 182m,Off,6,3.4371376,2.2559962,Time OK,Free running,9500,8606,0,2019-10-20 12:49:36.000000000,
