Time(longsecs),Time(UTC),GPS Satellite Acquisition Flag 1,GPS Satellite Acquisition Flag 2,GPS Satellite Acquisition Flag 3,GPS Satellite Acquisition Flag 4,GPS Satellite Acquisition Flag 5,GPS Satellite Acquisition Flag 6,GPS Satellite Acquisition Flag 7,GPS Satellite Acquisition Flag 8,GPS Satellite Acquisition Flag 9,GPS Satellite Acquisition Flag 10,GPS Satellite Acquisition Flag 11,GPS Satellite Acquisition Flag 12,GPS Satellite Azimuth 1(Degrees),GPS Satellite Azimuth 2(Degrees),GPS Satellite Azimuth 3(Degrees),GPS Satellite Azimuth 4(Degrees),GPS Satellite Azimuth 5(Degrees),GPS Satellite Azimuth 6(Degrees),GPS Satellite Azimuth 7(Degrees),GPS Satellite Azimuth 8(Degrees),GPS Satellite Azimuth 9(Degrees),GPS Satellite Azimuth 10(Degrees),GPS Satellite Azimuth 11(Degrees),GPS Satellite Azimuth 12(Degrees),GPS Satellite Elevation 1(Degrees),GPS Satellite Elevation 2(Degrees),GPS Satellite Elevation 3(Degrees),GPS Satellite Elevation 4(Degrees),GPS Satellite Elevation 5(Degrees),GPS Satellite Elevation 6(Degrees),GPS Satellite Elevation 7(Degrees),GPS Satellite Elevation 8(Degrees),GPS Satellite Elevation 9(Degrees),GPS Satellite Elevation 10(Degrees),GPS Satellite Elevation 11(Degrees),GPS Satellite Elevation 12(Degrees),GPS Satellite PRN 1,GPS Satellite PRN 2,GPS Satellite PRN 3,GPS Satellite PRN 4,GPS Satellite PRN 5,GPS Satellite PRN 6,GPS Satellite PRN 7,GPS Satellite PRN 8,GPS Satellite PRN 9,GPS Satellite PRN 10,GPS Satellite PRN 11,GPS Satellite PRN 12,GPS Satellite Signal Level 1(AMU),GPS Satellite Signal Level 2(AMU),GPS Satellite Signal Level 3(AMU),GPS Satellite Signal Level 4(AMU),GPS Satellite Signal Level 5(AMU),GPS Satellite Signal Level 6(AMU),GPS Satellite Signal Level 7(AMU),GPS Satellite Signal Level 8(AMU),GPS Satellite Signal Level 9(AMU),GPS Satellite Signal Level 10(AMU),GPS Satellite Signal Level 11(AMU),GPS Satellite Signal Level 12(AMU),
1571533211,2019-10-20 01:00:11.767,Acquired,Acquired,Acquired,Acquired,Acquired,Acquired,Acquired,Acquired,Not acquired,Not acquired,,,6.371066E1,8.2119608E1,2.6642352E2,5.1970676E1,1.97968688E2,3.0196783999999997E2,2.35103312E2,2.8173327999999998E1,1.45033856E2,2.7606620799999996E2,,,3.2053453999999995E1,3.2839786E1,3.5104184E1,7.6957848E1,6.4277232E1,4.5670235999999996E1,2.5955398E1,8.665436999999999E0,8.718311E0,8.102876E0,,,2,12,14,25,29,31,32,6,24,26,,,2,6,5,15,15,2,15,2,0,0,,,
1571533271,2019-10-20 01:01:11.767,Acquired,Acquired,Acquired,Acquired,Acquired,Acquired,Acquired,Acquired,Not acquired,Not acquired,,,6.371066E1,8.2119608E1,2.6642352E2,5.1970676E1,1.97968688E2,3.0196783999999997E2,2.35103312E2,2.8173327999999998E1,1.45033856E2,2.7606620799999996E2,,,3.2053453999999995E1,3.2839786E1,3.5104184E1,7.6957848E1,6.4277232E1,4.5670235999999996E1,2.5955398E1,8.665436999999999E0,8.718311E0,8.102876E0,,,2,12,14,25,29,31,32,6,24,26,,,2,6,5,15,15,2,15,2,0,0,,,
1571533331,2019-10-20 01:02:11.767,Acquired,Acquired,Acquired,Acquired,Acquired,Acquired,Acquired,Acquired,Not acquired,Not acquired,,,6.371066E1,8.2119608E1,2.6642352E2,5.1970676E1,1.97968688E2,3.0196783999999997E2,2.35103312E2,2.8173327999999998E1,1.45033856E2,2.7606620799999996E2,,,3.2053453999999995E1,3.2839786E1,3.5104184E1,7.6957848E1,6.4277232E1,4.5670235999999996E1,2.5955398E1,8.665436999999999E0,8.718311E0,8.102876E0,,,2,12,14,25,29,31,32,6,24,26,,,2,6,5,15,15,2,15,2,0,0,,,
1571533391,2019-10-20 01:03:11.767,Acquired,Acquired,Acquired,Acquired,Acquired,Acquired,Acquired,Acquired,Not acquired,Not acquired,,,6.371066E1,8.2119608E1,2.6642352E2,5.1970676E1,1.97968688E2,3.0196783999999997E2,2.35103312E2,2.8173327999999998E1,1.45033856E2,2.7606620799999996E2,,,3.2053453999999995E1,3.2839786E1,3.5104184E1,7.6957848E1,6.4277232E1,4.5670235999999996E1,2.5955398E1,8.665436999999999E0,8.718311E0,8.102876E0,,,2,12,14,25,29,31,32,6,24,26,,,2,6,5,15,15,2,15,2,0,0,,,
1571533451,2019-10-20 01:04:11.767,Acquired,Acquired,Acquired,Acquired,Acquired,Acquired,Acquired,Acquired,Not acquired,Not acquired,,,6.371066E1,8.2119608E1,2.6642352E2,5.1970676E1,1.97968688E2,3.0196783999999997E2,2.35103312E2,2.8173327999999998E1,1.45033856E2,2.7606620799999996E2,,,3.2053453999999995E1,3.2839786E1,3.5104184E1,7.6957848E1,6.4277232E1,4.5670235999999996E1,2.5955398E1,8.665436999999999E0,8.718311E0,8.102876E0,,,2,12,14,25,29,31,32,6,24,26,,,2,6,5,15,15,2,15,2,0,0,,,
1571533511,2019-10-20 01:05:11.767,Acquired,Acquired,Acquired,Acquired,Acquired,Acquired,Acquired,Acquired,Not acquired,Not acquired,,,6.371066E1,8.2119608E1,2.6642352E2,5.1970676E1,1.97968688E2,3.0196783999999997E2,2.35103312E2,2.8173327999999998E1,1.45033856E2,2.7606620799999996E2,,,3.2053453999999995E1,3.2839786E1,3.5104184E1,7.6957848E1,6.4277232E1,4.5670235999999996E1,2.5955398E1,8.665436999999999E0,8.718311E0,8.102876E0,,,2,12,14,25,29,31,32,6,24,26,,,2,6,5,15,15,2,15,2,0,0,,,
1571533571,2019-10-20 01:06:11.767,Acquired,Acquired,Acquired,Acquired,Acquired,Acquired,Acquired,Acquired,Not acquired,Not acquired,,,6.371066E1,8.2119608E1,2.6642352E2,5.1970676E1,1.97968688E2,3.0196783999999997E2,2.35103312E2,2.8173327999999998E1,1.45033856E2,2.7606620799999996E2,,,3.2053453999999995E1,3.2839786E1,3.5104184E1,7.6957848E1,6.4277232E1,4.5670235999999996E1,2.5955398E1,8.665436999999999E0,8.718311E0,8.102876E0,,,2,12,14,25,29,31,32,6,24,26,,,2,6,5,15,15,2,15,2,0,0,,,
1571533631,2019-10-20 01:07:11.767,Acquired,Acquired,Acquired,Acquired,Acquired,Acquired,Acquired,Acquired,Not acquired,Not acquired,,,6.371066E1,8.2119608E1,2.6642352E2,5.1970676E1,1.97968688E2,3.0196783999999997E2,2.35103312E2,2.8173327999999998E1,1.45033856E2,2.7606620799999996E2,,,3.2053453999999995E1,3.2839786E1,3.5104184E1,7.6957848E1,6.4277232E1,4.5670235999999996E1,2.5955398E1,8.665436999999999E0,8.718311E0,8.102876E0,,,2,12,14,25,29,31,32,6,24,26,,,2,6,5,15,15,2,15,2,0,0,,,
1571533691,2019-10-20 01:08:11.767,Acquired,Acquired,Acquired,Acquired,Acquired,Acquired,Acquired,Acquired,Not acquired,Not acquired,,,6.371066E1,8.2119608E1,2.6642352E2,5.1970676E1,1.97968688E2,3.0196783999999997E2,2.35103312E2,2.8173327999999998E1,1.45033856E2,2.7606620799999996E2,,,3.2053453999999995E1,3.2839786E1,3.5104184E1,7.6957848E1,6.4277232E1,4.5670235999999996E1,2.5955398E1,8.665436999999999E0,8.718311E0,8.102876E0,,,2,12,14,25,29,31,32,6,24,26,,,2,6,5,15,15,2,15,2,0,0,,,
1571533751,2019-10-20 01:09:11.767,Acquired,Acquired,Acquired,Acquired,Acquired,Acquired,Acquired,Acquired,Not acquired,Not acquired,,,6.371066E1,8.2119608E1,2.6642352E2,5.1970676E1,1.97968688E2,3.0196783999999997E2,2.35103312E2,2.8173327999999998E1,1.45033856E2,2.7606620799999996E2,,,3.2053453999999995E1,3.2839786E1,3.5104184E1,7.6957848E1,6.4277232E1,4.5670235999999996E1,2.5955398E1,8.665436999999999E0,8.718311E0,8.102876E0,,,2,12,14,25,29,31,32,6,24,26,,,2,6,5,15,15,2,15,2,0,0,,,
1571533811,2019-10-20 01:10:11.767,Acquired,Acquired,Acquired,Acquired,Acquired,Acquired,Acquired,Acquired,Not acquired,Not acquired,,,6.371066E1,8.2119608E1,2.6642352E2,5.1970676E1,1.97968688E2,3.0196783999999997E2,2.35103312E2,2.8173327999999998E1,1.45033856E2,2.7606620799999996E2,,,3.2053453999999995E1,3.2839786E1,3.5104184E1,7.6957848E1,6.4277232E1,4.5670235999999996E1,2.5955398E1,8.665436999999999E0,8.718311E0,8.102876E0,,,2,12,14,25,29,31,32,6,24,26,,,2,6,5,15,15,2,15,2,0,0,,,
1571533871,2019-10-20 01:11:11.767,Acquired,Acquired,Acquired,Acquired,Acquired,Acquired,Acquired,Acquired,Not acquired,Not acquired,,,6.371066E1,8.2119608E1,2.6642352E2,5.1970676E1,1.97968688E2,3.0196783999999997E2,2.35103312E2,2.8173327999999998E1,1.45033856E2,2.7606620799999996E2,,,3.2053453999999995E1,3.2839786E1,3.5104184E1,7.6957848E1,6.4277232E1,4.5670235999999996E1,2.5955398E1,8.665436999999999E0,8.718311E0,8.102876E0,,,2,12,14,25,29,31,32,6,24,26,,,2,6,5,15,15,2,15,2,0,0,,,
1571533931,2019-10-20 01:12:11.767,Acquired,Acquired,Acquired,Acquired,Acquired,Acquired,Acquired,Acquired,Not acquired,Not acquired,,,6.371066E1,8.2119608E1,2.6642352E2,5.1970676E1,1.97968688E2,3.0196783999999997E2,2.35103312E2,2.8173327999999998E1,1.45033856E2,2.7606620799999996E2,,,3.2053453999999995E1,3.2839786E1,3.5104184E1,7.6957848E1,6.4277232E1,4.5670235999999996E1,2.5955398E1,8.665436999999999E0,8.718311E0,8.102876E0,,,2,12,14,25,29,31,32,6,24,26,,,2,6,5,15,15,2,15,2,0,0,,,
1571533991,2019-10-20 01:13:11.768,Acquired,Acquired,Acquired,Acquired,Acquired,Acquired,Acquired,Acquired,Not acquired,Not acquired,,,6.371066E1,8.2119608E1,2.6642352E2,5.1970676E1,1.97968688E2,3.0196783999999997E2,2.35103312E2,2.8173327999999998E1,1.45033856E2,2.7606620799999996E2,,,3.2053453999999995E1,3.2839786E1,3.5104184E1,7.6957848E1,6.4277232E1,4.5670235999999996E1,2.5955398E1,8.665436999999999E0,8.718311E0,8.102876E0,,,2,12,14,25,29,31,32,6,24,26,,,2,6,5,15,15,2,15,2,0,0,,,
1571534051,2019-10-20 01:14:11.779,Acquired,Acquired,Acquired,Acquired,Acquired,Acquired,Acquired,Acquired,Not acquired,Not acquired,,,6.371066E1,8.2119608E1,2.6642352E2,5.1970676E1,1.97968688E2,3.0196783999999997E2,2.35103312E2,2.8173327999999998E1,1.45033856E2,2.7606620799999996E2,,,3.2053453999999995E1,3.2839786E1,3.5104184E1,7.6957848E1,6.4277232E1,4.5670235999999996E1,2.5955398E1,8.665436999999999E0,8.718311E0,8.102876E0,,,2,12,14,25,29,31,32,6,24,26,,,2,6,5,15,15,2,15,2,0,0,,,
1571534111,2019-10-20 01:15:11.767,Acquired,Acquired,Acquired,Acquired,Acquired,Acquired,Acquired,Acquired,Not acquired,Not acquired,,,6.371066E1,8.2119608E1,2.6642352E2,5.1970676E1,1.97968688E2,3.0196783999999997E2,2.35103312E2,2.8173327999999998E1,1.45033856E2,2.7606620799999996E2,,,3.2053453999999995E1,3.2839786E1,3.5104184E1,7.6957848E1,6.4277232E1,4.5670235999999996E1,2.5955398E1,8.665436999999999E0,8.718311E0,8.102876E0,,,2,12,14,25,29,31,32,6,24,26,,,2,6,5,15,15,2,15,2,0,0,,,
1571534171,2019-10-20 01:16:11.767,Acquired,Acquired,Acquired,Acquired,Acquired,Acquired,Acquired,Acquired,Not acquired,Not acquired,,,6.371066E1,8.2119608E1,2.6642352E2,5.1970676E1,1.97968688E2,3.0196783999999997E2,2.35103312E2,2.8173327999999998E1,1.45033856E2,2.7606620799999996E2,,,3.2053453999999995E1,3.2839786E1,3.5104184E1,7.6957848E1,6.4277232E1,4.5670235999999996E1,2.5955398E1,8.665436999999999E0,8.718311E0,8.102876E0,,,2,12,14,25,29,31,32,6,24,26,,,2,6,5,15,15,2,15,2,0,0,,,
1571534231,2019-10-20 01:17:11.769,Acquired,Acquired,Acquired,Acquired,Acquired,Acquired,Acquired,Acquired,Not acquired,Not acquired,,,6.371066E1,8.2119608E1,2.6642352E2,5.1970676E1,1.97968688E2,3.0196783999999997E2,2.35103312E2,2.8173327999999998E1,1.45033856E2,2.7606620799999996E2,,,3.2053453999999995E1,3.2839786E1,3.5104184E1,7.6957848E1,6.4277232E1,4.5670235999999996E1,2.5955398E1,8.665436999999999E0,8.718311E0,8.102876E0,,,2,12,14,25,29,31,32,6,24,26,,,2,6,5,15,15,2,15,2,0,0,,,
1571534291,2019-10-20 01:18:11.767,Acquired,Acquired,Acquired,Acquired,Acquired,Acquired,Acquired,Acquired,Not acquired,Not acquired,,,6.371066E1,8.2119608E1,2.6642352E2,5.1970676E1,1.97968688E2,3.0196783999999997E2,2.35103312E2,2.8173327999999998E1,1.45033856E2,2.7606620799999996E2,,,3.2053453999999995E1,3.2839786E1,3.5104184E1,7.6957848E1,6.4277232E1,4.5670235999999996E1,2.5955398E1,8.665436999999999E0,8.718311E0,8.102876E0,,,2,12,14,25,29,31,32,6,24,26,,,2,6,5,15,15,2,15,2,0,0,,,
1571534351,2019-10-20 01:19:11.767,Acquired,Acquired,Acquired,Acquired,,,Acquired,Acquired,Not acquired,Not acquired,,,6.322502E1,8.2418808E1,2.65889808E2,5.3514336E1,,,2.3477155199999999E2,2.7917146E1,1.45142176E2,2.76300384E2,,,3.1966469999999997E1,3.2446756E1,3.4924976E1,7.661460799999999E1,,,2.5603244E1,8.388074E0,8.324328999999999E0,8.451751E0,,,2,12,14,25,,,32,6,24,26,,,5,11,4,15,,,13,1,0,0,,,
1571534411,2019-10-20 01:20:11.767,Acquired,Acquired,Acquired,Acquired,Acquired,Acquired,Acquired,Not acquired,Acquired,,,,4.7847491999999995E1,9.322583999999999E1,2.48789456E2,8.577344E1,2.84988256E2,1.7549334399999998E2,2.84800256E2,1.785776E2,2.23951216E2,,,,2.5422942E1,1.838297E1,2.5385697999999998E1,6.1896068E1,2.2331156E1,8.3382064E1,5.9691216E1,1.0743025999999999E1,1.171914E1,,,,2,12,14,25,26,29,31,21,32,,,,2,4,9,15,3,15,13,0,2,,,,
1571534471,2019-10-20 01:21:11.767,Acquired,Acquired,Acquired,Acquired,Acquired,Acquired,Acquired,Not acquired,Acquired,,,,4.7847491999999995E1,9.322583999999999E1,2.48789456E2,8.577344E1,2.84988256E2,1.7549334399999998E2,2.84800256E2,1.785776E2,2.23951216E2,,,,2.5422942E1,1.838297E1,2.5385697999999998E1,6.1896068E1,2.2331156E1,8.3382064E1,5.9691216E1,1.0743025999999999E1,1.171914E1,,,,2,12,14,25,26,29,31,21,32,,,,2,4,9,15,3,15,13,0,2,,,,
1571534531,2019-10-20 01:22:11.767,Acquired,Acquired,Acquired,Acquired,Acquired,Acquired,Acquired,Not acquired,Acquired,,,,4.7847491999999995E1,9.322583999999999E1,2.48789456E2,8.577344E1,2.84988256E2,1.7549334399999998E2,2.84800256E2,1.785776E2,2.23951216E2,,,,2.5422942E1,1.838297E1,2.5385697999999998E1,6.1896068E1,2.2331156E1,8.3382064E1,5.9691216E1,1.0743025999999999E1,1.171914E1,,,,2,12,14,25,26,29,31,21,32,,,,2,4,9,15,3,15,13,0,2,,,,
1571534591,2019-10-20 01:23:11.767,Acquired,Acquired,Acquired,Acquired,Acquired,Acquired,Acquired,Not acquired,Acquired,,,,4.7847491999999995E1,9.322583999999999E1,2.48789456E2,8.577344E1,2.84988256E2,1.7549334399999998E2,2.84800256E2,1.785776E2,2.23951216E2,,,,2.5422942E1,1.838297E1,2.5385697999999998E1,6.1896068E1,2.2331156E1,8.3382064E1,5.9691216E1,1.0743025999999999E1,1.171914E1,,,,2,12,14,25,26,29,31,21,32,,,,2,4,9,15,3,15,13,0,2,,,,
1571534651,2019-10-20 01:24:11.767,Acquired,Acquired,Acquired,Acquired,Acquired,Acquired,Acquired,Not acquired,Acquired,,,,4.7847491999999995E1,9.322583999999999E1,2.48789456E2,8.577344E1,2.84988256E2,1.7549334399999998E2,2.84800256E2,1.785776E2,2.23951216E2,,,,2.5422942E1,1.838297E1,2.5385697999999998E1,6.1896068E1,2.2331156E1,8.3382064E1,5.9691216E1,1.0743025999999999E1,1.171914E1,,,,2,12,14,25,26,29,31,21,32,,,,2,4,9,15,3,15,13,0,2,,,,
1571534711,2019-10-20 01:25:11.767,Acquired,Acquired,Acquired,Acquired,Acquired,Acquired,Acquired,Not acquired,Acquired,,,,4.7847491999999995E1,9.322583999999999E1,2.48789456E2,8.577344E1,2.84988256E2,1.7549334399999998E2,2.84800256E2,1.785776E2,2.23951216E2,,,,2.5422942E1,1.838297E1,2.5385697999999998E1,6.1896068E1,2.2331156E1,8.3382064E1,5.9691216E1,1.0743025999999999E1,1.171914E1,,,,2,12,14,25,26,29,31,21,32,,,,2,4,9,15,3,15,13,0,2,,,,
1571534771,2019-10-20 01:26:11.767,Acquired,Acquired,Acquired,Acquired,Acquired,Acquired,Acquired,Not acquired,Acquired,,,,4.7847491999999995E1,9.322583999999999E1,2.48789456E2,8.577344E1,2.84988256E2,1.7549334399999998E2,2.84800256E2,1.785776E2,2.23951216E2,,,,2.5422942E1,1.838297E1,2.5385697999999998E1,6.1896068E1,2.2331156E1,8.3382064E1,5.9691216E1,1.0743025999999999E1,1.171914E1,,,,2,12,14,25,26,29,31,21,32,,,,2,4,9,15,3,15,13,0,2,,,,
1571534831,2019-10-20 01:27:11.768,Acquired,Acquired,Acquired,Acquired,Acquired,Acquired,Acquired,Not acquired,Acquired,,,,4.7847491999999995E1,9.322583999999999E1,2.48789456E2,8.577344E1,2.84988256E2,1.7549334399999998E2,2.84800256E2,1.785776E2,2.23951216E2,,,,2.5422942E1,1.838297E1,2.5385697999999998E1,6.1896068E1,2.2331156E1,8.3382064E1,5.9691216E1,1.0743025999999999E1,1.171914E1,,,,2,12,14,25,26,29,31,21,32,,,,2,4,9,15,3,15,13,0,2,,,,
1571534891,2019-10-20 01:28:11.778,Acquired,Acquired,Acquired,Acquired,Acquired,Acquired,Acquired,Not acquired,Acquired,,,,4.7847491999999995E1,9.322583999999999E1,2.48789456E2,8.577344E1,2.84988256E2,1.7549334399999998E2,2.84800256E2,1.785776E2,2.23951216E2,,,,2.5422942E1,1.838297E1,2.5385697999999998E1,6.1896068E1,2.2331156E1,8.3382064E1,5.9691216E1,1.0743025999999999E1,1.171914E1,,,,2,12,14,25,26,29,31,21,32,,,,2,4,9,15,3,15,13,0,2,,,,
1571534951,2019-10-20 01:29:11.767,Acquired,Acquired,Acquired,Acquired,Acquired,Acquired,Acquired,Not acquired,Acquired,,,,4.7847491999999995E1,9.322583999999999E1,2.48789456E2,8.577344E1,2.84988256E2,1.7549334399999998E2,2.84800256E2,1.785776E2,2.23951216E2,,,,2.5422942E1,1.838297E1,2.5385697999999998E1,6.1896068E1,2.2331156E1,8.3382064E1,5.9691216E1,1.0743025999999999E1,1.171914E1,,,,2,12,14,25,26,29,31,21,32,,,,2,4,9,15,3,15,13,0,2,,,,
1571535011,2019-10-20 01:30:11.767,Acquired,Acquired,Acquired,Acquired,Acquired,Acquired,Acquired,Not acquired,Acquired,,,,4.7847491999999995E1,9.322583999999999E1,2.48789456E2,8.577344E1,2.84988256E2,1.7549334399999998E2,2.84800256E2,1.785776E2,2.23951216E2,,,,2.5422942E1,1.838297E1,2.5385697999999998E1,6.1896068E1,2.2331156E1,8.3382064E1,5.9691216E1,1.0743025999999999E1,1.171914E1,,,,2,12,14,25,26,29,31,21,32,,,,2,4,9,15,3,15,13,0,2,,,,
1571535071,2019-10-20 01:31:11.770,Acquired,Acquired,Acquired,Acquired,Acquired,Acquired,Acquired,Not acquired,Acquired,,,,4.7847491999999995E1,9.322583999999999E1,2.48789456E2,8.577344E1,2.84988256E2,1.7549334399999998E2,2.84800256E2,1.785776E2,2.23951216E2,,,,2.5422942E1,1.838297E1,2.5385697999999998E1,6.1896068E1,2.2331156E1,8.3382064E1,5.9691216E1,1.0743025999999999E1,1.171914E1,,,,2,12,14,25,26,29,31,21,32,,,,2,4,9,15,3,15,13,0,2,,,,
1571535131,2019-10-20 01:32:11.768,Acquired,Acquired,Acquired,Acquired,Acquired,Acquired,Acquired,Not acquired,Acquired,,,,4.7847491999999995E1,9.322583999999999E1,2.48789456E2,8.577344E1,2.84988256E2,1.7549334399999998E2,2.84800256E2,1.785776E2,2.23951216E2,,,,2.5422942E1,1.838297E1,2.5385697999999998E1,6.1896068E1,2.2331156E1,8.3382064E1,5.9691216E1,1.0743025999999999E1,1.171914E1,,,,2,12,14,25,26,29,31,21,32,,,,2,4,9,15,3,15,13,0,2,,,,
1571535191,2019-10-20 01:33:11.769,Acquired,Acquired,Acquired,Acquired,Acquired,Acquired,Acquired,Not acquired,Acquired,,,,4.7847491999999995E1,9.322583999999999E1,2.48789456E2,8.577344E1,2.84988256E2,1.7549334399999998E2,2.84800256E2,1.785776E2,2.23951216E2,,,,2.5422942E1,1.838297E1,2.5385697999999998E1,6.1896068E1,2.2331156E1,8.3382064E1,5.9691216E1,1.0743025999999999E1,1.171914E1,,,,2,12,14,25,26,29,31,21,32,,,,2,4,9,15,3,15,13,0,2,,,,
1571535251,2019-10-20 01:34:11.790,Acquired,Acquired,Acquired,Acquired,Acquired,Acquired,Acquired,Not acquired,Acquired,,,,4.7847491999999995E1,9.322583999999999E1,2.48789456E2,8.577344E1,2.84988256E2,1.7549334399999998E2,2.84800256E2,1.785776E2,2.23951216E2,,,,2.5422942E1,1.838297E1,2.5385697999999998E1,6.1896068E1,2.2331156E1,8.3382064E1,5.9691216E1,1.0743025999999999E1,1.171914E1,,,,2,12,14,25,26,29,31,21,32,,,,2,4,9,15,3,15,13,0,2,,,,
1571535311,2019-10-20 01:35:11.767,Acquired,Acquired,Acquired,Acquired,Acquired,Acquired,Acquired,Not acquired,Acquired,,,,4.7847491999999995E1,9.322583999999999E1,2.48789456E2,8.577344E1,2.84988256E2,1.7549334399999998E2,2.84800256E2,1.785776E2,2.23951216E2,,,,2.5422942E1,1.838297E1,2.5385697999999998E1,6.1896068E1,2.2331156E1,8.3382064E1,5.9691216E1,1.0743025999999999E1,1.171914E1,,,,2,12,14,25,26,29,31,21,32,,,,2,4,9,15,3,15,13,0,2,,,,
1571535371,2019-10-20 01:36:11.798,Acquired,Acquired,Acquired,Acquired,Acquired,Acquired,Acquired,Not acquired,Acquired,,,,4.7847491999999995E1,9.322583999999999E1,2.48789456E2,8.577344E1,2.84988256E2,1.7549334399999998E2,2.84800256E2,1.785776E2,2.23951216E2,,,,2.5422942E1,1.838297E1,2.5385697999999998E1,6.1896068E1,2.2331156E1,8.3382064E1,5.9691216E1,1.0743025999999999E1,1.171914E1,,,,2,12,14,25,26,29,31,21,32,,,,2,4,9,15,3,15,13,0,2,,,,
1571535431,2019-10-20 01:37:11.817,Acquired,Acquired,Acquired,Acquired,Acquired,Acquired,Acquired,Not acquired,Acquired,,,,4.7847491999999995E1,9.322583999999999E1,2.48789456E2,8.577344E1,2.84988256E2,1.7549334399999998E2,2.84800256E2,1.785776E2,2.23951216E2,,,,2.5422942E1,1.838297E1,2.5385697999999998E1,6.1896068E1,2.2331156E1,8.3382064E1,5.9691216E1,1.0743025999999999E1,1.171914E1,,,,2,12,14,25,26,29,31,21,32,,,,2,4,9,15,3,15,13,0,2,,,,
1571535491,2019-10-20 01:38:11.766,Acquired,Acquired,Acquired,Acquired,Acquired,Acquired,Acquired,Not acquired,Acquired,,,,4.7847491999999995E1,9.322583999999999E1,2.48789456E2,8.577344E1,2.84988256E2,1.7549334399999998E2,2.84800256E2,1.785776E2,2.23951216E2,,,,2.5422942E1,1.838297E1,2.5385697999999998E1,6.1896068E1,2.2331156E1,8.3382064E1,5.9691216E1,1.0743025999999999E1,1.171914E1,,,,2,12,14,25,26,29,31,21,32,,,,2,4,9,15,3,15,13,0,2,,,,
1571535551,2019-10-20 01:39:11.767,Acquired,Acquired,Acquired,Acquired,Acquired,Acquired,Acquired,Not acquired,Acquired,,,,4.7847491999999995E1,9.322583999999999E1,2.48789456E2,8.577344E1,2.84988256E2,1.7549334399999998E2,2.84800256E2,1.785776E2,2.23951216E2,,,,2.5422942E1,1.838297E1,2.5385697999999998E1,6.1896068E1,2.2331156E1,8.3382064E1,5.9691216E1,1.0743025999999999E1,1.171914E1,,,,2,12,14,25,26,29,31,21,32,,,,2,4,9,15,3,15,13,0,2,,,,
1571535611,2019-10-20 01:40:11.767,Acquired,Acquired,Acquired,Acquired,Acquired,Acquired,Acquired,Not acquired,Acquired,,,,4.7847491999999995E1,9.322583999999999E1,2.48789456E2,8.577344E1,2.84988256E2,1.7549334399999998E2,2.84800256E2,1.785776E2,2.23951216E2,,,,2.5422942E1,1.838297E1,2.5385697999999998E1,6.1896068E1,2.2331156E1,8.3382064E1,5.9691216E1,1.0743025999999999E1,1.171914E1,,,,2,12,14,25,26,29,31,21,32,,,,2,4,9,15,3,15,13,0,2,,,,
1571535671,2019-10-20 01:41:11.767,Acquired,Acquired,Acquired,Acquired,Acquired,Acquired,Acquired,Not acquired,Acquired,,,,4.7847491999999995E1,9.322583999999999E1,2.48789456E2,8.577344E1,2.84988256E2,1.7549334399999998E2,2.84800256E2,1.785776E2,2.23951216E2,,,,2.5422942E1,1.838297E1,2.5385697999999998E1,6.1896068E1,2.2331156E1,8.3382064E1,5.9691216E1,1.0743025999999999E1,1.171914E1,,,,2,12,14,25,26,29,31,21,32,,,,2,4,9,15,3,15,13,0,2,,,,
1571535731,2019-10-20 01:42:11.767,Acquired,Acquired,Acquired,Acquired,Acquired,Acquired,Acquired,Not acquired,Acquired,,,,4.7847491999999995E1,9.322583999999999E1,2.48789456E2,8.577344E1,2.84988256E2,1.7549334399999998E2,2.84800256E2,1.785776E2,2.23951216E2,,,,2.5422942E1,1.838297E1,2.5385697999999998E1,6.1896068E1,2.2331156E1,8.3382064E1,5.9691216E1,1.0743025999999999E1,1.171914E1,,,,2,12,14,25,26,29,31,21,32,,,,2,4,9,15,3,15,13,0,2,,,,
1571535791,2019-10-20 01:43:11.767,Acquired,Acquired,Acquired,Acquired,Acquired,Acquired,Acquired,Not acquired,Acquired,,,,4.7847491999999995E1,9.322583999999999E1,2.48789456E2,8.577344E1,2.84988256E2,1.7549334399999998E2,2.84800256E2,1.785776E2,2.23951216E2,,,,2.5422942E1,1.838297E1,2.5385697999999998E1,6.1896068E1,2.2331156E1,8.3382064E1,5.9691216E1,1.0743025999999999E1,1.171914E1,,,,2,12,14,25,26,29,31,21,32,,,,2,4,9,15,3,15,13,0,2,,,,
1571535851,2019-10-20 01:44:11.767,Acquired,Acquired,Acquired,Acquired,Acquired,Acquired,Acquired,Not acquired,Acquired,,,,4.7847491999999995E1,9.322583999999999E1,2.48789456E2,8.577344E1,2.84988256E2,1.7549334399999998E2,2.84800256E2,1.785776E2,2.23951216E2,,,,2.5422942E1,1.838297E1,2.5385697999999998E1,6.1896068E1,2.2331156E1,8.3382064E1,5.9691216E1,1.0743025999999999E1,1.171914E1,,,,2,12,14,25,26,29,31,21,32,,,,2,4,9,15,3,15,13,0,2,,,,
1571535911,2019-10-20 01:45:11.767,Acquired,Acquired,Acquired,Acquired,Acquired,Acquired,Acquired,Not acquired,Acquired,,,,4.7847491999999995E1,9.322583999999999E1,2.48789456E2,8.577344E1,2.84988256E2,1.7549334399999998E2,2.84800256E2,1.785776E2,2.23951216E2,,,,2.5422942E1,1.838297E1,2.5385697999999998E1,6.1896068E1,2.2331156E1,8.3382064E1,5.9691216E1,1.0743025999999999E1,1.171914E1,,,,2,12,14,25,26,29,31,21,32,,,,2,4,9,15,3,15,13,0,2,,,,
1571535971,2019-10-20 01:46:11.767,Acquired,Acquired,Acquired,Acquired,Acquired,Acquired,Acquired,Not acquired,Acquired,,,,4.7847491999999995E1,9.322583999999999E1,2.48789456E2,8.577344E1,2.84988256E2,1.7549334399999998E2,2.84800256E2,1.785776E2,2.23951216E2,,,,2.5422942E1,1.838297E1,2.5385697999999998E1,6.1896068E1,2.2331156E1,8.3382064E1,5.9691216E1,1.0743025999999999E1,1.171914E1,,,,2,12,14,25,26,29,31,21,32,,,,2,4,9,15,3,15,13,0,2,,,,
1571536031,2019-10-20 01:47:11.767,Acquired,Acquired,Acquired,Acquired,Acquired,Acquired,Acquired,Not acquired,Acquired,,,,4.7847491999999995E1,9.322583999999999E1,2.48789456E2,8.577344E1,2.84988256E2,1.7549334399999998E2,2.84800256E2,1.785776E2,2.23951216E2,,,,2.5422942E1,1.838297E1,2.5385697999999998E1,6.1896068E1,2.2331156E1,8.3382064E1,5.9691216E1,1.0743025999999999E1,1.171914E1,,,,2,12,14,25,26,29,31,21,32,,,,2,4,9,15,3,15,13,0,2,,,,
1571536091,2019-10-20 01:48:11.767,Acquired,Acquired,Acquired,Acquired,Acquired,Acquired,Acquired,Not acquired,Acquired,,,,4.7847491999999995E1,9.322583999999999E1,2.48789456E2,8.577344E1,2.84988256E2,1.7549334399999998E2,2.84800256E2,1.785776E2,2.23951216E2,,,,2.5422942E1,1.838297E1,2.5385697999999998E1,6.1896068E1,2.2331156E1,8.3382064E1,5.9691216E1,1.0743025999999999E1,1.171914E1,,,,2,12,14,25,26,29,31,21,32,,,,2,4,9,15,3,15,13,0,2,,,,
1571536151,2019-10-20 01:49:11.767,Acquired,Acquired,Acquired,Acquired,Acquired,Acquired,Acquired,Not acquired,Acquired,,,,4.7847491999999995E1,9.322583999999999E1,2.48789456E2,8.577344E1,2.84988256E2,1.7549334399999998E2,2.84800256E2,1.785776E2,2.23951216E2,,,,2.5422942E1,1.838297E1,2.5385697999999998E1,6.1896068E1,2.2331156E1,8.3382064E1,5.9691216E1,1.0743025999999999E1,1.171914E1,,,,2,12,14,25,26,29,31,21,32,,,,2,4,9,15,3,15,13,0,2,,,,
1571536211,2019-10-20 01:50:11.767,Acquired,Acquired,Acquired,Acquired,Acquired,Acquired,Acquired,Not acquired,Acquired,,,,4.7847491999999995E1,9.322583999999999E1,2.48789456E2,8.577344E1,2.84988256E2,1.7549334399999998E2,2.84800256E2,1.785776E2,2.23951216E2,,,,2.5422942E1,1.838297E1,2.5385697999999998E1,6.1896068E1,2.2331156E1,8.3382064E1,5.9691216E1,1.0743025999999999E1,1.171914E1,,,,2,12,14,25,26,29,31,21,32,,,,2,4,9,15,3,15,13,0,2,,,,
1571536271,2019-10-20 01:51:11.767,Acquired,Acquired,Acquired,Acquired,Acquired,Acquired,Acquired,Not acquired,Acquired,,,,4.7847491999999995E1,9.322583999999999E1,2.48789456E2,8.577344E1,2.84988256E2,1.7549334399999998E2,2.84800256E2,1.785776E2,2.23951216E2,,,,2.5422942E1,1.838297E1,2.5385697999999998E1,6.1896068E1,2.2331156E1,8.3382064E1,5.9691216E1,1.0743025999999999E1,1.171914E1,,,,2,12,14,25,26,29,31,21,32,,,,2,4,9,15,3,15,13,0,2,,,,
1571536331,2019-10-20 01:52:11.767,Acquired,Acquired,Acquired,Acquired,Acquired,Acquired,Acquired,Not acquired,Acquired,,,,4.7847491999999995E1,9.322583999999999E1,2.48789456E2,8.577344E1,2.84988256E2,1.7549334399999998E2,2.84800256E2,1.785776E2,2.23951216E2,,,,2.5422942E1,1.838297E1,2.5385697999999998E1,6.1896068E1,2.2331156E1,8.3382064E1,5.9691216E1,1.0743025999999999E1,1.171914E1,,,,2,12,14,25,26,29,31,21,32,,,,2,4,9,15,3,15,13,0,2,,,,
1571536391,2019-10-20 01:53:11.767,Acquired,Acquired,Acquired,Acquired,Acquired,Acquired,Acquired,Not acquired,Acquired,,,,4.7847491999999995E1,9.322583999999999E1,2.48789456E2,8.577344E1,2.84988256E2,1.7549334399999998E2,2.84800256E2,1.785776E2,2.23951216E2,,,,2.5422942E1,1.838297E1,2.5385697999999998E1,6.1896068E1,2.2331156E1,8.3382064E1,5.9691216E1,1.0743025999999999E1,1.171914E1,,,,2,12,14,25,26,29,31,21,32,,,,2,4,9,15,3,15,13,0,2,,,,
1571536451,2019-10-20 01:54:11.767,Acquired,Acquired,Acquired,Acquired,Acquired,Acquired,Acquired,Not acquired,Acquired,,,,4.7847491999999995E1,9.322583999999999E1,2.48789456E2,8.577344E1,2.84988256E2,1.7549334399999998E2,2.84800256E2,1.785776E2,2.23951216E2,,,,2.5422942E1,1.838297E1,2.5385697999999998E1,6.1896068E1,2.2331156E1,8.3382064E1,5.9691216E1,1.0743025999999999E1,1.171914E1,,,,2,12,14,25,26,29,31,21,32,,,,2,4,9,15,3,15,13,0,2,,,,
1571536511,2019-10-20 01:55:11.767,Acquired,Acquired,Acquired,Acquired,Acquired,Acquired,Acquired,Not acquired,Acquired,,,,4.7847491999999995E1,9.322583999999999E1,2.48789456E2,8.577344E1,2.84988256E2,1.7549334399999998E2,2.84800256E2,1.785776E2,2.23951216E2,,,,2.5422942E1,1.838297E1,2.5385697999999998E1,6.1896068E1,2.2331156E1,8.3382064E1,5.9691216E1,1.0743025999999999E1,1.171914E1,,,,2,12,14,25,26,29,31,21,32,,,,2,4,9,15,3,15,13,0,2,,,,
1571536571,2019-10-20 01:56:11.767,Acquired,Acquired,Acquired,Acquired,Acquired,Acquired,Acquired,Not acquired,Acquired,,,,4.7847491999999995E1,9.322583999999999E1,2.48789456E2,8.577344E1,2.84988256E2,1.7549334399999998E2,2.84800256E2,1.785776E2,2.23951216E2,,,,2.5422942E1,1.838297E1,2.5385697999999998E1,6.1896068E1,2.2331156E1,8.3382064E1,5.9691216E1,1.0743025999999999E1,1.171914E1,,,,2,12,14,25,26,29,31,21,32,,,,2,4,9,15,3,15,13,0,2,,,,
1571536631,2019-10-20 01:57:11.767,Acquired,Acquired,Acquired,Acquired,Acquired,Acquired,Acquired,Not acquired,Acquired,,,,4.7847491999999995E1,9.322583999999999E1,2.48789456E2,8.577344E1,2.84988256E2,1.7549334399999998E2,2.84800256E2,1.785776E2,2.23951216E2,,,,2.5422942E1,1.838297E1,2.5385697999999998E1,6.1896068E1,2.2331156E1,8.3382064E1,5.9691216E1,1.0743025999999999E1,1.171914E1,,,,2,12,14,25,26,29,31,21,32,,,,2,4,9,15,3,15,13,0,2,,,,
1571536691,2019-10-20 01:58:11.767,Acquired,Acquired,Acquired,Acquired,Acquired,Acquired,Acquired,Not acquired,Acquired,,,,4.7847491999999995E1,9.322583999999999E1,2.48789456E2,8.577344E1,2.84988256E2,1.7549334399999998E2,2.84800256E2,1.785776E2,2.23951216E2,,,,2.5422942E1,1.838297E1,2.5385697999999998E1,6.1896068E1,2.2331156E1,8.3382064E1,5.9691216E1,1.0743025999999999E1,1.171914E1,,,,2,12,14,25,26,29,31,21,32,,,,2,4,9,15,3,15,13,0,2,,,,
1571536751,2019-10-20 01:59:11.799,Acquired,Acquired,Acquired,Acquired,Acquired,Acquired,Acquired,Not acquired,Acquired,,,,4.7847491999999995E1,9.322583999999999E1,2.48789456E2,8.577344E1,2.84988256E2,1.7549334399999998E2,2.84800256E2,1.785776E2,2.23951216E2,,,,2.5422942E1,1.838297E1,2.5385697999999998E1,6.1896068E1,2.2331156E1,8.3382064E1,5.9691216E1,1.0743025999999999E1,1.171914E1,,,,2,12,14,25,26,29,31,21,32,,,,2,4,9,15,3,15,13,0,2,,,,
