Time(longsecs),Time(UTC),External SOH Voltage 1(V),External SOH Voltage 2(V),External SOH Voltage 3(V),External SOH Voltage 4(V),Sensor SOH Voltage 1(V),Sensor SOH Voltage 2(V),Sensor SOH Voltage 3(V),
1572228030,2019-10-28 02:00:30.926,-4.2905807E-3,-3.1085014E-3,5.1267147E-3,-1.2574196E-3,4.8634338E-1,4.845934E-1,4.8276806E-1,
1572228090,2019-10-28 02:01:30.926,-4.415989E-3,-4.1401386E-3,4.106283E-3,-1.4841557E-3,4.8140907E-1,4.804716E-1,4.749422E-1,
1572228150,2019-10-28 02:02:30.926,-6.5591335E-3,-5.820036E-3,2.547741E-3,-4.142761E-3,4.7318172E-1,4.7205448E-1,4.6932697E-1,
1572228210,2019-10-28 02:03:30.926,-4.63295E-3,-4.226446E-3,4.470587E-3,-1.9512177E-3,4.8097706E-1,4.8031902E-1,4.7825146E-1,
1572228270,2019-10-28 02:04:30.926,-4.2254925E-3,-3.3955574E-3,4.6515465E-3,-1.7557144E-3,4.827137E-1,4.8205853E-1,4.8175144E-1,
1572228330,2019-10-28 02:05:30.926,-2.7217865E-3,-1.4512539E-3,6.7350864E-3,3.964901E-4,4.8886204E-1,4.8825645E-1,4.8613548E-1,
1572228390,2019-10-28 02:06:30.926,-2.5699139E-3,-1.1692047E-3,6.677389E-3,1.1222363E-3,4.893942E-1,4.8765278E-1,4.8384E-1,
1572228450,2019-10-28 02:07:30.926,-6.5345764E-3,-5.895853E-3,2.4318695E-3,-4.024029E-3,4.7787476E-1,4.7741604E-1,4.7472668E-1,
1572228510,2019-10-28 02:08:30.926,-6.659746E-3,-5.586624E-3,2.4337769E-3,-4.4038296E-3,4.7623634E-1,4.769621E-1,4.7365093E-1,
1572228570,2019-10-28 02:09:30.926,-4.4608116E-3,-3.1266212E-3,4.9979687E-3,-1.4967918E-3,4.7539234E-1,4.7496986E-1,4.7418976E-1,
1572228630,2019-10-28 02:10:30.926,-1.9972324E-3,-1.2078285E-3,6.6337585E-3,6.015301E-4,4.864645E-1,4.8632526E-1,4.8411083E-1,
1572228690,2019-10-28 02:11:30.926,-1.8181801E-3,-1.187563E-3,6.5932274E-3,6.773472E-4,4.9247932E-1,4.9053574E-1,4.8766804E-1,
1572228750,2019-10-28 02:12:30.926,-4.0330887E-3,-3.0755997E-3,5.2525997E-3,-1.352787E-3,4.8093033E-1,4.8119164E-1,4.7899628E-1,
1572228810,2019-10-28 02:13:30.926,-4.638672E-3,-4.291773E-3,4.2455196E-3,-2.077341E-3,4.7914696E-1,4.7841167E-1,4.7541428E-1,
1572228870,2019-10-28 02:14:30.926,-1.7359257E-3,-1.2202263E-3,6.8793297E-3,9.827614E-4,4.8566055E-1,4.8559475E-1,4.8230743E-1,
1572228930,2019-10-28 02:15:30.960,-6.360531E-3,-5.389452E-3,2.5744438E-3,-3.8955212E-3,4.7657967E-1,4.7590256E-1,4.733038E-1,
1572228990,2019-10-28 02:16:30.926,-4.732132E-3,-4.003763E-3,4.4157505E-3,-2.143383E-3,4.8125458E-1,4.791422E-1,4.7794628E-1,
1572229050,2019-10-28 02:17:30.935,-6.7470074E-3,-5.9781075E-3,3.0534267E-3,-3.8962364E-3,4.7417164E-1,4.743719E-1,4.7235966E-1,
1572229110,2019-10-28 02:18:30.926,-6.7596436E-3,-5.865574E-3,2.3450851E-3,-4.0910244E-3,4.7277832E-1,4.7116184E-1,4.7048855E-1,
1572229170,2019-10-28 02:19:30.926,-4.5950413E-3,-4.2362213E-3,4.5342445E-3,-1.7127991E-3,4.819374E-1,4.811697E-1,4.7891903E-1,
1572229230,2019-10-28 02:20:30.926,-2.3753643E-3,-1.2772083E-3,6.8142414E-3,-9.202957E-5,4.817562E-1,4.790058E-1,4.7785378E-1,
1572229290,2019-10-28 02:21:30.926,-4.8470497E-3,-3.8368702E-3,4.459381E-3,-2.1095276E-3,4.8386765E-1,4.8086643E-1,4.8054504E-1,
1572229350,2019-10-28 02:22:30.926,-4.6765804E-3,-3.8237572E-3,4.3931007E-3,-2.138853E-3,4.8510742E-1,4.8366642E-1,4.82131E-1,
1572229410,2019-10-28 02:23:30.928,-4.953146E-3,-3.5963058E-3,4.7302246E-3,-2.1409988E-3,4.8086643E-1,4.8055363E-1,4.8255634E-1,
1572229470,2019-10-28 02:24:30.926,-2.27499E-3,-1.4576912E-3,6.3188076E-3,5.3858757E-4,4.8534775E-1,4.8417854E-1,4.81987E-1,
1572229530,2019-10-28 02:25:30.926,-4.127264E-3,-3.1599998E-3,4.9717426E-3,-1.7950535E-3,4.8160458E-1,4.8122692E-1,4.7847557E-1,
1572229590,2019-10-28 02:26:30.929,-4.254341E-3,-3.3586025E-3,4.878044E-3,-1.5535355E-3,4.827633E-1,4.8301888E-1,4.814949E-1,
1572229650,2019-10-28 02:27:30.926,-6.6919327E-3,-5.853653E-3,2.403736E-3,-4.2278767E-3,4.7545338E-1,4.7469616E-1,4.719057E-1,
1572229710,2019-10-28 02:28:30.926,-2.2757053E-3,-1.3959408E-3,6.80542E-3,8.790493E-4,4.8948765E-1,4.8941326E-1,4.8613548E-1,
1572229770,2019-10-28 02:29:30.926,-5.0320625E-3,-3.7674904E-3,4.432678E-3,-2.5377274E-3,4.806795E-1,4.8014832E-1,4.7736263E-1,
1572229830,2019-10-28 02:30:30.926,-6.808996E-3,-5.345106E-3,2.560854E-3,-3.8723946E-3,4.778204E-1,4.762907E-1,4.7462273E-1,
1572229890,2019-10-28 02:31:30.926,-2.3915768E-3,-1.4801025E-3,6.904125E-3,4.105568E-4,4.8147202E-1,4.8009396E-1,4.7826385E-1,
1572229950,2019-10-28 02:32:30.926,-4.5850277E-3,-3.6728382E-3,4.4178963E-3,-1.8167496E-3,4.832163E-1,4.8189926E-1,4.8142338E-1,
1572230010,2019-10-28 02:33:30.926,-4.7147274E-3,-4.1196346E-3,4.377842E-3,-1.9323826E-3,4.8474312E-1,4.838705E-1,4.8301315E-1,
1572230070,2019-10-28 02:34:30.926,-4.221916E-3,-3.2775402E-3,5.230427E-3,-1.7778873E-3,4.833622E-1,4.8029995E-1,4.7939777E-1,
1572230130,2019-10-28 02:35:30.926,-6.6792965E-3,-6.1068535E-3,2.3055077E-3,-4.0388107E-3,4.7487068E-1,4.7391987E-1,4.7273636E-1,
1572230190,2019-10-28 02:36:30.926,-4.6741962E-3,-4.131317E-3,4.7562122E-3,-1.7614365E-3,4.8562527E-1,4.8408222E-1,4.8211098E-1,
1572230250,2019-10-28 02:37:30.928,-4.5297146E-3,-4.112482E-3,4.3206215E-3,-1.6329288E-3,4.8286438E-1,4.8213387E-1,4.7873402E-1,
1572230310,2019-10-28 02:38:30.926,-2.3875237E-3,-1.6326904E-3,6.7203045E-3,3.9720535E-4,4.8707104E-1,4.8592854E-1,4.84313E-1,
1572230370,2019-10-28 02:39:30.926,-3.7107468E-3,-3.4103394E-3,4.5137405E-3,-1.283884E-3,4.8312378E-1,4.8040962E-1,4.7886944E-1,
1572230430,2019-10-28 02:40:30.926,-2.4559498E-3,-1.3887882E-3,6.811619E-3,2.1266937E-4,4.8876572E-1,4.8904133E-1,4.8741055E-1,
1572230490,2019-10-28 02:41:30.926,-6.6480637E-3,-6.0460567E-3,2.4914742E-3,-4.077196E-3,4.7612762E-1,4.748478E-1,4.729929E-1,
1572230550,2019-10-28 02:42:30.926,-4.037857E-3,-3.4079552E-3,4.916191E-3,-1.4588833E-3,4.7996426E-1,4.777403E-1,4.7500134E-1,
1572230610,2019-10-28 02:43:30.926,-2.0813942E-3,-1.5187263E-3,6.7329407E-3,-4.529953E-6,4.9020195E-1,4.9008942E-1,4.8660183E-1,
1572230670,2019-10-28 02:44:30.927,-6.9270134E-3,-5.6915283E-3,2.748251E-3,-3.986597E-3,4.8351002E-1,4.8115826E-1,4.7971916E-1,
1572230730,2019-10-28 02:45:30.926,-6.6480637E-3,-5.801916E-3,2.5110245E-3,-4.496813E-3,4.7625256E-1,4.753275E-1,4.735489E-1,
1572230790,2019-10-28 02:46:30.926,-6.708145E-3,-5.5098534E-3,2.8045177E-3,-3.985882E-3,4.7540092E-1,4.7449875E-1,4.7201538E-1,
1572230850,2019-10-28 02:47:30.926,-4.44746E-3,-4.1811466E-3,4.3098927E-3,-2.5560856E-3,4.8055077E-1,4.800434E-1,4.7747135E-1,
1572230910,2019-10-28 02:48:30.926,-1.8117428E-3,-1.1467934E-3,7.083416E-3,3.798008E-4,4.9225616E-1,4.899025E-1,4.8808575E-1,
1572230970,2019-10-28 02:49:30.926,-4.518509E-3,-3.483057E-3,4.4095516E-3,-1.8901825E-3,4.8449898E-1,4.850073E-1,4.8261166E-1,
1572231030,2019-10-28 02:50:30.926,-2.2230148E-3,-1.193285E-3,6.6924095E-3,4.2200089E-4,4.896574E-1,4.8780727E-1,4.8598385E-1,
1572231090,2019-10-28 02:51:30.926,-2.0315647E-3,-1.5025139E-3,6.836891E-3,1.6307831E-4,4.904127E-1,4.8865318E-1,4.8666382E-1,
1572231150,2019-10-28 02:52:30.926,-2.1698475E-3,-1.2972355E-3,6.3476562E-3,-7.009506E-5,4.891863E-1,4.8887634E-1,4.8620605E-1,
1572231210,2019-10-28 02:53:30.926,-4.68421E-3,-3.5877228E-3,4.428625E-3,-1.899004E-3,4.7759628E-1,4.785204E-1,4.759903E-1,
1572231270,2019-10-28 02:54:30.926,-2.282858E-3,-1.593113E-3,6.7739487E-3,1.2588501E-4,4.8771954E-1,4.859066E-1,4.8725128E-1,
1572231330,2019-10-28 02:55:30.926,-4.238367E-3,-3.2470226E-3,5.129814E-3,-1.5103817E-3,4.8649883E-1,4.854765E-1,4.8442173E-1,
1572231390,2019-10-28 02:56:30.926,-2.309084E-3,-1.4002323E-3,7.1439743E-3,6.77824E-4,4.8943424E-1,4.883337E-1,4.865942E-1,
1572231450,2019-10-28 02:57:30.927,-4.482746E-3,-3.7882328E-3,4.1587353E-3,-2.1600723E-3,4.7959232E-1,4.775467E-1,4.7981548E-1,
1572231510,2019-10-28 02:58:30.926,-6.1216354E-3,-5.7475567E-3,2.2616386E-3,-4.0431023E-3,4.750061E-1,4.7333336E-1,4.723568E-1,
1572231570,2019-10-28 02:59:30.926,-4.2197704E-3,-3.3817291E-3,5.2609444E-3,-1.3008118E-3,4.8542786E-1,4.8575974E-1,4.830141E-1,
