Time(longsecs),Time(UTC),Earth Location,GPS Receiver Status,GPS Satellites Used,GPS PDOP,GPS TDOP,Timing Status,Timing Phase Lock,Timing Uncertainty(ns),DAC Count,Timing Error(ns),GPS Last Update Time,
1572264030,2019-10-28 12:00:30.925,47.638718N 0.549088E 175m,Off,10,1.6529669,0.9188003,Time OK,Free running,30500,8602,0,2019-10-28 11:41:48.000000000,
1572264090,2019-10-28 12:01:30.925,47.638718N 0.549088E 175m,Off,10,1.6529669,0.9188003,Time OK,Free running,32900,8602,0,2019-10-28 11:41:48.000000000,
1572264150,2019-10-28 12:02:30.926,47.638718N 0.549088E 175m,Off,10,1.6529669,0.9188003,Time OK,Free running,35800,8602,0,2019-10-28 11:41:48.000000000,
1572264210,2019-10-28 12:03:30.925,47.638718N 0.549088E 175m,Off,10,1.6529669,0.9188003,Time OK,Free running,38700,8602,0,2019-10-28 11:41:48.000000000,
1572264270,2019-10-28 12:04:30.927,47.638718N 0.549088E 175m,Off,10,1.6529669,0.9188003,Time OK,Free running,41700,8602,0,2019-10-28 11:41:48.000000000,
1572264330,2019-10-28 12:05:30.925,47.638718N 0.549088E 175m,Off,10,1.6529669,0.9188003,Time OK,Free running,45000,8602,0,2019-10-28 11:41:48.000000000,
1572264390,2019-10-28 12:06:30.925,47.638718N 0.549088E 175m,Off,10,1.6529669,0.9188003,Time OK,Free running,48400,8602,0,2019-10-28 11:41:48.000000000,
1572264450,2019-10-28 12:07:30.926,47.638718N 0.549088E 175m,Off,10,1.6529669,0.9188003,Time OK,Free running,52100,8602,0,2019-10-28 11:41:48.000000000,
1572264510,2019-10-28 12:08:30.926,47.638718N 0.549088E 175m,Doing fixes,8,2.0052862,1.0518714,Time OK,Coarse lock,100,10361,-20104,2019-10-28 12:08:28.000000000,
1572264570,2019-10-28 12:09:30.928,47.638718N 0.549088E 175m,Doing fixes,9,1.8545642,0.9833889,Time OK,Coarse lock,100,8650,208,2019-10-28 12:09:28.000000000,
1572264630,2019-10-28 12:10:30.926,47.638718N 0.549088E 175m,Doing fixes,9,1.8335351,0.96886146,Time OK,Fine lock,100,8680,0,2019-10-28 12:10:28.000000000,
1572264690,2019-10-28 12:11:30.925,47.638718N 0.549088E 175m,Off,9,1.8166618,0.95717525,Time OK,Free running,200,8686,0,2019-10-28 12:11:18.000000000,
1572264750,2019-10-28 12:12:30.964,47.638718N 0.549088E 175m,Off,9,1.8166618,0.95717525,Time OK,Free running,1200,8686,0,2019-10-28 12:11:18.000000000,
1572264810,2019-10-28 12:13:30.925,47.638718N 0.549088E 175m,Off,9,1.8166618,0.95717525,Time OK,Free running,3100,8686,0,2019-10-28 12:11:18.000000000,
1572264870,2019-10-28 12:14:30.925,47.638718N 0.549088E 175m,Off,9,1.8166618,0.95717525,Time OK,Free running,5300,8686,0,2019-10-28 12:11:18.000000000,
1572264930,2019-10-28 12:15:30.926,47.638718N 0.549088E 175m,Off,9,1.8166618,0.95717525,Time OK,Free running,7200,8686,0,2019-10-28 12:11:18.000000000,
1572264990,2019-10-28 12:16:30.925,47.638718N 0.549088E 175m,Off,9,1.8166618,0.95717525,Time OK,Free running,9100,8686,0,2019-10-28 12:11:18.000000000,
1572265050,2019-10-28 12:17:30.926,47.638718N 0.549088E 175m,Off,9,1.8166618,0.95717525,Time OK,Free running,11000,8686,0,2019-10-28 12:11:18.000000000,
1572265110,2019-10-28 12:18:30.925,47.638718N 0.549088E 175m,Off,9,1.8166618,0.95717525,Time OK,Free running,13000,8686,0,2019-10-28 12:11:18.000000000,
1572265170,2019-10-28 12:19:30.941,47.638718N 0.549088E 175m,Off,9,1.8166618,0.95717525,Time OK,Free running,15200,8686,0,2019-10-28 12:11:18.000000000,
1572265230,2019-10-28 12:20:30.926,47.638718N 0.549088E 175m,Off,9,1.8166618,0.95717525,Time OK,Free running,17500,8686,0,2019-10-28 12:11:18.000000000,
1572265290,2019-10-28 12:21:30.925,47.638718N 0.549088E 175m,Off,9,1.8166618,0.95717525,Time OK,Free running,19700,8686,0,2019-10-28 12:11:18.000000000,
1572265350,2019-10-28 12:22:30.925,47.638718N 0.549088E 175m,Off,9,1.8166618,0.95717525,Time OK,Free running,22200,8686,0,2019-10-28 12:11:18.000000000,
1572265410,2019-10-28 12:23:30.925,47.638718N 0.549088E 175m,Off,9,1.8166618,0.95717525,Time OK,Free running,24900,8686,0,2019-10-28 12:11:18.000000000,
1572265470,2019-10-28 12:24:30.925,47.638718N 0.549088E 175m,Off,9,1.8166618,0.95717525,Time OK,Free running,27800,8686,0,2019-10-28 12:11:18.000000000,
1572265530,2019-10-28 12:25:30.925,47.638718N 0.549088E 175m,Off,9,1.8166618,0.95717525,Time OK,Free running,31000,8686,0,2019-10-28 12:11:18.000000000,
1572265590,2019-10-28 12:26:30.925,47.638718N 0.549088E 175m,Off,9,1.8166618,0.95717525,Time OK,Free running,34000,8686,0,2019-10-28 12:11:18.000000000,
1572265650,2019-10-28 12:27:30.925,47.638718N 0.549088E 175m,Off,9,1.8166618,0.95717525,Time OK,Free running,37200,8686,0,2019-10-28 12:11:18.000000000,
1572265710,2019-10-28 12:28:30.925,47.638718N 0.549088E 175m,Off,9,1.8166618,0.95717525,Time OK,Free running,40600,8686,0,2019-10-28 12:11:18.000000000,
1572265770,2019-10-28 12:29:30.938,47.638718N 0.549088E 175m,Off,9,1.8166618,0.95717525,Time OK,Free running,43800,8686,0,2019-10-28 12:11:18.000000000,
1572265830,2019-10-28 12:30:30.925,47.638718N 0.549088E 175m,Off,9,1.8166618,0.95717525,Time OK,Free running,46900,8686,0,2019-10-28 12:11:18.000000000,
1572265890,2019-10-28 12:31:30.925,47.638718N 0.549088E 175m,Off,9,1.8166618,0.95717525,Time OK,Free running,50300,8686,0,2019-10-28 12:11:18.000000000,
1572265950,2019-10-28 12:32:30.926,47.638718N 0.549088E 175m,No GPS time,0,0.0,0.0,Time OK,Free running,54100,8686,0,2019-10-28 12:32:28.000000000,
1572266010,2019-10-28 12:33:30.926,47.638718N 0.549088E 175m,Doing fixes,9,1.6577271,0.89306957,Time OK,Coarse lock,100,8904,416,2019-10-28 12:33:28.000000000,
1572266070,2019-10-28 12:34:30.926,47.638718N 0.549088E 175m,Doing fixes,8,1.8681841,1.0878487,Time OK,Fine lock,100,8760,0,2019-10-28 12:34:28.000000000,
1572266130,2019-10-28 12:35:30.925,47.638718N 0.549088E 175m,Off,8,1.8692997,1.0885986,Time OK,Free running,800,8760,0,2019-10-28 12:34:38.000000000,
1572266190,2019-10-28 12:36:30.925,47.638718N 0.549088E 175m,Off,8,1.8692997,1.0885986,Time OK,Free running,1600,8760,0,2019-10-28 12:34:38.000000000,
1572266250,2019-10-28 12:37:30.925,47.638718N 0.549088E 175m,Off,8,1.8692997,1.0885986,Time OK,Free running,2600,8760,0,2019-10-28 12:34:38.000000000,
1572266310,2019-10-28 12:38:30.925,47.638718N 0.549088E 175m,Off,8,1.8692997,1.0885986,Time OK,Free running,3800,8760,0,2019-10-28 12:34:38.000000000,
1572266370,2019-10-28 12:39:30.925,47.638718N 0.549088E 175m,Off,8,1.8692997,1.0885986,Time OK,Free running,5000,8760,0,2019-10-28 12:34:38.000000000,
1572266430,2019-10-28 12:40:30.925,47.638718N 0.549088E 175m,Off,8,1.8692997,1.0885986,Time OK,Free running,6300,8760,0,2019-10-28 12:34:38.000000000,
1572266490,2019-10-28 12:41:30.926,47.638718N 0.549088E 175m,Off,8,1.8692997,1.0885986,Time OK,Free running,7900,8760,0,2019-10-28 12:34:38.000000000,
1572266550,2019-10-28 12:42:30.925,47.638718N 0.549088E 175m,Off,8,1.8692997,1.0885986,Time OK,Free running,9700,8760,0,2019-10-28 12:34:38.000000000,
1572266610,2019-10-28 12:43:30.925,47.638718N 0.549088E 175m,Off,8,1.8692997,1.0885986,Time OK,Free running,11300,8760,0,2019-10-28 12:34:38.000000000,
1572266670,2019-10-28 12:44:30.927,47.638718N 0.549088E 175m,Off,8,1.8692997,1.0885986,Time OK,Free running,12700,8760,0,2019-10-28 12:34:38.000000000,
1572266730,2019-10-28 12:45:30.925,47.638718N 0.549088E 175m,Off,8,1.8692997,1.0885986,Time OK,Free running,14300,8760,0,2019-10-28 12:34:38.000000000,
1572266790,2019-10-28 12:46:30.925,47.638718N 0.549088E 175m,Off,8,1.8692997,1.0885986,Time OK,Free running,16200,8760,0,2019-10-28 12:34:38.000000000,
1572266850,2019-10-28 12:47:30.925,47.638718N 0.549088E 175m,Off,8,1.8692997,1.0885986,Time OK,Free running,18400,8760,0,2019-10-28 12:34:38.000000000,
1572266910,2019-10-28 12:48:30.925,47.638718N 0.549088E 175m,Off,8,1.8692997,1.0885986,Time OK,Free running,20700,8760,0,2019-10-28 12:34:38.000000000,
1572266970,2019-10-28 12:49:30.925,47.638718N 0.549088E 175m,Off,8,1.8692997,1.0885986,Time OK,Free running,23000,8760,0,2019-10-28 12:34:38.000000000,
1572267030,2019-10-28 12:50:30.955,47.638718N 0.549088E 175m,Off,8,1.8692997,1.0885986,Time OK,Free running,25600,8760,0,2019-10-28 12:34:38.000000000,
1572267090,2019-10-28 12:51:30.926,47.638718N 0.549088E 175m,Off,8,1.8692997,1.0885986,Time OK,Free running,28200,8760,0,2019-10-28 12:34:38.000000000,
1572267150,2019-10-28 12:52:30.925,47.638718N 0.549088E 175m,Off,8,1.8692997,1.0885986,Time OK,Free running,30900,8760,0,2019-10-28 12:34:38.000000000,
1572267210,2019-10-28 12:53:30.925,47.638718N 0.549088E 175m,Off,8,1.8692997,1.0885986,Time OK,Free running,33700,8760,0,2019-10-28 12:34:38.000000000,
1572267270,2019-10-28 12:54:30.925,47.638718N 0.549088E 175m,Off,8,1.8692997,1.0885986,Time OK,Free running,36200,8760,0,2019-10-28 12:34:38.000000000,
1572267330,2019-10-28 12:55:30.925,47.638718N 0.549088E 175m,Off,8,1.8692997,1.0885986,Time OK,Free running,38800,8760,0,2019-10-28 12:34:38.000000000,
1572267390,2019-10-28 12:56:30.926,47.638718N 0.549088E 175m,Off,8,1.8692997,1.0885986,Time OK,Free running,41800,8760,0,2019-10-28 12:34:38.000000000,
1572267450,2019-10-28 12:57:30.925,47.638718N 0.549088E 175m,Off,8,1.8692997,1.0885986,Time OK,Free running,44600,8760,0,2019-10-28 12:34:38.000000000,
1572267510,2019-10-28 12:58:30.925,47.638718N 0.549088E 175m,Off,8,1.8692997,1.0885986,Time OK,Free running,47600,8760,0,2019-10-28 12:34:38.000000000,
1572267570,2019-10-28 12:59:30.925,47.638718N 0.549088E 175m,Off,8,1.8692997,1.0885986,Time OK,Free running,50600,8760,0,2019-10-28 12:34:38.000000000,
