Time(longsecs),Time(UTC),External SOH Voltage 1(V),External SOH Voltage 2(V),External SOH Voltage 3(V),External SOH Voltage 4(V),Sensor SOH Voltage 1(V),Sensor SOH Voltage 2(V),Sensor SOH Voltage 3(V),
1572267630,2019-10-28 13:00:30.926,-3.907919E-3,-2.7842522E-3,4.9624443E-3,-1.4543533E-3,4.9218655E-1,4.924345E-1,4.9089622E-1,
1572267690,2019-10-28 13:01:30.926,-6.7265034E-3,-5.247593E-3,2.674818E-3,-3.9391518E-3,4.8267555E-1,4.8203945E-1,4.8072338E-1,
1572267750,2019-10-28 13:02:30.925,-4.7342777E-3,-3.8335323E-3,4.557848E-3,-1.9800663E-3,4.8872948E-1,4.8784542E-1,4.852457E-1,
1572267810,2019-10-28 13:03:30.925,-6.456852E-3,-5.5823326E-3,2.796173E-3,-3.8425922E-3,4.821415E-1,4.8117542E-1,4.7644138E-1,
1572267870,2019-10-28 13:04:30.928,-4.883766E-3,-3.6697388E-3,4.327774E-3,-1.8954277E-3,4.8792267E-1,4.8769093E-1,4.8413372E-1,
1572267930,2019-10-28 13:05:30.936,-2.2184849E-3,-1.357317E-3,7.12204E-3,3.41177E-4,4.9936962E-1,4.9721527E-1,4.938898E-1,
1572267990,2019-10-28 13:06:30.926,-4.3714046E-3,-3.34692E-3,4.8446655E-3,-1.5075207E-3,4.8802567E-1,4.8852062E-1,4.8672104E-1,
1572268050,2019-10-28 13:07:30.925,-3.916025E-3,-2.9666424E-3,5.0036907E-3,-1.4133453E-3,4.8823833E-1,4.8813057E-1,4.863901E-1,
1572268110,2019-10-28 13:08:30.925,-4.0779114E-3,-2.8016567E-3,4.865885E-3,-1.2080669E-3,4.881525E-1,4.8921776E-1,4.856825E-1,
1572268170,2019-10-28 13:09:30.926,-5.0213337E-3,-3.5796165E-3,4.391432E-3,-2.0360947E-3,4.8183823E-1,4.8134518E-1,4.811144E-1,
1572268230,2019-10-28 13:10:30.925,-6.6678524E-3,-5.843878E-3,2.2757053E-3,-4.1692257E-3,4.818306E-1,4.812956E-1,4.7828293E-1,
1572268290,2019-10-28 13:11:30.925,-6.9770813E-3,-5.7718754E-3,2.7005672E-3,-4.2419434E-3,4.8396015E-1,4.8370743E-1,4.799137E-1,
1572268350,2019-10-28 13:12:30.925,-4.5933723E-3,-3.8228035E-3,4.55904E-3,-2.3050308E-3,4.878807E-1,4.8723507E-1,4.8586845E-1,
1572268410,2019-10-28 13:13:30.925,-4.0667057E-3,-2.8727055E-3,5.491972E-3,-2.06995E-3,4.8467064E-1,4.8439312E-1,4.8481083E-1,
1572268470,2019-10-28 13:14:30.925,-7.016182E-3,-5.7377815E-3,2.585888E-3,-3.94845E-3,4.8378468E-1,4.8441124E-1,4.7862434E-1,
1572268530,2019-10-28 13:15:30.925,-4.7938824E-3,-3.9172173E-3,4.7044754E-3,-2.1014214E-3,4.8834324E-1,4.881487E-1,4.860878E-1,
1572268590,2019-10-28 13:16:30.926,-3.916025E-3,-3.3535957E-3,4.799843E-3,-1.2705326E-3,4.8832798E-1,4.8770428E-1,4.8745346E-1,
1572268650,2019-10-28 13:17:30.964,-4.3592453E-3,-3.3228397E-3,4.994154E-3,-1.5103817E-3,4.8846912E-1,4.8716354E-1,4.8224068E-1,
1572268710,2019-10-28 13:18:30.925,-4.4100285E-3,-3.2687187E-3,5.026579E-3,-1.3599396E-3,4.8449898E-1,4.8451328E-1,4.832039E-1,
1572268770,2019-10-28 13:19:30.925,-6.58679E-3,-5.7020187E-3,2.2921562E-3,-3.8194656E-3,4.8168182E-1,4.8066044E-1,4.796114E-1,
1572268830,2019-10-28 13:20:30.925,-4.663229E-3,-3.7500858E-3,4.2455196E-3,-1.9395351E-3,4.8041344E-1,4.8051167E-1,4.801073E-1,
1572268890,2019-10-28 13:21:30.945,-6.2360764E-3,-5.325079E-3,2.8324127E-3,-4.1561127E-3,4.8287296E-1,4.8174763E-1,4.7549725E-1,
1572268950,2019-10-28 13:22:30.925,-4.180193E-3,-2.7325153E-3,5.204916E-3,-1.5084743E-3,4.9137783E-1,4.903431E-1,4.8540306E-1,
1572269010,2019-10-28 13:23:30.925,-4.2686462E-3,-3.1342506E-3,5.4457188E-3,-1.2772083E-3,4.8909283E-1,4.8888683E-1,4.8645115E-1,
1572269070,2019-10-28 13:24:30.925,-2.0692348E-3,-1.4035702E-3,6.973505E-3,1.5425682E-4,4.9511242E-1,4.9455452E-1,4.8794174E-1,
1572269130,2019-10-28 13:25:30.925,-6.7224503E-3,-5.628586E-3,2.5827885E-3,-3.911972E-3,4.8209858E-1,4.818325E-1,4.7635078E-1,
1572269190,2019-10-28 13:26:30.925,-4.3361187E-3,-3.3032894E-3,5.3215027E-3,-1.4016628E-3,4.822111E-1,4.8296356E-1,4.8337364E-1,
1572269250,2019-10-28 13:27:30.925,-6.8314075E-3,-6.267309E-3,2.6574135E-3,-3.830433E-3,4.7711563E-1,4.7653484E-1,4.7749043E-1,
1572269310,2019-10-28 13:28:30.928,-4.618883E-3,-3.7386417E-3,4.896641E-3,-2.0501614E-3,4.9037075E-1,4.8917866E-1,4.8530865E-1,
1572269370,2019-10-28 13:29:30.925,-4.467964E-3,-3.1342506E-3,5.530119E-3,-1.6067028E-3,4.8504162E-1,4.8359203E-1,4.837122E-1,
1572269430,2019-10-28 13:30:30.925,-4.085064E-3,-3.293991E-3,5.2404404E-3,-1.16992E-3,4.8483944E-1,4.8412323E-1,4.7873688E-1,
1572269490,2019-10-28 13:31:30.925,-4.102707E-3,-3.2749176E-3,4.72641E-3,-1.5347004E-3,4.8103142E-1,4.8067093E-1,4.807167E-1,
1572269550,2019-10-28 13:32:30.925,-4.6510696E-3,-4.0621758E-3,4.4994354E-3,-2.1276474E-3,4.854927E-1,4.8477554E-1,4.8087788E-1,
1572269610,2019-10-28 13:33:30.926,-5.007744E-3,-4.000902E-3,4.3694973E-3,-1.9750595E-3,4.893875E-1,4.8911762E-1,4.8597813E-1,
1572269670,2019-10-28 13:34:30.926,-4.2409897E-3,-2.8848648E-3,5.074024E-3,-1.2409687E-3,4.8486805E-1,4.8517704E-1,4.8629665E-1,
1572269730,2019-10-28 13:35:30.926,-4.7335625E-3,-2.7885437E-3,5.403757E-3,-7.202625E-4,4.8306942E-1,4.8401737E-1,4.8138428E-1,
1572269790,2019-10-28 13:36:30.925,-4.3780804E-3,-3.2646656E-3,5.2850246E-3,-1.6143322E-3,4.857912E-1,4.8386002E-1,4.811039E-1,
1572269850,2019-10-28 13:37:30.925,-7.0343018E-3,-5.5947304E-3,2.4342537E-3,-4.0910244E-3,4.774542E-1,4.7914696E-1,4.760208E-1,
1572269910,2019-10-28 13:38:30.925,-6.5426826E-3,-5.5007935E-3,2.5463104E-3,-3.866434E-3,4.8313427E-1,4.812107E-1,4.807911E-1,
1572269970,2019-10-28 13:39:30.925,-4.28319E-3,-2.8836727E-3,5.5322647E-3,-1.2722015E-3,4.8451614E-1,4.8482513E-1,4.8402023E-1,
1572270030,2019-10-28 13:40:30.925,-7.1291924E-3,-6.0584545E-3,2.5668144E-3,-3.5862923E-3,4.7567654E-1,4.753952E-1,4.739399E-1,
1572270090,2019-10-28 13:41:30.925,-6.512165E-3,-5.692005E-3,2.6841164E-3,-4.018545E-3,4.8216057E-1,4.8075676E-1,4.767065E-1,
1572270150,2019-10-28 13:42:30.925,-4.428625E-3,-3.325224E-3,5.0578117E-3,-1.2054443E-3,4.7999477E-1,4.7884846E-1,4.8003006E-1,
1572270210,2019-10-28 13:43:30.925,-4.580021E-3,-3.944397E-3,4.1439533E-3,-2.2499561E-3,4.82419E-1,4.811802E-1,4.793253E-1,
1572270270,2019-10-28 13:44:30.925,-2.364397E-3,-1.2540817E-3,7.119417E-3,3.5858154E-4,4.9521828E-1,4.9529076E-1,4.9174023E-1,
1572270330,2019-10-28 13:45:30.925,-4.1890144E-3,-3.2191277E-3,4.678011E-3,-1.4345646E-3,4.842224E-1,4.837265E-1,4.8562527E-1,
1572270390,2019-10-28 13:46:30.925,-4.5719147E-3,-3.411293E-3,5.1207542E-3,-1.2803078E-3,4.853773E-1,4.8472118E-1,4.8280144E-1,
1572270450,2019-10-28 13:47:30.925,-4.3599606E-3,-3.2527447E-3,5.057335E-3,-1.3837814E-3,4.8483086E-1,4.847145E-1,4.8056412E-1,
1572270510,2019-10-28 13:48:30.927,-4.5125484E-3,-3.9806366E-3,4.377842E-3,-2.1970272E-3,4.8270798E-1,4.8309898E-1,4.824438E-1,
1572270570,2019-10-28 13:49:30.925,-5.1915646E-3,-4.106045E-3,4.5547485E-3,-2.2809505E-3,4.8294163E-1,4.8354816E-1,4.8226452E-1,
1572270630,2019-10-28 13:50:30.925,-4.458189E-3,-3.3946037E-3,5.245447E-3,-1.0159016E-3,4.825487E-1,4.8195362E-1,4.80999E-1,
1572270690,2019-10-28 13:51:30.925,-4.312277E-3,-3.3578873E-3,5.0559044E-3,-1.7488003E-3,4.8524857E-1,4.8400688E-1,4.8282433E-1,
1572270750,2019-10-28 13:52:30.925,-6.7281723E-3,-5.2802563E-3,2.7120113E-3,-4.0135384E-3,4.8292065E-1,4.8193455E-1,4.775982E-1,
1572270810,2019-10-28 13:53:30.960,-2.1440983E-3,-1.1644363E-3,6.9851875E-3,2.0456314E-4,4.8730946E-1,4.8766804E-1,4.8640537E-1,
1572270870,2019-10-28 13:54:30.937,-6.7584515E-3,-6.150961E-3,3.0314922E-3,-4.0302277E-3,4.778881E-1,4.76799E-1,4.791336E-1,
1572270930,2019-10-28 13:55:30.925,-4.0991306E-3,-2.947569E-3,5.197525E-3,-7.4601173E-4,4.9137783E-1,4.896164E-1,4.845991E-1,
1572270990,2019-10-28 13:56:30.925,-4.5950413E-3,-4.1139126E-3,4.7388077E-3,-2.4621487E-3,4.8380375E-1,4.828539E-1,4.847088E-1,
1572271050,2019-10-28 13:57:30.925,-1.7614365E-3,-1.462698E-3,7.123947E-3,6.945133E-4,4.910431E-1,4.9083805E-1,4.8819637E-1,
1572271110,2019-10-28 13:58:30.927,-4.697323E-3,-4.011154E-3,4.4822693E-3,-2.3674965E-3,4.8432064E-1,4.842415E-1,4.7688198E-1,
1572271170,2019-10-28 13:59:30.925,-4.0881634E-3,-3.3752918E-3,5.2757263E-3,-1.3606548E-3,4.854021E-1,4.8455524E-1,4.8223782E-1,
