Time(longsecs),Time(UTC),Earth Location,GPS Receiver Status,GPS Satellites Used,GPS PDOP,GPS TDOP,Timing Status,Timing Phase Lock,Timing Uncertainty(ns),DAC Count,Timing Error(ns),GPS Last Update Time,
1572242430,2019-10-28 06:00:30.927,47.63873N 0.549069E 174m,Off,10,1.5714977,0.7744021,Time OK,Free running,2200,8981,0,2019-10-28 05:58:18.000000000,
1572242490,2019-10-28 06:01:30.926,47.63873N 0.549069E 174m,Off,10,1.5714977,0.7744021,Time OK,Free running,3400,8981,0,2019-10-28 05:58:18.000000000,
1572242550,2019-10-28 06:02:30.926,47.63873N 0.549069E 174m,Off,10,1.5714977,0.7744021,Time OK,Free running,4500,8981,0,2019-10-28 05:58:18.000000000,
1572242610,2019-10-28 06:03:30.932,47.63873N 0.549069E 174m,Off,10,1.5714977,0.7744021,Time OK,Free running,5400,8981,0,2019-10-28 05:58:18.000000000,
1572242670,2019-10-28 06:04:30.926,47.63873N 0.549069E 174m,Off,10,1.5714977,0.7744021,Time OK,Free running,6400,8981,0,2019-10-28 05:58:18.000000000,
1572242730,2019-10-28 06:05:30.926,47.63873N 0.549069E 174m,Off,10,1.5714977,0.7744021,Time OK,Free running,7200,8981,0,2019-10-28 05:58:18.000000000,
1572242790,2019-10-28 06:06:30.958,47.63873N 0.549069E 174m,Off,10,1.5714977,0.7744021,Time OK,Free running,8200,8981,0,2019-10-28 05:58:18.000000000,
1572242850,2019-10-28 06:07:30.926,47.63873N 0.549069E 174m,Off,10,1.5714977,0.7744021,Time OK,Free running,9200,8981,0,2019-10-28 05:58:18.000000000,
1572242910,2019-10-28 06:08:30.926,47.63873N 0.549069E 174m,Off,10,1.5714977,0.7744021,Time OK,Free running,10300,8981,0,2019-10-28 05:58:18.000000000,
1572242970,2019-10-28 06:09:30.926,47.63873N 0.549069E 174m,Off,10,1.5714977,0.7744021,Time OK,Free running,11400,8981,0,2019-10-28 05:58:18.000000000,
1572243030,2019-10-28 06:10:30.926,47.63873N 0.549069E 174m,Off,10,1.5714977,0.7744021,Time OK,Free running,12400,8981,0,2019-10-28 05:58:18.000000000,
1572243090,2019-10-28 06:11:30.926,47.63873N 0.549069E 174m,Off,10,1.5714977,0.7744021,Time OK,Free running,13600,8981,0,2019-10-28 05:58:18.000000000,
1572243150,2019-10-28 06:12:30.932,47.63873N 0.549069E 174m,Off,10,1.5714977,0.7744021,Time OK,Free running,14900,8981,0,2019-10-28 05:58:18.000000000,
1572243210,2019-10-28 06:13:30.926,47.63873N 0.549069E 174m,Off,10,1.5714977,0.7744021,Time OK,Free running,16100,8981,0,2019-10-28 05:58:18.000000000,
1572243270,2019-10-28 06:14:30.926,47.63873N 0.549069E 174m,Off,10,1.5714977,0.7744021,Time OK,Free running,17200,8981,0,2019-10-28 05:58:18.000000000,
1572243330,2019-10-28 06:15:30.926,47.63873N 0.549069E 174m,Off,10,1.5714977,0.7744021,Time OK,Free running,18400,8981,0,2019-10-28 05:58:18.000000000,
1572243390,2019-10-28 06:16:30.926,47.63873N 0.549069E 174m,Off,10,1.5714977,0.7744021,Time OK,Free running,19700,8981,0,2019-10-28 05:58:18.000000000,
1572243450,2019-10-28 06:17:30.926,47.63873N 0.549069E 174m,Off,10,1.5714977,0.7744021,Time OK,Free running,20900,8981,0,2019-10-28 05:58:18.000000000,
1572243510,2019-10-28 06:18:30.926,47.63873N 0.549069E 174m,Off,10,1.5714977,0.7744021,Time OK,Free running,22300,8981,0,2019-10-28 05:58:18.000000000,
1572243570,2019-10-28 06:19:30.926,47.63873N 0.549069E 174m,Off,10,1.5714977,0.7744021,Time OK,Free running,23800,8981,0,2019-10-28 05:58:18.000000000,
1572243630,2019-10-28 06:20:30.928,47.63873N 0.549069E 174m,Off,10,1.5714977,0.7744021,Time OK,Free running,25400,8981,0,2019-10-28 05:58:18.000000000,
1572243690,2019-10-28 06:21:30.926,47.63873N 0.549069E 174m,Off,10,1.5714977,0.7744021,Time OK,Free running,26800,8981,0,2019-10-28 05:58:18.000000000,
1572243750,2019-10-28 06:22:30.926,47.63873N 0.549069E 174m,Off,10,1.5714977,0.7744021,Time OK,Free running,27900,8981,0,2019-10-28 05:58:18.000000000,
1572243810,2019-10-28 06:23:30.926,47.63873N 0.549069E 174m,Off,10,1.5714977,0.7744021,Time OK,Free running,29400,8981,0,2019-10-28 05:58:18.000000000,
1572243870,2019-10-28 06:24:30.926,47.63873N 0.549069E 174m,Off,10,1.5714977,0.7744021,Time OK,Free running,31000,8981,0,2019-10-28 05:58:18.000000000,
1572243930,2019-10-28 06:25:30.928,47.63873N 0.549069E 174m,Off,10,1.5714977,0.7744021,Time OK,Free running,32300,8981,0,2019-10-28 05:58:18.000000000,
1572243990,2019-10-28 06:26:30.926,47.63873N 0.549069E 174m,Off,10,1.5714977,0.7744021,Time OK,Free running,33900,8981,0,2019-10-28 05:58:18.000000000,
1572244050,2019-10-28 06:27:30.926,47.63873N 0.549069E 174m,Off,10,1.5714977,0.7744021,Time OK,Free running,35600,8981,0,2019-10-28 05:58:18.000000000,
1572244110,2019-10-28 06:28:30.955,47.63873N 0.549069E 174m,Off,10,1.5714977,0.7744021,Time OK,Free running,36900,8981,0,2019-10-28 05:58:18.000000000,
1572244170,2019-10-28 06:29:30.926,47.63873N 0.549069E 174m,Off,10,1.5714977,0.7744021,Time OK,Free running,38200,8981,0,2019-10-28 05:58:18.000000000,
1572244230,2019-10-28 06:30:30.926,47.63873N 0.549069E 174m,Off,10,1.5714977,0.7744021,Time OK,Free running,39800,8981,0,2019-10-28 05:58:18.000000000,
1572244290,2019-10-28 06:31:30.926,47.63873N 0.549069E 174m,Off,10,1.5714977,0.7744021,Time OK,Free running,41300,8981,0,2019-10-28 05:58:18.000000000,
1572244350,2019-10-28 06:32:30.926,47.63873N 0.549069E 174m,Off,10,1.5714977,0.7744021,Time OK,Free running,42800,8981,0,2019-10-28 05:58:18.000000000,
1572244410,2019-10-28 06:33:30.926,47.63873N 0.549069E 174m,Off,10,1.5714977,0.7744021,Time OK,Free running,44500,8981,0,2019-10-28 05:58:18.000000000,
1572244470,2019-10-28 06:34:30.926,47.63873N 0.549069E 174m,Off,10,1.5714977,0.7744021,Time OK,Free running,46200,8981,0,2019-10-28 05:58:18.000000000,
1572244530,2019-10-28 06:35:30.926,47.63873N 0.549069E 174m,Off,10,1.5714977,0.7744021,Time OK,Free running,47900,8981,0,2019-10-28 05:58:18.000000000,
1572244590,2019-10-28 06:36:30.926,47.63873N 0.549069E 174m,Off,10,1.5714977,0.7744021,Time OK,Free running,49500,8981,0,2019-10-28 05:58:18.000000000,
1572244650,2019-10-28 06:37:30.926,47.63873N 0.549069E 174m,Off,10,1.5714977,0.7744021,Time OK,Free running,51100,8981,0,2019-10-28 05:58:18.000000000,
1572244710,2019-10-28 06:38:30.926,47.63873N 0.549069E 174m,No GPS time,0,0.0,0.0,Time OK,Free running,52800,8981,0,2019-10-28 06:38:28.000000000,
1572244770,2019-10-28 06:39:30.926,47.63873N 0.549069E 174m,Doing fixes,8,1.8614964,0.9854571,Time OK,Fine lock,100,9012,104,2019-10-28 06:39:28.000000000,
1572244830,2019-10-28 06:40:30.926,47.63873N 0.549069E 174m,Doing fixes,9,1.5747426,0.7849509,Time OK,Fine lock,100,8977,0,2019-10-28 06:40:28.000000000,
1572244890,2019-10-28 06:41:30.926,47.63873N 0.549069E 174m,Off,9,1.5737154,0.7842522,Time OK,Free running,800,8978,0,2019-10-28 06:40:38.000000000,
1572244950,2019-10-28 06:42:30.958,47.63873N 0.549069E 174m,Off,9,1.5737154,0.7842522,Time OK,Free running,1600,8978,0,2019-10-28 06:40:38.000000000,
1572245010,2019-10-28 06:43:30.926,47.63873N 0.549069E 174m,Off,9,1.5737154,0.7842522,Time OK,Free running,2600,8978,0,2019-10-28 06:40:38.000000000,
1572245070,2019-10-28 06:44:30.926,47.63873N 0.549069E 174m,Off,9,1.5737154,0.7842522,Time OK,Free running,4000,8978,0,2019-10-28 06:40:38.000000000,
1572245130,2019-10-28 06:45:30.926,47.63873N 0.549069E 174m,Off,9,1.5737154,0.7842522,Time OK,Free running,5200,8978,0,2019-10-28 06:40:38.000000000,
1572245190,2019-10-28 06:46:30.926,47.63873N 0.549069E 174m,Off,9,1.5737154,0.7842522,Time OK,Free running,6200,8978,0,2019-10-28 06:40:38.000000000,
1572245250,2019-10-28 06:47:30.926,47.63873N 0.549069E 174m,Off,9,1.5737154,0.7842522,Time OK,Free running,7500,8978,0,2019-10-28 06:40:38.000000000,
1572245310,2019-10-28 06:48:30.926,47.63873N 0.549069E 174m,Off,9,1.5737154,0.7842522,Time OK,Free running,9100,8978,0,2019-10-28 06:40:38.000000000,
1572245370,2019-10-28 06:49:30.926,47.63873N 0.549069E 174m,Off,9,1.5737154,0.7842522,Time OK,Free running,10700,8978,0,2019-10-28 06:40:38.000000000,
1572245430,2019-10-28 06:50:30.926,47.63873N 0.549069E 174m,Off,9,1.5737154,0.7842522,Time OK,Free running,12100,8978,0,2019-10-28 06:40:38.000000000,
1572245490,2019-10-28 06:51:30.926,47.63873N 0.549069E 174m,Off,9,1.5737154,0.7842522,Time OK,Free running,13100,8978,0,2019-10-28 06:40:38.000000000,
1572245550,2019-10-28 06:52:30.964,47.63873N 0.549069E 174m,Off,9,1.5737154,0.7842522,Time OK,Free running,14600,8978,0,2019-10-28 06:40:38.000000000,
1572245610,2019-10-28 06:53:30.926,47.63873N 0.549069E 174m,Off,9,1.5737154,0.7842522,Time OK,Free running,16300,8978,0,2019-10-28 06:40:38.000000000,
1572245670,2019-10-28 06:54:30.926,47.63873N 0.549069E 174m,Off,9,1.5737154,0.7842522,Time OK,Free running,17800,8978,0,2019-10-28 06:40:38.000000000,
1572245730,2019-10-28 06:55:30.926,47.63873N 0.549069E 174m,Off,9,1.5737154,0.7842522,Time OK,Free running,19400,8978,0,2019-10-28 06:40:38.000000000,
1572245790,2019-10-28 06:56:30.926,47.63873N 0.549069E 174m,Off,9,1.5737154,0.7842522,Time OK,Free running,21000,8978,0,2019-10-28 06:40:38.000000000,
1572245850,2019-10-28 06:57:30.926,47.63873N 0.549069E 174m,Off,9,1.5737154,0.7842522,Time OK,Free running,22700,8978,0,2019-10-28 06:40:38.000000000,
1572245910,2019-10-28 06:58:30.926,47.63873N 0.549069E 174m,Off,9,1.5737154,0.7842522,Time OK,Free running,24500,8978,0,2019-10-28 06:40:38.000000000,
1572245970,2019-10-28 06:59:30.926,47.63873N 0.549069E 174m,Off,9,1.5737154,0.7842522,Time OK,Free running,26100,8978,0,2019-10-28 06:40:38.000000000,
