Time(longsecs),Time(UTC),External SOH Voltage 1(V),External SOH Voltage 2(V),External SOH Voltage 3(V),External SOH Voltage 4(V),Sensor SOH Voltage 1(V),Sensor SOH Voltage 2(V),Sensor SOH Voltage 3(V),
1572271230,2019-10-28 14:00:30.925,-4.157543E-3,-2.8073788E-3,5.4941177E-3,-1.2946129E-3,4.8342228E-1,4.8251915E-1,4.8304653E-1,
1572271290,2019-10-28 14:01:30.925,-3.985405E-3,-3.2274723E-3,5.1136017E-3,-1.285553E-3,4.8379517E-1,4.8300838E-1,4.8329735E-1,
1572271350,2019-10-28 14:02:30.925,-4.0667057E-3,-3.0283928E-3,5.3195953E-3,-1.6129017E-3,4.8309898E-1,4.8148346E-1,4.8231983E-1,
1572271410,2019-10-28 14:03:30.925,-6.5345764E-3,-5.731344E-3,2.9730797E-3,-4.044533E-3,4.7672176E-1,4.7566605E-1,4.7467804E-1,
1572271470,2019-10-28 14:04:30.925,-6.682873E-3,-5.721092E-3,2.901554E-3,-3.7660599E-3,4.6938705E-1,4.692459E-1,4.6944618E-1,
1572271530,2019-10-28 14:05:30.925,-4.946232E-3,-3.5920143E-3,4.2932034E-3,-1.6937256E-3,4.8428154E-1,4.840374E-1,4.8130512E-1,
1572271590,2019-10-28 14:06:30.925,-4.92692E-3,-3.986597E-3,4.51684E-3,-2.3627281E-3,4.904318E-1,4.892311E-1,4.7773838E-1,
1572271650,2019-10-28 14:07:30.925,-4.437208E-3,-3.4937859E-3,5.348444E-3,-1.8513203E-3,4.8310947E-1,4.827528E-1,4.8405075E-1,
1572271710,2019-10-28 14:08:30.925,-3.902197E-3,-2.969265E-3,5.0001144E-3,-1.562357E-3,4.8116398E-1,4.8028946E-1,4.81081E-1,
1572271770,2019-10-28 14:09:30.925,-2.3860931E-3,-1.3740063E-3,7.046938E-3,9.510517E-4,4.8968124E-1,4.887104E-1,4.8497868E-1,
1572271830,2019-10-28 14:10:30.926,-2.5203228E-3,-1.4536381E-3,7.025242E-3,4.014969E-4,4.876337E-1,4.8561573E-1,4.8649025E-1,
1572271890,2019-10-28 14:11:30.925,-2.2797585E-3,-1.2772083E-3,6.7822933E-3,3.4070015E-4,4.8876858E-1,4.8931026E-1,4.8542404E-1,
1572271950,2019-10-28 14:12:30.925,-5.108118E-3,-4.0357113E-3,4.5399666E-3,-1.9235611E-3,4.8486805E-1,4.83881E-1,4.8053646E-1,
1572272010,2019-10-28 14:13:30.925,-6.796837E-3,-5.608082E-3,2.6285648E-3,-4.0414333E-3,4.7924137E-1,4.768715E-1,4.7337627E-1,
1572272070,2019-10-28 14:14:30.925,-6.897211E-3,-5.9189796E-3,2.6922226E-3,-3.8318634E-3,4.7630978E-1,4.759903E-1,4.7272873E-1,
1572272130,2019-10-28 14:15:30.925,-6.3984394E-3,-5.6242943E-3,2.7911663E-3,-4.332781E-3,4.6832275E-1,4.667673E-1,4.692726E-1,
1572272190,2019-10-28 14:16:30.925,-4.7950745E-3,-3.7784576E-3,4.413128E-3,-2.3560524E-3,4.8212528E-1,4.813652E-1,4.8040485E-1,
1572272250,2019-10-28 14:17:30.925,-2.2408962E-3,-1.4307499E-3,7.0049763E-3,9.1314316E-5,4.9477386E-1,4.9347687E-1,4.8958302E-1,
1572272310,2019-10-28 14:18:30.926,-4.4732094E-3,-4.201412E-3,4.477501E-3,-2.5146008E-3,4.8092175E-1,4.7909737E-1,4.8246384E-1,
1572272370,2019-10-28 14:19:30.926,-3.6604404E-3,-2.33078E-3,5.3958893E-3,-1.4717579E-3,4.818983E-1,4.8094082E-1,4.7846413E-1,
1572272430,2019-10-28 14:20:30.925,-2.167225E-3,-1.6181469E-3,6.8495274E-3,4.3606758E-4,4.9131107E-1,4.902525E-1,4.8608112E-1,
1572272490,2019-10-28 14:21:30.925,-2.27499E-3,-1.4016628E-3,7.126093E-3,4.541874E-4,4.908762E-1,4.9004555E-1,4.8842716E-1,
1572272550,2019-10-28 14:22:30.928,-2.309084E-3,-1.6384125E-3,6.8819523E-3,3.271103E-4,4.885702E-1,4.8695183E-1,4.8890018E-1,
1572272610,2019-10-28 14:23:30.925,-2.3317337E-3,-1.2950897E-3,6.957054E-3,7.2550774E-4,4.8931408E-1,4.8952675E-1,4.8503017E-1,
1572272670,2019-10-28 14:24:30.925,-4.588127E-3,-3.9479733E-3,4.7762394E-3,-2.4106503E-3,4.8308182E-1,4.8257065E-1,4.7908878E-1,
1572272730,2019-10-28 14:25:30.926,-2.3322105E-3,-1.4262199E-3,6.879568E-3,1.3828278E-4,4.9148273E-1,4.9118423E-1,4.871397E-1,
1572272790,2019-10-28 14:26:30.925,-6.3180923E-3,-5.749941E-3,3.1683445E-3,-4.0667057E-3,4.7575855E-1,4.7457695E-1,4.734211E-1,
1572272850,2019-10-28 14:27:30.926,-2.222538E-3,-1.3124943E-3,7.0888996E-3,2.8848648E-4,4.8932934E-1,4.884758E-1,4.8579884E-1,
1572272910,2019-10-28 14:28:30.925,-3.8394928E-3,-3.2141209E-3,4.946947E-3,-1.4379025E-3,4.8987198E-1,4.872055E-1,4.836359E-1,
1572272970,2019-10-28 14:29:30.925,-4.5239925E-3,-3.7872791E-3,4.471779E-3,-1.863718E-3,4.829502E-1,4.817152E-1,4.8097706E-1,
1572273030,2019-10-28 14:30:30.926,-1.9299984E-3,-1.3308525E-3,7.213354E-3,7.2169304E-4,4.8821163E-1,4.8625088E-1,4.8825932E-1,
1572273090,2019-10-28 14:31:30.925,-4.6844482E-3,-4.0934086E-3,4.3652058E-3,-2.358675E-3,4.8391724E-1,4.828539E-1,4.7871208E-1,
1572273150,2019-10-28 14:32:30.925,-7.0705414E-3,-5.7833195E-3,2.6698112E-3,-4.4145584E-3,4.7167778E-1,4.7243977E-1,4.713955E-1,
1572273210,2019-10-28 14:33:30.925,-2.2776127E-3,-1.6646385E-3,6.6502094E-3,3.00169E-4,4.8813057E-1,4.8627377E-1,4.8554325E-1,
1572273270,2019-10-28 14:34:30.925,-4.1258335E-3,-3.4525394E-3,4.855156E-3,-1.636982E-3,4.820242E-1,4.8084927E-1,4.7926807E-1,
1572273330,2019-10-28 14:35:30.925,-2.146721E-3,-9.3126297E-4,7.3125362E-3,7.414818E-4,4.879341E-1,4.8654175E-1,4.8802757E-1,
1572273390,2019-10-28 14:36:30.925,-4.44746E-3,-3.5715103E-3,5.253792E-3,-1.593113E-3,4.8572254E-1,4.8435307E-1,4.8404312E-1,
1572273450,2019-10-28 14:37:30.925,-2.2308826E-3,-1.6129017E-3,7.0335865E-3,5.514622E-4,4.804201E-1,4.7999096E-1,4.8368263E-1,
1572273510,2019-10-28 14:38:30.925,-6.09231E-3,-5.562544E-3,2.609253E-3,-3.9794445E-3,4.745884E-1,4.7451115E-1,4.7601795E-1,
1572273570,2019-10-28 14:39:30.925,-2.2640228E-3,-1.5172958E-3,6.8969727E-3,3.0469894E-4,4.9093437E-1,4.9057102E-1,4.873333E-1,
1572273630,2019-10-28 14:40:30.925,-2.5138855E-3,-1.7211437E-3,7.060051E-3,7.250309E-4,4.8678684E-1,4.8636627E-1,4.89666E-1,
1572273690,2019-10-28 14:41:30.925,-2.5773048E-3,-1.4743805E-3,6.8392754E-3,3.721714E-4,4.879446E-1,4.857111E-1,4.8553848E-1,
1572273750,2019-10-28 14:42:30.925,-2.4676323E-3,-1.6169548E-3,6.8233013E-3,4.8804283E-4,4.892521E-1,4.8810482E-1,4.8194313E-1,
1572273810,2019-10-28 14:43:30.925,-4.826069E-3,-3.919363E-3,4.6744347E-3,-1.9936562E-3,4.8147488E-1,4.8148346E-1,4.8204517E-1,
1572273870,2019-10-28 14:44:30.925,-3.962755E-3,-3.3714771E-3,5.284071E-3,-1.2485981E-3,4.8284054E-1,4.8244E-1,4.8035336E-1,
1572273930,2019-10-28 14:45:30.927,-2.4254322E-3,-1.0652542E-3,7.0228577E-3,4.1770935E-4,4.870348E-1,4.8682594E-1,4.859419E-1,
1572273990,2019-10-28 14:46:30.925,-4.057884E-3,-3.2322407E-3,5.22542E-3,-1.3682842E-3,4.820137E-1,4.8007393E-1,4.7836208E-1,
1572274050,2019-10-28 14:47:30.925,-4.206419E-3,-3.4871101E-3,5.009651E-3,-1.9505024E-3,4.8009014E-1,4.7929573E-1,4.8029804E-1,
1572274110,2019-10-28 14:48:30.925,-6.575346E-3,-5.5634975E-3,2.8367043E-3,-3.6959648E-3,4.676981E-1,4.6612072E-1,4.6931553E-1,
1572274170,2019-10-28 14:49:30.925,-4.105568E-3,-3.4086704E-3,5.2814484E-3,-1.6665459E-3,4.8303604E-1,4.8256016E-1,4.8052692E-1,
1572274230,2019-10-28 14:50:30.925,-6.9651604E-3,-5.9247017E-3,2.7079582E-3,-4.034281E-3,4.8225117E-1,4.81925E-1,4.750738E-1,
1572274290,2019-10-28 14:51:30.926,-4.497528E-3,-3.8998127E-3,4.9278736E-3,-1.9133091E-3,4.8133755E-1,4.8064137E-1,4.8582363E-1,
1572274350,2019-10-28 14:52:30.925,-3.9186478E-3,-2.7251244E-3,5.0520897E-3,-1.6856194E-3,4.8307514E-1,4.8283195E-1,4.8339272E-1,
1572274410,2019-10-28 14:53:30.926,-3.8335323E-3,-2.560854E-3,5.158186E-3,-1.0950565E-3,4.8413372E-1,4.8203373E-1,4.7836018E-1,
1572274470,2019-10-28 14:54:30.926,-4.646778E-3,-3.5994053E-3,4.636526E-3,-2.3798943E-3,4.8233318E-1,4.8089695E-1,4.786682E-1,
1572274530,2019-10-28 14:55:30.925,-6.831646E-3,-5.9404373E-3,2.8102398E-3,-4.1139126E-3,4.756956E-1,4.7499084E-1,4.74123E-1,
1572274590,2019-10-28 14:56:30.928,-4.762411E-3,-3.9753914E-3,4.5301914E-3,-1.82724E-3,4.8212528E-1,4.8069286E-1,4.7675514E-1,
1572274650,2019-10-28 14:57:30.928,-4.5609474E-3,-4.0876865E-3,4.698515E-3,-1.7483234E-3,4.8504734E-1,4.850006E-1,4.7989464E-1,
1572274710,2019-10-28 14:58:30.925,-6.336212E-3,-5.363703E-3,2.9518604E-3,-3.951788E-3,4.781494E-1,4.7637844E-1,4.7433662E-1,
1572274770,2019-10-28 14:59:30.928,-4.9841404E-3,-3.757E-3,4.6408176E-3,-1.7545223E-3,4.7800827E-1,4.7808075E-1,4.7811985E-1,
