Time(longsecs),Time(UTC),Earth Location,GPS Receiver Status,GPS Satellites Used,GPS PDOP,GPS TDOP,Timing Status,Timing Phase Lock,Timing Uncertainty(ns),DAC Count,Timing Error(ns),GPS Last Update Time,
1570924826,2019-10-13 00:00:26.438,47.638714N 0.549091E 174m,Off,10,1.682294,0.8621455,Time OK,Free running,7000,8588,0,2019-10-12 23:53:52.000000000,
1570924886,2019-10-13 00:01:26.449,47.638714N 0.549091E 174m,Off,10,1.682294,0.8621455,Time OK,Free running,7800,8588,0,2019-10-12 23:53:52.000000000,
1570924946,2019-10-13 00:02:26.438,47.638714N 0.549091E 174m,Off,10,1.682294,0.8621455,Time OK,Free running,8700,8588,0,2019-10-12 23:53:52.000000000,
1570925006,2019-10-13 00:03:26.438,47.638714N 0.549091E 174m,Off,10,1.682294,0.8621455,Time OK,Free running,9700,8588,0,2019-10-12 23:53:52.000000000,
1570925066,2019-10-13 00:04:26.438,47.638714N 0.549091E 174m,Off,10,1.682294,0.8621455,Time OK,Free running,10600,8588,0,2019-10-12 23:53:52.000000000,
1570925126,2019-10-13 00:05:26.438,47.638714N 0.549091E 174m,Off,10,1.682294,0.8621455,Time OK,Free running,11500,8588,0,2019-10-12 23:53:52.000000000,
1570925186,2019-10-13 00:06:26.438,47.638714N 0.549091E 174m,Off,10,1.682294,0.8621455,Time OK,Free running,12600,8588,0,2019-10-12 23:53:52.000000000,
1570925246,2019-10-13 00:07:26.441,47.638714N 0.549091E 174m,Off,10,1.682294,0.8621455,Time OK,Free running,13500,8588,0,2019-10-12 23:53:52.000000000,
1570925306,2019-10-13 00:08:26.456,47.638714N 0.549091E 174m,Off,10,1.682294,0.8621455,Time OK,Free running,14400,8588,0,2019-10-12 23:53:52.000000000,
1570925366,2019-10-13 00:09:26.438,47.638714N 0.549091E 174m,Off,10,1.682294,0.8621455,Time OK,Free running,15400,8588,0,2019-10-12 23:53:52.000000000,
1570925426,2019-10-13 00:10:26.438,47.638714N 0.549091E 174m,Off,10,1.682294,0.8621455,Time OK,Free running,16200,8588,0,2019-10-12 23:53:52.000000000,
1570925486,2019-10-13 00:11:26.449,47.638714N 0.549091E 174m,Off,10,1.682294,0.8621455,Time OK,Free running,17000,8588,0,2019-10-12 23:53:52.000000000,
1570925546,2019-10-13 00:12:26.439,47.638714N 0.549091E 174m,Off,10,1.682294,0.8621455,Time OK,Free running,18000,8588,0,2019-10-12 23:53:52.000000000,
1570925606,2019-10-13 00:13:26.438,47.638714N 0.549091E 174m,Off,10,1.682294,0.8621455,Time OK,Free running,18800,8588,0,2019-10-12 23:53:52.000000000,
1570925666,2019-10-13 00:14:26.439,47.638714N 0.549091E 174m,Off,10,1.682294,0.8621455,Time OK,Free running,19600,8588,0,2019-10-12 23:53:52.000000000,
1570925726,2019-10-13 00:15:26.438,47.638714N 0.549091E 174m,Off,10,1.682294,0.8621455,Time OK,Free running,20500,8588,0,2019-10-12 23:53:52.000000000,
1570925786,2019-10-13 00:16:26.438,47.638714N 0.549091E 174m,Off,10,1.682294,0.8621455,Time OK,Free running,21400,8588,0,2019-10-12 23:53:52.000000000,
1570925846,2019-10-13 00:17:26.438,47.638714N 0.549091E 174m,Off,10,1.682294,0.8621455,Time OK,Free running,22200,8588,0,2019-10-12 23:53:52.000000000,
1570925906,2019-10-13 00:18:26.438,47.638714N 0.549091E 174m,Off,10,1.682294,0.8621455,Time OK,Free running,23200,8588,0,2019-10-12 23:53:52.000000000,
1570925966,2019-10-13 00:19:26.439,47.638714N 0.549091E 174m,Off,10,1.682294,0.8621455,Time OK,Free running,24000,8588,0,2019-10-12 23:53:52.000000000,
1570926026,2019-10-13 00:20:26.438,47.638714N 0.549091E 174m,Off,10,1.682294,0.8621455,Time OK,Free running,24800,8588,0,2019-10-12 23:53:52.000000000,
1570926086,2019-10-13 00:21:26.438,47.638714N 0.549091E 174m,Off,10,1.682294,0.8621455,Time OK,Free running,25900,8588,0,2019-10-12 23:53:52.000000000,
1570926146,2019-10-13 00:22:26.441,47.638714N 0.549091E 174m,Off,10,1.682294,0.8621455,Time OK,Free running,26700,8588,0,2019-10-12 23:53:52.000000000,
1570926206,2019-10-13 00:23:26.438,47.638714N 0.549091E 174m,Off,10,1.682294,0.8621455,Time OK,Free running,27500,8588,0,2019-10-12 23:53:52.000000000,
1570926266,2019-10-13 00:24:26.438,47.638714N 0.549091E 174m,Off,10,1.682294,0.8621455,Time OK,Free running,28400,8588,0,2019-10-12 23:53:52.000000000,
1570926326,2019-10-13 00:25:26.455,47.638714N 0.549091E 174m,Off,10,1.682294,0.8621455,Time OK,Free running,29200,8588,0,2019-10-12 23:53:52.000000000,
1570926386,2019-10-13 00:26:26.439,47.638714N 0.549091E 174m,Off,10,1.682294,0.8621455,Time OK,Free running,30000,8588,0,2019-10-12 23:53:52.000000000,
1570926446,2019-10-13 00:27:26.438,47.638714N 0.549091E 174m,Off,10,1.682294,0.8621455,Time OK,Free running,30900,8588,0,2019-10-12 23:53:52.000000000,
1570926506,2019-10-13 00:28:26.438,47.638714N 0.549091E 174m,Off,10,1.682294,0.8621455,Time OK,Free running,31700,8588,0,2019-10-12 23:53:52.000000000,
1570926566,2019-10-13 00:29:26.439,47.638714N 0.549091E 174m,Off,10,1.682294,0.8621455,Time OK,Free running,32500,8588,0,2019-10-12 23:53:52.000000000,
1570926626,2019-10-13 00:30:26.438,47.638714N 0.549091E 174m,Off,10,1.682294,0.8621455,Time OK,Free running,33400,8588,0,2019-10-12 23:53:52.000000000,
1570926686,2019-10-13 00:31:26.438,47.638714N 0.549091E 174m,Off,10,1.682294,0.8621455,Time OK,Free running,34400,8588,0,2019-10-12 23:53:52.000000000,
1570926746,2019-10-13 00:32:26.457,47.638714N 0.549091E 174m,Off,10,1.682294,0.8621455,Time OK,Free running,35500,8588,0,2019-10-12 23:53:52.000000000,
1570926806,2019-10-13 00:33:26.438,47.638714N 0.549091E 174m,Off,10,1.682294,0.8621455,Time OK,Free running,36600,8588,0,2019-10-12 23:53:52.000000000,
1570926866,2019-10-13 00:34:26.438,47.638714N 0.549091E 174m,Off,10,1.682294,0.8621455,Time OK,Free running,37900,8588,0,2019-10-12 23:53:52.000000000,
1570926926,2019-10-13 00:35:26.438,47.638714N 0.549091E 174m,Off,10,1.682294,0.8621455,Time OK,Free running,39200,8588,0,2019-10-12 23:53:52.000000000,
1570926986,2019-10-13 00:36:26.438,47.638714N 0.549091E 174m,Off,10,1.682294,0.8621455,Time OK,Free running,40300,8588,0,2019-10-12 23:53:52.000000000,
1570927046,2019-10-13 00:37:26.438,47.638714N 0.549091E 174m,Off,10,1.682294,0.8621455,Time OK,Free running,41400,8588,0,2019-10-12 23:53:52.000000000,
1570927106,2019-10-13 00:38:26.456,47.638714N 0.549091E 174m,Off,10,1.682294,0.8621455,Time OK,Free running,42400,8588,0,2019-10-12 23:53:52.000000000,
1570927166,2019-10-13 00:39:26.438,47.638714N 0.549091E 174m,Off,10,1.682294,0.8621455,Time OK,Free running,43400,8588,0,2019-10-12 23:53:52.000000000,
1570927226,2019-10-13 00:40:26.438,47.638714N 0.549091E 174m,Off,10,1.682294,0.8621455,Time OK,Free running,44400,8588,0,2019-10-12 23:53:52.000000000,
1570927286,2019-10-13 00:41:26.456,47.638714N 0.549091E 174m,Off,10,1.682294,0.8621455,Time OK,Free running,45500,8588,0,2019-10-12 23:53:52.000000000,
1570927346,2019-10-13 00:42:26.439,47.638714N 0.549091E 174m,Off,10,1.682294,0.8621455,Time OK,Free running,46700,8588,0,2019-10-12 23:53:52.000000000,
1570927406,2019-10-13 00:43:26.438,47.638714N 0.549091E 174m,Off,10,1.682294,0.8621455,Time OK,Free running,47800,8588,0,2019-10-12 23:53:52.000000000,
1570927466,2019-10-13 00:44:26.438,47.638714N 0.549091E 174m,Off,10,1.682294,0.8621455,Time OK,Free running,48900,8588,0,2019-10-12 23:53:52.000000000,
1570927526,2019-10-13 00:45:26.445,47.638714N 0.549091E 174m,Off,10,1.682294,0.8621455,Time OK,Free running,49800,8588,0,2019-10-12 23:53:52.000000000,
1570927586,2019-10-13 00:46:26.438,47.638714N 0.549091E 174m,Off,10,1.682294,0.8621455,Time OK,Free running,50700,8588,0,2019-10-12 23:53:52.000000000,
1570927646,2019-10-13 00:47:26.439,47.638714N 0.549091E 174m,Doing fixes,9,1.8516493,1.00991,Time OK,Coarse lock,100,9467,-16354,2019-10-13 00:47:22.000000000,
1570927706,2019-10-13 00:48:26.439,47.638714N 0.549091E 174m,Doing fixes,9,1.8365023,0.99865776,Time OK,Fine lock,100,8549,208,2019-10-13 00:48:22.000000000,
1570927766,2019-10-13 00:49:26.439,47.638714N 0.549091E 174m,Doing fixes,9,1.8219345,0.9877794,Time OK,Fine lock,100,8587,0,2019-10-13 00:49:22.000000000,
1570927826,2019-10-13 00:50:26.439,47.638714N 0.549091E 174m,Doing fixes,9,1.8069042,0.9765088,Time OK,Fine lock,100,8585,0,2019-10-13 00:50:22.000000000,
1570927886,2019-10-13 00:51:26.439,47.638714N 0.549091E 174m,Doing fixes,9,1.7925013,0.9656521,Time OK,Fine lock,100,8585,0,2019-10-13 00:51:22.000000000,
1570927946,2019-10-13 00:52:26.438,47.638714N 0.549091E 174m,Off,9,1.7903568,0.96403104,Time OK,Free running,800,8585,0,2019-10-13 00:51:32.000000000,
1570928006,2019-10-13 00:53:26.438,47.638714N 0.549091E 174m,Off,9,1.7903568,0.96403104,Time OK,Free running,1800,8585,0,2019-10-13 00:51:32.000000000,
1570928066,2019-10-13 00:54:26.438,47.638714N 0.549091E 174m,Off,9,1.7903568,0.96403104,Time OK,Free running,2600,8585,0,2019-10-13 00:51:32.000000000,
1570928126,2019-10-13 00:55:26.439,47.638714N 0.549091E 174m,Off,9,1.7903568,0.96403104,Time OK,Free running,3500,8585,0,2019-10-13 00:51:32.000000000,
1570928186,2019-10-13 00:56:26.439,47.638714N 0.549091E 174m,Off,9,1.7903568,0.96403104,Time OK,Free running,4600,8585,0,2019-10-13 00:51:32.000000000,
1570928246,2019-10-13 00:57:26.438,47.638714N 0.549091E 174m,Off,9,1.7903568,0.96403104,Time OK,Free running,5500,8585,0,2019-10-13 00:51:32.000000000,
1570928306,2019-10-13 00:58:26.438,47.638714N 0.549091E 174m,Off,9,1.7903568,0.96403104,Time OK,Free running,6500,8585,0,2019-10-13 00:51:32.000000000,
1570928366,2019-10-13 00:59:26.438,47.638714N 0.549091E 174m,Off,9,1.7903568,0.96403104,Time OK,Free running,7500,8585,0,2019-10-13 00:51:32.000000000,
