Time(longsecs),Time(UTC),GPS Satellite Acquisition Flag 1,GPS Satellite Acquisition Flag 2,GPS Satellite Acquisition Flag 3,GPS Satellite Acquisition Flag 4,GPS Satellite Acquisition Flag 5,GPS Satellite Acquisition Flag 6,GPS Satellite Acquisition Flag 7,GPS Satellite Acquisition Flag 8,GPS Satellite Acquisition Flag 9,GPS Satellite Acquisition Flag 10,GPS Satellite Acquisition Flag 11,GPS Satellite Acquisition Flag 12,GPS Satellite Azimuth 1(Degrees),GPS Satellite Azimuth 2(Degrees),GPS Satellite Azimuth 3(Degrees),GPS Satellite Azimuth 4(Degrees),GPS Satellite Azimuth 5(Degrees),GPS Satellite Azimuth 6(Degrees),GPS Satellite Azimuth 7(Degrees),GPS Satellite Azimuth 8(Degrees),GPS Satellite Azimuth 9(Degrees),GPS Satellite Azimuth 10(Degrees),GPS Satellite Azimuth 11(Degrees),GPS Satellite Azimuth 12(Degrees),GPS Satellite Elevation 1(Degrees),GPS Satellite Elevation 2(Degrees),GPS Satellite Elevation 3(Degrees),GPS Satellite Elevation 4(Degrees),GPS Satellite Elevation 5(Degrees),GPS Satellite Elevation 6(Degrees),GPS Satellite Elevation 7(Degrees),GPS Satellite Elevation 8(Degrees),GPS Satellite Elevation 9(Degrees),GPS Satellite Elevation 10(Degrees),GPS Satellite Elevation 11(Degrees),GPS Satellite Elevation 12(Degrees),GPS Satellite PRN 1,GPS Satellite PRN 2,GPS Satellite PRN 3,GPS Satellite PRN 4,GPS Satellite PRN 5,GPS Satellite PRN 6,GPS Satellite PRN 7,GPS Satellite PRN 8,GPS Satellite PRN 9,GPS Satellite PRN 10,GPS Satellite PRN 11,GPS Satellite PRN 12,GPS Satellite Signal Level 1(AMU),GPS Satellite Signal Level 2(AMU),GPS Satellite Signal Level 3(AMU),GPS Satellite Signal Level 4(AMU),GPS Satellite Signal Level 5(AMU),GPS Satellite Signal Level 6(AMU),GPS Satellite Signal Level 7(AMU),GPS Satellite Signal Level 8(AMU),GPS Satellite Signal Level 9(AMU),GPS Satellite Signal Level 10(AMU),GPS Satellite Signal Level 11(AMU),GPS Satellite Signal Level 12(AMU),
1570492811,2019-10-08 00:00:11.767,Acquired,Acquired,Acquired,Acquired,Acquired,Acquired,Acquired,Acquired,Not acquired,Acquired,,,1.1129457599999999E2,7.0267288E1,4.1429068E1,3.15086432E2,4.2034796E1,1.24918504E2,2.57217488E2,2.92531776E2,3.4374455999999995E1,1.92946016E2,,,1.5002623E1,1.740079E1,7.8989496E1,2.343771E1,2.1322229999999998E1,5.4495528E1,5.1391895999999996E1,4.1535807999999996E1,6.512105E0,1.2651344E1,,,2,6,12,14,19,24,25,32,17,29,,,1,3,15,2,2,15,8,8,2,3,,,
1570492871,2019-10-08 00:01:11.767,Acquired,Acquired,Acquired,Acquired,Acquired,Acquired,Acquired,Acquired,Not acquired,Acquired,,,1.1129457599999999E2,7.0267288E1,4.1429068E1,3.15086432E2,4.2034796E1,1.24918504E2,2.57217488E2,2.92531776E2,3.4374455999999995E1,1.92946016E2,,,1.5002623E1,1.740079E1,7.8989496E1,2.343771E1,2.1322229999999998E1,5.4495528E1,5.1391895999999996E1,4.1535807999999996E1,6.512105E0,1.2651344E1,,,2,6,12,14,19,24,25,32,17,29,,,1,3,15,2,2,15,8,8,2,3,,,
1570492931,2019-10-08 00:02:11.767,Acquired,Acquired,Acquired,Acquired,Acquired,Acquired,Acquired,Acquired,Not acquired,Acquired,,,1.1129457599999999E2,7.0267288E1,4.1429068E1,3.15086432E2,4.2034796E1,1.24918504E2,2.57217488E2,2.92531776E2,3.4374455999999995E1,1.92946016E2,,,1.5002623E1,1.740079E1,7.8989496E1,2.343771E1,2.1322229999999998E1,5.4495528E1,5.1391895999999996E1,4.1535807999999996E1,6.512105E0,1.2651344E1,,,2,6,12,14,19,24,25,32,17,29,,,1,3,15,2,2,15,8,8,2,3,,,
1570492991,2019-10-08 00:03:11.767,Acquired,Acquired,Acquired,Acquired,Acquired,Acquired,Acquired,Acquired,Not acquired,Acquired,,,1.1129457599999999E2,7.0267288E1,4.1429068E1,3.15086432E2,4.2034796E1,1.24918504E2,2.57217488E2,2.92531776E2,3.4374455999999995E1,1.92946016E2,,,1.5002623E1,1.740079E1,7.8989496E1,2.343771E1,2.1322229999999998E1,5.4495528E1,5.1391895999999996E1,4.1535807999999996E1,6.512105E0,1.2651344E1,,,2,6,12,14,19,24,25,32,17,29,,,1,3,15,2,2,15,8,8,2,3,,,
1570493051,2019-10-08 00:04:11.767,Acquired,Acquired,Acquired,Acquired,Acquired,Acquired,Acquired,Acquired,Not acquired,Acquired,,,1.1129457599999999E2,7.0267288E1,4.1429068E1,3.15086432E2,4.2034796E1,1.24918504E2,2.57217488E2,2.92531776E2,3.4374455999999995E1,1.92946016E2,,,1.5002623E1,1.740079E1,7.8989496E1,2.343771E1,2.1322229999999998E1,5.4495528E1,5.1391895999999996E1,4.1535807999999996E1,6.512105E0,1.2651344E1,,,2,6,12,14,19,24,25,32,17,29,,,1,3,15,2,2,15,8,8,2,3,,,
1570493111,2019-10-08 00:05:11.767,Acquired,Acquired,Acquired,Acquired,Acquired,Acquired,Acquired,Acquired,Not acquired,Acquired,,,1.1129457599999999E2,7.0267288E1,4.1429068E1,3.15086432E2,4.2034796E1,1.24918504E2,2.57217488E2,2.92531776E2,3.4374455999999995E1,1.92946016E2,,,1.5002623E1,1.740079E1,7.8989496E1,2.343771E1,2.1322229999999998E1,5.4495528E1,5.1391895999999996E1,4.1535807999999996E1,6.512105E0,1.2651344E1,,,2,6,12,14,19,24,25,32,17,29,,,1,3,15,2,2,15,8,8,2,3,,,
1570493171,2019-10-08 00:06:11.767,Acquired,Acquired,Acquired,Acquired,Acquired,Acquired,Acquired,Acquired,Not acquired,Acquired,,,1.1129457599999999E2,7.0267288E1,4.1429068E1,3.15086432E2,4.2034796E1,1.24918504E2,2.57217488E2,2.92531776E2,3.4374455999999995E1,1.92946016E2,,,1.5002623E1,1.740079E1,7.8989496E1,2.343771E1,2.1322229999999998E1,5.4495528E1,5.1391895999999996E1,4.1535807999999996E1,6.512105E0,1.2651344E1,,,2,6,12,14,19,24,25,32,17,29,,,1,3,15,2,2,15,8,8,2,3,,,
1570493231,2019-10-08 00:07:11.767,Acquired,Acquired,Acquired,Acquired,Acquired,Acquired,Acquired,Acquired,Not acquired,Acquired,,,1.1129457599999999E2,7.0267288E1,4.1429068E1,3.15086432E2,4.2034796E1,1.24918504E2,2.57217488E2,2.92531776E2,3.4374455999999995E1,1.92946016E2,,,1.5002623E1,1.740079E1,7.8989496E1,2.343771E1,2.1322229999999998E1,5.4495528E1,5.1391895999999996E1,4.1535807999999996E1,6.512105E0,1.2651344E1,,,2,6,12,14,19,24,25,32,17,29,,,1,3,15,2,2,15,8,8,2,3,,,
1570493291,2019-10-08 00:08:11.767,Acquired,Acquired,Acquired,Acquired,Acquired,Acquired,Acquired,Acquired,Not acquired,Acquired,,,1.1129457599999999E2,7.0267288E1,4.1429068E1,3.15086432E2,4.2034796E1,1.24918504E2,2.57217488E2,2.92531776E2,3.4374455999999995E1,1.92946016E2,,,1.5002623E1,1.740079E1,7.8989496E1,2.343771E1,2.1322229999999998E1,5.4495528E1,5.1391895999999996E1,4.1535807999999996E1,6.512105E0,1.2651344E1,,,2,6,12,14,19,24,25,32,17,29,,,1,3,15,2,2,15,8,8,2,3,,,
1570493351,2019-10-08 00:09:11.767,Acquired,Acquired,Acquired,Acquired,Acquired,Acquired,Acquired,Acquired,Not acquired,Acquired,,,1.1129457599999999E2,7.0267288E1,4.1429068E1,3.15086432E2,4.2034796E1,1.24918504E2,2.57217488E2,2.92531776E2,3.4374455999999995E1,1.92946016E2,,,1.5002623E1,1.740079E1,7.8989496E1,2.343771E1,2.1322229999999998E1,5.4495528E1,5.1391895999999996E1,4.1535807999999996E1,6.512105E0,1.2651344E1,,,2,6,12,14,19,24,25,32,17,29,,,1,3,15,2,2,15,8,8,2,3,,,
1570493411,2019-10-08 00:10:11.767,Acquired,Acquired,Acquired,Acquired,Acquired,Acquired,Acquired,Acquired,Not acquired,Acquired,,,1.1129457599999999E2,7.0267288E1,4.1429068E1,3.15086432E2,4.2034796E1,1.24918504E2,2.57217488E2,2.92531776E2,3.4374455999999995E1,1.92946016E2,,,1.5002623E1,1.740079E1,7.8989496E1,2.343771E1,2.1322229999999998E1,5.4495528E1,5.1391895999999996E1,4.1535807999999996E1,6.512105E0,1.2651344E1,,,2,6,12,14,19,24,25,32,17,29,,,1,3,15,2,2,15,8,8,2,3,,,
1570493471,2019-10-08 00:11:11.767,Acquired,Acquired,Acquired,Acquired,Acquired,Acquired,Acquired,Acquired,Not acquired,Acquired,,,1.1129457599999999E2,7.0267288E1,4.1429068E1,3.15086432E2,4.2034796E1,1.24918504E2,2.57217488E2,2.92531776E2,3.4374455999999995E1,1.92946016E2,,,1.5002623E1,1.740079E1,7.8989496E1,2.343771E1,2.1322229999999998E1,5.4495528E1,5.1391895999999996E1,4.1535807999999996E1,6.512105E0,1.2651344E1,,,2,6,12,14,19,24,25,32,17,29,,,1,3,15,2,2,15,8,8,2,3,,,
1570493531,2019-10-08 00:12:11.769,Acquired,Acquired,Acquired,Acquired,Acquired,Acquired,Acquired,Acquired,Not acquired,Acquired,,,1.1129457599999999E2,7.0267288E1,4.1429068E1,3.15086432E2,4.2034796E1,1.24918504E2,2.57217488E2,2.92531776E2,3.4374455999999995E1,1.92946016E2,,,1.5002623E1,1.740079E1,7.8989496E1,2.343771E1,2.1322229999999998E1,5.4495528E1,5.1391895999999996E1,4.1535807999999996E1,6.512105E0,1.2651344E1,,,2,6,12,14,19,24,25,32,17,29,,,1,3,15,2,2,15,8,8,2,3,,,
1570493591,2019-10-08 00:13:11.767,Acquired,Acquired,Acquired,Acquired,Acquired,Acquired,Acquired,Acquired,Not acquired,Acquired,,,1.1129457599999999E2,7.0267288E1,4.1429068E1,3.15086432E2,4.2034796E1,1.24918504E2,2.57217488E2,2.92531776E2,3.4374455999999995E1,1.92946016E2,,,1.5002623E1,1.740079E1,7.8989496E1,2.343771E1,2.1322229999999998E1,5.4495528E1,5.1391895999999996E1,4.1535807999999996E1,6.512105E0,1.2651344E1,,,2,6,12,14,19,24,25,32,17,29,,,1,3,15,2,2,15,8,8,2,3,,,
1570493651,2019-10-08 00:14:11.769,Acquired,Acquired,Acquired,Acquired,Acquired,Acquired,Acquired,Acquired,Not acquired,Acquired,,,1.1129457599999999E2,7.0267288E1,4.1429068E1,3.15086432E2,4.2034796E1,1.24918504E2,2.57217488E2,2.92531776E2,3.4374455999999995E1,1.92946016E2,,,1.5002623E1,1.740079E1,7.8989496E1,2.343771E1,2.1322229999999998E1,5.4495528E1,5.1391895999999996E1,4.1535807999999996E1,6.512105E0,1.2651344E1,,,2,6,12,14,19,24,25,32,17,29,,,1,3,15,2,2,15,8,8,2,3,,,
1570493711,2019-10-08 00:15:11.769,Acquired,Acquired,Acquired,Acquired,Acquired,Acquired,Acquired,Acquired,Not acquired,Acquired,,,1.1129457599999999E2,7.0267288E1,4.1429068E1,3.15086432E2,4.2034796E1,1.24918504E2,2.57217488E2,2.92531776E2,3.4374455999999995E1,1.92946016E2,,,1.5002623E1,1.740079E1,7.8989496E1,2.343771E1,2.1322229999999998E1,5.4495528E1,5.1391895999999996E1,4.1535807999999996E1,6.512105E0,1.2651344E1,,,2,6,12,14,19,24,25,32,17,29,,,1,3,15,2,2,15,8,8,2,3,,,
1570493771,2019-10-08 00:16:11.767,Acquired,Acquired,Acquired,Acquired,Acquired,Acquired,Acquired,Acquired,Not acquired,Acquired,,,1.1129457599999999E2,7.0267288E1,4.1429068E1,3.15086432E2,4.2034796E1,1.24918504E2,2.57217488E2,2.92531776E2,3.4374455999999995E1,1.92946016E2,,,1.5002623E1,1.740079E1,7.8989496E1,2.343771E1,2.1322229999999998E1,5.4495528E1,5.1391895999999996E1,4.1535807999999996E1,6.512105E0,1.2651344E1,,,2,6,12,14,19,24,25,32,17,29,,,1,3,15,2,2,15,8,8,2,3,,,
1570493831,2019-10-08 00:17:11.795,Acquired,Acquired,Acquired,Acquired,Acquired,Acquired,Acquired,Acquired,Not acquired,Acquired,,,1.1129457599999999E2,7.0267288E1,4.1429068E1,3.15086432E2,4.2034796E1,1.24918504E2,2.57217488E2,2.92531776E2,3.4374455999999995E1,1.92946016E2,,,1.5002623E1,1.740079E1,7.8989496E1,2.343771E1,2.1322229999999998E1,5.4495528E1,5.1391895999999996E1,4.1535807999999996E1,6.512105E0,1.2651344E1,,,2,6,12,14,19,24,25,32,17,29,,,1,3,15,2,2,15,8,8,2,3,,,
1570493891,2019-10-08 00:18:11.767,Acquired,Acquired,Acquired,Acquired,Acquired,Acquired,Acquired,Acquired,Not acquired,Acquired,,,1.1129457599999999E2,7.0267288E1,4.1429068E1,3.15086432E2,4.2034796E1,1.24918504E2,2.57217488E2,2.92531776E2,3.4374455999999995E1,1.92946016E2,,,1.5002623E1,1.740079E1,7.8989496E1,2.343771E1,2.1322229999999998E1,5.4495528E1,5.1391895999999996E1,4.1535807999999996E1,6.512105E0,1.2651344E1,,,2,6,12,14,19,24,25,32,17,29,,,1,3,15,2,2,15,8,8,2,3,,,
1570493951,2019-10-08 00:19:11.767,Acquired,Acquired,Acquired,Acquired,Acquired,Acquired,Acquired,Acquired,Not acquired,Acquired,,,1.1129457599999999E2,7.0267288E1,4.1429068E1,3.15086432E2,4.2034796E1,1.24918504E2,2.57217488E2,2.92531776E2,3.4374455999999995E1,1.92946016E2,,,1.5002623E1,1.740079E1,7.8989496E1,2.343771E1,2.1322229999999998E1,5.4495528E1,5.1391895999999996E1,4.1535807999999996E1,6.512105E0,1.2651344E1,,,2,6,12,14,19,24,25,32,17,29,,,1,3,15,2,2,15,8,8,2,3,,,
1570494011,2019-10-08 00:20:11.767,Acquired,Acquired,Acquired,Acquired,Acquired,Acquired,Acquired,Acquired,Not acquired,Acquired,,,1.1129457599999999E2,7.0267288E1,4.1429068E1,3.15086432E2,4.2034796E1,1.24918504E2,2.57217488E2,2.92531776E2,3.4374455999999995E1,1.92946016E2,,,1.5002623E1,1.740079E1,7.8989496E1,2.343771E1,2.1322229999999998E1,5.4495528E1,5.1391895999999996E1,4.1535807999999996E1,6.512105E0,1.2651344E1,,,2,6,12,14,19,24,25,32,17,29,,,1,3,15,2,2,15,8,8,2,3,,,
1570494071,2019-10-08 00:21:11.767,Acquired,Acquired,Acquired,Acquired,Acquired,Acquired,Acquired,Acquired,Not acquired,Acquired,,,1.1129457599999999E2,7.0267288E1,4.1429068E1,3.15086432E2,4.2034796E1,1.24918504E2,2.57217488E2,2.92531776E2,3.4374455999999995E1,1.92946016E2,,,1.5002623E1,1.740079E1,7.8989496E1,2.343771E1,2.1322229999999998E1,5.4495528E1,5.1391895999999996E1,4.1535807999999996E1,6.512105E0,1.2651344E1,,,2,6,12,14,19,24,25,32,17,29,,,1,3,15,2,2,15,8,8,2,3,,,
1570494131,2019-10-08 00:22:11.767,Acquired,Acquired,Acquired,Acquired,Acquired,Acquired,Acquired,Acquired,Not acquired,Acquired,,,1.1129457599999999E2,7.0267288E1,4.1429068E1,3.15086432E2,4.2034796E1,1.24918504E2,2.57217488E2,2.92531776E2,3.4374455999999995E1,1.92946016E2,,,1.5002623E1,1.740079E1,7.8989496E1,2.343771E1,2.1322229999999998E1,5.4495528E1,5.1391895999999996E1,4.1535807999999996E1,6.512105E0,1.2651344E1,,,2,6,12,14,19,24,25,32,17,29,,,1,3,15,2,2,15,8,8,2,3,,,
1570494191,2019-10-08 00:23:11.767,Acquired,Acquired,Acquired,Acquired,Acquired,Acquired,Acquired,Acquired,Not acquired,Acquired,,,1.1129457599999999E2,7.0267288E1,4.1429068E1,3.15086432E2,4.2034796E1,1.24918504E2,2.57217488E2,2.92531776E2,3.4374455999999995E1,1.92946016E2,,,1.5002623E1,1.740079E1,7.8989496E1,2.343771E1,2.1322229999999998E1,5.4495528E1,5.1391895999999996E1,4.1535807999999996E1,6.512105E0,1.2651344E1,,,2,6,12,14,19,24,25,32,17,29,,,1,3,15,2,2,15,8,8,2,3,,,
1570494251,2019-10-08 00:24:11.767,Acquired,Acquired,Acquired,Acquired,Acquired,Acquired,Acquired,Acquired,Not acquired,Acquired,,,1.1129457599999999E2,7.0267288E1,4.1429068E1,3.15086432E2,4.2034796E1,1.24918504E2,2.57217488E2,2.92531776E2,3.4374455999999995E1,1.92946016E2,,,1.5002623E1,1.740079E1,7.8989496E1,2.343771E1,2.1322229999999998E1,5.4495528E1,5.1391895999999996E1,4.1535807999999996E1,6.512105E0,1.2651344E1,,,2,6,12,14,19,24,25,32,17,29,,,1,3,15,2,2,15,8,8,2,3,,,
1570494311,2019-10-08 00:25:11.767,Acquired,Acquired,Acquired,Acquired,Acquired,Acquired,Acquired,Acquired,Not acquired,Acquired,,,1.1129457599999999E2,7.0267288E1,4.1429068E1,3.15086432E2,4.2034796E1,1.24918504E2,2.57217488E2,2.92531776E2,3.4374455999999995E1,1.92946016E2,,,1.5002623E1,1.740079E1,7.8989496E1,2.343771E1,2.1322229999999998E1,5.4495528E1,5.1391895999999996E1,4.1535807999999996E1,6.512105E0,1.2651344E1,,,2,6,12,14,19,24,25,32,17,29,,,1,3,15,2,2,15,8,8,2,3,,,
1570494371,2019-10-08 00:26:11.767,Acquired,Acquired,Acquired,Acquired,Acquired,Acquired,Acquired,Acquired,Not acquired,Acquired,,,1.1129457599999999E2,7.0267288E1,4.1429068E1,3.15086432E2,4.2034796E1,1.24918504E2,2.57217488E2,2.92531776E2,3.4374455999999995E1,1.92946016E2,,,1.5002623E1,1.740079E1,7.8989496E1,2.343771E1,2.1322229999999998E1,5.4495528E1,5.1391895999999996E1,4.1535807999999996E1,6.512105E0,1.2651344E1,,,2,6,12,14,19,24,25,32,17,29,,,1,3,15,2,2,15,8,8,2,3,,,
1570494431,2019-10-08 00:27:11.767,Acquired,Acquired,Acquired,Acquired,Acquired,Acquired,Acquired,Acquired,Not acquired,Acquired,,,1.1129457599999999E2,7.0267288E1,4.1429068E1,3.15086432E2,4.2034796E1,1.24918504E2,2.57217488E2,2.92531776E2,3.4374455999999995E1,1.92946016E2,,,1.5002623E1,1.740079E1,7.8989496E1,2.343771E1,2.1322229999999998E1,5.4495528E1,5.1391895999999996E1,4.1535807999999996E1,6.512105E0,1.2651344E1,,,2,6,12,14,19,24,25,32,17,29,,,1,3,15,2,2,15,8,8,2,3,,,
1570494491,2019-10-08 00:28:11.767,Acquired,Acquired,Acquired,Acquired,Acquired,Acquired,Acquired,Acquired,Not acquired,Acquired,,,1.1129457599999999E2,7.0267288E1,4.1429068E1,3.15086432E2,4.2034796E1,1.24918504E2,2.57217488E2,2.92531776E2,3.4374455999999995E1,1.92946016E2,,,1.5002623E1,1.740079E1,7.8989496E1,2.343771E1,2.1322229999999998E1,5.4495528E1,5.1391895999999996E1,4.1535807999999996E1,6.512105E0,1.2651344E1,,,2,6,12,14,19,24,25,32,17,29,,,1,3,15,2,2,15,8,8,2,3,,,
1570494551,2019-10-08 00:29:11.767,Acquired,Acquired,Acquired,Acquired,Acquired,Acquired,Acquired,Acquired,Not acquired,Acquired,,,1.1129457599999999E2,7.0267288E1,4.1429068E1,3.15086432E2,4.2034796E1,1.24918504E2,2.57217488E2,2.92531776E2,3.4374455999999995E1,1.92946016E2,,,1.5002623E1,1.740079E1,7.8989496E1,2.343771E1,2.1322229999999998E1,5.4495528E1,5.1391895999999996E1,4.1535807999999996E1,6.512105E0,1.2651344E1,,,2,6,12,14,19,24,25,32,17,29,,,1,3,15,2,2,15,8,8,2,3,,,
1570494611,2019-10-08 00:30:11.767,Acquired,Not acquired,Acquired,Acquired,Acquired,Acquired,Acquired,Acquired,Not acquired,Acquired,,,1.10979608E2,6.9848592E1,4.2274651999999996E1,3.14855904E2,4.1836304E1,1.2519536E2,2.57603184E2,2.9199456E2,3.4301212E1,1.9297006399999998E2,,,1.531025E1,1.754337E1,7.854075999999999E1,2.3754692E1,2.0963524E1,5.4052948E1,5.1810832E1,4.1702763999999995E1,6.153900999999999E0,1.3081564E1,,,2,6,12,14,19,24,25,32,17,29,,,3,2,15,1,3,14,15,4,2,5,,,
1570494671,2019-10-08 00:31:11.799,Acquired,Not acquired,Acquired,Acquired,Acquired,Acquired,Acquired,Acquired,Not acquired,Acquired,,,1.10979608E2,6.9848592E1,4.2274651999999996E1,3.14855904E2,4.1836304E1,1.2519536E2,2.57603184E2,2.9199456E2,3.4301212E1,1.9297006399999998E2,,,1.531025E1,1.754337E1,7.854075999999999E1,2.3754692E1,2.0963524E1,5.4052948E1,5.1810832E1,4.1702763999999995E1,6.153900999999999E0,1.3081564E1,,,2,6,12,14,19,24,25,32,17,29,,,3,2,15,1,3,14,15,4,2,5,,,
1570494731,2019-10-08 00:32:11.767,Acquired,Not acquired,Acquired,Acquired,Acquired,Acquired,Acquired,Acquired,Not acquired,Acquired,,,1.10979608E2,6.9848592E1,4.2274651999999996E1,3.14855904E2,4.1836304E1,1.2519536E2,2.57603184E2,2.9199456E2,3.4301212E1,1.9297006399999998E2,,,1.531025E1,1.754337E1,7.854075999999999E1,2.3754692E1,2.0963524E1,5.4052948E1,5.1810832E1,4.1702763999999995E1,6.153900999999999E0,1.3081564E1,,,2,6,12,14,19,24,25,32,17,29,,,3,2,15,1,3,14,15,4,2,5,,,
1570494791,2019-10-08 00:33:11.767,Acquired,Not acquired,Acquired,Acquired,Acquired,Acquired,Acquired,Acquired,Not acquired,Acquired,,,1.10979608E2,6.9848592E1,4.2274651999999996E1,3.14855904E2,4.1836304E1,1.2519536E2,2.57603184E2,2.9199456E2,3.4301212E1,1.9297006399999998E2,,,1.531025E1,1.754337E1,7.854075999999999E1,2.3754692E1,2.0963524E1,5.4052948E1,5.1810832E1,4.1702763999999995E1,6.153900999999999E0,1.3081564E1,,,2,6,12,14,19,24,25,32,17,29,,,3,2,15,1,3,14,15,4,2,5,,,
1570494851,2019-10-08 00:34:11.767,Acquired,Not acquired,Acquired,Acquired,Acquired,Acquired,Acquired,Acquired,Not acquired,Acquired,,,1.10979608E2,6.9848592E1,4.2274651999999996E1,3.14855904E2,4.1836304E1,1.2519536E2,2.57603184E2,2.9199456E2,3.4301212E1,1.9297006399999998E2,,,1.531025E1,1.754337E1,7.854075999999999E1,2.3754692E1,2.0963524E1,5.4052948E1,5.1810832E1,4.1702763999999995E1,6.153900999999999E0,1.3081564E1,,,2,6,12,14,19,24,25,32,17,29,,,3,2,15,1,3,14,15,4,2,5,,,
1570494911,2019-10-08 00:35:11.767,Acquired,Not acquired,Acquired,Acquired,Acquired,Acquired,Acquired,Acquired,Not acquired,Acquired,,,1.10979608E2,6.9848592E1,4.2274651999999996E1,3.14855904E2,4.1836304E1,1.2519536E2,2.57603184E2,2.9199456E2,3.4301212E1,1.9297006399999998E2,,,1.531025E1,1.754337E1,7.854075999999999E1,2.3754692E1,2.0963524E1,5.4052948E1,5.1810832E1,4.1702763999999995E1,6.153900999999999E0,1.3081564E1,,,2,6,12,14,19,24,25,32,17,29,,,3,2,15,1,3,14,15,4,2,5,,,
1570494971,2019-10-08 00:36:11.767,Acquired,Not acquired,Acquired,Acquired,Acquired,Acquired,Acquired,Acquired,Not acquired,Acquired,,,1.10979608E2,6.9848592E1,4.2274651999999996E1,3.14855904E2,4.1836304E1,1.2519536E2,2.57603184E2,2.9199456E2,3.4301212E1,1.9297006399999998E2,,,1.531025E1,1.754337E1,7.854075999999999E1,2.3754692E1,2.0963524E1,5.4052948E1,5.1810832E1,4.1702763999999995E1,6.153900999999999E0,1.3081564E1,,,2,6,12,14,19,24,25,32,17,29,,,3,2,15,1,3,14,15,4,2,5,,,
1570495031,2019-10-08 00:37:11.767,Acquired,Not acquired,Acquired,Acquired,Acquired,Acquired,Acquired,Acquired,Not acquired,Acquired,,,1.10979608E2,6.9848592E1,4.2274651999999996E1,3.14855904E2,4.1836304E1,1.2519536E2,2.57603184E2,2.9199456E2,3.4301212E1,1.9297006399999998E2,,,1.531025E1,1.754337E1,7.854075999999999E1,2.3754692E1,2.0963524E1,5.4052948E1,5.1810832E1,4.1702763999999995E1,6.153900999999999E0,1.3081564E1,,,2,6,12,14,19,24,25,32,17,29,,,3,2,15,1,3,14,15,4,2,5,,,
1570495091,2019-10-08 00:38:11.767,Acquired,Not acquired,Acquired,Acquired,Acquired,Acquired,Acquired,Acquired,Not acquired,Acquired,,,1.10979608E2,6.9848592E1,4.2274651999999996E1,3.14855904E2,4.1836304E1,1.2519536E2,2.57603184E2,2.9199456E2,3.4301212E1,1.9297006399999998E2,,,1.531025E1,1.754337E1,7.854075999999999E1,2.3754692E1,2.0963524E1,5.4052948E1,5.1810832E1,4.1702763999999995E1,6.153900999999999E0,1.3081564E1,,,2,6,12,14,19,24,25,32,17,29,,,3,2,15,1,3,14,15,4,2,5,,,
1570495151,2019-10-08 00:39:11.767,Acquired,Not acquired,Acquired,Acquired,Acquired,Acquired,Acquired,Acquired,Not acquired,Acquired,,,1.10979608E2,6.9848592E1,4.2274651999999996E1,3.14855904E2,4.1836304E1,1.2519536E2,2.57603184E2,2.9199456E2,3.4301212E1,1.9297006399999998E2,,,1.531025E1,1.754337E1,7.854075999999999E1,2.3754692E1,2.0963524E1,5.4052948E1,5.1810832E1,4.1702763999999995E1,6.153900999999999E0,1.3081564E1,,,2,6,12,14,19,24,25,32,17,29,,,3,2,15,1,3,14,15,4,2,5,,,
1570495211,2019-10-08 00:40:11.767,Acquired,Not acquired,Acquired,Acquired,Acquired,Acquired,Acquired,Acquired,Not acquired,Acquired,,,1.10979608E2,6.9848592E1,4.2274651999999996E1,3.14855904E2,4.1836304E1,1.2519536E2,2.57603184E2,2.9199456E2,3.4301212E1,1.9297006399999998E2,,,1.531025E1,1.754337E1,7.854075999999999E1,2.3754692E1,2.0963524E1,5.4052948E1,5.1810832E1,4.1702763999999995E1,6.153900999999999E0,1.3081564E1,,,2,6,12,14,19,24,25,32,17,29,,,3,2,15,1,3,14,15,4,2,5,,,
1570495271,2019-10-08 00:41:11.767,Acquired,Not acquired,Acquired,Acquired,Acquired,Acquired,Acquired,Acquired,Not acquired,Acquired,,,1.10979608E2,6.9848592E1,4.2274651999999996E1,3.14855904E2,4.1836304E1,1.2519536E2,2.57603184E2,2.9199456E2,3.4301212E1,1.9297006399999998E2,,,1.531025E1,1.754337E1,7.854075999999999E1,2.3754692E1,2.0963524E1,5.4052948E1,5.1810832E1,4.1702763999999995E1,6.153900999999999E0,1.3081564E1,,,2,6,12,14,19,24,25,32,17,29,,,3,2,15,1,3,14,15,4,2,5,,,
1570495331,2019-10-08 00:42:11.767,Acquired,Not acquired,Acquired,Acquired,Acquired,Acquired,Acquired,Acquired,Not acquired,Acquired,,,1.10979608E2,6.9848592E1,4.2274651999999996E1,3.14855904E2,4.1836304E1,1.2519536E2,2.57603184E2,2.9199456E2,3.4301212E1,1.9297006399999998E2,,,1.531025E1,1.754337E1,7.854075999999999E1,2.3754692E1,2.0963524E1,5.4052948E1,5.1810832E1,4.1702763999999995E1,6.153900999999999E0,1.3081564E1,,,2,6,12,14,19,24,25,32,17,29,,,3,2,15,1,3,14,15,4,2,5,,,
1570495391,2019-10-08 00:43:11.767,Acquired,Not acquired,Acquired,Acquired,Acquired,Acquired,Acquired,Acquired,Not acquired,Acquired,,,1.10979608E2,6.9848592E1,4.2274651999999996E1,3.14855904E2,4.1836304E1,1.2519536E2,2.57603184E2,2.9199456E2,3.4301212E1,1.9297006399999998E2,,,1.531025E1,1.754337E1,7.854075999999999E1,2.3754692E1,2.0963524E1,5.4052948E1,5.1810832E1,4.1702763999999995E1,6.153900999999999E0,1.3081564E1,,,2,6,12,14,19,24,25,32,17,29,,,3,2,15,1,3,14,15,4,2,5,,,
1570495451,2019-10-08 00:44:11.767,Acquired,Not acquired,Acquired,Acquired,Acquired,Acquired,Acquired,Acquired,Not acquired,Acquired,,,1.10979608E2,6.9848592E1,4.2274651999999996E1,3.14855904E2,4.1836304E1,1.2519536E2,2.57603184E2,2.9199456E2,3.4301212E1,1.9297006399999998E2,,,1.531025E1,1.754337E1,7.854075999999999E1,2.3754692E1,2.0963524E1,5.4052948E1,5.1810832E1,4.1702763999999995E1,6.153900999999999E0,1.3081564E1,,,2,6,12,14,19,24,25,32,17,29,,,3,2,15,1,3,14,15,4,2,5,,,
1570495511,2019-10-08 00:45:11.767,Acquired,Not acquired,Acquired,Acquired,Acquired,Acquired,Acquired,Acquired,Not acquired,Acquired,,,1.10979608E2,6.9848592E1,4.2274651999999996E1,3.14855904E2,4.1836304E1,1.2519536E2,2.57603184E2,2.9199456E2,3.4301212E1,1.9297006399999998E2,,,1.531025E1,1.754337E1,7.854075999999999E1,2.3754692E1,2.0963524E1,5.4052948E1,5.1810832E1,4.1702763999999995E1,6.153900999999999E0,1.3081564E1,,,2,6,12,14,19,24,25,32,17,29,,,3,2,15,1,3,14,15,4,2,5,,,
1570495571,2019-10-08 00:46:11.767,Acquired,Not acquired,Acquired,Acquired,Acquired,Acquired,Acquired,Acquired,Not acquired,Acquired,,,1.10979608E2,6.9848592E1,4.2274651999999996E1,3.14855904E2,4.1836304E1,1.2519536E2,2.57603184E2,2.9199456E2,3.4301212E1,1.9297006399999998E2,,,1.531025E1,1.754337E1,7.854075999999999E1,2.3754692E1,2.0963524E1,5.4052948E1,5.1810832E1,4.1702763999999995E1,6.153900999999999E0,1.3081564E1,,,2,6,12,14,19,24,25,32,17,29,,,3,2,15,1,3,14,15,4,2,5,,,
1570495631,2019-10-08 00:47:11.767,Acquired,Not acquired,Acquired,Acquired,Acquired,Acquired,Acquired,Acquired,Not acquired,Acquired,,,1.10979608E2,6.9848592E1,4.2274651999999996E1,3.14855904E2,4.1836304E1,1.2519536E2,2.57603184E2,2.9199456E2,3.4301212E1,1.9297006399999998E2,,,1.531025E1,1.754337E1,7.854075999999999E1,2.3754692E1,2.0963524E1,5.4052948E1,5.1810832E1,4.1702763999999995E1,6.153900999999999E0,1.3081564E1,,,2,6,12,14,19,24,25,32,17,29,,,3,2,15,1,3,14,15,4,2,5,,,
1570495691,2019-10-08 00:48:11.767,Acquired,Not acquired,Acquired,Acquired,Acquired,Acquired,Acquired,Acquired,Not acquired,Acquired,,,1.10979608E2,6.9848592E1,4.2274651999999996E1,3.14855904E2,4.1836304E1,1.2519536E2,2.57603184E2,2.9199456E2,3.4301212E1,1.9297006399999998E2,,,1.531025E1,1.754337E1,7.854075999999999E1,2.3754692E1,2.0963524E1,5.4052948E1,5.1810832E1,4.1702763999999995E1,6.153900999999999E0,1.3081564E1,,,2,6,12,14,19,24,25,32,17,29,,,3,2,15,1,3,14,15,4,2,5,,,
1570495751,2019-10-08 00:49:11.767,Acquired,Not acquired,Acquired,Acquired,Acquired,Acquired,Acquired,Acquired,Not acquired,Acquired,,,1.10979608E2,6.9848592E1,4.2274651999999996E1,3.14855904E2,4.1836304E1,1.2519536E2,2.57603184E2,2.9199456E2,3.4301212E1,1.9297006399999998E2,,,1.531025E1,1.754337E1,7.854075999999999E1,2.3754692E1,2.0963524E1,5.4052948E1,5.1810832E1,4.1702763999999995E1,6.153900999999999E0,1.3081564E1,,,2,6,12,14,19,24,25,32,17,29,,,3,2,15,1,3,14,15,4,2,5,,,
1570495811,2019-10-08 00:50:11.767,Acquired,Not acquired,Acquired,Acquired,Acquired,Acquired,Acquired,Acquired,Not acquired,Acquired,,,1.10979608E2,6.9848592E1,4.2274651999999996E1,3.14855904E2,4.1836304E1,1.2519536E2,2.57603184E2,2.9199456E2,3.4301212E1,1.9297006399999998E2,,,1.531025E1,1.754337E1,7.854075999999999E1,2.3754692E1,2.0963524E1,5.4052948E1,5.1810832E1,4.1702763999999995E1,6.153900999999999E0,1.3081564E1,,,2,6,12,14,19,24,25,32,17,29,,,3,2,15,1,3,14,15,4,2,5,,,
1570495871,2019-10-08 00:51:11.767,Acquired,Not acquired,Acquired,Acquired,Acquired,Acquired,Acquired,Acquired,Not acquired,Acquired,,,1.10979608E2,6.9848592E1,4.2274651999999996E1,3.14855904E2,4.1836304E1,1.2519536E2,2.57603184E2,2.9199456E2,3.4301212E1,1.9297006399999998E2,,,1.531025E1,1.754337E1,7.854075999999999E1,2.3754692E1,2.0963524E1,5.4052948E1,5.1810832E1,4.1702763999999995E1,6.153900999999999E0,1.3081564E1,,,2,6,12,14,19,24,25,32,17,29,,,3,2,15,1,3,14,15,4,2,5,,,
1570495931,2019-10-08 00:52:11.767,Acquired,Not acquired,Acquired,Acquired,Acquired,Acquired,Acquired,Acquired,Not acquired,Acquired,,,1.10979608E2,6.9848592E1,4.2274651999999996E1,3.14855904E2,4.1836304E1,1.2519536E2,2.57603184E2,2.9199456E2,3.4301212E1,1.9297006399999998E2,,,1.531025E1,1.754337E1,7.854075999999999E1,2.3754692E1,2.0963524E1,5.4052948E1,5.1810832E1,4.1702763999999995E1,6.153900999999999E0,1.3081564E1,,,2,6,12,14,19,24,25,32,17,29,,,3,2,15,1,3,14,15,4,2,5,,,
1570495991,2019-10-08 00:53:11.767,Acquired,Not acquired,Acquired,Acquired,Acquired,Acquired,Acquired,Acquired,Not acquired,Acquired,,,1.10979608E2,6.9848592E1,4.2274651999999996E1,3.14855904E2,4.1836304E1,1.2519536E2,2.57603184E2,2.9199456E2,3.4301212E1,1.9297006399999998E2,,,1.531025E1,1.754337E1,7.854075999999999E1,2.3754692E1,2.0963524E1,5.4052948E1,5.1810832E1,4.1702763999999995E1,6.153900999999999E0,1.3081564E1,,,2,6,12,14,19,24,25,32,17,29,,,3,2,15,1,3,14,15,4,2,5,,,
1570496051,2019-10-08 00:54:11.767,Acquired,Not acquired,Acquired,Acquired,Acquired,Acquired,Acquired,Acquired,Not acquired,Acquired,,,1.10979608E2,6.9848592E1,4.2274651999999996E1,3.14855904E2,4.1836304E1,1.2519536E2,2.57603184E2,2.9199456E2,3.4301212E1,1.9297006399999998E2,,,1.531025E1,1.754337E1,7.854075999999999E1,2.3754692E1,2.0963524E1,5.4052948E1,5.1810832E1,4.1702763999999995E1,6.153900999999999E0,1.3081564E1,,,2,6,12,14,19,24,25,32,17,29,,,3,2,15,1,3,14,15,4,2,5,,,
1570496111,2019-10-08 00:55:11.767,Acquired,Not acquired,Acquired,Acquired,Acquired,Acquired,Acquired,Acquired,Not acquired,Acquired,,,1.10979608E2,6.9848592E1,4.2274651999999996E1,3.14855904E2,4.1836304E1,1.2519536E2,2.57603184E2,2.9199456E2,3.4301212E1,1.9297006399999998E2,,,1.531025E1,1.754337E1,7.854075999999999E1,2.3754692E1,2.0963524E1,5.4052948E1,5.1810832E1,4.1702763999999995E1,6.153900999999999E0,1.3081564E1,,,2,6,12,14,19,24,25,32,17,29,,,3,2,15,1,3,14,15,4,2,5,,,
1570496171,2019-10-08 00:56:11.767,Acquired,Not acquired,Acquired,Acquired,Acquired,Acquired,Acquired,Acquired,Not acquired,Acquired,,,1.10979608E2,6.9848592E1,4.2274651999999996E1,3.14855904E2,4.1836304E1,1.2519536E2,2.57603184E2,2.9199456E2,3.4301212E1,1.9297006399999998E2,,,1.531025E1,1.754337E1,7.854075999999999E1,2.3754692E1,2.0963524E1,5.4052948E1,5.1810832E1,4.1702763999999995E1,6.153900999999999E0,1.3081564E1,,,2,6,12,14,19,24,25,32,17,29,,,3,2,15,1,3,14,15,4,2,5,,,
1570496231,2019-10-08 00:57:11.767,Acquired,Not acquired,Acquired,Acquired,Acquired,Acquired,Acquired,Acquired,Not acquired,Acquired,,,1.10979608E2,6.9848592E1,4.2274651999999996E1,3.14855904E2,4.1836304E1,1.2519536E2,2.57603184E2,2.9199456E2,3.4301212E1,1.9297006399999998E2,,,1.531025E1,1.754337E1,7.854075999999999E1,2.3754692E1,2.0963524E1,5.4052948E1,5.1810832E1,4.1702763999999995E1,6.153900999999999E0,1.3081564E1,,,2,6,12,14,19,24,25,32,17,29,,,3,2,15,1,3,14,15,4,2,5,,,
1570496291,2019-10-08 00:58:11.767,Acquired,Not acquired,Acquired,Acquired,Acquired,Acquired,Acquired,Acquired,Not acquired,Acquired,,,1.10979608E2,6.9848592E1,4.2274651999999996E1,3.14855904E2,4.1836304E1,1.2519536E2,2.57603184E2,2.9199456E2,3.4301212E1,1.9297006399999998E2,,,1.531025E1,1.754337E1,7.854075999999999E1,2.3754692E1,2.0963524E1,5.4052948E1,5.1810832E1,4.1702763999999995E1,6.153900999999999E0,1.3081564E1,,,2,6,12,14,19,24,25,32,17,29,,,3,2,15,1,3,14,15,4,2,5,,,
1570496351,2019-10-08 00:59:11.767,Acquired,Not acquired,Acquired,Acquired,Acquired,Acquired,Acquired,Acquired,Not acquired,Acquired,,,1.10979608E2,6.9848592E1,4.2274651999999996E1,3.14855904E2,4.1836304E1,1.2519536E2,2.57603184E2,2.9199456E2,3.4301212E1,1.9297006399999998E2,,,1.531025E1,1.754337E1,7.854075999999999E1,2.3754692E1,2.0963524E1,5.4052948E1,5.1810832E1,4.1702763999999995E1,6.153900999999999E0,1.3081564E1,,,2,6,12,14,19,24,25,32,17,29,,,3,2,15,1,3,14,15,4,2,5,,,
