Time(longsecs),Time(UTC),Earth Location,GPS Receiver Status,GPS Satellites Used,GPS PDOP,GPS TDOP,Timing Status,Timing Phase Lock,Timing Uncertainty(ns),DAC Count,Timing Error(ns),GPS Last Update Time,
1570575611,2019-10-08 23:00:11.767,47.650974N 0.578125E 214m,Off,6,2.5594156,1.5264084,Time OK,Free running,47700,8556,0,2019-10-08 22:08:25.000000000,
1570575671,2019-10-08 23:01:11.767,47.650974N 0.578125E 214m,Off,6,2.5594156,1.5264084,Time OK,Free running,48700,8556,0,2019-10-08 22:08:25.000000000,
1570575731,2019-10-08 23:02:11.767,47.650974N 0.578125E 214m,Off,6,2.5594156,1.5264084,Time OK,Free running,49500,8556,0,2019-10-08 22:08:25.000000000,
1570575791,2019-10-08 23:03:11.767,47.650974N 0.578125E 214m,Off,6,2.5594156,1.5264084,Time OK,Free running,50500,8556,0,2019-10-08 22:08:25.000000000,
1570575851,2019-10-08 23:04:11.770,47.650974N 0.578125E 214m,Doing fixes,5,2.150525,1.1037446,Time OK,Coarse lock,100,8961,-5520,2019-10-08 23:04:10.000000000,
1570575911,2019-10-08 23:05:11.767,47.650974N 0.578125E 214m,Doing fixes,5,3.1515028,2.0427384,Time OK,Fine lock,100,8560,0,2019-10-08 23:05:10.000000000,
1570575971,2019-10-08 23:06:11.767,47.650974N 0.578125E 214m,Doing fixes,5,3.1714537,2.0543535,Time OK,Fine lock,100,8558,0,2019-10-08 23:06:10.000000000,
1570576031,2019-10-08 23:07:11.767,47.650974N 0.578125E 214m,Doing fixes,5,3.1935608,2.0672002,Time OK,Fine lock,100,8571,-104,2019-10-08 23:07:10.000000000,
1570576091,2019-10-08 23:08:11.767,47.650974N 0.578125E 214m,Doing fixes,5,3.216019,2.0802224,Time OK,Fine lock,100,8554,0,2019-10-08 23:08:10.000000000,
1570576151,2019-10-08 23:09:11.767,47.650974N 0.578125E 214m,Doing fixes,5,3.24049,2.0943847,Time OK,Fine lock,100,8549,104,2019-10-08 23:09:10.000000000,
1570576211,2019-10-08 23:10:11.767,47.650974N 0.578125E 214m,Off,5,3.2423716,2.0954719,Time OK,Free running,800,8559,0,2019-10-08 23:09:15.000000000,
1570576271,2019-10-08 23:11:11.767,47.650974N 0.578125E 214m,Off,5,3.2423716,2.0954719,Time OK,Free running,1600,8559,0,2019-10-08 23:09:15.000000000,
1570576331,2019-10-08 23:12:11.767,47.650974N 0.578125E 214m,Off,5,3.2423716,2.0954719,Time OK,Free running,2800,8559,0,2019-10-08 23:09:15.000000000,
1570576391,2019-10-08 23:13:11.767,47.650974N 0.578125E 214m,Off,5,3.2423716,2.0954719,Time OK,Free running,3900,8559,0,2019-10-08 23:09:15.000000000,
1570576451,2019-10-08 23:14:11.767,47.650974N 0.578125E 214m,Off,5,3.2423716,2.0954719,Time OK,Free running,4800,8559,0,2019-10-08 23:09:15.000000000,
1570576511,2019-10-08 23:15:11.767,47.650974N 0.578125E 214m,Off,5,3.2423716,2.0954719,Time OK,Free running,5800,8559,0,2019-10-08 23:09:15.000000000,
1570576571,2019-10-08 23:16:11.767,47.650974N 0.578125E 214m,Off,5,3.2423716,2.0954719,Time OK,Free running,6600,8559,0,2019-10-08 23:09:15.000000000,
1570576631,2019-10-08 23:17:11.767,47.650974N 0.578125E 214m,Off,5,3.2423716,2.0954719,Time OK,Free running,7400,8559,0,2019-10-08 23:09:15.000000000,
1570576691,2019-10-08 23:18:11.767,47.650974N 0.578125E 214m,Off,5,3.2423716,2.0954719,Time OK,Free running,8400,8559,0,2019-10-08 23:09:15.000000000,
1570576751,2019-10-08 23:19:11.767,47.650974N 0.578125E 214m,Off,5,3.2423716,2.0954719,Time OK,Free running,9400,8559,0,2019-10-08 23:09:15.000000000,
1570576811,2019-10-08 23:20:11.767,47.650974N 0.578125E 214m,Off,5,3.2423716,2.0954719,Time OK,Free running,10400,8559,0,2019-10-08 23:09:15.000000000,
1570576871,2019-10-08 23:21:11.769,47.650974N 0.578125E 214m,Off,5,3.2423716,2.0954719,Time OK,Free running,11600,8559,0,2019-10-08 23:09:15.000000000,
1570576931,2019-10-08 23:22:11.767,47.650974N 0.578125E 214m,Off,5,3.2423716,2.0954719,Time OK,Free running,12800,8559,0,2019-10-08 23:09:15.000000000,
1570576991,2019-10-08 23:23:11.777,47.650974N 0.578125E 214m,Off,5,3.2423716,2.0954719,Time OK,Free running,13700,8559,0,2019-10-08 23:09:15.000000000,
1570577051,2019-10-08 23:24:11.767,47.650974N 0.578125E 214m,Off,5,3.2423716,2.0954719,Time OK,Free running,14700,8559,0,2019-10-08 23:09:15.000000000,
1570577111,2019-10-08 23:25:11.767,47.650974N 0.578125E 214m,Off,5,3.2423716,2.0954719,Time OK,Free running,15900,8559,0,2019-10-08 23:09:15.000000000,
1570577171,2019-10-08 23:26:11.767,47.650974N 0.578125E 214m,Off,5,3.2423716,2.0954719,Time OK,Free running,16900,8559,0,2019-10-08 23:09:15.000000000,
1570577231,2019-10-08 23:27:11.767,47.650974N 0.578125E 214m,Off,5,3.2423716,2.0954719,Time OK,Free running,17900,8559,0,2019-10-08 23:09:15.000000000,
1570577291,2019-10-08 23:28:11.767,47.650974N 0.578125E 214m,Off,5,3.2423716,2.0954719,Time OK,Free running,18700,8559,0,2019-10-08 23:09:15.000000000,
1570577351,2019-10-08 23:29:11.767,47.650974N 0.578125E 214m,Off,5,3.2423716,2.0954719,Time OK,Free running,19600,8559,0,2019-10-08 23:09:15.000000000,
1570577411,2019-10-08 23:30:11.767,47.650974N 0.578125E 214m,Off,5,3.2423716,2.0954719,Time OK,Free running,20600,8559,0,2019-10-08 23:09:15.000000000,
1570577471,2019-10-08 23:31:11.767,47.650974N 0.578125E 214m,Off,5,3.2423716,2.0954719,Time OK,Free running,21500,8559,0,2019-10-08 23:09:15.000000000,
1570577531,2019-10-08 23:32:11.767,47.650974N 0.578125E 214m,Off,5,3.2423716,2.0954719,Time OK,Free running,22400,8559,0,2019-10-08 23:09:15.000000000,
1570577591,2019-10-08 23:33:11.767,47.650974N 0.578125E 214m,Off,5,3.2423716,2.0954719,Time OK,Free running,23500,8559,0,2019-10-08 23:09:15.000000000,
1570577651,2019-10-08 23:34:11.767,47.650974N 0.578125E 214m,Off,5,3.2423716,2.0954719,Time OK,Free running,24700,8559,0,2019-10-08 23:09:15.000000000,
1570577711,2019-10-08 23:35:11.767,47.650974N 0.578125E 214m,Off,5,3.2423716,2.0954719,Time OK,Free running,25800,8559,0,2019-10-08 23:09:15.000000000,
1570577771,2019-10-08 23:36:11.767,47.650974N 0.578125E 214m,Off,5,3.2423716,2.0954719,Time OK,Free running,26900,8559,0,2019-10-08 23:09:15.000000000,
1570577831,2019-10-08 23:37:11.767,47.650974N 0.578125E 214m,Off,5,3.2423716,2.0954719,Time OK,Free running,27800,8559,0,2019-10-08 23:09:15.000000000,
1570577891,2019-10-08 23:38:11.767,47.650974N 0.578125E 214m,Off,5,3.2423716,2.0954719,Time OK,Free running,28800,8559,0,2019-10-08 23:09:15.000000000,
1570577951,2019-10-08 23:39:11.767,47.650974N 0.578125E 214m,Off,5,3.2423716,2.0954719,Time OK,Free running,30100,8559,0,2019-10-08 23:09:15.000000000,
1570578011,2019-10-08 23:40:11.767,47.650974N 0.578125E 214m,Off,5,3.2423716,2.0954719,Time OK,Free running,31100,8559,0,2019-10-08 23:09:15.000000000,
1570578071,2019-10-08 23:41:11.767,47.650974N 0.578125E 214m,Off,5,3.2423716,2.0954719,Time OK,Free running,32000,8559,0,2019-10-08 23:09:15.000000000,
1570578131,2019-10-08 23:42:11.767,47.650974N 0.578125E 214m,Off,5,3.2423716,2.0954719,Time OK,Free running,33100,8559,0,2019-10-08 23:09:15.000000000,
1570578191,2019-10-08 23:43:11.767,47.650974N 0.578125E 214m,Off,5,3.2423716,2.0954719,Time OK,Free running,34100,8559,0,2019-10-08 23:09:15.000000000,
1570578251,2019-10-08 23:44:11.767,47.650974N 0.578125E 214m,Off,5,3.2423716,2.0954719,Time OK,Free running,35200,8559,0,2019-10-08 23:09:15.000000000,
1570578311,2019-10-08 23:45:11.768,47.650974N 0.578125E 214m,Off,5,3.2423716,2.0954719,Time OK,Free running,36400,8559,0,2019-10-08 23:09:15.000000000,
1570578371,2019-10-08 23:46:11.769,47.650974N 0.578125E 214m,Off,5,3.2423716,2.0954719,Time OK,Free running,37500,8559,0,2019-10-08 23:09:15.000000000,
1570578431,2019-10-08 23:47:11.768,47.650974N 0.578125E 214m,Off,5,3.2423716,2.0954719,Time OK,Free running,38700,8559,0,2019-10-08 23:09:15.000000000,
1570578491,2019-10-08 23:48:11.769,47.650974N 0.578125E 214m,Off,5,3.2423716,2.0954719,Time OK,Free running,39900,8559,0,2019-10-08 23:09:15.000000000,
1570578551,2019-10-08 23:49:11.769,47.650974N 0.578125E 214m,Off,5,3.2423716,2.0954719,Time OK,Free running,41000,8559,0,2019-10-08 23:09:15.000000000,
1570578611,2019-10-08 23:50:11.768,47.650974N 0.578125E 214m,Off,5,3.2423716,2.0954719,Time OK,Free running,42000,8559,0,2019-10-08 23:09:15.000000000,
1570578671,2019-10-08 23:51:11.769,47.650974N 0.578125E 214m,Off,5,3.2423716,2.0954719,Time OK,Free running,43000,8559,0,2019-10-08 23:09:15.000000000,
1570578731,2019-10-08 23:52:11.768,47.650974N 0.578125E 214m,Off,5,3.2423716,2.0954719,Time OK,Free running,43900,8559,0,2019-10-08 23:09:15.000000000,
1570578791,2019-10-08 23:53:11.768,47.650974N 0.578125E 214m,Off,5,3.2423716,2.0954719,Time OK,Free running,44900,8559,0,2019-10-08 23:09:15.000000000,
1570578851,2019-10-08 23:54:11.769,47.650974N 0.578125E 214m,Off,5,3.2423716,2.0954719,Time OK,Free running,46000,8559,0,2019-10-08 23:09:15.000000000,
1570578911,2019-10-08 23:55:11.768,47.650974N 0.578125E 214m,Off,5,3.2423716,2.0954719,Time OK,Free running,46800,8559,0,2019-10-08 23:09:15.000000000,
1570578971,2019-10-08 23:56:11.768,47.650974N 0.578125E 214m,Off,5,3.2423716,2.0954719,Time OK,Free running,47900,8559,0,2019-10-08 23:09:15.000000000,
1570579031,2019-10-08 23:57:11.768,47.650974N 0.578125E 214m,Off,5,3.2423716,2.0954719,Time OK,Free running,49300,8559,0,2019-10-08 23:09:15.000000000,
1570579091,2019-10-08 23:58:11.768,47.650974N 0.578125E 214m,Off,5,3.2423716,2.0954719,Time OK,Free running,50600,8559,0,2019-10-08 23:09:15.000000000,
1570579151,2019-10-08 23:59:11.768,47.650974N 0.578125E 214m,Doing fixes,6,2.3689024,1.4126852,Time OK,Coarse lock,100,8495,312,2019-10-08 23:59:10.000000000,
