Time(longsecs),Time(UTC),Earth Location,GPS Receiver Status,GPS Satellites Used,GPS PDOP,GPS TDOP,Timing Status,Timing Phase Lock,Timing Uncertainty(ns),DAC Count,Timing Error(ns),GPS Last Update Time,
1571839211,2019-10-23 14:00:11.767,47.651134N 0.578078E 176m,Off,6,2.453302,1.5223647,Time OK,Free running,35200,8640,0,2019-10-23 13:32:36.000000000,
1571839271,2019-10-23 14:01:11.767,47.651134N 0.578078E 176m,Off,6,2.453302,1.5223647,Time OK,Free running,36600,8640,0,2019-10-23 13:32:36.000000000,
1571839331,2019-10-23 14:02:11.767,47.651134N 0.578078E 176m,Off,6,2.453302,1.5223647,Time OK,Free running,38200,8640,0,2019-10-23 13:32:36.000000000,
1571839391,2019-10-23 14:03:11.796,47.651134N 0.578078E 176m,Off,6,2.453302,1.5223647,Time OK,Free running,39400,8640,0,2019-10-23 13:32:36.000000000,
1571839451,2019-10-23 14:04:11.767,47.651134N 0.578078E 176m,Off,6,2.453302,1.5223647,Time OK,Free running,40300,8640,0,2019-10-23 13:32:36.000000000,
1571839511,2019-10-23 14:05:11.767,47.651134N 0.578078E 176m,Off,6,2.453302,1.5223647,Time OK,Free running,41400,8640,0,2019-10-23 13:32:36.000000000,
1571839571,2019-10-23 14:06:11.767,47.651134N 0.578078E 176m,Off,6,2.453302,1.5223647,Time OK,Free running,42500,8640,0,2019-10-23 13:32:36.000000000,
1571839631,2019-10-23 14:07:11.767,47.651134N 0.578078E 176m,Off,6,2.453302,1.5223647,Time OK,Free running,43400,8640,0,2019-10-23 13:32:36.000000000,
1571839691,2019-10-23 14:08:11.801,47.651134N 0.578078E 176m,Off,6,2.453302,1.5223647,Time OK,Free running,44300,8640,0,2019-10-23 13:32:36.000000000,
1571839751,2019-10-23 14:09:11.767,47.651134N 0.578078E 176m,Off,6,2.453302,1.5223647,Time OK,Free running,45100,8640,0,2019-10-23 13:32:36.000000000,
1571839811,2019-10-23 14:10:11.769,47.651134N 0.578078E 176m,Off,6,2.453302,1.5223647,Time OK,Free running,45900,8640,0,2019-10-23 13:32:36.000000000,
1571839871,2019-10-23 14:11:11.767,47.651134N 0.578078E 176m,Off,6,2.453302,1.5223647,Time OK,Free running,47100,8640,0,2019-10-23 13:32:36.000000000,
1571839931,2019-10-23 14:12:11.767,47.651134N 0.578078E 176m,Off,6,2.453302,1.5223647,Time OK,Free running,48100,8640,0,2019-10-23 13:32:36.000000000,
1571839991,2019-10-23 14:13:11.767,47.651134N 0.578078E 176m,Off,6,2.453302,1.5223647,Time OK,Free running,48900,8640,0,2019-10-23 13:32:36.000000000,
1571840051,2019-10-23 14:14:11.767,47.651134N 0.578078E 176m,Off,6,2.453302,1.5223647,Time OK,Free running,49800,8640,0,2019-10-23 13:32:36.000000000,
1571840111,2019-10-23 14:15:11.767,47.651134N 0.578078E 176m,Off,6,2.453302,1.5223647,Time OK,Free running,50600,8640,0,2019-10-23 13:32:36.000000000,
1571840171,2019-10-23 14:16:11.767,47.651134N 0.578078E 176m,Doing fixes,5,4.4295917,3.1626408,Time OK,Coarse lock,100,8831,-1875,2019-10-23 14:16:11.000000000,
1571840231,2019-10-23 14:17:11.767,47.651134N 0.578078E 176m,Off,6,3.016119,2.0231109,Time OK,Free running,400,8647,0,2019-10-23 14:16:46.000000000,
1571840291,2019-10-23 14:18:11.767,47.651134N 0.578078E 176m,Off,6,3.016119,2.0231109,Time OK,Free running,1400,8647,0,2019-10-23 14:16:46.000000000,
1571840351,2019-10-23 14:19:11.774,47.651134N 0.578078E 176m,Off,6,3.016119,2.0231109,Time OK,Free running,2700,8647,0,2019-10-23 14:16:46.000000000,
1571840411,2019-10-23 14:20:11.767,47.651134N 0.578078E 176m,Off,6,3.016119,2.0231109,Time OK,Free running,4000,8647,0,2019-10-23 14:16:46.000000000,
1571840471,2019-10-23 14:21:11.767,47.651134N 0.578078E 176m,Off,6,3.016119,2.0231109,Time OK,Free running,5200,8647,0,2019-10-23 14:16:46.000000000,
1571840531,2019-10-23 14:22:11.767,47.651134N 0.578078E 176m,Off,6,3.016119,2.0231109,Time OK,Free running,6200,8647,0,2019-10-23 14:16:46.000000000,
1571840591,2019-10-23 14:23:11.767,47.651134N 0.578078E 176m,Off,6,3.016119,2.0231109,Time OK,Free running,7200,8647,0,2019-10-23 14:16:46.000000000,
1571840651,2019-10-23 14:24:11.796,47.651134N 0.578078E 176m,Off,6,3.016119,2.0231109,Time OK,Free running,8200,8647,0,2019-10-23 14:16:46.000000000,
1571840711,2019-10-23 14:25:11.767,47.651134N 0.578078E 176m,Off,6,3.016119,2.0231109,Time OK,Free running,9200,8647,0,2019-10-23 14:16:46.000000000,
1571840771,2019-10-23 14:26:11.767,47.651134N 0.578078E 176m,Off,6,3.016119,2.0231109,Time OK,Free running,10300,8647,0,2019-10-23 14:16:46.000000000,
1571840831,2019-10-23 14:27:11.767,47.651134N 0.578078E 176m,Off,6,3.016119,2.0231109,Time OK,Free running,11400,8647,0,2019-10-23 14:16:46.000000000,
1571840891,2019-10-23 14:28:11.769,47.651134N 0.578078E 176m,Off,6,3.016119,2.0231109,Time OK,Free running,12800,8647,0,2019-10-23 14:16:46.000000000,
1571840951,2019-10-23 14:29:11.767,47.651134N 0.578078E 176m,Off,6,3.016119,2.0231109,Time OK,Free running,14400,8647,0,2019-10-23 14:16:46.000000000,
1571841011,2019-10-23 14:30:11.767,47.651134N 0.578078E 176m,Off,6,3.016119,2.0231109,Time OK,Free running,15600,8647,0,2019-10-23 14:16:46.000000000,
1571841071,2019-10-23 14:31:11.767,47.651134N 0.578078E 176m,Off,6,3.016119,2.0231109,Time OK,Free running,16800,8647,0,2019-10-23 14:16:46.000000000,
1571841131,2019-10-23 14:32:11.767,47.651134N 0.578078E 176m,Off,6,3.016119,2.0231109,Time OK,Free running,18400,8647,0,2019-10-23 14:16:46.000000000,
1571841191,2019-10-23 14:33:11.767,47.651134N 0.578078E 176m,Off,6,3.016119,2.0231109,Time OK,Free running,20000,8647,0,2019-10-23 14:16:46.000000000,
1571841251,2019-10-23 14:34:11.769,47.651134N 0.578078E 176m,Off,6,3.016119,2.0231109,Time OK,Free running,21400,8647,0,2019-10-23 14:16:46.000000000,
1571841311,2019-10-23 14:35:11.767,47.651134N 0.578078E 176m,Off,6,3.016119,2.0231109,Time OK,Free running,23200,8647,0,2019-10-23 14:16:46.000000000,
1571841371,2019-10-23 14:36:11.767,47.651134N 0.578078E 176m,Off,6,3.016119,2.0231109,Time OK,Free running,25200,8647,0,2019-10-23 14:16:46.000000000,
1571841431,2019-10-23 14:37:11.786,47.651134N 0.578078E 176m,Off,6,3.016119,2.0231109,Time OK,Free running,26800,8647,0,2019-10-23 14:16:46.000000000,
1571841491,2019-10-23 14:38:11.767,47.651134N 0.578078E 176m,Off,6,3.016119,2.0231109,Time OK,Free running,28500,8647,0,2019-10-23 14:16:46.000000000,
1571841551,2019-10-23 14:39:11.767,47.651134N 0.578078E 176m,Off,6,3.016119,2.0231109,Time OK,Free running,30400,8647,0,2019-10-23 14:16:46.000000000,
1571841611,2019-10-23 14:40:11.767,47.651134N 0.578078E 176m,Off,6,3.016119,2.0231109,Time OK,Free running,32300,8647,0,2019-10-23 14:16:46.000000000,
1571841671,2019-10-23 14:41:11.787,47.651134N 0.578078E 176m,Off,6,3.016119,2.0231109,Time OK,Free running,34500,8647,0,2019-10-23 14:16:46.000000000,
1571841731,2019-10-23 14:42:11.769,47.651134N 0.578078E 176m,Off,6,3.016119,2.0231109,Time OK,Free running,36600,8647,0,2019-10-23 14:16:46.000000000,
1571841791,2019-10-23 14:43:11.767,47.651134N 0.578078E 176m,Off,6,3.016119,2.0231109,Time OK,Free running,38600,8647,0,2019-10-23 14:16:46.000000000,
1571841851,2019-10-23 14:44:11.767,47.651134N 0.578078E 176m,Off,6,3.016119,2.0231109,Time OK,Free running,40600,8647,0,2019-10-23 14:16:46.000000000,
1571841911,2019-10-23 14:45:11.767,47.651134N 0.578078E 176m,Off,6,3.016119,2.0231109,Time OK,Free running,42400,8647,0,2019-10-23 14:16:46.000000000,
1571841971,2019-10-23 14:46:11.767,47.651134N 0.578078E 176m,Off,6,3.016119,2.0231109,Time OK,Free running,44300,8647,0,2019-10-23 14:16:46.000000000,
1571842031,2019-10-23 14:47:11.767,47.651134N 0.578078E 176m,Off,6,3.016119,2.0231109,Time OK,Free running,46600,8647,0,2019-10-23 14:16:46.000000000,
1571842091,2019-10-23 14:48:11.767,47.651134N 0.578078E 176m,Off,6,3.016119,2.0231109,Time OK,Free running,48800,8647,0,2019-10-23 14:16:46.000000000,
1571842151,2019-10-23 14:49:11.767,47.651134N 0.578078E 176m,Off,6,3.016119,2.0231109,Time OK,Free running,51000,8647,0,2019-10-23 14:16:46.000000000,
1571842211,2019-10-23 14:50:11.767,47.651134N 0.578078E 176m,Doing fixes,5,1.5989753,0.5968969,Time OK,Coarse lock,100,7499,30937,2019-10-23 14:50:11.000000000,
1571842271,2019-10-23 14:51:11.773,47.651134N 0.578078E 176m,Doing fixes,7,2.622919,1.5388068,Time OK,Fine lock,100,8630,-208,2019-10-23 14:51:11.000000000,
1571842331,2019-10-23 14:52:11.767,47.651134N 0.578078E 176m,Off,6,2.9539015,1.8057675,Time OK,Free running,100,8619,0,2019-10-23 14:52:06.000000000,
1571842391,2019-10-23 14:53:11.767,47.651134N 0.578078E 176m,Off,6,2.9539015,1.8057675,Time OK,Free running,1100,8619,0,2019-10-23 14:52:06.000000000,
1571842451,2019-10-23 14:54:11.767,47.651134N 0.578078E 176m,Off,6,2.9539015,1.8057675,Time OK,Free running,2200,8619,0,2019-10-23 14:52:06.000000000,
1571842511,2019-10-23 14:55:11.767,47.651134N 0.578078E 176m,Off,6,2.9539015,1.8057675,Time OK,Free running,3000,8619,0,2019-10-23 14:52:06.000000000,
1571842571,2019-10-23 14:56:11.768,47.651134N 0.578078E 176m,Off,6,2.9539015,1.8057675,Time OK,Free running,4200,8619,0,2019-10-23 14:52:06.000000000,
1571842631,2019-10-23 14:57:11.767,47.651134N 0.578078E 176m,Off,6,2.9539015,1.8057675,Time OK,Free running,5500,8619,0,2019-10-23 14:52:06.000000000,
1571842691,2019-10-23 14:58:11.767,47.651134N 0.578078E 176m,Off,6,2.9539015,1.8057675,Time OK,Free running,6500,8619,0,2019-10-23 14:52:06.000000000,
1571842751,2019-10-23 14:59:11.767,47.651134N 0.578078E 176m,Off,6,2.9539015,1.8057675,Time OK,Free running,7600,8619,0,2019-10-23 14:52:06.000000000,
