Time(longsecs),Time(UTC),Earth Location,GPS Receiver Status,GPS Satellites Used,GPS PDOP,GPS TDOP,Timing Status,Timing Phase Lock,Timing Uncertainty(ns),DAC Count,Timing Error(ns),GPS Last Update Time,
1571799611,2019-10-23 03:00:11.767,47.65117N 0.578047E 162m,Doing fixes,5,3.539999,2.4878545,Time OK,Coarse lock,100,9564,-16979,2019-10-23 03:00:11.000000000,
1571799671,2019-10-23 03:01:11.767,47.65117N 0.578047E 162m,Doing fixes,5,3.4838893,2.4412715,Time OK,Fine lock,100,8423,104,2019-10-23 03:01:11.000000000,
1571799731,2019-10-23 03:02:11.767,47.65117N 0.578047E 162m,Off,5,3.4412808,2.4056852,Time OK,Free running,200,8438,0,2019-10-23 03:01:56.000000000,
1571799791,2019-10-23 03:03:11.815,47.65117N 0.578047E 162m,Off,5,3.4412808,2.4056852,Time OK,Free running,1300,8438,0,2019-10-23 03:01:56.000000000,
1571799851,2019-10-23 03:04:11.767,47.65117N 0.578047E 162m,Off,5,3.4412808,2.4056852,Time OK,Free running,2600,8438,0,2019-10-23 03:01:56.000000000,
1571799911,2019-10-23 03:05:11.769,47.65117N 0.578047E 162m,Off,5,3.4412808,2.4056852,Time OK,Free running,3800,8438,0,2019-10-23 03:01:56.000000000,
1571799971,2019-10-23 03:06:11.767,47.65117N 0.578047E 162m,Off,5,3.4412808,2.4056852,Time OK,Free running,5200,8438,0,2019-10-23 03:01:56.000000000,
1571800031,2019-10-23 03:07:11.767,47.65117N 0.578047E 162m,Off,5,3.4412808,2.4056852,Time OK,Free running,6600,8438,0,2019-10-23 03:01:56.000000000,
1571800091,2019-10-23 03:08:11.767,47.65117N 0.578047E 162m,Off,5,3.4412808,2.4056852,Time OK,Free running,7800,8438,0,2019-10-23 03:01:56.000000000,
1571800151,2019-10-23 03:09:11.767,47.65117N 0.578047E 162m,Off,5,3.4412808,2.4056852,Time OK,Free running,8800,8438,0,2019-10-23 03:01:56.000000000,
1571800211,2019-10-23 03:10:11.767,47.65117N 0.578047E 162m,Off,5,3.4412808,2.4056852,Time OK,Free running,10100,8438,0,2019-10-23 03:01:56.000000000,
1571800271,2019-10-23 03:11:11.767,47.65117N 0.578047E 162m,Off,5,3.4412808,2.4056852,Time OK,Free running,11700,8438,0,2019-10-23 03:01:56.000000000,
1571800331,2019-10-23 03:12:11.767,47.65117N 0.578047E 162m,Off,5,3.4412808,2.4056852,Time OK,Free running,13300,8438,0,2019-10-23 03:01:56.000000000,
1571800391,2019-10-23 03:13:11.789,47.65117N 0.578047E 162m,Off,5,3.4412808,2.4056852,Time OK,Free running,14800,8438,0,2019-10-23 03:01:56.000000000,
1571800451,2019-10-23 03:14:11.769,47.65117N 0.578047E 162m,Off,5,3.4412808,2.4056852,Time OK,Free running,16200,8438,0,2019-10-23 03:01:56.000000000,
1571800511,2019-10-23 03:15:11.768,47.65117N 0.578047E 162m,Off,5,3.4412808,2.4056852,Time OK,Free running,17500,8438,0,2019-10-23 03:01:56.000000000,
1571800571,2019-10-23 03:16:11.767,47.65117N 0.578047E 162m,Off,5,3.4412808,2.4056852,Time OK,Free running,18800,8438,0,2019-10-23 03:01:56.000000000,
1571800631,2019-10-23 03:17:11.769,47.65117N 0.578047E 162m,Off,5,3.4412808,2.4056852,Time OK,Free running,20200,8438,0,2019-10-23 03:01:56.000000000,
1571800691,2019-10-23 03:18:11.768,47.65117N 0.578047E 162m,Off,5,3.4412808,2.4056852,Time OK,Free running,21800,8438,0,2019-10-23 03:01:56.000000000,
1571800751,2019-10-23 03:19:11.768,47.65117N 0.578047E 162m,Off,5,3.4412808,2.4056852,Time OK,Free running,23200,8438,0,2019-10-23 03:01:56.000000000,
1571800811,2019-10-23 03:20:11.768,47.65117N 0.578047E 162m,Off,5,3.4412808,2.4056852,Time OK,Free running,24600,8438,0,2019-10-23 03:01:56.000000000,
1571800871,2019-10-23 03:21:11.768,47.65117N 0.578047E 162m,Off,5,3.4412808,2.4056852,Time OK,Free running,26200,8438,0,2019-10-23 03:01:56.000000000,
1571800931,2019-10-23 03:22:11.768,47.65117N 0.578047E 162m,Off,5,3.4412808,2.4056852,Time OK,Free running,27500,8438,0,2019-10-23 03:01:56.000000000,
1571800991,2019-10-23 03:23:11.791,47.65117N 0.578047E 162m,Off,5,3.4412808,2.4056852,Time OK,Free running,29000,8438,0,2019-10-23 03:01:56.000000000,
1571801051,2019-10-23 03:24:11.768,47.65117N 0.578047E 162m,Off,5,3.4412808,2.4056852,Time OK,Free running,30700,8438,0,2019-10-23 03:01:56.000000000,
1571801111,2019-10-23 03:25:11.767,47.65117N 0.578047E 162m,Off,5,3.4412808,2.4056852,Time OK,Free running,32100,8438,0,2019-10-23 03:01:56.000000000,
1571801171,2019-10-23 03:26:11.767,47.65117N 0.578047E 162m,Off,5,3.4412808,2.4056852,Time OK,Free running,33600,8438,0,2019-10-23 03:01:56.000000000,
1571801231,2019-10-23 03:27:11.767,47.65117N 0.578047E 162m,Off,5,3.4412808,2.4056852,Time OK,Free running,35200,8438,0,2019-10-23 03:01:56.000000000,
1571801291,2019-10-23 03:28:11.767,47.65117N 0.578047E 162m,Off,5,3.4412808,2.4056852,Time OK,Free running,36600,8438,0,2019-10-23 03:01:56.000000000,
1571801351,2019-10-23 03:29:11.783,47.65117N 0.578047E 162m,Off,5,3.4412808,2.4056852,Time OK,Free running,38000,8438,0,2019-10-23 03:01:56.000000000,
1571801411,2019-10-23 03:30:11.767,47.65117N 0.578047E 162m,Off,5,3.4412808,2.4056852,Time OK,Free running,39600,8438,0,2019-10-23 03:01:56.000000000,
1571801471,2019-10-23 03:31:11.767,47.65117N 0.578047E 162m,Off,5,3.4412808,2.4056852,Time OK,Free running,41000,8438,0,2019-10-23 03:01:56.000000000,
1571801531,2019-10-23 03:32:11.767,47.65117N 0.578047E 162m,Off,5,3.4412808,2.4056852,Time OK,Free running,42300,8438,0,2019-10-23 03:01:56.000000000,
1571801591,2019-10-23 03:33:11.768,47.65117N 0.578047E 162m,Off,5,3.4412808,2.4056852,Time OK,Free running,44100,8438,0,2019-10-23 03:01:56.000000000,
1571801651,2019-10-23 03:34:11.767,47.65117N 0.578047E 162m,Off,5,3.4412808,2.4056852,Time OK,Free running,45800,8438,0,2019-10-23 03:01:56.000000000,
1571801711,2019-10-23 03:35:11.768,47.65117N 0.578047E 162m,Off,5,3.4412808,2.4056852,Time OK,Free running,47200,8438,0,2019-10-23 03:01:56.000000000,
1571801771,2019-10-23 03:36:11.767,47.65117N 0.578047E 162m,Off,5,3.4412808,2.4056852,Time OK,Free running,48900,8438,0,2019-10-23 03:01:56.000000000,
1571801831,2019-10-23 03:37:11.768,47.65117N 0.578047E 162m,Off,5,3.4412808,2.4056852,Time OK,Free running,50200,8438,0,2019-10-23 03:01:56.000000000,
1571801891,2019-10-23 03:38:11.767,47.65117N 0.578047E 162m,Doing fixes,5,2.7941349,1.7087563,Time OK,Free running,51600,8438,0,2019-10-23 03:38:11.000000000,
1571801951,2019-10-23 03:39:11.767,47.65117N 0.578047E 162m,Off,6,2.6439388,1.7082273,Time OK,Free running,100,8436,0,2019-10-23 03:39:06.000000000,
1571802011,2019-10-23 03:40:11.767,47.65117N 0.578047E 162m,Off,6,2.6439388,1.7082273,Time OK,Free running,900,8436,0,2019-10-23 03:39:06.000000000,
1571802071,2019-10-23 03:41:11.767,47.65117N 0.578047E 162m,Off,6,2.6439388,1.7082273,Time OK,Free running,2000,8436,0,2019-10-23 03:39:06.000000000,
1571802131,2019-10-23 03:42:11.786,47.65117N 0.578047E 162m,Off,6,2.6439388,1.7082273,Time OK,Free running,3100,8436,0,2019-10-23 03:39:06.000000000,
1571802191,2019-10-23 03:43:11.767,47.65117N 0.578047E 162m,Off,6,2.6439388,1.7082273,Time OK,Free running,4000,8436,0,2019-10-23 03:39:06.000000000,
1571802251,2019-10-23 03:44:11.767,47.65117N 0.578047E 162m,Off,6,2.6439388,1.7082273,Time OK,Free running,5000,8436,0,2019-10-23 03:39:06.000000000,
1571802311,2019-10-23 03:45:11.767,47.65117N 0.578047E 162m,Off,6,2.6439388,1.7082273,Time OK,Free running,6000,8436,0,2019-10-23 03:39:06.000000000,
1571802371,2019-10-23 03:46:11.767,47.65117N 0.578047E 162m,Off,6,2.6439388,1.7082273,Time OK,Free running,6800,8436,0,2019-10-23 03:39:06.000000000,
1571802431,2019-10-23 03:47:11.767,47.65117N 0.578047E 162m,Off,6,2.6439388,1.7082273,Time OK,Free running,7800,8436,0,2019-10-23 03:39:06.000000000,
1571802491,2019-10-23 03:48:11.769,47.65117N 0.578047E 162m,Off,6,2.6439388,1.7082273,Time OK,Free running,8700,8436,0,2019-10-23 03:39:06.000000000,
1571802551,2019-10-23 03:49:11.767,47.65117N 0.578047E 162m,Off,6,2.6439388,1.7082273,Time OK,Free running,9500,8436,0,2019-10-23 03:39:06.000000000,
1571802611,2019-10-23 03:50:11.767,47.65117N 0.578047E 162m,Off,6,2.6439388,1.7082273,Time OK,Free running,10600,8436,0,2019-10-23 03:39:06.000000000,
1571802671,2019-10-23 03:51:11.767,47.65117N 0.578047E 162m,Off,6,2.6439388,1.7082273,Time OK,Free running,11600,8436,0,2019-10-23 03:39:06.000000000,
1571802731,2019-10-23 03:52:11.767,47.65117N 0.578047E 162m,Off,6,2.6439388,1.7082273,Time OK,Free running,12400,8436,0,2019-10-23 03:39:06.000000000,
1571802791,2019-10-23 03:53:11.804,47.65117N 0.578047E 162m,Off,6,2.6439388,1.7082273,Time OK,Free running,13300,8436,0,2019-10-23 03:39:06.000000000,
1571802851,2019-10-23 03:54:11.767,47.65117N 0.578047E 162m,Off,6,2.6439388,1.7082273,Time OK,Free running,14300,8436,0,2019-10-23 03:39:06.000000000,
1571802911,2019-10-23 03:55:11.768,47.65117N 0.578047E 162m,Off,6,2.6439388,1.7082273,Time OK,Free running,15300,8436,0,2019-10-23 03:39:06.000000000,
1571802971,2019-10-23 03:56:11.767,47.65117N 0.578047E 162m,Off,6,2.6439388,1.7082273,Time OK,Free running,16600,8436,0,2019-10-23 03:39:06.000000000,
1571803031,2019-10-23 03:57:11.768,47.65117N 0.578047E 162m,Off,6,2.6439388,1.7082273,Time OK,Free running,17600,8436,0,2019-10-23 03:39:06.000000000,
1571803091,2019-10-23 03:58:11.767,47.65117N 0.578047E 162m,Off,6,2.6439388,1.7082273,Time OK,Free running,18400,8436,0,2019-10-23 03:39:06.000000000,
1571803151,2019-10-23 03:59:11.767,47.65117N 0.578047E 162m,Off,6,2.6439388,1.7082273,Time OK,Free running,19400,8436,0,2019-10-23 03:39:06.000000000,
