Time(longsecs),Time(UTC),External SOH Voltage 1(V),External SOH Voltage 2(V),External SOH Voltage 3(V),External SOH Voltage 4(V),Sensor SOH Voltage 1(V),Sensor SOH Voltage 2(V),Sensor SOH Voltage 3(V),
1571850011,2019-10-23 17:00:11.780,-1.7750263E-3,3.1256676E-3,-1.9788742E-5,5.6049824E-3,2.1436405E-1,2.1638584E-1,2.1658516E-1,
1571850071,2019-10-23 17:01:11.767,-3.307581E-3,1.6775131E-3,-1.6129017E-3,3.6520958E-3,2.0401287E-1,2.0506477E-1,2.0822334E-1,
1571850131,2019-10-23 17:02:11.767,-3.964901E-3,1.1160374E-3,-2.2640228E-3,3.617525E-3,2.087717E-1,2.1014214E-1,2.1344471E-1,
1571850191,2019-10-23 17:03:11.767,-3.44944E-3,2.0895004E-3,-1.8525124E-3,3.6754608E-3,2.040472E-1,2.0521355E-1,2.0803547E-1,
1571850251,2019-10-23 17:04:11.799,-7.0590973E-3,-1.4965534E-3,-4.7237873E-3,1.144886E-3,2.018528E-1,2.0215893E-1,2.0038319E-1,
1571850311,2019-10-23 17:05:11.767,-1.7940998E-3,2.970457E-3,-5.5217743E-4,5.7570934E-3,2.1591759E-1,2.1750736E-1,2.0575428E-1,
1571850371,2019-10-23 17:06:11.767,-3.3345222E-3,1.2683868E-3,-2.4445057E-3,3.653288E-3,2.0299244E-1,2.0541573E-1,1.9794083E-1,
1571850431,2019-10-23 17:07:11.767,-2.3143291E-3,2.9904842E-3,4.7683716E-5,5.9719086E-3,2.1748543E-1,2.1734333E-1,2.1263313E-1,
1571850491,2019-10-23 17:08:11.768,-1.3785362E-3,2.3303032E-3,-2.9063225E-4,6.0510635E-3,2.1593094E-1,2.166729E-1,2.1192646E-1,
1571850551,2019-10-23 17:09:11.767,-4.352808E-3,9.171963E-4,-1.5902519E-3,3.499508E-3,2.0311546E-1,2.0386219E-1,2.0483398E-1,
1571850611,2019-10-23 17:10:11.767,-3.841877E-3,5.097389E-4,-2.9144287E-3,3.0007362E-3,2.0014668E-1,2.0459843E-1,2.0767593E-1,
1571850671,2019-10-23 17:11:11.767,-4.676342E-3,5.1546097E-4,-2.6392937E-3,2.8429031E-3,2.0942307E-1,2.093811E-1,2.08354E-1,
1571850731,2019-10-23 17:12:11.773,-4.668474E-3,5.2404404E-4,-2.7241707E-3,3.1530857E-3,2.0709419E-1,2.0683956E-1,1.9290733E-1,
1571850791,2019-10-23 17:13:11.767,-1.812458E-3,3.3824444E-3,2.0194054E-4,5.4633617E-3,2.092781E-1,2.1098709E-1,2.0626163E-1,
1571850851,2019-10-23 17:14:11.767,-1.9629002E-3,3.0858517E-3,8.175373E-4,5.190134E-3,2.1269321E-1,2.1408558E-1,2.0664692E-1,
1571850911,2019-10-23 17:15:11.767,-4.1754246E-3,4.6658516E-4,-2.3827553E-3,2.940178E-3,2.0177555E-1,2.0525265E-1,2.0323086E-1,
1571850971,2019-10-23 17:16:11.768,-1.3391972E-3,3.1843185E-3,-4.081726E-4,5.87821E-3,2.1338081E-1,2.1478081E-1,2.2183132E-1,
1571851031,2019-10-23 17:17:11.767,-6.29735E-3,-5.9366226E-4,-4.2955875E-3,1.6725063E-3,1.9714832E-1,1.9825745E-1,1.9483376E-1,
1571851091,2019-10-23 17:18:11.767,-4.4181347E-3,6.0248375E-4,-2.4273396E-3,2.9833317E-3,2.0331573E-1,2.0442963E-1,2.0287418E-1,
1571851151,2019-10-23 17:19:11.767,-3.9982796E-3,1.0273457E-3,-2.5537014E-3,3.8776398E-3,2.0294952E-1,2.0476627E-1,2.0530415E-1,
1571851211,2019-10-23 17:20:11.767,-3.545761E-3,1.2862682E-3,-2.0775795E-3,3.6683083E-3,2.09445E-1,2.1192837E-1,2.1075249E-1,
1571851271,2019-10-23 17:21:11.789,-3.7653446E-3,7.748604E-4,-2.2511482E-3,3.2446384E-3,2.0389748E-1,2.0344162E-1,2.0095634E-1,
1571851331,2019-10-23 17:22:11.768,-3.8599968E-3,1.5027523E-3,-1.7127991E-3,3.004074E-3,2.0567417E-1,2.0748615E-1,2.0928478E-1,
1571851391,2019-10-23 17:23:11.767,-5.898714E-3,-1.3811588E-3,-4.5261383E-3,8.5020065E-4,1.9649887E-1,1.9861126E-1,1.9761753E-1,
1571851451,2019-10-23 17:24:11.767,-1.9745827E-3,2.768755E-3,-1.2373924E-4,4.9231052E-3,2.1294117E-1,2.1589184E-1,2.1385479E-1,
1571851511,2019-10-23 17:25:11.767,-4.676342E-3,1.0418892E-3,-3.1604767E-3,2.9747486E-3,2.0075035E-1,2.0113754E-1,1.9812489E-1,
1571851571,2019-10-23 17:26:11.767,-4.751444E-3,5.2523613E-4,-2.245903E-3,2.8862953E-3,2.0975018E-1,2.0867634E-1,2.0574188E-1,
1571851631,2019-10-23 17:27:11.767,-2.2354126E-3,3.4718513E-3,3.414154E-4,5.810976E-3,2.1085262E-1,2.1465969E-1,2.0837307E-1,
1571851691,2019-10-23 17:28:11.768,-4.4624805E-3,3.0207634E-4,-2.7310848E-3,3.4863949E-3,2.0820618E-1,2.0875835E-1,2.1150112E-1,
1571851751,2019-10-23 17:29:11.767,-3.898859E-3,1.3151169E-3,-2.379179E-3,3.6418438E-3,2.0894909E-1,2.1253204E-1,1.9802189E-1,
1571851811,2019-10-23 17:30:11.767,-6.256819E-3,-1.4519691E-3,-4.797697E-3,1.0607243E-3,1.9722271E-1,1.9897747E-1,1.9262505E-1,
1571851871,2019-10-23 17:31:11.767,-4.420042E-3,1.9812584E-4,-3.168583E-3,3.5278797E-3,2.0793915E-1,2.1015263E-1,2.1455479E-1,
1571851931,2019-10-23 17:32:11.767,-6.9065094E-3,-1.8668175E-3,-3.8626194E-3,1.3711452E-3,1.9589424E-1,1.9941902E-1,1.9916439E-1,
1571851991,2019-10-23 17:33:11.767,-4.0016174E-3,4.1007996E-4,-2.5155544E-3,3.586769E-3,2.0062542E-1,2.0683575E-1,1.9831753E-1,
1571852051,2019-10-23 17:34:11.767,-2.9859543E-3,3.2684803E-3,-3.054142E-4,6.0329437E-3,2.0885658E-1,2.0690155E-1,2.0129395E-1,
1571852111,2019-10-23 17:35:11.773,-3.5881996E-3,1.4009476E-3,-2.3088455E-3,3.5440922E-3,2.0158863E-1,2.0506477E-1,2.026596E-1,
1571852171,2019-10-23 17:36:11.767,-6.6423416E-4,3.0109882E-3,1.1777878E-4,5.6016445E-3,2.1650505E-1,2.1539593E-1,2.0511723E-1,
1571852231,2019-10-23 17:37:11.767,-3.991127E-3,8.6164474E-4,-2.9308796E-3,2.6881695E-3,2.072649E-1,2.1211338E-1,2.0724487E-1,
1571852291,2019-10-23 17:38:11.767,-6.281376E-3,-1.3341904E-3,-4.511118E-3,1.177311E-3,1.9965744E-1,1.9957924E-1,2.052002E-1,
1571852351,2019-10-23 17:39:11.767,-4.0569305E-3,5.9342384E-4,-2.7623177E-3,3.1588078E-3,2.0287418E-1,2.0579624E-1,2.0504189E-1,
1571852411,2019-10-23 17:40:11.767,-5.007744E-3,8.4638596E-4,-2.557993E-3,2.8698444E-3,2.0250893E-1,2.0658684E-1,2.072115E-1,
1571852471,2019-10-23 17:41:11.780,-6.2015057E-3,-1.0516644E-3,-4.5621395E-3,5.0854683E-4,1.9619274E-1,1.986866E-1,1.957531E-1,
1571852531,2019-10-23 17:42:11.767,-1.5249252E-3,3.199339E-3,-1.4233589E-4,5.5520535E-3,2.1482754E-1,2.1682358E-1,1.986723E-1,
1571852591,2019-10-23 17:43:11.767,-1.6469955E-3,3.3316612E-3,-7.851124E-4,5.9075356E-3,2.0946121E-1,2.0996475E-1,2.0925426E-1,
1571852651,2019-10-23 17:44:11.767,-2.3276806E-3,3.3111572E-3,-4.3964386E-4,5.2158833E-3,2.1316051E-1,2.1513176E-1,2.1922684E-1,
1571852711,2019-10-23 17:45:11.767,-3.7004948E-3,1.6255379E-3,-2.4068356E-3,3.5572052E-3,2.0394802E-1,2.0527172E-1,2.0362377E-1,
1571852771,2019-10-23 17:46:11.767,-7.1492195E-3,-1.2369156E-3,-4.6756268E-3,3.695488E-4,1.9599247E-1,1.993618E-1,1.9342518E-1,
1571852831,2019-10-23 17:47:11.767,-1.308918E-3,2.9215813E-3,-5.276203E-4,5.586624E-3,2.1742535E-1,2.1751499E-1,2.1281147E-1,
1571852891,2019-10-23 17:48:11.767,-6.6313744E-3,-1.6264915E-3,-4.843712E-3,1.0409355E-3,2.0430946E-1,2.0487595E-1,2.0909595E-1,
1571852951,2019-10-23 17:49:11.767,-7.3621273E-3,-1.3663769E-3,-4.287243E-3,1.2254715E-3,1.953249E-1,2.0014954E-1,1.9042873E-1,
1571853011,2019-10-23 17:50:11.796,-6.287098E-3,-1.2311935E-3,-4.45199E-3,1.1043549E-3,2.0294762E-1,2.0617771E-1,2.032032E-1,
1571853071,2019-10-23 17:51:11.767,-4.1148663E-3,1.4288425E-3,-2.4981499E-3,3.6418438E-3,2.0049E-1,2.033701E-1,1.9588184E-1,
1571853131,2019-10-23 17:52:11.767,-3.5514832E-3,1.177311E-3,-2.2280216E-3,3.8995743E-3,2.0752525E-1,2.0951843E-1,2.1353245E-1,
1571853191,2019-10-23 17:53:11.767,-6.5863132E-3,-1.2156963E-3,-4.4367313E-3,1.1126995E-3,1.9769955E-1,1.9725513E-1,1.9840813E-1,
1571853251,2019-10-23 17:54:11.767,-5.96714E-3,-4.594326E-4,-4.8441887E-3,1.4228821E-3,2.0408344E-1,2.0396423E-1,1.9612122E-1,
1571853311,2019-10-23 17:55:11.767,-1.2280941E-3,3.8523674E-3,-1.449585E-4,5.480528E-3,2.1253681E-1,2.152834E-1,2.1876717E-1,
1571853371,2019-10-23 17:56:11.767,-3.7374496E-3,1.5194416E-3,-2.3319721E-3,3.6501884E-3,2.0788002E-1,2.1049595E-1,2.0812607E-1,
1571853431,2019-10-23 17:57:11.767,-2.5234222E-3,3.0732155E-3,-1.3422966E-4,5.204916E-3,2.1408844E-1,2.1482182E-1,2.0384884E-1,
1571853491,2019-10-23 17:58:11.799,-4.1811466E-3,3.862381E-5,-2.8278828E-3,2.9087067E-3,2.0831585E-1,2.1183205E-1,2.0352364E-1,
1571853551,2019-10-23 17:59:11.767,-1.357317E-3,2.7563572E-3,-4.97818E-4,6.0050488E-3,2.0803547E-1,2.1023846E-1,2.0460796E-1,
