Time(longsecs),Time(UTC),External SOH Voltage 1(V),External SOH Voltage 2(V),External SOH Voltage 3(V),External SOH Voltage 4(V),Sensor SOH Voltage 1(V),Sensor SOH Voltage 2(V),Sensor SOH Voltage 3(V),
1570788013,2019-10-11 10:00:13.465,-1.2007952E-2,-1.2660027E-3,-5.407572E-3,-4.8258305E-3,2.3099995E-1,2.3487377E-1,2.3354816E-1,
1570788073,2019-10-11 10:01:13.464,-9.688854E-3,1.5437603E-3,-2.9158592E-3,-2.0487309E-3,2.3753166E-1,2.4174213E-1,2.4123764E-1,
1570788133,2019-10-11 10:02:13.464,-1.0254145E-2,7.004738E-4,-3.4928322E-3,-2.998352E-3,2.3680305E-1,2.3796749E-1,2.3785782E-1,
1570788193,2019-10-11 10:03:13.465,-1.2189627E-2,-1.1630058E-3,-5.201578E-3,-4.66609E-3,2.2501373E-1,2.2810173E-1,2.2742271E-1,
1570788253,2019-10-11 10:04:13.465,-9.480238E-3,1.7898083E-3,-3.052473E-3,-2.2797585E-3,2.378664E-1,2.409954E-1,2.3879433E-1,
1570788313,2019-10-11 10:05:13.464,-7.858038E-3,3.147602E-3,-1.0099411E-3,-3.876686E-4,2.4552631E-1,2.4886322E-1,2.481842E-1,
1570788373,2019-10-11 10:06:13.464,-9.968042E-3,1.0409355E-3,-3.023386E-3,-2.3493767E-3,2.3773098E-1,2.4180031E-1,2.3908138E-1,
1570788433,2019-10-11 10:07:13.467,-9.631872E-3,1.8644333E-3,-2.722025E-3,-2.3963451E-3,2.3796272E-1,2.4184704E-1,2.393465E-1,
1570788493,2019-10-11 10:08:13.474,-1.2091637E-2,-1.0304451E-3,-5.125761E-3,-4.922867E-3,2.2850132E-1,2.3420715E-1,2.2757435E-1,
1570788553,2019-10-11 10:09:13.464,-9.809017E-3,8.9526176E-4,-3.5581589E-3,-2.9232502E-3,2.3943329E-1,2.4150181E-1,2.413845E-1,
1570788613,2019-10-11 10:10:13.464,-7.9853535E-3,3.1599998E-3,-1.5347004E-3,-2.8467178E-4,2.4283695E-1,2.4658775E-1,2.4608803E-1,
1570788673,2019-10-11 10:11:13.464,-1.1942387E-2,-9.1934204E-4,-5.731344E-3,-4.81987E-3,2.3195267E-1,2.3548508E-1,2.3470688E-1,
1570788733,2019-10-11 10:12:13.464,-7.793188E-3,3.3028126E-3,-8.814335E-4,-4.0364265E-4,2.411747E-1,2.4469948E-1,2.4365807E-1,
1570788793,2019-10-11 10:13:13.464,-1.011157E-2,7.970333E-4,-3.3192635E-3,-2.9826164E-3,2.3522091E-1,2.3815155E-1,2.4124622E-1,
1570788853,2019-10-11 10:14:13.464,-1.0224104E-2,7.162094E-4,-3.3159256E-3,-2.9895306E-3,2.3526478E-1,2.3751926E-1,2.3374557E-1,
1570788913,2019-10-11 10:15:13.465,-1.2399673E-2,-8.685589E-4,-5.2599907E-3,-4.3685436E-3,2.3326015E-1,2.329073E-1,2.3216248E-1,
1570788973,2019-10-11 10:16:13.465,-7.881165E-3,3.2203197E-3,-1.2574196E-3,-8.466244E-4,2.4352455E-1,2.4622059E-1,2.468319E-1,
1570789033,2019-10-11 10:17:13.464,-9.795904E-3,1.1696815E-3,-3.1380653E-3,-2.313137E-3,2.4051285E-1,2.4108696E-1,2.399292E-1,
1570789093,2019-10-11 10:18:13.465,-1.0126352E-2,7.855892E-4,-3.108263E-3,-3.0760765E-3,2.3766422E-1,2.4069595E-1,2.3879719E-1,
1570789153,2019-10-11 10:19:13.464,-7.9E-3,3.2305717E-3,-1.2485981E-3,5.4836273E-5,2.4330711E-1,2.4677467E-1,2.4255466E-1,
1570789213,2019-10-11 10:20:13.464,-9.661436E-3,1.201868E-3,-2.9854774E-3,-2.5720596E-3,2.3806095E-1,2.4135876E-1,2.4405861E-1,
1570789273,2019-10-11 10:21:13.464,-1.1872292E-2,-1.1537075E-3,-5.3458214E-3,-5.359173E-3,2.3521328E-1,2.37607E-1,2.3501492E-1,
1570789333,2019-10-11 10:22:13.465,-9.405613E-3,1.3709068E-3,-2.976656E-3,-2.02775E-3,2.4145317E-1,2.4501705E-1,2.4271774E-1,
1570789393,2019-10-11 10:23:13.497,-1.1769056E-2,-9.88245E-4,-5.2239895E-3,-5.0315857E-3,2.3232174E-1,2.3383236E-1,2.3419857E-1,
1570789453,2019-10-11 10:24:13.465,-9.648323E-3,1.0962486E-3,-2.6545525E-3,-2.0418167E-3,2.3861313E-1,2.4035454E-1,2.4129581E-1,
1570789513,2019-10-11 10:25:13.464,-1.0325432E-2,5.722046E-4,-3.5812855E-3,-3.045559E-3,2.3745823E-1,2.4115562E-1,2.4094391E-1,
1570789573,2019-10-11 10:26:13.465,-7.6925755E-3,2.9883385E-3,-1.2257099E-3,-1.0170937E-3,2.4580383E-1,2.4682999E-1,2.4442196E-1,
1570789633,2019-10-11 10:27:13.464,-1.0383606E-2,8.094311E-4,-2.5734901E-3,-1.5950203E-3,2.3605824E-1,2.3951626E-1,2.3713398E-1,
1570789693,2019-10-11 10:28:13.505,-1.1892557E-2,-8.9001656E-4,-5.566597E-3,-6.1428547E-3,2.2930431E-1,2.3159027E-1,2.3611641E-1,
1570789753,2019-10-11 10:29:13.494,-1.1110067E-2,-1.4457703E-3,-5.68223E-3,-3.7932396E-3,2.3387337E-1,2.373476E-1,2.3633575E-1,
1570789813,2019-10-11 10:30:13.467,-9.334803E-3,1.0633469E-3,-1.8036366E-3,-1.7797947E-3,2.3710537E-1,2.4104786E-1,2.419033E-1,
1570789873,2019-10-11 10:31:13.464,-1.2681723E-2,-1.2691021E-3,-5.4910183E-3,-5.24354E-3,2.3005486E-1,2.3166561E-1,2.3304272E-1,
1570789933,2019-10-11 10:32:13.464,-7.8754425E-3,3.2713413E-3,-1.1456013E-3,-1.1563301E-4,2.4594784E-1,2.4832916E-1,2.4419594E-1,
1570789993,2019-10-11 10:33:13.467,-1.183486E-2,-1.344204E-3,-5.3477287E-3,-4.351139E-3,2.3004627E-1,2.3335552E-1,2.4010468E-1,
1570790053,2019-10-11 10:34:13.464,-7.5604916E-3,3.0152798E-3,-5.660057E-4,1.835823E-4,2.4295998E-1,2.4534988E-1,2.5262547E-1,
1570790113,2019-10-11 10:35:13.464,-8.1243515E-3,3.1971931E-3,-1.4119148E-3,-4.696846E-4,2.4241638E-1,2.453413E-1,2.4465466E-1,
1570790173,2019-10-11 10:36:13.465,-1.2586117E-2,-8.5806847E-4,-4.5170784E-3,-5.135536E-3,2.3649311E-1,2.3849297E-1,2.2470665E-1,
1570790233,2019-10-11 10:37:13.464,-9.899855E-3,7.536411E-4,-3.910303E-3,-2.892971E-3,2.3093319E-1,2.3266602E-1,2.4510956E-1,
1570790293,2019-10-11 10:38:13.464,-1.2308359E-2,-1.2009144E-3,-5.8727264E-3,-5.289793E-3,2.3233223E-1,2.3342419E-1,2.382927E-1,
1570790353,2019-10-11 10:39:13.464,-1.2488842E-2,-1.0361671E-3,-4.7831535E-3,-4.378557E-3,2.3220348E-1,2.3483562E-1,2.3651695E-1,
1570790413,2019-10-11 10:40:13.464,-1.0310888E-2,1.0166168E-3,-3.4394264E-3,-2.0666122E-3,2.4007988E-1,2.4116516E-1,2.2694206E-1,
1570790473,2019-10-11 10:41:13.464,-9.796619E-3,1.4805794E-3,-3.052473E-3,-1.5146732E-3,2.4298763E-1,2.4242401E-1,2.3972797E-1,
1570790533,2019-10-11 10:42:13.505,-1.0181665E-2,9.868145E-4,-3.771782E-3,-2.8383732E-3,2.3444557E-1,2.4005604E-1,2.3837376E-1,
1570790593,2019-10-11 10:43:13.464,-9.983063E-3,1.3980865E-3,-2.786398E-3,-2.468586E-3,2.4033737E-1,2.4222374E-1,2.4490166E-1,
1570790653,2019-10-11 10:44:13.464,-1.1295557E-2,-6.16312E-4,-5.672455E-3,-5.031824E-3,2.3211002E-1,2.295866E-1,2.2863388E-1,
1570790713,2019-10-11 10:45:13.467,-9.468555E-3,1.2917519E-3,-3.0050278E-3,-2.2907257E-3,2.3727036E-1,2.4199486E-1,2.4144459E-1,
1570790773,2019-10-11 10:46:13.464,-7.7281E-3,3.058672E-3,-9.624958E-4,-4.8851967E-4,2.4421501E-1,2.4635601E-1,2.4292183E-1,
1570790833,2019-10-11 10:47:13.467,-1.163888E-2,-7.5411797E-4,-5.095005E-3,-4.5073032E-3,2.315216E-1,2.3460579E-1,2.3321915E-1,
1570790893,2019-10-11 10:48:13.465,-7.7757835E-3,3.1106472E-3,-1.3165474E-3,-5.891323E-4,2.4292469E-1,2.459898E-1,2.4959946E-1,
1570790953,2019-10-11 10:49:13.465,-1.192832E-2,-1.2183189E-3,-5.320072E-3,-4.8778057E-3,2.309742E-1,2.3442936E-1,2.3725224E-1,
1570791013,2019-10-11 10:50:13.465,-9.453535E-3,1.6703606E-3,-3.0312538E-3,-2.3207664E-3,2.4157429E-1,2.4350548E-1,2.3448467E-1,
1570791073,2019-10-11 10:51:13.465,-1.1878014E-2,-1.2271404E-3,-5.1367283E-3,-4.8766136E-3,2.3193741E-1,2.3411846E-1,2.344904E-1,
1570791133,2019-10-11 10:52:13.503,-1.014328E-2,9.908676E-4,-3.4220219E-3,-3.4451485E-3,2.3427296E-1,2.3815632E-1,2.3961735E-1,
1570791193,2019-10-11 10:53:13.464,-7.726431E-3,3.107071E-3,-6.029606E-4,-4.8279762E-4,2.4488544E-1,2.4890232E-1,2.4570751E-1,
1570791253,2019-10-11 10:54:13.464,-1.2187004E-2,-1.0826588E-3,-5.3606033E-3,-4.674673E-3,2.3390579E-1,2.3743153E-1,2.2666359E-1,
1570791313,2019-10-11 10:55:13.464,-7.6081753E-3,3.2262802E-3,-1.0092258E-3,-5.784035E-4,2.4810505E-1,2.4811554E-1,2.5109005E-1,
1570791373,2019-10-11 10:56:13.464,-1.1991739E-2,-1.0895729E-3,-5.2525997E-3,-4.1470528E-3,2.3118877E-1,2.3343658E-1,2.3296928E-1,
1570791433,2019-10-11 10:57:13.467,-7.986069E-3,3.4825802E-3,-9.784698E-4,-2.8061867E-4,2.4546146E-1,2.4715042E-1,2.4615097E-1,
1570791493,2019-10-11 10:58:13.503,-9.660959E-3,1.4748573E-3,-3.0198097E-3,-2.8030872E-3,2.3531246E-1,2.3898506E-1,2.3065948E-1,
1570791553,2019-10-11 10:59:13.464,-9.3381405E-3,1.5308857E-3,-3.0691624E-3,-1.5866756E-3,2.3887825E-1,2.4233341E-1,2.4395275E-1,
