Time(longsecs),Time(UTC),Supply Voltage(mV),Temperature(&deg;C),NMX Bus Current(mA),Sensor Current(mA),Serial Port Current(mA),Controller Current(mA),Digitizer Current(mA),
1570809613,2019-10-11 16:00:13.464,13374,2.892804E1,0,10,0,61,47,
1570809673,2019-10-11 16:01:13.464,13360,2.8461365E1,0,10,0,73,49,
1570809733,2019-10-11 16:02:13.467,13347,2.8881561E1,0,4,0,70,49,
1570809793,2019-10-11 16:03:13.464,13347,2.8670929E1,0,11,0,66,46,
1570809853,2019-10-11 16:04:13.464,13333,2.877356E1,0,15,0,71,49,
1570809913,2019-10-11 16:05:13.464,13360,2.8816772E1,0,11,0,61,46,
1570809973,2019-10-11 16:06:13.464,13333,2.869577E1,0,11,0,70,50,
1570810033,2019-10-11 16:07:13.464,13333,2.852835E1,0,14,0,71,54,
1570810093,2019-10-11 16:08:13.464,13319,2.8678497E1,0,9,0,70,47,
1570810153,2019-10-11 16:09:13.465,13305,2.8546692E1,0,10,0,75,55,
1570810213,2019-10-11 16:10:13.466,13319,2.8693604E1,0,10,0,61,49,
1570810273,2019-10-11 16:11:13.464,13305,2.8654724E1,0,11,0,71,47,
1570810333,2019-10-11 16:12:13.464,13305,2.8642853E1,0,9,0,71,46,
1570810393,2019-10-11 16:13:13.464,13292,2.8501343E1,0,6,0,71,46,
1570810453,2019-10-11 16:14:13.465,13292,2.8566162E1,0,11,0,61,45,
1570810513,2019-10-11 16:15:13.465,13278,2.8500244E1,0,7,0,71,47,
1570810573,2019-10-11 16:16:13.464,13265,2.8454895E1,0,12,0,71,50,
1570810633,2019-10-11 16:17:13.464,13251,2.8334991E1,0,9,0,71,47,
1570810693,2019-10-11 16:18:13.464,13251,2.850351E1,0,9,0,71,49,
1570810753,2019-10-11 16:19:13.464,13237,2.8626648E1,0,9,0,70,49,
1570810813,2019-10-11 16:20:13.464,13237,2.8475403E1,0,9,0,71,48,
1570810873,2019-10-11 16:21:13.464,13224,2.8553192E1,0,10,0,70,50,
1570810933,2019-10-11 16:22:13.464,13224,2.8378204E1,0,12,0,71,48,
1570810993,2019-10-11 16:23:13.464,13224,2.822696E1,0,6,0,71,47,
1570811053,2019-10-11 16:24:13.464,13210,2.8493774E1,0,11,0,63,45,
1570811113,2019-10-11 16:25:13.464,13210,2.8255035E1,0,9,0,72,50,
1570811173,2019-10-11 16:26:13.464,13197,2.8374939E1,0,11,0,73,48,
1570811233,2019-10-11 16:27:13.464,13183,2.8404114E1,0,10,0,73,49,
1570811293,2019-10-11 16:28:13.464,13183,2.8282043E1,0,11,0,72,49,
1570811353,2019-10-11 16:29:13.464,13183,2.8367401E1,0,11,0,64,52,
1570811413,2019-10-11 16:30:13.467,13197,2.838034E1,0,10,0,62,50,
1570811473,2019-10-11 16:31:13.464,13170,2.8546692E1,0,14,0,72,50,
1570811533,2019-10-11 16:32:13.464,13155,2.8391144E1,0,9,0,73,46,
1570811593,2019-10-11 16:33:13.464,13155,2.8096252E1,0,9,0,73,51,
1570811653,2019-10-11 16:34:13.464,13155,2.8171875E1,0,10,0,61,47,
1570811713,2019-10-11 16:35:13.464,13155,2.8107056E1,0,10,0,62,50,
1570811773,2019-10-11 16:36:13.464,13128,2.8269073E1,0,9,0,72,51,
1570811833,2019-10-11 16:37:13.467,13128,2.8280975E1,0,10,0,71,46,
1570811893,2019-10-11 16:38:13.464,13101,2.8095184E1,0,13,0,71,46,
1570811953,2019-10-11 16:39:13.464,13142,2.8280975E1,0,8,0,61,47,
1570812013,2019-10-11 16:40:13.464,13115,2.8138367E1,0,13,0,61,49,
1570812073,2019-10-11 16:41:13.464,13088,2.8195648E1,0,14,0,72,51,
1570812133,2019-10-11 16:42:13.464,13101,2.8112457E1,0,12,0,71,47,
1570812193,2019-10-11 16:43:13.464,13101,2.8287445E1,0,8,0,73,50,
1570812253,2019-10-11 16:44:13.464,13073,2.8221558E1,0,8,0,62,48,
1570812313,2019-10-11 16:45:13.464,13115,2.8191315E1,0,10,0,70,51,
1570812373,2019-10-11 16:46:13.464,13088,2.811139E1,0,10,0,72,50,
1570812433,2019-10-11 16:47:13.464,13073,2.8076813E1,0,9,0,71,49,
1570812493,2019-10-11 16:48:13.467,13088,2.801416E1,0,9,0,72,52,
1570812553,2019-10-11 16:49:13.464,13088,2.8093018E1,0,11,0,66,49,
1570812613,2019-10-11 16:50:13.464,13073,2.8051971E1,0,9,0,62,49,
1570812673,2019-10-11 16:51:13.464,13073,2.8075714E1,0,9,0,81,54,
1570812733,2019-10-11 16:52:13.464,13060,2.7897491E1,0,9,0,72,49,
1570812793,2019-10-11 16:53:13.464,13060,2.7979584E1,0,10,0,73,48,
1570812853,2019-10-11 16:54:13.496,13073,2.796231E1,0,10,0,60,47,
1570812913,2019-10-11 16:55:13.465,13060,2.7830505E1,0,9,0,72,49,
1570812973,2019-10-11 16:56:13.465,13128,2.786615E1,0,9,0,89,48,
1570813033,2019-10-11 16:57:13.465,13046,2.7762451E1,0,11,0,84,47,
1570813093,2019-10-11 16:58:13.465,13046,2.7726807E1,0,6,0,72,49,
1570813153,2019-10-11 16:59:13.464,13046,2.8023865E1,0,6,0,62,49,
