Time(longsecs),Time(UTC),Earth Location,GPS Receiver Status,GPS Satellites Used,GPS PDOP,GPS TDOP,Timing Status,Timing Phase Lock,Timing Uncertainty(ns),DAC Count,Timing Error(ns),GPS Last Update Time,
1570770013,2019-10-11 05:00:13.464,47.636302N 0.583886E 187m,Off,5,2.4440963,1.3163247,Time OK,Free running,26900,9138,0,2019-10-11 04:32:00.000000000,
1570770073,2019-10-11 05:01:13.464,47.636302N 0.583886E 187m,Off,5,2.4440963,1.3163247,Time OK,Free running,28100,9138,0,2019-10-11 04:32:00.000000000,
1570770133,2019-10-11 05:02:13.464,47.636302N 0.583886E 187m,Off,5,2.4440963,1.3163247,Time OK,Free running,29300,9138,0,2019-10-11 04:32:00.000000000,
1570770193,2019-10-11 05:03:13.464,47.636302N 0.583886E 187m,Off,5,2.4440963,1.3163247,Time OK,Free running,30400,9138,0,2019-10-11 04:32:00.000000000,
1570770253,2019-10-11 05:04:13.464,47.636302N 0.583886E 187m,Off,5,2.4440963,1.3163247,Time OK,Free running,31600,9138,0,2019-10-11 04:32:00.000000000,
1570770313,2019-10-11 05:05:13.464,47.636302N 0.583886E 187m,Off,5,2.4440963,1.3163247,Time OK,Free running,32400,9138,0,2019-10-11 04:32:00.000000000,
1570770373,2019-10-11 05:06:13.464,47.636302N 0.583886E 187m,Off,5,2.4440963,1.3163247,Time OK,Free running,33200,9138,0,2019-10-11 04:32:00.000000000,
1570770433,2019-10-11 05:07:13.464,47.636302N 0.583886E 187m,Off,5,2.4440963,1.3163247,Time OK,Free running,34300,9138,0,2019-10-11 04:32:00.000000000,
1570770493,2019-10-11 05:08:13.464,47.636302N 0.583886E 187m,Off,5,2.4440963,1.3163247,Time OK,Free running,35300,9138,0,2019-10-11 04:32:00.000000000,
1570770553,2019-10-11 05:09:13.500,47.636302N 0.583886E 187m,Off,5,2.4440963,1.3163247,Time OK,Free running,36400,9138,0,2019-10-11 04:32:00.000000000,
1570770613,2019-10-11 05:10:13.464,47.636302N 0.583886E 187m,Off,5,2.4440963,1.3163247,Time OK,Free running,37500,9138,0,2019-10-11 04:32:00.000000000,
1570770673,2019-10-11 05:11:13.467,47.636302N 0.583886E 187m,Off,5,2.4440963,1.3163247,Time OK,Free running,38500,9138,0,2019-10-11 04:32:00.000000000,
1570770733,2019-10-11 05:12:13.464,47.636302N 0.583886E 187m,Off,5,2.4440963,1.3163247,Time OK,Free running,39700,9138,0,2019-10-11 04:32:00.000000000,
1570770793,2019-10-11 05:13:13.467,47.636302N 0.583886E 187m,Off,5,2.4440963,1.3163247,Time OK,Free running,41000,9138,0,2019-10-11 04:32:00.000000000,
1570770853,2019-10-11 05:14:13.464,47.636302N 0.583886E 187m,Off,5,2.4440963,1.3163247,Time OK,Free running,42400,9138,0,2019-10-11 04:32:00.000000000,
1570770913,2019-10-11 05:15:13.464,47.636302N 0.583886E 187m,Off,5,2.4440963,1.3163247,Time OK,Free running,43800,9138,0,2019-10-11 04:32:00.000000000,
1570770973,2019-10-11 05:16:13.494,47.636302N 0.583886E 187m,Off,5,2.4440963,1.3163247,Time OK,Free running,45000,9138,0,2019-10-11 04:32:00.000000000,
1570771033,2019-10-11 05:17:13.464,47.636302N 0.583886E 187m,Off,5,2.4440963,1.3163247,Time OK,Free running,45800,9138,0,2019-10-11 04:32:00.000000000,
1570771093,2019-10-11 05:18:13.464,47.636302N 0.583886E 187m,Off,5,2.4440963,1.3163247,Time OK,Free running,46900,9138,0,2019-10-11 04:32:00.000000000,
1570771153,2019-10-11 05:19:13.465,47.636302N 0.583886E 187m,Off,5,2.4440963,1.3163247,Time OK,Free running,48100,9138,0,2019-10-11 04:32:00.000000000,
1570771213,2019-10-11 05:20:13.464,47.636302N 0.583886E 187m,Off,5,2.4440963,1.3163247,Time OK,Free running,49000,9138,0,2019-10-11 04:32:00.000000000,
1570771273,2019-10-11 05:21:13.464,47.636302N 0.583886E 187m,Off,5,2.4440963,1.3163247,Time OK,Free running,49900,9138,0,2019-10-11 04:32:00.000000000,
1570771333,2019-10-11 05:22:13.464,47.636302N 0.583886E 187m,Off,5,2.4440963,1.3163247,Time OK,Free running,50800,9138,0,2019-10-11 04:32:00.000000000,
1570771393,2019-10-11 05:23:13.465,47.636302N 0.583886E 187m,No GPS time,0,0.0,0.0,Time OK,Free running,51900,9138,0,2019-10-11 05:23:10.000000000,
1570771453,2019-10-11 05:24:13.465,47.636302N 0.583886E 187m,Doing fixes,4,2.3048446,0.7318061,Time OK,Coarse lock,100,9037,312,2019-10-11 05:24:10.000000000,
1570771513,2019-10-11 05:25:13.465,47.636302N 0.583886E 187m,Doing fixes,5,1.992016,0.7219455,Time OK,Fine lock,100,9104,312,2019-10-11 05:25:10.000000000,
1570771573,2019-10-11 05:26:13.465,47.636302N 0.583886E 187m,Doing fixes,6,3.576945,2.5864851,Time OK,Fine lock,100,9143,-104,2019-10-11 05:26:10.000000000,
1570771633,2019-10-11 05:27:13.464,47.636302N 0.583886E 187m,Off,5,1.9894364,0.730873,Time OK,Free running,600,9128,0,2019-10-11 05:26:30.000000000,
1570771693,2019-10-11 05:28:13.464,47.636302N 0.583886E 187m,Off,5,1.9894364,0.730873,Time OK,Free running,1600,9128,0,2019-10-11 05:26:30.000000000,
1570771753,2019-10-11 05:29:13.464,47.636302N 0.583886E 187m,Off,5,1.9894364,0.730873,Time OK,Free running,2800,9128,0,2019-10-11 05:26:30.000000000,
1570771813,2019-10-11 05:30:13.464,47.636302N 0.583886E 187m,Off,5,1.9894364,0.730873,Time OK,Free running,3600,9128,0,2019-10-11 05:26:30.000000000,
1570771873,2019-10-11 05:31:13.464,47.636302N 0.583886E 187m,Off,5,1.9894364,0.730873,Time OK,Free running,4400,9128,0,2019-10-11 05:26:30.000000000,
1570771933,2019-10-11 05:32:13.464,47.636302N 0.583886E 187m,Off,5,1.9894364,0.730873,Time OK,Free running,5900,9128,0,2019-10-11 05:26:30.000000000,
1570771993,2019-10-11 05:33:13.464,47.636302N 0.583886E 187m,Off,5,1.9894364,0.730873,Time OK,Free running,7200,9128,0,2019-10-11 05:26:30.000000000,
1570772053,2019-10-11 05:34:13.464,47.636302N 0.583886E 187m,Off,5,1.9894364,0.730873,Time OK,Free running,8500,9128,0,2019-10-11 05:26:30.000000000,
1570772113,2019-10-11 05:35:13.464,47.636302N 0.583886E 187m,Off,5,1.9894364,0.730873,Time OK,Free running,10000,9128,0,2019-10-11 05:26:30.000000000,
1570772173,2019-10-11 05:36:13.464,47.636302N 0.583886E 187m,Off,5,1.9894364,0.730873,Time OK,Free running,11200,9128,0,2019-10-11 05:26:30.000000000,
1570772233,2019-10-11 05:37:13.464,47.636302N 0.583886E 187m,Off,5,1.9894364,0.730873,Time OK,Free running,12400,9128,0,2019-10-11 05:26:30.000000000,
1570772293,2019-10-11 05:38:13.464,47.636302N 0.583886E 187m,Off,5,1.9894364,0.730873,Time OK,Free running,13600,9128,0,2019-10-11 05:26:30.000000000,
1570772353,2019-10-11 05:39:13.464,47.636302N 0.583886E 187m,Off,5,1.9894364,0.730873,Time OK,Free running,14400,9128,0,2019-10-11 05:26:30.000000000,
1570772413,2019-10-11 05:40:13.464,47.636302N 0.583886E 187m,Off,5,1.9894364,0.730873,Time OK,Free running,15500,9128,0,2019-10-11 05:26:30.000000000,
1570772473,2019-10-11 05:41:13.464,47.636302N 0.583886E 187m,Off,5,1.9894364,0.730873,Time OK,Free running,16800,9128,0,2019-10-11 05:26:30.000000000,
1570772533,2019-10-11 05:42:13.464,47.636302N 0.583886E 187m,Off,5,1.9894364,0.730873,Time OK,Free running,17800,9128,0,2019-10-11 05:26:30.000000000,
1570772593,2019-10-11 05:43:13.464,47.636302N 0.583886E 187m,Off,5,1.9894364,0.730873,Time OK,Free running,18600,9128,0,2019-10-11 05:26:30.000000000,
1570772653,2019-10-11 05:44:13.464,47.636302N 0.583886E 187m,Off,5,1.9894364,0.730873,Time OK,Free running,19500,9128,0,2019-10-11 05:26:30.000000000,
1570772713,2019-10-11 05:45:13.464,47.636302N 0.583886E 187m,Off,5,1.9894364,0.730873,Time OK,Free running,20400,9128,0,2019-10-11 05:26:30.000000000,
1570772773,2019-10-11 05:46:13.464,47.636302N 0.583886E 187m,Off,5,1.9894364,0.730873,Time OK,Free running,21400,9128,0,2019-10-11 05:26:30.000000000,
1570772833,2019-10-11 05:47:13.464,47.636302N 0.583886E 187m,Off,5,1.9894364,0.730873,Time OK,Free running,22500,9128,0,2019-10-11 05:26:30.000000000,
1570772893,2019-10-11 05:48:13.465,47.636302N 0.583886E 187m,Off,5,1.9894364,0.730873,Time OK,Free running,23400,9128,0,2019-10-11 05:26:30.000000000,
1570772953,2019-10-11 05:49:13.464,47.636302N 0.583886E 187m,Off,5,1.9894364,0.730873,Time OK,Free running,24300,9128,0,2019-10-11 05:26:30.000000000,
1570773013,2019-10-11 05:50:13.464,47.636302N 0.583886E 187m,Off,5,1.9894364,0.730873,Time OK,Free running,25400,9128,0,2019-10-11 05:26:30.000000000,
1570773073,2019-10-11 05:51:13.465,47.636302N 0.583886E 187m,Off,5,1.9894364,0.730873,Time OK,Free running,26400,9128,0,2019-10-11 05:26:30.000000000,
1570773133,2019-10-11 05:52:13.464,47.636302N 0.583886E 187m,Off,5,1.9894364,0.730873,Time OK,Free running,27500,9128,0,2019-10-11 05:26:30.000000000,
1570773193,2019-10-11 05:53:13.464,47.636302N 0.583886E 187m,Off,5,1.9894364,0.730873,Time OK,Free running,28600,9128,0,2019-10-11 05:26:30.000000000,
1570773253,2019-10-11 05:54:13.464,47.636302N 0.583886E 187m,Off,5,1.9894364,0.730873,Time OK,Free running,30000,9128,0,2019-10-11 05:26:30.000000000,
1570773313,2019-10-11 05:55:13.464,47.636302N 0.583886E 187m,Off,5,1.9894364,0.730873,Time OK,Free running,31200,9128,0,2019-10-11 05:26:30.000000000,
1570773373,2019-10-11 05:56:13.464,47.636302N 0.583886E 187m,Off,5,1.9894364,0.730873,Time OK,Free running,32400,9128,0,2019-10-11 05:26:30.000000000,
1570773433,2019-10-11 05:57:13.464,47.636302N 0.583886E 187m,Off,5,1.9894364,0.730873,Time OK,Free running,33600,9128,0,2019-10-11 05:26:30.000000000,
1570773493,2019-10-11 05:58:13.469,47.636302N 0.583886E 187m,Off,5,1.9894364,0.730873,Time OK,Free running,34400,9128,0,2019-10-11 05:26:30.000000000,
1570773553,2019-10-11 05:59:13.464,47.636302N 0.583886E 187m,Off,5,1.9894364,0.730873,Time OK,Free running,35500,9128,0,2019-10-11 05:26:30.000000000,
