Time(longsecs),Time(UTC),Earth Location,GPS Receiver Status,GPS Satellites Used,GPS PDOP,GPS TDOP,Timing Status,Timing Phase Lock,Timing Uncertainty(ns),DAC Count,Timing Error(ns),GPS Last Update Time,
1571961638,2019-10-25 00:00:38.746,47.651994N 0.543144E 187m,Off,5,3.757099,2.5955238,Time OK,Free running,10300,8978,0,2019-10-24 23:53:36.000000000,
1571961698,2019-10-25 00:01:38.746,47.651994N 0.543144E 187m,Off,5,3.757099,2.5955238,Time OK,Free running,12300,8978,0,2019-10-24 23:53:36.000000000,
1571961758,2019-10-25 00:02:38.746,47.651994N 0.543144E 187m,Off,5,3.757099,2.5955238,Time OK,Free running,14300,8978,0,2019-10-24 23:53:36.000000000,
1571961818,2019-10-25 00:03:38.748,47.651994N 0.543144E 187m,Off,5,3.757099,2.5955238,Time OK,Free running,16100,8978,0,2019-10-24 23:53:36.000000000,
1571961878,2019-10-25 00:04:38.746,47.651994N 0.543144E 187m,Off,5,3.757099,2.5955238,Time OK,Free running,17900,8978,0,2019-10-24 23:53:36.000000000,
1571961938,2019-10-25 00:05:38.746,47.651994N 0.543144E 187m,Off,5,3.757099,2.5955238,Time OK,Free running,19900,8978,0,2019-10-24 23:53:36.000000000,
1571961998,2019-10-25 00:06:38.746,47.651994N 0.543144E 187m,Off,5,3.757099,2.5955238,Time OK,Free running,21800,8978,0,2019-10-24 23:53:36.000000000,
1571962058,2019-10-25 00:07:38.746,47.651994N 0.543144E 187m,Off,5,3.757099,2.5955238,Time OK,Free running,23800,8978,0,2019-10-24 23:53:36.000000000,
1571962118,2019-10-25 00:08:38.746,47.651994N 0.543144E 187m,Off,5,3.757099,2.5955238,Time OK,Free running,26300,8978,0,2019-10-24 23:53:36.000000000,
1571962178,2019-10-25 00:09:38.746,47.651994N 0.543144E 187m,Off,5,3.757099,2.5955238,Time OK,Free running,28600,8978,0,2019-10-24 23:53:36.000000000,
1571962238,2019-10-25 00:10:38.748,47.651994N 0.543144E 187m,Off,5,3.757099,2.5955238,Time OK,Free running,30700,8978,0,2019-10-24 23:53:36.000000000,
1571962298,2019-10-25 00:11:38.746,47.651994N 0.543144E 187m,Off,5,3.757099,2.5955238,Time OK,Free running,33100,8978,0,2019-10-24 23:53:36.000000000,
1571962358,2019-10-25 00:12:38.746,47.651994N 0.543144E 187m,Off,5,3.757099,2.5955238,Time OK,Free running,35400,8978,0,2019-10-24 23:53:36.000000000,
1571962418,2019-10-25 00:13:38.746,47.651994N 0.543144E 187m,Off,5,3.757099,2.5955238,Time OK,Free running,37500,8978,0,2019-10-24 23:53:36.000000000,
1571962478,2019-10-25 00:14:38.746,47.651994N 0.543144E 187m,Off,5,3.757099,2.5955238,Time OK,Free running,39300,8978,0,2019-10-24 23:53:36.000000000,
1571962538,2019-10-25 00:15:38.746,47.651994N 0.543144E 187m,Off,5,3.757099,2.5955238,Time OK,Free running,40900,8978,0,2019-10-24 23:53:36.000000000,
1571962598,2019-10-25 00:16:38.746,47.651994N 0.543144E 187m,Off,5,3.757099,2.5955238,Time OK,Free running,42700,8978,0,2019-10-24 23:53:36.000000000,
1571962658,2019-10-25 00:17:38.746,47.651994N 0.543144E 187m,Off,5,3.757099,2.5955238,Time OK,Free running,44400,8978,0,2019-10-24 23:53:36.000000000,
1571962718,2019-10-25 00:18:38.748,47.651994N 0.543144E 187m,Off,5,3.757099,2.5955238,Time OK,Free running,46000,8978,0,2019-10-24 23:53:36.000000000,
1571962778,2019-10-25 00:19:38.746,47.651994N 0.543144E 187m,Off,5,3.757099,2.5955238,Time OK,Free running,47500,8978,0,2019-10-24 23:53:36.000000000,
1571962838,2019-10-25 00:20:38.746,47.651994N 0.543144E 187m,Off,5,3.757099,2.5955238,Time OK,Free running,48800,8978,0,2019-10-24 23:53:36.000000000,
1571962898,2019-10-25 00:21:38.746,47.651994N 0.543144E 187m,Off,5,3.757099,2.5955238,Time OK,Free running,50100,8978,0,2019-10-24 23:53:36.000000000,
1571962958,2019-10-25 00:22:38.746,47.651994N 0.543144E 187m,No GPS time,5,3.757099,2.5955238,Time OK,Free running,51400,8978,0,2019-10-24 23:53:36.000000000,
1571963018,2019-10-25 00:23:38.747,47.651994N 0.543144E 187m,Doing fixes,3,2.5300817,1.1589701,Time OK,Coarse lock,100,8854,937,2019-10-25 00:23:36.000000000,
1571963078,2019-10-25 00:24:38.746,47.651994N 0.543144E 187m,Doing fixes,6,2.6281006,1.5124851,Time OK,Fine lock,100,8972,0,2019-10-25 00:24:36.000000000,
1571963138,2019-10-25 00:25:38.746,47.651994N 0.543144E 187m,Off,5,3.1023624,1.404567,Time OK,Free running,600,8977,0,2019-10-25 00:24:56.000000000,
1571963198,2019-10-25 00:26:38.746,47.651994N 0.543144E 187m,Off,5,3.1023624,1.404567,Time OK,Free running,1500,8977,0,2019-10-25 00:24:56.000000000,
1571963258,2019-10-25 00:27:38.746,47.651994N 0.543144E 187m,Off,5,3.1023624,1.404567,Time OK,Free running,3000,8977,0,2019-10-25 00:24:56.000000000,
1571963318,2019-10-25 00:28:38.746,47.651994N 0.543144E 187m,Off,5,3.1023624,1.404567,Time OK,Free running,4400,8977,0,2019-10-25 00:24:56.000000000,
1571963378,2019-10-25 00:29:38.746,47.651994N 0.543144E 187m,Off,5,3.1023624,1.404567,Time OK,Free running,5700,8977,0,2019-10-25 00:24:56.000000000,
1571963438,2019-10-25 00:30:38.746,47.651994N 0.543144E 187m,Off,5,3.1023624,1.404567,Time OK,Free running,7300,8977,0,2019-10-25 00:24:56.000000000,
1571963498,2019-10-25 00:31:38.746,47.651994N 0.543144E 187m,Off,5,3.1023624,1.404567,Time OK,Free running,8900,8977,0,2019-10-25 00:24:56.000000000,
1571963558,2019-10-25 00:32:38.746,47.651994N 0.543144E 187m,Off,5,3.1023624,1.404567,Time OK,Free running,10700,8977,0,2019-10-25 00:24:56.000000000,
1571963618,2019-10-25 00:33:38.746,47.651994N 0.543144E 187m,Off,5,3.1023624,1.404567,Time OK,Free running,12500,8977,0,2019-10-25 00:24:56.000000000,
1571963678,2019-10-25 00:34:38.746,47.651994N 0.543144E 187m,Off,5,3.1023624,1.404567,Time OK,Free running,14000,8977,0,2019-10-25 00:24:56.000000000,
1571963738,2019-10-25 00:35:38.746,47.651994N 0.543144E 187m,Off,5,3.1023624,1.404567,Time OK,Free running,15500,8977,0,2019-10-25 00:24:56.000000000,
1571963798,2019-10-25 00:36:38.746,47.651994N 0.543144E 187m,Off,5,3.1023624,1.404567,Time OK,Free running,17400,8977,0,2019-10-25 00:24:56.000000000,
1571963858,2019-10-25 00:37:38.746,47.651994N 0.543144E 187m,Off,5,3.1023624,1.404567,Time OK,Free running,19100,8977,0,2019-10-25 00:24:56.000000000,
1571963918,2019-10-25 00:38:38.746,47.651994N 0.543144E 187m,Off,5,3.1023624,1.404567,Time OK,Free running,20800,8977,0,2019-10-25 00:24:56.000000000,
1571963978,2019-10-25 00:39:38.746,47.651994N 0.543144E 187m,Off,5,3.1023624,1.404567,Time OK,Free running,22600,8977,0,2019-10-25 00:24:56.000000000,
1571964038,2019-10-25 00:40:38.746,47.651994N 0.543144E 187m,Off,5,3.1023624,1.404567,Time OK,Free running,24400,8977,0,2019-10-25 00:24:56.000000000,
1571964098,2019-10-25 00:41:38.746,47.651994N 0.543144E 187m,Off,5,3.1023624,1.404567,Time OK,Free running,26100,8977,0,2019-10-25 00:24:56.000000000,
1571964158,2019-10-25 00:42:38.746,47.651994N 0.543144E 187m,Off,5,3.1023624,1.404567,Time OK,Free running,27700,8977,0,2019-10-25 00:24:56.000000000,
1571964218,2019-10-25 00:43:38.746,47.651994N 0.543144E 187m,Off,5,3.1023624,1.404567,Time OK,Free running,29100,8977,0,2019-10-25 00:24:56.000000000,
1571964278,2019-10-25 00:44:38.746,47.651994N 0.543144E 187m,Off,5,3.1023624,1.404567,Time OK,Free running,30600,8977,0,2019-10-25 00:24:56.000000000,
1571964338,2019-10-25 00:45:38.746,47.651994N 0.543144E 187m,Off,5,3.1023624,1.404567,Time OK,Free running,32000,8977,0,2019-10-25 00:24:56.000000000,
1571964398,2019-10-25 00:46:38.746,47.651994N 0.543144E 187m,Off,5,3.1023624,1.404567,Time OK,Free running,32900,8977,0,2019-10-25 00:24:56.000000000,
1571964458,2019-10-25 00:47:38.746,47.651994N 0.543144E 187m,Off,5,3.1023624,1.404567,Time OK,Free running,33700,8977,0,2019-10-25 00:24:56.000000000,
1571964518,2019-10-25 00:48:38.746,47.651994N 0.543144E 187m,Off,5,3.1023624,1.404567,Time OK,Free running,34700,8977,0,2019-10-25 00:24:56.000000000,
1571964578,2019-10-25 00:49:38.746,47.651994N 0.543144E 187m,Off,5,3.1023624,1.404567,Time OK,Free running,35700,8977,0,2019-10-25 00:24:56.000000000,
1571964638,2019-10-25 00:50:38.746,47.651994N 0.543144E 187m,Off,5,3.1023624,1.404567,Time OK,Free running,36800,8977,0,2019-10-25 00:24:56.000000000,
1571964698,2019-10-25 00:51:38.746,47.651994N 0.543144E 187m,Off,5,3.1023624,1.404567,Time OK,Free running,38200,8977,0,2019-10-25 00:24:56.000000000,
1571964758,2019-10-25 00:52:38.746,47.651994N 0.543144E 187m,Off,5,3.1023624,1.404567,Time OK,Free running,39700,8977,0,2019-10-25 00:24:56.000000000,
1571964818,2019-10-25 00:53:38.746,47.651994N 0.543144E 187m,Off,5,3.1023624,1.404567,Time OK,Free running,41000,8977,0,2019-10-25 00:24:56.000000000,
1571964878,2019-10-25 00:54:38.746,47.651994N 0.543144E 187m,Off,5,3.1023624,1.404567,Time OK,Free running,42600,8977,0,2019-10-25 00:24:56.000000000,
1571964938,2019-10-25 00:55:38.746,47.651994N 0.543144E 187m,Off,5,3.1023624,1.404567,Time OK,Free running,44300,8977,0,2019-10-25 00:24:56.000000000,
1571964998,2019-10-25 00:56:38.746,47.651994N 0.543144E 187m,Off,5,3.1023624,1.404567,Time OK,Free running,46000,8977,0,2019-10-25 00:24:56.000000000,
1571965058,2019-10-25 00:57:38.746,47.651994N 0.543144E 187m,Off,5,3.1023624,1.404567,Time OK,Free running,48000,8977,0,2019-10-25 00:24:56.000000000,
1571965118,2019-10-25 00:58:38.746,47.651994N 0.543144E 187m,Off,5,3.1023624,1.404567,Time OK,Free running,49800,8977,0,2019-10-25 00:24:56.000000000,
1571965178,2019-10-25 00:59:38.746,47.651994N 0.543144E 187m,Off,5,3.1023624,1.404567,Time OK,Free running,51400,8977,0,2019-10-25 00:24:56.000000000,
