Time(longsecs),Time(UTC),Supply Voltage(mV),Temperature(&deg;C),NMX Bus Current(mA),Sensor Current(mA),Serial Port Current(mA),Controller Current(mA),Digitizer Current(mA),
1571986838,2019-10-25 07:00:38.746,11872,1.3500702E1,0,13,0,0,51,
1571986898,2019-10-25 07:01:38.746,11885,1.3211151E1,0,13,0,0,53,
1571986958,2019-10-25 07:02:38.746,11872,1.3121002E1,0,14,0,0,57,
1571987018,2019-10-25 07:03:38.746,11872,1.33013E1,0,13,0,0,55,
1571987078,2019-10-25 07:04:38.746,11885,1.3226013E1,0,11,0,0,51,
1571987138,2019-10-25 07:05:38.746,11872,1.3252502E1,0,11,0,0,53,
1571987198,2019-10-25 07:06:38.746,11885,1.3258881E1,0,13,0,0,51,
1571987258,2019-10-25 07:07:38.748,11844,1.3263123E1,0,13,0,59,65,
1571987318,2019-10-25 07:08:38.746,11830,1.2973572E1,0,14,0,64,62,
1571987378,2019-10-25 07:09:38.746,11830,1.3188873E1,0,12,0,63,67,
1571987438,2019-10-25 07:10:38.746,11830,1.3264191E1,0,7,0,59,65,
1571987498,2019-10-25 07:11:38.746,11830,1.3341614E1,0,13,0,52,67,
1571987558,2019-10-25 07:12:38.749,11817,1.3464661E1,0,13,0,68,61,
1571987618,2019-10-25 07:13:38.788,11830,1.329071E1,0,13,0,64,65,
1571987678,2019-10-25 07:14:38.746,11830,1.3542084E1,0,13,0,63,65,
1571987738,2019-10-25 07:15:38.746,11830,1.3388275E1,0,17,0,64,58,
1571987798,2019-10-25 07:16:38.746,11830,1.3536774E1,0,13,0,64,61,
1571987858,2019-10-25 07:17:38.746,11872,1.3478424E1,0,11,0,0,52,
1571987918,2019-10-25 07:18:38.746,11872,1.344342E1,0,13,0,0,59,
1571987978,2019-10-25 07:19:38.746,11872,1.3342682E1,0,13,0,0,51,
1571988038,2019-10-25 07:20:38.746,11830,1.3422211E1,0,11,0,5,50,
1571988098,2019-10-25 07:21:38.746,11872,1.3408447E1,0,11,0,5,52,
1571988158,2019-10-25 07:22:38.746,11872,1.3473145E1,0,14,0,5,51,
1571988218,2019-10-25 07:23:38.746,11872,1.30997925E1,0,13,0,0,51,
1571988278,2019-10-25 07:24:38.746,11872,1.3329956E1,0,13,0,0,55,
1571988338,2019-10-25 07:25:38.746,11885,1.3219635E1,0,13,0,0,51,
1571988398,2019-10-25 07:26:38.746,11872,1.3158112E1,0,12,0,0,55,
1571988458,2019-10-25 07:27:38.746,11872,1.3223877E1,0,13,0,0,55,
1571988518,2019-10-25 07:28:38.746,11885,1.3065826E1,0,11,0,0,52,
1571988578,2019-10-25 07:29:38.746,11872,1.3114624E1,0,13,0,0,60,
1571988638,2019-10-25 07:30:38.746,11885,1.3236603E1,0,15,0,0,52,
1571988698,2019-10-25 07:31:38.748,11817,1.3141144E1,0,11,0,75,52,
1571988758,2019-10-25 07:32:38.746,11844,1.3262054E1,0,7,0,63,52,
1571988818,2019-10-25 07:33:38.748,11803,1.3263123E1,0,12,0,66,50,
1571988878,2019-10-25 07:34:38.790,11844,1.331192E1,0,14,0,70,51,
1571988938,2019-10-25 07:35:38.746,11844,1.3425415E1,0,13,0,64,51,
1571988998,2019-10-25 07:36:38.746,11844,1.332251E1,0,21,0,64,51,
1571989058,2019-10-25 07:37:38.746,11830,1.3096588E1,0,20,0,77,54,
1571989118,2019-10-25 07:38:38.748,11830,1.3419037E1,0,13,0,63,52,
1571989178,2019-10-25 07:39:38.746,11830,1.3620575E1,0,14,0,65,53,
1571989238,2019-10-25 07:40:38.748,11872,1.3467834E1,0,11,0,0,51,
1571989298,2019-10-25 07:41:38.746,11872,1.3572845E1,0,14,0,0,51,
1571989358,2019-10-25 07:42:38.746,11872,1.3637543E1,0,14,0,0,51,
1571989418,2019-10-25 07:43:38.746,11885,1.35686035E1,0,13,0,0,52,
1571989478,2019-10-25 07:44:38.746,11872,1.3455109E1,0,12,0,0,52,
1571989538,2019-10-25 07:45:38.746,11872,1.3378723E1,0,11,0,0,50,
1571989598,2019-10-25 07:46:38.746,11872,1.3431763E1,0,13,0,0,50,
1571989658,2019-10-25 07:47:38.746,11872,1.32482605E1,0,13,0,0,50,
1571989718,2019-10-25 07:48:38.746,11872,1.3024475E1,0,12,41,0,64,
1571989778,2019-10-25 07:49:38.746,11872,1.3195251E1,0,13,0,0,53,
1571989838,2019-10-25 07:50:38.748,11872,1.3146454E1,0,13,0,0,55,
1571989898,2019-10-25 07:51:38.746,11872,1.3163422E1,0,13,0,0,53,
1571989958,2019-10-25 07:52:38.746,11872,1.3436005E1,0,13,0,0,51,
1571990018,2019-10-25 07:53:38.746,11857,1.331723E1,0,13,0,0,51,
1571990078,2019-10-25 07:54:38.746,11885,1.3234497E1,0,14,0,0,51,
1571990138,2019-10-25 07:55:38.746,11872,1.3227051E1,0,11,0,0,51,
1571990198,2019-10-25 07:56:38.746,11857,1.3253571E1,0,11,0,61,52,
1571990258,2019-10-25 07:57:38.746,11844,1.3129486E1,0,20,0,61,49,
1571990318,2019-10-25 07:58:38.746,11844,1.3477386E1,0,12,0,55,51,
1571990378,2019-10-25 07:59:38.746,11830,1.3219635E1,0,15,0,65,54,
