Time(longsecs),Time(UTC),Earth Location,GPS Receiver Status,GPS Satellites Used,GPS PDOP,GPS TDOP,Timing Status,Timing Phase Lock,Timing Uncertainty(ns),DAC Count,Timing Error(ns),GPS Last Update Time,
1571518822,2019-10-19 21:00:22.352,47.644918N 0.586892E 189m,Off,5,3.618596,2.4726834,Time OK,Free running,41500,8919,0,2019-10-19 20:26:29.000000000,
1571518882,2019-10-19 21:01:22.352,47.644918N 0.586892E 189m,Off,5,3.618596,2.4726834,Time OK,Free running,43200,8919,0,2019-10-19 20:26:29.000000000,
1571518942,2019-10-19 21:02:22.352,47.644918N 0.586892E 189m,Off,5,3.618596,2.4726834,Time OK,Free running,45000,8919,0,2019-10-19 20:26:29.000000000,
1571519002,2019-10-19 21:03:22.354,47.644918N 0.586892E 189m,Off,5,3.618596,2.4726834,Time OK,Free running,47000,8919,0,2019-10-19 20:26:29.000000000,
1571519062,2019-10-19 21:04:22.352,47.644918N 0.586892E 189m,Off,5,3.618596,2.4726834,Time OK,Free running,48800,8919,0,2019-10-19 20:26:29.000000000,
1571519122,2019-10-19 21:05:22.352,47.644918N 0.586892E 189m,Off,5,3.618596,2.4726834,Time OK,Free running,50700,8919,0,2019-10-19 20:26:29.000000000,
1571519182,2019-10-19 21:06:22.352,47.644918N 0.586892E 189m,Doing fixes,6,2.3071904,1.3307339,Time OK,Coarse lock,100,8464,4791,2019-10-19 21:06:19.000000000,
1571519242,2019-10-19 21:07:22.352,47.644918N 0.586892E 189m,Doing fixes,6,2.2888463,1.3180912,Time OK,Fine lock,100,8905,0,2019-10-19 21:07:19.000000000,
1571519302,2019-10-19 21:08:22.352,47.644918N 0.586892E 189m,Off,6,2.2793279,1.3114986,Time OK,Free running,500,8908,0,2019-10-19 21:07:49.000000000,
1571519362,2019-10-19 21:09:22.352,47.644918N 0.586892E 189m,Off,6,2.2793279,1.3114986,Time OK,Free running,1300,8908,0,2019-10-19 21:07:49.000000000,
1571519422,2019-10-19 21:10:22.352,47.644918N 0.586892E 189m,Off,6,2.2793279,1.3114986,Time OK,Free running,2100,8908,0,2019-10-19 21:07:49.000000000,
1571519482,2019-10-19 21:11:22.352,47.644918N 0.586892E 189m,Off,6,2.2793279,1.3114986,Time OK,Free running,3200,8908,0,2019-10-19 21:07:49.000000000,
1571519542,2019-10-19 21:12:22.352,47.644918N 0.586892E 189m,Off,6,2.2793279,1.3114986,Time OK,Free running,4300,8908,0,2019-10-19 21:07:49.000000000,
1571519602,2019-10-19 21:13:22.352,47.644918N 0.586892E 189m,Off,6,2.2793279,1.3114986,Time OK,Free running,5200,8908,0,2019-10-19 21:07:49.000000000,
1571519662,2019-10-19 21:14:22.352,47.644918N 0.586892E 189m,Off,6,2.2793279,1.3114986,Time OK,Free running,6400,8908,0,2019-10-19 21:07:49.000000000,
1571519722,2019-10-19 21:15:22.352,47.644918N 0.586892E 189m,Off,6,2.2793279,1.3114986,Time OK,Free running,7300,8908,0,2019-10-19 21:07:49.000000000,
1571519782,2019-10-19 21:16:22.352,47.644918N 0.586892E 189m,Off,6,2.2793279,1.3114986,Time OK,Free running,8200,8908,0,2019-10-19 21:07:49.000000000,
1571519842,2019-10-19 21:17:22.354,47.644918N 0.586892E 189m,Off,6,2.2793279,1.3114986,Time OK,Free running,9100,8908,0,2019-10-19 21:07:49.000000000,
1571519902,2019-10-19 21:18:22.352,47.644918N 0.586892E 189m,Off,6,2.2793279,1.3114986,Time OK,Free running,9900,8908,0,2019-10-19 21:07:49.000000000,
1571519962,2019-10-19 21:19:22.352,47.644918N 0.586892E 189m,Off,6,2.2793279,1.3114986,Time OK,Free running,10900,8908,0,2019-10-19 21:07:49.000000000,
1571520022,2019-10-19 21:20:22.352,47.644918N 0.586892E 189m,Off,6,2.2793279,1.3114986,Time OK,Free running,11800,8908,0,2019-10-19 21:07:49.000000000,
1571520082,2019-10-19 21:21:22.352,47.644918N 0.586892E 189m,Off,6,2.2793279,1.3114986,Time OK,Free running,12800,8908,0,2019-10-19 21:07:49.000000000,
1571520142,2019-10-19 21:22:22.352,47.644918N 0.586892E 189m,Off,6,2.2793279,1.3114986,Time OK,Free running,13600,8908,0,2019-10-19 21:07:49.000000000,
1571520202,2019-10-19 21:23:22.352,47.644918N 0.586892E 189m,Off,6,2.2793279,1.3114986,Time OK,Free running,14600,8908,0,2019-10-19 21:07:49.000000000,
1571520262,2019-10-19 21:24:22.352,47.644918N 0.586892E 189m,Off,6,2.2793279,1.3114986,Time OK,Free running,15400,8908,0,2019-10-19 21:07:49.000000000,
1571520322,2019-10-19 21:25:22.352,47.644918N 0.586892E 189m,Off,6,2.2793279,1.3114986,Time OK,Free running,16400,8908,0,2019-10-19 21:07:49.000000000,
1571520382,2019-10-19 21:26:22.385,47.644918N 0.586892E 189m,Off,6,2.2793279,1.3114986,Time OK,Free running,17700,8908,0,2019-10-19 21:07:49.000000000,
1571520442,2019-10-19 21:27:22.352,47.644918N 0.586892E 189m,Off,6,2.2793279,1.3114986,Time OK,Free running,19100,8908,0,2019-10-19 21:07:49.000000000,
1571520502,2019-10-19 21:28:22.352,47.644918N 0.586892E 189m,Off,6,2.2793279,1.3114986,Time OK,Free running,20500,8908,0,2019-10-19 21:07:49.000000000,
1571520562,2019-10-19 21:29:22.352,47.644918N 0.586892E 189m,Off,6,2.2793279,1.3114986,Time OK,Free running,21900,8908,0,2019-10-19 21:07:49.000000000,
1571520622,2019-10-19 21:30:22.352,47.644918N 0.586892E 189m,Off,6,2.2793279,1.3114986,Time OK,Free running,23000,8908,0,2019-10-19 21:07:49.000000000,
1571520682,2019-10-19 21:31:22.352,47.644918N 0.586892E 189m,Off,6,2.2793279,1.3114986,Time OK,Free running,24000,8908,0,2019-10-19 21:07:49.000000000,
1571520742,2019-10-19 21:32:22.352,47.644918N 0.586892E 189m,Off,6,2.2793279,1.3114986,Time OK,Free running,25200,8908,0,2019-10-19 21:07:49.000000000,
1571520802,2019-10-19 21:33:22.383,47.644918N 0.586892E 189m,Off,6,2.2793279,1.3114986,Time OK,Free running,26300,8908,0,2019-10-19 21:07:49.000000000,
1571520862,2019-10-19 21:34:22.352,47.644918N 0.586892E 189m,Off,6,2.2793279,1.3114986,Time OK,Free running,27300,8908,0,2019-10-19 21:07:49.000000000,
1571520922,2019-10-19 21:35:22.352,47.644918N 0.586892E 189m,Off,6,2.2793279,1.3114986,Time OK,Free running,28400,8908,0,2019-10-19 21:07:49.000000000,
1571520982,2019-10-19 21:36:22.379,47.644918N 0.586892E 189m,Off,6,2.2793279,1.3114986,Time OK,Free running,29700,8908,0,2019-10-19 21:07:49.000000000,
1571521042,2019-10-19 21:37:22.352,47.644918N 0.586892E 189m,Off,6,2.2793279,1.3114986,Time OK,Free running,31000,8908,0,2019-10-19 21:07:49.000000000,
1571521102,2019-10-19 21:38:22.352,47.644918N 0.586892E 189m,Off,6,2.2793279,1.3114986,Time OK,Free running,32300,8908,0,2019-10-19 21:07:49.000000000,
1571521162,2019-10-19 21:39:22.352,47.644918N 0.586892E 189m,Off,6,2.2793279,1.3114986,Time OK,Free running,33700,8908,0,2019-10-19 21:07:49.000000000,
1571521222,2019-10-19 21:40:22.352,47.644918N 0.586892E 189m,Off,6,2.2793279,1.3114986,Time OK,Free running,35200,8908,0,2019-10-19 21:07:49.000000000,
1571521282,2019-10-19 21:41:22.352,47.644918N 0.586892E 189m,Off,6,2.2793279,1.3114986,Time OK,Free running,36600,8908,0,2019-10-19 21:07:49.000000000,
1571521342,2019-10-19 21:42:22.352,47.644918N 0.586892E 189m,Off,6,2.2793279,1.3114986,Time OK,Free running,38100,8908,0,2019-10-19 21:07:49.000000000,
1571521402,2019-10-19 21:43:22.394,47.644918N 0.586892E 189m,Off,6,2.2793279,1.3114986,Time OK,Free running,39700,8908,0,2019-10-19 21:07:49.000000000,
1571521462,2019-10-19 21:44:22.352,47.644918N 0.586892E 189m,Off,6,2.2793279,1.3114986,Time OK,Free running,41100,8908,0,2019-10-19 21:07:49.000000000,
1571521522,2019-10-19 21:45:22.352,47.644918N 0.586892E 189m,Off,6,2.2793279,1.3114986,Time OK,Free running,42300,8908,0,2019-10-19 21:07:49.000000000,
1571521582,2019-10-19 21:46:22.354,47.644918N 0.586892E 189m,Off,6,2.2793279,1.3114986,Time OK,Free running,43400,8908,0,2019-10-19 21:07:49.000000000,
1571521642,2019-10-19 21:47:22.352,47.644918N 0.586892E 189m,Off,6,2.2793279,1.3114986,Time OK,Free running,44800,8908,0,2019-10-19 21:07:49.000000000,
1571521702,2019-10-19 21:48:22.352,47.644918N 0.586892E 189m,Off,6,2.2793279,1.3114986,Time OK,Free running,46300,8908,0,2019-10-19 21:07:49.000000000,
1571521762,2019-10-19 21:49:22.354,47.644918N 0.586892E 189m,Off,6,2.2793279,1.3114986,Time OK,Free running,47700,8908,0,2019-10-19 21:07:49.000000000,
1571521822,2019-10-19 21:50:22.352,47.644918N 0.586892E 189m,Off,6,2.2793279,1.3114986,Time OK,Free running,49300,8908,0,2019-10-19 21:07:49.000000000,
1571521882,2019-10-19 21:51:22.352,47.644918N 0.586892E 189m,Off,6,2.2793279,1.3114986,Time OK,Free running,50900,8908,0,2019-10-19 21:07:49.000000000,
1571521942,2019-10-19 21:52:22.352,47.644918N 0.586892E 189m,Doing fixes,6,2.0118768,1.0688412,Time OK,Coarse lock,100,8274,6875,2019-10-19 21:52:19.000000000,
1571522002,2019-10-19 21:53:22.352,47.644918N 0.586892E 189m,Doing fixes,6,1.9982715,1.1011074,Time OK,Fine lock,100,8905,-104,2019-10-19 21:53:19.000000000,
1571522062,2019-10-19 21:54:22.352,47.644918N 0.586892E 189m,Off,6,1.9938388,1.0980067,Time OK,Free running,200,8898,0,2019-10-19 21:54:09.000000000,
1571522122,2019-10-19 21:55:22.352,47.644918N 0.586892E 189m,Off,6,1.9938388,1.0980067,Time OK,Free running,1000,8898,0,2019-10-19 21:54:09.000000000,
1571522182,2019-10-19 21:56:22.352,47.644918N 0.586892E 189m,Off,6,1.9938388,1.0980067,Time OK,Free running,1900,8898,0,2019-10-19 21:54:09.000000000,
1571522242,2019-10-19 21:57:22.357,47.644918N 0.586892E 189m,Off,6,1.9938388,1.0980067,Time OK,Free running,3000,8898,0,2019-10-19 21:54:09.000000000,
1571522302,2019-10-19 21:58:22.352,47.644918N 0.586892E 189m,Off,6,1.9938388,1.0980067,Time OK,Free running,3800,8898,0,2019-10-19 21:54:09.000000000,
1571522362,2019-10-19 21:59:22.352,47.644918N 0.586892E 189m,Off,6,1.9938388,1.0980067,Time OK,Free running,4900,8898,0,2019-10-19 21:54:09.000000000,
