Time(longsecs),Time(UTC),External SOH Voltage 1(V),External SOH Voltage 2(V),External SOH Voltage 3(V),External SOH Voltage 4(V),Sensor SOH Voltage 1(V),Sensor SOH Voltage 2(V),Sensor SOH Voltage 3(V),
1571446822,2019-10-19 01:00:22.352,-2.7477741E-3,-1.0092974E-2,-3.5755634E-3,-3.960848E-3,3.6812115E-1,3.6427498E-1,3.7205315E-1,
1571446882,2019-10-19 01:01:22.354,-2.026558E-5,-7.7209473E-3,-1.3086796E-3,-1.4281273E-3,3.79735E-1,3.7362003E-1,3.8040447E-1,
1571446942,2019-10-19 01:02:22.352,-4.582405E-4,-8.767843E-3,-1.9288063E-3,-2.0012856E-3,3.7846375E-1,3.7311077E-1,3.800707E-1,
1571447002,2019-10-19 01:03:22.352,-2.5987625E-3,-1.021862E-2,-3.5789013E-3,-4.0540695E-3,3.686657E-1,3.6522388E-1,3.7403488E-1,
1571447062,2019-10-19 01:04:22.352,1.6059875E-3,-6.40893E-3,9.5295906E-4,-8.08239E-5,3.8339138E-1,3.7836933E-1,3.8607883E-1,
1571447122,2019-10-19 01:05:22.352,-6.520748E-4,-8.194685E-3,-1.6520023E-3,-2.5835037E-3,3.709221E-1,3.6777782E-1,3.7530804E-1,
1571447182,2019-10-19 01:06:22.384,-6.8831444E-4,-8.779526E-3,-1.7387867E-3,-1.8715858E-3,3.7633038E-1,3.704977E-1,3.7847614E-1,
1571447242,2019-10-19 01:07:22.352,-5.1903725E-4,-8.265018E-3,-1.9369125E-3,-2.0401478E-3,3.7550068E-1,3.7073898E-1,3.7949657E-1,
1571447302,2019-10-19 01:08:22.352,1.7132759E-3,-6.4287186E-3,8.3065033E-4,4.3463707E-4,3.836422E-1,3.7904072E-1,3.8541508E-1,
1571447362,2019-10-19 01:09:22.352,-8.049011E-4,-8.528948E-3,-1.9698143E-3,-2.1426678E-3,3.7331486E-1,3.6748695E-1,3.7440586E-1,
1571447422,2019-10-19 01:10:22.352,-2.542019E-3,-1.0374308E-2,-3.2787323E-3,-3.8239956E-3,3.7088108E-1,3.6701298E-1,3.730278E-1,
1571447482,2019-10-19 01:11:22.352,1.875639E-3,-6.2594414E-3,8.711815E-4,2.4437904E-4,3.8262272E-1,3.764372E-1,3.8585377E-1,
1571447542,2019-10-19 01:12:22.352,-8.018017E-4,-8.490324E-3,-1.4772415E-3,-2.128601E-3,3.7825584E-1,3.7297153E-1,3.8042164E-1,
1571447602,2019-10-19 01:13:22.352,1.8668175E-3,-5.904913E-3,9.899139E-4,2.4867058E-4,3.8431644E-1,3.7749767E-1,3.8529682E-1,
1571447662,2019-10-19 01:14:22.354,2.0139217E-3,-6.000757E-3,7.572174E-4,2.4795532E-4,3.8115692E-1,3.7389374E-1,3.83152E-1,
1571447722,2019-10-19 01:15:22.352,1.6937256E-3,-5.991459E-3,7.36475E-4,4.4751167E-4,3.8498306E-1,3.7952232E-1,3.8672352E-1,
1571447782,2019-10-19 01:16:22.352,-7.7700615E-4,-8.464813E-3,-1.7368793E-3,-2.0830631E-3,3.7727737E-1,3.727665E-1,3.7978458E-1,
1571447842,2019-10-19 01:17:22.352,-2.6211739E-3,-9.805679E-3,-3.800869E-3,-3.8592815E-3,3.69668E-1,3.648653E-1,3.7407398E-1,
1571447902,2019-10-19 01:18:22.353,1.5301704E-3,-5.725622E-3,6.084442E-4,-4.119873E-4,3.832054E-1,3.7699413E-1,3.843174E-1,
1571447962,2019-10-19 01:19:22.352,1.4839172E-3,-5.944729E-3,4.8542023E-4,-3.9339066E-5,3.861208E-1,3.7928867E-1,3.873186E-1,
1571448022,2019-10-19 01:20:22.393,8.678436E-5,-7.684469E-3,-1.3036728E-3,-1.2469292E-3,3.782339E-1,3.7014866E-1,3.7792015E-1,
1571448082,2019-10-19 01:21:22.366,-2.4118423E-3,-9.958267E-3,-3.3357143E-3,-4.1189194E-3,3.6810398E-1,3.622322E-1,3.7493134E-1,
1571448142,2019-10-19 01:22:22.352,1.5869141E-3,-5.810261E-3,3.633499E-4,4.696846E-4,3.8548946E-1,3.797207E-1,3.867464E-1,
1571448202,2019-10-19 01:23:22.354,-3.4713745E-4,-7.629156E-3,-8.52108E-4,-1.6067028E-3,3.7900734E-1,3.7306595E-1,3.8276005E-1,
1571448262,2019-10-19 01:24:22.354,-8.9001656E-4,-8.632898E-3,-1.5897751E-3,-2.4166107E-3,3.7516594E-1,3.700409E-1,3.7787628E-1,
1571448322,2019-10-19 01:25:22.352,-8.3208084E-4,-8.204699E-3,-2.0046234E-3,-2.1653175E-3,3.7539577E-1,3.7100792E-1,3.8103485E-1,
1571448382,2019-10-19 01:26:22.352,-2.7952194E-3,-1.0349512E-2,-3.944874E-3,-4.650593E-3,3.6944962E-1,3.630638E-1,3.732996E-1,
1571448442,2019-10-19 01:27:22.352,-2.5992393E-3,-9.909391E-3,-3.4520626E-3,-3.362894E-3,3.703766E-1,3.6694813E-1,3.7400723E-1,
1571448502,2019-10-19 01:28:22.352,1.2874603E-4,-7.828236E-3,-9.045601E-4,-1.395464E-3,3.7806892E-1,3.709221E-1,3.7781906E-1,
1571448562,2019-10-19 01:29:22.352,-2.5908947E-3,-1.0574102E-2,-3.7567616E-3,-4.484892E-3,3.7279034E-1,3.6586E-1,3.740635E-1,
1571448622,2019-10-19 01:30:22.354,-2.9654503E-3,-1.0481834E-2,-3.986597E-3,-4.2407513E-3,3.729639E-1,3.6627674E-1,3.7435818E-1,
1571448682,2019-10-19 01:31:22.352,-1.9669533E-4,-7.666588E-3,-1.3413429E-3,-2.0053387E-3,3.7666798E-1,3.706751E-1,3.7799263E-1,
1571448742,2019-10-19 01:32:22.352,1.9407272E-4,-7.678032E-3,-1.260519E-3,-1.3034344E-3,3.769312E-1,3.7210655E-1,3.7881756E-1,
1571448802,2019-10-19 01:33:22.352,-1.3589859E-4,-7.545233E-3,-1.4233589E-3,-1.770258E-3,3.745842E-1,3.697071E-1,3.8118362E-1,
1571448862,2019-10-19 01:34:22.352,-1.821518E-4,-7.782221E-3,-1.234293E-3,-1.6834736E-3,3.782692E-1,3.7226486E-1,3.8159752E-1,
1571448922,2019-10-19 01:35:22.352,-1.7642975E-4,-7.829428E-3,-1.4936924E-3,-1.8930435E-3,3.7461948E-1,3.690548E-1,3.8162422E-1,
1571448982,2019-10-19 01:36:22.352,-1.1441708E-3,-8.387804E-3,-1.3327599E-3,-2.3713112E-3,3.7784004E-1,3.7174416E-1,3.8080978E-1,
1571449042,2019-10-19 01:37:22.352,-1.87397E-4,-7.5011253E-3,-1.1203289E-3,-1.3558865E-3,3.7657547E-1,3.7157536E-1,3.7923908E-1,
1571449102,2019-10-19 01:38:22.352,-4.97818E-4,-8.457661E-3,-1.8212795E-3,-2.128601E-3,3.7809086E-1,3.7281704E-1,3.784361E-1,
1571449162,2019-10-19 01:39:22.358,-2.609253E-3,-1.0117531E-2,-3.4508705E-3,-4.310131E-3,3.7289238E-1,3.6552143E-1,3.7288857E-1,
1571449222,2019-10-19 01:40:22.352,1.09910965E-4,-7.69186E-3,-1.2178421E-3,-1.3780594E-3,3.7777996E-1,3.7229252E-1,3.765564E-1,
1571449282,2019-10-19 01:41:22.352,1.7311573E-3,-6.35767E-3,7.853508E-4,-8.34465E-5,3.8466358E-1,3.7746525E-1,3.8456917E-1,
1571449342,2019-10-19 01:42:22.352,2.0809174E-3,-6.0551167E-3,5.457401E-4,5.772114E-4,3.827896E-1,3.7766075E-1,3.885727E-1,
1571449402,2019-10-19 01:43:22.352,-6.5732E-4,-8.53157E-3,-1.9288063E-3,-2.4220943E-3,3.75432E-1,3.7101173E-1,3.787241E-1,
1571449462,2019-10-19 01:44:22.352,-2.3508072E-3,-1.0013342E-2,-3.717661E-3,-4.101038E-3,3.70924E-1,3.6704063E-1,3.7033367E-1,
1571449522,2019-10-19 01:45:22.354,1.6505718E-3,-6.0100555E-3,5.977154E-4,-7.9870224E-5,3.8446808E-1,3.7833214E-1,3.8495827E-1,
1571449582,2019-10-19 01:46:22.373,-1.0793209E-3,-8.517265E-3,-1.8825531E-3,-2.1138191E-3,3.7792778E-1,3.715706E-1,3.7676334E-1,
1571449642,2019-10-19 01:47:22.352,1.660347E-3,-6.6034794E-3,7.970333E-4,5.617142E-4,3.81155E-1,3.7535477E-1,3.8499355E-1,
1571449702,2019-10-19 01:48:22.352,1.9915104E-3,-5.977869E-3,4.4751167E-4,4.6920776E-4,3.8110638E-1,3.759861E-1,3.860159E-1,
1571449762,2019-10-19 01:49:22.352,-2.5866032E-3,-1.0007858E-2,-3.7920475E-3,-3.9191246E-3,3.699913E-1,3.6575317E-1,3.732748E-1,
1571449822,2019-10-19 01:50:22.352,2.329111E-3,-5.949974E-3,5.5742264E-4,3.1638145E-4,3.8087654E-1,3.7540817E-1,3.866663E-1,
1571449882,2019-10-19 01:51:22.352,1.0418892E-4,-7.6453686E-3,-1.4743805E-3,-1.6074181E-3,3.7687397E-1,3.7150383E-1,3.8000488E-1,
1571449942,2019-10-19 01:52:22.352,-2.8061867E-3,-1.018095E-2,-3.7515163E-3,-4.065752E-3,3.7062263E-1,3.6671734E-1,3.7419796E-1,
1571450002,2019-10-19 01:53:22.352,-1.6784668E-4,-7.909775E-3,-1.1897087E-3,-1.7595291E-3,3.7897587E-1,3.7427044E-1,3.81135E-1,
1571450062,2019-10-19 01:54:22.352,1.7795563E-3,-5.80287E-3,7.7724457E-4,3.452301E-4,3.8575935E-1,3.791561E-1,3.86652E-1,
1571450122,2019-10-19 01:55:22.352,-2.7816296E-3,-1.0243654E-2,-3.2346249E-3,-3.8015842E-3,3.716526E-1,3.650875E-1,3.764E-1,
1571450182,2019-10-19 01:56:22.352,-4.6253204E-5,-7.7621937E-3,-1.3091564E-3,-1.7960072E-3,3.8051414E-1,3.752222E-1,3.80229E-1,
1571450242,2019-10-19 01:57:22.352,-2.9108524E-3,-1.01623535E-2,-3.64542E-3,-3.982067E-3,3.725605E-1,3.6577702E-1,3.7206173E-1,
1571450302,2019-10-19 01:58:22.352,1.9097328E-3,-5.552292E-3,6.866455E-5,2.670288E-4,3.823433E-1,3.7570953E-1,3.8377094E-1,
1571450362,2019-10-19 01:59:22.352,-1.5449524E-4,-7.567644E-3,-8.2683563E-4,-1.5547276E-3,3.786087E-1,3.7457943E-1,3.8261318E-1,
