Time(longsecs),Time(UTC),Supply Voltage(mV),Temperature(&deg;C),NMX Bus Current(mA),Sensor Current(mA),Serial Port Current(mA),Controller Current(mA),Digitizer Current(mA),
1571479222,2019-10-19 10:00:22.352,16502,1.8818542E1,0,7,0,37,37,
1571479282,2019-10-19 10:01:22.352,16488,1.8783356E1,0,13,0,35,38,
1571479342,2019-10-19 10:02:22.352,16475,1.8774841E1,0,7,0,52,37,
1571479402,2019-10-19 10:03:22.363,16475,1.9032684E1,0,9,0,52,37,
1571479462,2019-10-19 10:04:22.352,16448,1.8931488E1,0,7,0,52,36,
1571479522,2019-10-19 10:05:22.354,16475,1.905188E1,0,4,0,47,38,
1571479582,2019-10-19 10:06:22.352,16488,1.884198E1,0,11,0,47,39,
1571479642,2019-10-19 10:07:22.352,16475,1.8945312E1,0,7,0,48,37,
1571479702,2019-10-19 10:08:22.352,16475,1.9176544E1,0,13,0,54,36,
1571479762,2019-10-19 10:09:22.352,16475,1.9181854E1,0,7,0,54,40,
1571479822,2019-10-19 10:10:22.352,16475,1.922876E1,0,6,0,47,40,
1571479882,2019-10-19 10:11:22.352,16488,1.9235138E1,0,6,0,54,39,
1571479942,2019-10-19 10:12:22.352,16461,1.9302277E1,0,6,0,64,36,
1571480002,2019-10-19 10:13:22.352,16475,1.9348083E1,0,8,0,56,33,
1571480062,2019-10-19 10:14:22.352,16475,1.912326E1,0,8,0,58,37,
1571480122,2019-10-19 10:15:22.352,16475,1.9464233E1,0,9,0,51,34,
1571480182,2019-10-19 10:16:22.354,16461,1.9337433E1,0,6,0,57,36,
1571480242,2019-10-19 10:17:22.352,16461,1.950473E1,0,9,0,55,36,
1571480302,2019-10-19 10:18:22.352,16475,1.940561E1,0,9,0,50,38,
1571480362,2019-10-19 10:19:22.352,16475,1.9707153E1,0,9,0,56,38,
1571480422,2019-10-19 10:20:22.352,16488,1.9559052E1,0,9,0,57,36,
1571480482,2019-10-19 10:21:22.352,16475,1.9573975E1,0,10,0,54,35,
1571480542,2019-10-19 10:22:22.386,16475,1.9583557E1,0,6,0,50,36,
1571480602,2019-10-19 10:23:22.390,16475,1.9424805E1,0,13,0,49,37,
1571480662,2019-10-19 10:24:22.352,16475,1.9706085E1,0,7,0,50,38,
1571480722,2019-10-19 10:25:22.352,16475,1.9561188E1,41,9,0,50,33,
1571480782,2019-10-19 10:26:22.352,16502,1.9708221E1,0,9,0,54,34,
1571480842,2019-10-19 10:27:22.352,16475,1.9597412E1,0,11,0,56,35,
1571480902,2019-10-19 10:28:22.352,16475,1.958783E1,0,9,0,56,35,
1571480962,2019-10-19 10:29:22.352,16475,1.9773224E1,0,7,0,50,33,
1571481022,2019-10-19 10:30:22.352,16461,1.9717804E1,0,10,0,68,35,
1571481082,2019-10-19 10:31:22.352,16475,1.966986E1,0,5,0,49,43,
1571481142,2019-10-19 10:32:22.352,16475,1.97583E1,0,11,0,56,36,
1571481202,2019-10-19 10:33:22.390,16475,2.0025757E1,0,9,0,56,37,
1571481262,2019-10-19 10:34:22.352,16448,1.9806244E1,0,6,0,52,38,
1571481322,2019-10-19 10:35:22.384,16475,1.9787079E1,0,9,0,59,35,
1571481382,2019-10-19 10:36:22.352,16502,1.9930908E1,0,5,7,55,39,
1571481442,2019-10-19 10:37:22.352,16488,1.982544E1,0,10,0,57,37,
1571481502,2019-10-19 10:38:22.352,16475,2.0020416E1,0,8,0,56,38,
1571481562,2019-10-19 10:39:22.352,16475,2.0033203E1,0,10,0,54,36,
1571481622,2019-10-19 10:40:22.352,16475,2.010672E1,0,9,10,56,35,
1571481682,2019-10-19 10:41:22.352,16461,1.9996979E1,0,13,0,58,32,
1571481742,2019-10-19 10:42:22.352,16475,2.0161072E1,0,9,0,56,38,
1571481802,2019-10-19 10:43:22.354,16461,1.9940521E1,0,3,0,56,36,
1571481862,2019-10-19 10:44:22.353,16475,2.0157867E1,0,9,0,52,37,
1571481922,2019-10-19 10:45:22.353,16461,2.0067291E1,0,6,0,62,36,
1571481982,2019-10-19 10:46:22.353,16461,2.018985E1,0,6,0,60,37,
1571482042,2019-10-19 10:47:22.352,16433,2.0124847E1,0,11,0,65,36,
1571482102,2019-10-19 10:48:22.353,16461,2.0285736E1,0,6,0,62,36,
1571482162,2019-10-19 10:49:22.352,16515,2.0215393E1,0,9,0,63,36,
1571482222,2019-10-19 10:50:22.352,16502,2.0359253E1,0,8,0,54,39,
1571482282,2019-10-19 10:51:22.352,16475,2.0489227E1,0,9,0,54,36,
1571482342,2019-10-19 10:52:22.354,16475,2.0155731E1,0,10,0,54,39,
1571482402,2019-10-19 10:53:22.352,16475,2.0496704E1,0,8,0,54,36,
1571482462,2019-10-19 10:54:22.353,16475,2.0181305E1,0,9,0,54,35,
1571482522,2019-10-19 10:55:22.352,16461,2.0466858E1,0,11,0,55,33,
1571482582,2019-10-19 10:56:22.352,16502,2.0423187E1,0,7,0,56,40,
1571482642,2019-10-19 10:57:22.352,16475,2.0628815E1,0,12,0,55,36,
1571482702,2019-10-19 10:58:22.352,16475,2.052121E1,0,9,0,52,36,
1571482762,2019-10-19 10:59:22.365,16475,2.050415E1,0,11,0,55,32,
