Time(longsecs),Time(UTC),Supply Voltage(mV),Temperature(&deg;C),NMX Bus Current(mA),Sensor Current(mA),Serial Port Current(mA),Controller Current(mA),Digitizer Current(mA),
1571522422,2019-10-19 22:00:22.352,16420,1.8763123E1,0,6,0,33,36,
1571522482,2019-10-19 22:01:22.352,16420,1.8887787E1,0,6,0,35,38,
1571522542,2019-10-19 22:02:22.362,16433,1.8685333E1,0,6,0,38,36,
1571522602,2019-10-19 22:03:22.352,16420,1.8732239E1,0,12,0,36,36,
1571522662,2019-10-19 22:04:22.352,16420,1.8924011E1,0,8,0,35,37,
1571522722,2019-10-19 22:05:22.385,16420,1.8726898E1,0,9,0,31,36,
1571522782,2019-10-19 22:06:22.353,16433,1.870877E1,0,10,0,35,36,
1571522842,2019-10-19 22:07:22.352,16420,1.8678955E1,0,8,0,37,37,
1571522902,2019-10-19 22:08:22.352,16420,1.8770569E1,0,11,0,37,35,
1571522962,2019-10-19 22:09:22.352,16420,1.872049E1,0,7,0,36,37,
1571523022,2019-10-19 22:10:22.352,16420,1.8829193E1,0,11,0,31,36,
1571523082,2019-10-19 22:11:22.352,16420,1.8778046E1,0,7,0,34,40,
1571523142,2019-10-19 22:12:22.352,16420,1.8977295E1,0,7,0,35,37,
1571523202,2019-10-19 22:13:22.352,16420,1.8643799E1,0,1,0,33,36,
1571523262,2019-10-19 22:14:22.352,16420,1.886435E1,0,6,0,33,35,
1571523322,2019-10-19 22:15:22.384,16420,1.870346E1,0,8,0,31,36,
1571523382,2019-10-19 22:16:22.356,16420,1.8879272E1,0,9,0,31,33,
1571523442,2019-10-19 22:17:22.352,16420,1.8649109E1,0,2,0,38,36,
1571523502,2019-10-19 22:18:22.352,16420,1.8556427E1,0,7,11,31,37,
1571523562,2019-10-19 22:19:22.352,16420,1.863739E1,0,7,0,38,36,
1571523622,2019-10-19 22:20:22.352,16420,1.859372E1,0,10,0,31,35,
1571523682,2019-10-19 22:21:22.352,16420,1.8737549E1,0,10,0,31,38,
1571523742,2019-10-19 22:22:22.353,16420,1.8815338E1,0,6,0,35,36,
1571523802,2019-10-19 22:23:22.353,16420,1.8656586E1,0,6,0,36,37,
1571523862,2019-10-19 22:24:22.352,16461,1.8770569E1,0,8,0,36,38,
1571523922,2019-10-19 22:25:22.352,16420,1.8768463E1,0,7,0,31,36,
1571523982,2019-10-19 22:26:22.352,16420,1.8750336E1,0,9,0,33,37,
1571524042,2019-10-19 22:27:22.352,16406,1.8707703E1,0,8,0,36,39,
1571524102,2019-10-19 22:28:22.352,16461,1.8436005E1,0,7,0,36,36,
1571524162,2019-10-19 22:29:22.352,16406,1.857132E1,0,8,0,36,37,
1571524222,2019-10-19 22:30:22.353,16420,1.8475433E1,0,6,0,33,41,
1571524282,2019-10-19 22:31:22.352,16380,1.8889923E1,0,9,0,31,37,
1571524342,2019-10-19 22:32:22.352,16420,1.8567078E1,0,10,0,31,42,
1571524402,2019-10-19 22:33:22.352,16461,1.870346E1,0,11,0,31,37,
1571524462,2019-10-19 22:34:22.352,16406,1.8832367E1,0,11,0,31,40,
1571524522,2019-10-19 22:35:22.352,16448,1.8660828E1,0,4,0,31,36,
1571524582,2019-10-19 22:36:22.354,16461,1.862674E1,0,9,0,31,35,
1571524642,2019-10-19 22:37:22.352,16406,1.8376343E1,2,14,0,36,34,
1571524702,2019-10-19 22:38:22.352,16420,1.8740753E1,0,9,0,36,35,
1571524762,2019-10-19 22:39:22.352,16420,1.857666E1,0,7,0,36,35,
1571524822,2019-10-19 22:40:22.352,16420,1.8640594E1,0,9,0,31,34,
1571524882,2019-10-19 22:41:22.352,16339,1.8716248E1,0,9,0,31,37,
1571524942,2019-10-19 22:42:22.352,16406,1.8547882E1,0,14,0,36,34,
1571525002,2019-10-19 22:43:22.352,16339,1.8423218E1,0,7,0,37,40,
1571525062,2019-10-19 22:44:22.352,16406,1.8457336E1,0,7,0,36,43,
1571525122,2019-10-19 22:45:22.352,16406,1.8443481E1,0,7,0,40,40,
1571525182,2019-10-19 22:46:22.352,16406,1.8490356E1,0,9,0,40,35,
1571525242,2019-10-19 22:47:22.352,16406,1.8631012E1,0,6,0,42,38,
1571525302,2019-10-19 22:48:22.352,16420,1.8513794E1,0,9,0,38,36,
1571525362,2019-10-19 22:49:22.352,16420,1.8335846E1,0,9,0,34,39,
1571525422,2019-10-19 22:50:22.354,16420,1.8557495E1,0,9,0,32,36,
1571525482,2019-10-19 22:51:22.352,16420,1.8463715E1,0,9,0,31,37,
1571525542,2019-10-19 22:52:22.352,16406,1.8409363E1,0,8,0,36,39,
1571525602,2019-10-19 22:53:22.352,16393,1.8691742E1,0,9,0,37,38,
1571525662,2019-10-19 22:54:22.384,16406,1.8393402E1,0,9,0,33,35,
1571525722,2019-10-19 22:55:22.352,16420,1.8653381E1,0,13,0,31,37,
1571525782,2019-10-19 22:56:22.352,16406,1.8582E1,0,9,0,31,40,
1571525842,2019-10-19 22:57:22.352,16420,1.851059E1,0,13,0,36,37,
1571525902,2019-10-19 22:58:22.352,16406,1.8504211E1,0,9,0,36,39,
1571525962,2019-10-19 22:59:22.352,16420,1.8286835E1,0,7,0,31,40,
