Time(longsecs),Time(UTC),Supply Voltage(mV),Temperature(&deg;C),NMX Bus Current(mA),Sensor Current(mA),Serial Port Current(mA),Controller Current(mA),Digitizer Current(mA),
1572188420,2019-10-27 15:00:20.663,16582,2.0005493E1,0,8,0,31,37,
1572188480,2019-10-27 15:01:20.663,16582,2.001297E1,0,6,0,36,34,
1572188540,2019-10-27 15:02:20.665,16569,2.0016144E1,0,9,0,31,35,
1572188600,2019-10-27 15:03:20.663,16582,1.995755E1,0,13,0,31,33,
1572188660,2019-10-27 15:04:20.702,16582,2.004599E1,0,7,0,40,39,
1572188720,2019-10-27 15:05:20.663,16582,1.9904266E1,0,10,0,33,38,
1572188780,2019-10-27 15:06:20.663,16556,1.9824371E1,0,9,0,36,36,
1572188840,2019-10-27 15:07:20.673,16582,1.9822235E1,0,8,0,36,38,
1572188900,2019-10-27 15:08:20.663,16582,1.9748718E1,0,12,0,33,36,
1572188960,2019-10-27 15:09:20.663,16569,1.9835022E1,0,9,0,40,39,
1572189020,2019-10-27 15:10:20.663,16582,1.9606995E1,0,6,0,37,35,
1572189080,2019-10-27 15:11:20.663,16569,1.9743378E1,0,8,0,37,34,
1572189140,2019-10-27 15:12:20.663,16569,1.9706085E1,0,9,0,36,36,
1572189200,2019-10-27 15:13:20.663,16569,1.99906E1,0,7,0,36,35,
1572189260,2019-10-27 15:14:20.663,16569,1.9726349E1,0,38,0,35,34,
1572189320,2019-10-27 15:15:20.663,16569,1.9943695E1,0,8,0,31,36,
1572189380,2019-10-27 15:16:20.663,16582,1.9900024E1,0,13,0,36,33,
1572189440,2019-10-27 15:17:20.663,16569,1.979773E1,0,12,0,35,35,
1572189500,2019-10-27 15:18:20.663,16556,1.9862732E1,0,9,0,36,34,
1572189560,2019-10-27 15:19:20.666,16569,1.9754028E1,0,7,0,36,39,
1572189620,2019-10-27 15:20:20.664,16569,1.9713562E1,0,9,0,40,40,
1572189680,2019-10-27 15:21:20.664,16569,1.9991638E1,0,7,0,47,36,
1572189740,2019-10-27 15:22:20.663,16569,1.9814789E1,0,9,0,36,39,
1572189800,2019-10-27 15:23:20.663,16569,1.9760437E1,0,8,0,37,38,
1572189860,2019-10-27 15:24:20.663,16556,1.9647491E1,0,9,0,37,36,
1572189920,2019-10-27 15:25:20.692,16569,1.9854187E1,0,10,0,31,33,
1572189980,2019-10-27 15:26:20.663,16569,1.9627258E1,0,14,0,31,37,
1572190040,2019-10-27 15:27:20.663,16556,1.9556915E1,0,6,0,37,38,
1572190100,2019-10-27 15:28:20.663,16556,1.9790283E1,0,7,0,36,35,
1572190160,2019-10-27 15:29:20.663,16569,1.979773E1,0,7,0,36,38,
1572190220,2019-10-27 15:30:20.663,16582,1.9606995E1,0,9,0,33,35,
1572190280,2019-10-27 15:31:20.694,16569,1.9528168E1,0,4,0,31,33,
1572190340,2019-10-27 15:32:20.663,16556,1.9668793E1,0,9,0,38,35,
1572190400,2019-10-27 15:33:20.664,16569,1.9884033E1,0,6,0,37,35,
1572190460,2019-10-27 15:34:20.663,16569,1.9611267E1,0,11,0,36,36,
1572190520,2019-10-27 15:35:20.663,16569,1.9729523E1,0,7,0,31,37,
1572190580,2019-10-27 15:36:20.663,16556,1.9698639E1,0,13,0,31,39,
1572190640,2019-10-27 15:37:20.663,16556,1.9633636E1,0,8,0,36,36,
1572190700,2019-10-27 15:38:20.663,16556,1.9678406E1,0,7,0,36,37,
1572190760,2019-10-27 15:39:20.663,16529,1.9776428E1,0,11,0,36,37,
1572190820,2019-10-27 15:40:20.663,16556,1.9544128E1,0,13,0,31,38,
1572190880,2019-10-27 15:41:20.663,16569,1.9564392E1,0,9,0,31,38,
1572190940,2019-10-27 15:42:20.663,16556,1.9582489E1,0,9,0,38,32,
1572191000,2019-10-27 15:43:20.663,16556,1.984674E1,0,6,0,37,36,
1572191060,2019-10-27 15:44:20.663,16556,1.950473E1,0,9,0,37,37,
1572191120,2019-10-27 15:45:20.663,16542,1.9796661E1,0,9,0,37,37,
1572191180,2019-10-27 15:46:20.663,16556,1.95484E1,0,6,0,31,34,
1572191240,2019-10-27 15:47:20.663,16556,1.957611E1,0,9,0,36,40,
1572191300,2019-10-27 15:48:20.663,16542,1.9728485E1,0,11,0,36,34,
1572191360,2019-10-27 15:49:20.663,16542,1.9612335E1,0,12,0,36,34,
1572191420,2019-10-27 15:50:20.663,16556,1.9441864E1,0,9,0,34,40,
1572191480,2019-10-27 15:51:20.698,16542,1.9522827E1,0,10,0,36,36,
1572191540,2019-10-27 15:52:20.663,16542,1.9526031E1,0,4,0,36,37,
1572191600,2019-10-27 15:53:20.665,16542,1.9485535E1,0,9,0,34,35,
1572191660,2019-10-27 15:54:20.664,16582,1.9528168E1,0,7,0,36,34,
1572191720,2019-10-27 15:55:20.665,16542,1.9357666E1,0,5,0,31,36,
1572191780,2019-10-27 15:56:20.665,16529,1.943332E1,0,8,0,48,35,
1572191840,2019-10-27 15:57:20.665,16542,1.9241547E1,0,9,0,45,37,
1572191900,2019-10-27 15:58:20.665,16529,1.9551605E1,0,14,0,45,34,
1572191960,2019-10-27 15:59:20.666,16542,1.9313995E1,0,8,0,42,36,
