Time(longsecs),Time(UTC),Earth Location,GPS Receiver Status,GPS Satellites Used,GPS PDOP,GPS TDOP,Timing Status,Timing Phase Lock,Timing Uncertainty(ns),DAC Count,Timing Error(ns),GPS Last Update Time,
1571896818,2019-10-24 06:00:18.806,47.636202N 0.584106E 225m,Off,6,1.4950721,0.5502986,Time OK,Free running,44900,9142,0,2019-10-24 05:10:45.000000000,
1571896878,2019-10-24 06:01:18.806,47.636202N 0.584106E 225m,Off,6,1.4950721,0.5502986,Time OK,Free running,45700,9142,0,2019-10-24 05:10:45.000000000,
1571896938,2019-10-24 06:02:18.809,47.636202N 0.584106E 225m,Off,6,1.4950721,0.5502986,Time OK,Free running,46700,9142,0,2019-10-24 05:10:45.000000000,
1571896998,2019-10-24 06:03:18.806,47.636202N 0.584106E 225m,Off,6,1.4950721,0.5502986,Time OK,Free running,47500,9142,0,2019-10-24 05:10:45.000000000,
1571897058,2019-10-24 06:04:18.806,47.636202N 0.584106E 225m,Off,6,1.4950721,0.5502986,Time OK,Free running,48500,9142,0,2019-10-24 05:10:45.000000000,
1571897118,2019-10-24 06:05:18.806,47.636202N 0.584106E 225m,Off,6,1.4950721,0.5502986,Time OK,Free running,49400,9142,0,2019-10-24 05:10:45.000000000,
1571897178,2019-10-24 06:06:18.806,47.636202N 0.584106E 225m,Off,6,1.4950721,0.5502986,Time OK,Free running,50300,9142,0,2019-10-24 05:10:45.000000000,
1571897238,2019-10-24 06:07:18.807,47.636202N 0.584106E 225m,Doing fixes,6,2.7937121,1.8952224,Time OK,Coarse lock,100,9840,-7187,2019-10-24 06:07:15.000000000,
1571897298,2019-10-24 06:08:18.807,47.636202N 0.584106E 225m,Doing fixes,6,2.7760987,1.8787392,Time OK,Fine lock,100,9133,0,2019-10-24 06:08:15.000000000,
1571897358,2019-10-24 06:09:18.809,47.636202N 0.584106E 225m,Off,6,2.762506,1.8657944,Time OK,Free running,200,9151,0,2019-10-24 06:09:05.000000000,
1571897418,2019-10-24 06:10:18.806,47.636202N 0.584106E 225m,Off,6,2.762506,1.8657944,Time OK,Free running,1100,9151,0,2019-10-24 06:09:05.000000000,
1571897478,2019-10-24 06:11:18.807,47.636202N 0.584106E 225m,Off,6,2.762506,1.8657944,Time OK,Free running,2100,9151,0,2019-10-24 06:09:05.000000000,
1571897538,2019-10-24 06:12:18.838,47.636202N 0.584106E 225m,Off,6,2.762506,1.8657944,Time OK,Free running,2900,9151,0,2019-10-24 06:09:05.000000000,
1571897598,2019-10-24 06:13:18.806,47.636202N 0.584106E 225m,Off,6,2.762506,1.8657944,Time OK,Free running,3800,9151,0,2019-10-24 06:09:05.000000000,
1571897658,2019-10-24 06:14:18.806,47.636202N 0.584106E 225m,Off,6,2.762506,1.8657944,Time OK,Free running,5000,9151,0,2019-10-24 06:09:05.000000000,
1571897718,2019-10-24 06:15:18.806,47.636202N 0.584106E 225m,Off,6,2.762506,1.8657944,Time OK,Free running,6000,9151,0,2019-10-24 06:09:05.000000000,
1571897778,2019-10-24 06:16:18.809,47.636202N 0.584106E 225m,Off,6,2.762506,1.8657944,Time OK,Free running,6800,9151,0,2019-10-24 06:09:05.000000000,
1571897838,2019-10-24 06:17:18.806,47.636202N 0.584106E 225m,Off,6,2.762506,1.8657944,Time OK,Free running,7700,9151,0,2019-10-24 06:09:05.000000000,
1571897898,2019-10-24 06:18:18.806,47.636202N 0.584106E 225m,Off,6,2.762506,1.8657944,Time OK,Free running,8500,9151,0,2019-10-24 06:09:05.000000000,
1571897958,2019-10-24 06:19:18.806,47.636202N 0.584106E 225m,Off,6,2.762506,1.8657944,Time OK,Free running,9400,9151,0,2019-10-24 06:09:05.000000000,
1571898018,2019-10-24 06:20:18.806,47.636202N 0.584106E 225m,Off,6,2.762506,1.8657944,Time OK,Free running,10400,9151,0,2019-10-24 06:09:05.000000000,
1571898078,2019-10-24 06:21:18.806,47.636202N 0.584106E 225m,Off,6,2.762506,1.8657944,Time OK,Free running,11300,9151,0,2019-10-24 06:09:05.000000000,
1571898138,2019-10-24 06:22:18.806,47.636202N 0.584106E 225m,Off,6,2.762506,1.8657944,Time OK,Free running,12500,9151,0,2019-10-24 06:09:05.000000000,
1571898198,2019-10-24 06:23:18.806,47.636202N 0.584106E 225m,Off,6,2.762506,1.8657944,Time OK,Free running,13900,9151,0,2019-10-24 06:09:05.000000000,
1571898258,2019-10-24 06:24:18.806,47.636202N 0.584106E 225m,Off,6,2.762506,1.8657944,Time OK,Free running,14800,9151,0,2019-10-24 06:09:05.000000000,
1571898318,2019-10-24 06:25:18.806,47.636202N 0.584106E 225m,Off,6,2.762506,1.8657944,Time OK,Free running,15700,9151,0,2019-10-24 06:09:05.000000000,
1571898378,2019-10-24 06:26:18.806,47.636202N 0.584106E 225m,Off,6,2.762506,1.8657944,Time OK,Free running,17000,9151,0,2019-10-24 06:09:05.000000000,
1571898438,2019-10-24 06:27:18.806,47.636202N 0.584106E 225m,Off,6,2.762506,1.8657944,Time OK,Free running,18300,9151,0,2019-10-24 06:09:05.000000000,
1571898498,2019-10-24 06:28:18.806,47.636202N 0.584106E 225m,Off,6,2.762506,1.8657944,Time OK,Free running,19400,9151,0,2019-10-24 06:09:05.000000000,
1571898558,2019-10-24 06:29:18.809,47.636202N 0.584106E 225m,Off,6,2.762506,1.8657944,Time OK,Free running,20500,9151,0,2019-10-24 06:09:05.000000000,
1571898618,2019-10-24 06:30:18.808,47.636202N 0.584106E 225m,Off,6,2.762506,1.8657944,Time OK,Free running,21300,9151,0,2019-10-24 06:09:05.000000000,
1571898678,2019-10-24 06:31:18.806,47.636202N 0.584106E 225m,Off,6,2.762506,1.8657944,Time OK,Free running,22300,9151,0,2019-10-24 06:09:05.000000000,
1571898738,2019-10-24 06:32:18.806,47.636202N 0.584106E 225m,Off,6,2.762506,1.8657944,Time OK,Free running,23700,9151,0,2019-10-24 06:09:05.000000000,
1571898798,2019-10-24 06:33:18.806,47.636202N 0.584106E 225m,Off,6,2.762506,1.8657944,Time OK,Free running,25200,9151,0,2019-10-24 06:09:05.000000000,
1571898858,2019-10-24 06:34:18.806,47.636202N 0.584106E 225m,Off,6,2.762506,1.8657944,Time OK,Free running,26600,9151,0,2019-10-24 06:09:05.000000000,
1571898918,2019-10-24 06:35:18.806,47.636202N 0.584106E 225m,Off,6,2.762506,1.8657944,Time OK,Free running,27900,9151,0,2019-10-24 06:09:05.000000000,
1571898978,2019-10-24 06:36:18.806,47.636202N 0.584106E 225m,Off,6,2.762506,1.8657944,Time OK,Free running,29100,9151,0,2019-10-24 06:09:05.000000000,
1571899038,2019-10-24 06:37:18.806,47.636202N 0.584106E 225m,Off,6,2.762506,1.8657944,Time OK,Free running,30300,9151,0,2019-10-24 06:09:05.000000000,
1571899098,2019-10-24 06:38:18.806,47.636202N 0.584106E 225m,Off,6,2.762506,1.8657944,Time OK,Free running,31500,9151,0,2019-10-24 06:09:05.000000000,
1571899158,2019-10-24 06:39:18.806,47.636202N 0.584106E 225m,Off,6,2.762506,1.8657944,Time OK,Free running,32400,9151,0,2019-10-24 06:09:05.000000000,
1571899218,2019-10-24 06:40:18.845,47.636202N 0.584106E 225m,Off,6,2.762506,1.8657944,Time OK,Free running,33500,9151,0,2019-10-24 06:09:05.000000000,
1571899278,2019-10-24 06:41:18.809,47.636202N 0.584106E 225m,Off,6,2.762506,1.8657944,Time OK,Free running,34800,9151,0,2019-10-24 06:09:05.000000000,
1571899338,2019-10-24 06:42:18.806,47.636202N 0.584106E 225m,Off,6,2.762506,1.8657944,Time OK,Free running,36000,9151,0,2019-10-24 06:09:05.000000000,
1571899398,2019-10-24 06:43:18.806,47.636202N 0.584106E 225m,Off,6,2.762506,1.8657944,Time OK,Free running,37300,9151,0,2019-10-24 06:09:05.000000000,
1571899458,2019-10-24 06:44:18.806,47.636202N 0.584106E 225m,Off,6,2.762506,1.8657944,Time OK,Free running,38500,9151,0,2019-10-24 06:09:05.000000000,
1571899518,2019-10-24 06:45:18.806,47.636202N 0.584106E 225m,Off,6,2.762506,1.8657944,Time OK,Free running,39400,9151,0,2019-10-24 06:09:05.000000000,
1571899578,2019-10-24 06:46:18.806,47.636202N 0.584106E 225m,Off,6,2.762506,1.8657944,Time OK,Free running,40500,9151,0,2019-10-24 06:09:05.000000000,
1571899638,2019-10-24 06:47:18.806,47.636202N 0.584106E 225m,Off,6,2.762506,1.8657944,Time OK,Free running,41800,9151,0,2019-10-24 06:09:05.000000000,
1571899698,2019-10-24 06:48:18.806,47.636202N 0.584106E 225m,Off,6,2.762506,1.8657944,Time OK,Free running,43000,9151,0,2019-10-24 06:09:05.000000000,
1571899758,2019-10-24 06:49:18.806,47.636202N 0.584106E 225m,Off,6,2.762506,1.8657944,Time OK,Free running,44200,9151,0,2019-10-24 06:09:05.000000000,
1571899818,2019-10-24 06:50:18.806,47.636202N 0.584106E 225m,Off,6,2.762506,1.8657944,Time OK,Free running,45300,9151,0,2019-10-24 06:09:05.000000000,
1571899878,2019-10-24 06:51:18.806,47.636202N 0.584106E 225m,Off,6,2.762506,1.8657944,Time OK,Free running,46300,9151,0,2019-10-24 06:09:05.000000000,
1571899938,2019-10-24 06:52:18.806,47.636202N 0.584106E 225m,Off,6,2.762506,1.8657944,Time OK,Free running,47400,9151,0,2019-10-24 06:09:05.000000000,
1571899998,2019-10-24 06:53:18.806,47.636202N 0.584106E 225m,Off,6,2.762506,1.8657944,Time OK,Free running,48700,9151,0,2019-10-24 06:09:05.000000000,
1571900058,2019-10-24 06:54:18.806,47.636202N 0.584106E 225m,Off,6,2.762506,1.8657944,Time OK,Free running,49700,9151,0,2019-10-24 06:09:05.000000000,
1571900118,2019-10-24 06:55:18.806,47.636202N 0.584106E 225m,Off,6,2.762506,1.8657944,Time OK,Free running,50900,9151,0,2019-10-24 06:09:05.000000000,
1571900178,2019-10-24 06:56:18.807,47.636202N 0.584106E 225m,No GPS time,0,0.0,0.0,Time OK,Free running,52500,9151,0,2019-10-24 06:56:15.000000000,
1571900238,2019-10-24 06:57:18.806,47.636202N 0.584106E 225m,Off,6,3.132447,1.7077129,Time OK,Free running,100,9151,0,2019-10-24 06:57:16.000000000,
1571900298,2019-10-24 06:58:18.807,47.636202N 0.584106E 225m,Off,6,3.132447,1.7077129,Time OK,Free running,900,9151,0,2019-10-24 06:57:16.000000000,
1571900358,2019-10-24 06:59:18.809,47.636202N 0.584106E 225m,Off,6,3.132447,1.7077129,Time OK,Free running,1800,9151,0,2019-10-24 06:57:16.000000000,
