Time(longsecs),Time(UTC),Earth Location,GPS Receiver Status,GPS Satellites Used,GPS PDOP,GPS TDOP,Timing Status,Timing Phase Lock,Timing Uncertainty(ns),DAC Count,Timing Error(ns),GPS Last Update Time,
1571878818,2019-10-24 01:00:18.807,47.636514N 0.583702E 202m,Doing fixes,5,3.3953826,1.6836048,Time OK,Fine lock,100,9126,0,2019-10-24 01:00:15.000000000,
1571878878,2019-10-24 01:01:18.807,47.636514N 0.583702E 202m,Off,6,2.4188032,1.1453916,Time OK,Free running,300,9140,0,2019-10-24 01:00:55.000000000,
1571878938,2019-10-24 01:02:18.806,47.636514N 0.583702E 202m,Off,6,2.4188032,1.1453916,Time OK,Free running,1300,9140,0,2019-10-24 01:00:55.000000000,
1571878998,2019-10-24 01:03:18.806,47.636514N 0.583702E 202m,Off,6,2.4188032,1.1453916,Time OK,Free running,2500,9140,0,2019-10-24 01:00:55.000000000,
1571879058,2019-10-24 01:04:18.807,47.636514N 0.583702E 202m,Off,6,2.4188032,1.1453916,Time OK,Free running,3600,9140,0,2019-10-24 01:00:55.000000000,
1571879118,2019-10-24 01:05:18.809,47.636514N 0.583702E 202m,Off,6,2.4188032,1.1453916,Time OK,Free running,4700,9140,0,2019-10-24 01:00:55.000000000,
1571879178,2019-10-24 01:06:18.806,47.636514N 0.583702E 202m,Off,6,2.4188032,1.1453916,Time OK,Free running,5600,9140,0,2019-10-24 01:00:55.000000000,
1571879238,2019-10-24 01:07:18.806,47.636514N 0.583702E 202m,Off,6,2.4188032,1.1453916,Time OK,Free running,6400,9140,0,2019-10-24 01:00:55.000000000,
1571879298,2019-10-24 01:08:18.806,47.636514N 0.583702E 202m,Off,6,2.4188032,1.1453916,Time OK,Free running,7300,9140,0,2019-10-24 01:00:55.000000000,
1571879358,2019-10-24 01:09:18.806,47.636514N 0.583702E 202m,Off,6,2.4188032,1.1453916,Time OK,Free running,8400,9140,0,2019-10-24 01:00:55.000000000,
1571879418,2019-10-24 01:10:18.807,47.636514N 0.583702E 202m,Off,6,2.4188032,1.1453916,Time OK,Free running,9600,9140,0,2019-10-24 01:00:55.000000000,
1571879478,2019-10-24 01:11:18.809,47.636514N 0.583702E 202m,Off,6,2.4188032,1.1453916,Time OK,Free running,10900,9140,0,2019-10-24 01:00:55.000000000,
1571879538,2019-10-24 01:12:18.806,47.636514N 0.583702E 202m,Off,6,2.4188032,1.1453916,Time OK,Free running,12000,9140,0,2019-10-24 01:00:55.000000000,
1571879598,2019-10-24 01:13:18.806,47.636514N 0.583702E 202m,Off,6,2.4188032,1.1453916,Time OK,Free running,13100,9140,0,2019-10-24 01:00:55.000000000,
1571879658,2019-10-24 01:14:18.806,47.636514N 0.583702E 202m,Off,6,2.4188032,1.1453916,Time OK,Free running,14300,9140,0,2019-10-24 01:00:55.000000000,
1571879718,2019-10-24 01:15:18.808,47.636514N 0.583702E 202m,Off,6,2.4188032,1.1453916,Time OK,Free running,15500,9140,0,2019-10-24 01:00:55.000000000,
1571879778,2019-10-24 01:16:18.806,47.636514N 0.583702E 202m,Off,6,2.4188032,1.1453916,Time OK,Free running,16800,9140,0,2019-10-24 01:00:55.000000000,
1571879838,2019-10-24 01:17:18.806,47.636514N 0.583702E 202m,Off,6,2.4188032,1.1453916,Time OK,Free running,18000,9140,0,2019-10-24 01:00:55.000000000,
1571879898,2019-10-24 01:18:18.806,47.636514N 0.583702E 202m,Off,6,2.4188032,1.1453916,Time OK,Free running,19100,9140,0,2019-10-24 01:00:55.000000000,
1571879958,2019-10-24 01:19:18.807,47.636514N 0.583702E 202m,Off,6,2.4188032,1.1453916,Time OK,Free running,20100,9140,0,2019-10-24 01:00:55.000000000,
1571880018,2019-10-24 01:20:18.806,47.636514N 0.583702E 202m,Off,6,2.4188032,1.1453916,Time OK,Free running,21000,9140,0,2019-10-24 01:00:55.000000000,
1571880078,2019-10-24 01:21:18.839,47.636514N 0.583702E 202m,Off,6,2.4188032,1.1453916,Time OK,Free running,22000,9140,0,2019-10-24 01:00:55.000000000,
1571880138,2019-10-24 01:22:18.807,47.636514N 0.583702E 202m,Off,6,2.4188032,1.1453916,Time OK,Free running,22800,9140,0,2019-10-24 01:00:55.000000000,
1571880198,2019-10-24 01:23:18.840,47.636514N 0.583702E 202m,Off,6,2.4188032,1.1453916,Time OK,Free running,24000,9140,0,2019-10-24 01:00:55.000000000,
1571880258,2019-10-24 01:24:18.808,47.636514N 0.583702E 202m,Off,6,2.4188032,1.1453916,Time OK,Free running,25600,9140,0,2019-10-24 01:00:55.000000000,
1571880318,2019-10-24 01:25:18.806,47.636514N 0.583702E 202m,Off,6,2.4188032,1.1453916,Time OK,Free running,26900,9140,0,2019-10-24 01:00:55.000000000,
1571880378,2019-10-24 01:26:18.806,47.636514N 0.583702E 202m,Off,6,2.4188032,1.1453916,Time OK,Free running,28100,9140,0,2019-10-24 01:00:55.000000000,
1571880438,2019-10-24 01:27:18.806,47.636514N 0.583702E 202m,Off,6,2.4188032,1.1453916,Time OK,Free running,29500,9140,0,2019-10-24 01:00:55.000000000,
1571880498,2019-10-24 01:28:18.806,47.636514N 0.583702E 202m,Off,6,2.4188032,1.1453916,Time OK,Free running,30800,9140,0,2019-10-24 01:00:55.000000000,
1571880558,2019-10-24 01:29:18.806,47.636514N 0.583702E 202m,Off,6,2.4188032,1.1453916,Time OK,Free running,32000,9140,0,2019-10-24 01:00:55.000000000,
1571880618,2019-10-24 01:30:18.806,47.636514N 0.583702E 202m,Off,6,2.4188032,1.1453916,Time OK,Free running,33200,9140,0,2019-10-24 01:00:55.000000000,
1571880678,2019-10-24 01:31:18.806,47.636514N 0.583702E 202m,Off,6,2.4188032,1.1453916,Time OK,Free running,34500,9140,0,2019-10-24 01:00:55.000000000,
1571880738,2019-10-24 01:32:18.806,47.636514N 0.583702E 202m,Off,6,2.4188032,1.1453916,Time OK,Free running,35700,9140,0,2019-10-24 01:00:55.000000000,
1571880798,2019-10-24 01:33:18.806,47.636514N 0.583702E 202m,Off,6,2.4188032,1.1453916,Time OK,Free running,36700,9140,0,2019-10-24 01:00:55.000000000,
1571880858,2019-10-24 01:34:18.806,47.636514N 0.583702E 202m,Off,6,2.4188032,1.1453916,Time OK,Free running,38000,9140,0,2019-10-24 01:00:55.000000000,
1571880918,2019-10-24 01:35:18.809,47.636514N 0.583702E 202m,Off,6,2.4188032,1.1453916,Time OK,Free running,39500,9140,0,2019-10-24 01:00:55.000000000,
1571880978,2019-10-24 01:36:18.806,47.636514N 0.583702E 202m,Off,6,2.4188032,1.1453916,Time OK,Free running,40800,9140,0,2019-10-24 01:00:55.000000000,
1571881038,2019-10-24 01:37:18.807,47.636514N 0.583702E 202m,Off,6,2.4188032,1.1453916,Time OK,Free running,42200,9140,0,2019-10-24 01:00:55.000000000,
1571881098,2019-10-24 01:38:18.806,47.636514N 0.583702E 202m,Off,6,2.4188032,1.1453916,Time OK,Free running,43700,9140,0,2019-10-24 01:00:55.000000000,
1571881158,2019-10-24 01:39:18.806,47.636514N 0.583702E 202m,Off,6,2.4188032,1.1453916,Time OK,Free running,44900,9140,0,2019-10-24 01:00:55.000000000,
1571881218,2019-10-24 01:40:18.809,47.636514N 0.583702E 202m,Off,6,2.4188032,1.1453916,Time OK,Free running,46100,9140,0,2019-10-24 01:00:55.000000000,
1571881278,2019-10-24 01:41:18.806,47.636514N 0.583702E 202m,Off,6,2.4188032,1.1453916,Time OK,Free running,47300,9140,0,2019-10-24 01:00:55.000000000,
1571881338,2019-10-24 01:42:18.806,47.636514N 0.583702E 202m,Off,6,2.4188032,1.1453916,Time OK,Free running,48300,9140,0,2019-10-24 01:00:55.000000000,
1571881398,2019-10-24 01:43:18.806,47.636514N 0.583702E 202m,Off,6,2.4188032,1.1453916,Time OK,Free running,49500,9140,0,2019-10-24 01:00:55.000000000,
1571881458,2019-10-24 01:44:18.806,47.636514N 0.583702E 202m,Off,6,2.4188032,1.1453916,Time OK,Free running,50800,9140,0,2019-10-24 01:00:55.000000000,
1571881518,2019-10-24 01:45:18.807,47.636514N 0.583702E 202m,Doing fixes,4,4.765746,3.151269,Time OK,Coarse lock,100,7789,-21875,2019-10-24 01:45:15.000000000,
1571881578,2019-10-24 01:46:18.807,47.636514N 0.583702E 202m,Doing fixes,5,3.7716768,2.651742,Time OK,Fine lock,100,9126,520,2019-10-24 01:46:15.000000000,
1571881638,2019-10-24 01:47:18.807,47.636514N 0.583702E 202m,Doing fixes,5,3.8126416,2.6886272,Time OK,Fine lock,100,9138,104,2019-10-24 01:47:15.000000000,
1571881698,2019-10-24 01:48:18.807,47.636514N 0.583702E 202m,Doing fixes,5,2.8248572,1.5324868,Time OK,Fine lock,100,9144,0,2019-10-24 01:48:15.000000000,
1571881758,2019-10-24 01:49:18.807,47.636514N 0.583702E 202m,Doing fixes,5,3.9014401,2.7670772,Time OK,Fine lock,100,9148,0,2019-10-24 01:49:15.000000000,
1571881818,2019-10-24 01:50:18.806,47.636514N 0.583702E 202m,Off,4,4.765964,3.1808028,Time OK,Free running,600,9143,0,2019-10-24 01:49:35.000000000,
1571881878,2019-10-24 01:51:18.807,47.636514N 0.583702E 202m,Off,4,4.765964,3.1808028,Time OK,Free running,1500,9143,0,2019-10-24 01:49:35.000000000,
1571881938,2019-10-24 01:52:18.806,47.636514N 0.583702E 202m,Off,4,4.765964,3.1808028,Time OK,Free running,2400,9143,0,2019-10-24 01:49:35.000000000,
1571881998,2019-10-24 01:53:18.806,47.636514N 0.583702E 202m,Off,4,4.765964,3.1808028,Time OK,Free running,3400,9143,0,2019-10-24 01:49:35.000000000,
1571882058,2019-10-24 01:54:18.806,47.636514N 0.583702E 202m,Off,4,4.765964,3.1808028,Time OK,Free running,4200,9143,0,2019-10-24 01:49:35.000000000,
1571882118,2019-10-24 01:55:18.806,47.636514N 0.583702E 202m,Off,4,4.765964,3.1808028,Time OK,Free running,5100,9143,0,2019-10-24 01:49:35.000000000,
1571882178,2019-10-24 01:56:18.806,47.636514N 0.583702E 202m,Off,4,4.765964,3.1808028,Time OK,Free running,6000,9143,0,2019-10-24 01:49:35.000000000,
1571882238,2019-10-24 01:57:18.807,47.636514N 0.583702E 202m,Off,4,4.765964,3.1808028,Time OK,Free running,6800,9143,0,2019-10-24 01:49:35.000000000,
1571882298,2019-10-24 01:58:18.806,47.636514N 0.583702E 202m,Off,4,4.765964,3.1808028,Time OK,Free running,8000,9143,0,2019-10-24 01:49:35.000000000,
1571882358,2019-10-24 01:59:18.806,47.636514N 0.583702E 202m,Off,4,4.765964,3.1808028,Time OK,Free running,9000,9143,0,2019-10-24 01:49:35.000000000,
