Time(longsecs),Time(UTC),Supply Voltage(mV),Temperature(&deg;C),NMX Bus Current(mA),Sensor Current(mA),Serial Port Current(mA),Controller Current(mA),Digitizer Current(mA),
1571875218,2019-10-24 00:00:18.806,16414,1.7519775E1,0,3,0,36,37,
1571875278,2019-10-24 00:01:18.806,16414,1.7730408E1,5,8,0,38,34,
1571875338,2019-10-24 00:02:18.806,16414,1.7487366E1,0,8,0,39,34,
1571875398,2019-10-24 00:03:18.806,16414,1.7332886E1,0,9,0,38,36,
1571875458,2019-10-24 00:04:18.809,16427,1.7659119E1,0,9,0,33,35,
1571875518,2019-10-24 00:05:18.806,16414,1.7533813E1,0,6,0,39,34,
1571875578,2019-10-24 00:06:18.806,16400,1.7693695E1,0,7,0,60,36,
1571875638,2019-10-24 00:07:18.806,16414,1.7432281E1,0,9,0,38,36,
1571875698,2019-10-24 00:08:18.806,16387,1.754245E1,0,3,0,57,38,
1571875758,2019-10-24 00:09:18.806,16400,1.7626709E1,0,7,0,54,41,
1571875818,2019-10-24 00:10:18.806,16400,1.7705566E1,0,10,0,37,37,
1571875878,2019-10-24 00:11:18.816,16400,1.7514374E1,0,9,0,41,35,
1571875938,2019-10-24 00:12:18.807,16400,1.7649414E1,0,7,0,47,38,
1571875998,2019-10-24 00:13:18.806,16400,1.7444153E1,0,9,0,32,36,
1571876058,2019-10-24 00:14:18.809,16414,1.7348022E1,0,2,0,33,37,
1571876118,2019-10-24 00:15:18.806,16427,1.7481964E1,0,8,0,33,36,
1571876178,2019-10-24 00:16:18.806,16400,1.7615906E1,0,18,0,39,36,
1571876238,2019-10-24 00:17:18.806,16400,1.742688E1,0,6,0,38,34,
1571876298,2019-10-24 00:18:18.806,16387,1.7624573E1,0,12,0,61,36,
1571876358,2019-10-24 00:19:18.806,16387,1.7723938E1,0,6,0,61,35,
1571876418,2019-10-24 00:20:18.806,16400,1.7530579E1,0,6,0,64,34,
1571876478,2019-10-24 00:21:18.845,16400,1.7518707E1,0,5,0,39,34,
1571876538,2019-10-24 00:22:18.816,16400,1.7570557E1,0,7,0,40,34,
1571876598,2019-10-24 00:23:18.806,16414,1.7492767E1,0,8,0,34,35,
1571876658,2019-10-24 00:24:18.806,16400,1.7464691E1,0,10,0,40,40,
1571876718,2019-10-24 00:25:18.806,16400,1.7691528E1,0,6,0,38,35,
1571876778,2019-10-24 00:26:18.809,16400,1.758783E1,0,7,0,38,37,
1571876838,2019-10-24 00:27:18.806,16400,1.7640778E1,0,5,0,38,37,
1571876898,2019-10-24 00:28:18.806,16400,1.744632E1,0,7,0,33,34,
1571876958,2019-10-24 00:29:18.806,16414,1.756192E1,0,6,0,35,40,
1571877018,2019-10-24 00:30:18.806,16360,1.74917E1,0,7,0,69,41,
1571877078,2019-10-24 00:31:18.806,16400,1.7359894E1,0,9,0,38,33,
1571877138,2019-10-24 00:32:18.806,16400,1.7553253E1,0,6,0,39,42,
1571877198,2019-10-24 00:33:18.806,16400,1.7565155E1,0,7,0,35,36,
1571877258,2019-10-24 00:34:18.806,16400,1.7598633E1,0,8,0,33,35,
1571877318,2019-10-24 00:35:18.806,16427,1.7326416E1,0,3,0,40,32,
1571877378,2019-10-24 00:36:18.806,16400,1.7247559E1,0,4,0,38,42,
1571877438,2019-10-24 00:37:18.809,16400,1.7512207E1,0,7,0,39,41,
1571877498,2019-10-24 00:38:18.807,16400,1.7294006E1,0,13,0,31,35,
1571877558,2019-10-24 00:39:18.806,16400,1.7354492E1,0,8,0,33,37,
1571877618,2019-10-24 00:40:18.806,16387,1.7496002E1,0,8,0,58,35,
1571877678,2019-10-24 00:41:18.806,16387,1.7216248E1,0,5,0,62,38,
1571877738,2019-10-24 00:42:18.806,16400,1.7417145E1,0,6,0,39,39,
1571877798,2019-10-24 00:43:18.806,16373,1.7443085E1,0,8,0,33,37,
1571877858,2019-10-24 00:44:18.836,16400,1.7501404E1,0,7,0,34,35,
1571877918,2019-10-24 00:45:18.806,16400,1.7608368E1,0,6,0,43,38,
1571877978,2019-10-24 00:46:18.806,16400,1.7655884E1,0,4,0,38,39,
1571878038,2019-10-24 00:47:18.806,16400,1.750467E1,0,2,0,35,40,
1571878098,2019-10-24 00:48:18.806,16400,1.742041E1,0,9,0,22,36,
1571878158,2019-10-24 00:49:18.806,16387,1.7435516E1,0,9,0,60,32,
1571878218,2019-10-24 00:50:18.806,16400,1.7679657E1,0,5,0,40,36,
1571878278,2019-10-24 00:51:18.806,16400,1.7507904E1,0,9,0,33,37,
1571878338,2019-10-24 00:52:18.806,16400,1.7539215E1,0,8,0,42,35,
1571878398,2019-10-24 00:53:18.809,16387,1.7506805E1,0,10,0,37,36,
1571878458,2019-10-24 00:54:18.806,16400,1.7457123E1,0,6,0,33,35,
1571878518,2019-10-24 00:55:18.807,16400,1.7584595E1,0,11,0,35,40,
1571878578,2019-10-24 00:56:18.806,16427,1.7327484E1,0,5,0,39,34,
1571878638,2019-10-24 00:57:18.806,16400,1.7393402E1,0,8,0,39,34,
1571878698,2019-10-24 00:58:18.806,16400,1.7348022E1,0,6,0,34,35,
1571878758,2019-10-24 00:59:18.807,16387,1.7575958E1,0,8,0,42,35,
