Time(longsecs),Time(UTC),Earth Location,GPS Receiver Status,GPS Satellites Used,GPS PDOP,GPS TDOP,Timing Status,Timing Phase Lock,Timing Uncertainty(ns),DAC Count,Timing Error(ns),GPS Last Update Time,
1571886018,2019-10-24 03:00:18.806,47.636254N 0.583688E 168m,Off,5,4.527182,3.2686973,Time OK,Free running,15500,9144,0,2019-10-24 02:43:46.000000000,
1571886078,2019-10-24 03:01:18.806,47.636254N 0.583688E 168m,Off,5,4.527182,3.2686973,Time OK,Free running,16400,9144,0,2019-10-24 02:43:46.000000000,
1571886138,2019-10-24 03:02:18.806,47.636254N 0.583688E 168m,Off,5,4.527182,3.2686973,Time OK,Free running,17300,9144,0,2019-10-24 02:43:46.000000000,
1571886198,2019-10-24 03:03:18.809,47.636254N 0.583688E 168m,Off,5,4.527182,3.2686973,Time OK,Free running,18200,9144,0,2019-10-24 02:43:46.000000000,
1571886258,2019-10-24 03:04:18.806,47.636254N 0.583688E 168m,Off,5,4.527182,3.2686973,Time OK,Free running,19200,9144,0,2019-10-24 02:43:46.000000000,
1571886318,2019-10-24 03:05:18.807,47.636254N 0.583688E 168m,Off,5,4.527182,3.2686973,Time OK,Free running,20400,9144,0,2019-10-24 02:43:46.000000000,
1571886378,2019-10-24 03:06:18.806,47.636254N 0.583688E 168m,Off,5,4.527182,3.2686973,Time OK,Free running,21200,9144,0,2019-10-24 02:43:46.000000000,
1571886438,2019-10-24 03:07:18.806,47.636254N 0.583688E 168m,Off,5,4.527182,3.2686973,Time OK,Free running,22000,9144,0,2019-10-24 02:43:46.000000000,
1571886498,2019-10-24 03:08:18.806,47.636254N 0.583688E 168m,Off,5,4.527182,3.2686973,Time OK,Free running,23000,9144,0,2019-10-24 02:43:46.000000000,
1571886558,2019-10-24 03:09:18.806,47.636254N 0.583688E 168m,Off,5,4.527182,3.2686973,Time OK,Free running,23900,9144,0,2019-10-24 02:43:46.000000000,
1571886618,2019-10-24 03:10:18.806,47.636254N 0.583688E 168m,Off,5,4.527182,3.2686973,Time OK,Free running,24700,9144,0,2019-10-24 02:43:46.000000000,
1571886678,2019-10-24 03:11:18.806,47.636254N 0.583688E 168m,Off,5,4.527182,3.2686973,Time OK,Free running,25800,9144,0,2019-10-24 02:43:46.000000000,
1571886738,2019-10-24 03:12:18.806,47.636254N 0.583688E 168m,Off,5,4.527182,3.2686973,Time OK,Free running,26600,9144,0,2019-10-24 02:43:46.000000000,
1571886798,2019-10-24 03:13:18.809,47.636254N 0.583688E 168m,Off,5,4.527182,3.2686973,Time OK,Free running,27600,9144,0,2019-10-24 02:43:46.000000000,
1571886858,2019-10-24 03:14:18.806,47.636254N 0.583688E 168m,Off,5,4.527182,3.2686973,Time OK,Free running,28600,9144,0,2019-10-24 02:43:46.000000000,
1571886918,2019-10-24 03:15:18.806,47.636254N 0.583688E 168m,Off,5,4.527182,3.2686973,Time OK,Free running,29400,9144,0,2019-10-24 02:43:46.000000000,
1571886978,2019-10-24 03:16:18.806,47.636254N 0.583688E 168m,Off,5,4.527182,3.2686973,Time OK,Free running,30300,9144,0,2019-10-24 02:43:46.000000000,
1571887038,2019-10-24 03:17:18.806,47.636254N 0.583688E 168m,Off,5,4.527182,3.2686973,Time OK,Free running,31200,9144,0,2019-10-24 02:43:46.000000000,
1571887098,2019-10-24 03:18:18.806,47.636254N 0.583688E 168m,Off,5,4.527182,3.2686973,Time OK,Free running,32200,9144,0,2019-10-24 02:43:46.000000000,
1571887158,2019-10-24 03:19:18.806,47.636254N 0.583688E 168m,Off,5,4.527182,3.2686973,Time OK,Free running,33100,9144,0,2019-10-24 02:43:46.000000000,
1571887218,2019-10-24 03:20:18.806,47.636254N 0.583688E 168m,Off,5,4.527182,3.2686973,Time OK,Free running,34000,9144,0,2019-10-24 02:43:46.000000000,
1571887278,2019-10-24 03:21:18.806,47.636254N 0.583688E 168m,Off,5,4.527182,3.2686973,Time OK,Free running,34800,9144,0,2019-10-24 02:43:46.000000000,
1571887338,2019-10-24 03:22:18.806,47.636254N 0.583688E 168m,Off,5,4.527182,3.2686973,Time OK,Free running,35600,9144,0,2019-10-24 02:43:46.000000000,
1571887398,2019-10-24 03:23:18.806,47.636254N 0.583688E 168m,Off,5,4.527182,3.2686973,Time OK,Free running,36700,9144,0,2019-10-24 02:43:46.000000000,
1571887458,2019-10-24 03:24:18.806,47.636254N 0.583688E 168m,Off,5,4.527182,3.2686973,Time OK,Free running,37500,9144,0,2019-10-24 02:43:46.000000000,
1571887518,2019-10-24 03:25:18.806,47.636254N 0.583688E 168m,Off,5,4.527182,3.2686973,Time OK,Free running,38300,9144,0,2019-10-24 02:43:46.000000000,
1571887578,2019-10-24 03:26:18.807,47.636254N 0.583688E 168m,Off,5,4.527182,3.2686973,Time OK,Free running,39400,9144,0,2019-10-24 02:43:46.000000000,
1571887638,2019-10-24 03:27:18.806,47.636254N 0.583688E 168m,Off,5,4.527182,3.2686973,Time OK,Free running,40400,9144,0,2019-10-24 02:43:46.000000000,
1571887698,2019-10-24 03:28:18.809,47.636254N 0.583688E 168m,Off,5,4.527182,3.2686973,Time OK,Free running,41300,9144,0,2019-10-24 02:43:46.000000000,
1571887758,2019-10-24 03:29:18.809,47.636254N 0.583688E 168m,Off,5,4.527182,3.2686973,Time OK,Free running,42200,9144,0,2019-10-24 02:43:46.000000000,
1571887818,2019-10-24 03:30:18.806,47.636254N 0.583688E 168m,Off,5,4.527182,3.2686973,Time OK,Free running,43200,9144,0,2019-10-24 02:43:46.000000000,
1571887878,2019-10-24 03:31:18.807,47.636254N 0.583688E 168m,Off,5,4.527182,3.2686973,Time OK,Free running,44300,9144,0,2019-10-24 02:43:46.000000000,
1571887938,2019-10-24 03:32:18.806,47.636254N 0.583688E 168m,Off,5,4.527182,3.2686973,Time OK,Free running,45400,9144,0,2019-10-24 02:43:46.000000000,
1571887998,2019-10-24 03:33:18.806,47.636254N 0.583688E 168m,Off,5,4.527182,3.2686973,Time OK,Free running,46200,9144,0,2019-10-24 02:43:46.000000000,
1571888058,2019-10-24 03:34:18.823,47.636254N 0.583688E 168m,Off,5,4.527182,3.2686973,Time OK,Free running,47000,9144,0,2019-10-24 02:43:46.000000000,
1571888118,2019-10-24 03:35:18.806,47.636254N 0.583688E 168m,Off,5,4.527182,3.2686973,Time OK,Free running,48000,9144,0,2019-10-24 02:43:46.000000000,
1571888178,2019-10-24 03:36:18.806,47.636254N 0.583688E 168m,Off,5,4.527182,3.2686973,Time OK,Free running,48800,9144,0,2019-10-24 02:43:46.000000000,
1571888238,2019-10-24 03:37:18.807,47.636254N 0.583688E 168m,Off,5,4.527182,3.2686973,Time OK,Free running,49600,9144,0,2019-10-24 02:43:46.000000000,
1571888298,2019-10-24 03:38:18.840,47.636254N 0.583688E 168m,Off,5,4.527182,3.2686973,Time OK,Free running,50800,9144,0,2019-10-24 02:43:46.000000000,
1571888358,2019-10-24 03:39:18.807,47.636254N 0.583688E 168m,Doing fixes,5,2.8557265,1.7179962,Time OK,Coarse lock,100,9187,-416,2019-10-24 03:39:15.000000000,
1571888418,2019-10-24 03:40:18.807,47.636254N 0.583688E 168m,Doing fixes,6,2.6304953,1.6999544,Time OK,Fine lock,100,9142,0,2019-10-24 03:40:15.000000000,
1571888478,2019-10-24 03:41:18.806,47.636254N 0.583688E 168m,Off,5,3.1769798,1.9832469,Time OK,Free running,200,9145,0,2019-10-24 03:41:05.000000000,
1571888538,2019-10-24 03:42:18.806,47.636254N 0.583688E 168m,Off,5,3.1769798,1.9832469,Time OK,Free running,1300,9145,0,2019-10-24 03:41:05.000000000,
1571888598,2019-10-24 03:43:18.848,47.636254N 0.583688E 168m,Off,5,3.1769798,1.9832469,Time OK,Free running,2700,9145,0,2019-10-24 03:41:05.000000000,
1571888658,2019-10-24 03:44:18.806,47.636254N 0.583688E 168m,Off,5,3.1769798,1.9832469,Time OK,Free running,4100,9145,0,2019-10-24 03:41:05.000000000,
1571888718,2019-10-24 03:45:18.806,47.636254N 0.583688E 168m,Off,5,3.1769798,1.9832469,Time OK,Free running,5500,9145,0,2019-10-24 03:41:05.000000000,
1571888778,2019-10-24 03:46:18.806,47.636254N 0.583688E 168m,Off,5,3.1769798,1.9832469,Time OK,Free running,6800,9145,0,2019-10-24 03:41:05.000000000,
1571888838,2019-10-24 03:47:18.806,47.636254N 0.583688E 168m,Off,5,3.1769798,1.9832469,Time OK,Free running,7900,9145,0,2019-10-24 03:41:05.000000000,
1571888898,2019-10-24 03:48:18.806,47.636254N 0.583688E 168m,Off,5,3.1769798,1.9832469,Time OK,Free running,8900,9145,0,2019-10-24 03:41:05.000000000,
1571888958,2019-10-24 03:49:18.806,47.636254N 0.583688E 168m,Off,5,3.1769798,1.9832469,Time OK,Free running,10100,9145,0,2019-10-24 03:41:05.000000000,
1571889018,2019-10-24 03:50:18.806,47.636254N 0.583688E 168m,Off,5,3.1769798,1.9832469,Time OK,Free running,11500,9145,0,2019-10-24 03:41:05.000000000,
1571889078,2019-10-24 03:51:18.806,47.636254N 0.583688E 168m,Off,5,3.1769798,1.9832469,Time OK,Free running,13000,9145,0,2019-10-24 03:41:05.000000000,
1571889138,2019-10-24 03:52:18.807,47.636254N 0.583688E 168m,Off,5,3.1769798,1.9832469,Time OK,Free running,14500,9145,0,2019-10-24 03:41:05.000000000,
1571889198,2019-10-24 03:53:18.806,47.636254N 0.583688E 168m,Off,5,3.1769798,1.9832469,Time OK,Free running,15800,9145,0,2019-10-24 03:41:05.000000000,
1571889258,2019-10-24 03:54:18.806,47.636254N 0.583688E 168m,Off,5,3.1769798,1.9832469,Time OK,Free running,17200,9145,0,2019-10-24 03:41:05.000000000,
1571889318,2019-10-24 03:55:18.806,47.636254N 0.583688E 168m,Off,5,3.1769798,1.9832469,Time OK,Free running,18400,9145,0,2019-10-24 03:41:05.000000000,
1571889378,2019-10-24 03:56:18.809,47.636254N 0.583688E 168m,Off,5,3.1769798,1.9832469,Time OK,Free running,19300,9145,0,2019-10-24 03:41:05.000000000,
1571889438,2019-10-24 03:57:18.806,47.636254N 0.583688E 168m,Off,5,3.1769798,1.9832469,Time OK,Free running,20600,9145,0,2019-10-24 03:41:05.000000000,
1571889498,2019-10-24 03:58:18.806,47.636254N 0.583688E 168m,Off,5,3.1769798,1.9832469,Time OK,Free running,22000,9145,0,2019-10-24 03:41:05.000000000,
1571889558,2019-10-24 03:59:18.806,47.636254N 0.583688E 168m,Off,5,3.1769798,1.9832469,Time OK,Free running,23500,9145,0,2019-10-24 03:41:05.000000000,
