Time(longsecs),Time(UTC),External SOH Voltage 1(V),External SOH Voltage 2(V),External SOH Voltage 3(V),External SOH Voltage 4(V),Sensor SOH Voltage 1(V),Sensor SOH Voltage 2(V),Sensor SOH Voltage 3(V),
1570860013,2019-10-12 06:00:13.464,-7.6110363E-3,3.3726692E-3,-1.2485981E-3,-5.428791E-4,2.3370552E-1,2.362814E-1,2.3449802E-1,
1570860073,2019-10-12 06:01:13.464,-7.9648495E-3,3.0100346E-3,-1.1429787E-3,-3.7550926E-4,2.3287773E-1,2.363329E-1,2.3952198E-1,
1570860133,2019-10-12 06:02:13.474,-7.992029E-3,3.1495094E-3,-9.651184E-4,-5.6028366E-4,2.3480606E-1,2.3668861E-1,2.3502064E-1,
1570860193,2019-10-12 06:03:13.464,-9.590149E-3,1.4419556E-3,-2.8231144E-3,-2.1584034E-3,2.3079586E-1,2.3380756E-1,2.2642994E-1,
1570860253,2019-10-12 06:04:13.464,-1.1716127E-2,-1.1680126E-3,-5.4135323E-3,-4.7414303E-3,2.2258377E-1,2.2529888E-1,2.2286224E-1,
1570860313,2019-10-12 06:05:13.464,-1.0068655E-2,9.6559525E-4,-3.4310818E-3,-2.7778149E-3,2.3149395E-1,2.3330116E-1,2.337408E-1,
1570860373,2019-10-12 06:06:13.464,-9.385109E-3,1.2407303E-3,-3.0362606E-3,-2.392292E-3,2.3113918E-1,2.3353195E-1,2.3151112E-1,
1570860433,2019-10-12 06:07:13.464,-1.2027502E-2,-1.2586117E-3,-5.5270195E-3,-4.6794415E-3,2.2177696E-1,2.253704E-1,2.2463322E-1,
1570860493,2019-10-12 06:08:13.464,-1.206255E-2,-8.7690353E-4,-5.4221153E-3,-5.1119328E-3,2.2351456E-1,2.2538471E-1,2.22188E-1,
1570860553,2019-10-12 06:09:13.514,-1.0261059E-2,6.172657E-4,-3.9801598E-3,-2.6817322E-3,2.2822475E-1,2.3236275E-1,2.3006535E-1,
1570860613,2019-10-12 06:10:13.464,-7.5683594E-3,3.0827522E-3,-1.2369156E-3,-8.845329E-5,2.3557663E-1,2.3888683E-1,2.3591805E-1,
1570860673,2019-10-12 06:11:13.464,-1.0103226E-2,9.1052055E-4,-3.4799576E-3,-2.9695034E-3,2.2730732E-1,2.300682E-1,2.333107E-1,
1570860733,2019-10-12 06:12:13.464,-1.202631E-2,-9.262562E-4,-5.1198006E-3,-4.973173E-3,2.1944714E-1,2.2278118E-1,2.1892166E-1,
1570860793,2019-10-12 06:13:13.497,-7.684469E-3,3.092289E-3,-1.1122227E-3,-5.9843063E-4,2.3612213E-1,2.383995E-1,2.364788E-1,
1570860853,2019-10-12 06:14:13.464,-7.7700615E-3,3.3605099E-3,-1.2230873E-3,-4.2176247E-4,2.3396397E-1,2.3575115E-1,2.3602772E-1,
1570860913,2019-10-12 06:15:13.497,-1.216054E-2,-1.0535717E-3,-5.322695E-3,-4.74E-3,2.2168732E-1,2.2372055E-1,2.2282028E-1,
1570860973,2019-10-12 06:16:13.464,-7.319927E-3,3.4220219E-3,-1.1265278E-3,-4.2939186E-4,2.3698235E-1,2.3947525E-1,2.3406601E-1,
1570861033,2019-10-12 06:17:13.464,-1.1559486E-2,-7.2693825E-4,-5.133152E-3,-4.6379566E-3,2.2255611E-1,2.2493649E-1,2.2009468E-1,
1570861093,2019-10-12 06:18:13.464,-1.2140036E-2,-1.344204E-3,-5.2583218E-3,-4.504919E-3,2.2058392E-1,2.234993E-1,2.143879E-1,
1570861153,2019-10-12 06:19:13.467,-9.4668865E-3,1.034975E-3,-3.1251907E-3,-2.4764538E-3,2.2823715E-1,2.3015404E-1,2.2934246E-1,
1570861213,2019-10-12 06:20:13.464,-9.886026E-3,9.1314316E-4,-3.0782223E-3,-2.6414394E-3,2.3003674E-1,2.3171997E-1,2.2947979E-1,
1570861273,2019-10-12 06:21:13.464,-1.006794E-2,7.593632E-4,-3.4611225E-3,-2.878189E-3,2.286663E-1,2.3180771E-1,2.3163033E-1,
1570861333,2019-10-12 06:22:13.465,-1.0071993E-2,1.6036034E-3,-2.5541782E-3,-2.2127628E-3,2.2957993E-1,2.3385239E-1,2.3551846E-1,
1570861393,2019-10-12 06:23:13.465,-1.0121822E-2,6.287098E-4,-3.4909248E-3,-2.9263496E-3,2.2593403E-1,2.2875404E-1,2.268734E-1,
1570861453,2019-10-12 06:24:13.465,-1.0335922E-2,6.380081E-4,-3.4322739E-3,-2.7401447E-3,2.2761917E-1,2.2979832E-1,2.2912312E-1,
1570861513,2019-10-12 06:25:13.497,-1.2397528E-2,-1.0690689E-3,-5.445242E-3,-4.6668053E-3,2.2226143E-1,2.2502232E-1,2.2336769E-1,
1570861573,2019-10-12 06:26:13.488,-1.23922825E-2,-9.4366074E-4,-5.1157475E-3,-4.687071E-3,2.2638512E-1,2.2893524E-1,2.2367477E-1,
1570861633,2019-10-12 06:27:13.465,-9.508371E-3,1.4946461E-3,-3.0808449E-3,-2.203703E-3,2.254858E-1,2.2879791E-1,2.2502613E-1,
1570861693,2019-10-12 06:28:13.464,-1.1643648E-2,-1.0972023E-3,-5.190134E-3,-4.405737E-3,2.2482967E-1,2.2829247E-1,2.2839832E-1,
1570861753,2019-10-12 06:29:13.464,-9.487629E-3,1.1696815E-3,-3.0248165E-3,-2.38657E-3,2.3231888E-1,2.3548317E-1,2.3586082E-1,
1570861813,2019-10-12 06:30:13.464,-7.6339245E-3,3.020525E-3,-1.2907982E-3,-3.0970573E-4,2.3145866E-1,2.3566532E-1,2.3338127E-1,
1570861873,2019-10-12 06:31:13.464,-7.848501E-3,3.2889843E-3,-9.925365E-4,-1.7976761E-4,2.3538876E-1,2.3902893E-1,2.3606014E-1,
1570861933,2019-10-12 06:32:13.464,-9.741545E-3,1.222372E-3,-2.9289722E-3,-2.2308826E-3,2.2729015E-1,2.3091602E-1,2.278986E-1,
1570861993,2019-10-12 06:33:13.464,-1.21228695E-2,-1.1992455E-3,-5.3868294E-3,-4.687786E-3,2.240591E-1,2.270813E-1,2.2667217E-1,
1570862053,2019-10-12 06:34:13.464,-7.6196194E-3,2.8190613E-3,-1.4176369E-3,-5.104542E-4,2.3284721E-1,2.366333E-1,2.3447514E-1,
1570862113,2019-10-12 06:35:13.464,-7.743597E-3,2.8488636E-3,-1.0623932E-3,-6.558895E-4,2.3402214E-1,2.364521E-1,2.354641E-1,
1570862173,2019-10-12 06:36:13.464,-9.197235E-3,1.5087128E-3,-2.6900768E-3,-2.1615028E-3,2.2838306E-1,2.312355E-1,2.2955036E-1,
1570862233,2019-10-12 06:37:13.464,-9.446144E-3,1.4293194E-3,-2.8886795E-3,-2.407074E-3,2.3011875E-1,2.3379421E-1,2.3149967E-1,
1570862293,2019-10-12 06:38:13.479,-9.420633E-3,1.4674664E-3,-2.9711723E-3,-2.2323132E-3,2.2946739E-1,2.3225975E-1,2.2513866E-1,
1570862353,2019-10-12 06:39:13.464,-1.0069847E-2,6.186962E-4,-3.3199787E-3,-2.7906895E-3,2.2700787E-1,2.2982979E-1,2.2884369E-1,
1570862413,2019-10-12 06:40:13.464,-7.663965E-3,3.3380985E-3,-1.1301041E-3,-3.3426285E-4,2.3699856E-1,2.3892403E-1,2.3816776E-1,
1570862473,2019-10-12 06:41:13.497,-1.19559765E-2,-9.775162E-4,-5.3606033E-3,-4.019499E-3,2.224598E-1,2.230568E-1,2.2621727E-1,
1570862533,2019-10-12 06:42:13.504,-9.781837E-3,9.315014E-4,-3.287077E-3,-4.1708946E-3,2.279625E-1,2.3014545E-1,2.2874069E-1,
1570862593,2019-10-12 06:43:13.465,-7.502079E-3,3.0899048E-3,-1.0690689E-3,-3.2401085E-4,2.355566E-1,2.4033356E-1,2.3546982E-1,
1570862653,2019-10-12 06:44:13.464,-1.0344267E-2,4.7969818E-4,-3.1836033E-3,-3.014803E-3,2.3129177E-1,2.3380566E-1,2.332573E-1,
1570862713,2019-10-12 06:45:13.467,-9.964943E-3,5.893707E-4,-3.5557747E-3,-2.9966831E-3,2.284565E-1,2.3098469E-1,2.2824574E-1,
1570862773,2019-10-12 06:46:13.464,-1.2224197E-2,-1.0581017E-3,-5.244732E-3,-4.9188137E-3,2.218275E-1,2.2379398E-1,2.2229195E-1,
1570862833,2019-10-12 06:47:13.464,-7.8003407E-3,2.825737E-3,-1.5234947E-3,-8.21352E-4,2.3373032E-1,2.3591995E-1,2.3602009E-1,
1570862893,2019-10-12 06:48:13.464,-1.0105848E-2,5.6767464E-4,-3.0651093E-3,-2.8467178E-3,2.2670364E-1,2.294941E-1,2.3006248E-1,
1570862953,2019-10-12 06:49:13.464,-9.968996E-3,6.3705444E-4,-3.702402E-3,-3.2250881E-3,2.2735786E-1,2.308178E-1,2.2949696E-1,
1570863013,2019-10-12 06:50:13.464,-7.860184E-3,2.973795E-3,-1.3105869E-3,-7.174015E-4,2.3585701E-1,2.3979664E-1,2.3762798E-1,
1570863073,2019-10-12 06:51:13.464,-7.802248E-3,3.1394958E-3,-1.1384487E-3,-3.4713745E-4,2.3435593E-1,2.3679543E-1,2.37813E-1,
1570863133,2019-10-12 06:52:13.464,-1.177907E-2,-1.0323524E-3,-5.358219E-3,-4.537821E-3,2.2098827E-1,2.2468758E-1,2.2327137E-1,
1570863193,2019-10-12 06:53:13.464,-7.789135E-3,2.911806E-3,-1.4853477E-3,-6.597042E-4,2.3669624E-1,2.3835278E-1,2.3988247E-1,
1570863253,2019-10-12 06:54:13.464,-1.0293484E-2,6.6685677E-4,-3.4914017E-3,-2.891779E-3,2.2933197E-1,2.3268509E-1,2.307024E-1,
1570863313,2019-10-12 06:55:13.467,-7.911682E-3,2.9649734E-3,-1.1885166E-3,-4.5704842E-4,2.3107815E-1,2.3463821E-1,2.350502E-1,
1570863373,2019-10-12 06:56:13.464,-9.616137E-3,1.5473366E-3,-2.6974678E-3,-2.2025108E-3,2.3003292E-1,2.3305511E-1,2.3243809E-1,
1570863433,2019-10-12 06:57:13.464,-7.6470375E-3,2.8660297E-3,-1.2717247E-3,-4.6110153E-4,2.3535633E-1,2.3851204E-1,2.389412E-1,
1570863493,2019-10-12 06:58:13.464,-9.68194E-3,1.3406277E-3,-3.0357838E-3,-2.364397E-3,2.3043537E-1,2.3364735E-1,2.3061466E-1,
1570863553,2019-10-12 06:59:13.464,-9.884834E-3,5.8341026E-4,-3.6053658E-3,-3.250599E-3,2.2677708E-1,2.2896004E-1,2.2710705E-1,
