Time(longsecs),Time(UTC),Supply Voltage(mV),Temperature(&deg;C),NMX Bus Current(mA),Sensor Current(mA),Serial Port Current(mA),Controller Current(mA),Digitizer Current(mA),
1570860013,2019-10-12 06:00:13.464,12815,2.147879E1,0,10,0,68,51,
1570860073,2019-10-12 06:01:13.464,12815,2.146585E1,0,10,11,75,47,
1570860133,2019-10-12 06:02:13.474,12815,2.144638E1,0,14,0,73,51,
1570860193,2019-10-12 06:03:13.464,12815,2.1480957E1,0,21,0,75,50,
1570860253,2019-10-12 06:04:13.464,12815,2.1690521E1,0,4,0,64,49,
1570860313,2019-10-12 06:05:13.464,12815,2.1277893E1,0,9,0,63,57,
1570860373,2019-10-12 06:06:13.464,12815,2.1380493E1,0,8,0,76,51,
1570860433,2019-10-12 06:07:13.464,12801,2.1450714E1,0,9,0,74,52,
1570860493,2019-10-12 06:08:13.464,12801,2.1673248E1,0,10,0,74,50,
1570860553,2019-10-12 06:09:13.514,12815,2.1505798E1,0,12,0,63,49,
1570860613,2019-10-12 06:10:13.464,12815,2.149176E1,0,13,0,62,51,
1570860673,2019-10-12 06:11:13.464,12815,2.1532806E1,0,17,0,74,50,
1570860733,2019-10-12 06:12:13.464,12815,2.1414001E1,0,9,0,74,49,
1570860793,2019-10-12 06:13:13.497,12815,2.1411835E1,0,15,0,73,50,
1570860853,2019-10-12 06:14:13.464,12815,2.1410736E1,0,11,0,64,51,
1570860913,2019-10-12 06:15:13.497,12815,2.136322E1,0,9,0,63,51,
1570860973,2019-10-12 06:16:13.464,12801,2.1583588E1,0,11,0,73,46,
1570861033,2019-10-12 06:17:13.464,12815,2.1270325E1,0,10,0,73,49,
1570861093,2019-10-12 06:18:13.464,12815,2.131784E1,0,11,0,75,48,
1570861153,2019-10-12 06:19:13.467,12815,2.1361053E1,0,9,0,63,52,
1570861213,2019-10-12 06:20:13.464,12815,2.1308136E1,0,7,0,63,48,
1570861273,2019-10-12 06:21:13.464,12815,2.1436676E1,0,10,0,73,47,
1570861333,2019-10-12 06:22:13.465,12801,2.1320007E1,0,9,0,86,49,
1570861393,2019-10-12 06:23:13.465,12801,2.1366455E1,0,11,0,86,53,
1570861453,2019-10-12 06:24:13.465,12815,2.1321075E1,0,10,0,74,51,
1570861513,2019-10-12 06:25:13.497,12815,2.1083435E1,0,9,0,63,49,
1570861573,2019-10-12 06:26:13.488,12815,2.142804E1,0,11,0,71,53,
1570861633,2019-10-12 06:27:13.465,12801,2.1467987E1,0,10,0,71,50,
1570861693,2019-10-12 06:28:13.464,12815,2.1235748E1,0,7,0,73,50,
1570861753,2019-10-12 06:29:13.464,12815,2.1335144E1,0,9,0,63,47,
1570861813,2019-10-12 06:30:13.464,12815,2.1181732E1,0,10,0,63,52,
1570861873,2019-10-12 06:31:13.464,12815,2.1078033E1,0,17,0,73,49,
1570861933,2019-10-12 06:32:13.464,12856,2.1367523E1,0,11,0,73,48,
1570861993,2019-10-12 06:33:13.464,12815,2.1378326E1,0,10,0,75,51,
1570862053,2019-10-12 06:34:13.464,12815,2.1259521E1,0,10,0,63,51,
1570862113,2019-10-12 06:35:13.464,12815,2.1166626E1,0,6,0,63,48,
1570862173,2019-10-12 06:36:13.464,12815,2.0986206E1,0,2,0,75,46,
1570862233,2019-10-12 06:37:13.464,12815,2.1355652E1,0,9,0,70,50,
1570862293,2019-10-12 06:38:13.479,12815,2.133081E1,0,10,0,73,49,
1570862353,2019-10-12 06:39:13.464,12815,2.1220612E1,0,9,0,74,49,
1570862413,2019-10-12 06:40:13.464,12815,2.1462585E1,0,9,0,63,50,
1570862473,2019-10-12 06:41:13.497,12815,2.113205E1,0,9,0,73,49,
1570862533,2019-10-12 06:42:13.504,12815,2.1113678E1,0,15,0,74,51,
1570862593,2019-10-12 06:43:13.465,12815,2.1154724E1,0,9,0,72,49,
1570862653,2019-10-12 06:44:13.464,12828,2.1127716E1,0,9,0,63,50,
1570862713,2019-10-12 06:45:13.467,12828,2.126059E1,0,9,0,63,51,
1570862773,2019-10-12 06:46:13.464,12815,2.1207672E1,0,6,0,74,48,
1570862833,2019-10-12 06:47:13.464,12843,2.1329742E1,0,10,0,78,51,
1570862893,2019-10-12 06:48:13.464,12815,2.1288666E1,0,8,0,74,50,
1570862953,2019-10-12 06:49:13.464,12815,2.1532806E1,0,9,0,63,50,
1570863013,2019-10-12 06:50:13.464,12828,2.1089905E1,0,11,0,62,51,
1570863073,2019-10-12 06:51:13.464,12706,2.0960297E1,0,9,0,75,48,
1570863133,2019-10-12 06:52:13.464,12815,2.1191467E1,0,9,0,70,47,
1570863193,2019-10-12 06:53:13.464,12828,2.137619E1,0,5,0,73,46,
1570863253,2019-10-12 06:54:13.464,12828,2.1191467E1,0,5,0,63,50,
1570863313,2019-10-12 06:55:13.467,12856,2.11893E1,0,9,0,70,55,
1570863373,2019-10-12 06:56:13.464,12843,2.133081E1,0,11,0,74,49,
1570863433,2019-10-12 06:57:13.464,12843,2.1081268E1,0,8,0,73,48,
1570863493,2019-10-12 06:58:13.464,12828,2.1288666E1,0,10,0,74,49,
1570863553,2019-10-12 06:59:13.464,12843,2.1149323E1,0,10,0,75,53,
