Time(longsecs),Time(UTC),Earth Location,GPS Receiver Status,GPS Satellites Used,GPS PDOP,GPS TDOP,Timing Status,Timing Phase Lock,Timing Uncertainty(ns),DAC Count,Timing Error(ns),GPS Last Update Time,
1572364830,2019-10-29 16:00:30.926,47.63873N 0.549101E 174m,Off,7,2.2625763,1.2735584,Time OK,Free running,33600,9063,0,2019-10-29 15:32:38.000000000,
1572364890,2019-10-29 16:01:30.976,47.63873N 0.549101E 174m,Off,7,2.2625763,1.2735584,Time OK,Free running,35100,9063,0,2019-10-29 15:32:38.000000000,
1572364950,2019-10-29 16:02:30.928,47.63873N 0.549101E 174m,Off,7,2.2625763,1.2735584,Time OK,Free running,36500,9063,0,2019-10-29 15:32:38.000000000,
1572365010,2019-10-29 16:03:30.926,47.63873N 0.549101E 174m,Off,7,2.2625763,1.2735584,Time OK,Free running,38200,9063,0,2019-10-29 15:32:38.000000000,
1572365070,2019-10-29 16:04:30.926,47.63873N 0.549101E 174m,Off,7,2.2625763,1.2735584,Time OK,Free running,40200,9063,0,2019-10-29 15:32:38.000000000,
1572365130,2019-10-29 16:05:30.926,47.63873N 0.549101E 174m,Off,7,2.2625763,1.2735584,Time OK,Free running,42000,9063,0,2019-10-29 15:32:38.000000000,
1572365190,2019-10-29 16:06:30.926,47.63873N 0.549101E 174m,Off,7,2.2625763,1.2735584,Time OK,Free running,43600,9063,0,2019-10-29 15:32:38.000000000,
1572365250,2019-10-29 16:07:30.926,47.63873N 0.549101E 174m,Off,7,2.2625763,1.2735584,Time OK,Free running,45100,9063,0,2019-10-29 15:32:38.000000000,
1572365310,2019-10-29 16:08:30.926,47.63873N 0.549101E 174m,Off,7,2.2625763,1.2735584,Time OK,Free running,46800,9063,0,2019-10-29 15:32:38.000000000,
1572365370,2019-10-29 16:09:30.926,47.63873N 0.549101E 174m,Off,7,2.2625763,1.2735584,Time OK,Free running,48800,9063,0,2019-10-29 15:32:38.000000000,
1572365430,2019-10-29 16:10:30.928,47.63873N 0.549101E 174m,Off,7,2.2625763,1.2735584,Time OK,Free running,50800,9063,0,2019-10-29 15:32:38.000000000,
1572365490,2019-10-29 16:11:30.926,47.63873N 0.549101E 174m,Doing fixes,7,2.0247064,1.120034,Time OK,Coarse lock,100,10275,-8750,2019-10-29 16:11:28.000000000,
1572365550,2019-10-29 16:12:30.926,47.63873N 0.549101E 174m,Doing fixes,7,2.0221734,1.1186347,Time OK,Coarse lock,100,9086,0,2019-10-29 16:12:28.000000000,
1572365610,2019-10-29 16:13:30.926,47.63873N 0.549101E 174m,Doing fixes,8,1.5403832,0.77595395,Time OK,Fine lock,100,9091,0,2019-10-29 16:13:28.000000000,
1572365670,2019-10-29 16:14:30.928,47.63873N 0.549101E 174m,Off,7,2.0173392,1.1158084,Time OK,Free running,300,9089,0,2019-10-29 16:14:08.000000000,
1572365730,2019-10-29 16:15:30.928,47.63873N 0.549101E 174m,Off,7,2.0173392,1.1158084,Time OK,Free running,1300,9089,0,2019-10-29 16:14:08.000000000,
1572365790,2019-10-29 16:16:30.927,47.63873N 0.549101E 174m,Off,7,2.0173392,1.1158084,Time OK,Free running,2200,9089,0,2019-10-29 16:14:08.000000000,
1572365850,2019-10-29 16:17:30.926,47.63873N 0.549101E 174m,Off,7,2.0173392,1.1158084,Time OK,Free running,3000,9089,0,2019-10-29 16:14:08.000000000,
1572365910,2019-10-29 16:18:30.926,47.63873N 0.549101E 174m,Off,7,2.0173392,1.1158084,Time OK,Free running,3900,9089,0,2019-10-29 16:14:08.000000000,
1572365970,2019-10-29 16:19:30.926,47.63873N 0.549101E 174m,Off,7,2.0173392,1.1158084,Time OK,Free running,4700,9089,0,2019-10-29 16:14:08.000000000,
1572366030,2019-10-29 16:20:30.928,47.63873N 0.549101E 174m,Off,7,2.0173392,1.1158084,Time OK,Free running,5500,9089,0,2019-10-29 16:14:08.000000000,
1572366090,2019-10-29 16:21:30.927,47.63873N 0.549101E 174m,Off,7,2.0173392,1.1158084,Time OK,Free running,6500,9089,0,2019-10-29 16:14:08.000000000,
1572366150,2019-10-29 16:22:30.928,47.63873N 0.549101E 174m,Off,7,2.0173392,1.1158084,Time OK,Free running,7600,9089,0,2019-10-29 16:14:08.000000000,
1572366210,2019-10-29 16:23:30.926,47.63873N 0.549101E 174m,Off,7,2.0173392,1.1158084,Time OK,Free running,8900,9089,0,2019-10-29 16:14:08.000000000,
1572366270,2019-10-29 16:24:30.957,47.63873N 0.549101E 174m,Off,7,2.0173392,1.1158084,Time OK,Free running,10100,9089,0,2019-10-29 16:14:08.000000000,
1572366330,2019-10-29 16:25:30.926,47.63873N 0.549101E 174m,Off,7,2.0173392,1.1158084,Time OK,Free running,11100,9089,0,2019-10-29 16:14:08.000000000,
1572366390,2019-10-29 16:26:30.926,47.63873N 0.549101E 174m,Off,7,2.0173392,1.1158084,Time OK,Free running,12000,9089,0,2019-10-29 16:14:08.000000000,
1572366450,2019-10-29 16:27:30.928,47.63873N 0.549101E 174m,Off,7,2.0173392,1.1158084,Time OK,Free running,13100,9089,0,2019-10-29 16:14:08.000000000,
1572366510,2019-10-29 16:28:30.926,47.63873N 0.549101E 174m,Off,7,2.0173392,1.1158084,Time OK,Free running,14600,9089,0,2019-10-29 16:14:08.000000000,
1572366570,2019-10-29 16:29:30.926,47.63873N 0.549101E 174m,Off,7,2.0173392,1.1158084,Time OK,Free running,16100,9089,0,2019-10-29 16:14:08.000000000,
1572366630,2019-10-29 16:30:30.926,47.63873N 0.549101E 174m,Off,7,2.0173392,1.1158084,Time OK,Free running,17300,9089,0,2019-10-29 16:14:08.000000000,
1572366690,2019-10-29 16:31:30.926,47.63873N 0.549101E 174m,Off,7,2.0173392,1.1158084,Time OK,Free running,18200,9089,0,2019-10-29 16:14:08.000000000,
1572366750,2019-10-29 16:32:30.926,47.63873N 0.549101E 174m,Off,7,2.0173392,1.1158084,Time OK,Free running,19100,9089,0,2019-10-29 16:14:08.000000000,
1572366810,2019-10-29 16:33:30.926,47.63873N 0.549101E 174m,Off,7,2.0173392,1.1158084,Time OK,Free running,20500,9089,0,2019-10-29 16:14:08.000000000,
1572366870,2019-10-29 16:34:30.926,47.63873N 0.549101E 174m,Off,7,2.0173392,1.1158084,Time OK,Free running,22200,9089,0,2019-10-29 16:14:08.000000000,
1572366930,2019-10-29 16:35:30.926,47.63873N 0.549101E 174m,Off,7,2.0173392,1.1158084,Time OK,Free running,23800,9089,0,2019-10-29 16:14:08.000000000,
1572366990,2019-10-29 16:36:30.928,47.63873N 0.549101E 174m,Off,7,2.0173392,1.1158084,Time OK,Free running,25200,9089,0,2019-10-29 16:14:08.000000000,
1572367050,2019-10-29 16:37:30.926,47.63873N 0.549101E 174m,Off,7,2.0173392,1.1158084,Time OK,Free running,26400,9089,0,2019-10-29 16:14:08.000000000,
1572367110,2019-10-29 16:38:30.926,47.63873N 0.549101E 174m,Off,7,2.0173392,1.1158084,Time OK,Free running,27700,9089,0,2019-10-29 16:14:08.000000000,
1572367170,2019-10-29 16:39:30.927,47.63873N 0.549101E 174m,Off,7,2.0173392,1.1158084,Time OK,Free running,29100,9089,0,2019-10-29 16:14:08.000000000,
1572367230,2019-10-29 16:40:30.926,47.63873N 0.549101E 174m,Off,7,2.0173392,1.1158084,Time OK,Free running,30800,9089,0,2019-10-29 16:14:08.000000000,
1572367290,2019-10-29 16:41:30.926,47.63873N 0.549101E 174m,Off,7,2.0173392,1.1158084,Time OK,Free running,32500,9089,0,2019-10-29 16:14:08.000000000,
1572367350,2019-10-29 16:42:30.926,47.63873N 0.549101E 174m,Off,7,2.0173392,1.1158084,Time OK,Free running,34100,9089,0,2019-10-29 16:14:08.000000000,
1572367410,2019-10-29 16:43:30.926,47.63873N 0.549101E 174m,Off,7,2.0173392,1.1158084,Time OK,Free running,35900,9089,0,2019-10-29 16:14:08.000000000,
1572367470,2019-10-29 16:44:30.926,47.63873N 0.549101E 174m,Off,7,2.0173392,1.1158084,Time OK,Free running,37800,9089,0,2019-10-29 16:14:08.000000000,
1572367530,2019-10-29 16:45:30.926,47.63873N 0.549101E 174m,Off,7,2.0173392,1.1158084,Time OK,Free running,39700,9089,0,2019-10-29 16:14:08.000000000,
1572367590,2019-10-29 16:46:30.926,47.63873N 0.549101E 174m,Off,7,2.0173392,1.1158084,Time OK,Free running,41300,9089,0,2019-10-29 16:14:08.000000000,
1572367650,2019-10-29 16:47:30.926,47.63873N 0.549101E 174m,Off,7,2.0173392,1.1158084,Time OK,Free running,42800,9089,0,2019-10-29 16:14:08.000000000,
1572367710,2019-10-29 16:48:30.926,47.63873N 0.549101E 174m,Off,7,2.0173392,1.1158084,Time OK,Free running,44400,9089,0,2019-10-29 16:14:08.000000000,
1572367770,2019-10-29 16:49:30.926,47.63873N 0.549101E 174m,Off,7,2.0173392,1.1158084,Time OK,Free running,46100,9089,0,2019-10-29 16:14:08.000000000,
1572367830,2019-10-29 16:50:30.926,47.63873N 0.549101E 174m,Off,7,2.0173392,1.1158084,Time OK,Free running,47700,9089,0,2019-10-29 16:14:08.000000000,
1572367890,2019-10-29 16:51:30.926,47.63873N 0.549101E 174m,Off,7,2.0173392,1.1158084,Time OK,Free running,49200,9089,0,2019-10-29 16:14:08.000000000,
1572367950,2019-10-29 16:52:30.926,47.63873N 0.549101E 174m,Off,7,2.0173392,1.1158084,Time OK,Free running,50600,9089,0,2019-10-29 16:14:08.000000000,
1572368010,2019-10-29 16:53:30.926,47.63873N 0.549101E 174m,Doing fixes,6,2.6644533,1.6490879,Time OK,Free running,52400,9089,0,2019-10-29 16:53:28.000000000,
1572368070,2019-10-29 16:54:30.928,47.63873N 0.549101E 174m,Off,7,2.311184,1.3266674,Time OK,Free running,200,9095,0,2019-10-29 16:54:18.000000000,
1572368130,2019-10-29 16:55:30.926,47.63873N 0.549101E 174m,Off,7,2.311184,1.3266674,Time OK,Free running,1200,9095,0,2019-10-29 16:54:18.000000000,
1572368190,2019-10-29 16:56:30.926,47.63873N 0.549101E 174m,Off,7,2.311184,1.3266674,Time OK,Free running,2500,9095,0,2019-10-29 16:54:18.000000000,
1572368250,2019-10-29 16:57:30.926,47.63873N 0.549101E 174m,Off,7,2.311184,1.3266674,Time OK,Free running,3800,9095,0,2019-10-29 16:54:18.000000000,
1572368310,2019-10-29 16:58:30.926,47.63873N 0.549101E 174m,Off,7,2.311184,1.3266674,Time OK,Free running,5200,9095,0,2019-10-29 16:54:18.000000000,
1572368370,2019-10-29 16:59:30.926,47.63873N 0.549101E 174m,Off,7,2.311184,1.3266674,Time OK,Free running,6500,9095,0,2019-10-29 16:54:18.000000000,
