Time(longsecs),Time(UTC),GPS Satellite Acquisition Flag 1,GPS Satellite Acquisition Flag 2,GPS Satellite Acquisition Flag 3,GPS Satellite Acquisition Flag 4,GPS Satellite Acquisition Flag 5,GPS Satellite Acquisition Flag 6,GPS Satellite Acquisition Flag 7,GPS Satellite Acquisition Flag 8,GPS Satellite Acquisition Flag 9,GPS Satellite Acquisition Flag 10,GPS Satellite Acquisition Flag 11,GPS Satellite Acquisition Flag 12,GPS Satellite Azimuth 1(Degrees),GPS Satellite Azimuth 2(Degrees),GPS Satellite Azimuth 3(Degrees),GPS Satellite Azimuth 4(Degrees),GPS Satellite Azimuth 5(Degrees),GPS Satellite Azimuth 6(Degrees),GPS Satellite Azimuth 7(Degrees),GPS Satellite Azimuth 8(Degrees),GPS Satellite Azimuth 9(Degrees),GPS Satellite Azimuth 10(Degrees),GPS Satellite Azimuth 11(Degrees),GPS Satellite Azimuth 12(Degrees),GPS Satellite Elevation 1(Degrees),GPS Satellite Elevation 2(Degrees),GPS Satellite Elevation 3(Degrees),GPS Satellite Elevation 4(Degrees),GPS Satellite Elevation 5(Degrees),GPS Satellite Elevation 6(Degrees),GPS Satellite Elevation 7(Degrees),GPS Satellite Elevation 8(Degrees),GPS Satellite Elevation 9(Degrees),GPS Satellite Elevation 10(Degrees),GPS Satellite Elevation 11(Degrees),GPS Satellite Elevation 12(Degrees),GPS Satellite PRN 1,GPS Satellite PRN 2,GPS Satellite PRN 3,GPS Satellite PRN 4,GPS Satellite PRN 5,GPS Satellite PRN 6,GPS Satellite PRN 7,GPS Satellite PRN 8,GPS Satellite PRN 9,GPS Satellite PRN 10,GPS Satellite PRN 11,GPS Satellite PRN 12,GPS Satellite Signal Level 1(AMU),GPS Satellite Signal Level 2(AMU),GPS Satellite Signal Level 3(AMU),GPS Satellite Signal Level 4(AMU),GPS Satellite Signal Level 5(AMU),GPS Satellite Signal Level 6(AMU),GPS Satellite Signal Level 7(AMU),GPS Satellite Signal Level 8(AMU),GPS Satellite Signal Level 9(AMU),GPS Satellite Signal Level 10(AMU),GPS Satellite Signal Level 11(AMU),GPS Satellite Signal Level 12(AMU),
1572339630,2019-10-29 09:00:30.926,Acquired,Acquired,Acquired,Acquired,Acquired,Acquired,Acquired,Acquired,Acquired,,,,3.28916032E2,2.31677424E2,1.66290368E2,2.02334896E2,8.7831384E1,3.1581107199999997E2,2.29787408E2,2.82412832E2,5.5976355999999996E1,,,,7.9207672E1,4.5405116E1,3.4127404E1,8.4119232E1,4.1713012E1,1.9383108E1,6.9681328E1,2.6592E1,3.1554104E1,,,,1,3,8,11,14,17,22,28,32,,,,15,14,11,10,12,10,12,10,11,,,,
1572339690,2019-10-29 09:01:30.927,Acquired,Acquired,Acquired,Acquired,Acquired,Acquired,Acquired,Acquired,Acquired,,,,3.28916032E2,2.31677424E2,1.66290368E2,2.02334896E2,8.7831384E1,3.1581107199999997E2,2.29787408E2,2.82412832E2,5.5976355999999996E1,,,,7.9207672E1,4.5405116E1,3.4127404E1,8.4119232E1,4.1713012E1,1.9383108E1,6.9681328E1,2.6592E1,3.1554104E1,,,,1,3,8,11,14,17,22,28,32,,,,15,14,11,10,12,10,12,10,11,,,,
1572339750,2019-10-29 09:02:30.926,Acquired,Acquired,Acquired,Acquired,Acquired,Acquired,Acquired,Acquired,Acquired,,,,3.28916032E2,2.31677424E2,1.66290368E2,2.02334896E2,8.7831384E1,3.1581107199999997E2,2.29787408E2,2.82412832E2,5.5976355999999996E1,,,,7.9207672E1,4.5405116E1,3.4127404E1,8.4119232E1,4.1713012E1,1.9383108E1,6.9681328E1,2.6592E1,3.1554104E1,,,,1,3,8,11,14,17,22,28,32,,,,15,14,11,10,12,10,12,10,11,,,,
1572339810,2019-10-29 09:03:30.927,Acquired,Acquired,Acquired,Acquired,Acquired,Acquired,Acquired,Acquired,Acquired,,,,3.28916032E2,2.31677424E2,1.66290368E2,2.02334896E2,8.7831384E1,3.1581107199999997E2,2.29787408E2,2.82412832E2,5.5976355999999996E1,,,,7.9207672E1,4.5405116E1,3.4127404E1,8.4119232E1,4.1713012E1,1.9383108E1,6.9681328E1,2.6592E1,3.1554104E1,,,,1,3,8,11,14,17,22,28,32,,,,15,14,11,10,12,10,12,10,11,,,,
1572339870,2019-10-29 09:04:30.926,Acquired,Acquired,Acquired,Acquired,Acquired,Acquired,Acquired,Acquired,Acquired,,,,3.28916032E2,2.31677424E2,1.66290368E2,2.02334896E2,8.7831384E1,3.1581107199999997E2,2.29787408E2,2.82412832E2,5.5976355999999996E1,,,,7.9207672E1,4.5405116E1,3.4127404E1,8.4119232E1,4.1713012E1,1.9383108E1,6.9681328E1,2.6592E1,3.1554104E1,,,,1,3,8,11,14,17,22,28,32,,,,15,14,11,10,12,10,12,10,11,,,,
1572339930,2019-10-29 09:05:30.926,Acquired,Acquired,Acquired,Acquired,Acquired,Acquired,Acquired,Acquired,Acquired,,,,3.28916032E2,2.31677424E2,1.66290368E2,2.02334896E2,8.7831384E1,3.1581107199999997E2,2.29787408E2,2.82412832E2,5.5976355999999996E1,,,,7.9207672E1,4.5405116E1,3.4127404E1,8.4119232E1,4.1713012E1,1.9383108E1,6.9681328E1,2.6592E1,3.1554104E1,,,,1,3,8,11,14,17,22,28,32,,,,15,14,11,10,12,10,12,10,11,,,,
1572339990,2019-10-29 09:06:30.926,Acquired,Acquired,Acquired,Acquired,Acquired,Acquired,Acquired,Acquired,Acquired,,,,3.28916032E2,2.31677424E2,1.66290368E2,2.02334896E2,8.7831384E1,3.1581107199999997E2,2.29787408E2,2.82412832E2,5.5976355999999996E1,,,,7.9207672E1,4.5405116E1,3.4127404E1,8.4119232E1,4.1713012E1,1.9383108E1,6.9681328E1,2.6592E1,3.1554104E1,,,,1,3,8,11,14,17,22,28,32,,,,15,14,11,10,12,10,12,10,11,,,,
1572340050,2019-10-29 09:07:30.928,Acquired,Acquired,Acquired,Acquired,Acquired,Acquired,Acquired,Acquired,Acquired,,,,3.28916032E2,2.31677424E2,1.66290368E2,2.02334896E2,8.7831384E1,3.1581107199999997E2,2.29787408E2,2.82412832E2,5.5976355999999996E1,,,,7.9207672E1,4.5405116E1,3.4127404E1,8.4119232E1,4.1713012E1,1.9383108E1,6.9681328E1,2.6592E1,3.1554104E1,,,,1,3,8,11,14,17,22,28,32,,,,15,14,11,10,12,10,12,10,11,,,,
1572340110,2019-10-29 09:08:30.926,Acquired,Acquired,Acquired,Acquired,Acquired,Acquired,Acquired,Acquired,Acquired,,,,3.28916032E2,2.31677424E2,1.66290368E2,2.02334896E2,8.7831384E1,3.1581107199999997E2,2.29787408E2,2.82412832E2,5.5976355999999996E1,,,,7.9207672E1,4.5405116E1,3.4127404E1,8.4119232E1,4.1713012E1,1.9383108E1,6.9681328E1,2.6592E1,3.1554104E1,,,,1,3,8,11,14,17,22,28,32,,,,15,14,11,10,12,10,12,10,11,,,,
1572340170,2019-10-29 09:09:30.928,Acquired,Acquired,Acquired,Acquired,Acquired,Acquired,Acquired,Acquired,Acquired,,,,3.28916032E2,2.31677424E2,1.66290368E2,2.02334896E2,8.7831384E1,3.1581107199999997E2,2.29787408E2,2.82412832E2,5.5976355999999996E1,,,,7.9207672E1,4.5405116E1,3.4127404E1,8.4119232E1,4.1713012E1,1.9383108E1,6.9681328E1,2.6592E1,3.1554104E1,,,,1,3,8,11,14,17,22,28,32,,,,15,14,11,10,12,10,12,10,11,,,,
1572340230,2019-10-29 09:10:30.926,Acquired,Acquired,Acquired,Acquired,Acquired,Acquired,Acquired,Acquired,Acquired,,,,3.28916032E2,2.31677424E2,1.66290368E2,2.02334896E2,8.7831384E1,3.1581107199999997E2,2.29787408E2,2.82412832E2,5.5976355999999996E1,,,,7.9207672E1,4.5405116E1,3.4127404E1,8.4119232E1,4.1713012E1,1.9383108E1,6.9681328E1,2.6592E1,3.1554104E1,,,,1,3,8,11,14,17,22,28,32,,,,15,14,11,10,12,10,12,10,11,,,,
1572340290,2019-10-29 09:11:30.926,Acquired,Acquired,Acquired,Acquired,Acquired,Acquired,Acquired,Acquired,Acquired,,,,3.28916032E2,2.31677424E2,1.66290368E2,2.02334896E2,8.7831384E1,3.1581107199999997E2,2.29787408E2,2.82412832E2,5.5976355999999996E1,,,,7.9207672E1,4.5405116E1,3.4127404E1,8.4119232E1,4.1713012E1,1.9383108E1,6.9681328E1,2.6592E1,3.1554104E1,,,,1,3,8,11,14,17,22,28,32,,,,15,14,11,10,12,10,12,10,11,,,,
1572340350,2019-10-29 09:12:30.926,Acquired,Acquired,Acquired,Acquired,Acquired,Acquired,Acquired,Acquired,Acquired,,,,3.28916032E2,2.31677424E2,1.66290368E2,2.02334896E2,8.7831384E1,3.1581107199999997E2,2.29787408E2,2.82412832E2,5.5976355999999996E1,,,,7.9207672E1,4.5405116E1,3.4127404E1,8.4119232E1,4.1713012E1,1.9383108E1,6.9681328E1,2.6592E1,3.1554104E1,,,,1,3,8,11,14,17,22,28,32,,,,15,14,11,10,12,10,12,10,11,,,,
1572340410,2019-10-29 09:13:30.926,Acquired,Acquired,Acquired,Acquired,Acquired,Acquired,Acquired,Acquired,Acquired,,,,3.28916032E2,2.31677424E2,1.66290368E2,2.02334896E2,8.7831384E1,3.1581107199999997E2,2.29787408E2,2.82412832E2,5.5976355999999996E1,,,,7.9207672E1,4.5405116E1,3.4127404E1,8.4119232E1,4.1713012E1,1.9383108E1,6.9681328E1,2.6592E1,3.1554104E1,,,,1,3,8,11,14,17,22,28,32,,,,15,14,11,10,12,10,12,10,11,,,,
1572340470,2019-10-29 09:14:30.926,Acquired,Acquired,Acquired,Acquired,Acquired,Acquired,Acquired,Acquired,Acquired,,,,3.28916032E2,2.31677424E2,1.66290368E2,2.02334896E2,8.7831384E1,3.1581107199999997E2,2.29787408E2,2.82412832E2,5.5976355999999996E1,,,,7.9207672E1,4.5405116E1,3.4127404E1,8.4119232E1,4.1713012E1,1.9383108E1,6.9681328E1,2.6592E1,3.1554104E1,,,,1,3,8,11,14,17,22,28,32,,,,15,14,11,10,12,10,12,10,11,,,,
1572340530,2019-10-29 09:15:30.926,Acquired,Acquired,Acquired,Acquired,Acquired,Acquired,Acquired,Acquired,Acquired,,,,3.28916032E2,2.31677424E2,1.66290368E2,2.02334896E2,8.7831384E1,3.1581107199999997E2,2.29787408E2,2.82412832E2,5.5976355999999996E1,,,,7.9207672E1,4.5405116E1,3.4127404E1,8.4119232E1,4.1713012E1,1.9383108E1,6.9681328E1,2.6592E1,3.1554104E1,,,,1,3,8,11,14,17,22,28,32,,,,15,14,11,10,12,10,12,10,11,,,,
1572340590,2019-10-29 09:16:30.926,Acquired,Acquired,Acquired,Acquired,Acquired,Acquired,Acquired,Acquired,Acquired,,,,3.28916032E2,2.31677424E2,1.66290368E2,2.02334896E2,8.7831384E1,3.1581107199999997E2,2.29787408E2,2.82412832E2,5.5976355999999996E1,,,,7.9207672E1,4.5405116E1,3.4127404E1,8.4119232E1,4.1713012E1,1.9383108E1,6.9681328E1,2.6592E1,3.1554104E1,,,,1,3,8,11,14,17,22,28,32,,,,15,14,11,10,12,10,12,10,11,,,,
1572340650,2019-10-29 09:17:30.926,Acquired,Acquired,Acquired,Acquired,Acquired,Acquired,Acquired,Acquired,Acquired,,,,3.28916032E2,2.31677424E2,1.66290368E2,2.02334896E2,8.7831384E1,3.1581107199999997E2,2.29787408E2,2.82412832E2,5.5976355999999996E1,,,,7.9207672E1,4.5405116E1,3.4127404E1,8.4119232E1,4.1713012E1,1.9383108E1,6.9681328E1,2.6592E1,3.1554104E1,,,,1,3,8,11,14,17,22,28,32,,,,15,14,11,10,12,10,12,10,11,,,,
1572340710,2019-10-29 09:18:30.926,Acquired,Acquired,Acquired,Acquired,Acquired,Acquired,Acquired,Acquired,Acquired,,,,3.28916032E2,2.31677424E2,1.66290368E2,2.02334896E2,8.7831384E1,3.1581107199999997E2,2.29787408E2,2.82412832E2,5.5976355999999996E1,,,,7.9207672E1,4.5405116E1,3.4127404E1,8.4119232E1,4.1713012E1,1.9383108E1,6.9681328E1,2.6592E1,3.1554104E1,,,,1,3,8,11,14,17,22,28,32,,,,15,14,11,10,12,10,12,10,11,,,,
1572340770,2019-10-29 09:19:30.926,Acquired,Acquired,Acquired,Acquired,Acquired,Acquired,Acquired,Acquired,Acquired,,,,3.28916032E2,2.31677424E2,1.66290368E2,2.02334896E2,8.7831384E1,3.1581107199999997E2,2.29787408E2,2.82412832E2,5.5976355999999996E1,,,,7.9207672E1,4.5405116E1,3.4127404E1,8.4119232E1,4.1713012E1,1.9383108E1,6.9681328E1,2.6592E1,3.1554104E1,,,,1,3,8,11,14,17,22,28,32,,,,15,14,11,10,12,10,12,10,11,,,,
1572340830,2019-10-29 09:20:30.926,Acquired,Acquired,Acquired,Acquired,Acquired,Acquired,Acquired,Acquired,Acquired,,,,3.28916032E2,2.31677424E2,1.66290368E2,2.02334896E2,8.7831384E1,3.1581107199999997E2,2.29787408E2,2.82412832E2,5.5976355999999996E1,,,,7.9207672E1,4.5405116E1,3.4127404E1,8.4119232E1,4.1713012E1,1.9383108E1,6.9681328E1,2.6592E1,3.1554104E1,,,,1,3,8,11,14,17,22,28,32,,,,15,14,11,10,12,10,12,10,11,,,,
1572340890,2019-10-29 09:21:30.928,Acquired,Acquired,Acquired,Acquired,Acquired,Acquired,Acquired,Acquired,Acquired,,,,3.28916032E2,2.31677424E2,1.66290368E2,2.02334896E2,8.7831384E1,3.1581107199999997E2,2.29787408E2,2.82412832E2,5.5976355999999996E1,,,,7.9207672E1,4.5405116E1,3.4127404E1,8.4119232E1,4.1713012E1,1.9383108E1,6.9681328E1,2.6592E1,3.1554104E1,,,,1,3,8,11,14,17,22,28,32,,,,15,14,11,10,12,10,12,10,11,,,,
1572340950,2019-10-29 09:22:30.928,Acquired,Acquired,Acquired,Acquired,Acquired,Acquired,Acquired,Acquired,Acquired,,,,3.28916032E2,2.31677424E2,1.66290368E2,2.02334896E2,8.7831384E1,3.1581107199999997E2,2.29787408E2,2.82412832E2,5.5976355999999996E1,,,,7.9207672E1,4.5405116E1,3.4127404E1,8.4119232E1,4.1713012E1,1.9383108E1,6.9681328E1,2.6592E1,3.1554104E1,,,,1,3,8,11,14,17,22,28,32,,,,15,14,11,10,12,10,12,10,11,,,,
1572341010,2019-10-29 09:23:30.926,Acquired,Acquired,Acquired,Acquired,Acquired,Acquired,Acquired,Acquired,Acquired,,,,3.28916032E2,2.31677424E2,1.66290368E2,2.02334896E2,8.7831384E1,3.1581107199999997E2,2.29787408E2,2.82412832E2,5.5976355999999996E1,,,,7.9207672E1,4.5405116E1,3.4127404E1,8.4119232E1,4.1713012E1,1.9383108E1,6.9681328E1,2.6592E1,3.1554104E1,,,,1,3,8,11,14,17,22,28,32,,,,15,14,11,10,12,10,12,10,11,,,,
1572341070,2019-10-29 09:24:30.928,Acquired,Acquired,Acquired,Acquired,Acquired,Acquired,Acquired,Acquired,Acquired,,,,3.28916032E2,2.31677424E2,1.66290368E2,2.02334896E2,8.7831384E1,3.1581107199999997E2,2.29787408E2,2.82412832E2,5.5976355999999996E1,,,,7.9207672E1,4.5405116E1,3.4127404E1,8.4119232E1,4.1713012E1,1.9383108E1,6.9681328E1,2.6592E1,3.1554104E1,,,,1,3,8,11,14,17,22,28,32,,,,15,14,11,10,12,10,12,10,11,,,,
1572341130,2019-10-29 09:25:30.926,Acquired,Acquired,Acquired,Acquired,Acquired,Acquired,Acquired,Acquired,Acquired,,,,3.28916032E2,2.31677424E2,1.66290368E2,2.02334896E2,8.7831384E1,3.1581107199999997E2,2.29787408E2,2.82412832E2,5.5976355999999996E1,,,,7.9207672E1,4.5405116E1,3.4127404E1,8.4119232E1,4.1713012E1,1.9383108E1,6.9681328E1,2.6592E1,3.1554104E1,,,,1,3,8,11,14,17,22,28,32,,,,15,14,11,10,12,10,12,10,11,,,,
1572341190,2019-10-29 09:26:30.926,Acquired,Acquired,Acquired,Acquired,Acquired,Acquired,Acquired,Acquired,Acquired,,,,3.28916032E2,2.31677424E2,1.66290368E2,2.02334896E2,8.7831384E1,3.1581107199999997E2,2.29787408E2,2.82412832E2,5.5976355999999996E1,,,,7.9207672E1,4.5405116E1,3.4127404E1,8.4119232E1,4.1713012E1,1.9383108E1,6.9681328E1,2.6592E1,3.1554104E1,,,,1,3,8,11,14,17,22,28,32,,,,15,14,11,10,12,10,12,10,11,,,,
1572341250,2019-10-29 09:27:30.926,Acquired,Acquired,Acquired,Acquired,Acquired,Acquired,Acquired,Acquired,Acquired,,,,3.28916032E2,2.31677424E2,1.66290368E2,2.02334896E2,8.7831384E1,3.1581107199999997E2,2.29787408E2,2.82412832E2,5.5976355999999996E1,,,,7.9207672E1,4.5405116E1,3.4127404E1,8.4119232E1,4.1713012E1,1.9383108E1,6.9681328E1,2.6592E1,3.1554104E1,,,,1,3,8,11,14,17,22,28,32,,,,15,14,11,10,12,10,12,10,11,,,,
1572341310,2019-10-29 09:28:30.926,Acquired,Acquired,Acquired,Acquired,Acquired,Acquired,Acquired,Acquired,Acquired,,,,3.28916032E2,2.31677424E2,1.66290368E2,2.02334896E2,8.7831384E1,3.1581107199999997E2,2.29787408E2,2.82412832E2,5.5976355999999996E1,,,,7.9207672E1,4.5405116E1,3.4127404E1,8.4119232E1,4.1713012E1,1.9383108E1,6.9681328E1,2.6592E1,3.1554104E1,,,,1,3,8,11,14,17,22,28,32,,,,15,14,11,10,12,10,12,10,11,,,,
1572341370,2019-10-29 09:29:30.926,Acquired,Acquired,Acquired,Acquired,Acquired,Acquired,Acquired,Acquired,Acquired,,,,3.28916032E2,2.31677424E2,1.66290368E2,2.02334896E2,8.7831384E1,3.1581107199999997E2,2.29787408E2,2.82412832E2,5.5976355999999996E1,,,,7.9207672E1,4.5405116E1,3.4127404E1,8.4119232E1,4.1713012E1,1.9383108E1,6.9681328E1,2.6592E1,3.1554104E1,,,,1,3,8,11,14,17,22,28,32,,,,15,14,11,10,12,10,12,10,11,,,,
1572341430,2019-10-29 09:30:30.926,Acquired,Acquired,Acquired,Acquired,Acquired,Acquired,Acquired,Acquired,Acquired,,,,3.28916032E2,2.31677424E2,1.66290368E2,2.02334896E2,8.7831384E1,3.1581107199999997E2,2.29787408E2,2.82412832E2,5.5976355999999996E1,,,,7.9207672E1,4.5405116E1,3.4127404E1,8.4119232E1,4.1713012E1,1.9383108E1,6.9681328E1,2.6592E1,3.1554104E1,,,,1,3,8,11,14,17,22,28,32,,,,15,14,11,10,12,10,12,10,11,,,,
1572341490,2019-10-29 09:31:30.926,Acquired,Acquired,Acquired,Acquired,Acquired,Acquired,Acquired,Acquired,Acquired,,,,3.3071020799999997E2,2.3194401599999998E2,1.66335264E2,1.98127728E2,8.7243056E1,3.1575388799999996E2,2.30035888E2,2.81960768E2,5.5560596E1,,,,7.954685599999999E1,4.5849295999999995E1,3.3661732E1,8.390679999999999E1,4.178304E1,1.9755945999999998E1,7.0143712E1,2.6461053999999997E1,3.1347174E1,,,,1,3,8,11,14,17,22,28,32,,,,15,14,9,10,12,10,12,10,12,,,,
1572341550,2019-10-29 09:32:30.926,Acquired,Acquired,,Acquired,Acquired,Acquired,Acquired,Acquired,Acquired,Acquired,Acquired,Not acquired,8.2276224E1,2.44406704E2,,1.5570251199999998E2,6.5837868E1,3.1021756799999997E2,3.189912E2,2.52190224E2,1.85153472E2,2.6642008E2,4.3470496E1,9.174427999999999E1,7.8757728E1,6.2645664E1,,6.7418536E1,3.9936119999999995E1,3.3422288E1,1.5535976999999999E1,8.7322696E1,1.7156854E1,1.8915802E1,2.1099332E1,5.516181E0,1,3,,11,14,17,19,22,23,28,32,31,15,15,,11,14,9,7,14,13,9,7,0,
1572341610,2019-10-29 09:33:30.926,Acquired,Acquired,,Acquired,Acquired,Acquired,Acquired,Acquired,Acquired,Acquired,Acquired,Not acquired,8.2276224E1,2.44406704E2,,1.5570251199999998E2,6.5837868E1,3.1021756799999997E2,3.189912E2,2.52190224E2,1.85153472E2,2.6642008E2,4.3470496E1,9.174427999999999E1,7.8757728E1,6.2645664E1,,6.7418536E1,3.9936119999999995E1,3.3422288E1,1.5535976999999999E1,8.7322696E1,1.7156854E1,1.8915802E1,2.1099332E1,5.516181E0,1,3,,11,14,17,19,22,23,28,32,31,15,15,,11,14,9,7,14,13,9,7,0,
1572341670,2019-10-29 09:34:30.926,Acquired,Acquired,,Acquired,Acquired,Acquired,Acquired,Acquired,Acquired,Acquired,Acquired,Not acquired,8.2276224E1,2.44406704E2,,1.5570251199999998E2,6.5837868E1,3.1021756799999997E2,3.189912E2,2.52190224E2,1.85153472E2,2.6642008E2,4.3470496E1,9.174427999999999E1,7.8757728E1,6.2645664E1,,6.7418536E1,3.9936119999999995E1,3.3422288E1,1.5535976999999999E1,8.7322696E1,1.7156854E1,1.8915802E1,2.1099332E1,5.516181E0,1,3,,11,14,17,19,22,23,28,32,31,15,15,,11,14,9,7,14,13,9,7,0,
1572341730,2019-10-29 09:35:30.926,Acquired,Acquired,,Acquired,Acquired,Acquired,Acquired,Acquired,Acquired,Acquired,Acquired,Not acquired,8.2276224E1,2.44406704E2,,1.5570251199999998E2,6.5837868E1,3.1021756799999997E2,3.189912E2,2.52190224E2,1.85153472E2,2.6642008E2,4.3470496E1,9.174427999999999E1,7.8757728E1,6.2645664E1,,6.7418536E1,3.9936119999999995E1,3.3422288E1,1.5535976999999999E1,8.7322696E1,1.7156854E1,1.8915802E1,2.1099332E1,5.516181E0,1,3,,11,14,17,19,22,23,28,32,31,15,15,,11,14,9,7,14,13,9,7,0,
1572341790,2019-10-29 09:36:30.926,Acquired,Acquired,,Acquired,Acquired,Acquired,Acquired,Acquired,Acquired,Acquired,Acquired,Not acquired,8.2276224E1,2.44406704E2,,1.5570251199999998E2,6.5837868E1,3.1021756799999997E2,3.189912E2,2.52190224E2,1.85153472E2,2.6642008E2,4.3470496E1,9.174427999999999E1,7.8757728E1,6.2645664E1,,6.7418536E1,3.9936119999999995E1,3.3422288E1,1.5535976999999999E1,8.7322696E1,1.7156854E1,1.8915802E1,2.1099332E1,5.516181E0,1,3,,11,14,17,19,22,23,28,32,31,15,15,,11,14,9,7,14,13,9,7,0,
1572341850,2019-10-29 09:37:30.926,Acquired,Acquired,,Acquired,Acquired,Acquired,Acquired,Acquired,Acquired,Acquired,Acquired,Not acquired,8.2276224E1,2.44406704E2,,1.5570251199999998E2,6.5837868E1,3.1021756799999997E2,3.189912E2,2.52190224E2,1.85153472E2,2.6642008E2,4.3470496E1,9.174427999999999E1,7.8757728E1,6.2645664E1,,6.7418536E1,3.9936119999999995E1,3.3422288E1,1.5535976999999999E1,8.7322696E1,1.7156854E1,1.8915802E1,2.1099332E1,5.516181E0,1,3,,11,14,17,19,22,23,28,32,31,15,15,,11,14,9,7,14,13,9,7,0,
1572341910,2019-10-29 09:38:30.926,Acquired,Acquired,,Acquired,Acquired,Acquired,Acquired,Acquired,Acquired,Acquired,Acquired,Not acquired,8.2276224E1,2.44406704E2,,1.5570251199999998E2,6.5837868E1,3.1021756799999997E2,3.189912E2,2.52190224E2,1.85153472E2,2.6642008E2,4.3470496E1,9.174427999999999E1,7.8757728E1,6.2645664E1,,6.7418536E1,3.9936119999999995E1,3.3422288E1,1.5535976999999999E1,8.7322696E1,1.7156854E1,1.8915802E1,2.1099332E1,5.516181E0,1,3,,11,14,17,19,22,23,28,32,31,15,15,,11,14,9,7,14,13,9,7,0,
1572341970,2019-10-29 09:39:30.926,Acquired,Acquired,,Acquired,Acquired,Acquired,Acquired,Acquired,Acquired,Acquired,Acquired,Not acquired,8.2276224E1,2.44406704E2,,1.5570251199999998E2,6.5837868E1,3.1021756799999997E2,3.189912E2,2.52190224E2,1.85153472E2,2.6642008E2,4.3470496E1,9.174427999999999E1,7.8757728E1,6.2645664E1,,6.7418536E1,3.9936119999999995E1,3.3422288E1,1.5535976999999999E1,8.7322696E1,1.7156854E1,1.8915802E1,2.1099332E1,5.516181E0,1,3,,11,14,17,19,22,23,28,32,31,15,15,,11,14,9,7,14,13,9,7,0,
1572342030,2019-10-29 09:40:30.967,Acquired,Acquired,,Acquired,Acquired,Acquired,Acquired,Acquired,Acquired,Acquired,Acquired,Not acquired,8.2276224E1,2.44406704E2,,1.5570251199999998E2,6.5837868E1,3.1021756799999997E2,3.189912E2,2.52190224E2,1.85153472E2,2.6642008E2,4.3470496E1,9.174427999999999E1,7.8757728E1,6.2645664E1,,6.7418536E1,3.9936119999999995E1,3.3422288E1,1.5535976999999999E1,8.7322696E1,1.7156854E1,1.8915802E1,2.1099332E1,5.516181E0,1,3,,11,14,17,19,22,23,28,32,31,15,15,,11,14,9,7,14,13,9,7,0,
1572342090,2019-10-29 09:41:30.933,Acquired,Acquired,,Acquired,Acquired,Acquired,Acquired,Acquired,Acquired,Acquired,Acquired,Not acquired,8.2276224E1,2.44406704E2,,1.5570251199999998E2,6.5837868E1,3.1021756799999997E2,3.189912E2,2.52190224E2,1.85153472E2,2.6642008E2,4.3470496E1,9.174427999999999E1,7.8757728E1,6.2645664E1,,6.7418536E1,3.9936119999999995E1,3.3422288E1,1.5535976999999999E1,8.7322696E1,1.7156854E1,1.8915802E1,2.1099332E1,5.516181E0,1,3,,11,14,17,19,22,23,28,32,31,15,15,,11,14,9,7,14,13,9,7,0,
1572342150,2019-10-29 09:42:30.926,Acquired,Acquired,,Acquired,Acquired,Acquired,Acquired,Acquired,Acquired,Acquired,Acquired,Not acquired,8.2276224E1,2.44406704E2,,1.5570251199999998E2,6.5837868E1,3.1021756799999997E2,3.189912E2,2.52190224E2,1.85153472E2,2.6642008E2,4.3470496E1,9.174427999999999E1,7.8757728E1,6.2645664E1,,6.7418536E1,3.9936119999999995E1,3.3422288E1,1.5535976999999999E1,8.7322696E1,1.7156854E1,1.8915802E1,2.1099332E1,5.516181E0,1,3,,11,14,17,19,22,23,28,32,31,15,15,,11,14,9,7,14,13,9,7,0,
1572342210,2019-10-29 09:43:30.926,Acquired,Acquired,,Acquired,Acquired,Acquired,Acquired,Acquired,Acquired,Acquired,Acquired,Not acquired,8.2276224E1,2.44406704E2,,1.5570251199999998E2,6.5837868E1,3.1021756799999997E2,3.189912E2,2.52190224E2,1.85153472E2,2.6642008E2,4.3470496E1,9.174427999999999E1,7.8757728E1,6.2645664E1,,6.7418536E1,3.9936119999999995E1,3.3422288E1,1.5535976999999999E1,8.7322696E1,1.7156854E1,1.8915802E1,2.1099332E1,5.516181E0,1,3,,11,14,17,19,22,23,28,32,31,15,15,,11,14,9,7,14,13,9,7,0,
1572342270,2019-10-29 09:44:30.926,Acquired,Acquired,,Acquired,Acquired,Acquired,Acquired,Acquired,Acquired,Acquired,Acquired,Not acquired,8.2276224E1,2.44406704E2,,1.5570251199999998E2,6.5837868E1,3.1021756799999997E2,3.189912E2,2.52190224E2,1.85153472E2,2.6642008E2,4.3470496E1,9.174427999999999E1,7.8757728E1,6.2645664E1,,6.7418536E1,3.9936119999999995E1,3.3422288E1,1.5535976999999999E1,8.7322696E1,1.7156854E1,1.8915802E1,2.1099332E1,5.516181E0,1,3,,11,14,17,19,22,23,28,32,31,15,15,,11,14,9,7,14,13,9,7,0,
1572342330,2019-10-29 09:45:30.926,Acquired,Acquired,,Acquired,Acquired,Acquired,Acquired,Acquired,Acquired,Acquired,Acquired,Not acquired,8.2276224E1,2.44406704E2,,1.5570251199999998E2,6.5837868E1,3.1021756799999997E2,3.189912E2,2.52190224E2,1.85153472E2,2.6642008E2,4.3470496E1,9.174427999999999E1,7.8757728E1,6.2645664E1,,6.7418536E1,3.9936119999999995E1,3.3422288E1,1.5535976999999999E1,8.7322696E1,1.7156854E1,1.8915802E1,2.1099332E1,5.516181E0,1,3,,11,14,17,19,22,23,28,32,31,15,15,,11,14,9,7,14,13,9,7,0,
1572342390,2019-10-29 09:46:30.926,Acquired,Acquired,,Acquired,Acquired,Acquired,Acquired,Acquired,Acquired,Acquired,Acquired,Not acquired,8.2276224E1,2.44406704E2,,1.5570251199999998E2,6.5837868E1,3.1021756799999997E2,3.189912E2,2.52190224E2,1.85153472E2,2.6642008E2,4.3470496E1,9.174427999999999E1,7.8757728E1,6.2645664E1,,6.7418536E1,3.9936119999999995E1,3.3422288E1,1.5535976999999999E1,8.7322696E1,1.7156854E1,1.8915802E1,2.1099332E1,5.516181E0,1,3,,11,14,17,19,22,23,28,32,31,15,15,,11,14,9,7,14,13,9,7,0,
1572342450,2019-10-29 09:47:30.930,Acquired,Acquired,,Acquired,Acquired,Acquired,Acquired,Acquired,Acquired,Acquired,Acquired,Not acquired,8.2276224E1,2.44406704E2,,1.5570251199999998E2,6.5837868E1,3.1021756799999997E2,3.189912E2,2.52190224E2,1.85153472E2,2.6642008E2,4.3470496E1,9.174427999999999E1,7.8757728E1,6.2645664E1,,6.7418536E1,3.9936119999999995E1,3.3422288E1,1.5535976999999999E1,8.7322696E1,1.7156854E1,1.8915802E1,2.1099332E1,5.516181E0,1,3,,11,14,17,19,22,23,28,32,31,15,15,,11,14,9,7,14,13,9,7,0,
1572342510,2019-10-29 09:48:30.926,Acquired,Acquired,,Acquired,Acquired,Acquired,Acquired,Acquired,Acquired,Acquired,Acquired,Not acquired,8.2276224E1,2.44406704E2,,1.5570251199999998E2,6.5837868E1,3.1021756799999997E2,3.189912E2,2.52190224E2,1.85153472E2,2.6642008E2,4.3470496E1,9.174427999999999E1,7.8757728E1,6.2645664E1,,6.7418536E1,3.9936119999999995E1,3.3422288E1,1.5535976999999999E1,8.7322696E1,1.7156854E1,1.8915802E1,2.1099332E1,5.516181E0,1,3,,11,14,17,19,22,23,28,32,31,15,15,,11,14,9,7,14,13,9,7,0,
1572342570,2019-10-29 09:49:30.926,Acquired,Acquired,,Acquired,Acquired,Acquired,Acquired,Acquired,Acquired,Acquired,Acquired,Not acquired,8.2276224E1,2.44406704E2,,1.5570251199999998E2,6.5837868E1,3.1021756799999997E2,3.189912E2,2.52190224E2,1.85153472E2,2.6642008E2,4.3470496E1,9.174427999999999E1,7.8757728E1,6.2645664E1,,6.7418536E1,3.9936119999999995E1,3.3422288E1,1.5535976999999999E1,8.7322696E1,1.7156854E1,1.8915802E1,2.1099332E1,5.516181E0,1,3,,11,14,17,19,22,23,28,32,31,15,15,,11,14,9,7,14,13,9,7,0,
1572342630,2019-10-29 09:50:30.926,Acquired,Acquired,,Acquired,Acquired,Acquired,Acquired,Acquired,Acquired,Acquired,Acquired,Not acquired,8.2276224E1,2.44406704E2,,1.5570251199999998E2,6.5837868E1,3.1021756799999997E2,3.189912E2,2.52190224E2,1.85153472E2,2.6642008E2,4.3470496E1,9.174427999999999E1,7.8757728E1,6.2645664E1,,6.7418536E1,3.9936119999999995E1,3.3422288E1,1.5535976999999999E1,8.7322696E1,1.7156854E1,1.8915802E1,2.1099332E1,5.516181E0,1,3,,11,14,17,19,22,23,28,32,31,15,15,,11,14,9,7,14,13,9,7,0,
1572342690,2019-10-29 09:51:30.926,Acquired,Acquired,,Acquired,Acquired,Acquired,Acquired,Acquired,Acquired,Acquired,Acquired,Not acquired,8.2276224E1,2.44406704E2,,1.5570251199999998E2,6.5837868E1,3.1021756799999997E2,3.189912E2,2.52190224E2,1.85153472E2,2.6642008E2,4.3470496E1,9.174427999999999E1,7.8757728E1,6.2645664E1,,6.7418536E1,3.9936119999999995E1,3.3422288E1,1.5535976999999999E1,8.7322696E1,1.7156854E1,1.8915802E1,2.1099332E1,5.516181E0,1,3,,11,14,17,19,22,23,28,32,31,15,15,,11,14,9,7,14,13,9,7,0,
1572342750,2019-10-29 09:52:30.926,Acquired,Acquired,,Acquired,Acquired,Acquired,Acquired,Acquired,Acquired,Acquired,Acquired,Not acquired,8.2276224E1,2.44406704E2,,1.5570251199999998E2,6.5837868E1,3.1021756799999997E2,3.189912E2,2.52190224E2,1.85153472E2,2.6642008E2,4.3470496E1,9.174427999999999E1,7.8757728E1,6.2645664E1,,6.7418536E1,3.9936119999999995E1,3.3422288E1,1.5535976999999999E1,8.7322696E1,1.7156854E1,1.8915802E1,2.1099332E1,5.516181E0,1,3,,11,14,17,19,22,23,28,32,31,15,15,,11,14,9,7,14,13,9,7,0,
1572342810,2019-10-29 09:53:30.927,Acquired,Acquired,,Acquired,Acquired,Acquired,Acquired,Acquired,Acquired,Acquired,Acquired,Not acquired,8.2276224E1,2.44406704E2,,1.5570251199999998E2,6.5837868E1,3.1021756799999997E2,3.189912E2,2.52190224E2,1.85153472E2,2.6642008E2,4.3470496E1,9.174427999999999E1,7.8757728E1,6.2645664E1,,6.7418536E1,3.9936119999999995E1,3.3422288E1,1.5535976999999999E1,8.7322696E1,1.7156854E1,1.8915802E1,2.1099332E1,5.516181E0,1,3,,11,14,17,19,22,23,28,32,31,15,15,,11,14,9,7,14,13,9,7,0,
1572342870,2019-10-29 09:54:30.926,Acquired,Acquired,,Acquired,Acquired,Acquired,Acquired,Acquired,Acquired,Acquired,Acquired,Not acquired,8.2276224E1,2.44406704E2,,1.5570251199999998E2,6.5837868E1,3.1021756799999997E2,3.189912E2,2.52190224E2,1.85153472E2,2.6642008E2,4.3470496E1,9.174427999999999E1,7.8757728E1,6.2645664E1,,6.7418536E1,3.9936119999999995E1,3.3422288E1,1.5535976999999999E1,8.7322696E1,1.7156854E1,1.8915802E1,2.1099332E1,5.516181E0,1,3,,11,14,17,19,22,23,28,32,31,15,15,,11,14,9,7,14,13,9,7,0,
1572342930,2019-10-29 09:55:30.928,Acquired,Acquired,,Acquired,Acquired,Acquired,Acquired,Acquired,Acquired,Acquired,Acquired,Not acquired,8.2276224E1,2.44406704E2,,1.5570251199999998E2,6.5837868E1,3.1021756799999997E2,3.189912E2,2.52190224E2,1.85153472E2,2.6642008E2,4.3470496E1,9.174427999999999E1,7.8757728E1,6.2645664E1,,6.7418536E1,3.9936119999999995E1,3.3422288E1,1.5535976999999999E1,8.7322696E1,1.7156854E1,1.8915802E1,2.1099332E1,5.516181E0,1,3,,11,14,17,19,22,23,28,32,31,15,15,,11,14,9,7,14,13,9,7,0,
1572342990,2019-10-29 09:56:30.926,Acquired,Acquired,,Acquired,Acquired,Acquired,Acquired,Acquired,Acquired,Acquired,Acquired,Not acquired,8.2276224E1,2.44406704E2,,1.5570251199999998E2,6.5837868E1,3.1021756799999997E2,3.189912E2,2.52190224E2,1.85153472E2,2.6642008E2,4.3470496E1,9.174427999999999E1,7.8757728E1,6.2645664E1,,6.7418536E1,3.9936119999999995E1,3.3422288E1,1.5535976999999999E1,8.7322696E1,1.7156854E1,1.8915802E1,2.1099332E1,5.516181E0,1,3,,11,14,17,19,22,23,28,32,31,15,15,,11,14,9,7,14,13,9,7,0,
1572343050,2019-10-29 09:57:30.965,Acquired,Acquired,,Acquired,Acquired,Acquired,Acquired,Acquired,Acquired,Acquired,Acquired,Not acquired,8.2276224E1,2.44406704E2,,1.5570251199999998E2,6.5837868E1,3.1021756799999997E2,3.189912E2,2.52190224E2,1.85153472E2,2.6642008E2,4.3470496E1,9.174427999999999E1,7.8757728E1,6.2645664E1,,6.7418536E1,3.9936119999999995E1,3.3422288E1,1.5535976999999999E1,8.7322696E1,1.7156854E1,1.8915802E1,2.1099332E1,5.516181E0,1,3,,11,14,17,19,22,23,28,32,31,15,15,,11,14,9,7,14,13,9,7,0,
1572343110,2019-10-29 09:58:30.926,Acquired,Acquired,,Acquired,Acquired,Acquired,Acquired,Acquired,Acquired,Acquired,Acquired,Not acquired,8.2276224E1,2.44406704E2,,1.5570251199999998E2,6.5837868E1,3.1021756799999997E2,3.189912E2,2.52190224E2,1.85153472E2,2.6642008E2,4.3470496E1,9.174427999999999E1,7.8757728E1,6.2645664E1,,6.7418536E1,3.9936119999999995E1,3.3422288E1,1.5535976999999999E1,8.7322696E1,1.7156854E1,1.8915802E1,2.1099332E1,5.516181E0,1,3,,11,14,17,19,22,23,28,32,31,15,15,,11,14,9,7,14,13,9,7,0,
1572343170,2019-10-29 09:59:30.926,Acquired,Acquired,,Acquired,Acquired,Acquired,Acquired,Acquired,Acquired,Acquired,Acquired,Not acquired,8.2276224E1,2.44406704E2,,1.5570251199999998E2,6.5837868E1,3.1021756799999997E2,3.189912E2,2.52190224E2,1.85153472E2,2.6642008E2,4.3470496E1,9.174427999999999E1,7.8757728E1,6.2645664E1,,6.7418536E1,3.9936119999999995E1,3.3422288E1,1.5535976999999999E1,8.7322696E1,1.7156854E1,1.8915802E1,2.1099332E1,5.516181E0,1,3,,11,14,17,19,22,23,28,32,31,15,15,,11,14,9,7,14,13,9,7,0,
