Time(longsecs),Time(UTC),Supply Voltage(mV),Temperature(&deg;C),NMX Bus Current(mA),Sensor Current(mA),Serial Port Current(mA),Controller Current(mA),Digitizer Current(mA),
1572364830,2019-10-29 16:00:30.926,16468,1.8869263E1,0,8,0,39,37,
1572364890,2019-10-29 16:01:30.976,16441,1.89794E1,0,11,0,40,34,
1572364950,2019-10-29 16:02:30.928,16468,1.862445E1,0,12,0,40,40,
1572365010,2019-10-29 16:03:30.926,16468,1.863623E1,0,15,0,40,35,
1572365070,2019-10-29 16:04:30.926,16509,1.8861786E1,0,8,0,40,36,
1572365130,2019-10-29 16:05:30.926,16387,1.8892792E1,0,13,0,40,36,
1572365190,2019-10-29 16:06:30.926,16468,1.8800842E1,0,9,29,43,35,
1572365250,2019-10-29 16:07:30.926,16468,1.8770935E1,0,6,0,36,33,
1572365310,2019-10-29 16:08:30.926,16468,1.8558167E1,0,6,0,40,36,
1572365370,2019-10-29 16:09:30.926,16454,1.869394E1,0,14,0,35,38,
1572365430,2019-10-29 16:10:30.928,16454,1.8627655E1,0,7,14,39,37,
1572365490,2019-10-29 16:11:30.926,16441,1.8689667E1,0,13,0,48,34,
1572365550,2019-10-29 16:12:30.926,16428,1.8770935E1,0,9,0,77,37,
1572365610,2019-10-29 16:13:30.926,16481,1.8552826E1,0,4,0,43,36,
1572365670,2019-10-29 16:14:30.928,16454,1.8661865E1,0,11,0,41,36,
1572365730,2019-10-29 16:15:30.928,16454,1.8558167E1,0,9,0,38,37,
1572365790,2019-10-29 16:16:30.927,16454,1.8519684E1,0,8,0,40,36,
1572365850,2019-10-29 16:17:30.926,16454,1.8581696E1,0,7,0,41,36,
1572365910,2019-10-29 16:18:30.926,16454,1.8593445E1,0,13,0,36,37,
1572365970,2019-10-29 16:19:30.926,16454,1.8422394E1,0,7,0,35,34,
1572366030,2019-10-29 16:20:30.928,16454,1.8502594E1,0,7,0,38,40,
1572366090,2019-10-29 16:21:30.927,16454,1.8313354E1,0,9,0,40,38,
1572366150,2019-10-29 16:22:30.928,16454,1.824707E1,0,9,0,38,36,
1572366210,2019-10-29 16:23:30.926,16454,1.8511139E1,0,13,0,39,33,
1572366270,2019-10-29 16:24:30.957,16454,1.8389252E1,0,10,0,34,38,
1572366330,2019-10-29 16:25:30.926,16428,1.8588104E1,0,8,0,71,34,
1572366390,2019-10-29 16:26:30.926,16428,1.8284485E1,0,9,0,54,34,
1572366450,2019-10-29 16:27:30.928,16454,1.8164764E1,0,9,0,39,35,
1572366510,2019-10-29 16:28:30.926,16441,1.8295197E1,0,9,0,41,38,
1572366570,2019-10-29 16:29:30.926,16441,1.8446991E1,0,11,0,40,35,
1572366630,2019-10-29 16:30:30.926,16454,1.8505798E1,0,9,0,35,36,
1572366690,2019-10-29 16:31:30.926,16441,1.8444855E1,0,16,0,40,34,
1572366750,2019-10-29 16:32:30.926,16454,1.81391E1,0,10,0,38,35,
1572366810,2019-10-29 16:33:30.926,16454,1.8078156E1,0,8,0,35,34,
1572366870,2019-10-29 16:34:30.926,16454,1.8249207E1,0,15,0,35,35,
1572366930,2019-10-29 16:35:30.926,16454,1.8351837E1,0,10,0,34,35,
1572366990,2019-10-29 16:36:30.928,16454,1.8322998E1,0,10,0,38,41,
1572367050,2019-10-29 16:37:30.926,16441,1.8299469E1,0,11,0,43,36,
1572367110,2019-10-29 16:38:30.926,16454,1.82984E1,0,10,0,35,36,
1572367170,2019-10-29 16:39:30.927,16441,1.7971252E1,0,11,0,45,37,
1572367230,2019-10-29 16:40:30.926,16401,1.8250275E1,0,16,0,63,33,
1572367290,2019-10-29 16:41:30.926,16441,1.8176514E1,0,9,0,37,35,
1572367350,2019-10-29 16:42:30.926,16441,1.8002258E1,0,10,0,40,36,
1572367410,2019-10-29 16:43:30.926,16414,1.8004395E1,0,10,7,60,39,
1572367470,2019-10-29 16:44:30.926,16414,1.8117737E1,0,7,0,50,37,
1572367530,2019-10-29 16:45:30.926,16401,1.8165833E1,0,9,0,86,36,
1572367590,2019-10-29 16:46:30.926,16441,1.8284485E1,0,10,0,78,37,
1572367650,2019-10-29 16:47:30.926,16428,1.8141235E1,0,4,0,56,34,
1572367710,2019-10-29 16:48:30.926,16428,1.8091003E1,0,9,0,50,43,
1572367770,2019-10-29 16:49:30.926,16428,1.8222504E1,0,1,0,50,37,
1572367830,2019-10-29 16:50:30.926,16428,1.8299469E1,0,10,0,58,35,
1572367890,2019-10-29 16:51:30.926,16428,1.820752E1,0,10,0,57,37,
1572367950,2019-10-29 16:52:30.926,16428,1.7969116E1,0,9,0,85,36,
1572368010,2019-10-29 16:53:30.926,16441,1.8297333E1,0,11,0,76,37,
1572368070,2019-10-29 16:54:30.928,16454,1.8108093E1,0,13,0,78,35,
1572368130,2019-10-29 16:55:30.926,16428,1.8038605E1,0,10,0,56,34,
1572368190,2019-10-29 16:56:30.926,16428,1.808139E1,0,9,0,58,35,
1572368250,2019-10-29 16:57:30.926,16428,1.7943481E1,0,11,0,59,39,
1572368310,2019-10-29 16:58:30.926,16428,1.8191498E1,0,2,0,50,35,
1572368370,2019-10-29 16:59:30.926,16428,1.8074951E1,0,10,0,50,34,
