Time(longsecs),Time(UTC),External SOH Voltage 1(V),External SOH Voltage 2(V),External SOH Voltage 3(V),External SOH Voltage 4(V),Sensor SOH Voltage 1(V),Sensor SOH Voltage 2(V),Sensor SOH Voltage 3(V),
1572325230,2019-10-29 05:00:30.926,-6.4907074E-3,-5.5906773E-3,2.359867E-3,-3.5984516E-3,4.8601913E-1,4.8633862E-1,4.8133183E-1,
1572325290,2019-10-29 05:01:30.926,-2.235651E-3,-1.4381409E-3,6.541252E-3,5.8174133E-5,5.0126076E-1,5.0063705E-1,4.9595165E-1,
1572325350,2019-10-29 05:02:30.927,-2.4003983E-3,-1.2178421E-3,6.8387985E-3,4.26054E-4,4.9974155E-1,4.9844837E-1,5.028362E-1,
1572325410,2019-10-29 05:03:30.938,-2.257824E-3,-1.0142326E-3,6.4663887E-3,2.529621E-4,4.9833965E-1,4.9834824E-1,4.9695396E-1,
1572325470,2019-10-29 05:04:30.926,-5.1214695E-3,-3.891468E-3,4.3678284E-3,-2.18153E-3,4.9526405E-1,4.936762E-1,4.9268818E-1,
1572325530,2019-10-29 05:05:30.926,-4.031658E-3,-3.5853386E-3,5.077839E-3,-1.5823841E-3,4.9704933E-1,4.9332428E-1,4.8754692E-1,
1572325590,2019-10-29 05:06:30.926,-6.2372684E-3,-5.8767796E-3,2.8870106E-3,-4.072666E-3,4.7848606E-1,4.7801018E-1,4.8689747E-1,
1572325650,2019-10-29 05:07:30.926,-4.7500134E-3,-3.6370754E-3,4.602909E-3,-1.9898415E-3,4.9293804E-1,4.9221706E-1,4.8705387E-1,
1572325710,2019-10-29 05:08:30.926,-2.1896362E-3,-1.7237663E-3,6.588936E-3,4.8828125E-4,5.0784683E-1,5.060463E-1,4.9738503E-1,
1572325770,2019-10-29 05:09:30.926,-4.533291E-3,-3.8642883E-3,4.493952E-3,-1.9357204E-3,4.9081135E-1,4.899187E-1,4.9545097E-1,
1572325830,2019-10-29 05:10:30.926,-4.196644E-3,-3.2250881E-3,5.06711E-3,-1.2814999E-3,4.9394226E-1,4.9016762E-1,4.9246025E-1,
1572325890,2019-10-29 05:11:30.928,-7.012129E-3,-5.592346E-3,2.408266E-3,-4.2455196E-3,4.864502E-1,4.8505306E-1,4.7560978E-1,
1572325950,2019-10-29 05:12:30.926,-6.689787E-3,-6.110668E-3,2.473116E-3,-4.1503906E-3,4.8833466E-1,4.859972E-1,4.8554802E-1,
1572326010,2019-10-29 05:13:30.926,-2.5987625E-3,-1.7557144E-3,6.635189E-3,-2.3841858E-5,5.0065804E-1,5.0032806E-1,4.9879646E-1,
1572326070,2019-10-29 05:14:30.926,-5.181551E-3,-3.69668E-3,4.5433044E-3,-1.7054081E-3,4.9450684E-1,4.9438095E-1,4.9017525E-1,
1572326130,2019-10-29 05:15:30.926,-2.106905E-3,-1.6334057E-3,6.8216324E-3,7.739067E-4,5.019684E-1,5.0070477E-1,5.0197697E-1,
1572326190,2019-10-29 05:16:30.926,-4.641056E-3,-3.881216E-3,4.785776E-3,-1.8491745E-3,4.8969555E-1,4.898529E-1,4.8972893E-1,
1572326250,2019-10-29 05:17:30.926,-4.83346E-3,-3.677845E-3,4.429579E-3,-2.0284653E-3,4.8893166E-1,4.8789597E-1,4.8622036E-1,
1572326310,2019-10-29 05:18:30.926,-4.7023296E-3,-3.3442974E-3,4.9088E-3,-1.4982224E-3,4.9354553E-1,4.9278164E-1,4.9065018E-1,
1572326370,2019-10-29 05:19:30.928,-4.155159E-3,-3.1497478E-3,4.7643185E-3,-1.045227E-3,4.995432E-1,4.9838066E-1,4.9725628E-1,
1572326430,2019-10-29 05:20:30.926,-4.4751167E-3,-3.4132004E-3,4.428625E-3,-2.122879E-3,4.9478245E-1,4.9449635E-1,4.9675846E-1,
1572326490,2019-10-29 05:21:30.926,-3.715992E-3,-3.5061836E-3,4.888296E-3,-1.2168884E-3,4.947567E-1,4.9282742E-1,4.9337292E-1,
1572326550,2019-10-29 05:22:30.926,-4.506588E-3,-3.4480095E-3,4.963398E-3,-1.3301373E-3,4.947462E-1,4.9249458E-1,4.8932076E-1,
1572326610,2019-10-29 05:23:30.926,-6.7641735E-3,-6.0675144E-3,2.2189617E-3,-3.8154125E-3,4.8751545E-1,4.8821163E-1,4.8896694E-1,
1572326670,2019-10-29 05:24:30.926,-2.2294521E-3,-1.5997887E-3,6.7739487E-3,6.1249733E-4,5.00165E-1,4.9885273E-1,4.9684715E-1,
1572326730,2019-10-29 05:25:30.926,-6.6804886E-3,-5.9216022E-3,2.5835037E-3,-4.1098595E-3,4.8813248E-1,4.870205E-1,4.857607E-1,
1572326790,2019-10-29 05:26:30.926,-4.1201115E-3,-3.4062862E-3,4.7237873E-3,-1.7912388E-3,4.9306774E-1,4.9267387E-1,4.9215126E-1,
1572326850,2019-10-29 05:27:30.926,-4.4777393E-3,-3.8466454E-3,4.1368008E-3,-1.7962456E-3,4.9209118E-1,4.9156475E-1,4.8911762E-1,
1572326910,2019-10-29 05:28:30.926,-2.3627281E-3,-1.4793873E-3,6.883621E-3,-2.0813942E-4,4.9968243E-1,4.9834538E-1,4.9852753E-1,
1572326970,2019-10-29 05:29:30.926,-6.4411163E-3,-5.43499E-3,3.1485558E-3,-4.1041374E-3,4.893961E-1,4.8799992E-1,4.8492336E-1,
1572327030,2019-10-29 05:30:30.926,-7.1959496E-3,-5.787134E-3,2.2616386E-3,-3.7527084E-3,4.9340343E-1,4.919176E-1,4.859228E-1,
1572327090,2019-10-29 05:31:30.926,-2.0198822E-3,-1.5707016E-3,6.925583E-3,3.824234E-4,5.00865E-1,4.9943352E-1,5.054283E-1,
1572327150,2019-10-29 05:32:30.926,-6.6285133E-3,-5.608082E-3,2.276659E-3,-3.8073063E-3,4.8569393E-1,4.8410797E-1,4.846897E-1,
1572327210,2019-10-29 05:33:30.936,-4.152298E-3,-3.191948E-3,5.032301E-3,-1.527071E-3,4.9300194E-1,4.9232674E-1,4.8733997E-1,
1572327270,2019-10-29 05:34:30.926,-6.7532063E-3,-5.6169033E-3,2.7036667E-3,-4.0159225E-3,4.893942E-1,4.879341E-1,4.8116398E-1,
1572327330,2019-10-29 05:35:30.926,-4.437208E-3,-2.9098988E-3,4.9369335E-3,-1.7225742E-3,4.9364662E-1,4.9380684E-1,4.9266815E-1,
1572327390,2019-10-29 05:36:30.959,-4.451275E-3,-3.680706E-3,4.6010017E-3,-2.1169186E-3,4.964304E-1,4.935627E-1,4.9215317E-1,
1572327450,2019-10-29 05:37:30.926,-2.0418167E-3,-1.5377998E-3,6.8843365E-3,3.8838387E-4,5.06052E-1,5.041075E-1,5.0147533E-1,
1572327510,2019-10-29 05:38:30.926,-4.911661E-3,-4.019499E-3,4.3520927E-3,-2.0997524E-3,4.9509907E-1,4.9373436E-1,4.9154186E-1,
1572327570,2019-10-29 05:39:30.926,-4.1923523E-3,-2.7403831E-3,5.260229E-3,-1.6591549E-3,4.9067307E-1,4.9026585E-1,4.936304E-1,
1572327630,2019-10-29 05:40:30.926,-2.0649433E-3,-1.5199184E-3,6.7853928E-3,5.49078E-4,5.003004E-1,4.9920177E-1,4.9711514E-1,
1572327690,2019-10-29 05:41:30.926,-2.1574497E-3,-9.7441673E-4,7.1525574E-3,2.9492378E-4,5.074835E-1,5.0473595E-1,4.9693108E-1,
1572327750,2019-10-29 05:42:30.928,-2.1641254E-3,-1.1897087E-3,6.379366E-3,8.981228E-4,4.9778843E-1,4.981947E-1,5.057373E-1,
1572327810,2019-10-29 05:43:30.928,-7.1492195E-3,-6.0470104E-3,2.6090145E-3,-3.942251E-3,4.879837E-1,4.891262E-1,4.8601627E-1,
1572327870,2019-10-29 05:44:30.928,-4.30727E-3,-3.8585663E-3,4.5945644E-3,-1.9493103E-3,4.948616E-1,4.930544E-1,4.8751736E-1,
1572327930,2019-10-29 05:45:30.926,-6.808996E-3,-5.5511E-3,2.7656555E-3,-3.686428E-3,4.930458E-1,4.9150753E-1,4.8615456E-1,
1572327990,2019-10-29 05:46:30.927,-4.537821E-3,-3.6084652E-3,4.516363E-3,-2.2046566E-3,4.965515E-1,4.9346352E-1,4.8809624E-1,
1572328050,2019-10-29 05:47:30.926,-4.462242E-3,-3.6156178E-3,4.604578E-3,-1.6605854E-3,4.9538422E-1,4.946556E-1,4.91333E-1,
1572328110,2019-10-29 05:48:30.926,-2.187252E-3,-1.6565323E-3,6.772518E-3,4.8804283E-4,5.015917E-1,4.9896526E-1,4.9750614E-1,
1572328170,2019-10-29 05:49:30.926,-2.4049282E-3,-1.3523102E-3,6.856203E-3,3.1542778E-4,5.047598E-1,5.042448E-1,4.971342E-1,
1572328230,2019-10-29 05:50:30.926,-2.1333694E-3,-1.3523102E-3,7.03454E-3,2.9802322E-4,4.9836922E-1,4.9760628E-1,4.9813366E-1,
1572328290,2019-10-29 05:51:30.926,-2.2802353E-3,-1.2614727E-3,6.6337585E-3,3.848076E-4,4.9984646E-1,4.9852562E-1,4.976778E-1,
1572328350,2019-10-29 05:52:30.926,-2.1967888E-3,-1.6112328E-3,7.0073605E-3,3.836155E-4,5.0953865E-1,5.078516E-1,5.0292015E-1,
1572328410,2019-10-29 05:53:30.928,-4.651785E-3,-3.8354397E-3,4.4186115E-3,-1.986742E-3,4.9511433E-1,4.948187E-1,4.990425E-1,
1572328470,2019-10-29 05:54:30.926,-4.9140453E-3,-4.0977E-3,4.196167E-3,-2.0346642E-3,4.934187E-1,4.9234867E-1,4.9578762E-1,
1572328530,2019-10-29 05:55:30.926,-4.504442E-3,-4.2955875E-3,4.3361187E-3,-2.209425E-3,4.9970913E-1,4.9521065E-1,4.857626E-1,
1572328590,2019-10-29 05:56:30.926,-6.6862106E-3,-5.7430267E-3,2.594471E-3,-3.9696693E-3,4.886446E-1,4.8730183E-1,4.8535633E-1,
1572328650,2019-10-29 05:57:30.926,-6.860256E-3,-5.8932304E-3,2.42424E-3,-3.8015842E-3,4.8977566E-1,4.8830032E-1,4.8674393E-1,
1572328710,2019-10-29 05:58:30.926,-2.3522377E-3,-1.5115738E-3,6.5073967E-3,3.643036E-4,5.0102997E-1,4.9938583E-1,4.9643898E-1,
1572328770,2019-10-29 05:59:30.926,-4.108429E-3,-3.326416E-3,5.168438E-3,-9.75132E-4,4.9606228E-1,4.9393368E-1,4.9086094E-1,
