Time(longsecs),Time(UTC),External SOH Voltage 1(V),External SOH Voltage 2(V),External SOH Voltage 3(V),External SOH Voltage 4(V),Sensor SOH Voltage 1(V),Sensor SOH Voltage 2(V),Sensor SOH Voltage 3(V),
1569974426,2019-10-02 00:00:26.438,-1.9207001E-3,-1.193285E-3,7.200241E-3,5.199909E-4,3.9684486E-1,4.0203953E-1,3.962345E-1,
1569974486,2019-10-02 00:01:26.438,-4.2574406E-3,-3.1721592E-3,4.7245026E-3,-1.2645721E-3,3.980627E-1,3.9153957E-1,3.8804436E-1,
1569974546,2019-10-02 00:02:26.438,-3.8034916E-3,-3.3125877E-3,5.081415E-3,-1.7206669E-3,3.9547825E-1,3.9256573E-1,3.898573E-1,
1569974606,2019-10-02 00:03:26.438,-6.458044E-3,-5.7337284E-3,2.5837421E-3,-4.235029E-3,3.8795948E-1,3.8817883E-1,3.8361073E-1,
1569974666,2019-10-02 00:04:26.438,-4.388571E-3,-4.0762424E-3,4.534483E-3,-2.2387505E-3,3.9254856E-1,3.917036E-1,3.8966465E-1,
1569974726,2019-10-02 00:05:26.438,-4.709244E-3,-3.853798E-3,4.1964054E-3,-2.2318363E-3,3.9054108E-1,3.9185333E-1,3.884592E-1,
1569974786,2019-10-02 00:06:26.438,-3.5171509E-3,-3.098011E-3,5.3141117E-3,-1.7478466E-3,3.9532375E-1,3.9359474E-1,3.9073372E-1,
1569974846,2019-10-02 00:07:26.448,-4.6257973E-3,-3.8824081E-3,4.2767525E-3,-2.212286E-3,3.920126E-1,3.9460564E-1,3.945446E-1,
1569974906,2019-10-02 00:08:26.438,-4.527569E-3,-4.14896E-3,4.2562485E-3,-2.313614E-3,3.9383984E-1,3.9251232E-1,3.8945675E-1,
1569974966,2019-10-02 00:09:26.439,-1.9154549E-3,-1.2626648E-3,6.90341E-3,1.9645691E-4,4.0253353E-1,4.019785E-1,4.008007E-1,
1569975026,2019-10-02 00:10:26.439,-4.845381E-3,-4.1258335E-3,4.810095E-3,-2.1784306E-3,3.9426804E-1,3.9513874E-1,3.9187527E-1,
1569975086,2019-10-02 00:11:26.439,-2.2156239E-3,-1.3782978E-3,6.7162514E-3,3.5643578E-4,3.9811993E-1,4.0279102E-1,3.9926434E-1,
1569975146,2019-10-02 00:12:26.438,-6.6263676E-3,-5.6586266E-3,2.5615692E-3,-4.203558E-3,3.8537407E-1,3.844881E-1,3.808756E-1,
1569975206,2019-10-02 00:13:26.438,-2.5455952E-3,-1.5306473E-3,7.019758E-3,7.1310997E-4,4.0193748E-1,4.0140247E-1,3.9788055E-1,
1569975266,2019-10-02 00:14:26.438,-5.063057E-3,-3.6168098E-3,4.7359467E-3,-2.136469E-3,3.9216137E-1,3.9607525E-1,3.9313316E-1,
1569975326,2019-10-02 00:15:26.438,-4.2197704E-3,-3.165722E-3,5.0354004E-3,-1.3854504E-3,3.9306355E-1,3.9248562E-1,3.8968086E-1,
1569975386,2019-10-02 00:16:26.438,-4.1315556E-3,-3.4282207E-3,4.47917E-3,-1.688242E-3,3.9338303E-1,3.9589024E-1,3.9177608E-1,
1569975446,2019-10-02 00:17:26.438,-4.7769547E-3,-4.080057E-3,4.317045E-3,-2.109766E-3,3.9465523E-1,3.9320946E-1,3.907776E-1,
1569975506,2019-10-02 00:18:26.438,-4.9517155E-3,-3.6501884E-3,4.460573E-3,-1.7669201E-3,3.9039135E-1,3.9450073E-1,3.9108562E-1,
1569975566,2019-10-02 00:19:26.438,-2.7124882E-3,-1.404047E-3,6.9150925E-3,-6.198883E-6,4.027357E-1,4.0196514E-1,4.0070724E-1,
1569975626,2019-10-02 00:20:26.438,-4.827738E-3,-4.061699E-3,4.3075085E-3,-2.2354126E-3,3.9163303E-1,3.9425373E-1,3.90522E-1,
1569975686,2019-10-02 00:21:26.438,-4.2922497E-3,-3.329277E-3,5.056143E-3,-1.7850399E-3,3.942833E-1,3.997984E-1,3.976822E-1,
1569975746,2019-10-02 00:22:26.438,-5.1817894E-3,-4.2743683E-3,4.4457912E-3,-2.1874905E-3,3.937626E-1,3.9488983E-1,3.925991E-1,
1569975806,2019-10-02 00:23:26.439,-2.2006035E-3,-1.4481544E-3,6.562233E-3,1.9979477E-4,4.0181637E-1,3.9543056E-1,3.9293766E-1,
1569975866,2019-10-02 00:24:26.440,-6.8101883E-3,-5.481243E-3,2.9921532E-3,-4.1952133E-3,3.8849545E-1,3.8588905E-1,3.8373947E-1,
1569975926,2019-10-02 00:25:26.438,-4.0524006E-3,-3.488779E-3,5.1887035E-3,-1.6419888E-3,3.9676762E-1,3.9609528E-1,3.9429379E-1,
1569975986,2019-10-02 00:26:26.439,-6.732464E-3,-5.772352E-3,2.9666424E-3,-3.6160946E-3,3.8946724E-1,3.868618E-1,3.8587093E-1,
1569976046,2019-10-02 00:27:26.440,-6.5801144E-3,-6.10137E-3,2.9547215E-3,-4.0607452E-3,3.8877106E-1,3.8783264E-1,3.867445E-1,
1569976106,2019-10-02 00:28:26.438,-2.5577545E-3,-1.2414455E-3,6.8073273E-3,3.1375885E-4,4.0325356E-1,4.0206337E-1,4.003029E-1,
1569976166,2019-10-02 00:29:26.438,-6.8383217E-3,-5.9678555E-3,2.3925304E-3,-4.444599E-3,3.8096333E-1,3.90625E-1,3.868389E-1,
1569976226,2019-10-02 00:30:26.439,-6.7210197E-3,-5.9535503E-3,2.4895668E-3,-3.8454533E-3,3.8847637E-1,3.889227E-1,3.87434E-1,
1569976286,2019-10-02 00:31:26.468,-4.9123764E-3,-4.2254925E-3,4.285574E-3,-2.4330616E-3,3.9497185E-1,3.9543343E-1,3.9266396E-1,
1569976346,2019-10-02 00:32:26.438,-2.3827553E-3,-1.5861988E-3,6.6604614E-3,-5.722046E-6,4.0060806E-1,4.0519524E-1,4.0257263E-1,
1569976406,2019-10-02 00:33:26.438,-2.3646355E-3,-1.3451576E-3,6.6616535E-3,8.454323E-4,3.9732552E-1,4.0145016E-1,3.9963722E-1,
1569976466,2019-10-02 00:34:26.438,-1.8320084E-3,-1.5704632E-3,6.752014E-3,3.1638145E-4,4.0171146E-1,3.959427E-1,3.9422798E-1,
1569976526,2019-10-02 00:35:26.438,-4.0533543E-3,-2.8970242E-3,4.966259E-3,-1.5201569E-3,3.973198E-1,3.9535332E-1,3.922329E-1,
1569976586,2019-10-02 00:36:26.440,-4.7421455E-3,-4.402876E-3,4.263878E-3,-2.1469593E-3,3.9434433E-1,3.9848614E-1,3.9761353E-1,
1569976646,2019-10-02 00:37:26.438,-4.5228004E-3,-3.352642E-3,4.7631264E-3,-1.5318394E-3,3.9566517E-1,3.918562E-1,3.9058208E-1,
1569976706,2019-10-02 00:38:26.440,-5.25856E-3,-3.8182735E-3,4.3575764E-3,-2.1693707E-3,3.951559E-1,3.9518547E-1,3.9378262E-1,
1569976766,2019-10-02 00:39:26.438,-6.4017773E-3,-5.4011345E-3,2.8793812E-3,-3.998041E-3,3.8865852E-1,3.8689804E-1,3.8412762E-1,
1569976826,2019-10-02 00:40:26.438,-4.071474E-3,-3.119707E-3,4.996538E-3,-1.408577E-3,3.912363E-1,3.9454937E-1,3.9169312E-1,
1569976886,2019-10-02 00:41:26.438,-2.5091171E-3,-1.5044212E-3,6.6969395E-3,3.9815903E-4,3.996935E-1,3.9944077E-1,3.9671326E-1,
1569976946,2019-10-02 00:42:26.438,-6.6411495E-3,-5.441904E-3,2.5041103E-3,-4.109621E-3,3.9411354E-1,3.88649E-1,3.8447762E-1,
1569977006,2019-10-02 00:43:26.471,-6.6668987E-3,-5.875349E-3,2.5627613E-3,-4.297495E-3,3.9720535E-1,3.9686394E-1,3.9518356E-1,
1569977066,2019-10-02 00:44:26.438,-6.6697598E-3,-5.6917667E-3,2.3710728E-3,-3.7488937E-3,3.8792515E-1,3.943987E-1,3.91613E-1,
1569977126,2019-10-02 00:45:26.438,-2.3550987E-3,-1.4708042E-3,6.664276E-3,1.9168854E-4,4.0254688E-1,3.959751E-1,3.9451218E-1,
1569977186,2019-10-02 00:46:26.438,-4.172802E-3,-3.653288E-3,4.6367645E-3,-1.6093254E-3,3.957224E-1,3.9512634E-1,3.9257145E-1,
1569977246,2019-10-02 00:47:26.438,-6.602049E-3,-5.458832E-3,2.4187565E-3,-3.9303303E-3,3.9031506E-1,3.9019394E-1,3.8796806E-1,
1569977306,2019-10-02 00:48:26.438,-4.2102337E-3,-3.4472942E-3,5.0988197E-3,-1.5687943E-3,3.961277E-1,3.937912E-1,3.9199924E-1,
1569977366,2019-10-02 00:49:26.438,-2.722025E-3,-1.3391972E-3,6.5596104E-3,4.4584274E-5,4.010353E-1,4.0288067E-1,3.999195E-1,
1569977426,2019-10-02 00:50:26.438,-5.3777695E-3,-3.881693E-3,4.0602684E-3,-2.4802685E-3,3.9382076E-1,3.9099598E-1,3.8831997E-1,
1569977486,2019-10-02 00:51:26.438,-4.868269E-3,-4.082918E-3,4.3549538E-3,-1.8279552E-3,3.955078E-1,3.9470387E-1,3.9388657E-1,
1569977546,2019-10-02 00:52:26.438,-6.7014694E-3,-5.5992603E-3,2.3729801E-3,-4.179001E-3,3.8937664E-1,3.897953E-1,3.878851E-1,
1569977606,2019-10-02 00:53:26.441,-6.776333E-3,-5.862236E-3,2.6094913E-3,-4.027605E-3,3.930006E-1,3.8877678E-1,3.8687134E-1,
1569977666,2019-10-02 00:54:26.438,-4.1589737E-3,-3.4132004E-3,5.3243637E-3,-1.0738373E-3,4.0023708E-1,4.0049553E-1,3.982973E-1,
1569977726,2019-10-02 00:55:26.439,-4.225731E-3,-3.1995773E-3,5.301714E-3,-1.752615E-3,3.9474297E-1,3.9359474E-1,3.9226913E-1,
1569977786,2019-10-02 00:56:26.438,-6.4833164E-3,-5.560398E-3,2.556324E-3,-4.1217804E-3,3.9346695E-1,3.8590527E-1,3.8475037E-1,
1569977846,2019-10-02 00:57:26.438,-6.4644814E-3,-5.5840015E-3,2.4864674E-3,-3.9200783E-3,3.8783932E-1,3.865223E-1,3.8322926E-1,
1569977906,2019-10-02 00:58:26.438,-6.5734386E-3,-5.903721E-3,2.5908947E-3,-4.073143E-3,3.897066E-1,3.9332485E-1,3.902197E-1,
1569977966,2019-10-02 00:59:26.439,-4.2612553E-3,-3.1101704E-3,4.650831E-3,-1.834631E-3,3.9661026E-1,3.9522457E-1,3.924141E-1,
