Time(longsecs),Time(UTC),External SOH Voltage 1(V),External SOH Voltage 2(V),External SOH Voltage 3(V),External SOH Voltage 4(V),Sensor SOH Voltage 1(V),Sensor SOH Voltage 2(V),Sensor SOH Voltage 3(V),
1570024826,2019-10-02 14:00:26.438,-2.131462E-3,-1.4746189E-3,7.097006E-3,2.0480156E-4,4.066639E-1,4.047222E-1,4.0377045E-1,
1570024886,2019-10-02 14:01:26.438,-4.0080547E-3,-2.8219223E-3,5.6779385E-3,-1.4526844E-3,3.962345E-1,3.9612484E-1,3.9421463E-1,
1570024946,2019-10-02 14:02:26.438,-7.0023537E-3,-5.6097507E-3,2.8524399E-3,-4.047394E-3,3.895502E-1,3.8843155E-1,3.8740444E-1,
1570025006,2019-10-02 14:03:26.438,-7.0602894E-3,-5.811453E-3,2.947569E-3,-4.0211678E-3,3.8945866E-1,3.8850212E-1,3.870201E-1,
1570025066,2019-10-02 14:04:26.438,-4.5261383E-3,-3.9031506E-3,4.1308403E-3,-2.1443367E-3,3.9333534E-1,3.930931E-1,3.9092255E-1,
1570025126,2019-10-02 14:05:26.438,-4.67062E-3,-3.9970875E-3,4.272938E-3,-2.0456314E-3,3.9512825E-1,3.948965E-1,3.9358616E-1,
1570025186,2019-10-02 14:06:26.439,-4.054308E-3,-2.9597282E-3,5.2678585E-3,-1.2116432E-3,3.9653492E-1,3.9624882E-1,3.9405155E-1,
1570025246,2019-10-02 14:07:26.438,-4.40979E-3,-3.5293102E-3,5.4278374E-3,-1.2512207E-3,3.918953E-1,3.9327526E-1,3.886299E-1,
1570025306,2019-10-02 14:08:26.472,-2.2246838E-3,-9.572506E-4,6.7379475E-3,9.250641E-4,3.952961E-1,3.943901E-1,3.9429665E-1,
1570025366,2019-10-02 14:09:26.438,-2.3345947E-3,-1.1405945E-3,7.1914196E-3,3.4356117E-4,4.0102005E-1,3.988657E-1,3.9773464E-1,
1570025426,2019-10-02 14:10:26.438,-2.2742748E-3,-1.3945103E-3,7.2972775E-3,3.5071373E-4,4.0021992E-1,3.994484E-1,3.9789963E-1,
1570025486,2019-10-02 14:11:26.438,-4.0376186E-3,-2.9547215E-3,4.797697E-3,-2.0372868E-3,3.9571953E-1,3.9609718E-1,3.9383125E-1,
1570025546,2019-10-02 14:12:26.438,-7.06172E-3,-5.5687428E-3,3.072977E-3,-3.8969517E-3,3.901186E-1,3.902483E-1,3.8741875E-1,
1570025606,2019-10-02 14:13:26.438,-2.4216175E-3,-1.5087128E-3,6.8449974E-3,4.2128563E-4,3.975382E-1,3.982458E-1,3.9636517E-1,
1570025666,2019-10-02 14:14:26.440,-6.593704E-3,-6.03199E-3,2.6819706E-3,-3.9708614E-3,3.872652E-1,3.8654613E-1,3.8462257E-1,
1570025726,2019-10-02 14:15:26.438,-5.1546097E-3,-4.1127205E-3,4.5497417E-3,-2.3367405E-3,3.932352E-1,3.931408E-1,3.91613E-1,
1570025786,2019-10-02 14:16:26.438,-2.2640228E-3,-1.1126995E-3,7.031679E-3,6.2441826E-4,3.9948273E-1,3.985796E-1,3.976431E-1,
1570025846,2019-10-02 14:17:26.438,-6.9024563E-3,-5.6180954E-3,2.9366016E-3,-4.3361187E-3,3.9035606E-1,3.8919163E-1,3.8640118E-1,
1570025906,2019-10-02 14:18:26.438,-4.2364597E-3,-2.898693E-3,5.241871E-3,-1.1315346E-3,3.920765E-1,3.9111042E-1,3.9111042E-1,
1570025966,2019-10-02 14:19:26.440,-2.6817322E-3,-1.3289452E-3,6.612301E-3,6.055832E-5,3.9817238E-1,3.9870453E-1,3.9422894E-1,
1570026026,2019-10-02 14:20:26.438,-4.63295E-3,-3.1564236E-3,5.0616264E-3,-1.6560555E-3,3.9570427E-1,3.9553547E-1,3.9360905E-1,
1570026086,2019-10-02 14:21:26.439,-6.6013336E-3,-5.755663E-3,2.4650097E-3,-4.0724277E-3,3.8729286E-1,3.8828564E-1,3.8613987E-1,
1570026146,2019-10-02 14:22:26.438,-2.6586056E-3,-1.1680126E-3,6.9065094E-3,2.553463E-4,3.9797115E-1,3.9769363E-1,3.9787292E-1,
1570026206,2019-10-02 14:23:26.438,-4.444599E-3,-3.1888485E-3,5.4881573E-3,-1.4226437E-3,3.9238358E-1,3.9173508E-1,3.8934612E-1,
1570026266,2019-10-02 14:24:26.440,-2.1238327E-3,-1.2097359E-3,7.0137978E-3,4.3153763E-5,4.027424E-1,4.02421E-1,3.999586E-1,
1570026326,2019-10-02 14:25:26.471,-4.007101E-3,-2.9735565E-3,5.176306E-3,-1.8620491E-4,3.916111E-1,3.9242268E-1,3.906641E-1,
1570026386,2019-10-02 14:26:26.438,-5.0616264E-3,-3.5402775E-3,4.415989E-3,-2.3095608E-3,3.9168262E-1,3.9216518E-1,3.8897133E-1,
1570026446,2019-10-02 14:27:26.438,-4.512787E-3,-4.1656494E-3,4.667282E-3,-2.219677E-3,3.9131737E-1,3.9215374E-1,3.8978386E-1,
1570026506,2019-10-02 14:28:26.439,-6.457329E-3,-5.4557323E-3,2.9315948E-3,-3.6399364E-3,3.9044666E-1,3.8976955E-1,3.882532E-1,
1570026566,2019-10-02 14:29:26.438,-6.975174E-3,-5.3577423E-3,2.6698112E-3,-4.128456E-3,3.8814068E-1,3.8783264E-1,3.84758E-1,
1570026626,2019-10-02 14:30:26.438,-5.1324368E-3,-3.717661E-3,4.5166016E-3,-2.0563602E-3,3.8588047E-1,3.8592434E-1,3.8337898E-1,
1570026686,2019-10-02 14:31:26.438,-4.2009354E-3,-3.3397675E-3,4.7938824E-3,-1.5883446E-3,3.9614105E-1,3.966503E-1,3.9425945E-1,
1570026746,2019-10-02 14:32:26.438,-2.2952557E-3,-1.5051365E-3,6.922722E-3,4.7373772E-4,4.0201092E-1,4.0267467E-1,4.0033245E-1,
1570026806,2019-10-02 14:33:26.438,-4.513502E-3,-3.3752918E-3,4.951E-3,-1.2934208E-3,3.9165688E-1,3.9319706E-1,3.8967896E-1,
1570026866,2019-10-02 14:34:26.438,-4.390478E-3,-3.2961369E-3,5.34153E-3,-8.13961E-4,3.9210892E-1,3.9171886E-1,3.9038086E-1,
1570026926,2019-10-02 14:35:26.438,-4.7638416E-3,-2.9547215E-3,5.5294037E-3,-1.6644001E-3,3.9150906E-1,3.8969612E-1,3.8843155E-1,
1570026986,2019-10-02 14:36:26.438,-5.1891804E-3,-3.8836002E-3,4.4329166E-3,-2.33984E-3,3.9186668E-1,3.9101028E-1,3.8892555E-1,
1570027046,2019-10-02 14:37:26.439,-4.384041E-3,-2.7742386E-3,5.1236153E-3,-1.2991428E-3,3.9482784E-1,3.9467907E-1,3.9297104E-1,
1570027106,2019-10-02 14:38:26.438,-4.540682E-3,-3.7133694E-3,4.8646927E-3,-1.6596317E-3,3.9199924E-1,3.9255238E-1,3.8986588E-1,
1570027166,2019-10-02 14:39:26.439,-4.564762E-3,-3.08609E-3,5.3002834E-3,-1.6183853E-3,3.9531517E-1,3.927698E-1,3.9261055E-1,
1570027226,2019-10-02 14:40:26.438,-6.7129135E-3,-5.1858425E-3,3.1852722E-3,-3.8511753E-3,3.8319492E-1,3.834753E-1,3.8167572E-1,
1570027286,2019-10-02 14:41:26.439,-2.2704601E-3,-1.2421608E-3,7.180214E-3,3.64542E-4,3.962927E-1,3.9551067E-1,3.9471626E-1,
1570027346,2019-10-02 14:42:26.438,-6.7722797E-3,-5.681038E-3,2.870798E-3,-4.262686E-3,3.876257E-1,3.8733673E-1,3.8513565E-1,
1570027406,2019-10-02 14:43:26.438,-2.1128654E-3,-1.0807514E-3,6.752014E-3,-1.9836426E-4,3.9968014E-1,4.003048E-1,3.9884853E-1,
1570027466,2019-10-02 14:44:26.438,-6.749153E-3,-6.017208E-3,2.6233196E-3,-3.9174557E-3,3.8625717E-1,3.8563347E-1,3.8481903E-1,
1570027526,2019-10-02 14:45:26.438,-4.7609806E-3,-3.7596226E-3,4.695654E-3,-2.2993088E-3,3.9197445E-1,3.9202976E-1,3.9021778E-1,
1570027586,2019-10-02 14:46:26.440,-2.5494099E-3,-1.4779568E-3,7.0877075E-3,3.9815903E-4,3.987999E-1,3.9904976E-1,3.965521E-1,
1570027646,2019-10-02 14:47:26.438,-2.6545525E-3,-1.3608932E-3,6.644964E-3,1.3136864E-4,3.9770126E-1,3.9687634E-1,3.9501858E-1,
1570027706,2019-10-02 14:48:26.438,-6.8547726E-3,-5.6164265E-3,2.9921532E-3,-4.1639805E-3,3.856163E-1,3.858471E-1,3.8297462E-1,
1570027766,2019-10-02 14:49:26.438,-3.715992E-3,-3.0651093E-3,5.417347E-3,-1.2891293E-3,3.9139366E-1,3.9200497E-1,3.8936615E-1,
1570027826,2019-10-02 14:50:26.438,-2.313614E-3,-1.3813972E-3,6.9761276E-3,5.7935715E-5,4.0120697E-1,3.9980125E-1,3.990631E-1,
1570027886,2019-10-02 14:51:26.438,-6.537199E-3,-5.3236485E-3,2.8429031E-3,-4.057646E-3,3.8663197E-1,3.8632965E-1,3.846836E-1,
1570027946,2019-10-02 14:52:26.438,-2.3739338E-3,-1.1675358E-3,6.948948E-3,5.850792E-4,3.913908E-1,3.9187908E-1,3.8954926E-1,
1570028006,2019-10-02 14:53:26.439,-6.4730644E-3,-5.8250427E-3,2.8288364E-3,-4.455328E-3,3.8491535E-1,3.8485718E-1,3.8288212E-1,
1570028066,2019-10-02 14:54:26.439,-4.298687E-3,-3.2951832E-3,5.2194595E-3,-1.0590553E-3,3.914814E-1,3.923788E-1,3.8851452E-1,
1570028126,2019-10-02 14:55:26.438,-5.021572E-3,-4.2283535E-3,4.7380924E-3,-2.1634102E-3,3.8967323E-1,3.894863E-1,3.8728237E-1,
1570028186,2019-10-02 14:56:26.438,-3.8468838E-3,-3.247261E-3,4.686117E-3,-1.4746189E-3,3.922825E-1,3.9247322E-1,3.8958263E-1,
1570028246,2019-10-02 14:57:26.438,-4.0459633E-3,-3.1831264E-3,5.5422783E-3,-1.0340214E-3,3.918829E-1,3.9259338E-1,3.9043617E-1,
1570028306,2019-10-02 14:58:26.468,-4.8463345E-3,-4.036188E-3,4.7535896E-3,-5.7959557E-4,3.9146328E-1,3.92004E-1,3.892269E-1,
1570028366,2019-10-02 14:59:26.438,-6.6616535E-3,-5.69582E-3,2.8293133E-3,-3.9875507E-3,3.8530254E-1,3.8438416E-1,3.8125038E-1,
