Time(longsecs),Time(UTC),Supply Voltage(mV),Temperature(&deg;C),NMX Bus Current(mA),Sensor Current(mA),Serial Port Current(mA),Controller Current(mA),Digitizer Current(mA),
1569999626,2019-10-02 07:00:26.438,15153,2.1230835E1,0,13,0,64,43,
1569999686,2019-10-02 07:01:26.438,15153,2.1309937E1,0,9,0,65,38,
1569999746,2019-10-02 07:02:26.440,15153,2.1253265E1,0,2,0,66,38,
1569999806,2019-10-02 07:03:26.438,15140,2.1172028E1,0,9,0,55,40,
1569999866,2019-10-02 07:04:26.439,15140,2.1173096E1,0,7,0,63,42,
1569999926,2019-10-02 07:05:26.438,15126,2.1076874E1,0,15,0,65,41,
1569999986,2019-10-02 07:06:26.440,15140,2.1317413E1,0,9,0,65,39,
1570000046,2019-10-02 07:07:26.438,15126,2.1287476E1,0,17,0,56,42,
1570000106,2019-10-02 07:08:26.439,15113,2.1436096E1,0,15,0,64,40,
1570000166,2019-10-02 07:09:26.439,15126,2.131314E1,0,10,0,73,43,
1570000226,2019-10-02 07:10:26.438,15126,2.1375153E1,0,12,0,64,41,
1570000286,2019-10-02 07:11:26.438,15126,2.1384766E1,0,9,0,68,41,
1570000346,2019-10-02 07:12:26.438,15113,2.1398682E1,0,15,0,64,39,
1570000406,2019-10-02 07:13:26.438,15126,2.1361237E1,0,13,0,56,43,
1570000466,2019-10-02 07:14:26.438,15126,2.1408295E1,0,10,0,64,41,
1570000526,2019-10-02 07:15:26.440,15126,2.1178436E1,0,10,0,64,38,
1570000586,2019-10-02 07:16:26.438,15126,2.1346283E1,0,11,0,64,40,
1570000646,2019-10-02 07:17:26.438,15126,2.1381561E1,0,11,0,56,40,
1570000706,2019-10-02 07:18:26.462,15126,2.133133E1,0,9,0,56,40,
1570000766,2019-10-02 07:19:26.458,15126,2.111322E1,0,14,0,64,42,
1570000826,2019-10-02 07:20:26.438,15126,2.1291748E1,0,11,0,64,40,
1570000886,2019-10-02 07:21:26.444,15140,2.1259705E1,0,4,0,63,38,
1570000946,2019-10-02 07:22:26.438,15140,2.136554E1,0,13,0,56,39,
1570001006,2019-10-02 07:23:26.438,15140,2.1487396E1,0,4,0,64,39,
1570001066,2019-10-02 07:24:26.438,15153,2.1286407E1,0,11,0,64,39,
1570001126,2019-10-02 07:25:26.438,15153,2.1281067E1,0,7,0,59,40,
1570001186,2019-10-02 07:26:26.438,15086,2.1533356E1,0,13,0,64,41,
1570001246,2019-10-02 07:27:26.438,15153,2.1362335E1,0,4,0,65,36,
1570001306,2019-10-02 07:28:26.438,15166,2.1437164E1,0,10,0,64,41,
1570001366,2019-10-02 07:29:26.438,15166,2.1432892E1,0,11,0,65,39,
1570001426,2019-10-02 07:30:26.438,15166,2.1552612E1,0,9,0,65,39,
1570001486,2019-10-02 07:31:26.438,15166,2.1584686E1,0,13,0,65,41,
1570001546,2019-10-02 07:32:26.440,15166,2.1466034E1,0,11,0,55,40,
1570001606,2019-10-02 07:33:26.438,15208,2.1734344E1,0,15,0,56,45,
1570001666,2019-10-02 07:34:26.438,15166,2.1574005E1,0,10,0,65,43,
1570001726,2019-10-02 07:35:26.438,15166,2.1544067E1,0,11,0,62,39,
1570001786,2019-10-02 07:36:26.438,15208,2.1460663E1,0,11,0,59,40,
1570001846,2019-10-02 07:37:26.438,15194,2.1785675E1,0,8,0,54,41,
1570001906,2019-10-02 07:38:26.438,15032,2.1764282E1,0,4,0,60,39,
1570001966,2019-10-02 07:39:26.438,15194,2.16745E1,0,9,0,68,37,
1570002026,2019-10-02 07:40:26.438,15153,2.1693726E1,0,9,0,64,40,
1570002086,2019-10-02 07:41:26.438,15059,2.1720459E1,0,13,0,66,42,
1570002146,2019-10-02 07:42:26.438,15153,2.1972748E1,0,13,0,56,45,
1570002206,2019-10-02 07:43:26.438,15166,2.1723663E1,0,14,0,56,38,
1570002266,2019-10-02 07:44:26.440,15166,2.1783539E1,0,13,0,64,39,
1570002326,2019-10-02 07:45:26.438,15166,2.175467E1,0,9,0,64,47,
1570002386,2019-10-02 07:46:26.438,15221,2.173648E1,5,12,0,65,39,
1570002446,2019-10-02 07:47:26.438,15072,2.174826E1,0,11,0,61,43,
1570002506,2019-10-02 07:48:26.439,15166,2.1985596E1,0,10,0,59,37,
1570002566,2019-10-02 07:49:26.438,15153,2.1960999E1,0,13,0,64,39,
1570002626,2019-10-02 07:50:26.438,15153,2.1928925E1,0,13,0,64,43,
1570002686,2019-10-02 07:51:26.439,15153,2.1740753E1,0,6,0,73,39,
1570002746,2019-10-02 07:52:26.439,15153,2.2025146E1,0,8,0,64,46,
1570002806,2019-10-02 07:53:26.438,15166,2.2062561E1,0,15,0,73,46,
1570002866,2019-10-02 07:54:26.450,15181,2.1909668E1,0,2,0,64,43,
1570002926,2019-10-02 07:55:26.438,15181,2.2150208E1,0,23,0,64,45,
1570002986,2019-10-02 07:56:26.438,15181,2.1875458E1,0,10,0,64,45,
1570003046,2019-10-02 07:57:26.438,15181,2.2167328E1,0,12,0,55,45,
1570003106,2019-10-02 07:58:26.438,15181,2.1958862E1,0,10,0,54,47,
1570003166,2019-10-02 07:59:26.439,15181,2.2191925E1,0,11,0,63,47,
