Time(longsecs),Time(UTC),Supply Voltage(mV),Temperature(&deg;C),NMX Bus Current(mA),Sensor Current(mA),Serial Port Current(mA),Controller Current(mA),Digitizer Current(mA),
1570021226,2019-10-02 13:00:26.439,16454,3.839456E1,0,12,0,60,40,
1570021286,2019-10-02 13:01:26.438,16468,3.800757E1,0,10,0,59,43,
1570021346,2019-10-02 13:02:26.440,16441,3.8322937E1,0,11,0,60,43,
1570021406,2019-10-02 13:03:26.438,16468,3.8454437E1,0,16,0,51,42,
1570021466,2019-10-02 13:04:26.439,16454,3.8530334E1,0,9,0,57,43,
1570021526,2019-10-02 13:05:26.438,16156,3.8341125E1,0,11,0,61,44,
1570021586,2019-10-02 13:06:26.438,16089,3.848651E1,0,10,0,61,41,
1570021646,2019-10-02 13:07:26.438,16102,3.8536774E1,0,10,0,52,40,
1570021706,2019-10-02 13:08:26.438,16102,3.8546387E1,0,10,0,56,40,
1570021766,2019-10-02 13:09:26.439,16116,3.874951E1,0,9,0,60,47,
1570021826,2019-10-02 13:10:26.440,16116,3.8736664E1,0,11,0,60,41,
1570021886,2019-10-02 13:11:26.441,16129,3.8736664E1,0,9,0,61,41,
1570021946,2019-10-02 13:12:26.441,16156,3.853784E1,0,14,0,59,42,
1570022006,2019-10-02 13:13:26.438,16170,3.879013E1,0,10,0,52,40,
1570022066,2019-10-02 13:14:26.438,16143,3.860733E1,0,12,0,60,42,
1570022126,2019-10-02 13:15:26.438,16143,3.8462982E1,0,9,0,61,43,
1570022186,2019-10-02 13:16:26.438,16129,3.8667175E1,0,10,0,64,42,
1570022246,2019-10-02 13:17:26.438,16211,3.8839294E1,0,10,0,61,41,
1570022306,2019-10-02 13:18:26.438,16129,3.877301E1,0,9,0,52,42,
1570022366,2019-10-02 13:19:26.438,16183,3.884143E1,0,17,0,61,44,
1570022426,2019-10-02 13:20:26.438,16319,3.8797607E1,0,16,0,59,43,
1570022486,2019-10-02 13:21:26.438,16305,3.8731323E1,0,9,0,60,41,
1570022546,2019-10-02 13:22:26.439,16197,3.8580597E1,0,10,0,62,42,
1570022606,2019-10-02 13:23:26.438,16143,3.877945E1,0,11,0,60,42,
1570022666,2019-10-02 13:24:26.440,16481,3.859555E1,0,11,0,68,43,
1570022726,2019-10-02 13:25:26.438,16252,3.851538E1,0,11,0,68,46,
1570022786,2019-10-02 13:26:26.438,16468,3.8831818E1,0,7,0,61,44,
1570022846,2019-10-02 13:27:26.438,16428,3.864261E1,0,12,0,51,41,
1570022906,2019-10-02 13:28:26.438,16481,3.863617E1,0,10,0,51,45,
1570022966,2019-10-02 13:29:26.488,16481,3.861267E1,0,5,0,59,44,
1570023026,2019-10-02 13:30:26.439,16468,3.8514313E1,0,13,0,60,40,
1570023086,2019-10-02 13:31:26.477,16468,3.8852142E1,0,15,0,59,43,
1570023146,2019-10-02 13:32:26.438,16481,3.8539978E1,0,6,0,51,43,
1570023206,2019-10-02 13:33:26.438,16481,3.8582733E1,0,11,0,50,42,
1570023266,2019-10-02 13:34:26.438,16468,3.8650085E1,0,10,0,60,39,
1570023326,2019-10-02 13:35:26.438,16468,3.8529266E1,0,13,0,60,44,
1570023386,2019-10-02 13:36:26.438,16454,3.8569916E1,0,11,0,59,44,
1570023446,2019-10-02 13:37:26.438,16468,3.858914E1,0,10,0,61,44,
1570023506,2019-10-02 13:38:26.438,16481,3.865222E1,0,11,0,59,43,
1570023566,2019-10-02 13:39:26.440,16468,3.8387085E1,0,5,0,60,41,
1570023626,2019-10-02 13:40:26.438,16481,3.8717438E1,0,9,0,59,44,
1570023686,2019-10-02 13:41:26.441,16481,3.8614807E1,0,12,0,58,42,
1570023746,2019-10-02 13:42:26.438,16468,3.861908E1,0,11,0,51,43,
1570023806,2019-10-02 13:43:26.438,16468,3.8606262E1,0,11,0,52,40,
1570023866,2019-10-02 13:44:26.438,16468,3.861267E1,0,18,0,61,44,
1570023926,2019-10-02 13:45:26.438,16481,3.8524994E1,0,10,0,58,42,
1570023986,2019-10-02 13:46:26.438,16468,3.8806152E1,0,12,0,59,44,
1570024046,2019-10-02 13:47:26.438,16481,3.875592E1,0,10,0,50,42,
1570024106,2019-10-02 13:48:26.438,16509,3.8848938E1,0,4,0,60,40,
1570024166,2019-10-02 13:49:26.438,16468,3.880081E1,0,13,0,60,41,
1570024226,2019-10-02 13:50:26.438,16481,3.8930176E1,0,7,0,63,39,
1570024286,2019-10-02 13:51:26.438,16496,3.8976135E1,0,6,0,59,43,
1570024346,2019-10-02 13:52:26.438,16211,3.8677887E1,0,10,0,52,41,
1570024406,2019-10-02 13:53:26.438,16496,3.8783722E1,0,10,0,51,42,
1570024466,2019-10-02 13:54:26.438,16454,3.8827545E1,0,11,0,61,45,
1570024526,2019-10-02 13:55:26.438,16454,3.8890625E1,0,9,0,64,41,
1570024586,2019-10-02 13:56:26.438,16441,3.890451E1,0,7,0,61,42,
1570024646,2019-10-02 13:57:26.438,16481,3.8953705E1,0,10,0,50,40,
1570024706,2019-10-02 13:58:26.443,16481,3.8919495E1,0,2,0,55,43,
1570024766,2019-10-02 13:59:26.438,16468,3.9164307E1,0,6,0,59,39,
