Time(longsecs),Time(UTC),Earth Location,GPS Receiver Status,GPS Satellites Used,GPS PDOP,GPS TDOP,Timing Status,Timing Phase Lock,Timing Uncertainty(ns),DAC Count,Timing Error(ns),GPS Last Update Time,
1571306430,2019-10-17 10:00:30.925,47.638726N 0.549094E 175m,Off,11,1.3093407,0.67904365,Time OK,Free running,6500,8873,0,2019-10-17 09:54:47.000000000,
1571306490,2019-10-17 10:01:30.925,47.638726N 0.549094E 175m,Off,11,1.3093407,0.67904365,Time OK,Free running,7800,8873,0,2019-10-17 09:54:47.000000000,
1571306550,2019-10-17 10:02:30.938,47.638726N 0.549094E 175m,Off,11,1.3093407,0.67904365,Time OK,Free running,9100,8873,0,2019-10-17 09:54:47.000000000,
1571306610,2019-10-17 10:03:30.925,47.638726N 0.549094E 175m,Off,11,1.3093407,0.67904365,Time OK,Free running,10800,8873,0,2019-10-17 09:54:47.000000000,
1571306670,2019-10-17 10:04:30.925,47.638726N 0.549094E 175m,Off,11,1.3093407,0.67904365,Time OK,Free running,12600,8873,0,2019-10-17 09:54:47.000000000,
1571306730,2019-10-17 10:05:30.925,47.638726N 0.549094E 175m,Off,11,1.3093407,0.67904365,Time OK,Free running,14400,8873,0,2019-10-17 09:54:47.000000000,
1571306790,2019-10-17 10:06:30.925,47.638726N 0.549094E 175m,Off,11,1.3093407,0.67904365,Time OK,Free running,16500,8873,0,2019-10-17 09:54:47.000000000,
1571306850,2019-10-17 10:07:30.925,47.638726N 0.549094E 175m,Off,11,1.3093407,0.67904365,Time OK,Free running,18700,8873,0,2019-10-17 09:54:47.000000000,
1571306910,2019-10-17 10:08:30.927,47.638726N 0.549094E 175m,Off,11,1.3093407,0.67904365,Time OK,Free running,20900,8873,0,2019-10-17 09:54:47.000000000,
1571306970,2019-10-17 10:09:30.925,47.638726N 0.549094E 175m,Off,11,1.3093407,0.67904365,Time OK,Free running,23100,8873,0,2019-10-17 09:54:47.000000000,
1571307030,2019-10-17 10:10:30.925,47.638726N 0.549094E 175m,Off,11,1.3093407,0.67904365,Time OK,Free running,25500,8873,0,2019-10-17 09:54:47.000000000,
1571307090,2019-10-17 10:11:30.958,47.638726N 0.549094E 175m,Off,11,1.3093407,0.67904365,Time OK,Free running,27900,8873,0,2019-10-17 09:54:47.000000000,
1571307150,2019-10-17 10:12:30.925,47.638726N 0.549094E 175m,Off,11,1.3093407,0.67904365,Time OK,Free running,30700,8873,0,2019-10-17 09:54:47.000000000,
1571307210,2019-10-17 10:13:30.925,47.638726N 0.549094E 175m,Off,11,1.3093407,0.67904365,Time OK,Free running,33400,8873,0,2019-10-17 09:54:47.000000000,
1571307270,2019-10-17 10:14:30.925,47.638726N 0.549094E 175m,Off,11,1.3093407,0.67904365,Time OK,Free running,35900,8873,0,2019-10-17 09:54:47.000000000,
1571307330,2019-10-17 10:15:30.925,47.638726N 0.549094E 175m,Off,11,1.3093407,0.67904365,Time OK,Free running,38700,8873,0,2019-10-17 09:54:47.000000000,
1571307390,2019-10-17 10:16:30.963,47.638726N 0.549094E 175m,Off,11,1.3093407,0.67904365,Time OK,Free running,41600,8873,0,2019-10-17 09:54:47.000000000,
1571307450,2019-10-17 10:17:30.925,47.638726N 0.549094E 175m,Off,11,1.3093407,0.67904365,Time OK,Free running,44700,8873,0,2019-10-17 09:54:47.000000000,
1571307510,2019-10-17 10:18:30.925,47.638726N 0.549094E 175m,Off,11,1.3093407,0.67904365,Time OK,Free running,47900,8873,0,2019-10-17 09:54:47.000000000,
1571307570,2019-10-17 10:19:30.925,47.638726N 0.549094E 175m,Off,11,1.3093407,0.67904365,Time OK,Free running,51500,8873,0,2019-10-17 09:54:47.000000000,
1571307630,2019-10-17 10:20:30.925,47.638726N 0.549094E 175m,Doing fixes,11,1.3431102,0.709044,Time OK,Free running,55300,8873,163229,2019-10-17 10:20:28.000000000,
1571307690,2019-10-17 10:21:30.925,47.638726N 0.549094E 175m,Doing fixes,11,1.3423994,0.7083375,Time OK,Coarse lock,100,8455,-208,2019-10-17 10:21:28.000000000,
1571307750,2019-10-17 10:22:30.925,47.638726N 0.549094E 175m,Doing fixes,11,1.3415436,0.70750487,Time OK,Fine lock,100,8613,0,2019-10-17 10:22:28.000000000,
1571307810,2019-10-17 10:23:30.925,47.638726N 0.549094E 175m,Doing fixes,11,1.3404839,0.7064892,Time OK,Fine lock,100,8606,0,2019-10-17 10:23:28.000000000,
1571307870,2019-10-17 10:24:30.925,47.638726N 0.549094E 175m,Off,11,1.3393018,0.7053689,Time OK,Free running,100,8598,0,2019-10-17 10:24:28.000000000,
1571307930,2019-10-17 10:25:30.925,47.638726N 0.549094E 175m,Off,11,1.3393018,0.7053689,Time OK,Free running,1100,8598,0,2019-10-17 10:24:28.000000000,
1571307990,2019-10-17 10:26:30.925,47.638726N 0.549094E 175m,Off,11,1.3393018,0.7053689,Time OK,Free running,2500,8598,0,2019-10-17 10:24:28.000000000,
1571308050,2019-10-17 10:27:30.925,47.638726N 0.549094E 175m,Off,11,1.3393018,0.7053689,Time OK,Free running,4300,8598,0,2019-10-17 10:24:28.000000000,
1571308110,2019-10-17 10:28:30.925,47.638726N 0.549094E 175m,Off,11,1.3393018,0.7053689,Time OK,Free running,6000,8598,0,2019-10-17 10:24:28.000000000,
1571308170,2019-10-17 10:29:30.925,47.638726N 0.549094E 175m,Off,11,1.3393018,0.7053689,Time OK,Free running,8000,8598,0,2019-10-17 10:24:28.000000000,
1571308230,2019-10-17 10:30:30.925,47.638726N 0.549094E 175m,Off,11,1.3393018,0.7053689,Time OK,Free running,10100,8598,0,2019-10-17 10:24:28.000000000,
1571308290,2019-10-17 10:31:30.954,47.638726N 0.549094E 175m,Off,11,1.3393018,0.7053689,Time OK,Free running,11900,8598,0,2019-10-17 10:24:28.000000000,
1571308350,2019-10-17 10:32:30.927,47.638726N 0.549094E 175m,Off,11,1.3393018,0.7053689,Time OK,Free running,14000,8598,0,2019-10-17 10:24:28.000000000,
1571308410,2019-10-17 10:33:30.925,47.638726N 0.549094E 175m,Off,11,1.3393018,0.7053689,Time OK,Free running,16400,8598,0,2019-10-17 10:24:28.000000000,
1571308470,2019-10-17 10:34:30.925,47.638726N 0.549094E 175m,Off,11,1.3393018,0.7053689,Time OK,Free running,18900,8598,0,2019-10-17 10:24:28.000000000,
1571308530,2019-10-17 10:35:30.925,47.638726N 0.549094E 175m,Off,11,1.3393018,0.7053689,Time OK,Free running,21500,8598,0,2019-10-17 10:24:28.000000000,
1571308590,2019-10-17 10:36:30.925,47.638726N 0.549094E 175m,Off,11,1.3393018,0.7053689,Time OK,Free running,24200,8598,0,2019-10-17 10:24:28.000000000,
1571308650,2019-10-17 10:37:30.925,47.638726N 0.549094E 175m,Off,11,1.3393018,0.7053689,Time OK,Free running,26800,8598,0,2019-10-17 10:24:28.000000000,
1571308710,2019-10-17 10:38:30.925,47.638726N 0.549094E 175m,Off,11,1.3393018,0.7053689,Time OK,Free running,29500,8598,0,2019-10-17 10:24:28.000000000,
1571308770,2019-10-17 10:39:30.925,47.638726N 0.549094E 175m,Off,11,1.3393018,0.7053689,Time OK,Free running,32600,8598,0,2019-10-17 10:24:28.000000000,
1571308830,2019-10-17 10:40:30.925,47.638726N 0.549094E 175m,Off,11,1.3393018,0.7053689,Time OK,Free running,35800,8598,0,2019-10-17 10:24:28.000000000,
1571308890,2019-10-17 10:41:30.925,47.638726N 0.549094E 175m,Off,11,1.3393018,0.7053689,Time OK,Free running,39000,8598,0,2019-10-17 10:24:28.000000000,
1571308950,2019-10-17 10:42:30.925,47.638726N 0.549094E 175m,Off,11,1.3393018,0.7053689,Time OK,Free running,42600,8598,0,2019-10-17 10:24:28.000000000,
1571309010,2019-10-17 10:43:30.925,47.638726N 0.549094E 175m,Off,11,1.3393018,0.7053689,Time OK,Free running,46400,8598,0,2019-10-17 10:24:28.000000000,
1571309070,2019-10-17 10:44:30.925,47.638726N 0.549094E 175m,Off,11,1.3393018,0.7053689,Time OK,Free running,50000,8598,0,2019-10-17 10:24:28.000000000,
1571309130,2019-10-17 10:45:30.937,47.638726N 0.549094E 175m,Off,11,1.3393018,0.7053689,Time OK,Free running,53900,8598,0,2019-10-17 10:24:28.000000000,
1571309190,2019-10-17 10:46:30.925,47.638726N 0.549094E 175m,No GPS time,11,1.3393018,0.7053689,Time OK,Free running,57900,8598,0,2019-10-17 10:24:28.000000000,
1571309250,2019-10-17 10:47:30.925,47.638726N 0.549094E 175m,Doing fixes,12,1.1915511,0.58454406,Time OK,Fine lock,100,8583,-104,2019-10-17 10:47:27.000000000,
1571309310,2019-10-17 10:48:30.925,47.638726N 0.549094E 175m,Doing fixes,12,1.1895324,0.5827011,Time OK,Fine lock,100,8620,0,2019-10-17 10:48:27.000000000,
1571309370,2019-10-17 10:49:30.925,47.638726N 0.549094E 175m,Off,11,1.3608403,0.7044625,Time OK,Free running,600,8618,0,2019-10-17 10:48:47.000000000,
1571309430,2019-10-17 10:50:30.925,47.638726N 0.549094E 175m,Off,11,1.3608403,0.7044625,Time OK,Free running,1400,8618,0,2019-10-17 10:48:47.000000000,
1571309490,2019-10-17 10:51:30.925,47.638726N 0.549094E 175m,Off,11,1.3608403,0.7044625,Time OK,Free running,2500,8618,0,2019-10-17 10:48:47.000000000,
1571309550,2019-10-17 10:52:30.925,47.638726N 0.549094E 175m,Off,11,1.3608403,0.7044625,Time OK,Free running,3700,8618,0,2019-10-17 10:48:47.000000000,
1571309610,2019-10-17 10:53:30.925,47.638726N 0.549094E 175m,Off,11,1.3608403,0.7044625,Time OK,Free running,5100,8618,0,2019-10-17 10:48:47.000000000,
1571309670,2019-10-17 10:54:30.925,47.638726N 0.549094E 175m,Off,11,1.3608403,0.7044625,Time OK,Free running,6600,8618,0,2019-10-17 10:48:47.000000000,
1571309730,2019-10-17 10:55:30.925,47.638726N 0.549094E 175m,Off,11,1.3608403,0.7044625,Time OK,Free running,8200,8618,0,2019-10-17 10:48:47.000000000,
1571309790,2019-10-17 10:56:30.925,47.638726N 0.549094E 175m,Off,11,1.3608403,0.7044625,Time OK,Free running,10100,8618,0,2019-10-17 10:48:47.000000000,
1571309850,2019-10-17 10:57:30.957,47.638726N 0.549094E 175m,Off,11,1.3608403,0.7044625,Time OK,Free running,12500,8618,0,2019-10-17 10:48:47.000000000,
1571309910,2019-10-17 10:58:30.927,47.638726N 0.549094E 175m,Off,11,1.3608403,0.7044625,Time OK,Free running,14700,8618,0,2019-10-17 10:48:47.000000000,
1571309970,2019-10-17 10:59:30.925,47.638726N 0.549094E 175m,Off,11,1.3608403,0.7044625,Time OK,Free running,16600,8618,0,2019-10-17 10:48:47.000000000,
