Time(longsecs),Time(UTC),Supply Voltage(mV),Temperature(&deg;C),NMX Bus Current(mA),Sensor Current(mA),Serial Port Current(mA),Controller Current(mA),Digitizer Current(mA),
1571288430,2019-10-17 05:00:30.957,15858,1.7310577E1,0,9,0,40,41,
1571288490,2019-10-17 05:01:30.927,15858,1.7237885E1,0,11,0,40,39,
1571288550,2019-10-17 05:02:30.925,15845,1.7082886E1,0,9,0,41,44,
1571288610,2019-10-17 05:03:30.925,15845,1.717694E1,0,9,0,42,40,
1571288670,2019-10-17 05:04:30.960,15858,1.738971E1,0,10,0,36,38,
1571288730,2019-10-17 05:05:30.925,15845,1.71716E1,0,15,0,42,42,
1571288790,2019-10-17 05:06:30.925,15845,1.719513E1,0,11,0,41,37,
1571288850,2019-10-17 05:07:30.925,15845,1.7403595E1,0,12,0,41,38,
1571288910,2019-10-17 05:08:30.925,15845,1.739505E1,0,10,0,36,34,
1571288970,2019-10-17 05:09:30.925,15845,1.7030487E1,0,9,0,36,35,
1571289030,2019-10-17 05:10:30.925,15858,1.7256073E1,0,6,0,42,39,
1571289090,2019-10-17 05:11:30.925,15845,1.7291351E1,0,11,0,42,37,
1571289150,2019-10-17 05:12:30.925,15858,1.7191925E1,0,10,0,41,37,
1571289210,2019-10-17 05:13:30.925,15845,1.7228271E1,0,13,0,36,40,
1571289270,2019-10-17 05:14:30.927,15858,1.7226135E1,0,8,0,36,36,
1571289330,2019-10-17 05:15:30.925,15845,1.7381134E1,0,6,0,42,40,
1571289390,2019-10-17 05:16:30.925,15845,1.722934E1,0,10,0,42,37,
1571289450,2019-10-17 05:17:30.925,15845,1.714273E1,0,10,0,40,35,
1571289510,2019-10-17 05:18:30.925,15845,1.720581E1,0,4,0,35,37,
1571289570,2019-10-17 05:19:30.925,15845,1.722293E1,0,9,0,45,38,
1571289630,2019-10-17 05:20:30.964,15845,1.7029419E1,0,3,0,49,35,
1571289690,2019-10-17 05:21:30.925,15845,1.7058289E1,0,8,0,35,39,
1571289750,2019-10-17 05:22:30.925,15845,1.7041168E1,0,5,0,40,37,
1571289810,2019-10-17 05:23:30.925,15845,1.7054016E1,0,8,0,35,36,
1571289870,2019-10-17 05:24:30.927,15858,1.7260345E1,0,5,0,38,37,
1571289930,2019-10-17 05:25:30.925,15845,1.7052948E1,0,10,0,41,37,
1571289990,2019-10-17 05:26:30.925,15845,1.7098907E1,0,9,0,42,36,
1571290050,2019-10-17 05:27:30.957,15845,1.7039032E1,0,14,0,42,36,
1571290110,2019-10-17 05:28:30.925,15845,1.7272095E1,0,11,0,35,37,
1571290170,2019-10-17 05:29:30.925,15845,1.7266754E1,0,11,0,36,36,
1571290230,2019-10-17 05:30:30.925,15845,1.7054016E1,0,9,0,41,40,
1571290290,2019-10-17 05:31:30.925,15845,1.720581E1,0,9,0,41,38,
1571290350,2019-10-17 05:32:30.925,15845,1.6984528E1,0,11,0,35,38,
1571290410,2019-10-17 05:33:30.925,15845,1.7341583E1,0,6,0,35,36,
1571290470,2019-10-17 05:34:30.925,15845,1.7065765E1,0,11,0,36,37,
1571290530,2019-10-17 05:35:30.925,15831,1.7106384E1,0,13,0,40,39,
1571290590,2019-10-17 05:36:30.927,15845,1.7262482E1,0,9,0,41,38,
1571290650,2019-10-17 05:37:30.925,15845,1.7112823E1,0,11,0,40,37,
1571290710,2019-10-17 05:38:30.925,15831,1.7035828E1,0,16,0,42,38,
1571290770,2019-10-17 05:39:30.925,15845,1.7213287E1,0,13,0,36,37,
1571290830,2019-10-17 05:40:30.927,15845,1.7262482E1,0,10,0,41,38,
1571290890,2019-10-17 05:41:30.925,15831,1.7055084E1,0,10,0,41,35,
1571290950,2019-10-17 05:42:30.925,15831,1.7339447E1,0,11,0,42,37,
1571291010,2019-10-17 05:43:30.925,15845,1.7220795E1,0,13,0,35,36,
1571291070,2019-10-17 05:44:30.925,15845,1.7112823E1,0,10,0,35,38,
1571291130,2019-10-17 05:45:30.925,15831,1.7168396E1,0,10,0,36,35,
1571291190,2019-10-17 05:46:30.925,15831,1.7082886E1,0,9,0,42,39,
1571291250,2019-10-17 05:47:30.925,15831,1.7135254E1,0,8,0,41,37,
1571291310,2019-10-17 05:48:30.925,15845,1.711496E1,0,10,0,37,37,
1571291370,2019-10-17 05:49:30.925,15831,1.7065765E1,0,7,0,44,37,
1571291430,2019-10-17 05:50:30.925,15831,1.7250732E1,0,11,0,41,38,
1571291490,2019-10-17 05:51:30.954,15831,1.724643E1,0,9,0,36,42,
1571291550,2019-10-17 05:52:30.925,15831,1.71203E1,0,7,53,41,37,
1571291610,2019-10-17 05:53:30.925,15845,1.7106384E1,0,10,0,35,42,
1571291670,2019-10-17 05:54:30.925,15831,1.694284E1,0,6,0,35,37,
1571291730,2019-10-17 05:55:30.925,15831,1.709143E1,0,13,0,41,39,
1571291790,2019-10-17 05:56:30.925,15831,1.7011261E1,0,15,0,42,39,
1571291850,2019-10-17 05:57:30.925,15831,1.724002E1,0,8,0,40,36,
1571291910,2019-10-17 05:58:30.927,15831,1.7170532E1,0,11,0,35,40,
1571291970,2019-10-17 05:59:30.925,15831,1.6711914E1,0,9,0,39,38,
