Time(longsecs),Time(UTC),GPS Satellite Acquisition Flag 1,GPS Satellite Acquisition Flag 2,GPS Satellite Acquisition Flag 3,GPS Satellite Acquisition Flag 4,GPS Satellite Acquisition Flag 5,GPS Satellite Acquisition Flag 6,GPS Satellite Acquisition Flag 7,GPS Satellite Acquisition Flag 8,GPS Satellite Acquisition Flag 9,GPS Satellite Acquisition Flag 10,GPS Satellite Acquisition Flag 11,GPS Satellite Acquisition Flag 12,GPS Satellite Azimuth 1(Degrees),GPS Satellite Azimuth 2(Degrees),GPS Satellite Azimuth 3(Degrees),GPS Satellite Azimuth 4(Degrees),GPS Satellite Azimuth 5(Degrees),GPS Satellite Azimuth 6(Degrees),GPS Satellite Azimuth 7(Degrees),GPS Satellite Azimuth 8(Degrees),GPS Satellite Azimuth 9(Degrees),GPS Satellite Azimuth 10(Degrees),GPS Satellite Azimuth 11(Degrees),GPS Satellite Azimuth 12(Degrees),GPS Satellite Elevation 1(Degrees),GPS Satellite Elevation 2(Degrees),GPS Satellite Elevation 3(Degrees),GPS Satellite Elevation 4(Degrees),GPS Satellite Elevation 5(Degrees),GPS Satellite Elevation 6(Degrees),GPS Satellite Elevation 7(Degrees),GPS Satellite Elevation 8(Degrees),GPS Satellite Elevation 9(Degrees),GPS Satellite Elevation 10(Degrees),GPS Satellite Elevation 11(Degrees),GPS Satellite Elevation 12(Degrees),GPS Satellite PRN 1,GPS Satellite PRN 2,GPS Satellite PRN 3,GPS Satellite PRN 4,GPS Satellite PRN 5,GPS Satellite PRN 6,GPS Satellite PRN 7,GPS Satellite PRN 8,GPS Satellite PRN 9,GPS Satellite PRN 10,GPS Satellite PRN 11,GPS Satellite PRN 12,GPS Satellite Signal Level 1(AMU),GPS Satellite Signal Level 2(AMU),GPS Satellite Signal Level 3(AMU),GPS Satellite Signal Level 4(AMU),GPS Satellite Signal Level 5(AMU),GPS Satellite Signal Level 6(AMU),GPS Satellite Signal Level 7(AMU),GPS Satellite Signal Level 8(AMU),GPS Satellite Signal Level 9(AMU),GPS Satellite Signal Level 10(AMU),GPS Satellite Signal Level 11(AMU),GPS Satellite Signal Level 12(AMU),
1571288422,2019-10-17 05:00:22.352,Acquired,Not acquired,Acquired,Acquired,Acquired,Acquired,Acquired,Not acquired,Not acquired,,,,3.0239648E2,1.45829504E2,1.33478824E2,2.5932550399999997E2,2.6508401599999996E2,7.109861599999999E1,1.99953792E2,3.4418152E1,1.29234464E2,,,,5.3674879999999995E1,1.5451794999999999E1,7.1855504E1,8.0598608E1,2.3455963999999998E1,3.0390542E1,2.5412104E1,1.1246164E1,5.949739999999999E0,,,,16,20,21,26,27,29,31,5,25,,,,8,1,13,15,2,4,11,0,0,,,,
1571288482,2019-10-17 05:01:22.352,Acquired,Not acquired,Acquired,Acquired,Acquired,Acquired,Acquired,Not acquired,Not acquired,,,,3.0239648E2,1.45829504E2,1.33478824E2,2.5932550399999997E2,2.6508401599999996E2,7.109861599999999E1,1.99953792E2,3.4418152E1,1.29234464E2,,,,5.3674879999999995E1,1.5451794999999999E1,7.1855504E1,8.0598608E1,2.3455963999999998E1,3.0390542E1,2.5412104E1,1.1246164E1,5.949739999999999E0,,,,16,20,21,26,27,29,31,5,25,,,,8,1,13,15,2,4,11,0,0,,,,
1571288542,2019-10-17 05:02:22.352,Acquired,Not acquired,Acquired,Acquired,Acquired,Acquired,Acquired,Not acquired,Not acquired,,,,3.0239648E2,1.45829504E2,1.33478824E2,2.5932550399999997E2,2.6508401599999996E2,7.109861599999999E1,1.99953792E2,3.4418152E1,1.29234464E2,,,,5.3674879999999995E1,1.5451794999999999E1,7.1855504E1,8.0598608E1,2.3455963999999998E1,3.0390542E1,2.5412104E1,1.1246164E1,5.949739999999999E0,,,,16,20,21,26,27,29,31,5,25,,,,8,1,13,15,2,4,11,0,0,,,,
1571288602,2019-10-17 05:03:22.354,Acquired,Not acquired,Acquired,Acquired,Acquired,Acquired,Acquired,Not acquired,Not acquired,,,,3.0239648E2,1.45829504E2,1.33478824E2,2.5932550399999997E2,2.6508401599999996E2,7.109861599999999E1,1.99953792E2,3.4418152E1,1.29234464E2,,,,5.3674879999999995E1,1.5451794999999999E1,7.1855504E1,8.0598608E1,2.3455963999999998E1,3.0390542E1,2.5412104E1,1.1246164E1,5.949739999999999E0,,,,16,20,21,26,27,29,31,5,25,,,,8,1,13,15,2,4,11,0,0,,,,
1571288662,2019-10-17 05:04:22.352,Acquired,Not acquired,Acquired,Acquired,Acquired,Acquired,Acquired,Not acquired,Not acquired,,,,3.0239648E2,1.45829504E2,1.33478824E2,2.5932550399999997E2,2.6508401599999996E2,7.109861599999999E1,1.99953792E2,3.4418152E1,1.29234464E2,,,,5.3674879999999995E1,1.5451794999999999E1,7.1855504E1,8.0598608E1,2.3455963999999998E1,3.0390542E1,2.5412104E1,1.1246164E1,5.949739999999999E0,,,,16,20,21,26,27,29,31,5,25,,,,8,1,13,15,2,4,11,0,0,,,,
1571288722,2019-10-17 05:05:22.352,Acquired,Not acquired,Acquired,Acquired,Acquired,Acquired,Acquired,Not acquired,Not acquired,,,,3.0239648E2,1.45829504E2,1.33478824E2,2.5932550399999997E2,2.6508401599999996E2,7.109861599999999E1,1.99953792E2,3.4418152E1,1.29234464E2,,,,5.3674879999999995E1,1.5451794999999999E1,7.1855504E1,8.0598608E1,2.3455963999999998E1,3.0390542E1,2.5412104E1,1.1246164E1,5.949739999999999E0,,,,16,20,21,26,27,29,31,5,25,,,,8,1,13,15,2,4,11,0,0,,,,
1571288782,2019-10-17 05:06:22.361,Acquired,Not acquired,Acquired,Acquired,Acquired,Acquired,Acquired,Not acquired,Not acquired,,,,3.0239648E2,1.45829504E2,1.33478824E2,2.5932550399999997E2,2.6508401599999996E2,7.109861599999999E1,1.99953792E2,3.4418152E1,1.29234464E2,,,,5.3674879999999995E1,1.5451794999999999E1,7.1855504E1,8.0598608E1,2.3455963999999998E1,3.0390542E1,2.5412104E1,1.1246164E1,5.949739999999999E0,,,,16,20,21,26,27,29,31,5,25,,,,8,1,13,15,2,4,11,0,0,,,,
1571288842,2019-10-17 05:07:22.352,Acquired,Not acquired,Acquired,Acquired,Acquired,Acquired,Acquired,Not acquired,Not acquired,,,,3.0239648E2,1.45829504E2,1.33478824E2,2.5932550399999997E2,2.6508401599999996E2,7.109861599999999E1,1.99953792E2,3.4418152E1,1.29234464E2,,,,5.3674879999999995E1,1.5451794999999999E1,7.1855504E1,8.0598608E1,2.3455963999999998E1,3.0390542E1,2.5412104E1,1.1246164E1,5.949739999999999E0,,,,16,20,21,26,27,29,31,5,25,,,,8,1,13,15,2,4,11,0,0,,,,
1571288902,2019-10-17 05:08:22.352,Acquired,Not acquired,Acquired,Acquired,Acquired,Acquired,Acquired,Not acquired,Not acquired,,,,3.0239648E2,1.45829504E2,1.33478824E2,2.5932550399999997E2,2.6508401599999996E2,7.109861599999999E1,1.99953792E2,3.4418152E1,1.29234464E2,,,,5.3674879999999995E1,1.5451794999999999E1,7.1855504E1,8.0598608E1,2.3455963999999998E1,3.0390542E1,2.5412104E1,1.1246164E1,5.949739999999999E0,,,,16,20,21,26,27,29,31,5,25,,,,8,1,13,15,2,4,11,0,0,,,,
1571288962,2019-10-17 05:09:22.384,Acquired,Not acquired,Acquired,Acquired,Acquired,Acquired,Acquired,Not acquired,Not acquired,,,,3.0239648E2,1.45829504E2,1.33478824E2,2.5932550399999997E2,2.6508401599999996E2,7.109861599999999E1,1.99953792E2,3.4418152E1,1.29234464E2,,,,5.3674879999999995E1,1.5451794999999999E1,7.1855504E1,8.0598608E1,2.3455963999999998E1,3.0390542E1,2.5412104E1,1.1246164E1,5.949739999999999E0,,,,16,20,21,26,27,29,31,5,25,,,,8,1,13,15,2,4,11,0,0,,,,
1571289022,2019-10-17 05:10:22.352,Acquired,Not acquired,Acquired,Acquired,Acquired,Acquired,Acquired,Not acquired,Not acquired,,,,3.0239648E2,1.45829504E2,1.33478824E2,2.5932550399999997E2,2.6508401599999996E2,7.109861599999999E1,1.99953792E2,3.4418152E1,1.29234464E2,,,,5.3674879999999995E1,1.5451794999999999E1,7.1855504E1,8.0598608E1,2.3455963999999998E1,3.0390542E1,2.5412104E1,1.1246164E1,5.949739999999999E0,,,,16,20,21,26,27,29,31,5,25,,,,8,1,13,15,2,4,11,0,0,,,,
1571289082,2019-10-17 05:11:22.352,Acquired,Not acquired,Acquired,Acquired,Acquired,Acquired,Acquired,Not acquired,Not acquired,,,,3.0239648E2,1.45829504E2,1.33478824E2,2.5932550399999997E2,2.6508401599999996E2,7.109861599999999E1,1.99953792E2,3.4418152E1,1.29234464E2,,,,5.3674879999999995E1,1.5451794999999999E1,7.1855504E1,8.0598608E1,2.3455963999999998E1,3.0390542E1,2.5412104E1,1.1246164E1,5.949739999999999E0,,,,16,20,21,26,27,29,31,5,25,,,,8,1,13,15,2,4,11,0,0,,,,
1571289142,2019-10-17 05:12:22.352,Acquired,Not acquired,Acquired,Acquired,Acquired,Acquired,Acquired,Not acquired,Not acquired,,,,3.0239648E2,1.45829504E2,1.33478824E2,2.5932550399999997E2,2.6508401599999996E2,7.109861599999999E1,1.99953792E2,3.4418152E1,1.29234464E2,,,,5.3674879999999995E1,1.5451794999999999E1,7.1855504E1,8.0598608E1,2.3455963999999998E1,3.0390542E1,2.5412104E1,1.1246164E1,5.949739999999999E0,,,,16,20,21,26,27,29,31,5,25,,,,8,1,13,15,2,4,11,0,0,,,,
1571289202,2019-10-17 05:13:22.352,Acquired,Not acquired,Acquired,Acquired,Acquired,Acquired,Acquired,Not acquired,Not acquired,,,,3.0239648E2,1.45829504E2,1.33478824E2,2.5932550399999997E2,2.6508401599999996E2,7.109861599999999E1,1.99953792E2,3.4418152E1,1.29234464E2,,,,5.3674879999999995E1,1.5451794999999999E1,7.1855504E1,8.0598608E1,2.3455963999999998E1,3.0390542E1,2.5412104E1,1.1246164E1,5.949739999999999E0,,,,16,20,21,26,27,29,31,5,25,,,,8,1,13,15,2,4,11,0,0,,,,
1571289262,2019-10-17 05:14:22.352,Acquired,Not acquired,Acquired,Acquired,Acquired,Acquired,Acquired,Not acquired,Not acquired,,,,3.0239648E2,1.45829504E2,1.33478824E2,2.5932550399999997E2,2.6508401599999996E2,7.109861599999999E1,1.99953792E2,3.4418152E1,1.29234464E2,,,,5.3674879999999995E1,1.5451794999999999E1,7.1855504E1,8.0598608E1,2.3455963999999998E1,3.0390542E1,2.5412104E1,1.1246164E1,5.949739999999999E0,,,,16,20,21,26,27,29,31,5,25,,,,8,1,13,15,2,4,11,0,0,,,,
1571289322,2019-10-17 05:15:22.352,Acquired,Not acquired,Acquired,Acquired,Acquired,Acquired,Acquired,Not acquired,Not acquired,,,,3.0239648E2,1.45829504E2,1.33478824E2,2.5932550399999997E2,2.6508401599999996E2,7.109861599999999E1,1.99953792E2,3.4418152E1,1.29234464E2,,,,5.3674879999999995E1,1.5451794999999999E1,7.1855504E1,8.0598608E1,2.3455963999999998E1,3.0390542E1,2.5412104E1,1.1246164E1,5.949739999999999E0,,,,16,20,21,26,27,29,31,5,25,,,,8,1,13,15,2,4,11,0,0,,,,
1571289382,2019-10-17 05:16:22.352,Acquired,Not acquired,Acquired,Acquired,Acquired,Acquired,Acquired,Not acquired,Not acquired,,,,3.0239648E2,1.45829504E2,1.33478824E2,2.5932550399999997E2,2.6508401599999996E2,7.109861599999999E1,1.99953792E2,3.4418152E1,1.29234464E2,,,,5.3674879999999995E1,1.5451794999999999E1,7.1855504E1,8.0598608E1,2.3455963999999998E1,3.0390542E1,2.5412104E1,1.1246164E1,5.949739999999999E0,,,,16,20,21,26,27,29,31,5,25,,,,8,1,13,15,2,4,11,0,0,,,,
1571289442,2019-10-17 05:17:22.352,Acquired,Not acquired,Acquired,Acquired,Acquired,Acquired,Acquired,Not acquired,Not acquired,,,,3.0239648E2,1.45829504E2,1.33478824E2,2.5932550399999997E2,2.6508401599999996E2,7.109861599999999E1,1.99953792E2,3.4418152E1,1.29234464E2,,,,5.3674879999999995E1,1.5451794999999999E1,7.1855504E1,8.0598608E1,2.3455963999999998E1,3.0390542E1,2.5412104E1,1.1246164E1,5.949739999999999E0,,,,16,20,21,26,27,29,31,5,25,,,,8,1,13,15,2,4,11,0,0,,,,
1571289502,2019-10-17 05:18:22.352,Acquired,Not acquired,Acquired,Acquired,Acquired,Acquired,Acquired,Not acquired,Not acquired,,,,3.0239648E2,1.45829504E2,1.33478824E2,2.5932550399999997E2,2.6508401599999996E2,7.109861599999999E1,1.99953792E2,3.4418152E1,1.29234464E2,,,,5.3674879999999995E1,1.5451794999999999E1,7.1855504E1,8.0598608E1,2.3455963999999998E1,3.0390542E1,2.5412104E1,1.1246164E1,5.949739999999999E0,,,,16,20,21,26,27,29,31,5,25,,,,8,1,13,15,2,4,11,0,0,,,,
1571289562,2019-10-17 05:19:22.379,Acquired,Not acquired,Acquired,Acquired,Acquired,Acquired,Acquired,Not acquired,Not acquired,,,,3.0239648E2,1.45829504E2,1.33478824E2,2.5932550399999997E2,2.6508401599999996E2,7.109861599999999E1,1.99953792E2,3.4418152E1,1.29234464E2,,,,5.3674879999999995E1,1.5451794999999999E1,7.1855504E1,8.0598608E1,2.3455963999999998E1,3.0390542E1,2.5412104E1,1.1246164E1,5.949739999999999E0,,,,16,20,21,26,27,29,31,5,25,,,,8,1,13,15,2,4,11,0,0,,,,
1571289622,2019-10-17 05:20:22.352,Acquired,Not acquired,Acquired,Acquired,Acquired,Acquired,Acquired,Not acquired,Not acquired,,,,3.0239648E2,1.45829504E2,1.33478824E2,2.5932550399999997E2,2.6508401599999996E2,7.109861599999999E1,1.99953792E2,3.4418152E1,1.29234464E2,,,,5.3674879999999995E1,1.5451794999999999E1,7.1855504E1,8.0598608E1,2.3455963999999998E1,3.0390542E1,2.5412104E1,1.1246164E1,5.949739999999999E0,,,,16,20,21,26,27,29,31,5,25,,,,8,1,13,15,2,4,11,0,0,,,,
1571289682,2019-10-17 05:21:22.352,Acquired,Not acquired,Acquired,Acquired,Acquired,Acquired,Acquired,Not acquired,Not acquired,,,,3.0239648E2,1.45829504E2,1.33478824E2,2.5932550399999997E2,2.6508401599999996E2,7.109861599999999E1,1.99953792E2,3.4418152E1,1.29234464E2,,,,5.3674879999999995E1,1.5451794999999999E1,7.1855504E1,8.0598608E1,2.3455963999999998E1,3.0390542E1,2.5412104E1,1.1246164E1,5.949739999999999E0,,,,16,20,21,26,27,29,31,5,25,,,,8,1,13,15,2,4,11,0,0,,,,
1571289742,2019-10-17 05:22:22.352,Acquired,Not acquired,Acquired,Acquired,Acquired,Acquired,Acquired,Not acquired,Not acquired,,,,3.0239648E2,1.45829504E2,1.33478824E2,2.5932550399999997E2,2.6508401599999996E2,7.109861599999999E1,1.99953792E2,3.4418152E1,1.29234464E2,,,,5.3674879999999995E1,1.5451794999999999E1,7.1855504E1,8.0598608E1,2.3455963999999998E1,3.0390542E1,2.5412104E1,1.1246164E1,5.949739999999999E0,,,,16,20,21,26,27,29,31,5,25,,,,8,1,13,15,2,4,11,0,0,,,,
1571289802,2019-10-17 05:23:22.352,Acquired,Acquired,,Acquired,Acquired,Acquired,Acquired,Acquired,,,,,2.90947744E2,1.3576430399999998E2,,1.7916651199999998E2,2.76820736E2,8.094124E1,1.55981776E2,1.9456963199999998E2,,,,,7.1196944E1,3.0223416E1,,7.1776256E1,3.8527792E1,1.5836699E1,1.104011E1,9.252907E0,,,,,16,20,,26,27,29,10,31,,,,,10,6,,15,5,1,1,4,,,,,
1571289862,2019-10-17 05:24:22.352,Acquired,Acquired,,Acquired,Acquired,Acquired,Acquired,Acquired,,,,,2.90947744E2,1.3576430399999998E2,,1.7916651199999998E2,2.76820736E2,8.094124E1,1.55981776E2,1.9456963199999998E2,,,,,7.1196944E1,3.0223416E1,,7.1776256E1,3.8527792E1,1.5836699E1,1.104011E1,9.252907E0,,,,,16,20,,26,27,29,10,31,,,,,10,6,,15,5,1,1,4,,,,,
1571289922,2019-10-17 05:25:22.354,Acquired,Acquired,,Acquired,Acquired,Acquired,Acquired,Acquired,,,,,2.90947744E2,1.3576430399999998E2,,1.7916651199999998E2,2.76820736E2,8.094124E1,1.55981776E2,1.9456963199999998E2,,,,,7.1196944E1,3.0223416E1,,7.1776256E1,3.8527792E1,1.5836699E1,1.104011E1,9.252907E0,,,,,16,20,,26,27,29,10,31,,,,,10,6,,15,5,1,1,4,,,,,
1571289982,2019-10-17 05:26:22.352,Acquired,Acquired,,Acquired,Acquired,Acquired,Acquired,Acquired,,,,,2.90947744E2,1.3576430399999998E2,,1.7916651199999998E2,2.76820736E2,8.094124E1,1.55981776E2,1.9456963199999998E2,,,,,7.1196944E1,3.0223416E1,,7.1776256E1,3.8527792E1,1.5836699E1,1.104011E1,9.252907E0,,,,,16,20,,26,27,29,10,31,,,,,10,6,,15,5,1,1,4,,,,,
1571290042,2019-10-17 05:27:22.352,Acquired,Acquired,,Acquired,Acquired,Acquired,Acquired,Acquired,,,,,2.90947744E2,1.3576430399999998E2,,1.7916651199999998E2,2.76820736E2,8.094124E1,1.55981776E2,1.9456963199999998E2,,,,,7.1196944E1,3.0223416E1,,7.1776256E1,3.8527792E1,1.5836699E1,1.104011E1,9.252907E0,,,,,16,20,,26,27,29,10,31,,,,,10,6,,15,5,1,1,4,,,,,
1571290102,2019-10-17 05:28:22.352,Acquired,Acquired,,Acquired,Acquired,Acquired,Acquired,Acquired,,,,,2.90947744E2,1.3576430399999998E2,,1.7916651199999998E2,2.76820736E2,8.094124E1,1.55981776E2,1.9456963199999998E2,,,,,7.1196944E1,3.0223416E1,,7.1776256E1,3.8527792E1,1.5836699E1,1.104011E1,9.252907E0,,,,,16,20,,26,27,29,10,31,,,,,10,6,,15,5,1,1,4,,,,,
1571290162,2019-10-17 05:29:22.352,Acquired,Acquired,,Acquired,Acquired,Acquired,Acquired,Acquired,,,,,2.90947744E2,1.3576430399999998E2,,1.7916651199999998E2,2.76820736E2,8.094124E1,1.55981776E2,1.9456963199999998E2,,,,,7.1196944E1,3.0223416E1,,7.1776256E1,3.8527792E1,1.5836699E1,1.104011E1,9.252907E0,,,,,16,20,,26,27,29,10,31,,,,,10,6,,15,5,1,1,4,,,,,
1571290222,2019-10-17 05:30:22.352,Acquired,Acquired,,Acquired,Acquired,Acquired,Acquired,Acquired,,,,,2.90947744E2,1.3576430399999998E2,,1.7916651199999998E2,2.76820736E2,8.094124E1,1.55981776E2,1.9456963199999998E2,,,,,7.1196944E1,3.0223416E1,,7.1776256E1,3.8527792E1,1.5836699E1,1.104011E1,9.252907E0,,,,,16,20,,26,27,29,10,31,,,,,10,6,,15,5,1,1,4,,,,,
1571290282,2019-10-17 05:31:22.385,Acquired,Acquired,,Acquired,Acquired,Acquired,Acquired,Acquired,,,,,2.90947744E2,1.3576430399999998E2,,1.7916651199999998E2,2.76820736E2,8.094124E1,1.55981776E2,1.9456963199999998E2,,,,,7.1196944E1,3.0223416E1,,7.1776256E1,3.8527792E1,1.5836699E1,1.104011E1,9.252907E0,,,,,16,20,,26,27,29,10,31,,,,,10,6,,15,5,1,1,4,,,,,
1571290342,2019-10-17 05:32:22.352,Acquired,Acquired,,Acquired,Acquired,Acquired,Acquired,Acquired,,,,,2.90947744E2,1.3576430399999998E2,,1.7916651199999998E2,2.76820736E2,8.094124E1,1.55981776E2,1.9456963199999998E2,,,,,7.1196944E1,3.0223416E1,,7.1776256E1,3.8527792E1,1.5836699E1,1.104011E1,9.252907E0,,,,,16,20,,26,27,29,10,31,,,,,10,6,,15,5,1,1,4,,,,,
1571290402,2019-10-17 05:33:22.352,Acquired,Acquired,,Acquired,Acquired,Acquired,Acquired,Acquired,,,,,2.90947744E2,1.3576430399999998E2,,1.7916651199999998E2,2.76820736E2,8.094124E1,1.55981776E2,1.9456963199999998E2,,,,,7.1196944E1,3.0223416E1,,7.1776256E1,3.8527792E1,1.5836699E1,1.104011E1,9.252907E0,,,,,16,20,,26,27,29,10,31,,,,,10,6,,15,5,1,1,4,,,,,
1571290462,2019-10-17 05:34:22.354,Acquired,Acquired,,Acquired,Acquired,Acquired,Acquired,Acquired,,,,,2.90947744E2,1.3576430399999998E2,,1.7916651199999998E2,2.76820736E2,8.094124E1,1.55981776E2,1.9456963199999998E2,,,,,7.1196944E1,3.0223416E1,,7.1776256E1,3.8527792E1,1.5836699E1,1.104011E1,9.252907E0,,,,,16,20,,26,27,29,10,31,,,,,10,6,,15,5,1,1,4,,,,,
1571290522,2019-10-17 05:35:22.352,Acquired,Acquired,,Acquired,Acquired,Acquired,Acquired,Acquired,,,,,2.90947744E2,1.3576430399999998E2,,1.7916651199999998E2,2.76820736E2,8.094124E1,1.55981776E2,1.9456963199999998E2,,,,,7.1196944E1,3.0223416E1,,7.1776256E1,3.8527792E1,1.5836699E1,1.104011E1,9.252907E0,,,,,16,20,,26,27,29,10,31,,,,,10,6,,15,5,1,1,4,,,,,
1571290582,2019-10-17 05:36:22.352,Acquired,Acquired,,Acquired,Acquired,Acquired,Acquired,Acquired,,,,,2.90947744E2,1.3576430399999998E2,,1.7916651199999998E2,2.76820736E2,8.094124E1,1.55981776E2,1.9456963199999998E2,,,,,7.1196944E1,3.0223416E1,,7.1776256E1,3.8527792E1,1.5836699E1,1.104011E1,9.252907E0,,,,,16,20,,26,27,29,10,31,,,,,10,6,,15,5,1,1,4,,,,,
1571290642,2019-10-17 05:37:22.352,Acquired,Acquired,,Acquired,Acquired,Acquired,Acquired,Acquired,,,,,2.90947744E2,1.3576430399999998E2,,1.7916651199999998E2,2.76820736E2,8.094124E1,1.55981776E2,1.9456963199999998E2,,,,,7.1196944E1,3.0223416E1,,7.1776256E1,3.8527792E1,1.5836699E1,1.104011E1,9.252907E0,,,,,16,20,,26,27,29,10,31,,,,,10,6,,15,5,1,1,4,,,,,
1571290702,2019-10-17 05:38:22.355,Acquired,Acquired,,Acquired,Acquired,Acquired,Acquired,Acquired,,,,,2.90947744E2,1.3576430399999998E2,,1.7916651199999998E2,2.76820736E2,8.094124E1,1.55981776E2,1.9456963199999998E2,,,,,7.1196944E1,3.0223416E1,,7.1776256E1,3.8527792E1,1.5836699E1,1.104011E1,9.252907E0,,,,,16,20,,26,27,29,10,31,,,,,10,6,,15,5,1,1,4,,,,,
1571290762,2019-10-17 05:39:22.352,Acquired,Acquired,,Acquired,Acquired,Acquired,Acquired,Acquired,,,,,2.90947744E2,1.3576430399999998E2,,1.7916651199999998E2,2.76820736E2,8.094124E1,1.55981776E2,1.9456963199999998E2,,,,,7.1196944E1,3.0223416E1,,7.1776256E1,3.8527792E1,1.5836699E1,1.104011E1,9.252907E0,,,,,16,20,,26,27,29,10,31,,,,,10,6,,15,5,1,1,4,,,,,
1571290822,2019-10-17 05:40:22.352,Acquired,Acquired,,Acquired,Acquired,Acquired,Acquired,Acquired,,,,,2.90947744E2,1.3576430399999998E2,,1.7916651199999998E2,2.76820736E2,8.094124E1,1.55981776E2,1.9456963199999998E2,,,,,7.1196944E1,3.0223416E1,,7.1776256E1,3.8527792E1,1.5836699E1,1.104011E1,9.252907E0,,,,,16,20,,26,27,29,10,31,,,,,10,6,,15,5,1,1,4,,,,,
1571290882,2019-10-17 05:41:22.352,Acquired,Acquired,,Acquired,Acquired,Acquired,Acquired,Acquired,,,,,2.90947744E2,1.3576430399999998E2,,1.7916651199999998E2,2.76820736E2,8.094124E1,1.55981776E2,1.9456963199999998E2,,,,,7.1196944E1,3.0223416E1,,7.1776256E1,3.8527792E1,1.5836699E1,1.104011E1,9.252907E0,,,,,16,20,,26,27,29,10,31,,,,,10,6,,15,5,1,1,4,,,,,
1571290942,2019-10-17 05:42:22.352,Acquired,Acquired,,Acquired,Acquired,Acquired,Acquired,Acquired,,,,,2.90947744E2,1.3576430399999998E2,,1.7916651199999998E2,2.76820736E2,8.094124E1,1.55981776E2,1.9456963199999998E2,,,,,7.1196944E1,3.0223416E1,,7.1776256E1,3.8527792E1,1.5836699E1,1.104011E1,9.252907E0,,,,,16,20,,26,27,29,10,31,,,,,10,6,,15,5,1,1,4,,,,,
1571291002,2019-10-17 05:43:22.352,Acquired,Acquired,,Acquired,Acquired,Acquired,Acquired,Acquired,,,,,2.90947744E2,1.3576430399999998E2,,1.7916651199999998E2,2.76820736E2,8.094124E1,1.55981776E2,1.9456963199999998E2,,,,,7.1196944E1,3.0223416E1,,7.1776256E1,3.8527792E1,1.5836699E1,1.104011E1,9.252907E0,,,,,16,20,,26,27,29,10,31,,,,,10,6,,15,5,1,1,4,,,,,
1571291062,2019-10-17 05:44:22.353,Acquired,Acquired,,Acquired,Acquired,Acquired,Acquired,Acquired,,,,,2.90947744E2,1.3576430399999998E2,,1.7916651199999998E2,2.76820736E2,8.094124E1,1.55981776E2,1.9456963199999998E2,,,,,7.1196944E1,3.0223416E1,,7.1776256E1,3.8527792E1,1.5836699E1,1.104011E1,9.252907E0,,,,,16,20,,26,27,29,10,31,,,,,10,6,,15,5,1,1,4,,,,,
1571291122,2019-10-17 05:45:22.354,Acquired,Acquired,,Acquired,Acquired,Acquired,Acquired,Acquired,,,,,2.90947744E2,1.3576430399999998E2,,1.7916651199999998E2,2.76820736E2,8.094124E1,1.55981776E2,1.9456963199999998E2,,,,,7.1196944E1,3.0223416E1,,7.1776256E1,3.8527792E1,1.5836699E1,1.104011E1,9.252907E0,,,,,16,20,,26,27,29,10,31,,,,,10,6,,15,5,1,1,4,,,,,
1571291182,2019-10-17 05:46:22.352,Acquired,Acquired,,Acquired,Acquired,Acquired,Acquired,Acquired,,,,,2.90947744E2,1.3576430399999998E2,,1.7916651199999998E2,2.76820736E2,8.094124E1,1.55981776E2,1.9456963199999998E2,,,,,7.1196944E1,3.0223416E1,,7.1776256E1,3.8527792E1,1.5836699E1,1.104011E1,9.252907E0,,,,,16,20,,26,27,29,10,31,,,,,10,6,,15,5,1,1,4,,,,,
1571291242,2019-10-17 05:47:22.354,Acquired,Acquired,,Acquired,Acquired,Acquired,Acquired,Acquired,,,,,2.90947744E2,1.3576430399999998E2,,1.7916651199999998E2,2.76820736E2,8.094124E1,1.55981776E2,1.9456963199999998E2,,,,,7.1196944E1,3.0223416E1,,7.1776256E1,3.8527792E1,1.5836699E1,1.104011E1,9.252907E0,,,,,16,20,,26,27,29,10,31,,,,,10,6,,15,5,1,1,4,,,,,
1571291302,2019-10-17 05:48:22.352,Acquired,Acquired,,Acquired,Acquired,Acquired,Acquired,Acquired,,,,,2.90947744E2,1.3576430399999998E2,,1.7916651199999998E2,2.76820736E2,8.094124E1,1.55981776E2,1.9456963199999998E2,,,,,7.1196944E1,3.0223416E1,,7.1776256E1,3.8527792E1,1.5836699E1,1.104011E1,9.252907E0,,,,,16,20,,26,27,29,10,31,,,,,10,6,,15,5,1,1,4,,,,,
1571291362,2019-10-17 05:49:22.389,Acquired,Acquired,,Acquired,Acquired,Acquired,Acquired,Acquired,,,,,2.90947744E2,1.3576430399999998E2,,1.7916651199999998E2,2.76820736E2,8.094124E1,1.55981776E2,1.9456963199999998E2,,,,,7.1196944E1,3.0223416E1,,7.1776256E1,3.8527792E1,1.5836699E1,1.104011E1,9.252907E0,,,,,16,20,,26,27,29,10,31,,,,,10,6,,15,5,1,1,4,,,,,
1571291422,2019-10-17 05:50:22.352,Acquired,Acquired,,Acquired,Acquired,Acquired,Acquired,Acquired,,,,,2.90947744E2,1.3576430399999998E2,,1.7916651199999998E2,2.76820736E2,8.094124E1,1.55981776E2,1.9456963199999998E2,,,,,7.1196944E1,3.0223416E1,,7.1776256E1,3.8527792E1,1.5836699E1,1.104011E1,9.252907E0,,,,,16,20,,26,27,29,10,31,,,,,10,6,,15,5,1,1,4,,,,,
1571291482,2019-10-17 05:51:22.352,Acquired,Acquired,,Acquired,Acquired,Acquired,Acquired,Acquired,,,,,2.90947744E2,1.3576430399999998E2,,1.7916651199999998E2,2.76820736E2,8.094124E1,1.55981776E2,1.9456963199999998E2,,,,,7.1196944E1,3.0223416E1,,7.1776256E1,3.8527792E1,1.5836699E1,1.104011E1,9.252907E0,,,,,16,20,,26,27,29,10,31,,,,,10,6,,15,5,1,1,4,,,,,
1571291542,2019-10-17 05:52:22.352,Acquired,Acquired,,Acquired,Acquired,Acquired,Acquired,Acquired,,,,,2.90947744E2,1.3576430399999998E2,,1.7916651199999998E2,2.76820736E2,8.094124E1,1.55981776E2,1.9456963199999998E2,,,,,7.1196944E1,3.0223416E1,,7.1776256E1,3.8527792E1,1.5836699E1,1.104011E1,9.252907E0,,,,,16,20,,26,27,29,10,31,,,,,10,6,,15,5,1,1,4,,,,,
1571291602,2019-10-17 05:53:22.352,Acquired,Acquired,,Acquired,Acquired,Acquired,Acquired,Acquired,,,,,2.90947744E2,1.3576430399999998E2,,1.7916651199999998E2,2.76820736E2,8.094124E1,1.55981776E2,1.9456963199999998E2,,,,,7.1196944E1,3.0223416E1,,7.1776256E1,3.8527792E1,1.5836699E1,1.104011E1,9.252907E0,,,,,16,20,,26,27,29,10,31,,,,,10,6,,15,5,1,1,4,,,,,
1571291662,2019-10-17 05:54:22.352,Acquired,Acquired,,Acquired,Acquired,Acquired,Acquired,Acquired,,,,,2.90947744E2,1.3576430399999998E2,,1.7916651199999998E2,2.76820736E2,8.094124E1,1.55981776E2,1.9456963199999998E2,,,,,7.1196944E1,3.0223416E1,,7.1776256E1,3.8527792E1,1.5836699E1,1.104011E1,9.252907E0,,,,,16,20,,26,27,29,10,31,,,,,10,6,,15,5,1,1,4,,,,,
1571291722,2019-10-17 05:55:22.394,Acquired,Acquired,,Acquired,Acquired,Acquired,Acquired,Acquired,,,,,2.90947744E2,1.3576430399999998E2,,1.7916651199999998E2,2.76820736E2,8.094124E1,1.55981776E2,1.9456963199999998E2,,,,,7.1196944E1,3.0223416E1,,7.1776256E1,3.8527792E1,1.5836699E1,1.104011E1,9.252907E0,,,,,16,20,,26,27,29,10,31,,,,,10,6,,15,5,1,1,4,,,,,
1571291782,2019-10-17 05:56:22.354,Acquired,Acquired,,Acquired,Acquired,Acquired,Acquired,Acquired,,,,,2.90947744E2,1.3576430399999998E2,,1.7916651199999998E2,2.76820736E2,8.094124E1,1.55981776E2,1.9456963199999998E2,,,,,7.1196944E1,3.0223416E1,,7.1776256E1,3.8527792E1,1.5836699E1,1.104011E1,9.252907E0,,,,,16,20,,26,27,29,10,31,,,,,10,6,,15,5,1,1,4,,,,,
1571291842,2019-10-17 05:57:22.352,Acquired,Acquired,,Acquired,Acquired,Acquired,Acquired,Acquired,,,,,2.90947744E2,1.3576430399999998E2,,1.7916651199999998E2,2.76820736E2,8.094124E1,1.55981776E2,1.9456963199999998E2,,,,,7.1196944E1,3.0223416E1,,7.1776256E1,3.8527792E1,1.5836699E1,1.104011E1,9.252907E0,,,,,16,20,,26,27,29,10,31,,,,,10,6,,15,5,1,1,4,,,,,
1571291902,2019-10-17 05:58:22.352,Acquired,Acquired,,Acquired,Acquired,Acquired,Acquired,Acquired,,,,,2.90947744E2,1.3576430399999998E2,,1.7916651199999998E2,2.76820736E2,8.094124E1,1.55981776E2,1.9456963199999998E2,,,,,7.1196944E1,3.0223416E1,,7.1776256E1,3.8527792E1,1.5836699E1,1.104011E1,9.252907E0,,,,,16,20,,26,27,29,10,31,,,,,10,6,,15,5,1,1,4,,,,,
1571291962,2019-10-17 05:59:22.352,Acquired,Acquired,,Acquired,Acquired,Acquired,Acquired,Acquired,,,,,2.90947744E2,1.3576430399999998E2,,1.7916651199999998E2,2.76820736E2,8.094124E1,1.55981776E2,1.9456963199999998E2,,,,,7.1196944E1,3.0223416E1,,7.1776256E1,3.8527792E1,1.5836699E1,1.104011E1,9.252907E0,,,,,16,20,,26,27,29,10,31,,,,,10,6,,15,5,1,1,4,,,,,
