Time(longsecs),Time(UTC),External SOH Voltage 1(V),External SOH Voltage 2(V),External SOH Voltage 3(V),External SOH Voltage 4(V),Sensor SOH Voltage 1(V),Sensor SOH Voltage 2(V),Sensor SOH Voltage 3(V),
1571299222,2019-10-17 08:00:22.352,-9.6821785E-4,-8.6529255E-3,-1.8999577E-3,-2.215147E-3,3.8531876E-1,3.7845516E-1,3.8528347E-1,
1571299282,2019-10-17 08:01:22.352,-4.3678284E-4,-8.713245E-3,-1.4338493E-3,-1.9352436E-3,3.8306427E-1,3.7753963E-1,3.8601494E-1,
1571299342,2019-10-17 08:02:22.352,-1.0061264E-4,-7.717371E-3,-1.3990402E-3,-1.9078255E-3,3.8417244E-1,3.7945747E-1,3.8650894E-1,
1571299402,2019-10-17 08:03:22.352,-5.4621696E-4,-8.904457E-3,-1.552105E-3,-2.0103455E-3,3.804903E-1,3.7446976E-1,3.817978E-1,
1571299462,2019-10-17 08:04:22.352,1.734972E-3,-6.033182E-3,1.3399124E-4,3.2520294E-4,3.904562E-1,3.8732433E-1,3.9418697E-1,
1571299522,2019-10-17 08:05:22.352,-2.6552677E-3,-1.05211735E-2,-3.6165714E-3,-4.0667057E-3,3.761921E-1,3.7229633E-1,3.7970734E-1,
1571299582,2019-10-17 08:06:22.352,1.6522408E-4,-8.042097E-3,-1.2309551E-3,-1.5852451E-3,3.8446522E-1,3.7901306E-1,3.8700867E-1,
1571299642,2019-10-17 08:07:22.352,1.7580986E-3,-6.067753E-3,7.0524216E-4,4.994869E-4,3.8525295E-1,3.7889004E-1,3.870821E-1,
1571299702,2019-10-17 08:08:22.352,-2.6612282E-3,-9.910345E-3,-3.6344528E-3,-4.1997433E-3,3.7764454E-1,3.7279415E-1,3.7997818E-1,
1571299762,2019-10-17 08:09:22.352,-2.7692318E-3,-1.0129929E-2,-3.7322044E-3,-4.037857E-3,3.7767982E-1,3.7382698E-1,3.789587E-1,
1571299822,2019-10-17 08:10:22.352,1.3632774E-3,-6.0224533E-3,7.638931E-4,4.6229362E-4,3.855753E-1,3.7955952E-1,3.8802052E-1,
1571299882,2019-10-17 08:11:22.360,-4.093647E-4,-8.10647E-3,-1.5149117E-3,-9.1362E-4,3.8427734E-1,3.7801838E-1,3.872385E-1,
1571299942,2019-10-17 08:12:22.388,-1.1065006E-3,-8.22258E-3,-1.8885136E-3,-1.5897751E-3,3.8470936E-1,3.8110352E-1,3.8858604E-1,
1571300002,2019-10-17 08:13:22.352,-2.8960705E-3,-9.975672E-3,-3.5467148E-3,-4.0597916E-3,3.7985325E-1,3.736105E-1,3.8228607E-1,
1571300062,2019-10-17 08:14:22.352,-1.1539459E-4,-7.7266693E-3,-1.557827E-3,-1.7430782E-3,3.8561916E-1,3.800993E-1,3.87228E-1,
1571300122,2019-10-17 08:15:22.352,1.5804768E-3,-6.1278343E-3,4.6658516E-4,3.888607E-4,3.892746E-1,3.8435555E-1,3.9213943E-1,
1571300182,2019-10-17 08:16:22.352,1.7836094E-3,-6.614685E-3,4.1866302E-4,4.105568E-4,3.8883972E-1,3.8446808E-1,3.926115E-1,
1571300242,2019-10-17 08:17:22.352,1.6181469E-3,-5.9626102E-3,3.039837E-4,-2.0122528E-4,3.853979E-1,3.8132477E-1,3.885088E-1,
1571300302,2019-10-17 08:18:22.352,1.3153553E-3,-6.536007E-3,5.259514E-4,4.246235E-4,3.8485813E-1,3.7990284E-1,3.8794136E-1,
1571300362,2019-10-17 08:19:22.352,5.722046E-6,-8.231878E-3,-1.7578602E-3,-1.3182163E-3,3.8394165E-1,3.8061523E-1,3.8801098E-1,
1571300422,2019-10-17 08:20:22.360,-3.8790703E-4,-8.426666E-3,-1.9814968E-3,-1.992464E-3,3.845358E-1,3.776083E-1,3.8597775E-1,
1571300482,2019-10-17 08:21:22.352,-1.2564659E-4,-7.889986E-3,-1.1394024E-3,-1.2152195E-3,3.829441E-1,3.781681E-1,3.8601017E-1,
1571300542,2019-10-17 08:22:22.352,-5.636215E-4,-8.35371E-3,-1.8758774E-3,-2.3844242E-3,3.8437462E-1,3.7807655E-1,3.8610935E-1,
1571300602,2019-10-17 08:23:22.352,-2.6488304E-3,-1.0383368E-2,-3.5030842E-3,-3.950596E-3,3.7432003E-1,3.6775398E-1,3.7676716E-1,
1571300662,2019-10-17 08:24:22.352,-2.7515888E-3,-1.0478497E-2,-3.205061E-3,-4.110813E-3,3.7812042E-1,3.7181473E-1,3.7960243E-1,
1571300722,2019-10-17 08:25:22.352,-3.5595894E-4,-8.953333E-3,-1.7075539E-3,-1.9872189E-3,3.8631916E-1,3.7934208E-1,3.8735008E-1,
1571300782,2019-10-17 08:26:22.352,-2.4495125E-3,-9.769201E-3,-3.313303E-3,-3.922224E-3,3.7448406E-1,3.6896706E-1,3.7597847E-1,
1571300842,2019-10-17 08:27:22.352,1.6341209E-3,-6.2594414E-3,2.5177002E-4,1.2230873E-4,3.8858128E-1,3.8375092E-1,3.9284134E-1,
1571300902,2019-10-17 08:28:22.384,-1.0392666E-3,-8.605957E-3,-1.7111301E-3,-2.398491E-3,3.8687515E-1,3.7940216E-1,3.888836E-1,
1571300962,2019-10-17 08:29:22.352,-3.8218498E-4,-8.553743E-3,-1.9030571E-3,-1.9271374E-3,3.8434315E-1,3.780651E-1,3.861704E-1,
1571301022,2019-10-17 08:30:22.352,-2.8073788E-3,-1.0102749E-2,-3.998041E-3,-4.154682E-3,3.795948E-1,3.7320137E-1,3.8225365E-1,
1571301082,2019-10-17 08:31:22.352,-7.901192E-4,-8.281231E-3,-1.6736984E-3,-2.5999546E-3,3.8314247E-1,3.7882137E-1,3.8506222E-1,
1571301142,2019-10-17 08:32:22.352,-2.7148724E-3,-1.0102987E-2,-3.3199787E-3,-4.208088E-3,3.7507153E-1,3.724985E-1,3.797474E-1,
1571301202,2019-10-17 08:33:22.352,-7.7199936E-4,-8.362055E-3,-2.0523071E-3,-2.3696423E-3,3.8402462E-1,3.7832165E-1,3.873129E-1,
1571301262,2019-10-17 08:34:22.352,-9.3364716E-4,-8.514881E-3,-1.6629696E-3,-1.9366741E-3,3.8455963E-1,3.80538E-1,3.8791466E-1,
1571301322,2019-10-17 08:35:22.354,-2.5408268E-3,-1.023078E-2,-3.799677E-3,-4.3096542E-3,3.7495804E-1,3.6847305E-1,3.7573528E-1,
1571301382,2019-10-17 08:36:22.352,1.6720295E-3,-6.1223507E-3,5.0377846E-4,3.9243698E-4,3.9039326E-1,3.8468838E-1,3.9502907E-1,
1571301442,2019-10-17 08:37:22.352,1.3606548E-3,-6.012678E-3,9.0765953E-4,2.1982193E-4,3.9023018E-1,3.8560867E-1,3.9309216E-1,
1571301502,2019-10-17 08:38:22.352,1.9881725E-3,-5.796194E-3,7.414818E-4,2.1886826E-4,3.9169025E-1,3.8623714E-1,3.9409924E-1,
1571301562,2019-10-17 08:39:22.352,-2.5930405E-3,-1.0210276E-2,-3.592968E-3,-4.369974E-3,3.765583E-1,3.7232304E-1,3.806057E-1,
1571301622,2019-10-17 08:40:22.352,1.2311935E-3,-6.234169E-3,4.286766E-4,-8.34465E-5,3.8599968E-1,3.805971E-1,3.8906765E-1,
1571301682,2019-10-17 08:41:22.352,-2.5229454E-3,-9.893656E-3,-3.7436485E-3,-4.1503906E-3,3.7319946E-1,3.6785793E-1,3.7563324E-1,
1571301742,2019-10-17 08:42:22.352,1.427412E-3,-6.0122013E-3,4.26054E-4,2.644062E-4,3.9144897E-1,3.8610172E-1,3.943081E-1,
1571301802,2019-10-17 08:43:22.353,1.42169E-3,-6.0224533E-3,6.2704086E-4,7.104874E-5,3.893795E-1,3.853264E-1,3.9105225E-1,
1571301862,2019-10-17 08:44:22.352,-2.3758411E-3,-9.983063E-3,-3.3826828E-3,-4.203558E-3,3.7840748E-1,3.753271E-1,3.8205242E-1,
1571301922,2019-10-17 08:45:22.352,-6.661415E-4,-8.61764E-3,-1.8105507E-3,-2.387762E-3,3.8391685E-1,3.7820435E-1,3.8605785E-1,
1571301982,2019-10-17 08:46:22.352,-2.2046566E-3,-1.0334015E-2,-3.5848618E-3,-4.3594837E-3,3.784895E-1,3.7196922E-1,3.7951756E-1,
1571302042,2019-10-17 08:47:22.352,1.7440319E-3,-5.9461594E-3,7.889271E-4,-8.749962E-5,3.9187813E-1,3.8535976E-1,3.9291382E-1,
1571302102,2019-10-17 08:48:22.352,-2.5844574E-4,-7.952929E-3,-1.6405582E-3,-1.8320084E-3,3.7777996E-1,3.7151432E-1,3.8098145E-1,
1571302162,2019-10-17 08:49:22.353,-2.6726723E-3,-1.0646343E-2,-3.370285E-3,-3.91531E-3,3.7401295E-1,3.699913E-1,3.7675095E-1,
1571302222,2019-10-17 08:50:22.352,-6.7925453E-4,-8.30698E-3,-1.6765594E-3,-2.4311543E-3,3.82452E-1,3.788023E-1,3.8575077E-1,
1571302282,2019-10-17 08:51:22.352,-5.5241585E-4,-8.448839E-3,-1.7950535E-3,-2.0925999E-3,3.8541508E-1,3.7919998E-1,3.8749504E-1,
1571302342,2019-10-17 08:52:22.352,-2.7775764E-4,-7.908583E-3,-1.1236668E-3,-1.6477108E-3,3.7946796E-1,3.7556458E-1,3.8328838E-1,
1571302402,2019-10-17 08:53:22.352,-2.2654533E-3,-9.996891E-3,-3.4997463E-3,-3.6506653E-3,3.7814236E-1,3.731842E-1,3.8130856E-1,
1571302462,2019-10-17 08:54:22.352,-2.6359558E-3,-1.0186911E-2,-3.8592815E-3,-4.023075E-3,3.7974358E-1,3.7521172E-1,3.822117E-1,
1571302522,2019-10-17 08:55:22.352,2.0632744E-3,-5.544424E-3,6.854534E-4,1.616478E-4,3.866768E-1,3.8150692E-1,3.8976192E-1,
1571302582,2019-10-17 08:56:22.352,1.6639233E-3,-5.7611465E-3,5.5241585E-4,1.4734268E-4,3.9124203E-1,3.8523006E-1,3.9194965E-1,
1571302642,2019-10-17 08:57:22.353,-2.2788048E-3,-1.0113478E-2,-3.3900738E-3,-4.0147305E-3,3.7252426E-1,3.6899948E-1,3.765421E-1,
1571302702,2019-10-17 08:58:22.352,-7.4982643E-4,-8.628845E-3,-1.7387867E-3,-2.4166107E-3,3.8339043E-1,3.783188E-1,3.8580418E-1,
1571302762,2019-10-17 08:59:22.352,1.6555786E-3,-6.2351227E-3,3.7908554E-4,1.282692E-4,3.92848E-1,3.861885E-1,3.9438438E-1,
