Time(longsecs),Time(UTC),External SOH Voltage 1(V),External SOH Voltage 2(V),External SOH Voltage 3(V),External SOH Voltage 4(V),Sensor SOH Voltage 1(V),Sensor SOH Voltage 2(V),Sensor SOH Voltage 3(V),
1571266818,2019-10-16 23:00:18.807,-7.8930855E-3,3.3996105E-3,-1.2786388E-3,-1.3279915E-4,2.370081E-1,2.39748E-1,2.3939514E-1,
1571266878,2019-10-16 23:01:18.806,-7.498026E-3,3.0310154E-3,-1.0147095E-3,-7.9369545E-4,2.4158859E-1,2.4480724E-1,2.4053383E-1,
1571266938,2019-10-16 23:02:18.806,-9.732008E-3,1.3530254E-3,-2.8164387E-3,-2.1791458E-3,2.3831844E-1,2.4110508E-1,2.3917103E-1,
1571266998,2019-10-16 23:03:18.806,-1.0020733E-2,6.110668E-4,-3.4205914E-3,-2.6097298E-3,2.3112202E-1,2.3376846E-1,2.3325062E-1,
1571267058,2019-10-16 23:04:18.806,-9.722948E-3,6.31094E-4,-3.4143925E-3,-3.1633377E-3,2.311287E-1,2.3355198E-1,2.3666E-1,
1571267118,2019-10-16 23:05:18.806,-1.205945E-2,-1.2905598E-3,-5.375147E-3,-4.797697E-3,2.2428226E-1,2.2762299E-1,2.2725582E-1,
1571267178,2019-10-16 23:06:18.806,-1.0267973E-2,7.266998E-4,-3.7662983E-3,-2.735138E-3,2.3093891E-1,2.3303509E-1,2.3320198E-1,
1571267238,2019-10-16 23:07:18.806,-7.69186E-3,2.9461384E-3,-8.702278E-4,-1.8787384E-4,2.3647404E-1,2.3871422E-1,2.3746681E-1,
1571267298,2019-10-16 23:08:18.806,-9.9339485E-3,7.2169304E-4,-3.310442E-3,-2.8355122E-3,2.3091125E-1,2.3434162E-1,2.3414135E-1,
1571267358,2019-10-16 23:09:18.806,-1.0174036E-2,5.6290627E-4,-3.7035942E-3,-2.8643608E-3,2.3132229E-1,2.3292065E-1,2.3230362E-1,
1571267418,2019-10-16 23:10:18.809,-1.238513E-2,-1.175642E-3,-5.4214E-3,-4.709482E-3,2.2560406E-1,2.2850037E-1,2.2863579E-1,
1571267478,2019-10-16 23:11:18.806,-9.972572E-3,5.4836273E-4,-3.95751E-3,-3.0443668E-3,2.3002052E-1,2.3513412E-1,2.3486805E-1,
1571267538,2019-10-16 23:12:18.806,-1.2042999E-2,-1.0881424E-3,-5.3315163E-3,-4.8308372E-3,2.2250557E-1,2.2635555E-1,2.2649956E-1,
1571267598,2019-10-16 23:13:18.806,-9.556532E-3,1.0251999E-3,-2.7565956E-3,-2.5455952E-3,2.324791E-1,2.3616028E-1,2.3438168E-1,
1571267658,2019-10-16 23:14:18.806,-9.497881E-3,1.2180805E-3,-3.1940937E-3,-1.9028187E-3,2.328186E-1,2.3565388E-1,2.332859E-1,
1571267718,2019-10-16 23:15:18.806,-9.38797E-3,1.5296936E-3,-2.900362E-3,-2.3441315E-3,2.361517E-1,2.3898506E-1,2.398634E-1,
1571267778,2019-10-16 23:16:18.816,-9.958744E-3,5.235672E-4,-3.2322407E-3,-3.3750534E-3,2.3501873E-1,2.3775005E-1,2.3526764E-1,
1571267838,2019-10-16 23:17:18.806,-7.687092E-3,3.379345E-3,-9.086132E-4,-5.62191E-4,2.4186611E-1,2.4454498E-1,2.4369812E-1,
1571267898,2019-10-16 23:18:18.806,-1.1871576E-2,-1.0683537E-3,-5.052805E-3,-4.563093E-3,2.257719E-1,2.2831726E-1,2.2563267E-1,
1571267958,2019-10-16 23:19:18.809,-7.7774525E-3,3.2217503E-3,-8.177757E-4,-3.0589104E-4,2.4178123E-1,2.4411678E-1,2.4452591E-1,
1571268018,2019-10-16 23:20:18.806,-7.5502396E-3,3.0491352E-3,-7.376671E-4,-2.3818016E-4,2.3756695E-1,2.4215317E-1,2.3953152E-1,
1571268078,2019-10-16 23:21:18.806,-1.2044668E-2,-9.80854E-4,-5.2478313E-3,-4.6782494E-3,2.2515869E-1,2.2801495E-1,2.3338795E-1,
1571268138,2019-10-16 23:22:18.806,-7.902384E-3,3.037691E-3,-1.3260841E-3,-3.20673E-4,2.3739529E-1,2.4126148E-1,2.3882961E-1,
1571268198,2019-10-16 23:23:18.806,-1.0237455E-2,7.197857E-4,-3.6611557E-3,-3.247738E-3,2.302208E-1,2.3042774E-1,2.3285675E-1,
1571268258,2019-10-16 23:24:18.806,-7.844448E-3,3.0972958E-3,-1.2431145E-3,-2.272129E-4,2.353239E-1,2.374897E-1,2.3750687E-1,
1571268318,2019-10-16 23:25:18.806,-9.80401E-3,1.7278194E-3,-2.9153824E-3,-2.0785332E-3,2.3602962E-1,2.3917103E-1,2.3962975E-1,
1571268378,2019-10-16 23:26:18.806,-9.640217E-3,1.0967255E-3,-3.099203E-3,-2.5269985E-3,2.3833084E-1,2.4137211E-1,2.3938179E-1,
1571268438,2019-10-16 23:27:18.806,-1.027441E-2,8.661747E-4,-3.3655167E-3,-2.6202202E-3,2.3147106E-1,2.3496056E-1,2.3545074E-1,
1571268498,2019-10-16 23:28:18.806,-7.7695847E-3,2.8018951E-3,-1.0893345E-3,-9.1457367E-4,2.3648643E-1,2.384901E-1,2.3524475E-1,
1571268558,2019-10-16 23:29:18.836,-7.4603558E-3,3.4675598E-3,-1.1041164E-3,-2.5701523E-4,2.4208641E-1,2.4489498E-1,2.5047112E-1,
1571268618,2019-10-16 23:30:18.807,-9.367466E-3,1.3144016E-3,-2.74992E-3,-2.4518967E-3,2.3026371E-1,2.340889E-1,2.3233986E-1,
1571268678,2019-10-16 23:31:18.806,-1.0189772E-2,6.9975853E-4,-3.6222935E-3,-2.8500557E-3,2.2959995E-1,2.3150826E-1,2.298603E-1,
1571268738,2019-10-16 23:32:18.806,-7.411003E-3,3.1080246E-3,-7.9894066E-4,-4.6491623E-4,2.4204826E-1,2.4682617E-1,2.4281216E-1,
1571268798,2019-10-16 23:33:18.806,-1.182723E-2,-1.0476112E-3,-4.961014E-3,-4.806757E-3,2.2534657E-1,2.3339367E-1,2.2951889E-1,
1571268858,2019-10-16 23:34:18.806,-9.656906E-3,1.3644695E-3,-2.9132366E-3,-2.1848679E-3,2.284193E-1,2.3147583E-1,2.3280144E-1,
1571268918,2019-10-16 23:35:18.809,-7.863522E-3,2.9826164E-3,-1.1334419E-3,-4.8828125E-4,2.4137878E-1,2.444048E-1,2.4318409E-1,
1571268978,2019-10-16 23:36:18.806,-7.4825287E-3,3.1704903E-3,-1.1508465E-3,-4.556179E-4,2.421751E-1,2.425642E-1,2.4004745E-1,
1571269038,2019-10-16 23:37:18.806,-7.601261E-3,3.111124E-3,-1.3504028E-3,-3.1661987E-4,2.4110508E-1,2.4420738E-1,2.4760151E-1,
1571269098,2019-10-16 23:38:18.806,-9.462357E-3,1.2245178E-3,-2.840519E-3,-2.6409626E-3,2.3566532E-1,2.3582745E-1,2.371378E-1,
1571269158,2019-10-16 23:39:18.806,-7.938623E-3,3.139019E-3,-1.2283325E-3,-6.644726E-4,2.4159908E-1,2.4726391E-1,2.4273777E-1,
1571269218,2019-10-16 23:40:18.806,-7.7273846E-3,3.042698E-3,-1.013279E-3,-4.1365623E-4,2.4152756E-1,2.4197674E-1,2.457428E-1,
1571269278,2019-10-16 23:41:18.806,-1.1945963E-2,-9.95636E-4,-5.3949356E-3,-4.6401024E-3,2.2939682E-1,2.3263168E-1,2.278862E-1,
1571269338,2019-10-16 23:42:18.806,-9.727001E-3,1.1601448E-3,-3.2804012E-3,-1.9993782E-3,2.3188305E-1,2.2918701E-1,2.3191357E-1,
1571269398,2019-10-16 23:43:18.807,-7.882357E-3,2.5918484E-3,-1.0726452E-3,-6.26564E-4,2.4175644E-1,2.3770237E-1,2.4230576E-1,
1571269458,2019-10-16 23:44:18.809,-9.423494E-3,1.6784668E-3,-2.7513504E-3,-2.270937E-3,2.3226357E-1,2.304697E-1,2.3197937E-1,
1571269518,2019-10-16 23:45:18.806,-9.582043E-3,1.3020039E-3,-2.988577E-3,-2.8173923E-3,2.3003769E-1,2.3053455E-1,2.3305035E-1,
1571269578,2019-10-16 23:46:18.806,-1.2166023E-2,-1.1796951E-3,-5.6176186E-3,-4.691601E-3,2.2538853E-1,2.3040485E-1,2.2786331E-1,
1571269638,2019-10-16 23:47:18.806,-1.0153055E-2,7.1430206E-4,-3.733635E-3,-2.8636456E-3,2.3201466E-1,2.3582268E-1,2.3151779E-1,
1571269698,2019-10-16 23:48:18.806,-1.01583E-2,6.663799E-4,-3.559351E-3,-2.7635098E-3,2.3086643E-1,2.3653507E-1,2.3329163E-1,
1571269758,2019-10-16 23:49:18.823,-9.534597E-3,1.1639595E-3,-2.851963E-3,-2.7236938E-3,2.3150826E-1,2.3399067E-1,2.3284245E-1,
1571269818,2019-10-16 23:50:18.806,-7.7376366E-3,2.876997E-3,-1.3644695E-3,-6.239414E-4,2.352171E-1,2.4057674E-1,2.3718357E-1,
1571269878,2019-10-16 23:51:18.806,-8.015394E-3,2.9661655E-3,-1.0461807E-3,-7.202625E-4,2.4564362E-1,2.472601E-1,2.4423885E-1,
1571269938,2019-10-16 23:52:18.806,-7.822037E-3,3.0500889E-3,-6.5660477E-4,-3.6597252E-4,2.3754787E-1,2.355938E-1,2.3997879E-1,
1571269998,2019-10-16 23:53:18.806,-7.7581406E-3,2.9029846E-3,-7.634163E-4,-1.180172E-4,2.3746014E-1,2.4180126E-1,2.4134922E-1,
1571270058,2019-10-16 23:54:18.806,-1.1868954E-2,-1.1739731E-3,-4.9858093E-3,-4.7211647E-3,2.2322178E-1,2.261219E-1,2.267828E-1,
1571270118,2019-10-16 23:55:18.806,-7.7769756E-3,3.5364628E-3,-1.0221004E-3,-3.9744377E-4,2.3694706E-1,2.4011135E-1,2.3750687E-1,
1571270178,2019-10-16 23:56:18.806,-1.0117054E-2,5.7172775E-4,-3.522396E-3,-3.0126572E-3,2.2892761E-1,2.3113728E-1,2.3112392E-1,
1571270238,2019-10-16 23:57:18.806,-1.0078907E-2,8.2063675E-4,-3.3576488E-3,-2.8288364E-3,2.3569584E-1,2.3758602E-1,2.361145E-1,
1571270298,2019-10-16 23:58:18.806,-1.19719505E-2,-8.573532E-4,-4.893303E-3,-4.5998096E-3,2.2237873E-1,2.2638512E-1,2.2582817E-1,
1571270358,2019-10-16 23:59:18.806,-1.0351896E-2,8.1944466E-4,-3.2978058E-3,-2.7430058E-3,2.316637E-1,2.3537445E-1,2.3209E-1,
