Time(longsecs),Time(UTC),Earth Location,GPS Receiver Status,GPS Satellites Used,GPS PDOP,GPS TDOP,Timing Status,Timing Phase Lock,Timing Uncertainty(ns),DAC Count,Timing Error(ns),GPS Last Update Time,
1571223618,2019-10-16 11:00:18.807,47.636274N 0.583874E 186m,Off,6,2.7300546,1.8234848,Time OK,Free running,3300,9157,0,2019-10-16 10:56:25.000000000,
1571223678,2019-10-16 11:01:18.809,47.636274N 0.583874E 186m,Off,6,2.7300546,1.8234848,Time OK,Free running,4300,9157,0,2019-10-16 10:56:25.000000000,
1571223738,2019-10-16 11:02:18.806,47.636274N 0.583874E 186m,Off,6,2.7300546,1.8234848,Time OK,Free running,5100,9157,0,2019-10-16 10:56:25.000000000,
1571223798,2019-10-16 11:03:18.807,47.636274N 0.583874E 186m,Off,6,2.7300546,1.8234848,Time OK,Free running,6200,9157,0,2019-10-16 10:56:25.000000000,
1571223858,2019-10-16 11:04:18.806,47.636274N 0.583874E 186m,Off,6,2.7300546,1.8234848,Time OK,Free running,7300,9157,0,2019-10-16 10:56:25.000000000,
1571223918,2019-10-16 11:05:18.806,47.636274N 0.583874E 186m,Off,6,2.7300546,1.8234848,Time OK,Free running,8800,9157,0,2019-10-16 10:56:25.000000000,
1571223978,2019-10-16 11:06:18.806,47.636274N 0.583874E 186m,Off,6,2.7300546,1.8234848,Time OK,Free running,10300,9157,0,2019-10-16 10:56:25.000000000,
1571224038,2019-10-16 11:07:18.806,47.636274N 0.583874E 186m,Off,6,2.7300546,1.8234848,Time OK,Free running,11700,9157,0,2019-10-16 10:56:25.000000000,
1571224098,2019-10-16 11:08:18.806,47.636274N 0.583874E 186m,Off,6,2.7300546,1.8234848,Time OK,Free running,13400,9157,0,2019-10-16 10:56:25.000000000,
1571224158,2019-10-16 11:09:18.806,47.636274N 0.583874E 186m,Off,6,2.7300546,1.8234848,Time OK,Free running,15200,9157,0,2019-10-16 10:56:25.000000000,
1571224218,2019-10-16 11:10:18.806,47.636274N 0.583874E 186m,Off,6,2.7300546,1.8234848,Time OK,Free running,16800,9157,0,2019-10-16 10:56:25.000000000,
1571224278,2019-10-16 11:11:18.806,47.636274N 0.583874E 186m,Off,6,2.7300546,1.8234848,Time OK,Free running,18400,9157,0,2019-10-16 10:56:25.000000000,
1571224338,2019-10-16 11:12:18.806,47.636274N 0.583874E 186m,Off,6,2.7300546,1.8234848,Time OK,Free running,20300,9157,0,2019-10-16 10:56:25.000000000,
1571224398,2019-10-16 11:13:18.806,47.636274N 0.583874E 186m,Off,6,2.7300546,1.8234848,Time OK,Free running,22600,9157,0,2019-10-16 10:56:25.000000000,
1571224458,2019-10-16 11:14:18.806,47.636274N 0.583874E 186m,Off,6,2.7300546,1.8234848,Time OK,Free running,24800,9157,0,2019-10-16 10:56:25.000000000,
1571224518,2019-10-16 11:15:18.806,47.636274N 0.583874E 186m,Off,6,2.7300546,1.8234848,Time OK,Free running,26900,9157,0,2019-10-16 10:56:25.000000000,
1571224578,2019-10-16 11:16:18.806,47.636274N 0.583874E 186m,Off,6,2.7300546,1.8234848,Time OK,Free running,29000,9157,0,2019-10-16 10:56:25.000000000,
1571224638,2019-10-16 11:17:18.806,47.636274N 0.583874E 186m,Off,6,2.7300546,1.8234848,Time OK,Free running,31200,9157,0,2019-10-16 10:56:25.000000000,
1571224698,2019-10-16 11:18:18.806,47.636274N 0.583874E 186m,Off,6,2.7300546,1.8234848,Time OK,Free running,33700,9157,0,2019-10-16 10:56:25.000000000,
1571224758,2019-10-16 11:19:18.806,47.636274N 0.583874E 186m,Off,6,2.7300546,1.8234848,Time OK,Free running,36200,9157,0,2019-10-16 10:56:25.000000000,
1571224818,2019-10-16 11:20:18.807,47.636274N 0.583874E 186m,Off,6,2.7300546,1.8234848,Time OK,Free running,38600,9157,0,2019-10-16 10:56:25.000000000,
1571224878,2019-10-16 11:21:18.806,47.636274N 0.583874E 186m,Off,6,2.7300546,1.8234848,Time OK,Free running,41200,9157,0,2019-10-16 10:56:25.000000000,
1571224938,2019-10-16 11:22:18.806,47.636274N 0.583874E 186m,Off,6,2.7300546,1.8234848,Time OK,Free running,44000,9157,0,2019-10-16 10:56:25.000000000,
1571224998,2019-10-16 11:23:18.806,47.636274N 0.583874E 186m,Off,6,2.7300546,1.8234848,Time OK,Free running,47200,9157,0,2019-10-16 10:56:25.000000000,
1571225058,2019-10-16 11:24:18.809,47.636274N 0.583874E 186m,Off,6,2.7300546,1.8234848,Time OK,Free running,50500,9157,0,2019-10-16 10:56:25.000000000,
1571225118,2019-10-16 11:25:18.809,47.636274N 0.583874E 186m,Doing fixes,6,2.83789,1.8272462,Time OK,Coarse lock,100,9234,-208,2019-10-16 11:25:15.000000000,
1571225178,2019-10-16 11:26:18.807,47.636274N 0.583874E 186m,Doing fixes,8,3.5933993,2.50797,Time OK,Fine lock,100,9174,0,2019-10-16 11:26:15.000000000,
1571225238,2019-10-16 11:27:18.809,47.636274N 0.583874E 186m,Doing fixes,8,2.2139413,1.4066398,Time OK,Fine lock,100,9174,0,2019-10-16 11:27:15.000000000,
1571225298,2019-10-16 11:28:18.806,47.636274N 0.583874E 186m,Off,7,2.5770116,1.5726724,Time OK,Free running,300,9174,0,2019-10-16 11:27:55.000000000,
1571225358,2019-10-16 11:29:18.822,47.636274N 0.583874E 186m,Off,7,2.5770116,1.5726724,Time OK,Free running,1600,9174,0,2019-10-16 11:27:55.000000000,
1571225418,2019-10-16 11:30:18.806,47.636274N 0.583874E 186m,Off,7,2.5770116,1.5726724,Time OK,Free running,3000,9174,0,2019-10-16 11:27:55.000000000,
1571225478,2019-10-16 11:31:18.806,47.636274N 0.583874E 186m,Off,7,2.5770116,1.5726724,Time OK,Free running,4000,9174,0,2019-10-16 11:27:55.000000000,
1571225538,2019-10-16 11:32:18.807,47.636274N 0.583874E 186m,Off,7,2.5770116,1.5726724,Time OK,Free running,4900,9174,0,2019-10-16 11:27:55.000000000,
1571225598,2019-10-16 11:33:18.806,47.636274N 0.583874E 186m,Off,7,2.5770116,1.5726724,Time OK,Free running,5800,9174,0,2019-10-16 11:27:55.000000000,
1571225658,2019-10-16 11:34:18.807,47.636274N 0.583874E 186m,Off,7,2.5770116,1.5726724,Time OK,Free running,6800,9174,0,2019-10-16 11:27:55.000000000,
1571225718,2019-10-16 11:35:18.809,47.636274N 0.583874E 186m,Off,7,2.5770116,1.5726724,Time OK,Free running,7700,9174,0,2019-10-16 11:27:55.000000000,
1571225778,2019-10-16 11:36:18.806,47.636274N 0.583874E 186m,Off,7,2.5770116,1.5726724,Time OK,Free running,8500,9174,0,2019-10-16 11:27:55.000000000,
1571225838,2019-10-16 11:37:18.809,47.636274N 0.583874E 186m,Off,7,2.5770116,1.5726724,Time OK,Free running,9400,9174,0,2019-10-16 11:27:55.000000000,
1571225898,2019-10-16 11:38:18.806,47.636274N 0.583874E 186m,Off,7,2.5770116,1.5726724,Time OK,Free running,10500,9174,0,2019-10-16 11:27:55.000000000,
1571225958,2019-10-16 11:39:18.806,47.636274N 0.583874E 186m,Off,7,2.5770116,1.5726724,Time OK,Free running,11400,9174,0,2019-10-16 11:27:55.000000000,
1571226018,2019-10-16 11:40:18.816,47.636274N 0.583874E 186m,Off,7,2.5770116,1.5726724,Time OK,Free running,12600,9174,0,2019-10-16 11:27:55.000000000,
1571226078,2019-10-16 11:41:18.806,47.636274N 0.583874E 186m,Off,7,2.5770116,1.5726724,Time OK,Free running,14100,9174,0,2019-10-16 11:27:55.000000000,
1571226138,2019-10-16 11:42:18.836,47.636274N 0.583874E 186m,Off,7,2.5770116,1.5726724,Time OK,Free running,15200,9174,0,2019-10-16 11:27:55.000000000,
1571226198,2019-10-16 11:43:18.834,47.636274N 0.583874E 186m,Off,7,2.5770116,1.5726724,Time OK,Free running,16300,9174,0,2019-10-16 11:27:55.000000000,
1571226258,2019-10-16 11:44:18.806,47.636274N 0.583874E 186m,Off,7,2.5770116,1.5726724,Time OK,Free running,17600,9174,0,2019-10-16 11:27:55.000000000,
1571226318,2019-10-16 11:45:18.806,47.636274N 0.583874E 186m,Off,7,2.5770116,1.5726724,Time OK,Free running,18900,9174,0,2019-10-16 11:27:55.000000000,
1571226378,2019-10-16 11:46:18.806,47.636274N 0.583874E 186m,Off,7,2.5770116,1.5726724,Time OK,Free running,20600,9174,0,2019-10-16 11:27:55.000000000,
1571226438,2019-10-16 11:47:18.809,47.636274N 0.583874E 186m,Off,7,2.5770116,1.5726724,Time OK,Free running,22600,9174,0,2019-10-16 11:27:55.000000000,
1571226498,2019-10-16 11:48:18.807,47.636274N 0.583874E 186m,Off,7,2.5770116,1.5726724,Time OK,Free running,24500,9174,0,2019-10-16 11:27:55.000000000,
1571226558,2019-10-16 11:49:18.806,47.636274N 0.583874E 186m,Off,7,2.5770116,1.5726724,Time OK,Free running,26300,9174,0,2019-10-16 11:27:55.000000000,
1571226618,2019-10-16 11:50:18.806,47.636274N 0.583874E 186m,Off,7,2.5770116,1.5726724,Time OK,Free running,28200,9174,0,2019-10-16 11:27:55.000000000,
1571226678,2019-10-16 11:51:18.809,47.636274N 0.583874E 186m,Off,7,2.5770116,1.5726724,Time OK,Free running,30000,9174,0,2019-10-16 11:27:55.000000000,
1571226738,2019-10-16 11:52:18.806,47.636274N 0.583874E 186m,Off,7,2.5770116,1.5726724,Time OK,Free running,31800,9174,0,2019-10-16 11:27:55.000000000,
1571226798,2019-10-16 11:53:18.806,47.636274N 0.583874E 186m,Off,7,2.5770116,1.5726724,Time OK,Free running,33900,9174,0,2019-10-16 11:27:55.000000000,
1571226858,2019-10-16 11:54:18.809,47.636274N 0.583874E 186m,Off,7,2.5770116,1.5726724,Time OK,Free running,35800,9174,0,2019-10-16 11:27:55.000000000,
1571226918,2019-10-16 11:55:18.806,47.636274N 0.583874E 186m,Off,7,2.5770116,1.5726724,Time OK,Free running,37700,9174,0,2019-10-16 11:27:55.000000000,
1571226978,2019-10-16 11:56:18.806,47.636274N 0.583874E 186m,Off,7,2.5770116,1.5726724,Time OK,Free running,39700,9174,0,2019-10-16 11:27:55.000000000,
1571227038,2019-10-16 11:57:18.806,47.636274N 0.583874E 186m,Off,7,2.5770116,1.5726724,Time OK,Free running,41700,9174,0,2019-10-16 11:27:55.000000000,
1571227098,2019-10-16 11:58:18.806,47.636274N 0.583874E 186m,Off,7,2.5770116,1.5726724,Time OK,Free running,43900,9174,0,2019-10-16 11:27:55.000000000,
1571227158,2019-10-16 11:59:18.808,47.636274N 0.583874E 186m,Off,7,2.5770116,1.5726724,Time OK,Free running,46300,9174,0,2019-10-16 11:27:55.000000000,
