Time(longsecs),Time(UTC),Earth Location,GPS Receiver Status,GPS Satellites Used,GPS PDOP,GPS TDOP,Timing Status,Timing Phase Lock,Timing Uncertainty(ns),DAC Count,Timing Error(ns),GPS Last Update Time,
1571220030,2019-10-16 10:00:30.927,47.638722N 0.549091E 175m,Off,9,1.8863986,1.1341107,Time OK,Free running,12300,8938,0,2019-10-16 09:46:58.000000000,
1571220090,2019-10-16 10:01:30.925,47.638722N 0.549091E 175m,Off,9,1.8863986,1.1341107,Time OK,Free running,13400,8938,0,2019-10-16 09:46:58.000000000,
1571220150,2019-10-16 10:02:30.925,47.638722N 0.549091E 175m,Off,9,1.8863986,1.1341107,Time OK,Free running,14500,8938,0,2019-10-16 09:46:58.000000000,
1571220210,2019-10-16 10:03:30.925,47.638722N 0.549091E 175m,Off,9,1.8863986,1.1341107,Time OK,Free running,15500,8938,0,2019-10-16 09:46:58.000000000,
1571220270,2019-10-16 10:04:30.925,47.638722N 0.549091E 175m,Off,9,1.8863986,1.1341107,Time OK,Free running,16700,8938,0,2019-10-16 09:46:58.000000000,
1571220330,2019-10-16 10:05:30.925,47.638722N 0.549091E 175m,Off,9,1.8863986,1.1341107,Time OK,Free running,18000,8938,0,2019-10-16 09:46:58.000000000,
1571220390,2019-10-16 10:06:30.925,47.638722N 0.549091E 175m,Off,9,1.8863986,1.1341107,Time OK,Free running,19200,8938,0,2019-10-16 09:46:58.000000000,
1571220450,2019-10-16 10:07:30.925,47.638722N 0.549091E 175m,Off,9,1.8863986,1.1341107,Time OK,Free running,20800,8938,0,2019-10-16 09:46:58.000000000,
1571220510,2019-10-16 10:08:30.958,47.638722N 0.549091E 175m,Off,9,1.8863986,1.1341107,Time OK,Free running,22400,8938,0,2019-10-16 09:46:58.000000000,
1571220570,2019-10-16 10:09:30.927,47.638722N 0.549091E 175m,Off,9,1.8863986,1.1341107,Time OK,Free running,23500,8938,0,2019-10-16 09:46:58.000000000,
1571220630,2019-10-16 10:10:30.925,47.638722N 0.549091E 175m,Off,9,1.8863986,1.1341107,Time OK,Free running,24600,8938,0,2019-10-16 09:46:58.000000000,
1571220690,2019-10-16 10:11:30.925,47.638722N 0.549091E 175m,Off,9,1.8863986,1.1341107,Time OK,Free running,25900,8938,0,2019-10-16 09:46:58.000000000,
1571220750,2019-10-16 10:12:30.925,47.638722N 0.549091E 175m,Off,9,1.8863986,1.1341107,Time OK,Free running,27300,8938,0,2019-10-16 09:46:58.000000000,
1571220810,2019-10-16 10:13:30.925,47.638722N 0.549091E 175m,Off,9,1.8863986,1.1341107,Time OK,Free running,28900,8938,0,2019-10-16 09:46:58.000000000,
1571220870,2019-10-16 10:14:30.927,47.638722N 0.549091E 175m,Off,9,1.8863986,1.1341107,Time OK,Free running,30400,8938,0,2019-10-16 09:46:58.000000000,
1571220930,2019-10-16 10:15:30.925,47.638722N 0.549091E 175m,Off,9,1.8863986,1.1341107,Time OK,Free running,31700,8938,0,2019-10-16 09:46:58.000000000,
1571220990,2019-10-16 10:16:30.925,47.638722N 0.549091E 175m,Off,9,1.8863986,1.1341107,Time OK,Free running,33100,8938,0,2019-10-16 09:46:58.000000000,
1571221050,2019-10-16 10:17:30.925,47.638722N 0.549091E 175m,Off,9,1.8863986,1.1341107,Time OK,Free running,34600,8938,0,2019-10-16 09:46:58.000000000,
1571221110,2019-10-16 10:18:30.925,47.638722N 0.549091E 175m,Off,9,1.8863986,1.1341107,Time OK,Free running,36200,8938,0,2019-10-16 09:46:58.000000000,
1571221170,2019-10-16 10:19:30.925,47.638722N 0.549091E 175m,Off,9,1.8863986,1.1341107,Time OK,Free running,37900,8938,0,2019-10-16 09:46:58.000000000,
1571221230,2019-10-16 10:20:30.925,47.638722N 0.549091E 175m,Off,9,1.8863986,1.1341107,Time OK,Free running,39400,8938,0,2019-10-16 09:46:58.000000000,
1571221290,2019-10-16 10:21:30.925,47.638722N 0.549091E 175m,Off,9,1.8863986,1.1341107,Time OK,Free running,40800,8938,0,2019-10-16 09:46:58.000000000,
1571221350,2019-10-16 10:22:30.925,47.638722N 0.549091E 175m,Off,9,1.8863986,1.1341107,Time OK,Free running,42500,8938,0,2019-10-16 09:46:58.000000000,
1571221410,2019-10-16 10:23:30.925,47.638722N 0.549091E 175m,Off,9,1.8863986,1.1341107,Time OK,Free running,44100,8938,0,2019-10-16 09:46:58.000000000,
1571221470,2019-10-16 10:24:30.925,47.638722N 0.549091E 175m,Off,9,1.8863986,1.1341107,Time OK,Free running,45500,8938,0,2019-10-16 09:46:58.000000000,
1571221530,2019-10-16 10:25:30.925,47.638722N 0.549091E 175m,Off,9,1.8863986,1.1341107,Time OK,Free running,47100,8938,0,2019-10-16 09:46:58.000000000,
1571221590,2019-10-16 10:26:30.925,47.638722N 0.549091E 175m,Off,9,1.8863986,1.1341107,Time OK,Free running,48900,8938,0,2019-10-16 09:46:58.000000000,
1571221650,2019-10-16 10:27:30.925,47.638722N 0.549091E 175m,Off,9,1.8863986,1.1341107,Time OK,Free running,50600,8938,0,2019-10-16 09:46:58.000000000,
1571221710,2019-10-16 10:28:30.925,47.638722N 0.549091E 175m,Doing fixes,9,1.5162194,0.83377653,Time OK,Free running,52400,8938,110625,2019-10-16 10:28:27.000000000,
1571221770,2019-10-16 10:29:30.925,47.638722N 0.549091E 175m,Doing fixes,11,1.3384382,0.7044757,Time OK,Fine lock,100,8805,-208,2019-10-16 10:29:27.000000000,
1571221830,2019-10-16 10:30:30.925,47.638722N 0.549091E 175m,Off,11,1.3371729,0.7032935,Time OK,Free running,200,8820,0,2019-10-16 10:30:17.000000000,
1571221890,2019-10-16 10:31:30.943,47.638722N 0.549091E 175m,Off,11,1.3371729,0.7032935,Time OK,Free running,1000,8820,0,2019-10-16 10:30:17.000000000,
1571221950,2019-10-16 10:32:30.925,47.638722N 0.549091E 175m,Off,11,1.3371729,0.7032935,Time OK,Free running,1900,8820,0,2019-10-16 10:30:17.000000000,
1571222010,2019-10-16 10:33:30.940,47.638722N 0.549091E 175m,Off,11,1.3371729,0.7032935,Time OK,Free running,2900,8820,0,2019-10-16 10:30:17.000000000,
1571222070,2019-10-16 10:34:30.925,47.638722N 0.549091E 175m,Off,11,1.3371729,0.7032935,Time OK,Free running,4000,8820,0,2019-10-16 10:30:17.000000000,
1571222130,2019-10-16 10:35:30.925,47.638722N 0.549091E 175m,Off,11,1.3371729,0.7032935,Time OK,Free running,5200,8820,0,2019-10-16 10:30:17.000000000,
1571222190,2019-10-16 10:36:30.925,47.638722N 0.549091E 175m,Off,11,1.3371729,0.7032935,Time OK,Free running,6300,8820,0,2019-10-16 10:30:17.000000000,
1571222250,2019-10-16 10:37:30.925,47.638722N 0.549091E 175m,Off,11,1.3371729,0.7032935,Time OK,Free running,7400,8820,0,2019-10-16 10:30:17.000000000,
1571222310,2019-10-16 10:38:30.925,47.638722N 0.549091E 175m,Off,11,1.3371729,0.7032935,Time OK,Free running,8600,8820,0,2019-10-16 10:30:17.000000000,
1571222370,2019-10-16 10:39:30.925,47.638722N 0.549091E 175m,Off,11,1.3371729,0.7032935,Time OK,Free running,9600,8820,0,2019-10-16 10:30:17.000000000,
1571222430,2019-10-16 10:40:30.925,47.638722N 0.549091E 175m,Off,11,1.3371729,0.7032935,Time OK,Free running,10700,8820,0,2019-10-16 10:30:17.000000000,
1571222490,2019-10-16 10:41:30.925,47.638722N 0.549091E 175m,Off,11,1.3371729,0.7032935,Time OK,Free running,11900,8820,0,2019-10-16 10:30:17.000000000,
1571222550,2019-10-16 10:42:30.925,47.638722N 0.549091E 175m,Off,11,1.3371729,0.7032935,Time OK,Free running,12900,8820,0,2019-10-16 10:30:17.000000000,
1571222610,2019-10-16 10:43:30.937,47.638722N 0.549091E 175m,Off,11,1.3371729,0.7032935,Time OK,Free running,13900,8820,0,2019-10-16 10:30:17.000000000,
1571222670,2019-10-16 10:44:30.925,47.638722N 0.549091E 175m,Off,11,1.3371729,0.7032935,Time OK,Free running,15300,8820,0,2019-10-16 10:30:17.000000000,
1571222730,2019-10-16 10:45:30.925,47.638722N 0.549091E 175m,Off,11,1.3371729,0.7032935,Time OK,Free running,16700,8820,0,2019-10-16 10:30:17.000000000,
1571222790,2019-10-16 10:46:30.925,47.638722N 0.549091E 175m,Off,11,1.3371729,0.7032935,Time OK,Free running,18100,8820,0,2019-10-16 10:30:17.000000000,
1571222850,2019-10-16 10:47:30.925,47.638722N 0.549091E 175m,Off,11,1.3371729,0.7032935,Time OK,Free running,19700,8820,0,2019-10-16 10:30:17.000000000,
1571222910,2019-10-16 10:48:30.925,47.638722N 0.549091E 175m,Off,11,1.3371729,0.7032935,Time OK,Free running,20900,8820,0,2019-10-16 10:30:17.000000000,
1571222970,2019-10-16 10:49:30.925,47.638722N 0.549091E 175m,Off,11,1.3371729,0.7032935,Time OK,Free running,22100,8820,0,2019-10-16 10:30:17.000000000,
1571223030,2019-10-16 10:50:30.925,47.638722N 0.549091E 175m,Off,11,1.3371729,0.7032935,Time OK,Free running,23600,8820,0,2019-10-16 10:30:17.000000000,
1571223090,2019-10-16 10:51:30.925,47.638722N 0.549091E 175m,Off,11,1.3371729,0.7032935,Time OK,Free running,25100,8820,0,2019-10-16 10:30:17.000000000,
1571223150,2019-10-16 10:52:30.935,47.638722N 0.549091E 175m,Off,11,1.3371729,0.7032935,Time OK,Free running,26600,8820,0,2019-10-16 10:30:17.000000000,
1571223210,2019-10-16 10:53:30.925,47.638722N 0.549091E 175m,Off,11,1.3371729,0.7032935,Time OK,Free running,28300,8820,0,2019-10-16 10:30:17.000000000,
1571223270,2019-10-16 10:54:30.925,47.638722N 0.549091E 175m,Off,11,1.3371729,0.7032935,Time OK,Free running,29900,8820,0,2019-10-16 10:30:17.000000000,
1571223330,2019-10-16 10:55:30.925,47.638722N 0.549091E 175m,Off,11,1.3371729,0.7032935,Time OK,Free running,31400,8820,0,2019-10-16 10:30:17.000000000,
1571223390,2019-10-16 10:56:30.925,47.638722N 0.549091E 175m,Off,11,1.3371729,0.7032935,Time OK,Free running,33000,8820,0,2019-10-16 10:30:17.000000000,
1571223450,2019-10-16 10:57:30.925,47.638722N 0.549091E 175m,Off,11,1.3371729,0.7032935,Time OK,Free running,34400,8820,0,2019-10-16 10:30:17.000000000,
1571223510,2019-10-16 10:58:30.925,47.638722N 0.549091E 175m,Off,11,1.3371729,0.7032935,Time OK,Free running,35900,8820,0,2019-10-16 10:30:17.000000000,
1571223570,2019-10-16 10:59:30.963,47.638722N 0.549091E 175m,Off,11,1.3371729,0.7032935,Time OK,Free running,37700,8820,0,2019-10-16 10:30:17.000000000,
