Time(longsecs),Time(UTC),Earth Location,GPS Receiver Status,GPS Satellites Used,GPS PDOP,GPS TDOP,Timing Status,Timing Phase Lock,Timing Uncertainty(ns),DAC Count,Timing Error(ns),GPS Last Update Time,
1571259630,2019-10-16 21:00:30.957,47.638714N 0.549092E 175m,Off,9,1.8597461,0.9628366,Time OK,Free running,43500,8791,0,2019-10-16 20:19:58.000000000,
1571259690,2019-10-16 21:01:30.954,47.638714N 0.549092E 175m,Off,9,1.8597461,0.9628366,Time OK,Free running,44500,8791,0,2019-10-16 20:19:58.000000000,
1571259750,2019-10-16 21:02:30.927,47.638714N 0.549092E 175m,Off,9,1.8597461,0.9628366,Time OK,Free running,45500,8791,0,2019-10-16 20:19:58.000000000,
1571259810,2019-10-16 21:03:30.925,47.638714N 0.549092E 175m,Off,9,1.8597461,0.9628366,Time OK,Free running,46300,8791,0,2019-10-16 20:19:58.000000000,
1571259870,2019-10-16 21:04:30.925,47.638714N 0.549092E 175m,Off,9,1.8597461,0.9628366,Time OK,Free running,47400,8791,0,2019-10-16 20:19:58.000000000,
1571259930,2019-10-16 21:05:30.925,47.638714N 0.549092E 175m,Off,9,1.8597461,0.9628366,Time OK,Free running,48800,8791,0,2019-10-16 20:19:58.000000000,
1571259990,2019-10-16 21:06:30.925,47.638714N 0.549092E 175m,Off,9,1.8597461,0.9628366,Time OK,Free running,50100,8791,0,2019-10-16 20:19:58.000000000,
1571260050,2019-10-16 21:07:30.925,47.638714N 0.549092E 175m,Doing fixes,9,1.9892004,1.0267972,Time OK,Coarse lock,100,6729,21250,2019-10-16 21:07:28.000000000,
1571260110,2019-10-16 21:08:30.926,47.638714N 0.549092E 175m,Doing fixes,9,1.9665843,1.0123196,Time OK,Coarse lock,100,8786,-208,2019-10-16 21:08:28.000000000,
1571260170,2019-10-16 21:09:30.925,47.638714N 0.549092E 175m,Off,9,1.9488814,1.0009843,Time OK,Free running,200,8757,0,2019-10-16 21:09:18.000000000,
1571260230,2019-10-16 21:10:30.938,47.638714N 0.549092E 175m,Off,9,1.9488814,1.0009843,Time OK,Free running,1100,8757,0,2019-10-16 21:09:18.000000000,
1571260290,2019-10-16 21:11:30.925,47.638714N 0.549092E 175m,Off,9,1.9488814,1.0009843,Time OK,Free running,2100,8757,0,2019-10-16 21:09:18.000000000,
1571260350,2019-10-16 21:12:30.925,47.638714N 0.549092E 175m,Off,9,1.9488814,1.0009843,Time OK,Free running,2900,8757,0,2019-10-16 21:09:18.000000000,
1571260410,2019-10-16 21:13:30.925,47.638714N 0.549092E 175m,Off,9,1.9488814,1.0009843,Time OK,Free running,3700,8757,0,2019-10-16 21:09:18.000000000,
1571260470,2019-10-16 21:14:30.925,47.638714N 0.549092E 175m,Off,9,1.9488814,1.0009843,Time OK,Free running,5000,8757,0,2019-10-16 21:09:18.000000000,
1571260530,2019-10-16 21:15:30.925,47.638714N 0.549092E 175m,Off,9,1.9488814,1.0009843,Time OK,Free running,6100,8757,0,2019-10-16 21:09:18.000000000,
1571260590,2019-10-16 21:16:30.925,47.638714N 0.549092E 175m,Off,9,1.9488814,1.0009843,Time OK,Free running,6900,8757,0,2019-10-16 21:09:18.000000000,
1571260650,2019-10-16 21:17:30.937,47.638714N 0.549092E 175m,Off,9,1.9488814,1.0009843,Time OK,Free running,7900,8757,0,2019-10-16 21:09:18.000000000,
1571260710,2019-10-16 21:18:30.958,47.638714N 0.549092E 175m,Off,9,1.9488814,1.0009843,Time OK,Free running,8800,8757,0,2019-10-16 21:09:18.000000000,
1571260770,2019-10-16 21:19:30.925,47.638714N 0.549092E 175m,Off,9,1.9488814,1.0009843,Time OK,Free running,9800,8757,0,2019-10-16 21:09:18.000000000,
1571260830,2019-10-16 21:20:30.925,47.638714N 0.549092E 175m,Off,9,1.9488814,1.0009843,Time OK,Free running,11100,8757,0,2019-10-16 21:09:18.000000000,
1571260890,2019-10-16 21:21:30.925,47.638714N 0.549092E 175m,Off,9,1.9488814,1.0009843,Time OK,Free running,12200,8757,0,2019-10-16 21:09:18.000000000,
1571260950,2019-10-16 21:22:30.957,47.638714N 0.549092E 175m,Off,9,1.9488814,1.0009843,Time OK,Free running,13100,8757,0,2019-10-16 21:09:18.000000000,
1571261010,2019-10-16 21:23:30.954,47.638714N 0.549092E 175m,Off,9,1.9488814,1.0009843,Time OK,Free running,14100,8757,0,2019-10-16 21:09:18.000000000,
1571261070,2019-10-16 21:24:30.925,47.638714N 0.549092E 175m,Off,9,1.9488814,1.0009843,Time OK,Free running,15100,8757,0,2019-10-16 21:09:18.000000000,
1571261130,2019-10-16 21:25:30.925,47.638714N 0.549092E 175m,Off,9,1.9488814,1.0009843,Time OK,Free running,16100,8757,0,2019-10-16 21:09:18.000000000,
1571261190,2019-10-16 21:26:30.925,47.638714N 0.549092E 175m,Off,9,1.9488814,1.0009843,Time OK,Free running,17100,8757,0,2019-10-16 21:09:18.000000000,
1571261250,2019-10-16 21:27:30.925,47.638714N 0.549092E 175m,Off,9,1.9488814,1.0009843,Time OK,Free running,18100,8757,0,2019-10-16 21:09:18.000000000,
1571261310,2019-10-16 21:28:30.925,47.638714N 0.549092E 175m,Off,9,1.9488814,1.0009843,Time OK,Free running,19200,8757,0,2019-10-16 21:09:18.000000000,
1571261370,2019-10-16 21:29:30.925,47.638714N 0.549092E 175m,Off,9,1.9488814,1.0009843,Time OK,Free running,20200,8757,0,2019-10-16 21:09:18.000000000,
1571261430,2019-10-16 21:30:30.925,47.638714N 0.549092E 175m,Off,9,1.9488814,1.0009843,Time OK,Free running,21200,8757,0,2019-10-16 21:09:18.000000000,
1571261490,2019-10-16 21:31:30.925,47.638714N 0.549092E 175m,Off,9,1.9488814,1.0009843,Time OK,Free running,22100,8757,0,2019-10-16 21:09:18.000000000,
1571261550,2019-10-16 21:32:30.925,47.638714N 0.549092E 175m,Off,9,1.9488814,1.0009843,Time OK,Free running,23100,8757,0,2019-10-16 21:09:18.000000000,
1571261610,2019-10-16 21:33:30.932,47.638714N 0.549092E 175m,Off,9,1.9488814,1.0009843,Time OK,Free running,24000,8757,0,2019-10-16 21:09:18.000000000,
1571261670,2019-10-16 21:34:30.925,47.638714N 0.549092E 175m,Off,9,1.9488814,1.0009843,Time OK,Free running,25100,8757,0,2019-10-16 21:09:18.000000000,
1571261730,2019-10-16 21:35:30.925,47.638714N 0.549092E 175m,Off,9,1.9488814,1.0009843,Time OK,Free running,26200,8757,0,2019-10-16 21:09:18.000000000,
1571261790,2019-10-16 21:36:30.925,47.638714N 0.549092E 175m,Off,9,1.9488814,1.0009843,Time OK,Free running,27100,8757,0,2019-10-16 21:09:18.000000000,
1571261850,2019-10-16 21:37:30.925,47.638714N 0.549092E 175m,Off,9,1.9488814,1.0009843,Time OK,Free running,27900,8757,0,2019-10-16 21:09:18.000000000,
1571261910,2019-10-16 21:38:30.925,47.638714N 0.549092E 175m,Off,9,1.9488814,1.0009843,Time OK,Free running,28900,8757,0,2019-10-16 21:09:18.000000000,
1571261970,2019-10-16 21:39:30.925,47.638714N 0.549092E 175m,Off,9,1.9488814,1.0009843,Time OK,Free running,29700,8757,0,2019-10-16 21:09:18.000000000,
1571262030,2019-10-16 21:40:30.925,47.638714N 0.549092E 175m,Off,9,1.9488814,1.0009843,Time OK,Free running,30600,8757,0,2019-10-16 21:09:18.000000000,
1571262090,2019-10-16 21:41:30.925,47.638714N 0.549092E 175m,Off,9,1.9488814,1.0009843,Time OK,Free running,31800,8757,0,2019-10-16 21:09:18.000000000,
1571262150,2019-10-16 21:42:30.925,47.638714N 0.549092E 175m,Off,9,1.9488814,1.0009843,Time OK,Free running,32700,8757,0,2019-10-16 21:09:18.000000000,
1571262210,2019-10-16 21:43:30.925,47.638714N 0.549092E 175m,Off,9,1.9488814,1.0009843,Time OK,Free running,33500,8757,0,2019-10-16 21:09:18.000000000,
1571262270,2019-10-16 21:44:30.925,47.638714N 0.549092E 175m,Off,9,1.9488814,1.0009843,Time OK,Free running,34400,8757,0,2019-10-16 21:09:18.000000000,
1571262330,2019-10-16 21:45:30.925,47.638714N 0.549092E 175m,Off,9,1.9488814,1.0009843,Time OK,Free running,35200,8757,0,2019-10-16 21:09:18.000000000,
1571262390,2019-10-16 21:46:30.925,47.638714N 0.549092E 175m,Off,9,1.9488814,1.0009843,Time OK,Free running,36100,8757,0,2019-10-16 21:09:18.000000000,
1571262450,2019-10-16 21:47:30.925,47.638714N 0.549092E 175m,Off,9,1.9488814,1.0009843,Time OK,Free running,37000,8757,0,2019-10-16 21:09:18.000000000,
1571262510,2019-10-16 21:48:30.957,47.638714N 0.549092E 175m,Off,9,1.9488814,1.0009843,Time OK,Free running,38000,8757,0,2019-10-16 21:09:18.000000000,
1571262570,2019-10-16 21:49:30.925,47.638714N 0.549092E 175m,Off,9,1.9488814,1.0009843,Time OK,Free running,38900,8757,0,2019-10-16 21:09:18.000000000,
1571262630,2019-10-16 21:50:30.925,47.638714N 0.549092E 175m,Off,9,1.9488814,1.0009843,Time OK,Free running,39800,8757,0,2019-10-16 21:09:18.000000000,
1571262690,2019-10-16 21:51:30.925,47.638714N 0.549092E 175m,Off,9,1.9488814,1.0009843,Time OK,Free running,40700,8757,0,2019-10-16 21:09:18.000000000,
1571262750,2019-10-16 21:52:30.925,47.638714N 0.549092E 175m,Off,9,1.9488814,1.0009843,Time OK,Free running,41700,8757,0,2019-10-16 21:09:18.000000000,
1571262810,2019-10-16 21:53:30.925,47.638714N 0.549092E 175m,Off,9,1.9488814,1.0009843,Time OK,Free running,42800,8757,0,2019-10-16 21:09:18.000000000,
1571262870,2019-10-16 21:54:30.925,47.638714N 0.549092E 175m,Off,9,1.9488814,1.0009843,Time OK,Free running,43600,8757,0,2019-10-16 21:09:18.000000000,
1571262930,2019-10-16 21:55:30.925,47.638714N 0.549092E 175m,Off,9,1.9488814,1.0009843,Time OK,Free running,44400,8757,0,2019-10-16 21:09:18.000000000,
1571262990,2019-10-16 21:56:30.925,47.638714N 0.549092E 175m,Off,9,1.9488814,1.0009843,Time OK,Free running,45400,8757,0,2019-10-16 21:09:18.000000000,
1571263050,2019-10-16 21:57:30.925,47.638714N 0.549092E 175m,Off,9,1.9488814,1.0009843,Time OK,Free running,46300,8757,0,2019-10-16 21:09:18.000000000,
1571263110,2019-10-16 21:58:30.925,47.638714N 0.549092E 175m,Off,9,1.9488814,1.0009843,Time OK,Free running,47100,8757,0,2019-10-16 21:09:18.000000000,
1571263170,2019-10-16 21:59:30.925,47.638714N 0.549092E 175m,Off,9,1.9488814,1.0009843,Time OK,Free running,48300,8757,0,2019-10-16 21:09:18.000000000,
