Time(longsecs),Time(UTC),GPS Satellite Acquisition Flag 1,GPS Satellite Acquisition Flag 2,GPS Satellite Acquisition Flag 3,GPS Satellite Acquisition Flag 4,GPS Satellite Acquisition Flag 5,GPS Satellite Acquisition Flag 6,GPS Satellite Acquisition Flag 7,GPS Satellite Acquisition Flag 8,GPS Satellite Acquisition Flag 9,GPS Satellite Acquisition Flag 10,GPS Satellite Acquisition Flag 11,GPS Satellite Acquisition Flag 12,GPS Satellite Azimuth 1(Degrees),GPS Satellite Azimuth 2(Degrees),GPS Satellite Azimuth 3(Degrees),GPS Satellite Azimuth 4(Degrees),GPS Satellite Azimuth 5(Degrees),GPS Satellite Azimuth 6(Degrees),GPS Satellite Azimuth 7(Degrees),GPS Satellite Azimuth 8(Degrees),GPS Satellite Azimuth 9(Degrees),GPS Satellite Azimuth 10(Degrees),GPS Satellite Azimuth 11(Degrees),GPS Satellite Azimuth 12(Degrees),GPS Satellite Elevation 1(Degrees),GPS Satellite Elevation 2(Degrees),GPS Satellite Elevation 3(Degrees),GPS Satellite Elevation 4(Degrees),GPS Satellite Elevation 5(Degrees),GPS Satellite Elevation 6(Degrees),GPS Satellite Elevation 7(Degrees),GPS Satellite Elevation 8(Degrees),GPS Satellite Elevation 9(Degrees),GPS Satellite Elevation 10(Degrees),GPS Satellite Elevation 11(Degrees),GPS Satellite Elevation 12(Degrees),GPS Satellite PRN 1,GPS Satellite PRN 2,GPS Satellite PRN 3,GPS Satellite PRN 4,GPS Satellite PRN 5,GPS Satellite PRN 6,GPS Satellite PRN 7,GPS Satellite PRN 8,GPS Satellite PRN 9,GPS Satellite PRN 10,GPS Satellite PRN 11,GPS Satellite PRN 12,GPS Satellite Signal Level 1(AMU),GPS Satellite Signal Level 2(AMU),GPS Satellite Signal Level 3(AMU),GPS Satellite Signal Level 4(AMU),GPS Satellite Signal Level 5(AMU),GPS Satellite Signal Level 6(AMU),GPS Satellite Signal Level 7(AMU),GPS Satellite Signal Level 8(AMU),GPS Satellite Signal Level 9(AMU),GPS Satellite Signal Level 10(AMU),GPS Satellite Signal Level 11(AMU),GPS Satellite Signal Level 12(AMU),
1571184030,2019-10-16 00:00:30.925,Acquired,Acquired,Acquired,Acquired,Acquired,Acquired,Acquired,Acquired,Acquired,Acquired,,,9.5227192E1,5.1665023999999995E1,6.2009888E1,3.01023232E2,1.3487838399999998E2,2.79473728E2,1.94794016E2,3.03663744E2,2.6647648E2,3.7223228E1,,,2.6750372E1,1.9811904E1,5.9604431999999996E1,3.4440208E1,3.583988E1,6.920286399999999E1,3.1855672E1,1.8811443999999998E1,4.3071768E1,5.228388E0,,,2,6,12,14,24,25,29,31,32,19,,,11,7,15,6,8,15,11,10,11,6,,,
1571184090,2019-10-16 00:01:30.925,Acquired,Acquired,Acquired,Acquired,Acquired,Acquired,Acquired,Acquired,Acquired,Acquired,,,9.5227192E1,5.1665023999999995E1,6.2009888E1,3.01023232E2,1.3487838399999998E2,2.79473728E2,1.94794016E2,3.03663744E2,2.6647648E2,3.7223228E1,,,2.6750372E1,1.9811904E1,5.9604431999999996E1,3.4440208E1,3.583988E1,6.920286399999999E1,3.1855672E1,1.8811443999999998E1,4.3071768E1,5.228388E0,,,2,6,12,14,24,25,29,31,32,19,,,11,7,15,6,8,15,11,10,11,6,,,
1571184150,2019-10-16 00:02:30.925,Acquired,Acquired,Acquired,Acquired,Acquired,Acquired,Acquired,Acquired,Acquired,Acquired,,,9.5227192E1,5.1665023999999995E1,6.2009888E1,3.01023232E2,1.3487838399999998E2,2.79473728E2,1.94794016E2,3.03663744E2,2.6647648E2,3.7223228E1,,,2.6750372E1,1.9811904E1,5.9604431999999996E1,3.4440208E1,3.583988E1,6.920286399999999E1,3.1855672E1,1.8811443999999998E1,4.3071768E1,5.228388E0,,,2,6,12,14,24,25,29,31,32,19,,,11,7,15,6,8,15,11,10,11,6,,,
1571184210,2019-10-16 00:03:30.925,Acquired,Acquired,Acquired,Acquired,Acquired,Acquired,Acquired,Acquired,Acquired,Acquired,,,9.5227192E1,5.1665023999999995E1,6.2009888E1,3.01023232E2,1.3487838399999998E2,2.79473728E2,1.94794016E2,3.03663744E2,2.6647648E2,3.7223228E1,,,2.6750372E1,1.9811904E1,5.9604431999999996E1,3.4440208E1,3.583988E1,6.920286399999999E1,3.1855672E1,1.8811443999999998E1,4.3071768E1,5.228388E0,,,2,6,12,14,24,25,29,31,32,19,,,11,7,15,6,8,15,11,10,11,6,,,
1571184270,2019-10-16 00:04:30.925,Acquired,Acquired,Acquired,Acquired,Acquired,Acquired,Acquired,Acquired,Acquired,Acquired,,,9.5227192E1,5.1665023999999995E1,6.2009888E1,3.01023232E2,1.3487838399999998E2,2.79473728E2,1.94794016E2,3.03663744E2,2.6647648E2,3.7223228E1,,,2.6750372E1,1.9811904E1,5.9604431999999996E1,3.4440208E1,3.583988E1,6.920286399999999E1,3.1855672E1,1.8811443999999998E1,4.3071768E1,5.228388E0,,,2,6,12,14,24,25,29,31,32,19,,,11,7,15,6,8,15,11,10,11,6,,,
1571184330,2019-10-16 00:05:30.925,Acquired,Acquired,Acquired,Acquired,Acquired,Acquired,Acquired,Acquired,Acquired,Acquired,,,9.5227192E1,5.1665023999999995E1,6.2009888E1,3.01023232E2,1.3487838399999998E2,2.79473728E2,1.94794016E2,3.03663744E2,2.6647648E2,3.7223228E1,,,2.6750372E1,1.9811904E1,5.9604431999999996E1,3.4440208E1,3.583988E1,6.920286399999999E1,3.1855672E1,1.8811443999999998E1,4.3071768E1,5.228388E0,,,2,6,12,14,24,25,29,31,32,19,,,11,7,15,6,8,15,11,10,11,6,,,
1571184390,2019-10-16 00:06:30.925,Acquired,Acquired,Acquired,Acquired,Acquired,Acquired,Acquired,Acquired,Acquired,Acquired,,,9.5227192E1,5.1665023999999995E1,6.2009888E1,3.01023232E2,1.3487838399999998E2,2.79473728E2,1.94794016E2,3.03663744E2,2.6647648E2,3.7223228E1,,,2.6750372E1,1.9811904E1,5.9604431999999996E1,3.4440208E1,3.583988E1,6.920286399999999E1,3.1855672E1,1.8811443999999998E1,4.3071768E1,5.228388E0,,,2,6,12,14,24,25,29,31,32,19,,,11,7,15,6,8,15,11,10,11,6,,,
1571184450,2019-10-16 00:07:30.925,Acquired,Acquired,Acquired,Acquired,Acquired,Acquired,Acquired,Acquired,Acquired,Acquired,,,9.5227192E1,5.1665023999999995E1,6.2009888E1,3.01023232E2,1.3487838399999998E2,2.79473728E2,1.94794016E2,3.03663744E2,2.6647648E2,3.7223228E1,,,2.6750372E1,1.9811904E1,5.9604431999999996E1,3.4440208E1,3.583988E1,6.920286399999999E1,3.1855672E1,1.8811443999999998E1,4.3071768E1,5.228388E0,,,2,6,12,14,24,25,29,31,32,19,,,11,7,15,6,8,15,11,10,11,6,,,
1571184510,2019-10-16 00:08:30.925,Acquired,Acquired,Acquired,Acquired,Acquired,Acquired,Acquired,Acquired,Acquired,Acquired,,,9.5227192E1,5.1665023999999995E1,6.2009888E1,3.01023232E2,1.3487838399999998E2,2.79473728E2,1.94794016E2,3.03663744E2,2.6647648E2,3.7223228E1,,,2.6750372E1,1.9811904E1,5.9604431999999996E1,3.4440208E1,3.583988E1,6.920286399999999E1,3.1855672E1,1.8811443999999998E1,4.3071768E1,5.228388E0,,,2,6,12,14,24,25,29,31,32,19,,,11,7,15,6,8,15,11,10,11,6,,,
1571184570,2019-10-16 00:09:30.925,Acquired,Acquired,Acquired,Acquired,Acquired,Acquired,Acquired,Acquired,Acquired,Acquired,,,9.5227192E1,5.1665023999999995E1,6.2009888E1,3.01023232E2,1.3487838399999998E2,2.79473728E2,1.94794016E2,3.03663744E2,2.6647648E2,3.7223228E1,,,2.6750372E1,1.9811904E1,5.9604431999999996E1,3.4440208E1,3.583988E1,6.920286399999999E1,3.1855672E1,1.8811443999999998E1,4.3071768E1,5.228388E0,,,2,6,12,14,24,25,29,31,32,19,,,11,7,15,6,8,15,11,10,11,6,,,
1571184630,2019-10-16 00:10:30.925,Acquired,Acquired,Acquired,Acquired,Acquired,Acquired,Acquired,Acquired,Acquired,Acquired,,,9.5227192E1,5.1665023999999995E1,6.2009888E1,3.01023232E2,1.3487838399999998E2,2.79473728E2,1.94794016E2,3.03663744E2,2.6647648E2,3.7223228E1,,,2.6750372E1,1.9811904E1,5.9604431999999996E1,3.4440208E1,3.583988E1,6.920286399999999E1,3.1855672E1,1.8811443999999998E1,4.3071768E1,5.228388E0,,,2,6,12,14,24,25,29,31,32,19,,,11,7,15,6,8,15,11,10,11,6,,,
1571184690,2019-10-16 00:11:30.925,Acquired,Acquired,Acquired,Acquired,Acquired,Acquired,Acquired,Acquired,Acquired,Acquired,,,9.5227192E1,5.1665023999999995E1,6.2009888E1,3.01023232E2,1.3487838399999998E2,2.79473728E2,1.94794016E2,3.03663744E2,2.6647648E2,3.7223228E1,,,2.6750372E1,1.9811904E1,5.9604431999999996E1,3.4440208E1,3.583988E1,6.920286399999999E1,3.1855672E1,1.8811443999999998E1,4.3071768E1,5.228388E0,,,2,6,12,14,24,25,29,31,32,19,,,11,7,15,6,8,15,11,10,11,6,,,
1571184750,2019-10-16 00:12:30.925,Acquired,Acquired,Acquired,Acquired,Acquired,Acquired,Acquired,Acquired,Acquired,Acquired,,,9.5227192E1,5.1665023999999995E1,6.2009888E1,3.01023232E2,1.3487838399999998E2,2.79473728E2,1.94794016E2,3.03663744E2,2.6647648E2,3.7223228E1,,,2.6750372E1,1.9811904E1,5.9604431999999996E1,3.4440208E1,3.583988E1,6.920286399999999E1,3.1855672E1,1.8811443999999998E1,4.3071768E1,5.228388E0,,,2,6,12,14,24,25,29,31,32,19,,,11,7,15,6,8,15,11,10,11,6,,,
1571184810,2019-10-16 00:13:30.925,Acquired,Acquired,Acquired,Acquired,Acquired,Acquired,Acquired,Acquired,Acquired,Acquired,,,9.5227192E1,5.1665023999999995E1,6.2009888E1,3.01023232E2,1.3487838399999998E2,2.79473728E2,1.94794016E2,3.03663744E2,2.6647648E2,3.7223228E1,,,2.6750372E1,1.9811904E1,5.9604431999999996E1,3.4440208E1,3.583988E1,6.920286399999999E1,3.1855672E1,1.8811443999999998E1,4.3071768E1,5.228388E0,,,2,6,12,14,24,25,29,31,32,19,,,11,7,15,6,8,15,11,10,11,6,,,
1571184870,2019-10-16 00:14:30.925,Acquired,Acquired,Acquired,Acquired,Acquired,Acquired,Acquired,Acquired,Acquired,Acquired,,,9.5227192E1,5.1665023999999995E1,6.2009888E1,3.01023232E2,1.3487838399999998E2,2.79473728E2,1.94794016E2,3.03663744E2,2.6647648E2,3.7223228E1,,,2.6750372E1,1.9811904E1,5.9604431999999996E1,3.4440208E1,3.583988E1,6.920286399999999E1,3.1855672E1,1.8811443999999998E1,4.3071768E1,5.228388E0,,,2,6,12,14,24,25,29,31,32,19,,,11,7,15,6,8,15,11,10,11,6,,,
1571184930,2019-10-16 00:15:30.925,Acquired,Acquired,Acquired,Acquired,Acquired,Acquired,Acquired,Acquired,Acquired,Acquired,,,9.5227192E1,5.1665023999999995E1,6.2009888E1,3.01023232E2,1.3487838399999998E2,2.79473728E2,1.94794016E2,3.03663744E2,2.6647648E2,3.7223228E1,,,2.6750372E1,1.9811904E1,5.9604431999999996E1,3.4440208E1,3.583988E1,6.920286399999999E1,3.1855672E1,1.8811443999999998E1,4.3071768E1,5.228388E0,,,2,6,12,14,24,25,29,31,32,19,,,11,7,15,6,8,15,11,10,11,6,,,
1571184990,2019-10-16 00:16:30.927,Acquired,Acquired,Acquired,Acquired,Acquired,Acquired,Acquired,Acquired,Acquired,Acquired,,,9.5227192E1,5.1665023999999995E1,6.2009888E1,3.01023232E2,1.3487838399999998E2,2.79473728E2,1.94794016E2,3.03663744E2,2.6647648E2,3.7223228E1,,,2.6750372E1,1.9811904E1,5.9604431999999996E1,3.4440208E1,3.583988E1,6.920286399999999E1,3.1855672E1,1.8811443999999998E1,4.3071768E1,5.228388E0,,,2,6,12,14,24,25,29,31,32,19,,,11,7,15,6,8,15,11,10,11,6,,,
1571185050,2019-10-16 00:17:30.925,Acquired,Acquired,Acquired,Acquired,Acquired,Acquired,Acquired,Acquired,Acquired,Acquired,,,9.5227192E1,5.1665023999999995E1,6.2009888E1,3.01023232E2,1.3487838399999998E2,2.79473728E2,1.94794016E2,3.03663744E2,2.6647648E2,3.7223228E1,,,2.6750372E1,1.9811904E1,5.9604431999999996E1,3.4440208E1,3.583988E1,6.920286399999999E1,3.1855672E1,1.8811443999999998E1,4.3071768E1,5.228388E0,,,2,6,12,14,24,25,29,31,32,19,,,11,7,15,6,8,15,11,10,11,6,,,
1571185110,2019-10-16 00:18:30.925,Acquired,Acquired,Acquired,Acquired,Acquired,Acquired,Acquired,Acquired,Acquired,Acquired,,,9.5227192E1,5.1665023999999995E1,6.2009888E1,3.01023232E2,1.3487838399999998E2,2.79473728E2,1.94794016E2,3.03663744E2,2.6647648E2,3.7223228E1,,,2.6750372E1,1.9811904E1,5.9604431999999996E1,3.4440208E1,3.583988E1,6.920286399999999E1,3.1855672E1,1.8811443999999998E1,4.3071768E1,5.228388E0,,,2,6,12,14,24,25,29,31,32,19,,,11,7,15,6,8,15,11,10,11,6,,,
1571185170,2019-10-16 00:19:30.925,Acquired,Acquired,Acquired,Acquired,Acquired,Acquired,Acquired,Acquired,Acquired,Acquired,,,9.5227192E1,5.1665023999999995E1,6.2009888E1,3.01023232E2,1.3487838399999998E2,2.79473728E2,1.94794016E2,3.03663744E2,2.6647648E2,3.7223228E1,,,2.6750372E1,1.9811904E1,5.9604431999999996E1,3.4440208E1,3.583988E1,6.920286399999999E1,3.1855672E1,1.8811443999999998E1,4.3071768E1,5.228388E0,,,2,6,12,14,24,25,29,31,32,19,,,11,7,15,6,8,15,11,10,11,6,,,
1571185230,2019-10-16 00:20:30.927,Acquired,Acquired,Acquired,Acquired,Acquired,Acquired,Acquired,Acquired,Acquired,Acquired,,,9.5227192E1,5.1665023999999995E1,6.2009888E1,3.01023232E2,1.3487838399999998E2,2.79473728E2,1.94794016E2,3.03663744E2,2.6647648E2,3.7223228E1,,,2.6750372E1,1.9811904E1,5.9604431999999996E1,3.4440208E1,3.583988E1,6.920286399999999E1,3.1855672E1,1.8811443999999998E1,4.3071768E1,5.228388E0,,,2,6,12,14,24,25,29,31,32,19,,,11,7,15,6,8,15,11,10,11,6,,,
1571185290,2019-10-16 00:21:30.927,Acquired,Acquired,Acquired,Acquired,Acquired,Acquired,Acquired,Acquired,Acquired,Acquired,,,9.5227192E1,5.1665023999999995E1,6.2009888E1,3.01023232E2,1.3487838399999998E2,2.79473728E2,1.94794016E2,3.03663744E2,2.6647648E2,3.7223228E1,,,2.6750372E1,1.9811904E1,5.9604431999999996E1,3.4440208E1,3.583988E1,6.920286399999999E1,3.1855672E1,1.8811443999999998E1,4.3071768E1,5.228388E0,,,2,6,12,14,24,25,29,31,32,19,,,11,7,15,6,8,15,11,10,11,6,,,
1571185350,2019-10-16 00:22:30.925,Acquired,Acquired,Acquired,Acquired,Acquired,Acquired,Acquired,Acquired,Acquired,Acquired,,,9.5227192E1,5.1665023999999995E1,6.2009888E1,3.01023232E2,1.3487838399999998E2,2.79473728E2,1.94794016E2,3.03663744E2,2.6647648E2,3.7223228E1,,,2.6750372E1,1.9811904E1,5.9604431999999996E1,3.4440208E1,3.583988E1,6.920286399999999E1,3.1855672E1,1.8811443999999998E1,4.3071768E1,5.228388E0,,,2,6,12,14,24,25,29,31,32,19,,,11,7,15,6,8,15,11,10,11,6,,,
1571185410,2019-10-16 00:23:30.925,Acquired,Acquired,Acquired,Acquired,Acquired,Acquired,Acquired,Acquired,Acquired,Acquired,,,9.5227192E1,5.1665023999999995E1,6.2009888E1,3.01023232E2,1.3487838399999998E2,2.79473728E2,1.94794016E2,3.03663744E2,2.6647648E2,3.7223228E1,,,2.6750372E1,1.9811904E1,5.9604431999999996E1,3.4440208E1,3.583988E1,6.920286399999999E1,3.1855672E1,1.8811443999999998E1,4.3071768E1,5.228388E0,,,2,6,12,14,24,25,29,31,32,19,,,11,7,15,6,8,15,11,10,11,6,,,
1571185470,2019-10-16 00:24:30.925,Acquired,Acquired,Acquired,Acquired,Acquired,Acquired,Acquired,Acquired,Acquired,Acquired,,,9.5227192E1,5.1665023999999995E1,6.2009888E1,3.01023232E2,1.3487838399999998E2,2.79473728E2,1.94794016E2,3.03663744E2,2.6647648E2,3.7223228E1,,,2.6750372E1,1.9811904E1,5.9604431999999996E1,3.4440208E1,3.583988E1,6.920286399999999E1,3.1855672E1,1.8811443999999998E1,4.3071768E1,5.228388E0,,,2,6,12,14,24,25,29,31,32,19,,,11,7,15,6,8,15,11,10,11,6,,,
1571185530,2019-10-16 00:25:30.925,Acquired,Acquired,Acquired,Acquired,Acquired,Acquired,Acquired,Acquired,Acquired,Acquired,,,9.5227192E1,5.1665023999999995E1,6.2009888E1,3.01023232E2,1.3487838399999998E2,2.79473728E2,1.94794016E2,3.03663744E2,2.6647648E2,3.7223228E1,,,2.6750372E1,1.9811904E1,5.9604431999999996E1,3.4440208E1,3.583988E1,6.920286399999999E1,3.1855672E1,1.8811443999999998E1,4.3071768E1,5.228388E0,,,2,6,12,14,24,25,29,31,32,19,,,11,7,15,6,8,15,11,10,11,6,,,
1571185590,2019-10-16 00:26:30.925,Acquired,Acquired,Acquired,Acquired,Acquired,Acquired,Acquired,Acquired,Acquired,Acquired,,,9.5227192E1,5.1665023999999995E1,6.2009888E1,3.01023232E2,1.3487838399999998E2,2.79473728E2,1.94794016E2,3.03663744E2,2.6647648E2,3.7223228E1,,,2.6750372E1,1.9811904E1,5.9604431999999996E1,3.4440208E1,3.583988E1,6.920286399999999E1,3.1855672E1,1.8811443999999998E1,4.3071768E1,5.228388E0,,,2,6,12,14,24,25,29,31,32,19,,,11,7,15,6,8,15,11,10,11,6,,,
1571185650,2019-10-16 00:27:30.925,Acquired,Acquired,Acquired,Acquired,Acquired,Acquired,Acquired,Acquired,Acquired,Acquired,,,9.5227192E1,5.1665023999999995E1,6.2009888E1,3.01023232E2,1.3487838399999998E2,2.79473728E2,1.94794016E2,3.03663744E2,2.6647648E2,3.7223228E1,,,2.6750372E1,1.9811904E1,5.9604431999999996E1,3.4440208E1,3.583988E1,6.920286399999999E1,3.1855672E1,1.8811443999999998E1,4.3071768E1,5.228388E0,,,2,6,12,14,24,25,29,31,32,19,,,11,7,15,6,8,15,11,10,11,6,,,
1571185710,2019-10-16 00:28:30.925,Acquired,Acquired,Acquired,Acquired,Acquired,Acquired,Acquired,Acquired,Acquired,Acquired,,,9.5227192E1,5.1665023999999995E1,6.2009888E1,3.01023232E2,1.3487838399999998E2,2.79473728E2,1.94794016E2,3.03663744E2,2.6647648E2,3.7223228E1,,,2.6750372E1,1.9811904E1,5.9604431999999996E1,3.4440208E1,3.583988E1,6.920286399999999E1,3.1855672E1,1.8811443999999998E1,4.3071768E1,5.228388E0,,,2,6,12,14,24,25,29,31,32,19,,,11,7,15,6,8,15,11,10,11,6,,,
1571185770,2019-10-16 00:29:30.925,Acquired,Acquired,Acquired,Acquired,Acquired,Acquired,Acquired,Acquired,Acquired,Acquired,,,9.5227192E1,5.1665023999999995E1,6.2009888E1,3.01023232E2,1.3487838399999998E2,2.79473728E2,1.94794016E2,3.03663744E2,2.6647648E2,3.7223228E1,,,2.6750372E1,1.9811904E1,5.9604431999999996E1,3.4440208E1,3.583988E1,6.920286399999999E1,3.1855672E1,1.8811443999999998E1,4.3071768E1,5.228388E0,,,2,6,12,14,24,25,29,31,32,19,,,11,7,15,6,8,15,11,10,11,6,,,
1571185830,2019-10-16 00:30:30.925,Acquired,Acquired,Acquired,Acquired,Acquired,Acquired,Acquired,Acquired,Acquired,Acquired,,,9.5227192E1,5.1665023999999995E1,6.2009888E1,3.01023232E2,1.3487838399999998E2,2.79473728E2,1.94794016E2,3.03663744E2,2.6647648E2,3.7223228E1,,,2.6750372E1,1.9811904E1,5.9604431999999996E1,3.4440208E1,3.583988E1,6.920286399999999E1,3.1855672E1,1.8811443999999998E1,4.3071768E1,5.228388E0,,,2,6,12,14,24,25,29,31,32,19,,,11,7,15,6,8,15,11,10,11,6,,,
1571185890,2019-10-16 00:31:30.925,Acquired,Acquired,Acquired,Acquired,Acquired,Acquired,Acquired,Acquired,Acquired,Acquired,,,9.5227192E1,5.1665023999999995E1,6.2009888E1,3.01023232E2,1.3487838399999998E2,2.79473728E2,1.94794016E2,3.03663744E2,2.6647648E2,3.7223228E1,,,2.6750372E1,1.9811904E1,5.9604431999999996E1,3.4440208E1,3.583988E1,6.920286399999999E1,3.1855672E1,1.8811443999999998E1,4.3071768E1,5.228388E0,,,2,6,12,14,24,25,29,31,32,19,,,11,7,15,6,8,15,11,10,11,6,,,
1571185950,2019-10-16 00:32:30.925,Acquired,Acquired,Acquired,Acquired,Acquired,Acquired,Acquired,Acquired,Acquired,Acquired,,,9.5227192E1,5.1665023999999995E1,6.2009888E1,3.01023232E2,1.3487838399999998E2,2.79473728E2,1.94794016E2,3.03663744E2,2.6647648E2,3.7223228E1,,,2.6750372E1,1.9811904E1,5.9604431999999996E1,3.4440208E1,3.583988E1,6.920286399999999E1,3.1855672E1,1.8811443999999998E1,4.3071768E1,5.228388E0,,,2,6,12,14,24,25,29,31,32,19,,,11,7,15,6,8,15,11,10,11,6,,,
1571186010,2019-10-16 00:33:30.925,Acquired,Acquired,Acquired,Acquired,Acquired,Acquired,Acquired,Acquired,Acquired,Acquired,,,9.5227192E1,5.1665023999999995E1,6.2009888E1,3.01023232E2,1.3487838399999998E2,2.79473728E2,1.94794016E2,3.03663744E2,2.6647648E2,3.7223228E1,,,2.6750372E1,1.9811904E1,5.9604431999999996E1,3.4440208E1,3.583988E1,6.920286399999999E1,3.1855672E1,1.8811443999999998E1,4.3071768E1,5.228388E0,,,2,6,12,14,24,25,29,31,32,19,,,11,7,15,6,8,15,11,10,11,6,,,
1571186070,2019-10-16 00:34:30.925,Acquired,Acquired,Acquired,Acquired,Acquired,Acquired,Acquired,Acquired,Acquired,Acquired,,,9.5227192E1,5.1665023999999995E1,6.2009888E1,3.01023232E2,1.3487838399999998E2,2.79473728E2,1.94794016E2,3.03663744E2,2.6647648E2,3.7223228E1,,,2.6750372E1,1.9811904E1,5.9604431999999996E1,3.4440208E1,3.583988E1,6.920286399999999E1,3.1855672E1,1.8811443999999998E1,4.3071768E1,5.228388E0,,,2,6,12,14,24,25,29,31,32,19,,,11,7,15,6,8,15,11,10,11,6,,,
1571186130,2019-10-16 00:35:30.925,Acquired,Acquired,Acquired,Acquired,Acquired,Acquired,Acquired,Acquired,Acquired,Acquired,,,9.5227192E1,5.1665023999999995E1,6.2009888E1,3.01023232E2,1.3487838399999998E2,2.79473728E2,1.94794016E2,3.03663744E2,2.6647648E2,3.7223228E1,,,2.6750372E1,1.9811904E1,5.9604431999999996E1,3.4440208E1,3.583988E1,6.920286399999999E1,3.1855672E1,1.8811443999999998E1,4.3071768E1,5.228388E0,,,2,6,12,14,24,25,29,31,32,19,,,11,7,15,6,8,15,11,10,11,6,,,
1571186190,2019-10-16 00:36:30.957,Acquired,Acquired,Acquired,Acquired,Acquired,Acquired,Acquired,Acquired,Acquired,Acquired,,,9.5227192E1,5.1665023999999995E1,6.2009888E1,3.01023232E2,1.3487838399999998E2,2.79473728E2,1.94794016E2,3.03663744E2,2.6647648E2,3.7223228E1,,,2.6750372E1,1.9811904E1,5.9604431999999996E1,3.4440208E1,3.583988E1,6.920286399999999E1,3.1855672E1,1.8811443999999998E1,4.3071768E1,5.228388E0,,,2,6,12,14,24,25,29,31,32,19,,,11,7,15,6,8,15,11,10,11,6,,,
1571186250,2019-10-16 00:37:30.927,Acquired,Acquired,Acquired,Acquired,Acquired,Acquired,Acquired,Acquired,Acquired,Acquired,,,9.5227192E1,5.1665023999999995E1,6.2009888E1,3.01023232E2,1.3487838399999998E2,2.79473728E2,1.94794016E2,3.03663744E2,2.6647648E2,3.7223228E1,,,2.6750372E1,1.9811904E1,5.9604431999999996E1,3.4440208E1,3.583988E1,6.920286399999999E1,3.1855672E1,1.8811443999999998E1,4.3071768E1,5.228388E0,,,2,6,12,14,24,25,29,31,32,19,,,11,7,15,6,8,15,11,10,11,6,,,
1571186310,2019-10-16 00:38:30.925,Acquired,Acquired,Acquired,Acquired,Acquired,Acquired,Acquired,Acquired,Acquired,Acquired,,,9.5227192E1,5.1665023999999995E1,6.2009888E1,3.01023232E2,1.3487838399999998E2,2.79473728E2,1.94794016E2,3.03663744E2,2.6647648E2,3.7223228E1,,,2.6750372E1,1.9811904E1,5.9604431999999996E1,3.4440208E1,3.583988E1,6.920286399999999E1,3.1855672E1,1.8811443999999998E1,4.3071768E1,5.228388E0,,,2,6,12,14,24,25,29,31,32,19,,,11,7,15,6,8,15,11,10,11,6,,,
1571186370,2019-10-16 00:39:30.927,Acquired,Acquired,Acquired,Acquired,Acquired,Acquired,Acquired,Acquired,Acquired,Acquired,,,9.5227192E1,5.1665023999999995E1,6.2009888E1,3.01023232E2,1.3487838399999998E2,2.79473728E2,1.94794016E2,3.03663744E2,2.6647648E2,3.7223228E1,,,2.6750372E1,1.9811904E1,5.9604431999999996E1,3.4440208E1,3.583988E1,6.920286399999999E1,3.1855672E1,1.8811443999999998E1,4.3071768E1,5.228388E0,,,2,6,12,14,24,25,29,31,32,19,,,11,7,15,6,8,15,11,10,11,6,,,
1571186430,2019-10-16 00:40:30.925,Acquired,Acquired,Acquired,Acquired,Acquired,Acquired,Acquired,Acquired,Acquired,Acquired,,,9.5227192E1,5.1665023999999995E1,6.2009888E1,3.01023232E2,1.3487838399999998E2,2.79473728E2,1.94794016E2,3.03663744E2,2.6647648E2,3.7223228E1,,,2.6750372E1,1.9811904E1,5.9604431999999996E1,3.4440208E1,3.583988E1,6.920286399999999E1,3.1855672E1,1.8811443999999998E1,4.3071768E1,5.228388E0,,,2,6,12,14,24,25,29,31,32,19,,,11,7,15,6,8,15,11,10,11,6,,,
1571186490,2019-10-16 00:41:30.925,Acquired,Acquired,Acquired,Acquired,Acquired,Acquired,Acquired,Acquired,Acquired,Acquired,,,9.5227192E1,5.1665023999999995E1,6.2009888E1,3.01023232E2,1.3487838399999998E2,2.79473728E2,1.94794016E2,3.03663744E2,2.6647648E2,3.7223228E1,,,2.6750372E1,1.9811904E1,5.9604431999999996E1,3.4440208E1,3.583988E1,6.920286399999999E1,3.1855672E1,1.8811443999999998E1,4.3071768E1,5.228388E0,,,2,6,12,14,24,25,29,31,32,19,,,11,7,15,6,8,15,11,10,11,6,,,
1571186550,2019-10-16 00:42:30.934,Acquired,Acquired,Acquired,Acquired,Acquired,Acquired,Acquired,Acquired,Acquired,Acquired,,,9.5227192E1,5.1665023999999995E1,6.2009888E1,3.01023232E2,1.3487838399999998E2,2.79473728E2,1.94794016E2,3.03663744E2,2.6647648E2,3.7223228E1,,,2.6750372E1,1.9811904E1,5.9604431999999996E1,3.4440208E1,3.583988E1,6.920286399999999E1,3.1855672E1,1.8811443999999998E1,4.3071768E1,5.228388E0,,,2,6,12,14,24,25,29,31,32,19,,,11,7,15,6,8,15,11,10,11,6,,,
1571186610,2019-10-16 00:43:30.925,Acquired,Acquired,Acquired,Acquired,Acquired,Acquired,Acquired,Acquired,Acquired,,,,9.4799144E1,5.1226684E1,6.234762E1,3.0056991999999997E2,1.3507897599999998E2,2.8025251199999997E2,1.9485672E2,3.0375952E2,2.65830992E2,,,,2.6973481999999997E1,1.9771331999999997E1,5.9168988E1,3.4629196E1,3.5405336E1,6.960643999999999E1,3.235044E1,1.9226855999999998E1,4.295558E1,,,,2,6,12,14,24,25,29,31,32,,,,12,8,15,7,8,15,12,12,12,,,,
1571186670,2019-10-16 00:44:30.935,Acquired,Acquired,Acquired,Acquired,Acquired,Acquired,Acquired,Acquired,Acquired,,,,7.028390399999999E1,7.8210352E1,2.7325104E2,1.4344332799999998E2,2.4846054E1,1.9782407999999998E2,3.0402128E2,2.39863328E2,3.182333E1,,,,3.2732084E1,3.8071092E1,3.6956056E1,1.3951310999999999E1,8.051360799999999E1,5.7675115999999996E1,4.0371272E1,3.0504226E1,1.2044642999999999E1,,,,2,12,14,24,25,29,31,32,6,,,,9,15,9,2,15,16,14,12,7,,,,
1571186730,2019-10-16 00:45:30.925,Acquired,Acquired,Acquired,Acquired,Acquired,Acquired,Acquired,Acquired,Acquired,,,,6.979484E1,7.8501448E1,2.72707584E2,1.43569168E2,2.7427578E1,1.9785216E2,3.0390646399999997E2,2.39485504E2,3.1526021999999998E1,,,,3.2716913999999996E1,3.7685504E1,3.6850927999999996E1,1.3553021999999999E1,8.031903199999999E1,5.8175611999999994E1,4.0781984E1,3.0175684E1,1.1803026E1,,,,2,12,14,24,25,29,31,32,6,,,,9,15,9,1,15,15,13,12,6,,,,
1571186790,2019-10-16 00:46:30.927,Acquired,Acquired,Acquired,Acquired,Acquired,Acquired,Acquired,Acquired,Acquired,,,,6.979484E1,7.8501448E1,2.72707584E2,1.43569168E2,2.7427578E1,1.9785216E2,3.0390646399999997E2,2.39485504E2,3.1526021999999998E1,,,,3.2716913999999996E1,3.7685504E1,3.6850927999999996E1,1.3553021999999999E1,8.031903199999999E1,5.8175611999999994E1,4.0781984E1,3.0175684E1,1.1803026E1,,,,2,12,14,24,25,29,31,32,6,,,,9,15,9,1,15,15,13,12,6,,,,
1571186850,2019-10-16 00:47:30.925,Acquired,Acquired,Acquired,Acquired,Acquired,Acquired,Acquired,Acquired,Acquired,,,,6.979484E1,7.8501448E1,2.72707584E2,1.43569168E2,2.7427578E1,1.9785216E2,3.0390646399999997E2,2.39485504E2,3.1526021999999998E1,,,,3.2716913999999996E1,3.7685504E1,3.6850927999999996E1,1.3553021999999999E1,8.031903199999999E1,5.8175611999999994E1,4.0781984E1,3.0175684E1,1.1803026E1,,,,2,12,14,24,25,29,31,32,6,,,,9,15,9,1,15,15,13,12,6,,,,
1571186910,2019-10-16 00:48:30.925,Acquired,Acquired,Acquired,Acquired,Acquired,Acquired,Acquired,Acquired,Acquired,,,,6.979484E1,7.8501448E1,2.72707584E2,1.43569168E2,2.7427578E1,1.9785216E2,3.0390646399999997E2,2.39485504E2,3.1526021999999998E1,,,,3.2716913999999996E1,3.7685504E1,3.6850927999999996E1,1.3553021999999999E1,8.031903199999999E1,5.8175611999999994E1,4.0781984E1,3.0175684E1,1.1803026E1,,,,2,12,14,24,25,29,31,32,6,,,,9,15,9,1,15,15,13,12,6,,,,
1571186970,2019-10-16 00:49:30.925,Acquired,Acquired,Acquired,Acquired,Acquired,Acquired,Acquired,Acquired,Acquired,,,,6.979484E1,7.8501448E1,2.72707584E2,1.43569168E2,2.7427578E1,1.9785216E2,3.0390646399999997E2,2.39485504E2,3.1526021999999998E1,,,,3.2716913999999996E1,3.7685504E1,3.6850927999999996E1,1.3553021999999999E1,8.031903199999999E1,5.8175611999999994E1,4.0781984E1,3.0175684E1,1.1803026E1,,,,2,12,14,24,25,29,31,32,6,,,,9,15,9,1,15,15,13,12,6,,,,
1571187030,2019-10-16 00:50:30.925,Acquired,Acquired,Acquired,Acquired,Acquired,Acquired,Acquired,Acquired,Acquired,,,,6.979484E1,7.8501448E1,2.72707584E2,1.43569168E2,2.7427578E1,1.9785216E2,3.0390646399999997E2,2.39485504E2,3.1526021999999998E1,,,,3.2716913999999996E1,3.7685504E1,3.6850927999999996E1,1.3553021999999999E1,8.031903199999999E1,5.8175611999999994E1,4.0781984E1,3.0175684E1,1.1803026E1,,,,2,12,14,24,25,29,31,32,6,,,,9,15,9,1,15,15,13,12,6,,,,
1571187090,2019-10-16 00:51:30.925,Acquired,Acquired,Acquired,Acquired,Acquired,Acquired,Acquired,Acquired,Acquired,,,,6.979484E1,7.8501448E1,2.72707584E2,1.43569168E2,2.7427578E1,1.9785216E2,3.0390646399999997E2,2.39485504E2,3.1526021999999998E1,,,,3.2716913999999996E1,3.7685504E1,3.6850927999999996E1,1.3553021999999999E1,8.031903199999999E1,5.8175611999999994E1,4.0781984E1,3.0175684E1,1.1803026E1,,,,2,12,14,24,25,29,31,32,6,,,,9,15,9,1,15,15,13,12,6,,,,
1571187150,2019-10-16 00:52:30.925,Acquired,Acquired,Acquired,Acquired,Acquired,Acquired,Acquired,Acquired,Acquired,,,,6.979484E1,7.8501448E1,2.72707584E2,1.43569168E2,2.7427578E1,1.9785216E2,3.0390646399999997E2,2.39485504E2,3.1526021999999998E1,,,,3.2716913999999996E1,3.7685504E1,3.6850927999999996E1,1.3553021999999999E1,8.031903199999999E1,5.8175611999999994E1,4.0781984E1,3.0175684E1,1.1803026E1,,,,2,12,14,24,25,29,31,32,6,,,,9,15,9,1,15,15,13,12,6,,,,
1571187210,2019-10-16 00:53:30.925,Acquired,Acquired,Acquired,Acquired,Acquired,Acquired,Acquired,Acquired,Acquired,,,,6.979484E1,7.8501448E1,2.72707584E2,1.43569168E2,2.7427578E1,1.9785216E2,3.0390646399999997E2,2.39485504E2,3.1526021999999998E1,,,,3.2716913999999996E1,3.7685504E1,3.6850927999999996E1,1.3553021999999999E1,8.031903199999999E1,5.8175611999999994E1,4.0781984E1,3.0175684E1,1.1803026E1,,,,2,12,14,24,25,29,31,32,6,,,,9,15,9,1,15,15,13,12,6,,,,
1571187270,2019-10-16 00:54:30.958,Acquired,Acquired,Acquired,Acquired,Acquired,Acquired,Acquired,Acquired,Acquired,,,,6.979484E1,7.8501448E1,2.72707584E2,1.43569168E2,2.7427578E1,1.9785216E2,3.0390646399999997E2,2.39485504E2,3.1526021999999998E1,,,,3.2716913999999996E1,3.7685504E1,3.6850927999999996E1,1.3553021999999999E1,8.031903199999999E1,5.8175611999999994E1,4.0781984E1,3.0175684E1,1.1803026E1,,,,2,12,14,24,25,29,31,32,6,,,,9,15,9,1,15,15,13,12,6,,,,
1571187330,2019-10-16 00:55:30.925,Acquired,Acquired,Acquired,Acquired,Acquired,Acquired,Acquired,Acquired,Acquired,,,,6.979484E1,7.8501448E1,2.72707584E2,1.43569168E2,2.7427578E1,1.9785216E2,3.0390646399999997E2,2.39485504E2,3.1526021999999998E1,,,,3.2716913999999996E1,3.7685504E1,3.6850927999999996E1,1.3553021999999999E1,8.031903199999999E1,5.8175611999999994E1,4.0781984E1,3.0175684E1,1.1803026E1,,,,2,12,14,24,25,29,31,32,6,,,,9,15,9,1,15,15,13,12,6,,,,
1571187390,2019-10-16 00:56:30.925,Acquired,Acquired,Acquired,Acquired,Acquired,Acquired,Acquired,Acquired,Acquired,,,,6.979484E1,7.8501448E1,2.72707584E2,1.43569168E2,2.7427578E1,1.9785216E2,3.0390646399999997E2,2.39485504E2,3.1526021999999998E1,,,,3.2716913999999996E1,3.7685504E1,3.6850927999999996E1,1.3553021999999999E1,8.031903199999999E1,5.8175611999999994E1,4.0781984E1,3.0175684E1,1.1803026E1,,,,2,12,14,24,25,29,31,32,6,,,,9,15,9,1,15,15,13,12,6,,,,
1571187450,2019-10-16 00:57:30.925,Acquired,Acquired,Acquired,Acquired,Acquired,Acquired,Acquired,Acquired,Acquired,,,,6.979484E1,7.8501448E1,2.72707584E2,1.43569168E2,2.7427578E1,1.9785216E2,3.0390646399999997E2,2.39485504E2,3.1526021999999998E1,,,,3.2716913999999996E1,3.7685504E1,3.6850927999999996E1,1.3553021999999999E1,8.031903199999999E1,5.8175611999999994E1,4.0781984E1,3.0175684E1,1.1803026E1,,,,2,12,14,24,25,29,31,32,6,,,,9,15,9,1,15,15,13,12,6,,,,
1571187510,2019-10-16 00:58:30.925,Acquired,Acquired,Acquired,Acquired,Acquired,Acquired,Acquired,Acquired,Acquired,,,,6.979484E1,7.8501448E1,2.72707584E2,1.43569168E2,2.7427578E1,1.9785216E2,3.0390646399999997E2,2.39485504E2,3.1526021999999998E1,,,,3.2716913999999996E1,3.7685504E1,3.6850927999999996E1,1.3553021999999999E1,8.031903199999999E1,5.8175611999999994E1,4.0781984E1,3.0175684E1,1.1803026E1,,,,2,12,14,24,25,29,31,32,6,,,,9,15,9,1,15,15,13,12,6,,,,
1571187570,2019-10-16 00:59:30.925,Acquired,Acquired,Acquired,Acquired,Acquired,Acquired,Acquired,Acquired,Acquired,,,,6.979484E1,7.8501448E1,2.72707584E2,1.43569168E2,2.7427578E1,1.9785216E2,3.0390646399999997E2,2.39485504E2,3.1526021999999998E1,,,,3.2716913999999996E1,3.7685504E1,3.6850927999999996E1,1.3553021999999999E1,8.031903199999999E1,5.8175611999999994E1,4.0781984E1,3.0175684E1,1.1803026E1,,,,2,12,14,24,25,29,31,32,6,,,,9,15,9,1,15,15,13,12,6,,,,
