Time(longsecs),Time(UTC),GPS Satellite Acquisition Flag 1,GPS Satellite Acquisition Flag 2,GPS Satellite Acquisition Flag 3,GPS Satellite Acquisition Flag 4,GPS Satellite Acquisition Flag 5,GPS Satellite Acquisition Flag 6,GPS Satellite Acquisition Flag 7,GPS Satellite Acquisition Flag 8,GPS Satellite Acquisition Flag 9,GPS Satellite Acquisition Flag 10,GPS Satellite Acquisition Flag 11,GPS Satellite Acquisition Flag 12,GPS Satellite Azimuth 1(Degrees),GPS Satellite Azimuth 2(Degrees),GPS Satellite Azimuth 3(Degrees),GPS Satellite Azimuth 4(Degrees),GPS Satellite Azimuth 5(Degrees),GPS Satellite Azimuth 6(Degrees),GPS Satellite Azimuth 7(Degrees),GPS Satellite Azimuth 8(Degrees),GPS Satellite Azimuth 9(Degrees),GPS Satellite Azimuth 10(Degrees),GPS Satellite Azimuth 11(Degrees),GPS Satellite Azimuth 12(Degrees),GPS Satellite Elevation 1(Degrees),GPS Satellite Elevation 2(Degrees),GPS Satellite Elevation 3(Degrees),GPS Satellite Elevation 4(Degrees),GPS Satellite Elevation 5(Degrees),GPS Satellite Elevation 6(Degrees),GPS Satellite Elevation 7(Degrees),GPS Satellite Elevation 8(Degrees),GPS Satellite Elevation 9(Degrees),GPS Satellite Elevation 10(Degrees),GPS Satellite Elevation 11(Degrees),GPS Satellite Elevation 12(Degrees),GPS Satellite PRN 1,GPS Satellite PRN 2,GPS Satellite PRN 3,GPS Satellite PRN 4,GPS Satellite PRN 5,GPS Satellite PRN 6,GPS Satellite PRN 7,GPS Satellite PRN 8,GPS Satellite PRN 9,GPS Satellite PRN 10,GPS Satellite PRN 11,GPS Satellite PRN 12,GPS Satellite Signal Level 1(AMU),GPS Satellite Signal Level 2(AMU),GPS Satellite Signal Level 3(AMU),GPS Satellite Signal Level 4(AMU),GPS Satellite Signal Level 5(AMU),GPS Satellite Signal Level 6(AMU),GPS Satellite Signal Level 7(AMU),GPS Satellite Signal Level 8(AMU),GPS Satellite Signal Level 9(AMU),GPS Satellite Signal Level 10(AMU),GPS Satellite Signal Level 11(AMU),GPS Satellite Signal Level 12(AMU),
1571194830,2019-10-16 03:00:30.937,Acquired,Acquired,Acquired,Acquired,Acquired,Acquired,Acquired,Acquired,Acquired,Acquired,,,2.88728992E2,1.74897344E2,1.0437822399999999E2,2.9368947199999997E2,5.655992E1,2.40305728E2,3.7583596E1,7.3247248E1,2.3414574399999998E2,3.2781001599999996E2,,,1.3397601E1,3.1052287999999997E1,4.3538968E1,4.0260296E1,7.2051152E1,6.234592E1,1.2162244E1,9.094448E0,1.0291178E1,7.7792319999999995E0,,,16,21,25,26,29,31,2,5,14,23,,,5,9,16,12,15,14,9,4,4,8,,,
1571194890,2019-10-16 03:01:30.925,Acquired,Acquired,Acquired,Acquired,Acquired,Acquired,Acquired,Acquired,Acquired,Acquired,,,2.88728992E2,1.74897344E2,1.0437822399999999E2,2.9368947199999997E2,5.655992E1,2.40305728E2,3.7583596E1,7.3247248E1,2.3414574399999998E2,3.2781001599999996E2,,,1.3397601E1,3.1052287999999997E1,4.3538968E1,4.0260296E1,7.2051152E1,6.234592E1,1.2162244E1,9.094448E0,1.0291178E1,7.7792319999999995E0,,,16,21,25,26,29,31,2,5,14,23,,,5,9,16,12,15,14,9,4,4,8,,,
1571194950,2019-10-16 03:02:30.925,Acquired,Acquired,Acquired,Acquired,Acquired,Acquired,Acquired,Acquired,Acquired,Acquired,,,2.88728992E2,1.74897344E2,1.0437822399999999E2,2.9368947199999997E2,5.655992E1,2.40305728E2,3.7583596E1,7.3247248E1,2.3414574399999998E2,3.2781001599999996E2,,,1.3397601E1,3.1052287999999997E1,4.3538968E1,4.0260296E1,7.2051152E1,6.234592E1,1.2162244E1,9.094448E0,1.0291178E1,7.7792319999999995E0,,,16,21,25,26,29,31,2,5,14,23,,,5,9,16,12,15,14,9,4,4,8,,,
1571195010,2019-10-16 03:03:30.925,Acquired,Acquired,Acquired,Acquired,Acquired,Acquired,Acquired,Acquired,Acquired,Acquired,,,2.88728992E2,1.74897344E2,1.0437822399999999E2,2.9368947199999997E2,5.655992E1,2.40305728E2,3.7583596E1,7.3247248E1,2.3414574399999998E2,3.2781001599999996E2,,,1.3397601E1,3.1052287999999997E1,4.3538968E1,4.0260296E1,7.2051152E1,6.234592E1,1.2162244E1,9.094448E0,1.0291178E1,7.7792319999999995E0,,,16,21,25,26,29,31,2,5,14,23,,,5,9,16,12,15,14,9,4,4,8,,,
1571195070,2019-10-16 03:04:30.925,Acquired,Acquired,Acquired,Acquired,Acquired,Acquired,Acquired,Acquired,Acquired,Acquired,,,2.88728992E2,1.74897344E2,1.0437822399999999E2,2.9368947199999997E2,5.655992E1,2.40305728E2,3.7583596E1,7.3247248E1,2.3414574399999998E2,3.2781001599999996E2,,,1.3397601E1,3.1052287999999997E1,4.3538968E1,4.0260296E1,7.2051152E1,6.234592E1,1.2162244E1,9.094448E0,1.0291178E1,7.7792319999999995E0,,,16,21,25,26,29,31,2,5,14,23,,,5,9,16,12,15,14,9,4,4,8,,,
1571195130,2019-10-16 03:05:30.927,Acquired,Acquired,Acquired,Acquired,Acquired,Acquired,Acquired,Acquired,Acquired,Acquired,,,2.88728992E2,1.74897344E2,1.0437822399999999E2,2.9368947199999997E2,5.655992E1,2.40305728E2,3.7583596E1,7.3247248E1,2.3414574399999998E2,3.2781001599999996E2,,,1.3397601E1,3.1052287999999997E1,4.3538968E1,4.0260296E1,7.2051152E1,6.234592E1,1.2162244E1,9.094448E0,1.0291178E1,7.7792319999999995E0,,,16,21,25,26,29,31,2,5,14,23,,,5,9,16,12,15,14,9,4,4,8,,,
1571195190,2019-10-16 03:06:30.925,Acquired,Acquired,Acquired,Acquired,Acquired,Acquired,Acquired,Acquired,Acquired,Acquired,,,2.88728992E2,1.74897344E2,1.0437822399999999E2,2.9368947199999997E2,5.655992E1,2.40305728E2,3.7583596E1,7.3247248E1,2.3414574399999998E2,3.2781001599999996E2,,,1.3397601E1,3.1052287999999997E1,4.3538968E1,4.0260296E1,7.2051152E1,6.234592E1,1.2162244E1,9.094448E0,1.0291178E1,7.7792319999999995E0,,,16,21,25,26,29,31,2,5,14,23,,,5,9,16,12,15,14,9,4,4,8,,,
1571195250,2019-10-16 03:07:30.925,Acquired,Acquired,Acquired,Acquired,Acquired,Acquired,Acquired,Acquired,Acquired,Acquired,,,2.88728992E2,1.74897344E2,1.0437822399999999E2,2.9368947199999997E2,5.655992E1,2.40305728E2,3.7583596E1,7.3247248E1,2.3414574399999998E2,3.2781001599999996E2,,,1.3397601E1,3.1052287999999997E1,4.3538968E1,4.0260296E1,7.2051152E1,6.234592E1,1.2162244E1,9.094448E0,1.0291178E1,7.7792319999999995E0,,,16,21,25,26,29,31,2,5,14,23,,,5,9,16,12,15,14,9,4,4,8,,,
1571195310,2019-10-16 03:08:30.927,Acquired,Acquired,Acquired,Acquired,Acquired,Acquired,Acquired,Acquired,Acquired,Acquired,,,2.88728992E2,1.74897344E2,1.0437822399999999E2,2.9368947199999997E2,5.655992E1,2.40305728E2,3.7583596E1,7.3247248E1,2.3414574399999998E2,3.2781001599999996E2,,,1.3397601E1,3.1052287999999997E1,4.3538968E1,4.0260296E1,7.2051152E1,6.234592E1,1.2162244E1,9.094448E0,1.0291178E1,7.7792319999999995E0,,,16,21,25,26,29,31,2,5,14,23,,,5,9,16,12,15,14,9,4,4,8,,,
1571195370,2019-10-16 03:09:30.925,Acquired,Acquired,Acquired,Acquired,Acquired,Acquired,Acquired,Acquired,Acquired,Acquired,,,2.88728992E2,1.74897344E2,1.0437822399999999E2,2.9368947199999997E2,5.655992E1,2.40305728E2,3.7583596E1,7.3247248E1,2.3414574399999998E2,3.2781001599999996E2,,,1.3397601E1,3.1052287999999997E1,4.3538968E1,4.0260296E1,7.2051152E1,6.234592E1,1.2162244E1,9.094448E0,1.0291178E1,7.7792319999999995E0,,,16,21,25,26,29,31,2,5,14,23,,,5,9,16,12,15,14,9,4,4,8,,,
1571195430,2019-10-16 03:10:30.925,,,,Acquired,Acquired,Acquired,Acquired,Acquired,Acquired,Acquired,,,,,,2.9384851199999997E2,5.6435463999999996E1,2.39351712E2,3.7443252E1,7.2867736E1,2.3386903999999998E2,3.27445248E2,,,,,,4.0676823999999996E1,7.158012E1,6.2157335999999994E1,1.1827509E1,9.289223E0,9.946028E0,7.851728E0,,,,,,26,29,31,2,5,14,23,,,,,,13,15,13,8,5,3,7,,,
1571195490,2019-10-16 03:11:30.925,Acquired,Acquired,Acquired,Acquired,Acquired,Acquired,Acquired,Acquired,Acquired,,,,5.2728752E1,2.985048E2,1.6668776E2,1.19023344E2,2.97374464E2,6.0941224E1,2.09967168E2,3.08740768E2,2.5258091199999998E2,,,,1.4828166999999999E1,3.332685E1,5.4668195999999995E1,2.3578098E1,6.2115579999999994E1,4.9243331999999995E1,4.5380288E1,6.855385999999999E0,6.574794E0,,,,5,16,21,25,26,29,31,23,27,,,,12,11,15,7,14,15,15,11,2,,,,
1571195550,2019-10-16 03:12:30.925,Acquired,Acquired,Acquired,Acquired,Acquired,Acquired,Acquired,Acquired,Acquired,,,,5.2728752E1,2.985048E2,1.6668776E2,1.19023344E2,2.97374464E2,6.0941224E1,2.09967168E2,3.08740768E2,2.5258091199999998E2,,,,1.4828166999999999E1,3.332685E1,5.4668195999999995E1,2.3578098E1,6.2115579999999994E1,4.9243331999999995E1,4.5380288E1,6.855385999999999E0,6.574794E0,,,,5,16,21,25,26,29,31,23,27,,,,12,11,15,7,14,15,15,11,2,,,,
1571195610,2019-10-16 03:13:30.925,Acquired,Acquired,Acquired,Acquired,Acquired,Acquired,Acquired,Acquired,Acquired,,,,5.2728752E1,2.985048E2,1.6668776E2,1.19023344E2,2.97374464E2,6.0941224E1,2.09967168E2,3.08740768E2,2.5258091199999998E2,,,,1.4828166999999999E1,3.332685E1,5.4668195999999995E1,2.3578098E1,6.2115579999999994E1,4.9243331999999995E1,4.5380288E1,6.855385999999999E0,6.574794E0,,,,5,16,21,25,26,29,31,23,27,,,,12,11,15,7,14,15,15,11,2,,,,
1571195670,2019-10-16 03:14:30.925,Acquired,Acquired,Acquired,Acquired,Acquired,Acquired,Acquired,Acquired,Acquired,,,,5.2728752E1,2.985048E2,1.6668776E2,1.19023344E2,2.97374464E2,6.0941224E1,2.09967168E2,3.08740768E2,2.5258091199999998E2,,,,1.4828166999999999E1,3.332685E1,5.4668195999999995E1,2.3578098E1,6.2115579999999994E1,4.9243331999999995E1,4.5380288E1,6.855385999999999E0,6.574794E0,,,,5,16,21,25,26,29,31,23,27,,,,12,11,15,7,14,15,15,11,2,,,,
1571195730,2019-10-16 03:15:30.936,Acquired,Acquired,Acquired,Acquired,Acquired,Acquired,Acquired,Acquired,Acquired,,,,5.2728752E1,2.985048E2,1.6668776E2,1.19023344E2,2.97374464E2,6.0941224E1,2.09967168E2,3.08740768E2,2.5258091199999998E2,,,,1.4828166999999999E1,3.332685E1,5.4668195999999995E1,2.3578098E1,6.2115579999999994E1,4.9243331999999995E1,4.5380288E1,6.855385999999999E0,6.574794E0,,,,5,16,21,25,26,29,31,23,27,,,,12,11,15,7,14,15,15,11,2,,,,
1571195790,2019-10-16 03:16:30.925,Acquired,Acquired,Acquired,Acquired,Acquired,Acquired,Acquired,Acquired,Acquired,,,,5.2728752E1,2.985048E2,1.6668776E2,1.19023344E2,2.97374464E2,6.0941224E1,2.09967168E2,3.08740768E2,2.5258091199999998E2,,,,1.4828166999999999E1,3.332685E1,5.4668195999999995E1,2.3578098E1,6.2115579999999994E1,4.9243331999999995E1,4.5380288E1,6.855385999999999E0,6.574794E0,,,,5,16,21,25,26,29,31,23,27,,,,12,11,15,7,14,15,15,11,2,,,,
1571195850,2019-10-16 03:17:30.925,Acquired,Acquired,Acquired,Acquired,Acquired,Acquired,Acquired,Acquired,Acquired,,,,5.2728752E1,2.985048E2,1.6668776E2,1.19023344E2,2.97374464E2,6.0941224E1,2.09967168E2,3.08740768E2,2.5258091199999998E2,,,,1.4828166999999999E1,3.332685E1,5.4668195999999995E1,2.3578098E1,6.2115579999999994E1,4.9243331999999995E1,4.5380288E1,6.855385999999999E0,6.574794E0,,,,5,16,21,25,26,29,31,23,27,,,,12,11,15,7,14,15,15,11,2,,,,
1571195910,2019-10-16 03:18:30.925,Acquired,Acquired,Acquired,Acquired,Acquired,Acquired,Acquired,Acquired,Acquired,,,,5.2728752E1,2.985048E2,1.6668776E2,1.19023344E2,2.97374464E2,6.0941224E1,2.09967168E2,3.08740768E2,2.5258091199999998E2,,,,1.4828166999999999E1,3.332685E1,5.4668195999999995E1,2.3578098E1,6.2115579999999994E1,4.9243331999999995E1,4.5380288E1,6.855385999999999E0,6.574794E0,,,,5,16,21,25,26,29,31,23,27,,,,12,11,15,7,14,15,15,11,2,,,,
1571195970,2019-10-16 03:19:30.925,Acquired,Acquired,Acquired,Acquired,Acquired,Acquired,Acquired,Acquired,Acquired,,,,5.2728752E1,2.985048E2,1.6668776E2,1.19023344E2,2.97374464E2,6.0941224E1,2.09967168E2,3.08740768E2,2.5258091199999998E2,,,,1.4828166999999999E1,3.332685E1,5.4668195999999995E1,2.3578098E1,6.2115579999999994E1,4.9243331999999995E1,4.5380288E1,6.855385999999999E0,6.574794E0,,,,5,16,21,25,26,29,31,23,27,,,,12,11,15,7,14,15,15,11,2,,,,
1571196030,2019-10-16 03:20:30.925,Acquired,Acquired,Acquired,Acquired,Acquired,Acquired,Acquired,Acquired,Acquired,,,,5.2728752E1,2.985048E2,1.6668776E2,1.19023344E2,2.97374464E2,6.0941224E1,2.09967168E2,3.08740768E2,2.5258091199999998E2,,,,1.4828166999999999E1,3.332685E1,5.4668195999999995E1,2.3578098E1,6.2115579999999994E1,4.9243331999999995E1,4.5380288E1,6.855385999999999E0,6.574794E0,,,,5,16,21,25,26,29,31,23,27,,,,12,11,15,7,14,15,15,11,2,,,,
1571196090,2019-10-16 03:21:30.925,Acquired,Acquired,Acquired,Acquired,Acquired,Acquired,Acquired,Acquired,Acquired,,,,5.2728752E1,2.985048E2,1.6668776E2,1.19023344E2,2.97374464E2,6.0941224E1,2.09967168E2,3.08740768E2,2.5258091199999998E2,,,,1.4828166999999999E1,3.332685E1,5.4668195999999995E1,2.3578098E1,6.2115579999999994E1,4.9243331999999995E1,4.5380288E1,6.855385999999999E0,6.574794E0,,,,5,16,21,25,26,29,31,23,27,,,,12,11,15,7,14,15,15,11,2,,,,
1571196150,2019-10-16 03:22:30.925,Acquired,Acquired,Acquired,Acquired,Acquired,Acquired,Acquired,Acquired,Acquired,,,,5.2728752E1,2.985048E2,1.6668776E2,1.19023344E2,2.97374464E2,6.0941224E1,2.09967168E2,3.08740768E2,2.5258091199999998E2,,,,1.4828166999999999E1,3.332685E1,5.4668195999999995E1,2.3578098E1,6.2115579999999994E1,4.9243331999999995E1,4.5380288E1,6.855385999999999E0,6.574794E0,,,,5,16,21,25,26,29,31,23,27,,,,12,11,15,7,14,15,15,11,2,,,,
1571196210,2019-10-16 03:23:30.925,Acquired,Acquired,Acquired,Acquired,Acquired,Acquired,Acquired,Acquired,Acquired,,,,5.2728752E1,2.985048E2,1.6668776E2,1.19023344E2,2.97374464E2,6.0941224E1,2.09967168E2,3.08740768E2,2.5258091199999998E2,,,,1.4828166999999999E1,3.332685E1,5.4668195999999995E1,2.3578098E1,6.2115579999999994E1,4.9243331999999995E1,4.5380288E1,6.855385999999999E0,6.574794E0,,,,5,16,21,25,26,29,31,23,27,,,,12,11,15,7,14,15,15,11,2,,,,
1571196270,2019-10-16 03:24:30.925,Acquired,Acquired,Acquired,Acquired,Acquired,Acquired,Acquired,Acquired,Acquired,,,,5.2728752E1,2.985048E2,1.6668776E2,1.19023344E2,2.97374464E2,6.0941224E1,2.09967168E2,3.08740768E2,2.5258091199999998E2,,,,1.4828166999999999E1,3.332685E1,5.4668195999999995E1,2.3578098E1,6.2115579999999994E1,4.9243331999999995E1,4.5380288E1,6.855385999999999E0,6.574794E0,,,,5,16,21,25,26,29,31,23,27,,,,12,11,15,7,14,15,15,11,2,,,,
1571196330,2019-10-16 03:25:30.925,Acquired,Acquired,Acquired,Acquired,Acquired,Acquired,Acquired,Acquired,Acquired,,,,5.2728752E1,2.985048E2,1.6668776E2,1.19023344E2,2.97374464E2,6.0941224E1,2.09967168E2,3.08740768E2,2.5258091199999998E2,,,,1.4828166999999999E1,3.332685E1,5.4668195999999995E1,2.3578098E1,6.2115579999999994E1,4.9243331999999995E1,4.5380288E1,6.855385999999999E0,6.574794E0,,,,5,16,21,25,26,29,31,23,27,,,,12,11,15,7,14,15,15,11,2,,,,
1571196390,2019-10-16 03:26:30.926,Acquired,Acquired,Acquired,Acquired,Acquired,Acquired,Acquired,Acquired,Acquired,,,,5.2728752E1,2.985048E2,1.6668776E2,1.19023344E2,2.97374464E2,6.0941224E1,2.09967168E2,3.08740768E2,2.5258091199999998E2,,,,1.4828166999999999E1,3.332685E1,5.4668195999999995E1,2.3578098E1,6.2115579999999994E1,4.9243331999999995E1,4.5380288E1,6.855385999999999E0,6.574794E0,,,,5,16,21,25,26,29,31,23,27,,,,12,11,15,7,14,15,15,11,2,,,,
1571196450,2019-10-16 03:27:30.925,Acquired,Acquired,Acquired,Acquired,Acquired,Acquired,Acquired,Acquired,Acquired,,,,5.2728752E1,2.985048E2,1.6668776E2,1.19023344E2,2.97374464E2,6.0941224E1,2.09967168E2,3.08740768E2,2.5258091199999998E2,,,,1.4828166999999999E1,3.332685E1,5.4668195999999995E1,2.3578098E1,6.2115579999999994E1,4.9243331999999995E1,4.5380288E1,6.855385999999999E0,6.574794E0,,,,5,16,21,25,26,29,31,23,27,,,,12,11,15,7,14,15,15,11,2,,,,
1571196510,2019-10-16 03:28:30.925,Acquired,Acquired,Acquired,Acquired,Acquired,Acquired,Acquired,Acquired,Acquired,,,,5.2728752E1,2.985048E2,1.6668776E2,1.19023344E2,2.97374464E2,6.0941224E1,2.09967168E2,3.08740768E2,2.5258091199999998E2,,,,1.4828166999999999E1,3.332685E1,5.4668195999999995E1,2.3578098E1,6.2115579999999994E1,4.9243331999999995E1,4.5380288E1,6.855385999999999E0,6.574794E0,,,,5,16,21,25,26,29,31,23,27,,,,12,11,15,7,14,15,15,11,2,,,,
1571196570,2019-10-16 03:29:30.925,Acquired,Acquired,Acquired,Acquired,Acquired,Acquired,Acquired,Acquired,Acquired,,,,5.2728752E1,2.985048E2,1.6668776E2,1.19023344E2,2.97374464E2,6.0941224E1,2.09967168E2,3.08740768E2,2.5258091199999998E2,,,,1.4828166999999999E1,3.332685E1,5.4668195999999995E1,2.3578098E1,6.2115579999999994E1,4.9243331999999995E1,4.5380288E1,6.855385999999999E0,6.574794E0,,,,5,16,21,25,26,29,31,23,27,,,,12,11,15,7,14,15,15,11,2,,,,
1571196630,2019-10-16 03:30:30.925,Acquired,Acquired,Acquired,Acquired,Acquired,Acquired,Acquired,Acquired,Acquired,,,,5.2728752E1,2.985048E2,1.6668776E2,1.19023344E2,2.97374464E2,6.0941224E1,2.09967168E2,3.08740768E2,2.5258091199999998E2,,,,1.4828166999999999E1,3.332685E1,5.4668195999999995E1,2.3578098E1,6.2115579999999994E1,4.9243331999999995E1,4.5380288E1,6.855385999999999E0,6.574794E0,,,,5,16,21,25,26,29,31,23,27,,,,12,11,15,7,14,15,15,11,2,,,,
1571196690,2019-10-16 03:31:30.925,Acquired,Acquired,Acquired,Acquired,Acquired,Acquired,Acquired,Acquired,Acquired,,,,5.2728752E1,2.985048E2,1.6668776E2,1.19023344E2,2.97374464E2,6.0941224E1,2.09967168E2,3.08740768E2,2.5258091199999998E2,,,,1.4828166999999999E1,3.332685E1,5.4668195999999995E1,2.3578098E1,6.2115579999999994E1,4.9243331999999995E1,4.5380288E1,6.855385999999999E0,6.574794E0,,,,5,16,21,25,26,29,31,23,27,,,,12,11,15,7,14,15,15,11,2,,,,
1571196750,2019-10-16 03:32:30.925,Acquired,Acquired,Acquired,Acquired,Acquired,Acquired,Acquired,Acquired,Acquired,,,,5.2728752E1,2.985048E2,1.6668776E2,1.19023344E2,2.97374464E2,6.0941224E1,2.09967168E2,3.08740768E2,2.5258091199999998E2,,,,1.4828166999999999E1,3.332685E1,5.4668195999999995E1,2.3578098E1,6.2115579999999994E1,4.9243331999999995E1,4.5380288E1,6.855385999999999E0,6.574794E0,,,,5,16,21,25,26,29,31,23,27,,,,12,11,15,7,14,15,15,11,2,,,,
1571196810,2019-10-16 03:33:30.925,Acquired,Acquired,Acquired,Acquired,Acquired,Acquired,Acquired,Acquired,Acquired,,,,5.2728752E1,2.985048E2,1.6668776E2,1.19023344E2,2.97374464E2,6.0941224E1,2.09967168E2,3.08740768E2,2.5258091199999998E2,,,,1.4828166999999999E1,3.332685E1,5.4668195999999995E1,2.3578098E1,6.2115579999999994E1,4.9243331999999995E1,4.5380288E1,6.855385999999999E0,6.574794E0,,,,5,16,21,25,26,29,31,23,27,,,,12,11,15,7,14,15,15,11,2,,,,
1571196870,2019-10-16 03:34:30.925,Acquired,Acquired,Acquired,Acquired,Acquired,Acquired,Acquired,Acquired,Acquired,,,,5.2728752E1,2.985048E2,1.6668776E2,1.19023344E2,2.97374464E2,6.0941224E1,2.09967168E2,3.08740768E2,2.5258091199999998E2,,,,1.4828166999999999E1,3.332685E1,5.4668195999999995E1,2.3578098E1,6.2115579999999994E1,4.9243331999999995E1,4.5380288E1,6.855385999999999E0,6.574794E0,,,,5,16,21,25,26,29,31,23,27,,,,12,11,15,7,14,15,15,11,2,,,,
1571196930,2019-10-16 03:35:30.925,Acquired,Acquired,Acquired,Acquired,Acquired,Acquired,Acquired,Acquired,Acquired,,,,5.2728752E1,2.985048E2,1.6668776E2,1.19023344E2,2.97374464E2,6.0941224E1,2.09967168E2,3.08740768E2,2.5258091199999998E2,,,,1.4828166999999999E1,3.332685E1,5.4668195999999995E1,2.3578098E1,6.2115579999999994E1,4.9243331999999995E1,4.5380288E1,6.855385999999999E0,6.574794E0,,,,5,16,21,25,26,29,31,23,27,,,,12,11,15,7,14,15,15,11,2,,,,
1571196990,2019-10-16 03:36:30.925,Acquired,Acquired,Acquired,Acquired,Acquired,Acquired,Acquired,Acquired,Acquired,,,,5.2728752E1,2.985048E2,1.6668776E2,1.19023344E2,2.97374464E2,6.0941224E1,2.09967168E2,3.08740768E2,2.5258091199999998E2,,,,1.4828166999999999E1,3.332685E1,5.4668195999999995E1,2.3578098E1,6.2115579999999994E1,4.9243331999999995E1,4.5380288E1,6.855385999999999E0,6.574794E0,,,,5,16,21,25,26,29,31,23,27,,,,12,11,15,7,14,15,15,11,2,,,,
1571197050,2019-10-16 03:37:30.927,Acquired,Acquired,Acquired,Acquired,Acquired,Acquired,Acquired,Acquired,Acquired,,,,5.2728752E1,2.985048E2,1.6668776E2,1.19023344E2,2.97374464E2,6.0941224E1,2.09967168E2,3.08740768E2,2.5258091199999998E2,,,,1.4828166999999999E1,3.332685E1,5.4668195999999995E1,2.3578098E1,6.2115579999999994E1,4.9243331999999995E1,4.5380288E1,6.855385999999999E0,6.574794E0,,,,5,16,21,25,26,29,31,23,27,,,,12,11,15,7,14,15,15,11,2,,,,
1571197110,2019-10-16 03:38:30.925,Acquired,Acquired,Acquired,Acquired,Acquired,Acquired,Acquired,Acquired,Acquired,,,,5.2728752E1,2.985048E2,1.6668776E2,1.19023344E2,2.97374464E2,6.0941224E1,2.09967168E2,3.08740768E2,2.5258091199999998E2,,,,1.4828166999999999E1,3.332685E1,5.4668195999999995E1,2.3578098E1,6.2115579999999994E1,4.9243331999999995E1,4.5380288E1,6.855385999999999E0,6.574794E0,,,,5,16,21,25,26,29,31,23,27,,,,12,11,15,7,14,15,15,11,2,,,,
1571197170,2019-10-16 03:39:30.927,Acquired,Acquired,Acquired,Acquired,Acquired,Acquired,Acquired,Acquired,Acquired,,,,5.2728752E1,2.985048E2,1.6668776E2,1.19023344E2,2.97374464E2,6.0941224E1,2.09967168E2,3.08740768E2,2.5258091199999998E2,,,,1.4828166999999999E1,3.332685E1,5.4668195999999995E1,2.3578098E1,6.2115579999999994E1,4.9243331999999995E1,4.5380288E1,6.855385999999999E0,6.574794E0,,,,5,16,21,25,26,29,31,23,27,,,,12,11,15,7,14,15,15,11,2,,,,
1571197230,2019-10-16 03:40:30.925,Acquired,Acquired,Acquired,Acquired,Acquired,Acquired,Acquired,Acquired,Acquired,,,,5.2728752E1,2.985048E2,1.6668776E2,1.19023344E2,2.97374464E2,6.0941224E1,2.09967168E2,3.08740768E2,2.5258091199999998E2,,,,1.4828166999999999E1,3.332685E1,5.4668195999999995E1,2.3578098E1,6.2115579999999994E1,4.9243331999999995E1,4.5380288E1,6.855385999999999E0,6.574794E0,,,,5,16,21,25,26,29,31,23,27,,,,12,11,15,7,14,15,15,11,2,,,,
1571197290,2019-10-16 03:41:30.925,Acquired,Acquired,Acquired,Acquired,Acquired,Acquired,Acquired,Acquired,Acquired,,,,5.2728752E1,2.985048E2,1.6668776E2,1.19023344E2,2.97374464E2,6.0941224E1,2.09967168E2,3.08740768E2,2.5258091199999998E2,,,,1.4828166999999999E1,3.332685E1,5.4668195999999995E1,2.3578098E1,6.2115579999999994E1,4.9243331999999995E1,4.5380288E1,6.855385999999999E0,6.574794E0,,,,5,16,21,25,26,29,31,23,27,,,,12,11,15,7,14,15,15,11,2,,,,
1571197350,2019-10-16 03:42:30.925,Acquired,Acquired,Acquired,Acquired,Acquired,Acquired,Acquired,Acquired,Acquired,,,,5.2728752E1,2.985048E2,1.6668776E2,1.19023344E2,2.97374464E2,6.0941224E1,2.09967168E2,3.08740768E2,2.5258091199999998E2,,,,1.4828166999999999E1,3.332685E1,5.4668195999999995E1,2.3578098E1,6.2115579999999994E1,4.9243331999999995E1,4.5380288E1,6.855385999999999E0,6.574794E0,,,,5,16,21,25,26,29,31,23,27,,,,12,11,15,7,14,15,15,11,2,,,,
1571197410,2019-10-16 03:43:30.925,Acquired,Acquired,Acquired,Acquired,Acquired,Acquired,Acquired,Acquired,Acquired,,,,5.2728752E1,2.985048E2,1.6668776E2,1.19023344E2,2.97374464E2,6.0941224E1,2.09967168E2,3.08740768E2,2.5258091199999998E2,,,,1.4828166999999999E1,3.332685E1,5.4668195999999995E1,2.3578098E1,6.2115579999999994E1,4.9243331999999995E1,4.5380288E1,6.855385999999999E0,6.574794E0,,,,5,16,21,25,26,29,31,23,27,,,,12,11,15,7,14,15,15,11,2,,,,
1571197470,2019-10-16 03:44:30.925,Acquired,Acquired,Acquired,Acquired,Acquired,Acquired,Acquired,Acquired,Acquired,,,,5.2728752E1,2.985048E2,1.6668776E2,1.19023344E2,2.97374464E2,6.0941224E1,2.09967168E2,3.08740768E2,2.5258091199999998E2,,,,1.4828166999999999E1,3.332685E1,5.4668195999999995E1,2.3578098E1,6.2115579999999994E1,4.9243331999999995E1,4.5380288E1,6.855385999999999E0,6.574794E0,,,,5,16,21,25,26,29,31,23,27,,,,12,11,15,7,14,15,15,11,2,,,,
1571197530,2019-10-16 03:45:30.925,Acquired,Acquired,Acquired,Acquired,Acquired,Acquired,Acquired,Acquired,Acquired,,,,5.2728752E1,2.985048E2,1.6668776E2,1.19023344E2,2.97374464E2,6.0941224E1,2.09967168E2,3.08740768E2,2.5258091199999998E2,,,,1.4828166999999999E1,3.332685E1,5.4668195999999995E1,2.3578098E1,6.2115579999999994E1,4.9243331999999995E1,4.5380288E1,6.855385999999999E0,6.574794E0,,,,5,16,21,25,26,29,31,23,27,,,,12,11,15,7,14,15,15,11,2,,,,
1571197590,2019-10-16 03:46:30.925,Acquired,Acquired,Acquired,Acquired,Acquired,Acquired,Acquired,Acquired,Acquired,,,,5.2728752E1,2.985048E2,1.6668776E2,1.19023344E2,2.97374464E2,6.0941224E1,2.09967168E2,3.08740768E2,2.5258091199999998E2,,,,1.4828166999999999E1,3.332685E1,5.4668195999999995E1,2.3578098E1,6.2115579999999994E1,4.9243331999999995E1,4.5380288E1,6.855385999999999E0,6.574794E0,,,,5,16,21,25,26,29,31,23,27,,,,12,11,15,7,14,15,15,11,2,,,,
1571197650,2019-10-16 03:47:30.925,Acquired,Acquired,Acquired,Acquired,Acquired,Acquired,Acquired,Acquired,Acquired,,,,5.2728752E1,2.985048E2,1.6668776E2,1.19023344E2,2.97374464E2,6.0941224E1,2.09967168E2,3.08740768E2,2.5258091199999998E2,,,,1.4828166999999999E1,3.332685E1,5.4668195999999995E1,2.3578098E1,6.2115579999999994E1,4.9243331999999995E1,4.5380288E1,6.855385999999999E0,6.574794E0,,,,5,16,21,25,26,29,31,23,27,,,,12,11,15,7,14,15,15,11,2,,,,
1571197710,2019-10-16 03:48:30.925,Acquired,Acquired,Acquired,Acquired,Acquired,Acquired,Acquired,Acquired,Acquired,,,,5.2728752E1,2.985048E2,1.6668776E2,1.19023344E2,2.97374464E2,6.0941224E1,2.09967168E2,3.08740768E2,2.5258091199999998E2,,,,1.4828166999999999E1,3.332685E1,5.4668195999999995E1,2.3578098E1,6.2115579999999994E1,4.9243331999999995E1,4.5380288E1,6.855385999999999E0,6.574794E0,,,,5,16,21,25,26,29,31,23,27,,,,12,11,15,7,14,15,15,11,2,,,,
1571197770,2019-10-16 03:49:30.925,Acquired,Acquired,Acquired,Acquired,Acquired,Acquired,Acquired,Acquired,Acquired,,,,5.2728752E1,2.985048E2,1.6668776E2,1.19023344E2,2.97374464E2,6.0941224E1,2.09967168E2,3.08740768E2,2.5258091199999998E2,,,,1.4828166999999999E1,3.332685E1,5.4668195999999995E1,2.3578098E1,6.2115579999999994E1,4.9243331999999995E1,4.5380288E1,6.855385999999999E0,6.574794E0,,,,5,16,21,25,26,29,31,23,27,,,,12,11,15,7,14,15,15,11,2,,,,
1571197830,2019-10-16 03:50:30.925,Acquired,Acquired,Acquired,Acquired,Acquired,Acquired,Acquired,Acquired,Acquired,,,,5.2728752E1,2.985048E2,1.6668776E2,1.19023344E2,2.97374464E2,6.0941224E1,2.09967168E2,3.08740768E2,2.5258091199999998E2,,,,1.4828166999999999E1,3.332685E1,5.4668195999999995E1,2.3578098E1,6.2115579999999994E1,4.9243331999999995E1,4.5380288E1,6.855385999999999E0,6.574794E0,,,,5,16,21,25,26,29,31,23,27,,,,12,11,15,7,14,15,15,11,2,,,,
1571197890,2019-10-16 03:51:30.925,Acquired,Acquired,Acquired,Acquired,Acquired,Acquired,Acquired,Acquired,Acquired,,,,5.2728752E1,2.985048E2,1.6668776E2,1.19023344E2,2.97374464E2,6.0941224E1,2.09967168E2,3.08740768E2,2.5258091199999998E2,,,,1.4828166999999999E1,3.332685E1,5.4668195999999995E1,2.3578098E1,6.2115579999999994E1,4.9243331999999995E1,4.5380288E1,6.855385999999999E0,6.574794E0,,,,5,16,21,25,26,29,31,23,27,,,,12,11,15,7,14,15,15,11,2,,,,
1571197950,2019-10-16 03:52:30.925,Acquired,Acquired,Acquired,Acquired,Acquired,Acquired,Acquired,Acquired,Acquired,,,,5.2728752E1,2.985048E2,1.6668776E2,1.19023344E2,2.97374464E2,6.0941224E1,2.09967168E2,3.08740768E2,2.5258091199999998E2,,,,1.4828166999999999E1,3.332685E1,5.4668195999999995E1,2.3578098E1,6.2115579999999994E1,4.9243331999999995E1,4.5380288E1,6.855385999999999E0,6.574794E0,,,,5,16,21,25,26,29,31,23,27,,,,12,11,15,7,14,15,15,11,2,,,,
1571198010,2019-10-16 03:53:30.925,Acquired,Acquired,Acquired,Acquired,Acquired,Acquired,Acquired,Acquired,Acquired,,,,5.2728752E1,2.985048E2,1.6668776E2,1.19023344E2,2.97374464E2,6.0941224E1,2.09967168E2,3.08740768E2,2.5258091199999998E2,,,,1.4828166999999999E1,3.332685E1,5.4668195999999995E1,2.3578098E1,6.2115579999999994E1,4.9243331999999995E1,4.5380288E1,6.855385999999999E0,6.574794E0,,,,5,16,21,25,26,29,31,23,27,,,,12,11,15,7,14,15,15,11,2,,,,
1571198070,2019-10-16 03:54:30.925,Acquired,Acquired,Acquired,Acquired,Acquired,Acquired,Acquired,Acquired,Acquired,,,,5.2728752E1,2.985048E2,1.6668776E2,1.19023344E2,2.97374464E2,6.0941224E1,2.09967168E2,3.08740768E2,2.5258091199999998E2,,,,1.4828166999999999E1,3.332685E1,5.4668195999999995E1,2.3578098E1,6.2115579999999994E1,4.9243331999999995E1,4.5380288E1,6.855385999999999E0,6.574794E0,,,,5,16,21,25,26,29,31,23,27,,,,12,11,15,7,14,15,15,11,2,,,,
1571198130,2019-10-16 03:55:30.925,Acquired,Acquired,Acquired,Acquired,Acquired,Acquired,Acquired,Acquired,Acquired,,,,5.2728752E1,2.985048E2,1.6668776E2,1.19023344E2,2.97374464E2,6.0941224E1,2.09967168E2,3.08740768E2,2.5258091199999998E2,,,,1.4828166999999999E1,3.332685E1,5.4668195999999995E1,2.3578098E1,6.2115579999999994E1,4.9243331999999995E1,4.5380288E1,6.855385999999999E0,6.574794E0,,,,5,16,21,25,26,29,31,23,27,,,,12,11,15,7,14,15,15,11,2,,,,
1571198190,2019-10-16 03:56:30.925,Acquired,Acquired,Acquired,Acquired,Acquired,Acquired,Acquired,Acquired,Acquired,,,,5.2728752E1,2.985048E2,1.6668776E2,1.19023344E2,2.97374464E2,6.0941224E1,2.09967168E2,3.08740768E2,2.5258091199999998E2,,,,1.4828166999999999E1,3.332685E1,5.4668195999999995E1,2.3578098E1,6.2115579999999994E1,4.9243331999999995E1,4.5380288E1,6.855385999999999E0,6.574794E0,,,,5,16,21,25,26,29,31,23,27,,,,12,11,15,7,14,15,15,11,2,,,,
1571198250,2019-10-16 03:57:30.927,Acquired,Acquired,Acquired,Acquired,Acquired,Acquired,Acquired,Acquired,Acquired,,,,5.2728752E1,2.985048E2,1.6668776E2,1.19023344E2,2.97374464E2,6.0941224E1,2.09967168E2,3.08740768E2,2.5258091199999998E2,,,,1.4828166999999999E1,3.332685E1,5.4668195999999995E1,2.3578098E1,6.2115579999999994E1,4.9243331999999995E1,4.5380288E1,6.855385999999999E0,6.574794E0,,,,5,16,21,25,26,29,31,23,27,,,,12,11,15,7,14,15,15,11,2,,,,
1571198310,2019-10-16 03:58:30.925,Acquired,Acquired,Acquired,Acquired,Acquired,Acquired,Acquired,Acquired,Acquired,,,,5.2295888E1,2.98663232E2,1.66374496E2,1.19280304E2,2.97288992E2,6.1134488E1,2.09637792E2,3.08353952E2,2.5284312E2,,,,1.4844349E1,3.3757664E1,5.513446E1,2.3179859999999998E1,6.2574647999999996E1,4.8802572E1,4.4948488E1,6.7433119999999995E0,6.945678999999999E0,,,,5,16,21,25,26,29,31,23,27,,,,12,10,15,8,14,15,15,12,3,,,,
1571198370,2019-10-16 03:59:30.925,Acquired,Acquired,Acquired,Acquired,Acquired,Acquired,Acquired,Acquired,Not acquired,,,,3.0233743999999996E2,1.45357008E2,1.30560608E2,2.53648752E2,2.6564955199999997E2,7.157064799999999E1,1.99580784E2,3.364192E1,1.29582744E2,,,,5.4625268E1,1.6198185E1,7.22238E1,8.102148799999999E1,2.4250552E1,2.955943E1,2.4534052E1,1.0847742E1,5.1786259999999995E0,,,,16,20,21,26,27,29,31,5,25,,,,11,2,10,15,7,15,14,5,0,,,,
