Time(longsecs),Time(UTC),Supply Voltage(mV),Temperature(&deg;C),NMX Bus Current(mA),Sensor Current(mA),Serial Port Current(mA),Controller Current(mA),Digitizer Current(mA),
1571212830,2019-10-16 08:00:30.925,15994,1.8248138E1,0,9,0,40,38,
1571212890,2019-10-16 08:01:30.925,15994,1.8469452E1,0,9,0,41,36,
1571212950,2019-10-16 08:02:30.925,16143,1.856781E1,0,11,0,35,37,
1571213010,2019-10-16 08:03:30.925,16007,1.870465E1,0,13,0,42,41,
1571213070,2019-10-16 08:04:30.925,16034,1.8871399E1,0,9,0,42,36,
1571213130,2019-10-16 08:05:30.925,15994,1.861911E1,0,14,0,40,38,
1571213190,2019-10-16 08:06:30.925,16062,1.8634094E1,0,9,0,41,37,
1571213250,2019-10-16 08:07:30.925,15980,1.876236E1,0,11,0,42,39,
1571213310,2019-10-16 08:08:30.925,15994,1.8667236E1,0,9,0,35,41,
1571213370,2019-10-16 08:09:30.925,15967,1.8684326E1,0,9,0,42,43,
1571213430,2019-10-16 08:10:30.925,15967,1.8855377E1,0,9,7,40,41,
1571213490,2019-10-16 08:11:30.925,15953,1.884256E1,0,12,0,42,37,
1571213550,2019-10-16 08:12:30.925,15926,1.8901337E1,0,9,0,41,42,
1571213610,2019-10-16 08:13:30.958,15980,1.8887451E1,0,9,0,36,40,
1571213670,2019-10-16 08:14:30.925,15940,1.888852E1,0,13,0,45,40,
1571213730,2019-10-16 08:15:30.925,15818,1.8986877E1,0,14,0,45,37,
1571213790,2019-10-16 08:16:30.925,15709,1.8954803E1,0,11,0,42,39,
1571213850,2019-10-16 08:17:30.927,15831,1.899115E1,0,9,0,40,39,
1571213910,2019-10-16 08:18:30.925,16034,1.896762E1,0,12,0,36,36,
1571213970,2019-10-16 08:19:30.925,15926,1.8776276E1,0,13,0,35,37,
1571214030,2019-10-16 08:20:30.926,15926,1.9115143E1,0,7,0,35,39,
1571214090,2019-10-16 08:21:30.925,15953,1.8841492E1,0,8,0,40,40,
1571214150,2019-10-16 08:22:30.925,16007,1.8990082E1,0,6,0,38,37,
1571214210,2019-10-16 08:23:30.925,15953,1.8895996E1,0,11,0,36,36,
1571214270,2019-10-16 08:24:30.925,15994,1.8984741E1,0,10,0,35,35,
1571214330,2019-10-16 08:25:30.925,15980,1.899649E1,0,9,0,42,36,
1571214390,2019-10-16 08:26:30.925,16007,1.8997559E1,0,13,0,40,42,
1571214450,2019-10-16 08:27:30.925,16034,1.9149353E1,0,9,0,42,36,
1571214510,2019-10-16 08:28:30.925,16089,1.9016815E1,0,11,0,35,37,
1571214570,2019-10-16 08:29:30.925,16062,1.9240234E1,0,9,0,37,37,
1571214630,2019-10-16 08:30:30.925,16089,1.8811554E1,0,11,0,42,41,
1571214690,2019-10-16 08:31:30.925,16075,1.9068115E1,0,11,0,40,33,
1571214750,2019-10-16 08:32:30.925,16116,1.9217773E1,0,8,0,40,38,
1571214810,2019-10-16 08:33:30.925,16102,1.928299E1,0,9,0,40,38,
1571214870,2019-10-16 08:34:30.925,16075,1.8969757E1,0,9,0,35,36,
1571214930,2019-10-16 08:35:30.925,16007,1.9063843E1,0,10,0,35,40,
1571214990,2019-10-16 08:36:30.925,16007,1.9149353E1,0,12,0,40,40,
1571215050,2019-10-16 08:37:30.925,16034,1.9266968E1,0,13,0,40,40,
1571215110,2019-10-16 08:38:30.935,16048,1.9075592E1,0,11,0,36,41,
1571215170,2019-10-16 08:39:30.925,16048,1.9046722E1,0,6,0,36,37,
1571215230,2019-10-16 08:40:30.966,16048,1.9116241E1,0,9,0,39,36,
1571215290,2019-10-16 08:41:30.925,16062,1.905957E1,0,11,0,38,37,
1571215350,2019-10-16 08:42:30.925,16089,1.9142944E1,0,9,0,40,38,
1571215410,2019-10-16 08:43:30.925,16129,1.918573E1,0,7,0,35,36,
1571215470,2019-10-16 08:44:30.925,16197,1.919748E1,0,15,0,41,38,
1571215530,2019-10-16 08:45:30.957,16143,1.9323639E1,0,6,0,40,36,
1571215590,2019-10-16 08:46:30.925,16116,1.9432678E1,0,9,94,41,36,
1571215650,2019-10-16 08:47:30.957,16089,1.91622E1,0,11,0,40,35,
1571215710,2019-10-16 08:48:30.925,16075,1.9404877E1,0,9,0,35,37,
1571215770,2019-10-16 08:49:30.925,16048,1.9277649E1,0,9,0,35,38,
1571215830,2019-10-16 08:50:30.925,16048,1.9331116E1,0,11,0,43,35,
1571215890,2019-10-16 08:51:30.925,16034,1.9200684E1,0,8,0,38,35,
1571215950,2019-10-16 08:52:30.927,16062,1.9395264E1,0,6,0,40,34,
1571216010,2019-10-16 08:53:30.925,15994,1.951178E1,0,10,0,35,36,
1571216070,2019-10-16 08:54:30.925,16048,1.9323639E1,0,8,0,35,39,
1571216130,2019-10-16 08:55:30.927,16021,1.9401672E1,0,15,0,42,36,
1571216190,2019-10-16 08:56:30.925,15967,1.9681763E1,0,11,0,41,39,
1571216250,2019-10-16 08:57:30.925,16007,1.9434814E1,0,9,0,41,39,
1571216310,2019-10-16 08:58:30.925,16007,1.9394196E1,0,9,0,35,38,
1571216370,2019-10-16 08:59:30.925,16021,1.9304382E1,0,9,0,35,36,
