Time(longsecs),Time(UTC),Earth Location,GPS Receiver Status,GPS Satellites Used,GPS PDOP,GPS TDOP,Timing Status,Timing Phase Lock,Timing Uncertainty(ns),DAC Count,Timing Error(ns),GPS Last Update Time,
1570593647,2019-10-09 04:00:47.257,47.636182N 0.583987E 199m,Off,5,4.891434,3.5607104,Time OK,Free running,19100,9118,0,2019-10-09 03:40:44.000000000,
1570593707,2019-10-09 04:01:47.257,47.636182N 0.583987E 199m,Off,5,4.891434,3.5607104,Time OK,Free running,20100,9118,0,2019-10-09 03:40:44.000000000,
1570593767,2019-10-09 04:02:47.257,47.636182N 0.583987E 199m,Off,5,4.891434,3.5607104,Time OK,Free running,20900,9118,0,2019-10-09 03:40:44.000000000,
1570593827,2019-10-09 04:03:47.257,47.636182N 0.583987E 199m,Off,5,4.891434,3.5607104,Time OK,Free running,21700,9118,0,2019-10-09 03:40:44.000000000,
1570593887,2019-10-09 04:04:47.257,47.636182N 0.583987E 199m,Off,5,4.891434,3.5607104,Time OK,Free running,22600,9118,0,2019-10-09 03:40:44.000000000,
1570593947,2019-10-09 04:05:47.257,47.636182N 0.583987E 199m,Off,5,4.891434,3.5607104,Time OK,Free running,23500,9118,0,2019-10-09 03:40:44.000000000,
1570594007,2019-10-09 04:06:47.267,47.636182N 0.583987E 199m,Off,5,4.891434,3.5607104,Time OK,Free running,24500,9118,0,2019-10-09 03:40:44.000000000,
1570594067,2019-10-09 04:07:47.260,47.636182N 0.583987E 199m,Off,5,4.891434,3.5607104,Time OK,Free running,25400,9118,0,2019-10-09 03:40:44.000000000,
1570594127,2019-10-09 04:08:47.257,47.636182N 0.583987E 199m,Off,5,4.891434,3.5607104,Time OK,Free running,26200,9118,0,2019-10-09 03:40:44.000000000,
1570594187,2019-10-09 04:09:47.257,47.636182N 0.583987E 199m,Off,5,4.891434,3.5607104,Time OK,Free running,27200,9118,0,2019-10-09 03:40:44.000000000,
1570594247,2019-10-09 04:10:47.257,47.636182N 0.583987E 199m,Off,5,4.891434,3.5607104,Time OK,Free running,28500,9118,0,2019-10-09 03:40:44.000000000,
1570594307,2019-10-09 04:11:47.257,47.636182N 0.583987E 199m,Off,5,4.891434,3.5607104,Time OK,Free running,29800,9118,0,2019-10-09 03:40:44.000000000,
1570594367,2019-10-09 04:12:47.257,47.636182N 0.583987E 199m,Off,5,4.891434,3.5607104,Time OK,Free running,30900,9118,0,2019-10-09 03:40:44.000000000,
1570594427,2019-10-09 04:13:47.257,47.636182N 0.583987E 199m,Off,5,4.891434,3.5607104,Time OK,Free running,32000,9118,0,2019-10-09 03:40:44.000000000,
1570594487,2019-10-09 04:14:47.257,47.636182N 0.583987E 199m,Off,5,4.891434,3.5607104,Time OK,Free running,32900,9118,0,2019-10-09 03:40:44.000000000,
1570594547,2019-10-09 04:15:47.257,47.636182N 0.583987E 199m,Off,5,4.891434,3.5607104,Time OK,Free running,33700,9118,0,2019-10-09 03:40:44.000000000,
1570594607,2019-10-09 04:16:47.258,47.636182N 0.583987E 199m,Off,5,4.891434,3.5607104,Time OK,Free running,34700,9118,0,2019-10-09 03:40:44.000000000,
1570594667,2019-10-09 04:17:47.258,47.636182N 0.583987E 199m,Off,5,4.891434,3.5607104,Time OK,Free running,35500,9118,0,2019-10-09 03:40:44.000000000,
1570594727,2019-10-09 04:18:47.306,47.636182N 0.583987E 199m,Off,5,4.891434,3.5607104,Time OK,Free running,36300,9118,0,2019-10-09 03:40:44.000000000,
1570594787,2019-10-09 04:19:47.257,47.636182N 0.583987E 199m,Off,5,4.891434,3.5607104,Time OK,Free running,37200,9118,0,2019-10-09 03:40:44.000000000,
1570594847,2019-10-09 04:20:47.258,47.636182N 0.583987E 199m,Off,5,4.891434,3.5607104,Time OK,Free running,38000,9118,0,2019-10-09 03:40:44.000000000,
1570594907,2019-10-09 04:21:47.257,47.636182N 0.583987E 199m,Off,5,4.891434,3.5607104,Time OK,Free running,39000,9118,0,2019-10-09 03:40:44.000000000,
1570594967,2019-10-09 04:22:47.257,47.636182N 0.583987E 199m,Off,5,4.891434,3.5607104,Time OK,Free running,39900,9118,0,2019-10-09 03:40:44.000000000,
1570595027,2019-10-09 04:23:47.257,47.636182N 0.583987E 199m,Off,5,4.891434,3.5607104,Time OK,Free running,40700,9118,0,2019-10-09 03:40:44.000000000,
1570595087,2019-10-09 04:24:47.257,47.636182N 0.583987E 199m,Off,5,4.891434,3.5607104,Time OK,Free running,41500,9118,0,2019-10-09 03:40:44.000000000,
1570595147,2019-10-09 04:25:47.257,47.636182N 0.583987E 199m,Off,5,4.891434,3.5607104,Time OK,Free running,42600,9118,0,2019-10-09 03:40:44.000000000,
1570595207,2019-10-09 04:26:47.273,47.636182N 0.583987E 199m,Off,5,4.891434,3.5607104,Time OK,Free running,43700,9118,0,2019-10-09 03:40:44.000000000,
1570595267,2019-10-09 04:27:47.257,47.636182N 0.583987E 199m,Off,5,4.891434,3.5607104,Time OK,Free running,44500,9118,0,2019-10-09 03:40:44.000000000,
1570595327,2019-10-09 04:28:47.257,47.636182N 0.583987E 199m,Off,5,4.891434,3.5607104,Time OK,Free running,45700,9118,0,2019-10-09 03:40:44.000000000,
1570595387,2019-10-09 04:29:47.257,47.636182N 0.583987E 199m,Off,5,4.891434,3.5607104,Time OK,Free running,46800,9118,0,2019-10-09 03:40:44.000000000,
1570595447,2019-10-09 04:30:47.260,47.636182N 0.583987E 199m,Off,5,4.891434,3.5607104,Time OK,Free running,47700,9118,0,2019-10-09 03:40:44.000000000,
1570595507,2019-10-09 04:31:47.257,47.636182N 0.583987E 199m,Off,5,4.891434,3.5607104,Time OK,Free running,48600,9118,0,2019-10-09 03:40:44.000000000,
1570595567,2019-10-09 04:32:47.257,47.636182N 0.583987E 199m,Off,5,4.891434,3.5607104,Time OK,Free running,49500,9118,0,2019-10-09 03:40:44.000000000,
1570595627,2019-10-09 04:33:47.257,47.636182N 0.583987E 199m,Off,5,4.891434,3.5607104,Time OK,Free running,50600,9118,0,2019-10-09 03:40:44.000000000,
1570595687,2019-10-09 04:34:47.257,47.636182N 0.583987E 199m,No GPS time,5,4.891434,3.5607104,Time OK,Free running,51600,9118,0,2019-10-09 03:40:44.000000000,
1570595747,2019-10-09 04:35:47.258,47.636182N 0.583987E 199m,Doing fixes,5,2.4904027,1.3460644,Time OK,Fine lock,100,9112,104,2019-10-09 04:35:44.000000000,
1570595807,2019-10-09 04:36:47.257,47.636182N 0.583987E 199m,Off,4,3.779145,2.1932223,Time OK,Free running,800,9115,0,2019-10-09 04:35:54.000000000,
1570595867,2019-10-09 04:37:47.257,47.636182N 0.583987E 199m,Off,4,3.779145,2.1932223,Time OK,Free running,1600,9115,0,2019-10-09 04:35:54.000000000,
1570595927,2019-10-09 04:38:47.257,47.636182N 0.583987E 199m,Off,4,3.779145,2.1932223,Time OK,Free running,2500,9115,0,2019-10-09 04:35:54.000000000,
1570595987,2019-10-09 04:39:47.257,47.636182N 0.583987E 199m,Off,4,3.779145,2.1932223,Time OK,Free running,3500,9115,0,2019-10-09 04:35:54.000000000,
1570596047,2019-10-09 04:40:47.257,47.636182N 0.583987E 199m,Off,4,3.779145,2.1932223,Time OK,Free running,4400,9115,0,2019-10-09 04:35:54.000000000,
1570596107,2019-10-09 04:41:47.257,47.636182N 0.583987E 199m,Off,4,3.779145,2.1932223,Time OK,Free running,5300,9115,0,2019-10-09 04:35:54.000000000,
1570596167,2019-10-09 04:42:47.257,47.636182N 0.583987E 199m,Off,4,3.779145,2.1932223,Time OK,Free running,6400,9115,0,2019-10-09 04:35:54.000000000,
1570596227,2019-10-09 04:43:47.257,47.636182N 0.583987E 199m,Off,4,3.779145,2.1932223,Time OK,Free running,7500,9115,0,2019-10-09 04:35:54.000000000,
1570596287,2019-10-09 04:44:47.260,47.636182N 0.583987E 199m,Off,4,3.779145,2.1932223,Time OK,Free running,8500,9115,0,2019-10-09 04:35:54.000000000,
1570596347,2019-10-09 04:45:47.257,47.636182N 0.583987E 199m,Off,4,3.779145,2.1932223,Time OK,Free running,9600,9115,0,2019-10-09 04:35:54.000000000,
1570596407,2019-10-09 04:46:47.257,47.636182N 0.583987E 199m,Off,4,3.779145,2.1932223,Time OK,Free running,10400,9115,0,2019-10-09 04:35:54.000000000,
1570596467,2019-10-09 04:47:47.290,47.636182N 0.583987E 199m,Off,4,3.779145,2.1932223,Time OK,Free running,11300,9115,0,2019-10-09 04:35:54.000000000,
1570596527,2019-10-09 04:48:47.257,47.636182N 0.583987E 199m,Off,4,3.779145,2.1932223,Time OK,Free running,12300,9115,0,2019-10-09 04:35:54.000000000,
1570596587,2019-10-09 04:49:47.260,47.636182N 0.583987E 199m,Off,4,3.779145,2.1932223,Time OK,Free running,13100,9115,0,2019-10-09 04:35:54.000000000,
1570596647,2019-10-09 04:50:47.257,47.636182N 0.583987E 199m,Off,4,3.779145,2.1932223,Time OK,Free running,13900,9115,0,2019-10-09 04:35:54.000000000,
1570596707,2019-10-09 04:51:47.260,47.636182N 0.583987E 199m,Off,4,3.779145,2.1932223,Time OK,Free running,14800,9115,0,2019-10-09 04:35:54.000000000,
1570596767,2019-10-09 04:52:47.257,47.636182N 0.583987E 199m,Off,4,3.779145,2.1932223,Time OK,Free running,15900,9115,0,2019-10-09 04:35:54.000000000,
1570596827,2019-10-09 04:53:47.257,47.636182N 0.583987E 199m,Off,4,3.779145,2.1932223,Time OK,Free running,17100,9115,0,2019-10-09 04:35:54.000000000,
1570596887,2019-10-09 04:54:47.257,47.636182N 0.583987E 199m,Off,4,3.779145,2.1932223,Time OK,Free running,18300,9115,0,2019-10-09 04:35:54.000000000,
1570596947,2019-10-09 04:55:47.257,47.636182N 0.583987E 199m,Off,4,3.779145,2.1932223,Time OK,Free running,19300,9115,0,2019-10-09 04:35:54.000000000,
1570597007,2019-10-09 04:56:47.257,47.636182N 0.583987E 199m,Off,4,3.779145,2.1932223,Time OK,Free running,20100,9115,0,2019-10-09 04:35:54.000000000,
1570597067,2019-10-09 04:57:47.257,47.636182N 0.583987E 199m,Off,4,3.779145,2.1932223,Time OK,Free running,21100,9115,0,2019-10-09 04:35:54.000000000,
1570597127,2019-10-09 04:58:47.257,47.636182N 0.583987E 199m,Off,4,3.779145,2.1932223,Time OK,Free running,22200,9115,0,2019-10-09 04:35:54.000000000,
1570597187,2019-10-09 04:59:47.257,47.636182N 0.583987E 199m,Off,4,3.779145,2.1932223,Time OK,Free running,23600,9115,0,2019-10-09 04:35:54.000000000,
