Time(longsecs),Time(UTC),GPS Satellite Acquisition Flag 1,GPS Satellite Acquisition Flag 2,GPS Satellite Acquisition Flag 3,GPS Satellite Acquisition Flag 4,GPS Satellite Acquisition Flag 5,GPS Satellite Acquisition Flag 6,GPS Satellite Acquisition Flag 7,GPS Satellite Acquisition Flag 8,GPS Satellite Acquisition Flag 9,GPS Satellite Acquisition Flag 10,GPS Satellite Acquisition Flag 11,GPS Satellite Acquisition Flag 12,GPS Satellite Azimuth 1(Degrees),GPS Satellite Azimuth 2(Degrees),GPS Satellite Azimuth 3(Degrees),GPS Satellite Azimuth 4(Degrees),GPS Satellite Azimuth 5(Degrees),GPS Satellite Azimuth 6(Degrees),GPS Satellite Azimuth 7(Degrees),GPS Satellite Azimuth 8(Degrees),GPS Satellite Azimuth 9(Degrees),GPS Satellite Azimuth 10(Degrees),GPS Satellite Azimuth 11(Degrees),GPS Satellite Azimuth 12(Degrees),GPS Satellite Elevation 1(Degrees),GPS Satellite Elevation 2(Degrees),GPS Satellite Elevation 3(Degrees),GPS Satellite Elevation 4(Degrees),GPS Satellite Elevation 5(Degrees),GPS Satellite Elevation 6(Degrees),GPS Satellite Elevation 7(Degrees),GPS Satellite Elevation 8(Degrees),GPS Satellite Elevation 9(Degrees),GPS Satellite Elevation 10(Degrees),GPS Satellite Elevation 11(Degrees),GPS Satellite Elevation 12(Degrees),GPS Satellite PRN 1,GPS Satellite PRN 2,GPS Satellite PRN 3,GPS Satellite PRN 4,GPS Satellite PRN 5,GPS Satellite PRN 6,GPS Satellite PRN 7,GPS Satellite PRN 8,GPS Satellite PRN 9,GPS Satellite PRN 10,GPS Satellite PRN 11,GPS Satellite PRN 12,GPS Satellite Signal Level 1(AMU),GPS Satellite Signal Level 2(AMU),GPS Satellite Signal Level 3(AMU),GPS Satellite Signal Level 4(AMU),GPS Satellite Signal Level 5(AMU),GPS Satellite Signal Level 6(AMU),GPS Satellite Signal Level 7(AMU),GPS Satellite Signal Level 8(AMU),GPS Satellite Signal Level 9(AMU),GPS Satellite Signal Level 10(AMU),GPS Satellite Signal Level 11(AMU),GPS Satellite Signal Level 12(AMU),
1570010430,2019-10-02 10:00:30.667,Acquired,Acquired,Acquired,Not acquired,Acquired,Acquired,Acquired,Acquired,,,Acquired,,2.8779744E2,2.2035222399999998E2,1.66163872E2,5.117764E1,2.9098873599999996E2,1.1292713599999999E2,3.3505904E2,2.1917134399999998E2,,,8.289984E1,,5.7951124E1,2.2807E1,6.0547332E1,2.0100939999999998E1,6.6785448E1,3.1278018E1,8.143424E1,4.542666E1,,,3.542234E1,,1,3,8,10,11,14,18,22,,,32,,1,3,6,2,7,5,10,2,,,2,,
1570010490,2019-10-02 10:01:30.667,Acquired,Acquired,Acquired,Not acquired,Acquired,Acquired,Acquired,Acquired,,,Acquired,,2.8779744E2,2.2035222399999998E2,1.66163872E2,5.117764E1,2.9098873599999996E2,1.1292713599999999E2,3.3505904E2,2.1917134399999998E2,,,8.289984E1,,5.7951124E1,2.2807E1,6.0547332E1,2.0100939999999998E1,6.6785448E1,3.1278018E1,8.143424E1,4.542666E1,,,3.542234E1,,1,3,8,10,11,14,18,22,,,32,,1,3,6,2,7,5,10,2,,,2,,
1570010550,2019-10-02 10:02:30.667,Acquired,Acquired,Acquired,Not acquired,Acquired,Acquired,Acquired,Acquired,,,Acquired,,2.8779744E2,2.2035222399999998E2,1.66163872E2,5.117764E1,2.9098873599999996E2,1.1292713599999999E2,3.3505904E2,2.1917134399999998E2,,,8.289984E1,,5.7951124E1,2.2807E1,6.0547332E1,2.0100939999999998E1,6.6785448E1,3.1278018E1,8.143424E1,4.542666E1,,,3.542234E1,,1,3,8,10,11,14,18,22,,,32,,1,3,6,2,7,5,10,2,,,2,,
1570010610,2019-10-02 10:03:30.669,Acquired,Acquired,Acquired,Not acquired,Acquired,Acquired,Acquired,Acquired,,,Acquired,,2.8779744E2,2.2035222399999998E2,1.66163872E2,5.117764E1,2.9098873599999996E2,1.1292713599999999E2,3.3505904E2,2.1917134399999998E2,,,8.289984E1,,5.7951124E1,2.2807E1,6.0547332E1,2.0100939999999998E1,6.6785448E1,3.1278018E1,8.143424E1,4.542666E1,,,3.542234E1,,1,3,8,10,11,14,18,22,,,32,,1,3,6,2,7,5,10,2,,,2,,
1570010670,2019-10-02 10:04:30.667,Acquired,Acquired,Acquired,Not acquired,Acquired,Acquired,Acquired,Acquired,,,Acquired,,2.8779744E2,2.2035222399999998E2,1.66163872E2,5.117764E1,2.9098873599999996E2,1.1292713599999999E2,3.3505904E2,2.1917134399999998E2,,,8.289984E1,,5.7951124E1,2.2807E1,6.0547332E1,2.0100939999999998E1,6.6785448E1,3.1278018E1,8.143424E1,4.542666E1,,,3.542234E1,,1,3,8,10,11,14,18,22,,,32,,1,3,6,2,7,5,10,2,,,2,,
1570010730,2019-10-02 10:05:30.667,Acquired,Acquired,Acquired,Not acquired,Acquired,Acquired,Acquired,Acquired,,,Acquired,,2.8779744E2,2.2035222399999998E2,1.66163872E2,5.117764E1,2.9098873599999996E2,1.1292713599999999E2,3.3505904E2,2.1917134399999998E2,,,8.289984E1,,5.7951124E1,2.2807E1,6.0547332E1,2.0100939999999998E1,6.6785448E1,3.1278018E1,8.143424E1,4.542666E1,,,3.542234E1,,1,3,8,10,11,14,18,22,,,32,,1,3,6,2,7,5,10,2,,,2,,
1570010790,2019-10-02 10:06:30.667,Acquired,Acquired,Acquired,Not acquired,Acquired,Acquired,Acquired,Acquired,,,Acquired,,2.8779744E2,2.2035222399999998E2,1.66163872E2,5.117764E1,2.9098873599999996E2,1.1292713599999999E2,3.3505904E2,2.1917134399999998E2,,,8.289984E1,,5.7951124E1,2.2807E1,6.0547332E1,2.0100939999999998E1,6.6785448E1,3.1278018E1,8.143424E1,4.542666E1,,,3.542234E1,,1,3,8,10,11,14,18,22,,,32,,1,3,6,2,7,5,10,2,,,2,,
1570010850,2019-10-02 10:07:30.667,Acquired,Acquired,Acquired,Not acquired,Acquired,Acquired,Acquired,Acquired,,,Acquired,,2.8779744E2,2.2035222399999998E2,1.66163872E2,5.117764E1,2.9098873599999996E2,1.1292713599999999E2,3.3505904E2,2.1917134399999998E2,,,8.289984E1,,5.7951124E1,2.2807E1,6.0547332E1,2.0100939999999998E1,6.6785448E1,3.1278018E1,8.143424E1,4.542666E1,,,3.542234E1,,1,3,8,10,11,14,18,22,,,32,,1,3,6,2,7,5,10,2,,,2,,
1570010910,2019-10-02 10:08:30.667,Acquired,Acquired,Acquired,Not acquired,Acquired,Acquired,Acquired,Acquired,,,Acquired,,2.8779744E2,2.2035222399999998E2,1.66163872E2,5.117764E1,2.9098873599999996E2,1.1292713599999999E2,3.3505904E2,2.1917134399999998E2,,,8.289984E1,,5.7951124E1,2.2807E1,6.0547332E1,2.0100939999999998E1,6.6785448E1,3.1278018E1,8.143424E1,4.542666E1,,,3.542234E1,,1,3,8,10,11,14,18,22,,,32,,1,3,6,2,7,5,10,2,,,2,,
1570010970,2019-10-02 10:09:30.667,Acquired,Acquired,Acquired,Not acquired,Acquired,Acquired,Acquired,Acquired,,,Acquired,,2.8779744E2,2.2035222399999998E2,1.66163872E2,5.117764E1,2.9098873599999996E2,1.1292713599999999E2,3.3505904E2,2.1917134399999998E2,,,8.289984E1,,5.7951124E1,2.2807E1,6.0547332E1,2.0100939999999998E1,6.6785448E1,3.1278018E1,8.143424E1,4.542666E1,,,3.542234E1,,1,3,8,10,11,14,18,22,,,32,,1,3,6,2,7,5,10,2,,,2,,
1570011030,2019-10-02 10:10:30.667,Acquired,Acquired,Acquired,Not acquired,Acquired,Acquired,Acquired,Acquired,,,Acquired,,2.8779744E2,2.2035222399999998E2,1.66163872E2,5.117764E1,2.9098873599999996E2,1.1292713599999999E2,3.3505904E2,2.1917134399999998E2,,,8.289984E1,,5.7951124E1,2.2807E1,6.0547332E1,2.0100939999999998E1,6.6785448E1,3.1278018E1,8.143424E1,4.542666E1,,,3.542234E1,,1,3,8,10,11,14,18,22,,,32,,1,3,6,2,7,5,10,2,,,2,,
1570011090,2019-10-02 10:11:30.667,Acquired,Acquired,Acquired,Not acquired,Acquired,Acquired,Acquired,Acquired,,,Acquired,,2.8779744E2,2.2035222399999998E2,1.66163872E2,5.117764E1,2.9098873599999996E2,1.1292713599999999E2,3.3505904E2,2.1917134399999998E2,,,8.289984E1,,5.7951124E1,2.2807E1,6.0547332E1,2.0100939999999998E1,6.6785448E1,3.1278018E1,8.143424E1,4.542666E1,,,3.542234E1,,1,3,8,10,11,14,18,22,,,32,,1,3,6,2,7,5,10,2,,,2,,
1570011150,2019-10-02 10:12:30.667,Acquired,Acquired,Acquired,Not acquired,Acquired,Acquired,Acquired,Acquired,,,Acquired,,2.8779744E2,2.2035222399999998E2,1.66163872E2,5.117764E1,2.9098873599999996E2,1.1292713599999999E2,3.3505904E2,2.1917134399999998E2,,,8.289984E1,,5.7951124E1,2.2807E1,6.0547332E1,2.0100939999999998E1,6.6785448E1,3.1278018E1,8.143424E1,4.542666E1,,,3.542234E1,,1,3,8,10,11,14,18,22,,,32,,1,3,6,2,7,5,10,2,,,2,,
1570011210,2019-10-02 10:13:30.667,Acquired,Acquired,Acquired,Not acquired,Acquired,Acquired,Acquired,Acquired,,,Acquired,,2.8779744E2,2.2035222399999998E2,1.66163872E2,5.117764E1,2.9098873599999996E2,1.1292713599999999E2,3.3505904E2,2.1917134399999998E2,,,8.289984E1,,5.7951124E1,2.2807E1,6.0547332E1,2.0100939999999998E1,6.6785448E1,3.1278018E1,8.143424E1,4.542666E1,,,3.542234E1,,1,3,8,10,11,14,18,22,,,32,,1,3,6,2,7,5,10,2,,,2,,
1570011270,2019-10-02 10:14:30.667,Acquired,Acquired,Acquired,Not acquired,Acquired,Acquired,Acquired,Acquired,,,Acquired,,2.8779744E2,2.2035222399999998E2,1.66163872E2,5.117764E1,2.9098873599999996E2,1.1292713599999999E2,3.3505904E2,2.1917134399999998E2,,,8.289984E1,,5.7951124E1,2.2807E1,6.0547332E1,2.0100939999999998E1,6.6785448E1,3.1278018E1,8.143424E1,4.542666E1,,,3.542234E1,,1,3,8,10,11,14,18,22,,,32,,1,3,6,2,7,5,10,2,,,2,,
1570011330,2019-10-02 10:15:30.667,Acquired,Acquired,Acquired,Not acquired,Acquired,Acquired,Acquired,Acquired,,,Acquired,,2.8779744E2,2.2035222399999998E2,1.66163872E2,5.117764E1,2.9098873599999996E2,1.1292713599999999E2,3.3505904E2,2.1917134399999998E2,,,8.289984E1,,5.7951124E1,2.2807E1,6.0547332E1,2.0100939999999998E1,6.6785448E1,3.1278018E1,8.143424E1,4.542666E1,,,3.542234E1,,1,3,8,10,11,14,18,22,,,32,,1,3,6,2,7,5,10,2,,,2,,
1570011390,2019-10-02 10:16:30.667,Acquired,Acquired,Acquired,Not acquired,Acquired,Acquired,Acquired,Acquired,,,Acquired,,2.8779744E2,2.2035222399999998E2,1.66163872E2,5.117764E1,2.9098873599999996E2,1.1292713599999999E2,3.3505904E2,2.1917134399999998E2,,,8.289984E1,,5.7951124E1,2.2807E1,6.0547332E1,2.0100939999999998E1,6.6785448E1,3.1278018E1,8.143424E1,4.542666E1,,,3.542234E1,,1,3,8,10,11,14,18,22,,,32,,1,3,6,2,7,5,10,2,,,2,,
1570011450,2019-10-02 10:17:30.667,Acquired,Acquired,Acquired,Not acquired,Acquired,Acquired,Acquired,Acquired,,,Acquired,,2.8779744E2,2.2035222399999998E2,1.66163872E2,5.117764E1,2.9098873599999996E2,1.1292713599999999E2,3.3505904E2,2.1917134399999998E2,,,8.289984E1,,5.7951124E1,2.2807E1,6.0547332E1,2.0100939999999998E1,6.6785448E1,3.1278018E1,8.143424E1,4.542666E1,,,3.542234E1,,1,3,8,10,11,14,18,22,,,32,,1,3,6,2,7,5,10,2,,,2,,
1570011510,2019-10-02 10:18:30.667,Acquired,Acquired,Acquired,Not acquired,Acquired,Acquired,Acquired,Acquired,,,Acquired,,2.8779744E2,2.2035222399999998E2,1.66163872E2,5.117764E1,2.9098873599999996E2,1.1292713599999999E2,3.3505904E2,2.1917134399999998E2,,,8.289984E1,,5.7951124E1,2.2807E1,6.0547332E1,2.0100939999999998E1,6.6785448E1,3.1278018E1,8.143424E1,4.542666E1,,,3.542234E1,,1,3,8,10,11,14,18,22,,,32,,1,3,6,2,7,5,10,2,,,2,,
1570011570,2019-10-02 10:19:30.667,Acquired,Acquired,Acquired,Not acquired,Acquired,Acquired,Acquired,Acquired,,,Acquired,,2.8779744E2,2.2035222399999998E2,1.66163872E2,5.117764E1,2.9098873599999996E2,1.1292713599999999E2,3.3505904E2,2.1917134399999998E2,,,8.289984E1,,5.7951124E1,2.2807E1,6.0547332E1,2.0100939999999998E1,6.6785448E1,3.1278018E1,8.143424E1,4.542666E1,,,3.542234E1,,1,3,8,10,11,14,18,22,,,32,,1,3,6,2,7,5,10,2,,,2,,
1570011630,2019-10-02 10:20:30.668,Acquired,Acquired,Acquired,Not acquired,Acquired,Acquired,Acquired,Acquired,,,Acquired,,2.8779744E2,2.2035222399999998E2,1.66163872E2,5.117764E1,2.9098873599999996E2,1.1292713599999999E2,3.3505904E2,2.1917134399999998E2,,,8.289984E1,,5.7951124E1,2.2807E1,6.0547332E1,2.0100939999999998E1,6.6785448E1,3.1278018E1,8.143424E1,4.542666E1,,,3.542234E1,,1,3,8,10,11,14,18,22,,,32,,1,3,6,2,7,5,10,2,,,2,,
1570011690,2019-10-02 10:21:30.669,Acquired,Acquired,Acquired,Not acquired,Acquired,Acquired,Acquired,Acquired,,,Acquired,,2.8779744E2,2.2035222399999998E2,1.66163872E2,5.117764E1,2.9098873599999996E2,1.1292713599999999E2,3.3505904E2,2.1917134399999998E2,,,8.289984E1,,5.7951124E1,2.2807E1,6.0547332E1,2.0100939999999998E1,6.6785448E1,3.1278018E1,8.143424E1,4.542666E1,,,3.542234E1,,1,3,8,10,11,14,18,22,,,32,,1,3,6,2,7,5,10,2,,,2,,
1570011750,2019-10-02 10:22:30.667,Acquired,Acquired,Acquired,Not acquired,Acquired,Acquired,Acquired,Acquired,,,Acquired,,2.8779744E2,2.2035222399999998E2,1.66163872E2,5.117764E1,2.9098873599999996E2,1.1292713599999999E2,3.3505904E2,2.1917134399999998E2,,,8.289984E1,,5.7951124E1,2.2807E1,6.0547332E1,2.0100939999999998E1,6.6785448E1,3.1278018E1,8.143424E1,4.542666E1,,,3.542234E1,,1,3,8,10,11,14,18,22,,,32,,1,3,6,2,7,5,10,2,,,2,,
1570011810,2019-10-02 10:23:30.667,Acquired,Acquired,Acquired,Not acquired,Acquired,Acquired,Acquired,Acquired,,,Acquired,,2.8779744E2,2.2035222399999998E2,1.66163872E2,5.117764E1,2.9098873599999996E2,1.1292713599999999E2,3.3505904E2,2.1917134399999998E2,,,8.289984E1,,5.7951124E1,2.2807E1,6.0547332E1,2.0100939999999998E1,6.6785448E1,3.1278018E1,8.143424E1,4.542666E1,,,3.542234E1,,1,3,8,10,11,14,18,22,,,32,,1,3,6,2,7,5,10,2,,,2,,
1570011870,2019-10-02 10:24:30.667,Acquired,Acquired,Acquired,Not acquired,Acquired,Acquired,Acquired,Acquired,,,Acquired,,2.8779744E2,2.2035222399999998E2,1.66163872E2,5.117764E1,2.9098873599999996E2,1.1292713599999999E2,3.3505904E2,2.1917134399999998E2,,,8.289984E1,,5.7951124E1,2.2807E1,6.0547332E1,2.0100939999999998E1,6.6785448E1,3.1278018E1,8.143424E1,4.542666E1,,,3.542234E1,,1,3,8,10,11,14,18,22,,,32,,1,3,6,2,7,5,10,2,,,2,,
1570011930,2019-10-02 10:25:30.667,Acquired,Acquired,Acquired,Not acquired,Acquired,Acquired,Acquired,Acquired,,,Acquired,,2.8779744E2,2.2035222399999998E2,1.66163872E2,5.117764E1,2.9098873599999996E2,1.1292713599999999E2,3.3505904E2,2.1917134399999998E2,,,8.289984E1,,5.7951124E1,2.2807E1,6.0547332E1,2.0100939999999998E1,6.6785448E1,3.1278018E1,8.143424E1,4.542666E1,,,3.542234E1,,1,3,8,10,11,14,18,22,,,32,,1,3,6,2,7,5,10,2,,,2,,
1570011990,2019-10-02 10:26:30.667,Acquired,Acquired,Acquired,Not acquired,Acquired,Acquired,Acquired,Acquired,,,Acquired,,2.8779744E2,2.2035222399999998E2,1.66163872E2,5.117764E1,2.9098873599999996E2,1.1292713599999999E2,3.3505904E2,2.1917134399999998E2,,,8.289984E1,,5.7951124E1,2.2807E1,6.0547332E1,2.0100939999999998E1,6.6785448E1,3.1278018E1,8.143424E1,4.542666E1,,,3.542234E1,,1,3,8,10,11,14,18,22,,,32,,1,3,6,2,7,5,10,2,,,2,,
1570012050,2019-10-02 10:27:30.667,Acquired,Acquired,Acquired,Not acquired,Acquired,Acquired,Acquired,Acquired,,,Acquired,,2.8779744E2,2.2035222399999998E2,1.66163872E2,5.117764E1,2.9098873599999996E2,1.1292713599999999E2,3.3505904E2,2.1917134399999998E2,,,8.289984E1,,5.7951124E1,2.2807E1,6.0547332E1,2.0100939999999998E1,6.6785448E1,3.1278018E1,8.143424E1,4.542666E1,,,3.542234E1,,1,3,8,10,11,14,18,22,,,32,,1,3,6,2,7,5,10,2,,,2,,
1570012110,2019-10-02 10:28:30.669,Acquired,Acquired,Acquired,Not acquired,Acquired,Acquired,Acquired,Acquired,,,Acquired,,2.8779744E2,2.2035222399999998E2,1.66163872E2,5.117764E1,2.9098873599999996E2,1.1292713599999999E2,3.3505904E2,2.1917134399999998E2,,,8.289984E1,,5.7951124E1,2.2807E1,6.0547332E1,2.0100939999999998E1,6.6785448E1,3.1278018E1,8.143424E1,4.542666E1,,,3.542234E1,,1,3,8,10,11,14,18,22,,,32,,1,3,6,2,7,5,10,2,,,2,,
1570012170,2019-10-02 10:29:30.669,Acquired,Acquired,Acquired,Not acquired,Acquired,Acquired,Acquired,Acquired,,,Acquired,,2.8779744E2,2.2035222399999998E2,1.66163872E2,5.117764E1,2.9098873599999996E2,1.1292713599999999E2,3.3505904E2,2.1917134399999998E2,,,8.289984E1,,5.7951124E1,2.2807E1,6.0547332E1,2.0100939999999998E1,6.6785448E1,3.1278018E1,8.143424E1,4.542666E1,,,3.542234E1,,1,3,8,10,11,14,18,22,,,32,,1,3,6,2,7,5,10,2,,,2,,
1570012230,2019-10-02 10:30:30.667,Acquired,Acquired,Acquired,Not acquired,Acquired,Acquired,Acquired,Acquired,,,Acquired,,2.8779744E2,2.2035222399999998E2,1.66163872E2,5.117764E1,2.9098873599999996E2,1.1292713599999999E2,3.3505904E2,2.1917134399999998E2,,,8.289984E1,,5.7951124E1,2.2807E1,6.0547332E1,2.0100939999999998E1,6.6785448E1,3.1278018E1,8.143424E1,4.542666E1,,,3.542234E1,,1,3,8,10,11,14,18,22,,,32,,1,3,6,2,7,5,10,2,,,2,,
1570012290,2019-10-02 10:31:30.667,Acquired,Acquired,Acquired,Not acquired,Acquired,Acquired,Acquired,Acquired,,,Acquired,,2.8779744E2,2.2035222399999998E2,1.66163872E2,5.117764E1,2.9098873599999996E2,1.1292713599999999E2,3.3505904E2,2.1917134399999998E2,,,8.289984E1,,5.7951124E1,2.2807E1,6.0547332E1,2.0100939999999998E1,6.6785448E1,3.1278018E1,8.143424E1,4.542666E1,,,3.542234E1,,1,3,8,10,11,14,18,22,,,32,,1,3,6,2,7,5,10,2,,,2,,
1570012350,2019-10-02 10:32:30.667,Acquired,Acquired,Acquired,Not acquired,Acquired,Acquired,Acquired,Acquired,,,Acquired,,2.8779744E2,2.2035222399999998E2,1.66163872E2,5.117764E1,2.9098873599999996E2,1.1292713599999999E2,3.3505904E2,2.1917134399999998E2,,,8.289984E1,,5.7951124E1,2.2807E1,6.0547332E1,2.0100939999999998E1,6.6785448E1,3.1278018E1,8.143424E1,4.542666E1,,,3.542234E1,,1,3,8,10,11,14,18,22,,,32,,1,3,6,2,7,5,10,2,,,2,,
1570012410,2019-10-02 10:33:30.667,Acquired,Acquired,Acquired,Not acquired,Acquired,Acquired,Acquired,Acquired,,,Acquired,,2.8779744E2,2.2035222399999998E2,1.66163872E2,5.117764E1,2.9098873599999996E2,1.1292713599999999E2,3.3505904E2,2.1917134399999998E2,,,8.289984E1,,5.7951124E1,2.2807E1,6.0547332E1,2.0100939999999998E1,6.6785448E1,3.1278018E1,8.143424E1,4.542666E1,,,3.542234E1,,1,3,8,10,11,14,18,22,,,32,,1,3,6,2,7,5,10,2,,,2,,
1570012470,2019-10-02 10:34:30.667,Acquired,Acquired,Acquired,Not acquired,Acquired,Acquired,Acquired,Acquired,,,Acquired,,2.8779744E2,2.2035222399999998E2,1.66163872E2,5.117764E1,2.9098873599999996E2,1.1292713599999999E2,3.3505904E2,2.1917134399999998E2,,,8.289984E1,,5.7951124E1,2.2807E1,6.0547332E1,2.0100939999999998E1,6.6785448E1,3.1278018E1,8.143424E1,4.542666E1,,,3.542234E1,,1,3,8,10,11,14,18,22,,,32,,1,3,6,2,7,5,10,2,,,2,,
1570012530,2019-10-02 10:35:30.671,Acquired,Acquired,Acquired,Not acquired,Acquired,Acquired,Acquired,Acquired,,,Acquired,,2.8779744E2,2.2035222399999998E2,1.66163872E2,5.117764E1,2.9098873599999996E2,1.1292713599999999E2,3.3505904E2,2.1917134399999998E2,,,8.289984E1,,5.7951124E1,2.2807E1,6.0547332E1,2.0100939999999998E1,6.6785448E1,3.1278018E1,8.143424E1,4.542666E1,,,3.542234E1,,1,3,8,10,11,14,18,22,,,32,,1,3,6,2,7,5,10,2,,,2,,
1570012590,2019-10-02 10:36:30.667,Acquired,Acquired,Acquired,Not acquired,Acquired,Acquired,Acquired,Acquired,,,Acquired,,2.8779744E2,2.2035222399999998E2,1.66163872E2,5.117764E1,2.9098873599999996E2,1.1292713599999999E2,3.3505904E2,2.1917134399999998E2,,,8.289984E1,,5.7951124E1,2.2807E1,6.0547332E1,2.0100939999999998E1,6.6785448E1,3.1278018E1,8.143424E1,4.542666E1,,,3.542234E1,,1,3,8,10,11,14,18,22,,,32,,1,3,6,2,7,5,10,2,,,2,,
1570012650,2019-10-02 10:37:30.667,Acquired,Acquired,Acquired,Not acquired,Acquired,Acquired,Acquired,Acquired,,,Acquired,,2.8779744E2,2.2035222399999998E2,1.66163872E2,5.117764E1,2.9098873599999996E2,1.1292713599999999E2,3.3505904E2,2.1917134399999998E2,,,8.289984E1,,5.7951124E1,2.2807E1,6.0547332E1,2.0100939999999998E1,6.6785448E1,3.1278018E1,8.143424E1,4.542666E1,,,3.542234E1,,1,3,8,10,11,14,18,22,,,32,,1,3,6,2,7,5,10,2,,,2,,
1570012710,2019-10-02 10:38:30.667,Acquired,Acquired,Acquired,Not acquired,Acquired,Acquired,Acquired,Acquired,,,Acquired,,2.8779744E2,2.2035222399999998E2,1.66163872E2,5.117764E1,2.9098873599999996E2,1.1292713599999999E2,3.3505904E2,2.1917134399999998E2,,,8.289984E1,,5.7951124E1,2.2807E1,6.0547332E1,2.0100939999999998E1,6.6785448E1,3.1278018E1,8.143424E1,4.542666E1,,,3.542234E1,,1,3,8,10,11,14,18,22,,,32,,1,3,6,2,7,5,10,2,,,2,,
1570012770,2019-10-02 10:39:30.668,Acquired,Acquired,Acquired,Not acquired,Acquired,Acquired,Acquired,Acquired,,,Acquired,,2.8779744E2,2.2035222399999998E2,1.66163872E2,5.117764E1,2.9098873599999996E2,1.1292713599999999E2,3.3505904E2,2.1917134399999998E2,,,8.289984E1,,5.7951124E1,2.2807E1,6.0547332E1,2.0100939999999998E1,6.6785448E1,3.1278018E1,8.143424E1,4.542666E1,,,3.542234E1,,1,3,8,10,11,14,18,22,,,32,,1,3,6,2,7,5,10,2,,,2,,
1570012830,2019-10-02 10:40:30.667,Acquired,Acquired,Acquired,Not acquired,Acquired,Acquired,Acquired,Acquired,,,Acquired,,2.8779744E2,2.2035222399999998E2,1.66163872E2,5.117764E1,2.9098873599999996E2,1.1292713599999999E2,3.3505904E2,2.1917134399999998E2,,,8.289984E1,,5.7951124E1,2.2807E1,6.0547332E1,2.0100939999999998E1,6.6785448E1,3.1278018E1,8.143424E1,4.542666E1,,,3.542234E1,,1,3,8,10,11,14,18,22,,,32,,1,3,6,2,7,5,10,2,,,2,,
1570012890,2019-10-02 10:41:30.668,Acquired,Acquired,Acquired,Not acquired,Acquired,Acquired,Acquired,Acquired,,,Acquired,,2.8779744E2,2.2035222399999998E2,1.66163872E2,5.117764E1,2.9098873599999996E2,1.1292713599999999E2,3.3505904E2,2.1917134399999998E2,,,8.289984E1,,5.7951124E1,2.2807E1,6.0547332E1,2.0100939999999998E1,6.6785448E1,3.1278018E1,8.143424E1,4.542666E1,,,3.542234E1,,1,3,8,10,11,14,18,22,,,32,,1,3,6,2,7,5,10,2,,,2,,
1570012950,2019-10-02 10:42:30.668,Acquired,Acquired,Acquired,Not acquired,Acquired,Acquired,,,Not acquired,Acquired,Acquired,,2.88233696E2,2.20526864E2,1.66111696E2,5.1204684E1,2.9093708799999996E2,1.1251656E2,,,1.4660620799999998E2,3.05532736E2,8.2356088E1,,5.8367791999999994E1,2.3236435999999998E1,6.004842E1,1.9701338E1,6.7252968E1,3.1576856E1,,,2.3856852E1,2.732229E1,3.5499212E1,,1,3,8,10,11,14,,,27,28,32,,1,3,4,2,7,1,,,1,8,2,,
1570013010,2019-10-02 10:43:30.668,Acquired,Acquired,Not acquired,Not acquired,Not acquired,,Acquired,Acquired,Acquired,Acquired,,,3.24883904E2,2.3123672E2,1.66924768E2,1.9994248E2,8.725304E1,,8.934591999999999E1,2.2929305599999998E2,2.8256768E2,5.7017944E1,,,7.846393599999999E1,4.4950652E1,3.5937792E1,8.4238632E1,4.1397383999999995E1,,7.024959199999999E1,6.8907656E1,2.6844303999999998E1,3.215513E1,,,1,3,8,11,14,,18,22,28,32,,,7,9,0,0,0,,4,7,11,3,,,
1570013070,2019-10-02 10:44:30.667,Acquired,Acquired,Acquired,Acquired,Acquired,Acquired,Acquired,Acquired,Acquired,Not acquired,,,3.26483168E2,2.3150328E2,1.66965344E2,1.9567775999999998E2,8.66604E1,3.16162912E2,9.0071888E1,2.29538096E2,2.82107392E2,5.6585496E1,,,7.8825424E1,4.5400611999999995E1,3.5462531999999996E1,8.4007752E1,4.1465711999999996E1,1.829796E1,6.9824072E1,6.93762E1,2.6714278E1,3.1954497999999997E1,,,1,3,8,11,14,17,18,22,28,32,,,5,6,2,4,2,14,2,6,13,1,,,
1570013130,2019-10-02 10:45:30.667,Acquired,Acquired,Acquired,Acquired,Acquired,Acquired,Acquired,Acquired,Acquired,Not acquired,,,3.26483168E2,2.3150328E2,1.66965344E2,1.9567775999999998E2,8.66604E1,3.16162912E2,9.0071888E1,2.29538096E2,2.82107392E2,5.6585496E1,,,7.8825424E1,4.5400611999999995E1,3.5462531999999996E1,8.4007752E1,4.1465711999999996E1,1.829796E1,6.9824072E1,6.93762E1,2.6714278E1,3.1954497999999997E1,,,1,3,8,11,14,17,18,22,28,32,,,5,6,2,4,2,14,2,6,13,1,,,
1570013190,2019-10-02 10:46:30.667,Acquired,Acquired,Acquired,Acquired,Acquired,Acquired,Acquired,Acquired,Acquired,Not acquired,,,3.26483168E2,2.3150328E2,1.66965344E2,1.9567775999999998E2,8.66604E1,3.16162912E2,9.0071888E1,2.29538096E2,2.82107392E2,5.6585496E1,,,7.8825424E1,4.5400611999999995E1,3.5462531999999996E1,8.4007752E1,4.1465711999999996E1,1.829796E1,6.9824072E1,6.93762E1,2.6714278E1,3.1954497999999997E1,,,1,3,8,11,14,17,18,22,28,32,,,5,6,2,4,2,14,2,6,13,1,,,
1570013250,2019-10-02 10:47:30.667,Acquired,Acquired,Acquired,Acquired,Acquired,Acquired,Acquired,Acquired,Acquired,Not acquired,,,3.26483168E2,2.3150328E2,1.66965344E2,1.9567775999999998E2,8.66604E1,3.16162912E2,9.0071888E1,2.29538096E2,2.82107392E2,5.6585496E1,,,7.8825424E1,4.5400611999999995E1,3.5462531999999996E1,8.4007752E1,4.1465711999999996E1,1.829796E1,6.9824072E1,6.93762E1,2.6714278E1,3.1954497999999997E1,,,1,3,8,11,14,17,18,22,28,32,,,5,6,2,4,2,14,2,6,13,1,,,
1570013310,2019-10-02 10:48:30.667,Acquired,Acquired,Acquired,Acquired,Acquired,Acquired,Acquired,Acquired,Acquired,Not acquired,,,3.26483168E2,2.3150328E2,1.66965344E2,1.9567775999999998E2,8.66604E1,3.16162912E2,9.0071888E1,2.29538096E2,2.82107392E2,5.6585496E1,,,7.8825424E1,4.5400611999999995E1,3.5462531999999996E1,8.4007752E1,4.1465711999999996E1,1.829796E1,6.9824072E1,6.93762E1,2.6714278E1,3.1954497999999997E1,,,1,3,8,11,14,17,18,22,28,32,,,5,6,2,4,2,14,2,6,13,1,,,
1570013370,2019-10-02 10:49:30.667,Acquired,Acquired,Acquired,Acquired,Acquired,Acquired,Acquired,Acquired,Acquired,Not acquired,,,3.26483168E2,2.3150328E2,1.66965344E2,1.9567775999999998E2,8.66604E1,3.16162912E2,9.0071888E1,2.29538096E2,2.82107392E2,5.6585496E1,,,7.8825424E1,4.5400611999999995E1,3.5462531999999996E1,8.4007752E1,4.1465711999999996E1,1.829796E1,6.9824072E1,6.93762E1,2.6714278E1,3.1954497999999997E1,,,1,3,8,11,14,17,18,22,28,32,,,5,6,2,4,2,14,2,6,13,1,,,
1570013430,2019-10-02 10:50:30.667,Acquired,Acquired,Acquired,Acquired,Acquired,Acquired,Acquired,Acquired,Acquired,Not acquired,,,3.26483168E2,2.3150328E2,1.66965344E2,1.9567775999999998E2,8.66604E1,3.16162912E2,9.0071888E1,2.29538096E2,2.82107392E2,5.6585496E1,,,7.8825424E1,4.5400611999999995E1,3.5462531999999996E1,8.4007752E1,4.1465711999999996E1,1.829796E1,6.9824072E1,6.93762E1,2.6714278E1,3.1954497999999997E1,,,1,3,8,11,14,17,18,22,28,32,,,5,6,2,4,2,14,2,6,13,1,,,
1570013490,2019-10-02 10:51:30.667,Acquired,Acquired,Acquired,Acquired,Acquired,Acquired,Acquired,Acquired,Acquired,Not acquired,,,3.26483168E2,2.3150328E2,1.66965344E2,1.9567775999999998E2,8.66604E1,3.16162912E2,9.0071888E1,2.29538096E2,2.82107392E2,5.6585496E1,,,7.8825424E1,4.5400611999999995E1,3.5462531999999996E1,8.4007752E1,4.1465711999999996E1,1.829796E1,6.9824072E1,6.93762E1,2.6714278E1,3.1954497999999997E1,,,1,3,8,11,14,17,18,22,28,32,,,5,6,2,4,2,14,2,6,13,1,,,
1570013550,2019-10-02 10:52:30.667,Acquired,Acquired,Acquired,Acquired,Acquired,Acquired,Acquired,Acquired,Acquired,Not acquired,,,3.26483168E2,2.3150328E2,1.66965344E2,1.9567775999999998E2,8.66604E1,3.16162912E2,9.0071888E1,2.29538096E2,2.82107392E2,5.6585496E1,,,7.8825424E1,4.5400611999999995E1,3.5462531999999996E1,8.4007752E1,4.1465711999999996E1,1.829796E1,6.9824072E1,6.93762E1,2.6714278E1,3.1954497999999997E1,,,1,3,8,11,14,17,18,22,28,32,,,5,6,2,4,2,14,2,6,13,1,,,
1570013610,2019-10-02 10:53:30.667,Acquired,Acquired,Acquired,Acquired,Acquired,Acquired,Acquired,Acquired,Acquired,Not acquired,,,3.26483168E2,2.3150328E2,1.66965344E2,1.9567775999999998E2,8.66604E1,3.16162912E2,9.0071888E1,2.29538096E2,2.82107392E2,5.6585496E1,,,7.8825424E1,4.5400611999999995E1,3.5462531999999996E1,8.4007752E1,4.1465711999999996E1,1.829796E1,6.9824072E1,6.93762E1,2.6714278E1,3.1954497999999997E1,,,1,3,8,11,14,17,18,22,28,32,,,5,6,2,4,2,14,2,6,13,1,,,
1570013670,2019-10-02 10:54:30.667,Acquired,Acquired,Acquired,Acquired,Acquired,Acquired,Acquired,Acquired,Acquired,Not acquired,,,3.26483168E2,2.3150328E2,1.66965344E2,1.9567775999999998E2,8.66604E1,3.16162912E2,9.0071888E1,2.29538096E2,2.82107392E2,5.6585496E1,,,7.8825424E1,4.5400611999999995E1,3.5462531999999996E1,8.4007752E1,4.1465711999999996E1,1.829796E1,6.9824072E1,6.93762E1,2.6714278E1,3.1954497999999997E1,,,1,3,8,11,14,17,18,22,28,32,,,5,6,2,4,2,14,2,6,13,1,,,
1570013730,2019-10-02 10:55:30.667,Acquired,Acquired,Acquired,Acquired,Acquired,Acquired,Acquired,Acquired,Acquired,Not acquired,,,3.26483168E2,2.3150328E2,1.66965344E2,1.9567775999999998E2,8.66604E1,3.16162912E2,9.0071888E1,2.29538096E2,2.82107392E2,5.6585496E1,,,7.8825424E1,4.5400611999999995E1,3.5462531999999996E1,8.4007752E1,4.1465711999999996E1,1.829796E1,6.9824072E1,6.93762E1,2.6714278E1,3.1954497999999997E1,,,1,3,8,11,14,17,18,22,28,32,,,5,6,2,4,2,14,2,6,13,1,,,
1570013790,2019-10-02 10:56:30.667,Acquired,Acquired,Acquired,Acquired,Acquired,Acquired,Acquired,Acquired,Acquired,Not acquired,,,3.26483168E2,2.3150328E2,1.66965344E2,1.9567775999999998E2,8.66604E1,3.16162912E2,9.0071888E1,2.29538096E2,2.82107392E2,5.6585496E1,,,7.8825424E1,4.5400611999999995E1,3.5462531999999996E1,8.4007752E1,4.1465711999999996E1,1.829796E1,6.9824072E1,6.93762E1,2.6714278E1,3.1954497999999997E1,,,1,3,8,11,14,17,18,22,28,32,,,5,6,2,4,2,14,2,6,13,1,,,
1570013850,2019-10-02 10:57:30.667,Acquired,Acquired,Acquired,Acquired,Acquired,Acquired,Acquired,Acquired,Acquired,Not acquired,,,3.26483168E2,2.3150328E2,1.66965344E2,1.9567775999999998E2,8.66604E1,3.16162912E2,9.0071888E1,2.29538096E2,2.82107392E2,5.6585496E1,,,7.8825424E1,4.5400611999999995E1,3.5462531999999996E1,8.4007752E1,4.1465711999999996E1,1.829796E1,6.9824072E1,6.93762E1,2.6714278E1,3.1954497999999997E1,,,1,3,8,11,14,17,18,22,28,32,,,5,6,2,4,2,14,2,6,13,1,,,
1570013910,2019-10-02 10:58:30.669,Acquired,Acquired,Acquired,Acquired,Acquired,Acquired,Acquired,Acquired,Acquired,Not acquired,,,3.26483168E2,2.3150328E2,1.66965344E2,1.9567775999999998E2,8.66604E1,3.16162912E2,9.0071888E1,2.29538096E2,2.82107392E2,5.6585496E1,,,7.8825424E1,4.5400611999999995E1,3.5462531999999996E1,8.4007752E1,4.1465711999999996E1,1.829796E1,6.9824072E1,6.93762E1,2.6714278E1,3.1954497999999997E1,,,1,3,8,11,14,17,18,22,28,32,,,5,6,2,4,2,14,2,6,13,1,,,
1570013970,2019-10-02 10:59:30.667,Acquired,Acquired,Acquired,Acquired,Acquired,Acquired,Acquired,Acquired,Acquired,Not acquired,,,3.26483168E2,2.3150328E2,1.66965344E2,1.9567775999999998E2,8.66604E1,3.16162912E2,9.0071888E1,2.29538096E2,2.82107392E2,5.6585496E1,,,7.8825424E1,4.5400611999999995E1,3.5462531999999996E1,8.4007752E1,4.1465711999999996E1,1.829796E1,6.9824072E1,6.93762E1,2.6714278E1,3.1954497999999997E1,,,1,3,8,11,14,17,18,22,28,32,,,5,6,2,4,2,14,2,6,13,1,,,
