Time(longsecs),Time(UTC),Earth Location,GPS Receiver Status,GPS Satellites Used,GPS PDOP,GPS TDOP,Timing Status,Timing Phase Lock,Timing Uncertainty(ns),DAC Count,Timing Error(ns),GPS Last Update Time,
1570014030,2019-10-02 11:00:30.667,47.652106N 0.542986E 203m,Off,7,2.642875,1.6977905,Time OK,Free running,19000,9301,0,2019-10-02 10:43:37.000000000,
1570014090,2019-10-02 11:01:30.667,47.652106N 0.542986E 203m,Off,7,2.642875,1.6977905,Time OK,Free running,20100,9301,0,2019-10-02 10:43:37.000000000,
1570014150,2019-10-02 11:02:30.680,47.652106N 0.542986E 203m,Off,7,2.642875,1.6977905,Time OK,Free running,21300,9301,0,2019-10-02 10:43:37.000000000,
1570014210,2019-10-02 11:03:30.667,47.652106N 0.542986E 203m,Off,7,2.642875,1.6977905,Time OK,Free running,22500,9301,0,2019-10-02 10:43:37.000000000,
1570014270,2019-10-02 11:04:30.667,47.652106N 0.542986E 203m,Off,7,2.642875,1.6977905,Time OK,Free running,23800,9301,0,2019-10-02 10:43:37.000000000,
1570014330,2019-10-02 11:05:30.667,47.652106N 0.542986E 203m,Off,7,2.642875,1.6977905,Time OK,Free running,25200,9301,0,2019-10-02 10:43:37.000000000,
1570014390,2019-10-02 11:06:30.667,47.652106N 0.542986E 203m,Off,7,2.642875,1.6977905,Time OK,Free running,26700,9301,0,2019-10-02 10:43:37.000000000,
1570014450,2019-10-02 11:07:30.683,47.652106N 0.542986E 203m,Off,7,2.642875,1.6977905,Time OK,Free running,28300,9301,0,2019-10-02 10:43:37.000000000,
1570014510,2019-10-02 11:08:30.667,47.652106N 0.542986E 203m,Off,7,2.642875,1.6977905,Time OK,Free running,29800,9301,0,2019-10-02 10:43:37.000000000,
1570014570,2019-10-02 11:09:30.705,47.652106N 0.542986E 203m,Off,7,2.642875,1.6977905,Time OK,Free running,31300,9301,0,2019-10-02 10:43:37.000000000,
1570014630,2019-10-02 11:10:30.667,47.652106N 0.542986E 203m,Off,7,2.642875,1.6977905,Time OK,Free running,32700,9301,0,2019-10-02 10:43:37.000000000,
1570014690,2019-10-02 11:11:30.667,47.652106N 0.542986E 203m,Off,7,2.642875,1.6977905,Time OK,Free running,34200,9301,0,2019-10-02 10:43:37.000000000,
1570014750,2019-10-02 11:12:30.667,47.652106N 0.542986E 203m,Off,7,2.642875,1.6977905,Time OK,Free running,36000,9301,0,2019-10-02 10:43:37.000000000,
1570014810,2019-10-02 11:13:30.667,47.652106N 0.542986E 203m,Off,7,2.642875,1.6977905,Time OK,Free running,37700,9301,0,2019-10-02 10:43:37.000000000,
1570014870,2019-10-02 11:14:30.669,47.652106N 0.542986E 203m,Off,7,2.642875,1.6977905,Time OK,Free running,39300,9301,0,2019-10-02 10:43:37.000000000,
1570014930,2019-10-02 11:15:30.668,47.652106N 0.542986E 203m,Off,7,2.642875,1.6977905,Time OK,Free running,41100,9301,0,2019-10-02 10:43:37.000000000,
1570014990,2019-10-02 11:16:30.667,47.652106N 0.542986E 203m,Off,7,2.642875,1.6977905,Time OK,Free running,42700,9301,0,2019-10-02 10:43:37.000000000,
1570015050,2019-10-02 11:17:30.667,47.652106N 0.542986E 203m,Off,7,2.642875,1.6977905,Time OK,Free running,44000,9301,0,2019-10-02 10:43:37.000000000,
1570015110,2019-10-02 11:18:30.667,47.652106N 0.542986E 203m,Off,7,2.642875,1.6977905,Time OK,Free running,45800,9301,0,2019-10-02 10:43:37.000000000,
1570015170,2019-10-02 11:19:30.667,47.652106N 0.542986E 203m,Off,7,2.642875,1.6977905,Time OK,Free running,47600,9301,0,2019-10-02 10:43:37.000000000,
1570015230,2019-10-02 11:20:30.669,47.652106N 0.542986E 203m,Off,7,2.642875,1.6977905,Time OK,Free running,49400,9301,0,2019-10-02 10:43:37.000000000,
1570015290,2019-10-02 11:21:30.667,47.652106N 0.542986E 203m,Off,7,2.642875,1.6977905,Time OK,Free running,51100,9301,0,2019-10-02 10:43:37.000000000,
1570015350,2019-10-02 11:22:30.668,47.652106N 0.542986E 203m,Doing fixes,8,1.7744869,1.0255712,Time OK,Coarse lock,100,9784,-3958,2019-10-02 11:22:27.000000000,
1570015410,2019-10-02 11:23:30.700,47.652106N 0.542986E 203m,Doing fixes,6,3.9185364,2.8132823,Time OK,Fine lock,100,9301,0,2019-10-02 11:23:27.000000000,
1570015470,2019-10-02 11:24:30.667,47.652106N 0.542986E 203m,Doing fixes,5,3.4231203,2.1304524,Time OK,Fine lock,100,9297,104,2019-10-02 11:24:27.000000000,
1570015530,2019-10-02 11:25:30.668,47.652106N 0.542986E 203m,Doing fixes,8,1.9606974,1.179173,Time OK,Fine lock,100,9304,0,2019-10-02 11:25:27.000000000,
1570015590,2019-10-02 11:26:30.668,47.652106N 0.542986E 203m,Doing fixes,5,3.692585,2.4006755,Time OK,Fine lock,100,9300,0,2019-10-02 11:26:27.000000000,
1570015650,2019-10-02 11:27:30.671,47.652106N 0.542986E 203m,Off,7,2.6702044,1.6728113,Time OK,Free running,100,9303,0,2019-10-02 11:27:27.000000000,
1570015710,2019-10-02 11:28:30.667,47.652106N 0.542986E 203m,Off,7,2.6702044,1.6728113,Time OK,Free running,1000,9303,0,2019-10-02 11:27:27.000000000,
1570015770,2019-10-02 11:29:30.667,47.652106N 0.542986E 203m,Off,7,2.6702044,1.6728113,Time OK,Free running,2100,9303,0,2019-10-02 11:27:27.000000000,
1570015830,2019-10-02 11:30:30.667,47.652106N 0.542986E 203m,Off,7,2.6702044,1.6728113,Time OK,Free running,3300,9303,0,2019-10-02 11:27:27.000000000,
1570015890,2019-10-02 11:31:30.667,47.652106N 0.542986E 203m,Off,7,2.6702044,1.6728113,Time OK,Free running,4400,9303,0,2019-10-02 11:27:27.000000000,
1570015950,2019-10-02 11:32:30.667,47.652106N 0.542986E 203m,Off,7,2.6702044,1.6728113,Time OK,Free running,5400,9303,0,2019-10-02 11:27:27.000000000,
1570016010,2019-10-02 11:33:30.667,47.652106N 0.542986E 203m,Off,7,2.6702044,1.6728113,Time OK,Free running,6400,9303,0,2019-10-02 11:27:27.000000000,
1570016070,2019-10-02 11:34:30.667,47.652106N 0.542986E 203m,Off,7,2.6702044,1.6728113,Time OK,Free running,7400,9303,0,2019-10-02 11:27:27.000000000,
1570016130,2019-10-02 11:35:30.667,47.652106N 0.542986E 203m,Off,7,2.6702044,1.6728113,Time OK,Free running,8400,9303,0,2019-10-02 11:27:27.000000000,
1570016190,2019-10-02 11:36:30.699,47.652106N 0.542986E 203m,Off,7,2.6702044,1.6728113,Time OK,Free running,9800,9303,0,2019-10-02 11:27:27.000000000,
1570016250,2019-10-02 11:37:30.668,47.652106N 0.542986E 203m,Off,7,2.6702044,1.6728113,Time OK,Free running,11100,9303,0,2019-10-02 11:27:27.000000000,
1570016310,2019-10-02 11:38:30.667,47.652106N 0.542986E 203m,Off,7,2.6702044,1.6728113,Time OK,Free running,12300,9303,0,2019-10-02 11:27:27.000000000,
1570016370,2019-10-02 11:39:30.667,47.652106N 0.542986E 203m,Off,7,2.6702044,1.6728113,Time OK,Free running,13300,9303,0,2019-10-02 11:27:27.000000000,
1570016430,2019-10-02 11:40:30.696,47.652106N 0.542986E 203m,Off,7,2.6702044,1.6728113,Time OK,Free running,14400,9303,0,2019-10-02 11:27:27.000000000,
1570016490,2019-10-02 11:41:30.705,47.652106N 0.542986E 203m,Off,7,2.6702044,1.6728113,Time OK,Free running,15700,9303,0,2019-10-02 11:27:27.000000000,
1570016550,2019-10-02 11:42:30.667,47.652106N 0.542986E 203m,Off,7,2.6702044,1.6728113,Time OK,Free running,17000,9303,0,2019-10-02 11:27:27.000000000,
1570016610,2019-10-02 11:43:30.669,47.652106N 0.542986E 203m,Off,7,2.6702044,1.6728113,Time OK,Free running,18400,9303,0,2019-10-02 11:27:27.000000000,
1570016670,2019-10-02 11:44:30.667,47.652106N 0.542986E 203m,Off,7,2.6702044,1.6728113,Time OK,Free running,19900,9303,0,2019-10-02 11:27:27.000000000,
1570016730,2019-10-02 11:45:30.667,47.652106N 0.542986E 203m,Off,7,2.6702044,1.6728113,Time OK,Free running,21400,9303,0,2019-10-02 11:27:27.000000000,
1570016790,2019-10-02 11:46:30.667,47.652106N 0.542986E 203m,Off,7,2.6702044,1.6728113,Time OK,Free running,22800,9303,0,2019-10-02 11:27:27.000000000,
1570016850,2019-10-02 11:47:30.667,47.652106N 0.542986E 203m,Off,7,2.6702044,1.6728113,Time OK,Free running,24200,9303,0,2019-10-02 11:27:27.000000000,
1570016910,2019-10-02 11:48:30.667,47.652106N 0.542986E 203m,Off,7,2.6702044,1.6728113,Time OK,Free running,25700,9303,0,2019-10-02 11:27:27.000000000,
1570016970,2019-10-02 11:49:30.669,47.652106N 0.542986E 203m,Off,7,2.6702044,1.6728113,Time OK,Free running,27100,9303,0,2019-10-02 11:27:27.000000000,
1570017030,2019-10-02 11:50:30.667,47.652106N 0.542986E 203m,Off,7,2.6702044,1.6728113,Time OK,Free running,28700,9303,0,2019-10-02 11:27:27.000000000,
1570017090,2019-10-02 11:51:30.667,47.652106N 0.542986E 203m,Off,7,2.6702044,1.6728113,Time OK,Free running,30100,9303,0,2019-10-02 11:27:27.000000000,
1570017150,2019-10-02 11:52:30.667,47.652106N 0.542986E 203m,Off,7,2.6702044,1.6728113,Time OK,Free running,31600,9303,0,2019-10-02 11:27:27.000000000,
1570017210,2019-10-02 11:53:30.668,47.652106N 0.542986E 203m,Off,7,2.6702044,1.6728113,Time OK,Free running,33500,9303,0,2019-10-02 11:27:27.000000000,
1570017270,2019-10-02 11:54:30.667,47.652106N 0.542986E 203m,Off,7,2.6702044,1.6728113,Time OK,Free running,35300,9303,0,2019-10-02 11:27:27.000000000,
1570017330,2019-10-02 11:55:30.668,47.652106N 0.542986E 203m,Off,7,2.6702044,1.6728113,Time OK,Free running,37000,9303,0,2019-10-02 11:27:27.000000000,
1570017390,2019-10-02 11:56:30.667,47.652106N 0.542986E 203m,Off,7,2.6702044,1.6728113,Time OK,Free running,38700,9303,0,2019-10-02 11:27:27.000000000,
1570017450,2019-10-02 11:57:30.667,47.652106N 0.542986E 203m,Off,7,2.6702044,1.6728113,Time OK,Free running,40300,9303,0,2019-10-02 11:27:27.000000000,
1570017510,2019-10-02 11:58:30.676,47.652106N 0.542986E 203m,Off,7,2.6702044,1.6728113,Time OK,Free running,42000,9303,0,2019-10-02 11:27:27.000000000,
1570017570,2019-10-02 11:59:30.667,47.652106N 0.542986E 203m,Off,7,2.6702044,1.6728113,Time OK,Free running,43700,9303,0,2019-10-02 11:27:27.000000000,
