Time(longsecs),Time(UTC),Supply Voltage(mV),Temperature(&deg;C),NMX Bus Current(mA),Sensor Current(mA),Serial Port Current(mA),Controller Current(mA),Digitizer Current(mA),
1569974430,2019-10-02 00:00:30.667,14272,2.269983E1,0,7,0,77,51,
1569974490,2019-10-02 00:01:30.667,14286,2.2543915E1,0,11,0,63,50,
1569974550,2019-10-02 00:02:30.669,14286,2.2708313E1,0,10,0,75,50,
1569974610,2019-10-02 00:03:30.667,14286,2.2477081E1,0,25,0,73,48,
1569974670,2019-10-02 00:04:30.667,14286,2.2575745E1,0,10,0,75,48,
1569974730,2019-10-02 00:05:30.686,14286,2.2292542E1,0,17,0,75,45,
1569974790,2019-10-02 00:06:30.667,14286,2.2557709E1,0,11,0,62,48,
1569974850,2019-10-02 00:07:30.667,14246,2.2450562E1,0,10,0,78,47,
1569974910,2019-10-02 00:08:30.667,14272,2.2497253E1,0,11,0,75,50,
1569974970,2019-10-02 00:09:30.669,14286,2.2484528E1,0,11,0,63,49,
1569975030,2019-10-02 00:10:30.669,14286,2.256195E1,0,14,0,63,52,
1569975090,2019-10-02 00:11:30.667,14286,2.2452698E1,0,11,0,62,53,
1569975150,2019-10-02 00:12:30.667,14286,2.2538605E1,0,9,0,75,49,
1569975210,2019-10-02 00:13:30.667,14286,2.2383759E1,0,10,0,73,50,
1569975270,2019-10-02 00:14:30.667,14286,2.2439972E1,0,9,0,63,51,
1569975330,2019-10-02 00:15:30.667,14272,2.2523773E1,0,13,0,62,53,
1569975390,2019-10-02 00:16:30.667,14272,2.240921E1,0,4,0,75,48,
1569975450,2019-10-02 00:17:30.667,14286,2.2547089E1,0,11,0,75,51,
1569975510,2019-10-02 00:18:30.669,14272,2.252481E1,0,10,0,75,50,
1569975570,2019-10-02 00:19:30.667,14286,2.2487701E1,0,6,0,63,47,
1569975630,2019-10-02 00:20:30.667,14272,2.2568298E1,0,11,0,77,49,
1569975690,2019-10-02 00:21:30.669,14286,2.262027E1,0,9,0,67,43,
1569975750,2019-10-02 00:22:30.667,14272,2.2464355E1,0,10,0,74,52,
1569975810,2019-10-02 00:23:30.677,14272,2.2591644E1,0,11,0,73,49,
1569975870,2019-10-02 00:24:30.667,14272,2.2651031E1,0,7,0,66,50,
1569975930,2019-10-02 00:25:30.667,14286,2.2480286E1,0,11,0,63,48,
1569975990,2019-10-02 00:26:30.699,14286,2.2421936E1,0,7,0,63,51,
1569976050,2019-10-02 00:27:30.667,14272,2.2458008E1,0,14,0,75,52,
1569976110,2019-10-02 00:28:30.667,14272,2.2280884E1,0,13,0,70,51,
1569976170,2019-10-02 00:29:30.667,14286,2.250998E1,0,15,0,63,49,
1569976230,2019-10-02 00:30:30.667,14272,2.239859E1,0,10,0,63,51,
1569976290,2019-10-02 00:31:30.667,14286,2.2632996E1,0,10,0,63,49,
1569976350,2019-10-02 00:32:30.667,14272,2.2533295E1,0,10,0,75,48,
1569976410,2019-10-02 00:33:30.667,14259,2.2517395E1,0,10,0,79,50,
1569976470,2019-10-02 00:34:30.667,14286,2.2263885E1,0,14,0,63,53,
1569976530,2019-10-02 00:35:30.667,14286,2.2447388E1,0,10,0,63,53,
1569976590,2019-10-02 00:36:30.667,14286,2.255133E1,0,15,0,63,48,
1569976650,2019-10-02 00:37:30.667,14259,2.2438904E1,0,0,0,75,47,
1569976710,2019-10-02 00:38:30.667,14259,2.2404968E1,0,14,0,76,51,
1569976770,2019-10-02 00:39:30.667,14272,2.2385864E1,0,14,0,63,53,
1569976830,2019-10-02 00:40:30.667,14272,2.2568298E1,0,10,0,64,51,
1569976890,2019-10-02 00:41:30.669,14272,2.2566193E1,0,9,0,63,50,
1569976950,2019-10-02 00:42:30.667,14272,2.2605438E1,0,11,0,75,56,
1569977010,2019-10-02 00:43:30.667,14313,2.2308441E1,0,9,0,73,48,
1569977070,2019-10-02 00:44:30.667,14272,2.2411316E1,0,10,0,63,48,
1569977130,2019-10-02 00:45:30.667,14272,2.2389069E1,0,9,0,76,50,
1569977190,2019-10-02 00:46:30.667,14272,2.235617E1,0,11,0,63,48,
1569977250,2019-10-02 00:47:30.667,14286,2.2480286E1,0,10,0,75,52,
1569977310,2019-10-02 00:48:30.667,14259,2.2501495E1,0,11,0,75,52,
1569977370,2019-10-02 00:49:30.668,14246,2.2568298E1,0,14,0,84,50,
1569977430,2019-10-02 00:50:30.667,14272,2.2542847E1,0,11,0,63,48,
1569977490,2019-10-02 00:51:30.667,14232,2.23721E1,0,9,0,63,49,
1569977550,2019-10-02 00:52:30.667,14272,2.251529E1,0,14,0,75,50,
1569977610,2019-10-02 00:53:30.667,14259,2.2324371E1,0,10,0,74,51,
1569977670,2019-10-02 00:54:30.667,14299,2.2255402E1,0,9,0,63,50,
1569977730,2019-10-02 00:55:30.667,14272,2.2607544E1,0,12,0,63,50,
1569977790,2019-10-02 00:56:30.679,14286,2.2506805E1,0,10,0,65,51,
1569977850,2019-10-02 00:57:30.667,14246,2.24039E1,0,13,0,75,50,
1569977910,2019-10-02 00:58:30.667,14232,2.2461182E1,0,9,0,74,49,
1569977970,2019-10-02 00:59:30.667,14272,2.234134E1,0,10,0,63,55,
