Time(longsecs),Time(UTC),External SOH Voltage 1(V),External SOH Voltage 2(V),External SOH Voltage 3(V),External SOH Voltage 4(V),Sensor SOH Voltage 1(V),Sensor SOH Voltage 2(V),Sensor SOH Voltage 3(V),
1569978030,2019-10-02 01:00:30.667,-2.2814274E-3,-1.0230541E-3,-2.84791E-3,6.238699E-3,3.7019157E-1,3.7650013E-1,3.7496185E-1,
1569978090,2019-10-02 01:01:30.667,-4.692316E-3,-3.1101704E-3,-5.0833225E-3,4.2467117E-3,3.6396217E-1,3.7045097E-1,3.691082E-1,
1569978150,2019-10-02 01:02:30.667,-1.8060207E-3,-3.5214424E-4,-2.06995E-3,7.343769E-3,3.719883E-1,3.7868786E-1,3.768444E-1,
1569978210,2019-10-02 01:03:30.667,-1.7459393E-3,-3.6168098E-4,-2.4023056E-3,7.067442E-3,3.7111092E-1,3.7819576E-1,3.7630177E-1,
1569978270,2019-10-02 01:04:30.667,-4.6641827E-3,-2.963543E-3,-5.087614E-3,4.41432E-3,3.67074E-1,3.7355804E-1,3.7036037E-1,
1569978330,2019-10-02 01:05:30.667,-3.0293465E-3,-1.1265278E-3,-2.968073E-3,6.487131E-3,3.7270164E-1,3.7887478E-1,3.7741375E-1,
1569978390,2019-10-02 01:06:30.667,-8.7976456E-5,1.4710426E-3,-4.2963028E-4,9.026527E-3,3.783598E-1,3.8438988E-1,3.8204288E-1,
1569978450,2019-10-02 01:07:30.667,-2.8791428E-3,-1.032114E-3,-3.1535625E-3,6.4246655E-3,3.7344646E-1,3.7907505E-1,3.7664318E-1,
1569978510,2019-10-02 01:08:30.667,-4.635334E-3,-3.1671524E-3,-4.9653053E-3,4.409313E-3,3.6678505E-1,3.7323856E-1,3.7107468E-1,
1569978570,2019-10-02 01:09:30.667,-2.4604797E-4,1.5375614E-3,-3.9482117E-4,9.328604E-3,3.800316E-1,3.8577652E-1,3.840599E-1,
1569978630,2019-10-02 01:10:30.667,2.5844574E-4,1.786232E-3,-4.6896935E-4,9.025574E-3,3.7995434E-1,3.8626385E-1,3.8467598E-1,
1569978690,2019-10-02 01:11:30.667,-2.2845268E-3,-9.968281E-4,-2.9649734E-3,6.3061714E-3,3.7330532E-1,3.7937737E-1,3.7751865E-1,
1569978750,2019-10-02 01:12:30.667,-2.028942E-3,-8.0132484E-4,-2.4626255E-3,6.6599846E-3,3.723383E-1,3.7817478E-1,3.761568E-1,
1569978810,2019-10-02 01:13:30.700,-4.6379566E-3,-2.908945E-3,-4.906893E-3,4.4116974E-3,3.6690426E-1,3.7238598E-1,3.718748E-1,
1569978870,2019-10-02 01:14:30.667,-3.95751E-3,-3.2308102E-3,-5.1229E-3,4.30274E-3,3.6615276E-1,3.7289143E-1,3.7168694E-1,
1569978930,2019-10-02 01:15:30.667,-3.6740303E-4,2.0227432E-3,-4.9090385E-4,9.002686E-3,3.7855244E-1,3.8471413E-1,3.8262272E-1,
1569978990,2019-10-02 01:16:30.667,-4.687786E-3,-3.1571388E-3,-5.233526E-3,4.474163E-3,3.6653805E-1,3.7262058E-1,3.7105656E-1,
1569979050,2019-10-02 01:17:30.667,-1.7483234E-3,-1.5974045E-4,-2.6814938E-3,7.214308E-3,3.7375546E-1,3.802538E-1,3.7907124E-1,
1569979110,2019-10-02 01:18:30.667,-1.9068718E-3,-3.00169E-4,-2.2482872E-3,7.120371E-3,3.7355614E-1,3.8009453E-1,3.7880898E-1,
1569979170,2019-10-02 01:19:30.667,-4.46558E-4,1.5375614E-3,-2.7298927E-4,8.9674E-3,3.779068E-1,3.8429356E-1,3.8271713E-1,
1569979230,2019-10-02 01:20:30.667,-2.5510788E-4,1.657486E-3,-1.8787384E-4,9.20248E-3,3.795824E-1,3.860035E-1,3.8471222E-1,
1569979290,2019-10-02 01:21:30.667,3.6525726E-4,1.5759468E-3,-5.3596497E-4,9.191513E-3,3.8184547E-1,3.8782787E-1,3.8704586E-1,
1569979350,2019-10-02 01:22:30.667,-2.3539066E-3,-1.1889935E-3,-3.178835E-3,6.282568E-3,3.7189102E-1,3.7887573E-1,3.765192E-1,
1569979410,2019-10-02 01:23:30.669,-1.4622211E-3,-2.0194054E-4,-2.315998E-3,7.155657E-3,3.678732E-1,3.7399292E-1,3.7171745E-1,
1569979470,2019-10-02 01:24:30.669,-2.5606155E-4,1.5690327E-3,-3.900528E-4,9.015799E-3,3.7822247E-1,3.846264E-1,3.824997E-1,
1569979530,2019-10-02 01:25:30.669,-2.9485226E-3,-1.1198521E-3,-2.6216507E-3,6.22797E-3,3.711233E-1,3.7779903E-1,3.7565804E-1,
1569979590,2019-10-02 01:26:30.670,7.0381165E-4,1.5962124E-3,-3.5333633E-4,9.126663E-3,3.7783813E-1,3.8446236E-1,3.8257408E-1,
1569979650,2019-10-02 01:27:30.669,-2.9041767E-3,-9.710789E-4,-2.9995441E-3,6.6559315E-3,3.7377548E-1,3.7927628E-1,3.7733173E-1,
1569979710,2019-10-02 01:28:30.668,6.966591E-4,1.6863346E-3,-4.6515465E-4,9.071112E-3,3.7961483E-1,3.867178E-1,3.837824E-1,
1569979770,2019-10-02 01:29:30.669,-1.7409325E-3,-4.1103363E-4,-2.4814606E-3,7.42054E-3,3.7372303E-1,3.8019943E-1,3.7806034E-1,
1569979830,2019-10-02 01:30:30.668,8.1825256E-4,1.6126633E-3,-1.6617775E-4,9.327412E-3,3.7939548E-1,3.8708973E-1,3.8476658E-1,
1569979890,2019-10-02 01:31:30.671,-2.6013851E-3,-3.4689903E-4,-2.4588108E-3,6.906271E-3,3.722887E-1,3.7735844E-1,3.7658787E-1,
1569979950,2019-10-02 01:32:30.669,-1.483202E-3,-2.6535988E-4,-2.443552E-3,7.20191E-3,3.6739445E-1,3.746395E-1,3.7260914E-1,
1569980010,2019-10-02 01:33:30.693,-3.8642883E-3,-1.2311935E-3,-3.3268929E-3,6.352186E-3,3.733883E-1,3.791933E-1,3.764944E-1,
1569980070,2019-10-02 01:34:30.669,7.2073936E-4,1.447916E-3,-3.0231476E-4,9.1536045E-3,3.8035393E-1,3.8627434E-1,3.8524914E-1,
1569980130,2019-10-02 01:35:30.668,5.1665306E-4,1.6229153E-3,-4.8804283E-4,9.219408E-3,3.779726E-1,3.8396645E-1,3.821869E-1,
1569980190,2019-10-02 01:36:30.667,-5.106926E-3,-3.2691956E-3,-5.0296783E-3,4.4751167E-3,3.661251E-1,3.7197304E-1,3.7029076E-1,
1569980250,2019-10-02 01:37:30.667,2.2649765E-4,1.7812252E-3,-2.8681755E-4,9.282827E-3,3.7987137E-1,3.8596344E-1,3.847723E-1,
1569980310,2019-10-02 01:38:30.699,8.058548E-5,1.8529892E-3,-2.8848648E-4,9.438276E-3,3.8005543E-1,3.864212E-1,3.8454437E-1,
1569980370,2019-10-02 01:39:30.667,-2.1979809E-3,-2.8324127E-4,-2.2583008E-3,6.9055557E-3,3.7236595E-1,3.7824154E-1,3.765173E-1,
1569980430,2019-10-02 01:40:30.667,-2.6698112E-3,-1.0631084E-3,-2.8784275E-3,6.476164E-3,3.7256718E-1,3.787241E-1,3.7784004E-1,
1569980490,2019-10-02 01:41:30.667,-4.796028E-3,-3.1399727E-3,-5.0024986E-3,4.4355392E-3,3.6444283E-1,3.7051678E-1,3.692484E-1,
1569980550,2019-10-02 01:42:30.667,-4.7545433E-3,-3.011465E-3,-4.9180984E-3,4.2715073E-3,3.663864E-1,3.726616E-1,3.7074852E-1,
1569980610,2019-10-02 01:43:30.669,9.9897385E-5,1.8987656E-3,-2.5510788E-4,9.279251E-3,3.809414E-1,3.8690472E-1,3.8478088E-1,
1569980670,2019-10-02 01:44:30.667,-2.1328926E-3,-4.1794777E-4,-2.3522377E-3,7.3463917E-3,3.7205505E-1,3.7795353E-1,3.7716293E-1,
1569980730,2019-10-02 01:45:30.667,-4.6014786E-5,1.6691685E-3,-4.696846E-4,9.191036E-3,3.8063908E-1,3.8580704E-1,3.8443184E-1,
1569980790,2019-10-02 01:46:30.669,-2.2244453E-4,1.850605E-3,-2.1338463E-4,9.30953E-3,3.7871265E-1,3.8456059E-1,3.83008E-1,
1569980850,2019-10-02 01:47:30.667,-1.8091202E-3,-3.232956E-4,-2.1560192E-3,7.226944E-3,3.7394524E-1,3.8009167E-1,3.782425E-1,
1569980910,2019-10-02 01:48:30.667,-1.5769005E-3,-3.1089783E-4,-2.343893E-3,7.1587563E-3,3.7267208E-1,3.783636E-1,3.764143E-1,
1569980970,2019-10-02 01:49:30.669,-2.0661354E-3,-5.950928E-4,-2.3684502E-3,6.842613E-3,3.7353897E-1,3.8027668E-1,3.769703E-1,
1569981030,2019-10-02 01:50:30.669,-2.1846294E-3,-4.954338E-4,-2.434492E-3,6.8855286E-3,3.722372E-1,3.7799454E-1,3.759594E-1,
1569981090,2019-10-02 01:51:30.667,-1.9843578E-3,-3.221035E-4,-2.4368763E-3,7.1902275E-3,3.715229E-1,3.7789536E-1,3.762293E-1,
1569981150,2019-10-02 01:52:30.667,-4.2915344E-5,1.4798641E-3,-5.3811073E-4,8.94165E-3,3.7717152E-1,3.8381195E-1,3.820324E-1,
1569981210,2019-10-02 01:53:30.667,-2.7036667E-3,-1.0473728E-3,-2.95043E-3,6.4952374E-3,3.7307072E-1,3.7930298E-1,3.7668228E-1,
1569981270,2019-10-02 01:54:30.667,-2.145052E-3,-4.6253204E-4,-2.264738E-3,7.0602894E-3,3.7190056E-1,3.7791252E-1,3.764696E-1,
1569981330,2019-10-02 01:55:30.667,-4.8742294E-3,-2.9697418E-3,-5.073309E-3,4.3115616E-3,3.6593914E-1,3.7267208E-1,3.706503E-1,
1569981390,2019-10-02 01:56:30.667,-1.04904175E-5,1.7361641E-3,-1.9526482E-4,9.10306E-3,3.7841702E-1,3.843851E-1,3.8284874E-1,
1569981450,2019-10-02 01:57:30.667,-4.701376E-3,-3.1588078E-3,-5.1453114E-3,4.3284893E-3,3.647251E-1,3.7054157E-1,3.6856365E-1,
1569981510,2019-10-02 01:58:30.667,-2.5806427E-3,-8.7571144E-4,-3.1342506E-3,6.5875053E-3,3.705616E-1,3.764887E-1,3.752222E-1,
1569981570,2019-10-02 01:59:30.669,-2.5269985E-3,-1.121521E-3,-3.1421185E-3,6.440878E-3,3.7293148E-1,3.7927055E-1,3.7701893E-1,
