Time(longsecs),Time(UTC),Supply Voltage(mV),Temperature(&deg;C),NMX Bus Current(mA),Sensor Current(mA),Serial Port Current(mA),Controller Current(mA),Digitizer Current(mA),
1571436011,2019-10-18 22:00:11.767,16483,1.7937866E1,0,9,0,22,38,
1571436071,2019-10-18 22:01:11.767,16387,1.7963562E1,0,8,0,33,37,
1571436131,2019-10-18 22:02:11.767,16470,1.8091034E1,0,11,0,38,43,
1571436191,2019-10-18 22:03:11.768,16483,1.7984985E1,0,9,0,36,40,
1571436251,2019-10-18 22:04:11.767,16525,1.8001068E1,0,8,0,39,40,
1571436311,2019-10-18 22:05:11.767,16498,1.7949646E1,0,8,0,31,37,
1571436371,2019-10-18 22:06:11.767,16483,1.8065338E1,0,9,0,35,39,
1571436431,2019-10-18 22:07:11.767,16470,1.7846802E1,0,9,0,43,41,
1571436491,2019-10-18 22:08:11.767,16470,1.7868225E1,0,9,0,42,42,
1571436551,2019-10-18 22:09:11.767,16498,1.79357E1,0,9,0,31,40,
1571436611,2019-10-18 22:10:11.767,16470,1.7932495E1,0,11,0,35,42,
1571436671,2019-10-18 22:11:11.767,16483,1.7995697E1,0,7,0,38,40,
1571436731,2019-10-18 22:12:11.805,16415,1.7896088E1,0,14,0,38,35,
1571436791,2019-10-18 22:13:11.767,16470,1.777716E1,0,9,0,36,40,
1571436851,2019-10-18 22:14:11.767,16470,1.7726807E1,0,8,0,25,40,
1571436911,2019-10-18 22:15:11.767,16483,1.7708618E1,0,5,0,30,42,
1571436971,2019-10-18 22:16:11.767,16470,1.7851074E1,0,3,0,39,41,
1571437031,2019-10-18 22:17:11.767,16470,1.7891785E1,0,9,0,38,37,
1571437091,2019-10-18 22:18:11.767,16470,1.785431E1,0,6,0,39,37,
1571437151,2019-10-18 22:19:11.767,16470,1.79068E1,0,10,0,35,41,
1571437211,2019-10-18 22:20:11.767,16470,1.7958221E1,0,9,0,33,38,
1571437271,2019-10-18 22:21:11.768,16483,1.7827515E1,0,5,0,34,41,
1571437331,2019-10-18 22:22:11.767,16470,1.8016052E1,0,10,0,42,37,
1571437391,2019-10-18 22:23:11.767,16470,1.76904E1,0,4,0,35,40,
1571437451,2019-10-18 22:24:11.767,16470,1.7618622E1,0,4,0,35,39,
1571437511,2019-10-18 22:25:11.767,16470,1.8034271E1,0,9,0,34,36,
1571437571,2019-10-18 22:26:11.767,16470,1.7869293E1,0,5,0,38,38,
1571437631,2019-10-18 22:27:11.767,16470,1.7932495E1,0,8,0,39,37,
1571437691,2019-10-18 22:28:11.767,16470,1.777182E1,0,9,0,38,40,
1571437751,2019-10-18 22:29:11.767,16470,1.8E1,0,7,0,33,36,
1571437811,2019-10-18 22:30:11.767,16470,1.7891785E1,0,7,0,33,37,
1571437871,2019-10-18 22:31:11.767,16470,1.7687195E1,0,11,0,40,40,
1571437931,2019-10-18 22:32:11.767,16470,1.7588623E1,0,10,0,35,40,
1571437991,2019-10-18 22:33:11.804,16470,1.7610046E1,0,9,0,38,41,
1571438051,2019-10-18 22:34:11.767,16470,1.7661469E1,0,9,0,38,38,
1571438111,2019-10-18 22:35:11.767,16470,1.7780365E1,0,8,0,33,37,
1571438171,2019-10-18 22:36:11.767,16470,1.7853241E1,0,11,0,33,39,
1571438231,2019-10-18 22:37:11.767,16470,1.749115E1,0,9,0,38,45,
1571438291,2019-10-18 22:38:11.767,16457,1.7566132E1,0,9,0,38,39,
1571438351,2019-10-18 22:39:11.767,16470,1.7844666E1,0,4,0,39,39,
1571438411,2019-10-18 22:40:11.767,16470,1.750293E1,0,9,0,33,38,
1571438471,2019-10-18 22:41:11.767,16470,1.7750397E1,0,7,0,47,40,
1571438531,2019-10-18 22:42:11.767,16457,1.7732178E1,0,16,0,47,41,
1571438591,2019-10-18 22:43:11.769,16457,1.769574E1,0,7,0,46,39,
1571438651,2019-10-18 22:44:11.767,16457,1.7755737E1,0,17,0,33,38,
1571438711,2019-10-18 22:45:11.767,16470,1.7682892E1,0,8,0,33,38,
1571438771,2019-10-18 22:46:11.767,16470,1.7516846E1,0,9,10,38,37,
1571438831,2019-10-18 22:47:11.769,16457,1.767218E1,0,13,0,37,37,
1571438891,2019-10-18 22:48:11.768,16457,1.7558624E1,0,6,0,33,42,
1571438951,2019-10-18 22:49:11.767,16457,1.7653961E1,0,9,0,33,38,
1571439011,2019-10-18 22:50:11.798,16457,1.7575775E1,0,10,0,38,37,
1571439071,2019-10-18 22:51:11.769,16470,1.7575775E1,0,11,0,35,41,
1571439131,2019-10-18 22:52:11.768,16470,1.7490082E1,0,9,0,33,40,
1571439191,2019-10-18 22:53:11.767,16470,1.7620758E1,0,4,0,38,38,
1571439251,2019-10-18 22:54:11.767,16470,1.7728973E1,0,13,0,33,44,
1571439311,2019-10-18 22:55:11.767,16470,1.7676453E1,0,8,0,33,35,
1571439371,2019-10-18 22:56:11.767,16457,1.7387238E1,0,16,0,38,40,
1571439431,2019-10-18 22:57:11.767,16457,1.7644318E1,0,10,0,38,37,
1571439491,2019-10-18 22:58:11.767,16457,1.7720398E1,0,17,0,33,38,
1571439551,2019-10-18 22:59:11.767,16457,1.763684E1,0,6,0,33,41,
