Time(longsecs),Time(UTC),Supply Voltage(mV),Temperature(&deg;C),NMX Bus Current(mA),Sensor Current(mA),Serial Port Current(mA),Controller Current(mA),Digitizer Current(mA),
1571724022,2019-10-22 06:00:22.352,16339,1.5143616E1,0,13,0,37,35,
1571724082,2019-10-22 06:01:22.352,16339,1.5134003E1,0,9,0,39,38,
1571724142,2019-10-22 06:02:22.352,16339,1.5224579E1,0,9,0,33,41,
1571724202,2019-10-22 06:03:22.352,16353,1.5262939E1,0,4,0,37,35,
1571724262,2019-10-22 06:04:22.352,16353,1.5279999E1,0,10,0,31,38,
1571724322,2019-10-22 06:05:22.352,16353,1.5149994E1,0,9,0,31,36,
1571724382,2019-10-22 06:06:22.352,16339,1.5265076E1,0,9,0,31,38,
1571724442,2019-10-22 06:07:22.352,16353,1.5262939E1,0,9,0,36,35,
1571724502,2019-10-22 06:08:22.352,16339,1.5220306E1,0,13,0,37,40,
1571724562,2019-10-22 06:09:22.352,16353,1.5219238E1,0,8,0,40,39,
1571724622,2019-10-22 06:10:22.388,16353,1.5302368E1,0,9,0,31,37,
1571724682,2019-10-22 06:11:22.352,16339,1.5314087E1,0,4,0,32,40,
1571724742,2019-10-22 06:12:22.352,16339,1.5340729E1,0,4,0,37,36,
1571724802,2019-10-22 06:13:22.352,16339,1.5340729E1,0,9,0,37,36,
1571724862,2019-10-22 06:14:22.352,16353,1.5271454E1,0,7,0,36,37,
1571724922,2019-10-22 06:15:22.352,16393,1.509671E1,0,9,0,32,40,
1571724982,2019-10-22 06:16:22.352,16353,1.5123352E1,0,6,0,33,35,
1571725042,2019-10-22 06:17:22.352,16339,1.5317291E1,0,14,0,45,36,
1571725102,2019-10-22 06:18:22.352,16339,1.5158508E1,0,8,0,45,38,
1571725162,2019-10-22 06:19:22.352,16339,1.5398254E1,0,8,0,49,39,
1571725222,2019-10-22 06:20:22.352,16353,1.5380157E1,0,9,0,31,36,
1571725282,2019-10-22 06:21:22.352,16380,1.5169159E1,0,9,0,31,35,
1571725342,2019-10-22 06:22:22.352,16353,1.5159576E1,0,8,0,38,38,
1571725402,2019-10-22 06:23:22.352,16339,1.5251221E1,0,9,0,36,38,
1571725462,2019-10-22 06:24:22.352,16339,1.5291718E1,0,4,0,38,35,
1571725522,2019-10-22 06:25:22.352,16339,1.5170227E1,0,10,0,31,40,
1571725582,2019-10-22 06:26:22.352,16339,1.5074341E1,0,6,0,33,36,
1571725642,2019-10-22 06:27:22.352,16339,1.5343903E1,0,9,0,33,38,
1571725702,2019-10-22 06:28:22.352,16326,1.5289581E1,0,8,0,37,36,
1571725762,2019-10-22 06:29:22.352,16339,1.52213745E1,0,11,0,37,36,
1571725822,2019-10-22 06:30:22.352,16339,1.5378021E1,0,6,0,33,42,
1571725882,2019-10-22 06:31:22.352,16353,1.5260803E1,0,8,0,31,38,
1571725942,2019-10-22 06:32:22.352,16339,1.524588E1,0,11,0,36,36,
1571726002,2019-10-22 06:33:22.362,16339,1.5324738E1,0,9,0,37,36,
1571726062,2019-10-22 06:34:22.352,16339,1.5340729E1,0,9,0,39,35,
1571726122,2019-10-22 06:35:22.354,16353,1.5123352E1,0,10,0,33,34,
1571726182,2019-10-22 06:36:22.385,16339,1.5266144E1,0,9,0,31,38,
1571726242,2019-10-22 06:37:22.352,16339,1.5251221E1,0,9,0,36,37,
1571726302,2019-10-22 06:38:22.354,16353,1.5336456E1,0,12,0,40,37,
1571726362,2019-10-22 06:39:22.352,16353,1.5123352E1,0,9,0,38,37,
1571726422,2019-10-22 06:40:22.352,16339,1.5104187E1,0,12,0,36,39,
1571726482,2019-10-22 06:41:22.352,16339,1.515213E1,0,8,0,31,35,
1571726542,2019-10-22 06:42:22.352,16339,1.5256531E1,0,7,0,36,41,
1571726602,2019-10-22 06:43:22.352,16339,1.5163849E1,0,9,0,36,38,
1571726662,2019-10-22 06:44:22.352,16339,1.5214996E1,0,13,0,36,40,
1571726722,2019-10-22 06:45:22.352,16326,1.5234161E1,0,8,0,37,37,
1571726782,2019-10-22 06:46:22.354,16353,1.5114838E1,0,9,0,31,36,
1571726842,2019-10-22 06:47:22.352,16339,1.4930511E1,0,11,0,36,34,
1571726902,2019-10-22 06:48:22.352,16353,1.5169159E1,0,7,0,37,40,
1571726962,2019-10-22 06:49:22.352,16353,1.5243744E1,0,9,0,36,38,
1571727022,2019-10-22 06:50:22.352,16339,1.5087128E1,0,9,0,36,37,
1571727082,2019-10-22 06:51:22.352,16353,1.4966736E1,0,10,0,33,37,
1571727142,2019-10-22 06:52:22.352,16353,1.5224579E1,0,9,0,37,38,
1571727202,2019-10-22 06:53:22.352,16353,1.4958191E1,0,4,0,36,39,
1571727262,2019-10-22 06:54:22.352,16339,1.5193665E1,0,6,0,37,37,
1571727322,2019-10-22 06:55:22.352,16353,1.4973114E1,0,6,0,31,41,
1571727382,2019-10-22 06:56:22.354,16353,1.5070068E1,0,12,0,33,41,
1571727442,2019-10-22 06:57:22.352,16353,1.505304E1,0,13,0,36,37,
1571727502,2019-10-22 06:58:22.352,16353,1.5210724E1,0,9,0,34,40,
1571727562,2019-10-22 06:59:22.352,16353,1.5176636E1,0,9,0,36,37,
