Time(longsecs),Time(UTC),Supply Voltage(mV),Temperature(&deg;C),NMX Bus Current(mA),Sensor Current(mA),Serial Port Current(mA),Controller Current(mA),Digitizer Current(mA),
1572552030,2019-10-31 20:00:30.926,16346,1.9107666E1,0,9,0,59,40,
1572552090,2019-10-31 20:01:30.926,16360,1.889386E1,0,11,0,59,37,
1572552150,2019-10-31 20:02:30.926,16332,1.8935547E1,0,13,0,59,36,
1572552210,2019-10-31 20:03:30.926,16374,1.8894928E1,0,11,0,57,40,
1572552270,2019-10-31 20:04:30.926,16346,1.904889E1,0,4,0,59,37,
1572552330,2019-10-31 20:05:30.927,16332,1.881903E1,0,6,0,59,36,
1572552390,2019-10-31 20:06:30.926,16346,1.8797638E1,0,13,0,58,35,
1572552450,2019-10-31 20:07:30.926,16360,1.8866058E1,0,2,0,59,35,
1572552510,2019-10-31 20:08:30.926,16346,1.8892792E1,0,11,0,59,34,
1572552570,2019-10-31 20:09:30.926,16332,1.8845764E1,0,9,0,63,38,
1572552630,2019-10-31 20:10:30.928,16346,1.8850037E1,0,11,0,58,37,
1572552690,2019-10-31 20:11:30.926,16346,1.8936615E1,0,5,0,59,38,
1572552750,2019-10-31 20:12:30.926,16374,1.8810486E1,0,6,0,59,36,
1572552810,2019-10-31 20:13:30.926,16346,1.87677E1,0,16,0,59,35,
1572552870,2019-10-31 20:14:30.926,16374,1.8943024E1,0,10,0,59,37,
1572552930,2019-10-31 20:15:30.926,16346,1.8875702E1,0,6,0,59,38,
1572552990,2019-10-31 20:16:30.926,16332,1.8874634E1,0,12,0,56,36,
1572553050,2019-10-31 20:17:30.926,16332,1.9052094E1,0,11,0,68,35,
1572553110,2019-10-31 20:18:30.926,16332,1.8807281E1,0,10,0,58,40,
1572553170,2019-10-31 20:19:30.926,16332,1.8873535E1,0,12,0,58,37,
1572553230,2019-10-31 20:20:30.926,16346,1.881369E1,0,6,0,58,37,
1572553290,2019-10-31 20:21:30.926,16332,1.8861786E1,0,8,0,58,35,
1572553350,2019-10-31 20:22:30.926,16332,1.87677E1,0,10,0,59,42,
1572553410,2019-10-31 20:23:30.926,16332,1.8966553E1,0,4,0,59,37,
1572553470,2019-10-31 20:24:30.926,16332,1.8631927E1,0,9,0,59,34,
1572553530,2019-10-31 20:25:30.926,16346,1.8770935E1,0,15,0,59,38,
1572553590,2019-10-31 20:26:30.926,16346,1.8727081E1,0,6,0,57,37,
1572553650,2019-10-31 20:27:30.926,16332,1.8950531E1,0,9,0,61,39,
1572553710,2019-10-31 20:28:30.926,16278,1.8853241E1,0,10,0,59,37,
1572553770,2019-10-31 20:29:30.926,16374,1.8761292E1,0,11,0,60,35,
1572553830,2019-10-31 20:30:30.926,16332,1.8918457E1,0,10,0,59,36,
1572553890,2019-10-31 20:31:30.926,16374,1.913974E1,0,9,0,59,40,
1572553950,2019-10-31 20:32:30.926,16360,1.8731354E1,0,7,0,60,36,
1572554010,2019-10-31 20:33:30.926,16346,1.8848969E1,0,11,0,58,33,
1572554070,2019-10-31 20:34:30.926,16332,1.908844E1,0,11,0,59,35,
1572554130,2019-10-31 20:35:30.926,16129,1.9060638E1,0,6,0,59,39,
1572554190,2019-10-31 20:36:30.927,16332,1.8986877E1,0,11,0,61,41,
1572554250,2019-10-31 20:37:30.926,16156,1.894519E1,0,8,0,59,40,
1572554310,2019-10-31 20:38:30.926,16332,1.8877838E1,0,9,0,59,36,
1572554370,2019-10-31 20:39:30.926,16346,1.9072388E1,0,8,0,57,33,
1572554430,2019-10-31 20:40:30.926,16360,1.8831848E1,0,11,0,59,36,
1572554490,2019-10-31 20:41:30.926,16332,1.8935547E1,0,11,0,59,35,
1572554550,2019-10-31 20:42:30.926,16332,1.9074524E1,0,4,0,59,36,
1572554610,2019-10-31 20:43:30.926,16360,1.8959076E1,0,11,0,59,37,
1572554670,2019-10-31 20:44:30.926,16305,1.8948395E1,0,4,0,58,34,
1572554730,2019-10-31 20:45:30.926,16129,1.8906677E1,0,18,0,54,38,
1572554790,2019-10-31 20:46:30.926,16332,1.8897064E1,0,6,0,59,38,
1572554850,2019-10-31 20:47:30.926,16319,1.9080933E1,0,13,0,59,38,
1572554910,2019-10-31 20:48:30.971,16319,1.8931274E1,0,11,0,59,39,
1572554970,2019-10-31 20:49:30.926,16332,1.8829712E1,0,6,0,58,36,
1572555030,2019-10-31 20:50:30.926,16346,1.8812622E1,0,9,0,59,37,
1572555090,2019-10-31 20:51:30.926,16360,1.8997559E1,0,8,0,58,35,
1572555150,2019-10-31 20:52:30.926,16401,1.8964417E1,0,10,0,59,33,
1572555210,2019-10-31 20:53:30.926,16143,1.9023224E1,0,6,0,59,35,
1572555270,2019-10-31 20:54:30.926,16319,1.9010376E1,0,11,0,58,38,
1572555330,2019-10-31 20:55:30.926,16374,1.9084167E1,0,11,0,57,35,
1572555390,2019-10-31 20:56:30.926,16428,1.9010376E1,0,10,0,59,35,
1572555450,2019-10-31 20:57:30.926,16319,1.8994354E1,0,11,0,59,40,
1572555510,2019-10-31 20:58:30.926,16319,1.881903E1,0,12,0,57,42,
1572555570,2019-10-31 20:59:30.926,16441,1.887677E1,0,9,0,59,33,
