Time(longsecs),Time(UTC),External SOH Voltage 1(V),External SOH Voltage 2(V),External SOH Voltage 3(V),External SOH Voltage 4(V),Sensor SOH Voltage 1(V),Sensor SOH Voltage 2(V),Sensor SOH Voltage 3(V),
1571677211,2019-10-21 17:00:11.767,-3.5877228E-3,1.1036396E-3,-1.7237663E-3,3.554821E-3,2.020998E-1,2.0344734E-1,2.0323563E-1,
1571677271,2019-10-21 17:01:11.767,-3.9145947E-3,1.1703968E-3,-1.9416809E-3,3.71027E-3,1.9944954E-1,2.0088577E-1,2.0074177E-1,
1571677331,2019-10-21 17:02:11.768,-4.502058E-3,9.841919E-4,-2.6938915E-3,3.4623146E-3,2.0128441E-1,2.0292568E-1,2.0389462E-1,
1571677391,2019-10-21 17:03:11.767,-4.401684E-3,4.825592E-4,-2.5503635E-3,3.348112E-3,2.0040417E-1,2.0200634E-1,1.983347E-1,
1571677451,2019-10-21 17:04:11.767,-6.0403347E-3,-1.2526512E-3,-4.4288635E-3,8.945465E-4,1.9524002E-1,1.9818974E-1,1.9827366E-1,
1571677511,2019-10-21 17:05:11.767,-4.330635E-3,3.3664703E-4,-2.733469E-3,3.4041405E-3,2.0030785E-1,2.0218086E-1,1.9158459E-1,
1571677571,2019-10-21 17:06:11.767,-1.6491413E-3,3.2401085E-3,1.8763542E-4,5.685568E-3,2.0788002E-1,2.1048832E-1,2.1206474E-1,
1571677631,2019-10-21 17:07:11.766,-1.5022755E-3,3.4706593E-3,-6.175041E-4,5.369425E-3,2.0546055E-1,2.0869255E-1,2.0590782E-1,
1571677691,2019-10-21 17:08:11.767,-4.5876503E-3,8.883476E-4,-3.1490326E-3,2.88558E-3,1.9994068E-1,2.0251751E-1,2.0638275E-1,
1571677751,2019-10-21 17:09:11.767,-2.325058E-3,2.626419E-3,-5.283356E-4,5.461931E-3,2.0852566E-1,2.1210861E-1,1.9621468E-1,
1571677811,2019-10-21 17:10:11.773,-4.388571E-3,7.317066E-4,-2.5980473E-3,2.9046535E-3,1.9847107E-1,2.0045662E-1,1.967678E-1,
1571677871,2019-10-21 17:11:11.767,-6.457567E-3,-8.327961E-4,-4.315853E-3,8.2588196E-4,1.9381237E-1,1.9724655E-1,1.9678879E-1,
1571677931,2019-10-21 17:12:11.767,-1.8730164E-3,2.5875568E-3,-4.017353E-4,5.425453E-3,2.0717716E-1,2.0886326E-1,2.0279026E-1,
1571677991,2019-10-21 17:13:11.767,-6.077528E-3,-1.5227795E-3,-4.4481754E-3,1.0254383E-3,1.9589615E-1,1.9692802E-1,1.886177E-1,
1571678051,2019-10-21 17:14:11.767,-2.2082329E-3,2.9420853E-3,-4.580021E-4,5.8443546E-3,2.0536232E-1,2.0722389E-1,2.1143627E-1,
1571678111,2019-10-21 17:15:11.769,-3.969431E-3,1.4123917E-3,-2.015829E-3,3.8692951E-3,2.0285702E-1,2.0450974E-1,1.968708E-1,
1571678171,2019-10-21 17:16:11.767,-1.2891293E-3,3.2453537E-3,-5.1903725E-4,5.9735775E-3,2.077694E-1,2.0927429E-1,2.0669937E-1,
1571678231,2019-10-21 17:17:11.767,-4.1646957E-3,7.004738E-4,-2.6545525E-3,3.019333E-3,2.0108128E-1,2.0248985E-1,1.9370937E-1,
1571678291,2019-10-21 17:18:11.767,-3.9975643E-3,7.748604E-4,-2.5417805E-3,3.1294823E-3,2.0192719E-1,2.028656E-1,1.9765568E-1,
1571678351,2019-10-21 17:19:11.767,-4.2898655E-3,4.749298E-4,-2.3758411E-3,3.0946732E-3,1.9936657E-1,2.0096016E-1,1.9836998E-1,
1571678411,2019-10-21 17:20:11.796,-4.1844845E-3,5.862713E-4,-2.5143623E-3,3.0398369E-3,1.9911385E-1,2.024622E-1,1.9598389E-1,
1571678471,2019-10-21 17:21:11.767,-4.0032864E-3,8.3112717E-4,-1.9655228E-3,3.7770271E-3,1.99584E-1,2.0121765E-1,2.0359612E-1,
1571678531,2019-10-21 17:22:11.767,-3.8552284E-3,1.0261536E-3,-2.1584034E-3,4.0171146E-3,2.0152187E-1,2.0251751E-1,2.0116615E-1,
1571678591,2019-10-21 17:23:11.807,-3.8378239E-3,1.2180805E-3,-2.080679E-3,3.3910275E-3,2.0206833E-1,2.1109676E-1,2.0354652E-1,
1571678651,2019-10-21 17:24:11.767,-6.2065125E-3,-1.6252995E-3,-4.367113E-3,1.0015965E-3,1.9317627E-1,1.9691944E-1,1.8987751E-1,
1571678711,2019-10-21 17:25:11.769,-3.6571026E-3,1.5456676E-3,-1.7299652E-3,3.6871433E-3,2.0280838E-1,2.0522118E-1,1.9504547E-1,
1571678771,2019-10-21 17:26:11.767,-3.887415E-3,1.5957355E-3,-1.6000271E-3,4.0211678E-3,2.0012283E-1,2.0237637E-1,1.8776321E-1,
1571678831,2019-10-21 17:27:11.767,-4.0090084E-3,7.035732E-4,-2.5379658E-3,3.9982796E-3,2.0119858E-1,2.0489407E-1,2.0244789E-1,
1571678891,2019-10-21 17:28:11.767,-4.333496E-3,6.9856644E-4,-3.7720203E-3,3.0024052E-3,1.990757E-1,2.0113182E-1,1.9792557E-1,
1571678951,2019-10-21 17:29:11.767,-6.1125755E-3,-1.3358593E-3,-4.533291E-3,1.1110306E-3,1.9492722E-1,1.9690323E-1,1.9988346E-1,
1571679011,2019-10-21 17:30:11.767,-3.5071373E-3,1.3818741E-3,-2.0592213E-3,3.6270618E-3,2.0474339E-1,2.0486355E-1,1.9761372E-1,
1571679071,2019-10-21 17:31:11.767,-3.9818287E-3,4.77314E-4,-2.9895306E-3,3.721714E-3,2.0029831E-1,2.0234013E-1,1.9712639E-1,
1571679131,2019-10-21 17:32:11.767,-6.580591E-3,-1.4190674E-3,-4.405737E-3,9.5796585E-4,1.9359684E-1,1.9501972E-1,1.9033623E-1,
1571679191,2019-10-21 17:33:11.770,-4.103899E-3,7.455349E-4,-2.4132729E-3,3.317833E-3,1.981144E-1,2.0090961E-1,1.9794464E-1,
1571679251,2019-10-21 17:34:11.767,-6.5169334E-3,-1.2142658E-3,-4.597664E-3,1.3587475E-3,1.940918E-1,1.9541264E-1,1.9425488E-1,
1571679311,2019-10-21 17:35:11.767,-4.134178E-3,1.1332035E-3,-2.1252632E-3,3.4296513E-3,1.9966125E-1,2.0131493E-1,1.9793606E-1,
1571679371,2019-10-21 17:36:11.769,-1.9669533E-3,2.6876926E-3,-9.393692E-5,5.342245E-3,2.0436192E-1,2.0826626E-1,2.0425129E-1,
1571679431,2019-10-21 17:37:11.769,-4.1413307E-3,7.176399E-4,-2.4118423E-3,2.9251575E-3,1.988945E-1,2.0144844E-1,1.9423962E-1,
1571679491,2019-10-21 17:38:11.767,-6.2117577E-3,-1.5752316E-3,-4.503727E-3,1.3952255E-3,1.94808E-1,1.9566822E-1,1.9285393E-1,
1571679551,2019-10-21 17:39:11.767,-4.3194294E-3,5.3596497E-4,-2.0387173E-3,3.3297539E-3,1.9923782E-1,2.0069218E-1,2.0009995E-1,
1571679611,2019-10-21 17:40:11.767,-1.909256E-3,2.6066303E-3,-6.325245E-4,5.4335594E-3,2.0099735E-1,2.0468903E-1,2.0099545E-1,
1571679671,2019-10-21 17:41:11.798,-6.1473846E-3,-9.975433E-4,-4.509449E-3,1.2919903E-3,1.9028854E-1,1.9057941E-1,1.887064E-1,
1571679731,2019-10-21 17:42:11.767,-6.086588E-3,-1.1389256E-3,-4.518509E-3,1.5718937E-3,1.9475746E-1,1.9617939E-1,1.9013214E-1,
1571679791,2019-10-21 17:43:11.767,-6.5169334E-3,-1.1134148E-3,-4.7118664E-3,1.2972355E-3,1.9233704E-1,1.9481468E-1,1.9385052E-1,
1571679851,2019-10-21 17:44:11.767,-6.099701E-3,-1.1694431E-3,-4.385948E-3,1.0287762E-3,1.9538021E-1,1.9615746E-1,1.9107628E-1,
1571679911,2019-10-21 17:45:11.767,-4.5483112E-3,4.0483475E-4,-2.6862621E-3,3.0493736E-3,1.9590473E-1,1.9939518E-1,1.9631004E-1,
1571679971,2019-10-21 17:46:11.767,-1.7259121E-3,2.9993057E-3,8.72612E-5,5.478859E-3,2.0743752E-1,2.091074E-1,2.0597649E-1,
1571680031,2019-10-21 17:47:11.799,-4.691124E-3,1.5044212E-4,-2.9900074E-3,3.6699772E-3,1.9578362E-1,1.9797707E-1,1.9826317E-1,
1571680091,2019-10-21 17:48:11.768,-1.3237E-3,3.054142E-3,-2.5177002E-4,5.9866905E-3,2.0737171E-1,2.0853233E-1,2.0393181E-1,
1571680151,2019-10-21 17:49:11.767,-1.8839836E-3,3.1204224E-3,-2.1338463E-4,5.8088303E-3,2.0911884E-1,2.1083069E-1,2.0585155E-1,
1571680211,2019-10-21 17:50:11.767,-6.3204765E-3,-1.2574196E-3,-4.1291714E-3,8.096695E-4,1.9554996E-1,1.9693089E-1,2.0103836E-1,
1571680271,2019-10-21 17:51:11.767,-6.62899E-3,-1.1110306E-3,-4.5318604E-3,9.899139E-4,1.9538498E-1,1.9675255E-1,1.9346619E-1,
1571680331,2019-10-21 17:52:11.768,-4.4908524E-3,3.1256676E-4,-2.4089813E-3,3.395319E-3,1.9657612E-1,2.005949E-1,1.9808483E-1,
1571680391,2019-10-21 17:53:11.767,-6.416321E-3,-1.6124249E-3,-4.599333E-3,1.0986328E-3,1.9391918E-1,1.9504547E-1,2.0067406E-1,
1571680451,2019-10-21 17:54:11.767,-4.667282E-3,5.5480003E-4,-2.6476383E-3,3.0124187E-3,1.960516E-1,1.9797897E-1,2.0275211E-1,
1571680511,2019-10-21 17:55:11.767,-1.6930103E-3,3.0124187E-3,-1.0538101E-4,5.5902004E-3,2.0670986E-1,2.0899963E-1,2.0075035E-1,
1571680571,2019-10-21 17:56:11.767,-4.2455196E-3,6.8950653E-4,-2.0751953E-3,3.1256676E-3,1.9348145E-1,1.9591904E-1,1.92667E-1,
1571680631,2019-10-21 17:57:11.767,-1.5022755E-3,3.3619404E-3,-2.2697449E-4,6.3080788E-3,2.0683861E-1,2.0982647E-1,2.1153736E-1,
1571680691,2019-10-21 17:58:11.767,-4.156351E-3,7.350445E-4,-2.9113293E-3,3.2196045E-3,1.9926262E-1,2.0097923E-1,1.9423294E-1,
1571680751,2019-10-21 17:59:11.767,-6.730795E-3,-1.603365E-3,-4.7109127E-3,1.2848377E-3,1.9396687E-1,1.971569E-1,2.0124817E-1,
