Time(longsecs),Time(UTC),Earth Location,GPS Receiver Status,GPS Satellites Used,GPS PDOP,GPS TDOP,Timing Status,Timing Phase Lock,Timing Uncertainty(ns),DAC Count,Timing Error(ns),GPS Last Update Time,
1571695211,2019-10-21 22:00:11.767,47.651106N 0.578106E 191m,Off,5,2.5640285,1.3445703,Time OK,Free running,41500,8490,0,2019-10-21 21:25:06.000000000,
1571695271,2019-10-21 22:01:11.769,47.651106N 0.578106E 191m,Off,5,2.5640285,1.3445703,Time OK,Free running,43000,8490,0,2019-10-21 21:25:06.000000000,
1571695331,2019-10-21 22:02:11.768,47.651106N 0.578106E 191m,Off,5,2.5640285,1.3445703,Time OK,Free running,44500,8490,0,2019-10-21 21:25:06.000000000,
1571695391,2019-10-21 22:03:11.812,47.651106N 0.578106E 191m,Off,5,2.5640285,1.3445703,Time OK,Free running,46100,8490,0,2019-10-21 21:25:06.000000000,
1571695451,2019-10-21 22:04:11.767,47.651106N 0.578106E 191m,Off,5,2.5640285,1.3445703,Time OK,Free running,47700,8490,0,2019-10-21 21:25:06.000000000,
1571695511,2019-10-21 22:05:11.767,47.651106N 0.578106E 191m,Off,5,2.5640285,1.3445703,Time OK,Free running,49600,8490,0,2019-10-21 21:25:06.000000000,
1571695571,2019-10-21 22:06:11.768,47.651106N 0.578106E 191m,Off,5,2.5640285,1.3445703,Time OK,Free running,51600,8490,0,2019-10-21 21:25:06.000000000,
1571695631,2019-10-21 22:07:11.767,47.651106N 0.578106E 191m,No GPS time,5,2.5640285,1.3445703,Time OK,Free running,53300,8490,0,2019-10-21 21:25:06.000000000,
1571695691,2019-10-21 22:08:11.768,47.651106N 0.578106E 191m,Doing fixes,6,2.0752263,1.2035283,Time OK,Fine lock,100,8441,-104,2019-10-21 22:08:11.000000000,
1571695751,2019-10-21 22:09:11.767,47.651106N 0.578106E 191m,Doing fixes,6,2.0707974,1.1988523,Time OK,Fine lock,100,8468,0,2019-10-21 22:09:11.000000000,
1571695811,2019-10-21 22:10:11.769,47.651106N 0.578106E 191m,Off,5,2.5815358,1.5381193,Time OK,Free running,600,8468,0,2019-10-21 22:09:26.000000000,
1571695871,2019-10-21 22:11:11.767,47.651106N 0.578106E 191m,Off,5,2.5815358,1.5381193,Time OK,Free running,1600,8468,0,2019-10-21 22:09:26.000000000,
1571695931,2019-10-21 22:12:11.767,47.651106N 0.578106E 191m,Off,5,2.5815358,1.5381193,Time OK,Free running,2700,8468,0,2019-10-21 22:09:26.000000000,
1571695991,2019-10-21 22:13:11.767,47.651106N 0.578106E 191m,Off,5,2.5815358,1.5381193,Time OK,Free running,3700,8468,0,2019-10-21 22:09:26.000000000,
1571696051,2019-10-21 22:14:11.767,47.651106N 0.578106E 191m,Off,5,2.5815358,1.5381193,Time OK,Free running,4600,8468,0,2019-10-21 22:09:26.000000000,
1571696111,2019-10-21 22:15:11.767,47.651106N 0.578106E 191m,Off,5,2.5815358,1.5381193,Time OK,Free running,5500,8468,0,2019-10-21 22:09:26.000000000,
1571696171,2019-10-21 22:16:11.769,47.651106N 0.578106E 191m,Off,5,2.5815358,1.5381193,Time OK,Free running,6300,8468,0,2019-10-21 22:09:26.000000000,
1571696231,2019-10-21 22:17:11.767,47.651106N 0.578106E 191m,Off,5,2.5815358,1.5381193,Time OK,Free running,7200,8468,0,2019-10-21 22:09:26.000000000,
1571696291,2019-10-21 22:18:11.767,47.651106N 0.578106E 191m,Off,5,2.5815358,1.5381193,Time OK,Free running,8000,8468,0,2019-10-21 22:09:26.000000000,
1571696351,2019-10-21 22:19:11.767,47.651106N 0.578106E 191m,Off,5,2.5815358,1.5381193,Time OK,Free running,8800,8468,0,2019-10-21 22:09:26.000000000,
1571696411,2019-10-21 22:20:11.767,47.651106N 0.578106E 191m,Off,5,2.5815358,1.5381193,Time OK,Free running,9700,8468,0,2019-10-21 22:09:26.000000000,
1571696471,2019-10-21 22:21:11.774,47.651106N 0.578106E 191m,Off,5,2.5815358,1.5381193,Time OK,Free running,10600,8468,0,2019-10-21 22:09:26.000000000,
1571696531,2019-10-21 22:22:11.767,47.651106N 0.578106E 191m,Off,5,2.5815358,1.5381193,Time OK,Free running,11600,8468,0,2019-10-21 22:09:26.000000000,
1571696591,2019-10-21 22:23:11.767,47.651106N 0.578106E 191m,Off,5,2.5815358,1.5381193,Time OK,Free running,12800,8468,0,2019-10-21 22:09:26.000000000,
1571696651,2019-10-21 22:24:11.769,47.651106N 0.578106E 191m,Off,5,2.5815358,1.5381193,Time OK,Free running,13900,8468,0,2019-10-21 22:09:26.000000000,
1571696711,2019-10-21 22:25:11.767,47.651106N 0.578106E 191m,Off,5,2.5815358,1.5381193,Time OK,Free running,14800,8468,0,2019-10-21 22:09:26.000000000,
1571696771,2019-10-21 22:26:11.791,47.651106N 0.578106E 191m,Off,5,2.5815358,1.5381193,Time OK,Free running,15900,8468,0,2019-10-21 22:09:26.000000000,
1571696831,2019-10-21 22:27:11.774,47.651106N 0.578106E 191m,Off,5,2.5815358,1.5381193,Time OK,Free running,16900,8468,0,2019-10-21 22:09:26.000000000,
1571696891,2019-10-21 22:28:11.767,47.651106N 0.578106E 191m,Off,5,2.5815358,1.5381193,Time OK,Free running,17900,8468,0,2019-10-21 22:09:26.000000000,
1571696951,2019-10-21 22:29:11.767,47.651106N 0.578106E 191m,Off,5,2.5815358,1.5381193,Time OK,Free running,19300,8468,0,2019-10-21 22:09:26.000000000,
1571697011,2019-10-21 22:30:11.769,47.651106N 0.578106E 191m,Off,5,2.5815358,1.5381193,Time OK,Free running,20700,8468,0,2019-10-21 22:09:26.000000000,
1571697071,2019-10-21 22:31:11.767,47.651106N 0.578106E 191m,Off,5,2.5815358,1.5381193,Time OK,Free running,22100,8468,0,2019-10-21 22:09:26.000000000,
1571697131,2019-10-21 22:32:11.767,47.651106N 0.578106E 191m,Off,5,2.5815358,1.5381193,Time OK,Free running,23500,8468,0,2019-10-21 22:09:26.000000000,
1571697191,2019-10-21 22:33:11.768,47.651106N 0.578106E 191m,Off,5,2.5815358,1.5381193,Time OK,Free running,25000,8468,0,2019-10-21 22:09:26.000000000,
1571697251,2019-10-21 22:34:11.767,47.651106N 0.578106E 191m,Off,5,2.5815358,1.5381193,Time OK,Free running,26400,8468,0,2019-10-21 22:09:26.000000000,
1571697311,2019-10-21 22:35:11.767,47.651106N 0.578106E 191m,Off,5,2.5815358,1.5381193,Time OK,Free running,27900,8468,0,2019-10-21 22:09:26.000000000,
1571697371,2019-10-21 22:36:11.767,47.651106N 0.578106E 191m,Off,5,2.5815358,1.5381193,Time OK,Free running,29400,8468,0,2019-10-21 22:09:26.000000000,
1571697431,2019-10-21 22:37:11.767,47.651106N 0.578106E 191m,Off,5,2.5815358,1.5381193,Time OK,Free running,30500,8468,0,2019-10-21 22:09:26.000000000,
1571697491,2019-10-21 22:38:11.773,47.651106N 0.578106E 191m,Off,5,2.5815358,1.5381193,Time OK,Free running,31700,8468,0,2019-10-21 22:09:26.000000000,
1571697551,2019-10-21 22:39:11.767,47.651106N 0.578106E 191m,Off,5,2.5815358,1.5381193,Time OK,Free running,33000,8468,0,2019-10-21 22:09:26.000000000,
1571697611,2019-10-21 22:40:11.767,47.651106N 0.578106E 191m,Off,5,2.5815358,1.5381193,Time OK,Free running,34500,8468,0,2019-10-21 22:09:26.000000000,
1571697671,2019-10-21 22:41:11.767,47.651106N 0.578106E 191m,Off,5,2.5815358,1.5381193,Time OK,Free running,36200,8468,0,2019-10-21 22:09:26.000000000,
1571697731,2019-10-21 22:42:11.767,47.651106N 0.578106E 191m,Off,5,2.5815358,1.5381193,Time OK,Free running,37900,8468,0,2019-10-21 22:09:26.000000000,
1571697791,2019-10-21 22:43:11.769,47.651106N 0.578106E 191m,Off,5,2.5815358,1.5381193,Time OK,Free running,39500,8468,0,2019-10-21 22:09:26.000000000,
1571697851,2019-10-21 22:44:11.769,47.651106N 0.578106E 191m,Off,5,2.5815358,1.5381193,Time OK,Free running,40900,8468,0,2019-10-21 22:09:26.000000000,
1571697911,2019-10-21 22:45:11.767,47.651106N 0.578106E 191m,Off,5,2.5815358,1.5381193,Time OK,Free running,42300,8468,0,2019-10-21 22:09:26.000000000,
1571697971,2019-10-21 22:46:11.767,47.651106N 0.578106E 191m,Off,5,2.5815358,1.5381193,Time OK,Free running,43900,8468,0,2019-10-21 22:09:26.000000000,
1571698031,2019-10-21 22:47:11.777,47.651106N 0.578106E 191m,Off,5,2.5815358,1.5381193,Time OK,Free running,45800,8468,0,2019-10-21 22:09:26.000000000,
1571698091,2019-10-21 22:48:11.776,47.651106N 0.578106E 191m,Off,5,2.5815358,1.5381193,Time OK,Free running,47500,8468,0,2019-10-21 22:09:26.000000000,
1571698151,2019-10-21 22:49:11.767,47.651106N 0.578106E 191m,Off,5,2.5815358,1.5381193,Time OK,Free running,49100,8468,0,2019-10-21 22:09:26.000000000,
1571698211,2019-10-21 22:50:11.767,47.651106N 0.578106E 191m,Off,5,2.5815358,1.5381193,Time OK,Free running,50900,8468,0,2019-10-21 22:09:26.000000000,
1571698271,2019-10-21 22:51:11.767,47.651106N 0.578106E 191m,Doing fixes,6,2.1693933,1.2377869,Time OK,Coarse lock,100,8228,1666,2019-10-21 22:51:11.000000000,
1571698331,2019-10-21 22:52:11.767,47.651106N 0.578106E 191m,Doing fixes,6,2.1819868,1.2492645,Time OK,Fine lock,100,8457,0,2019-10-21 22:52:11.000000000,
1571698391,2019-10-21 22:53:11.767,47.651106N 0.578106E 191m,Off,6,2.1899986,1.256531,Time OK,Free running,400,8452,0,2019-10-21 22:52:46.000000000,
1571698451,2019-10-21 22:54:11.767,47.651106N 0.578106E 191m,Off,6,2.1899986,1.256531,Time OK,Free running,1300,8452,0,2019-10-21 22:52:46.000000000,
1571698511,2019-10-21 22:55:11.767,47.651106N 0.578106E 191m,Off,6,2.1899986,1.256531,Time OK,Free running,2100,8452,0,2019-10-21 22:52:46.000000000,
1571698571,2019-10-21 22:56:11.767,47.651106N 0.578106E 191m,Off,6,2.1899986,1.256531,Time OK,Free running,3100,8452,0,2019-10-21 22:52:46.000000000,
1571698631,2019-10-21 22:57:11.767,47.651106N 0.578106E 191m,Off,6,2.1899986,1.256531,Time OK,Free running,4200,8452,0,2019-10-21 22:52:46.000000000,
1571698691,2019-10-21 22:58:11.767,47.651106N 0.578106E 191m,Off,6,2.1899986,1.256531,Time OK,Free running,5100,8452,0,2019-10-21 22:52:46.000000000,
1571698751,2019-10-21 22:59:11.767,47.651106N 0.578106E 191m,Off,6,2.1899986,1.256531,Time OK,Free running,6000,8452,0,2019-10-21 22:52:46.000000000,
