Time(longsecs),Time(UTC),Earth Location,GPS Receiver Status,GPS Satellites Used,GPS PDOP,GPS TDOP,Timing Status,Timing Phase Lock,Timing Uncertainty(ns),DAC Count,Timing Error(ns),GPS Last Update Time,
1571684411,2019-10-21 19:00:11.767,47.65113N 0.57801E 182m,Off,5,3.2506433,2.1066322,Time OK,Free running,11200,8568,0,2019-10-21 18:48:26.000000000,
1571684471,2019-10-21 19:01:11.767,47.65113N 0.57801E 182m,Off,5,3.2506433,2.1066322,Time OK,Free running,12600,8568,0,2019-10-21 18:48:26.000000000,
1571684531,2019-10-21 19:02:11.767,47.65113N 0.57801E 182m,Off,5,3.2506433,2.1066322,Time OK,Free running,14000,8568,0,2019-10-21 18:48:26.000000000,
1571684591,2019-10-21 19:03:11.767,47.65113N 0.57801E 182m,Off,5,3.2506433,2.1066322,Time OK,Free running,15200,8568,0,2019-10-21 18:48:26.000000000,
1571684651,2019-10-21 19:04:11.767,47.65113N 0.57801E 182m,Off,5,3.2506433,2.1066322,Time OK,Free running,16400,8568,0,2019-10-21 18:48:26.000000000,
1571684711,2019-10-21 19:05:11.767,47.65113N 0.57801E 182m,Off,5,3.2506433,2.1066322,Time OK,Free running,17900,8568,0,2019-10-21 18:48:26.000000000,
1571684771,2019-10-21 19:06:11.768,47.65113N 0.57801E 182m,Off,5,3.2506433,2.1066322,Time OK,Free running,19500,8568,0,2019-10-21 18:48:26.000000000,
1571684831,2019-10-21 19:07:11.778,47.65113N 0.57801E 182m,Off,5,3.2506433,2.1066322,Time OK,Free running,21100,8568,0,2019-10-21 18:48:26.000000000,
1571684891,2019-10-21 19:08:11.767,47.65113N 0.57801E 182m,Off,5,3.2506433,2.1066322,Time OK,Free running,22800,8568,0,2019-10-21 18:48:26.000000000,
1571684951,2019-10-21 19:09:11.768,47.65113N 0.57801E 182m,Off,5,3.2506433,2.1066322,Time OK,Free running,24400,8568,0,2019-10-21 18:48:26.000000000,
1571685011,2019-10-21 19:10:11.767,47.65113N 0.57801E 182m,Off,5,3.2506433,2.1066322,Time OK,Free running,25800,8568,0,2019-10-21 18:48:26.000000000,
1571685071,2019-10-21 19:11:11.767,47.65113N 0.57801E 182m,Off,5,3.2506433,2.1066322,Time OK,Free running,27400,8568,0,2019-10-21 18:48:26.000000000,
1571685131,2019-10-21 19:12:11.768,47.65113N 0.57801E 182m,Off,5,3.2506433,2.1066322,Time OK,Free running,29000,8568,0,2019-10-21 18:48:26.000000000,
1571685191,2019-10-21 19:13:11.768,47.65113N 0.57801E 182m,Off,5,3.2506433,2.1066322,Time OK,Free running,30500,8568,0,2019-10-21 18:48:26.000000000,
1571685251,2019-10-21 19:14:11.789,47.65113N 0.57801E 182m,Off,5,3.2506433,2.1066322,Time OK,Free running,32100,8568,0,2019-10-21 18:48:26.000000000,
1571685311,2019-10-21 19:15:11.768,47.65113N 0.57801E 182m,Off,5,3.2506433,2.1066322,Time OK,Free running,33800,8568,0,2019-10-21 18:48:26.000000000,
1571685371,2019-10-21 19:16:11.768,47.65113N 0.57801E 182m,Off,5,3.2506433,2.1066322,Time OK,Free running,35600,8568,0,2019-10-21 18:48:26.000000000,
1571685431,2019-10-21 19:17:11.768,47.65113N 0.57801E 182m,Off,5,3.2506433,2.1066322,Time OK,Free running,37400,8568,0,2019-10-21 18:48:26.000000000,
1571685491,2019-10-21 19:18:11.801,47.65113N 0.57801E 182m,Off,5,3.2506433,2.1066322,Time OK,Free running,39000,8568,0,2019-10-21 18:48:26.000000000,
1571685551,2019-10-21 19:19:11.768,47.65113N 0.57801E 182m,Off,5,3.2506433,2.1066322,Time OK,Free running,40800,8568,0,2019-10-21 18:48:26.000000000,
1571685611,2019-10-21 19:20:11.768,47.65113N 0.57801E 182m,Off,5,3.2506433,2.1066322,Time OK,Free running,43000,8568,0,2019-10-21 18:48:26.000000000,
1571685671,2019-10-21 19:21:11.768,47.65113N 0.57801E 182m,Off,5,3.2506433,2.1066322,Time OK,Free running,45100,8568,0,2019-10-21 18:48:26.000000000,
1571685731,2019-10-21 19:22:11.800,47.65113N 0.57801E 182m,Off,5,3.2506433,2.1066322,Time OK,Free running,47200,8568,0,2019-10-21 18:48:26.000000000,
1571685791,2019-10-21 19:23:11.767,47.65113N 0.57801E 182m,Off,5,3.2506433,2.1066322,Time OK,Free running,49000,8568,0,2019-10-21 18:48:26.000000000,
1571685851,2019-10-21 19:24:11.766,47.65113N 0.57801E 182m,Off,5,3.2506433,2.1066322,Time OK,Free running,50500,8568,0,2019-10-21 18:48:26.000000000,
1571685911,2019-10-21 19:25:11.768,47.65113N 0.57801E 182m,Doing fixes,4,5.3669286,3.5112894,Time OK,Coarse lock,100,8184,2708,2019-10-21 19:25:11.000000000,
1571685971,2019-10-21 19:26:11.769,47.65113N 0.57801E 182m,Doing fixes,5,3.4101088,1.5605681,Time OK,Fine lock,100,8543,0,2019-10-21 19:26:11.000000000,
1571686031,2019-10-21 19:27:11.767,47.65113N 0.57801E 182m,Off,5,3.3856776,1.5617964,Time OK,Free running,400,8545,0,2019-10-21 19:26:46.000000000,
1571686091,2019-10-21 19:28:11.767,47.65113N 0.57801E 182m,Off,5,3.3856776,1.5617964,Time OK,Free running,1200,8545,0,2019-10-21 19:26:46.000000000,
1571686151,2019-10-21 19:29:11.770,47.65113N 0.57801E 182m,Off,5,3.3856776,1.5617964,Time OK,Free running,2000,8545,0,2019-10-21 19:26:46.000000000,
1571686211,2019-10-21 19:30:11.767,47.65113N 0.57801E 182m,Off,5,3.3856776,1.5617964,Time OK,Free running,3000,8545,0,2019-10-21 19:26:46.000000000,
1571686271,2019-10-21 19:31:11.767,47.65113N 0.57801E 182m,Off,5,3.3856776,1.5617964,Time OK,Free running,3800,8545,0,2019-10-21 19:26:46.000000000,
1571686331,2019-10-21 19:32:11.767,47.65113N 0.57801E 182m,Off,5,3.3856776,1.5617964,Time OK,Free running,4900,8545,0,2019-10-21 19:26:46.000000000,
1571686391,2019-10-21 19:33:11.767,47.65113N 0.57801E 182m,Off,5,3.3856776,1.5617964,Time OK,Free running,6200,8545,0,2019-10-21 19:26:46.000000000,
1571686451,2019-10-21 19:34:11.767,47.65113N 0.57801E 182m,Off,5,3.3856776,1.5617964,Time OK,Free running,7400,8545,0,2019-10-21 19:26:46.000000000,
1571686511,2019-10-21 19:35:11.767,47.65113N 0.57801E 182m,Off,5,3.3856776,1.5617964,Time OK,Free running,8600,8545,0,2019-10-21 19:26:46.000000000,
1571686571,2019-10-21 19:36:11.767,47.65113N 0.57801E 182m,Off,5,3.3856776,1.5617964,Time OK,Free running,9900,8545,0,2019-10-21 19:26:46.000000000,
1571686631,2019-10-21 19:37:11.767,47.65113N 0.57801E 182m,Off,5,3.3856776,1.5617964,Time OK,Free running,11000,8545,0,2019-10-21 19:26:46.000000000,
1571686691,2019-10-21 19:38:11.767,47.65113N 0.57801E 182m,Off,5,3.3856776,1.5617964,Time OK,Free running,12100,8545,0,2019-10-21 19:26:46.000000000,
1571686751,2019-10-21 19:39:11.767,47.65113N 0.57801E 182m,Off,5,3.3856776,1.5617964,Time OK,Free running,13300,8545,0,2019-10-21 19:26:46.000000000,
1571686811,2019-10-21 19:40:11.767,47.65113N 0.57801E 182m,Off,5,3.3856776,1.5617964,Time OK,Free running,14700,8545,0,2019-10-21 19:26:46.000000000,
1571686871,2019-10-21 19:41:11.767,47.65113N 0.57801E 182m,Off,5,3.3856776,1.5617964,Time OK,Free running,16200,8545,0,2019-10-21 19:26:46.000000000,
1571686931,2019-10-21 19:42:11.767,47.65113N 0.57801E 182m,Off,5,3.3856776,1.5617964,Time OK,Free running,17700,8545,0,2019-10-21 19:26:46.000000000,
1571686991,2019-10-21 19:43:11.767,47.65113N 0.57801E 182m,Off,5,3.3856776,1.5617964,Time OK,Free running,18900,8545,0,2019-10-21 19:26:46.000000000,
1571687051,2019-10-21 19:44:11.767,47.65113N 0.57801E 182m,Off,5,3.3856776,1.5617964,Time OK,Free running,20100,8545,0,2019-10-21 19:26:46.000000000,
1571687111,2019-10-21 19:45:11.767,47.65113N 0.57801E 182m,Off,5,3.3856776,1.5617964,Time OK,Free running,21500,8545,0,2019-10-21 19:26:46.000000000,
1571687171,2019-10-21 19:46:11.767,47.65113N 0.57801E 182m,Off,5,3.3856776,1.5617964,Time OK,Free running,22700,8545,0,2019-10-21 19:26:46.000000000,
1571687231,2019-10-21 19:47:11.767,47.65113N 0.57801E 182m,Off,5,3.3856776,1.5617964,Time OK,Free running,23800,8545,0,2019-10-21 19:26:46.000000000,
1571687291,2019-10-21 19:48:11.767,47.65113N 0.57801E 182m,Off,5,3.3856776,1.5617964,Time OK,Free running,25200,8545,0,2019-10-21 19:26:46.000000000,
1571687351,2019-10-21 19:49:11.767,47.65113N 0.57801E 182m,Off,5,3.3856776,1.5617964,Time OK,Free running,26600,8545,0,2019-10-21 19:26:46.000000000,
1571687411,2019-10-21 19:50:11.767,47.65113N 0.57801E 182m,Off,5,3.3856776,1.5617964,Time OK,Free running,27800,8545,0,2019-10-21 19:26:46.000000000,
1571687471,2019-10-21 19:51:11.767,47.65113N 0.57801E 182m,Off,5,3.3856776,1.5617964,Time OK,Free running,29100,8545,0,2019-10-21 19:26:46.000000000,
1571687531,2019-10-21 19:52:11.767,47.65113N 0.57801E 182m,Off,5,3.3856776,1.5617964,Time OK,Free running,30700,8545,0,2019-10-21 19:26:46.000000000,
1571687591,2019-10-21 19:53:11.767,47.65113N 0.57801E 182m,Off,5,3.3856776,1.5617964,Time OK,Free running,32600,8545,0,2019-10-21 19:26:46.000000000,
1571687651,2019-10-21 19:54:11.767,47.65113N 0.57801E 182m,Off,5,3.3856776,1.5617964,Time OK,Free running,34600,8545,0,2019-10-21 19:26:46.000000000,
1571687711,2019-10-21 19:55:11.767,47.65113N 0.57801E 182m,Off,5,3.3856776,1.5617964,Time OK,Free running,36200,8545,0,2019-10-21 19:26:46.000000000,
1571687771,2019-10-21 19:56:11.767,47.65113N 0.57801E 182m,Off,5,3.3856776,1.5617964,Time OK,Free running,37900,8545,0,2019-10-21 19:26:46.000000000,
1571687831,2019-10-21 19:57:11.769,47.65113N 0.57801E 182m,Off,5,3.3856776,1.5617964,Time OK,Free running,39900,8545,0,2019-10-21 19:26:46.000000000,
1571687891,2019-10-21 19:58:11.767,47.65113N 0.57801E 182m,Off,5,3.3856776,1.5617964,Time OK,Free running,41600,8545,0,2019-10-21 19:26:46.000000000,
1571687951,2019-10-21 19:59:11.767,47.65113N 0.57801E 182m,Off,5,3.3856776,1.5617964,Time OK,Free running,43500,8545,0,2019-10-21 19:26:46.000000000,
