Time(longsecs),Time(UTC),External SOH Voltage 1(V),External SOH Voltage 2(V),External SOH Voltage 3(V),External SOH Voltage 4(V),Sensor SOH Voltage 1(V),Sensor SOH Voltage 2(V),Sensor SOH Voltage 3(V),
1571997611,2019-10-25 10:00:11.767,-4.219055E-3,9.6797943E-4,-2.7415752E-3,3.2930374E-3,2.1384144E-1,2.1469593E-1,2.1143436E-1,
1571997671,2019-10-25 10:01:11.767,-3.7124157E-3,1.4619827E-3,-1.9652843E-3,4.139662E-3,2.1156311E-1,2.1287155E-1,2.129488E-1,
1571997731,2019-10-25 10:02:11.769,-4.4424534E-3,3.3473969E-4,-2.5291443E-3,2.9511452E-3,2.0946217E-1,2.1087837E-1,2.0760155E-1,
1571997791,2019-10-25 10:03:11.767,-2.2404194E-3,3.1313896E-3,-1.885891E-4,5.9490204E-3,2.2288513E-1,2.258749E-1,2.1940327E-1,
1571997851,2019-10-25 10:04:11.768,-1.4584064E-3,3.1785965E-3,-3.44038E-4,5.6757927E-3,2.1800423E-1,2.200222E-1,2.1566677E-1,
1571997911,2019-10-25 10:05:11.767,-2.584219E-3,3.1030178E-3,-3.554821E-4,5.739212E-3,2.1472073E-1,2.1640873E-1,2.1484566E-1,
1571997971,2019-10-25 10:06:11.769,-4.8463345E-3,4.3678284E-4,-2.4724007E-3,3.7975311E-3,2.137537E-1,2.1646118E-1,2.0849991E-1,
1571998031,2019-10-25 10:07:11.767,-2.1820068E-3,3.4775734E-3,-1.4567375E-4,5.543947E-3,2.2097301E-1,2.2214699E-1,2.1701717E-1,
1571998091,2019-10-25 10:08:11.767,-3.473997E-3,1.6531944E-3,-2.3596287E-3,3.7350655E-3,2.1402073E-1,2.1652794E-1,2.1539307E-1,
1571998151,2019-10-25 10:09:11.767,-2.2952557E-3,2.7973652E-3,-6.1511993E-4,5.7935715E-3,2.1980572E-1,2.208662E-1,2.1730042E-1,
1571998211,2019-10-25 10:10:11.767,-1.8730164E-3,3.2174587E-3,-3.273487E-4,5.6312084E-3,2.2375298E-1,2.2511578E-1,2.2065735E-1,
1571998271,2019-10-25 10:11:11.767,-4.0454865E-3,8.1157684E-4,-2.9735565E-3,3.2234192E-3,2.1057987E-1,2.1243E-1,2.0972729E-1,
1571998331,2019-10-25 10:12:11.767,-3.963709E-3,8.8882446E-4,-2.0766258E-3,4.1549206E-3,2.1366405E-1,2.1564198E-1,2.1478844E-1,
1571998391,2019-10-25 10:13:11.768,-6.342411E-3,-1.5795231E-3,-4.5731068E-3,1.0921955E-3,2.0343399E-1,2.0659924E-1,2.052002E-1,
1571998451,2019-10-25 10:14:11.768,-4.830599E-3,6.263256E-4,-2.7284622E-3,3.303051E-3,2.1178913E-1,2.1213627E-1,2.0979977E-1,
1571998511,2019-10-25 10:15:11.768,-4.413128E-3,6.1130524E-4,-2.9201508E-3,2.9895306E-3,2.103262E-1,2.1282578E-1,2.0736408E-1,
1571998571,2019-10-25 10:16:11.768,-3.9491653E-3,1.1372566E-3,-2.6385784E-3,3.875494E-3,2.1158123E-1,2.140379E-1,2.1122742E-1,
1571998631,2019-10-25 10:17:11.767,-3.9818287E-3,6.9379807E-4,-2.7253628E-3,3.421545E-3,2.128191E-1,2.1476364E-1,2.0675659E-1,
1571998691,2019-10-25 10:18:11.773,-3.9203167E-3,9.801388E-4,-2.4569035E-3,3.44038E-3,2.1306038E-1,2.1666908E-1,2.1543598E-1,
1571998751,2019-10-25 10:19:11.768,-4.5366287E-3,6.23703E-4,-1.8212795E-3,3.8719177E-3,2.1496391E-1,2.1714497E-1,2.1605206E-1,
1571998811,2019-10-25 10:20:11.768,-2.3376942E-3,2.9652119E-3,-4.2629242E-4,5.624771E-3,2.1881676E-1,2.2233486E-1,2.2029972E-1,
1571998871,2019-10-25 10:21:11.783,-6.317854E-3,-1.0352135E-3,-4.7745705E-3,1.5473366E-3,2.0599079E-1,2.0840168E-1,2.0633316E-1,
1571998931,2019-10-25 10:22:11.767,-3.8838387E-3,1.3449192E-3,-2.379179E-3,3.885746E-3,2.152853E-1,2.147417E-1,2.1448326E-1,
1571998991,2019-10-25 10:23:11.767,-6.3533783E-3,-1.3654232E-3,-4.8971176E-3,1.200676E-3,2.0675659E-1,2.0905781E-1,2.0372963E-1,
1571999051,2019-10-25 10:24:11.766,-2.310276E-3,2.4824142E-3,-4.2319298E-4,5.525589E-3,2.1573925E-1,2.1758175E-1,2.1634674E-1,
1571999111,2019-10-25 10:25:11.766,-3.693819E-3,1.1703968E-3,-1.9860268E-3,3.6697388E-3,2.0969772E-1,2.1055984E-1,2.0765781E-1,
1571999171,2019-10-25 10:26:11.767,-3.980875E-3,6.9856644E-4,-2.84791E-3,3.4370422E-3,2.0768929E-1,2.1201515E-1,2.089014E-1,
1571999231,2019-10-25 10:27:11.767,-6.1523914E-3,-9.276867E-4,-4.927635E-3,1.2717247E-3,2.040348E-1,2.0423794E-1,1.9898891E-1,
1571999291,2019-10-25 10:28:11.768,-5.992651E-3,-1.1937618E-3,-4.745722E-3,1.4131069E-3,2.0853043E-1,2.09445E-1,2.0678902E-1,
1571999351,2019-10-25 10:29:11.767,-4.791975E-3,7.77483E-4,-2.5508404E-3,3.4706593E-3,2.0955276E-1,2.1159172E-1,2.1080399E-1,
1571999411,2019-10-25 10:30:11.767,-6.474018E-3,-9.7060204E-4,-4.638672E-3,1.1832714E-3,2.0595264E-1,2.0938683E-1,2.080431E-1,
1571999471,2019-10-25 10:31:11.767,-5.1031113E-3,8.6569786E-4,-2.343893E-3,3.6194324E-3,2.1205616E-1,2.1428871E-1,2.1097088E-1,
1571999531,2019-10-25 10:32:11.767,-6.85668E-3,-1.1942387E-3,-4.3537617E-3,1.3430119E-3,2.0652866E-1,2.0855999E-1,2.0919228E-1,
1571999591,2019-10-25 10:33:11.767,-5.911112E-3,-1.3194084E-3,-4.5571327E-3,9.431839E-4,2.0543289E-1,2.056303E-1,2.0566368E-1,
1571999651,2019-10-25 10:34:11.767,-3.0674934E-3,8.3351135E-4,-2.64287E-3,3.442049E-3,2.1103477E-1,2.1441555E-1,2.1104145E-1,
1571999711,2019-10-25 10:35:11.767,-6.7284107E-3,-1.1138916E-3,-4.627228E-3,8.816719E-4,2.0325279E-1,2.082386E-1,2.0238304E-1,
1571999771,2019-10-25 10:36:11.767,-4.6155453E-3,2.4700165E-4,-2.616644E-3,2.8362274E-3,2.1306896E-1,2.1435833E-1,2.142067E-1,
1571999831,2019-10-25 10:37:11.767,-6.229639E-3,-1.5745163E-3,-4.544735E-3,4.4202805E-4,2.070589E-1,2.0988178E-1,2.0629215E-1,
1571999891,2019-10-25 10:38:11.767,-2.1498203E-3,3.262043E-3,-1.449585E-4,5.4790974E-3,2.178564E-1,2.1916294E-1,2.1812534E-1,
1571999951,2019-10-25 10:39:11.767,-1.9767284E-3,2.8448105E-3,1.8334389E-4,5.6762695E-3,2.2277641E-1,2.2468567E-1,2.2292042E-1,
1572000011,2019-10-25 10:40:11.767,-3.2074451E-3,1.6195774E-3,-2.0418167E-3,3.8466454E-3,2.1093845E-1,2.1099854E-1,2.0736027E-1,
1572000071,2019-10-25 10:41:11.767,-1.2123585E-3,3.0500889E-3,-3.5381317E-4,5.366564E-3,2.1633148E-1,2.1931076E-1,2.166729E-1,
1572000131,2019-10-25 10:42:11.767,-3.5521984E-3,1.2540817E-3,-2.231121E-3,4.2335987E-3,2.1123505E-1,2.1357822E-1,2.1205044E-1,
1572000191,2019-10-25 10:43:11.767,-3.4666061E-3,1.2567043E-3,-2.300024E-3,3.4279823E-3,2.1404648E-1,2.1545315E-1,2.0977402E-1,
1572000251,2019-10-25 10:44:11.767,-7.068634E-3,-1.2040138E-3,-4.8537254E-3,1.0299683E-3,2.055006E-1,2.071619E-1,2.0353222E-1,
1572000311,2019-10-25 10:45:11.767,-4.188299E-3,9.1195107E-4,-2.3210049E-3,3.987789E-3,2.1188259E-1,2.1264744E-1,2.1211433E-1,
1572000371,2019-10-25 10:46:11.804,-4.009962E-3,1.6829967E-3,-1.909256E-3,3.9863586E-3,2.1419239E-1,2.1402264E-1,2.1289444E-1,
1572000431,2019-10-25 10:47:11.767,-3.4132004E-3,1.0535717E-3,-1.9218922E-3,4.0397644E-3,2.106657E-1,2.1323395E-1,2.0880985E-1,
1572000491,2019-10-25 10:48:11.767,-4.146576E-3,4.131794E-4,-2.4914742E-3,3.2002926E-3,2.115736E-1,2.1442413E-1,2.1615887E-1,
1572000551,2019-10-25 10:49:11.772,-5.1152706E-3,5.6004524E-4,-2.8550625E-3,2.8319359E-3,2.1240425E-1,2.1391773E-1,2.0958233E-1,
1572000611,2019-10-25 10:50:11.767,-1.9476414E-3,3.512621E-3,-5.030632E-5,5.475998E-3,2.1697807E-1,2.215538E-1,2.1509075E-1,
1572000671,2019-10-25 10:51:11.767,-2.3179054E-3,3.267765E-3,-4.336834E-4,6.009102E-3,2.2284031E-1,2.2658253E-1,2.172041E-1,
1572000731,2019-10-25 10:52:11.768,-6.415844E-3,-1.357317E-3,-4.6987534E-3,1.4607906E-3,2.0203686E-1,2.0412064E-1,1.9914722E-1,
1572000791,2019-10-25 10:53:11.767,-4.7323704E-3,6.9642067E-4,-2.3531914E-3,3.3249855E-3,2.0962048E-1,2.1167183E-1,2.0962429E-1,
1572000851,2019-10-25 10:54:11.767,-6.9327354E-3,-1.7142296E-3,-4.4124126E-3,1.1341572E-3,2.0585346E-1,2.0855999E-1,2.0291519E-1,
1572000911,2019-10-25 10:55:11.767,-3.985405E-3,1.1367798E-3,-2.2907257E-3,3.2746792E-3,2.153511E-1,2.1483421E-1,2.1304989E-1,
1572000971,2019-10-25 10:56:11.767,-6.4866543E-3,-1.4295578E-3,-4.9111843E-3,8.3470345E-4,2.0507431E-1,2.0717335E-1,2.0632267E-1,
1572001031,2019-10-25 10:57:11.767,-3.483057E-3,1.033783E-3,-2.343893E-3,3.553152E-3,2.1273136E-1,2.123642E-1,2.1559048E-1,
1572001091,2019-10-25 10:58:11.768,-3.4697056E-3,9.1290474E-4,-2.2056103E-3,4.0123463E-3,2.1328926E-1,2.1597958E-1,2.1306896E-1,
1572001151,2019-10-25 10:59:11.767,-1.5277863E-3,2.7325153E-3,-2.4294853E-4,6.0305595E-3,2.1584415E-1,2.1720791E-1,2.1719074E-1,
