Time(longsecs),Time(UTC),Supply Voltage(mV),Temperature(&deg;C),NMX Bus Current(mA),Sensor Current(mA),Serial Port Current(mA),Controller Current(mA),Digitizer Current(mA),
1571994011,2019-10-25 09:00:11.799,16443,1.5602509E1,0,18,0,40,37,
1571994071,2019-10-25 09:01:11.767,16443,1.5478241E1,0,8,0,38,35,
1571994131,2019-10-25 09:02:11.767,16457,1.5682861E1,0,10,0,37,37,
1571994191,2019-10-25 09:03:11.767,16470,1.5617493E1,0,10,0,35,38,
1571994251,2019-10-25 09:04:11.767,16470,1.557251E1,0,13,0,38,38,
1571994311,2019-10-25 09:05:11.767,16470,1.5542511E1,0,11,0,33,37,
1571994371,2019-10-25 09:06:11.767,16457,1.5650696E1,0,1,0,41,39,
1571994431,2019-10-25 09:07:11.767,16457,1.5748199E1,0,8,0,36,39,
1571994491,2019-10-25 09:08:11.767,16470,1.5840332E1,0,16,0,34,37,
1571994551,2019-10-25 09:09:11.767,16483,1.5627136E1,0,8,0,33,36,
1571994611,2019-10-25 09:10:11.769,16498,1.5911041E1,0,9,0,33,40,
1571994671,2019-10-25 09:11:11.767,16483,1.5713928E1,0,11,0,37,37,
1571994731,2019-10-25 09:12:11.767,16483,1.5770691E1,0,14,0,38,37,
1571994791,2019-10-25 09:13:11.770,16483,1.5886383E1,0,11,0,36,39,
1571994851,2019-10-25 09:14:11.767,16511,1.5799622E1,0,12,0,33,43,
1571994911,2019-10-25 09:15:11.767,16525,1.6008514E1,0,7,0,33,40,
1571994971,2019-10-25 09:16:11.768,16525,1.5909943E1,0,6,0,37,38,
1571995031,2019-10-25 09:17:11.767,16538,1.5867096E1,0,9,0,33,39,
1571995091,2019-10-25 09:18:11.786,16525,1.6042786E1,0,8,0,38,41,
1571995151,2019-10-25 09:19:11.767,16538,1.5938873E1,0,6,0,33,37,
1571995211,2019-10-25 09:20:11.767,16538,1.5776062E1,0,9,0,33,37,
1571995271,2019-10-25 09:21:11.769,16553,1.6014954E1,0,9,0,36,38,
1571995331,2019-10-25 09:22:11.767,16553,1.5992432E1,0,11,0,37,39,
1571995391,2019-10-25 09:23:11.767,16538,1.59646E1,0,9,0,38,40,
1571995451,2019-10-25 09:24:11.769,16511,1.6137054E1,0,9,0,33,39,
1571995511,2019-10-25 09:25:11.767,16511,1.5984955E1,0,7,0,33,38,
1571995571,2019-10-25 09:26:11.767,16498,1.6037445E1,0,6,0,67,40,
1571995631,2019-10-25 09:27:11.767,16511,1.59453125E1,0,14,0,38,38,
1571995691,2019-10-25 09:28:11.767,16498,1.6096344E1,0,9,0,38,40,
1571995751,2019-10-25 09:29:11.767,16538,1.59453125E1,0,9,0,38,37,
1571995811,2019-10-25 09:30:11.767,16498,1.6088867E1,0,13,0,33,37,
1571995871,2019-10-25 09:31:11.769,16498,1.6018158E1,0,10,0,37,41,
1571995931,2019-10-25 09:32:11.767,16483,1.6270966E1,0,10,0,35,37,
1571995991,2019-10-25 09:33:11.790,16483,1.6059937E1,0,10,0,38,37,
1571996051,2019-10-25 09:34:11.767,16525,1.5936737E1,0,10,0,33,41,
1571996111,2019-10-25 09:35:11.767,16525,1.6113495E1,0,4,0,38,39,
1571996171,2019-10-25 09:36:11.767,16525,1.5960297E1,0,7,0,38,39,
1571996231,2019-10-25 09:37:11.767,16470,1.6247406E1,0,7,0,38,37,
1571996291,2019-10-25 09:38:11.767,16511,1.6366302E1,0,9,0,44,41,
1571996351,2019-10-25 09:39:11.767,16498,1.6051361E1,0,8,0,41,42,
1571996411,2019-10-25 09:40:11.767,16538,1.6364166E1,0,9,0,33,37,
1571996471,2019-10-25 09:41:11.767,16566,1.6183136E1,0,9,0,39,40,
1571996531,2019-10-25 09:42:11.767,16566,1.6126343E1,0,10,0,38,37,
1571996591,2019-10-25 09:43:11.767,16538,1.6223846E1,0,8,0,38,41,
1571996651,2019-10-25 09:44:11.767,16538,1.6243103E1,0,8,0,41,39,
1571996711,2019-10-25 09:45:11.767,16553,1.6423096E1,0,9,0,31,41,
1571996771,2019-10-25 09:46:11.812,16553,1.6248474E1,0,12,0,36,36,
1571996831,2019-10-25 09:47:11.767,16538,1.6325592E1,0,10,0,30,38,
1571996891,2019-10-25 09:48:11.767,16553,1.6389893E1,0,17,0,31,36,
1571996951,2019-10-25 09:49:11.767,16538,1.6352386E1,0,5,0,30,38,
1571997011,2019-10-25 09:50:11.767,16525,1.6591278E1,0,8,0,32,42,
1571997071,2019-10-25 09:51:11.769,16525,1.646701E1,0,9,0,40,36,
1571997131,2019-10-25 09:52:11.767,16525,1.6348114E1,0,5,0,38,38,
1571997191,2019-10-25 09:53:11.767,16525,1.649057E1,0,9,0,37,39,
1571997251,2019-10-25 09:54:11.767,16538,1.6424164E1,0,15,0,33,37,
1571997311,2019-10-25 09:55:11.767,16538,1.6499146E1,0,6,0,38,38,
1571997371,2019-10-25 09:56:11.767,16511,1.6688751E1,0,12,0,32,42,
1571997431,2019-10-25 09:57:11.818,16525,1.6594482E1,0,9,0,38,41,
1571997491,2019-10-25 09:58:11.767,16525,1.6429504E1,0,11,0,36,40,
1571997551,2019-10-25 09:59:11.767,16525,1.6484161E1,0,9,0,33,39,
