Time(longsecs),Time(UTC),Supply Voltage(mV),Temperature(&deg;C),NMX Bus Current(mA),Sensor Current(mA),Serial Port Current(mA),Controller Current(mA),Digitizer Current(mA),
1571914838,2019-10-24 11:00:38.746,11872,1.6813171E1,0,13,0,3,59,
1571914898,2019-10-24 11:01:38.746,11872,1.6853455E1,0,13,0,0,54,
1571914958,2019-10-24 11:02:38.746,11872,1.692453E1,0,13,0,0,52,
1571915018,2019-10-24 11:03:38.746,11885,1.6679504E1,0,13,0,0,55,
1571915078,2019-10-24 11:04:38.746,11872,1.689801E1,0,12,0,0,51,
1571915138,2019-10-24 11:05:38.746,11885,1.6679504E1,0,12,0,0,50,
1571915198,2019-10-24 11:06:38.746,11872,1.6442993E1,0,13,0,0,52,
1571915258,2019-10-24 11:07:38.746,11885,1.6822693E1,0,13,0,0,54,
1571915318,2019-10-24 11:08:38.748,11872,1.670285E1,0,12,0,0,51,
1571915378,2019-10-24 11:09:38.746,11872,1.6636017E1,0,13,0,0,50,
1571915438,2019-10-24 11:10:38.746,11872,1.6589355E1,0,13,0,0,54,
1571915498,2019-10-24 11:11:38.746,11872,1.6689056E1,0,11,0,0,59,
1571915558,2019-10-24 11:12:38.746,11830,1.6591492E1,0,12,0,73,67,
1571915618,2019-10-24 11:13:38.746,11912,1.672406E1,0,13,0,85,63,
1571915678,2019-10-24 11:14:38.746,11817,1.6991364E1,0,13,0,89,64,
1571915738,2019-10-24 11:15:38.785,11708,1.7030579E1,0,6,0,117,68,
1571915798,2019-10-24 11:16:38.786,11803,1.724591E1,0,13,0,112,62,
1571915858,2019-10-24 11:17:38.746,11817,1.716742E1,0,11,0,95,63,
1571915918,2019-10-24 11:18:38.746,11817,1.721408E1,0,13,0,91,67,
1571915978,2019-10-24 11:19:38.746,11803,1.7455933E1,0,6,0,88,65,
1571916038,2019-10-24 11:20:38.746,11817,1.7450623E1,0,6,0,89,64,
1571916098,2019-10-24 11:21:38.746,11817,1.740924E1,0,11,0,90,53,
1571916158,2019-10-24 11:22:38.746,11872,1.7480316E1,0,18,0,0,53,
1571916218,2019-10-24 11:23:38.748,11872,1.7761383E1,0,13,0,0,50,
1571916278,2019-10-24 11:24:38.746,11872,1.7323334E1,0,11,0,0,50,
1571916338,2019-10-24 11:25:38.746,11885,1.7266052E1,0,11,0,0,55,
1571916398,2019-10-24 11:26:38.746,11872,1.7187561E1,0,13,0,0,51,
1571916458,2019-10-24 11:27:38.748,11872,1.7209839E1,0,13,0,0,61,
1571916518,2019-10-24 11:28:38.746,11872,1.7264984E1,0,13,0,0,53,
1571916578,2019-10-24 11:29:38.748,11872,1.7053925E1,0,13,0,0,51,
1571916638,2019-10-24 11:30:38.746,11872,1.7291504E1,0,12,0,0,52,
1571916698,2019-10-24 11:31:38.746,11872,1.727243E1,0,12,0,0,52,
1571916758,2019-10-24 11:32:38.746,11872,1.7228943E1,0,15,0,0,51,
1571916818,2019-10-24 11:33:38.746,11872,1.7060303E1,0,13,0,0,55,
1571916878,2019-10-24 11:34:38.746,11872,1.7269257E1,0,11,0,0,54,
1571916938,2019-10-24 11:35:38.746,11872,1.7268188E1,0,13,0,0,51,
1571916998,2019-10-24 11:36:38.747,11817,1.7239532E1,0,11,0,75,63,
1571917058,2019-10-24 11:37:38.746,11803,1.7216217E1,0,13,0,100,65,
1571917118,2019-10-24 11:38:38.746,11817,1.7554565E1,0,12,0,90,65,
1571917178,2019-10-24 11:39:38.746,11817,1.7653198E1,0,9,0,89,72,
1571917238,2019-10-24 11:40:38.746,11817,1.776352E1,0,15,0,83,67,
1571917298,2019-10-24 11:41:38.748,11830,1.7832458E1,0,11,0,88,63,
1571917358,2019-10-24 11:42:38.746,11763,1.774759E1,0,12,0,89,65,
1571917418,2019-10-24 11:43:38.746,11803,1.7935333E1,0,14,0,87,64,
1571917478,2019-10-24 11:44:38.746,11803,1.7845184E1,0,9,0,98,59,
1571917538,2019-10-24 11:45:38.746,11872,1.8233398E1,0,13,0,0,53,
1571917598,2019-10-24 11:46:38.746,11857,1.7888672E1,0,13,0,0,54,
1571917658,2019-10-24 11:47:38.746,11872,1.8039276E1,0,13,0,0,52,
1571917718,2019-10-24 11:48:38.748,11885,1.8006409E1,0,11,0,0,52,
1571917778,2019-10-24 11:49:38.746,11872,1.7741241E1,0,11,0,0,52,
1571917838,2019-10-24 11:50:38.746,11872,1.7971405E1,0,11,0,0,54,
1571917898,2019-10-24 11:51:38.746,11872,1.7880188E1,0,13,0,0,51,
1571917958,2019-10-24 11:52:38.746,11872,1.7892914E1,0,13,0,0,63,
1571918018,2019-10-24 11:53:38.746,11857,1.7827148E1,0,11,0,0,55,
1571918078,2019-10-24 11:54:38.746,11872,1.7717896E1,0,12,0,0,55,
1571918138,2019-10-24 11:55:38.746,11857,1.7704102E1,0,11,0,0,51,
1571918198,2019-10-24 11:56:38.746,11872,1.7821838E1,0,13,0,0,52,
1571918258,2019-10-24 11:57:38.746,11857,1.7708344E1,0,14,0,0,56,
1571918318,2019-10-24 11:58:38.746,11885,1.7666992E1,0,9,0,0,53,
1571918378,2019-10-24 11:59:38.746,11872,1.7761383E1,0,12,0,0,52,
