Time(longsecs),Time(UTC),Earth Location,GPS Receiver Status,GPS Satellites Used,GPS PDOP,GPS TDOP,Timing Status,Timing Phase Lock,Timing Uncertainty(ns),DAC Count,Timing Error(ns),GPS Last Update Time,
1571954438,2019-10-24 22:00:38.746,47.652018N 0.543161E 176m,Off,7,2.636508,1.6095238,Time OK,Free running,8600,9012,0,2019-10-24 21:52:26.000000000,
1571954498,2019-10-24 22:01:38.746,47.652018N 0.543161E 176m,Off,7,2.636508,1.6095238,Time OK,Free running,10000,9012,0,2019-10-24 21:52:26.000000000,
1571954558,2019-10-24 22:02:38.746,47.652018N 0.543161E 176m,Off,7,2.636508,1.6095238,Time OK,Free running,11200,9012,0,2019-10-24 21:52:26.000000000,
1571954618,2019-10-24 22:03:38.746,47.652018N 0.543161E 176m,Off,7,2.636508,1.6095238,Time OK,Free running,12500,9012,0,2019-10-24 21:52:26.000000000,
1571954678,2019-10-24 22:04:38.746,47.652018N 0.543161E 176m,Off,7,2.636508,1.6095238,Time OK,Free running,13800,9012,0,2019-10-24 21:52:26.000000000,
1571954738,2019-10-24 22:05:38.746,47.652018N 0.543161E 176m,Off,7,2.636508,1.6095238,Time OK,Free running,15200,9012,0,2019-10-24 21:52:26.000000000,
1571954798,2019-10-24 22:06:38.746,47.652018N 0.543161E 176m,Off,7,2.636508,1.6095238,Time OK,Free running,16800,9012,0,2019-10-24 21:52:26.000000000,
1571954858,2019-10-24 22:07:38.748,47.652018N 0.543161E 176m,Off,7,2.636508,1.6095238,Time OK,Free running,18100,9012,0,2019-10-24 21:52:26.000000000,
1571954918,2019-10-24 22:08:38.746,47.652018N 0.543161E 176m,Off,7,2.636508,1.6095238,Time OK,Free running,19500,9012,0,2019-10-24 21:52:26.000000000,
1571954978,2019-10-24 22:09:38.746,47.652018N 0.543161E 176m,Off,7,2.636508,1.6095238,Time OK,Free running,21300,9012,0,2019-10-24 21:52:26.000000000,
1571955038,2019-10-24 22:10:38.746,47.652018N 0.543161E 176m,Off,7,2.636508,1.6095238,Time OK,Free running,22800,9012,0,2019-10-24 21:52:26.000000000,
1571955098,2019-10-24 22:11:38.746,47.652018N 0.543161E 176m,Off,7,2.636508,1.6095238,Time OK,Free running,24100,9012,0,2019-10-24 21:52:26.000000000,
1571955158,2019-10-24 22:12:38.746,47.652018N 0.543161E 176m,Off,7,2.636508,1.6095238,Time OK,Free running,25100,9012,0,2019-10-24 21:52:26.000000000,
1571955218,2019-10-24 22:13:38.746,47.652018N 0.543161E 176m,Off,7,2.636508,1.6095238,Time OK,Free running,25900,9012,0,2019-10-24 21:52:26.000000000,
1571955278,2019-10-24 22:14:38.746,47.652018N 0.543161E 176m,Off,7,2.636508,1.6095238,Time OK,Free running,26700,9012,0,2019-10-24 21:52:26.000000000,
1571955338,2019-10-24 22:15:38.746,47.652018N 0.543161E 176m,Off,7,2.636508,1.6095238,Time OK,Free running,27700,9012,0,2019-10-24 21:52:26.000000000,
1571955398,2019-10-24 22:16:38.746,47.652018N 0.543161E 176m,Off,7,2.636508,1.6095238,Time OK,Free running,28500,9012,0,2019-10-24 21:52:26.000000000,
1571955458,2019-10-24 22:17:38.746,47.652018N 0.543161E 176m,Off,7,2.636508,1.6095238,Time OK,Free running,29500,9012,0,2019-10-24 21:52:26.000000000,
1571955518,2019-10-24 22:18:38.746,47.652018N 0.543161E 176m,Off,7,2.636508,1.6095238,Time OK,Free running,30800,9012,0,2019-10-24 21:52:26.000000000,
1571955578,2019-10-24 22:19:38.746,47.652018N 0.543161E 176m,Off,7,2.636508,1.6095238,Time OK,Free running,31800,9012,0,2019-10-24 21:52:26.000000000,
1571955638,2019-10-24 22:20:38.748,47.652018N 0.543161E 176m,Off,7,2.636508,1.6095238,Time OK,Free running,32800,9012,0,2019-10-24 21:52:26.000000000,
1571955698,2019-10-24 22:21:38.746,47.652018N 0.543161E 176m,Off,7,2.636508,1.6095238,Time OK,Free running,34100,9012,0,2019-10-24 21:52:26.000000000,
1571955758,2019-10-24 22:22:38.746,47.652018N 0.543161E 176m,Off,7,2.636508,1.6095238,Time OK,Free running,35400,9012,0,2019-10-24 21:52:26.000000000,
1571955818,2019-10-24 22:23:38.746,47.652018N 0.543161E 176m,Off,7,2.636508,1.6095238,Time OK,Free running,36500,9012,0,2019-10-24 21:52:26.000000000,
1571955878,2019-10-24 22:24:38.746,47.652018N 0.543161E 176m,Off,7,2.636508,1.6095238,Time OK,Free running,37700,9012,0,2019-10-24 21:52:26.000000000,
1571955938,2019-10-24 22:25:38.746,47.652018N 0.543161E 176m,Off,7,2.636508,1.6095238,Time OK,Free running,39200,9012,0,2019-10-24 21:52:26.000000000,
1571955998,2019-10-24 22:26:38.746,47.652018N 0.543161E 176m,Off,7,2.636508,1.6095238,Time OK,Free running,40600,9012,0,2019-10-24 21:52:26.000000000,
1571956058,2019-10-24 22:27:38.746,47.652018N 0.543161E 176m,Off,7,2.636508,1.6095238,Time OK,Free running,42100,9012,0,2019-10-24 21:52:26.000000000,
1571956118,2019-10-24 22:28:38.746,47.652018N 0.543161E 176m,Off,7,2.636508,1.6095238,Time OK,Free running,43500,9012,0,2019-10-24 21:52:26.000000000,
1571956178,2019-10-24 22:29:38.746,47.652018N 0.543161E 176m,Off,7,2.636508,1.6095238,Time OK,Free running,45100,9012,0,2019-10-24 21:52:26.000000000,
1571956238,2019-10-24 22:30:38.746,47.652018N 0.543161E 176m,Off,7,2.636508,1.6095238,Time OK,Free running,46800,9012,0,2019-10-24 21:52:26.000000000,
1571956298,2019-10-24 22:31:38.746,47.652018N 0.543161E 176m,Off,7,2.636508,1.6095238,Time OK,Free running,48500,9012,0,2019-10-24 21:52:26.000000000,
1571956358,2019-10-24 22:32:38.746,47.652018N 0.543161E 176m,Off,7,2.636508,1.6095238,Time OK,Free running,50200,9012,0,2019-10-24 21:52:26.000000000,
1571956418,2019-10-24 22:33:38.746,47.652018N 0.543161E 176m,No GPS time,4,2.358627,0.86404085,Time OK,Free running,52000,9012,0,2019-10-24 22:33:35.000000000,
1571956478,2019-10-24 22:34:38.746,47.652018N 0.543161E 176m,Doing fixes,5,4.1390204,2.773675,Time OK,Coarse lock,100,8978,729,2019-10-24 22:34:36.000000000,
1571956538,2019-10-24 22:35:38.746,47.652018N 0.543161E 176m,Doing fixes,6,2.694451,1.6819631,Time OK,Fine lock,100,9002,0,2019-10-24 22:35:36.000000000,
1571956598,2019-10-24 22:36:38.746,47.652018N 0.543161E 176m,Off,5,2.854984,1.6901376,Time OK,Free running,800,9001,0,2019-10-24 22:35:46.000000000,
1571956658,2019-10-24 22:37:38.746,47.652018N 0.543161E 176m,Off,5,2.854984,1.6901376,Time OK,Free running,1600,9001,0,2019-10-24 22:35:46.000000000,
1571956718,2019-10-24 22:38:38.748,47.652018N 0.543161E 176m,Off,5,2.854984,1.6901376,Time OK,Free running,2400,9001,0,2019-10-24 22:35:46.000000000,
1571956778,2019-10-24 22:39:38.746,47.652018N 0.543161E 176m,Off,5,2.854984,1.6901376,Time OK,Free running,3600,9001,0,2019-10-24 22:35:46.000000000,
1571956838,2019-10-24 22:40:38.746,47.652018N 0.543161E 176m,Off,5,2.854984,1.6901376,Time OK,Free running,5000,9001,0,2019-10-24 22:35:46.000000000,
1571956898,2019-10-24 22:41:38.785,47.652018N 0.543161E 176m,Off,5,2.854984,1.6901376,Time OK,Free running,6500,9001,0,2019-10-24 22:35:46.000000000,
1571956958,2019-10-24 22:42:38.746,47.652018N 0.543161E 176m,Off,5,2.854984,1.6901376,Time OK,Free running,8200,9001,0,2019-10-24 22:35:46.000000000,
1571957018,2019-10-24 22:43:38.787,47.652018N 0.543161E 176m,Off,5,2.854984,1.6901376,Time OK,Free running,9800,9001,0,2019-10-24 22:35:46.000000000,
1571957078,2019-10-24 22:44:38.746,47.652018N 0.543161E 176m,Off,5,2.854984,1.6901376,Time OK,Free running,11300,9001,0,2019-10-24 22:35:46.000000000,
1571957138,2019-10-24 22:45:38.746,47.652018N 0.543161E 176m,Off,5,2.854984,1.6901376,Time OK,Free running,13100,9001,0,2019-10-24 22:35:46.000000000,
1571957198,2019-10-24 22:46:38.746,47.652018N 0.543161E 176m,Off,5,2.854984,1.6901376,Time OK,Free running,14900,9001,0,2019-10-24 22:35:46.000000000,
1571957258,2019-10-24 22:47:38.746,47.652018N 0.543161E 176m,Off,5,2.854984,1.6901376,Time OK,Free running,16500,9001,0,2019-10-24 22:35:46.000000000,
1571957318,2019-10-24 22:48:38.746,47.652018N 0.543161E 176m,Off,5,2.854984,1.6901376,Time OK,Free running,18300,9001,0,2019-10-24 22:35:46.000000000,
1571957378,2019-10-24 22:49:38.746,47.652018N 0.543161E 176m,Off,5,2.854984,1.6901376,Time OK,Free running,20200,9001,0,2019-10-24 22:35:46.000000000,
1571957438,2019-10-24 22:50:38.746,47.652018N 0.543161E 176m,Off,5,2.854984,1.6901376,Time OK,Free running,22000,9001,0,2019-10-24 22:35:46.000000000,
1571957498,2019-10-24 22:51:38.746,47.652018N 0.543161E 176m,Off,5,2.854984,1.6901376,Time OK,Free running,23200,9001,0,2019-10-24 22:35:46.000000000,
1571957558,2019-10-24 22:52:38.746,47.652018N 0.543161E 176m,Off,5,2.854984,1.6901376,Time OK,Free running,24200,9001,0,2019-10-24 22:35:46.000000000,
1571957618,2019-10-24 22:53:38.746,47.652018N 0.543161E 176m,Off,5,2.854984,1.6901376,Time OK,Free running,25500,9001,0,2019-10-24 22:35:46.000000000,
1571957678,2019-10-24 22:54:38.746,47.652018N 0.543161E 176m,Off,5,2.854984,1.6901376,Time OK,Free running,26900,9001,0,2019-10-24 22:35:46.000000000,
1571957738,2019-10-24 22:55:38.746,47.652018N 0.543161E 176m,Off,5,2.854984,1.6901376,Time OK,Free running,27900,9001,0,2019-10-24 22:35:46.000000000,
1571957798,2019-10-24 22:56:38.746,47.652018N 0.543161E 176m,Off,5,2.854984,1.6901376,Time OK,Free running,28800,9001,0,2019-10-24 22:35:46.000000000,
1571957858,2019-10-24 22:57:38.746,47.652018N 0.543161E 176m,Off,5,2.854984,1.6901376,Time OK,Free running,30100,9001,0,2019-10-24 22:35:46.000000000,
1571957918,2019-10-24 22:58:38.746,47.652018N 0.543161E 176m,Off,5,2.854984,1.6901376,Time OK,Free running,31300,9001,0,2019-10-24 22:35:46.000000000,
1571957978,2019-10-24 22:59:38.746,47.652018N 0.543161E 176m,Off,5,2.854984,1.6901376,Time OK,Free running,32500,9001,0,2019-10-24 22:35:46.000000000,
