Time(longsecs),Time(UTC),Supply Voltage(mV),Temperature(&deg;C),NMX Bus Current(mA),Sensor Current(mA),Serial Port Current(mA),Controller Current(mA),Digitizer Current(mA),
1570651226,2019-10-09 20:00:26.438,15221,2.0710205E1,0,12,0,64,37,
1570651286,2019-10-09 20:01:26.438,15221,2.085559E1,0,7,0,78,40,
1570651346,2019-10-09 20:02:26.438,15235,2.0664215E1,0,9,0,61,42,
1570651406,2019-10-09 20:03:26.438,15235,2.0477142E1,0,11,0,64,44,
1570651466,2019-10-09 20:04:26.439,15235,2.0646057E1,0,10,0,63,39,
1570651526,2019-10-09 20:05:26.438,15221,2.0539154E1,0,15,0,64,38,
1570651586,2019-10-09 20:06:26.439,15221,2.0665283E1,0,11,0,72,46,
1570651646,2019-10-09 20:07:26.439,15221,2.0636444E1,0,8,0,64,40,
1570651706,2019-10-09 20:08:26.438,15221,2.055304E1,0,13,0,55,41,
1570651766,2019-10-09 20:09:26.438,15208,2.071875E1,0,13,0,62,41,
1570651826,2019-10-09 20:10:26.438,15221,2.077005E1,0,13,0,69,43,
1570651886,2019-10-09 20:11:26.439,15221,2.0504944E1,0,10,0,63,42,
1570651946,2019-10-09 20:12:26.438,15221,2.040445E1,0,9,0,54,39,
1570652006,2019-10-09 20:13:26.471,15221,2.037558E1,0,13,0,54,39,
1570652066,2019-10-09 20:14:26.438,15221,2.026654E1,0,10,0,64,41,
1570652126,2019-10-09 20:15:26.439,15221,2.030716E1,0,6,0,62,42,
1570652186,2019-10-09 20:16:26.438,15194,2.0465393E1,0,21,0,94,40,
1570652246,2019-10-09 20:17:26.439,15208,2.0299683E1,0,10,0,64,41,
1570652306,2019-10-09 20:18:26.438,15208,2.0182068E1,0,11,0,64,39,
1570652366,2019-10-09 20:19:26.439,15235,2.0364899E1,0,10,0,66,42,
1570652426,2019-10-09 20:20:26.441,15194,2.0259064E1,0,11,0,64,39,
1570652486,2019-10-09 20:21:26.438,15208,2.0332825E1,0,11,0,63,40,
1570652546,2019-10-09 20:22:26.438,15208,2.0205597E1,0,8,0,54,40,
1570652606,2019-10-09 20:23:26.438,15208,2.0311432E1,0,10,0,54,42,
1570652666,2019-10-09 20:24:26.441,15208,2.0199188E1,0,12,0,61,40,
1570652726,2019-10-09 20:25:26.438,15208,2.0385193E1,0,16,0,63,39,
1570652786,2019-10-09 20:26:26.438,15208,2.0503876E1,0,13,0,59,37,
1570652846,2019-10-09 20:27:26.438,15194,2.0229126E1,0,11,0,56,41,
1570652906,2019-10-09 20:28:26.438,15221,2.0410858E1,0,11,0,54,39,
1570652966,2019-10-09 20:29:26.438,15208,1.9989655E1,0,8,0,59,44,
1570653026,2019-10-09 20:30:26.439,15208,2.0143585E1,0,10,0,63,38,
1570653086,2019-10-09 20:31:26.473,15208,2.0265472E1,0,10,0,65,37,
1570653146,2019-10-09 20:32:26.438,15181,2.0065552E1,0,10,0,78,43,
1570653206,2019-10-09 20:33:26.438,15194,2.0133972E1,0,11,0,78,43,
1570653266,2019-10-09 20:34:26.439,15208,2.0057007E1,0,12,0,64,41,
1570653326,2019-10-09 20:35:26.440,15166,2.020987E1,0,9,0,93,41,
1570653386,2019-10-09 20:36:26.438,15208,2.0019592E1,0,9,0,59,38,
1570653446,2019-10-09 20:37:26.439,15208,1.991269E1,0,10,0,62,41,
1570653506,2019-10-09 20:38:26.438,15208,1.9890228E1,0,11,0,56,42,
1570653566,2019-10-09 20:39:26.438,15194,1.9870972E1,0,12,0,63,42,
1570653626,2019-10-09 20:40:26.438,15194,1.99469E1,0,9,0,66,41,
1570653686,2019-10-09 20:41:26.439,15194,1.9941528E1,0,11,0,73,36,
1570653746,2019-10-09 20:42:26.439,15194,1.9925507E1,0,16,0,73,38,
1570653806,2019-10-09 20:43:26.439,15194,1.9967194E1,0,13,0,65,41,
1570653866,2019-10-09 20:44:26.439,15166,1.9834625E1,0,7,0,73,45,
1570653926,2019-10-09 20:45:26.441,15194,1.9888092E1,0,15,0,62,41,
1570653986,2019-10-09 20:46:26.439,15194,1.9770477E1,0,5,92,65,41,
1570654046,2019-10-09 20:47:26.439,15181,2.003241E1,0,12,0,85,41,
1570654106,2019-10-09 20:48:26.439,15166,1.9864563E1,0,10,0,85,39,
1570654166,2019-10-09 20:49:26.439,15194,1.9972534E1,0,9,0,63,36,
1570654226,2019-10-09 20:50:26.439,15194,1.9922302E1,0,9,0,64,41,
1570654286,2019-10-09 20:51:26.439,15194,1.9698853E1,0,9,0,64,37,
1570654346,2019-10-09 20:52:26.439,15194,1.9813263E1,0,11,0,54,42,
1570654406,2019-10-09 20:53:26.439,15194,1.9801483E1,0,15,0,66,42,
1570654466,2019-10-09 20:54:26.439,15208,1.9744843E1,0,9,0,91,39,
1570654526,2019-10-09 20:55:26.439,15181,1.9675354E1,0,9,0,94,40,
1570654586,2019-10-09 20:56:26.439,15140,1.9600525E1,0,8,0,87,37,
1570654646,2019-10-09 20:57:26.439,15153,1.9821808E1,0,10,0,54,38,
1570654706,2019-10-09 20:58:26.439,15208,1.9684967E1,0,6,0,54,41,
1570654766,2019-10-09 20:59:26.439,15194,1.9576996E1,0,9,0,64,41,
