Time(longsecs),Time(UTC),Supply Voltage(mV),Temperature(&deg;C),NMX Bus Current(mA),Sensor Current(mA),Serial Port Current(mA),Controller Current(mA),Digitizer Current(mA),
1572490811,2019-10-31 03:00:11.767,16374,1.3459991E1,0,9,0,33,42,
1572490871,2019-10-31 03:01:11.767,16387,1.323822E1,0,11,0,38,37,
1572490931,2019-10-31 03:02:11.767,16347,1.3373199E1,0,15,0,38,40,
1572490991,2019-10-31 03:03:11.767,16374,1.3479248E1,0,17,0,38,36,
1572491051,2019-10-31 03:04:11.767,16360,1.3338928E1,0,9,0,40,42,
1572491111,2019-10-31 03:05:11.767,16374,1.35060425E1,0,9,0,40,36,
1572491171,2019-10-31 03:06:11.767,16360,1.3424622E1,0,4,0,67,40,
1572491231,2019-10-31 03:07:11.767,16319,1.348996E1,0,9,0,69,39,
1572491291,2019-10-31 03:08:11.778,16360,1.3319641E1,0,11,0,38,43,
1572491351,2019-10-31 03:09:11.769,16374,1.3179321E1,0,8,0,34,41,
1572491411,2019-10-31 03:10:11.767,16374,1.335498E1,0,9,0,33,39,
1572491471,2019-10-31 03:11:11.767,16374,1.3289642E1,0,8,0,38,36,
1572491531,2019-10-31 03:12:11.767,16360,1.3483551E1,0,9,0,38,40,
1572491591,2019-10-31 03:13:11.767,16374,1.350177E1,0,8,0,38,43,
1572491651,2019-10-31 03:14:11.767,16360,1.3483551E1,0,0,0,33,40,
1572491711,2019-10-31 03:15:11.767,16374,1.345462E1,0,15,0,33,38,
1572491771,2019-10-31 03:16:11.768,16360,1.3179321E1,0,13,0,35,38,
1572491831,2019-10-31 03:17:11.769,16360,1.3287506E1,0,7,0,37,39,
1572491891,2019-10-31 03:18:11.769,16360,1.3384979E1,0,10,0,38,41,
1572491951,2019-10-31 03:19:11.767,16360,1.3269287E1,0,10,0,45,41,
1572492011,2019-10-31 03:20:11.767,16360,1.3334625E1,0,6,0,33,37,
1572492071,2019-10-31 03:21:11.767,16360,1.3391418E1,0,10,0,38,35,
1572492131,2019-10-31 03:22:11.767,16360,1.3367859E1,0,15,0,38,37,
1572492191,2019-10-31 03:23:11.767,16360,1.3282135E1,0,9,0,38,40,
1572492251,2019-10-31 03:24:11.767,16360,1.3281067E1,0,9,0,33,39,
1572492311,2019-10-31 03:25:11.767,16360,1.3428925E1,0,7,20,29,36,
1572492371,2019-10-31 03:26:11.767,16347,1.3265015E1,0,9,0,67,42,
1572492431,2019-10-31 03:27:11.767,16347,1.346106E1,0,2,0,64,39,
1572492491,2019-10-31 03:28:11.767,16360,1.3393555E1,0,9,0,39,39,
1572492551,2019-10-31 03:29:11.768,16360,1.3367859E1,0,9,0,35,42,
1572492611,2019-10-31 03:30:11.767,16360,1.3387146E1,0,9,0,33,37,
1572492671,2019-10-31 03:31:11.800,16360,1.3161102E1,0,8,0,37,40,
1572492731,2019-10-31 03:32:11.767,16360,1.3186798E1,0,8,0,38,35,
1572492791,2019-10-31 03:33:11.769,16374,1.3210358E1,0,6,0,38,36,
1572492851,2019-10-31 03:34:11.767,16360,1.3360352E1,0,11,0,35,44,
1572492911,2019-10-31 03:35:11.767,16360,1.3386047E1,0,9,0,31,41,
1572492971,2019-10-31 03:36:11.768,16360,1.3296082E1,0,0,0,35,36,
1572493031,2019-10-31 03:37:11.767,16347,1.3360352E1,0,15,0,46,37,
1572493091,2019-10-31 03:38:11.767,16347,1.3373199E1,0,4,0,38,41,
1572493151,2019-10-31 03:39:11.767,16360,1.3411774E1,0,7,0,33,40,
1572493211,2019-10-31 03:40:11.767,16360,1.3243591E1,0,9,0,36,39,
1572493271,2019-10-31 03:41:11.767,16360,1.3248932E1,0,7,0,38,39,
1572493331,2019-10-31 03:42:11.767,16347,1.3393555E1,0,8,0,37,39,
1572493391,2019-10-31 03:43:11.794,16347,1.3333557E1,0,9,0,37,40,
1572493451,2019-10-31 03:44:11.772,16347,1.3411774E1,0,1,0,36,41,
1572493511,2019-10-31 03:45:11.767,16347,1.3365692E1,0,9,0,42,39,
1572493571,2019-10-31 03:46:11.767,16347,1.3212524E1,0,7,0,37,39,
1572493631,2019-10-31 03:47:11.767,16360,1.3418213E1,0,8,0,35,37,
1572493691,2019-10-31 03:48:11.767,16347,1.3292847E1,0,4,0,30,39,
1572493751,2019-10-31 03:49:11.767,16347,1.3350708E1,0,13,0,33,37,
1572493811,2019-10-31 03:50:11.769,16347,1.3308929E1,0,11,0,34,39,
1572493871,2019-10-31 03:51:11.769,16360,1.3409637E1,0,10,0,38,44,
1572493931,2019-10-31 03:52:11.767,16347,1.3323914E1,0,6,0,35,38,
1572493991,2019-10-31 03:53:11.767,16347,1.3240356E1,0,8,0,40,39,
1572494051,2019-10-31 03:54:11.768,16347,1.3353912E1,0,9,0,22,38,
1572494111,2019-10-31 03:55:11.767,16347,1.3240356E1,0,9,0,33,40,
1572494171,2019-10-31 03:56:11.767,16347,1.3088257E1,0,6,0,35,40,
1572494231,2019-10-31 03:57:11.767,16347,1.3286438E1,15,4,0,38,39,
1572494291,2019-10-31 03:58:11.767,16347,1.3195374E1,0,6,0,39,41,
1572494351,2019-10-31 03:59:11.767,16347,1.3373199E1,0,2,0,33,40,
