Time(longsecs),Time(UTC),External SOH Voltage 1(V),External SOH Voltage 2(V),External SOH Voltage 3(V),External SOH Voltage 4(V),Sensor SOH Voltage 1(V),Sensor SOH Voltage 2(V),Sensor SOH Voltage 3(V),
1572483611,2019-10-31 01:00:11.767,-3.7314892E-3,1.2443066E-3,-2.2947788E-3,3.7543774E-3,2.2832012E-1,2.2984695E-1,2.3474312E-1,
1572483671,2019-10-31 01:01:11.768,-4.242182E-3,6.418228E-4,-2.48003E-3,3.0920506E-3,2.2703552E-1,2.2833729E-1,2.1835232E-1,
1572483731,2019-10-31 01:02:11.767,-2.029419E-3,3.4544468E-3,-6.3443184E-4,5.220413E-3,2.3419476E-1,2.3541927E-1,2.2506714E-1,
1572483791,2019-10-31 01:03:11.767,-3.931761E-3,8.6069107E-4,-2.4981499E-3,3.1194687E-3,2.2666836E-1,2.2877121E-1,2.2314453E-1,
1572483851,2019-10-31 01:04:11.768,-4.3182373E-3,4.0602684E-4,-3.1101704E-3,3.460884E-3,2.2768116E-1,2.300148E-1,2.3405743E-1,
1572483911,2019-10-31 01:05:11.767,-6.4229965E-3,-1.465559E-3,-4.4419765E-3,1.3654232E-3,2.237854E-1,2.2533798E-1,2.2154903E-1,
1572483971,2019-10-31 01:06:11.767,-1.8854141E-3,3.3450127E-3,-6.878376E-4,5.8398247E-3,2.3815441E-1,2.4051285E-1,2.3132515E-1,
1572484031,2019-10-31 01:07:11.768,-3.957033E-3,7.67231E-4,-2.7432442E-3,3.19314E-3,2.2950745E-1,2.3155689E-1,2.3160839E-1,
1572484091,2019-10-31 01:08:11.767,-6.0083866E-3,-1.144886E-3,-4.511118E-3,1.2757778E-3,2.2062588E-1,2.2383308E-1,2.183466E-1,
1572484151,2019-10-31 01:09:11.767,-6.582737E-3,-6.775856E-4,-4.8766136E-3,1.3902187E-3,2.1966267E-1,2.2234535E-1,2.196188E-1,
1572484211,2019-10-31 01:10:11.787,-4.1561127E-3,1.1713505E-3,-2.4764538E-3,3.4763813E-3,2.3093414E-1,2.332058E-1,2.2813034E-1,
1572484271,2019-10-31 01:11:11.767,-6.273508E-3,-1.1878014E-3,-4.7795773E-3,1.7876625E-3,2.222681E-1,2.2415543E-1,2.1528721E-1,
1572484331,2019-10-31 01:12:11.767,-2.2568703E-3,2.9242039E-3,-3.0207634E-4,5.49078E-3,2.3611355E-1,2.3878479E-1,2.3475266E-1,
1572484391,2019-10-31 01:13:11.768,-1.6818047E-3,3.2305717E-3,-3.3307076E-4,4.9591064E-3,2.377119E-1,2.3803997E-1,2.4204254E-1,
1572484451,2019-10-31 01:14:11.771,-3.6685467E-3,1.6980171E-3,-2.2804737E-3,4.1561127E-3,2.3084736E-1,2.3273182E-1,2.3302174E-1,
1572484511,2019-10-31 01:15:11.767,-3.468275E-3,1.6262531E-3,-1.9381046E-3,3.3843517E-3,2.2905922E-1,2.3198605E-1,2.305212E-1,
1572484571,2019-10-31 01:16:11.767,-6.1705112E-3,-1.491785E-3,-4.6937466E-3,1.298666E-3,2.217598E-1,2.2485924E-1,2.1493721E-1,
1572484631,2019-10-31 01:17:11.767,-4.57263E-3,7.529259E-4,-3.1003952E-3,3.2947063E-3,2.2921658E-1,2.2984695E-1,2.298603E-1,
1572484691,2019-10-31 01:18:11.767,-1.8703938E-3,2.8920174E-3,-1.5640259E-4,5.3465366E-3,2.3639679E-1,2.3882389E-1,2.2892475E-1,
1572484751,2019-10-31 01:19:11.817,-4.499674E-3,3.809929E-4,-2.5508404E-3,3.528595E-3,2.2861671E-1,2.3057938E-1,2.250166E-1,
1572484811,2019-10-31 01:20:11.767,-4.492283E-3,7.0667267E-4,-2.4445057E-3,2.8672218E-3,2.3069572E-1,2.3272324E-1,2.3658085E-1,
1572484871,2019-10-31 01:21:11.767,-4.39167E-3,1.1515617E-3,-2.8362274E-3,3.5152435E-3,2.2642326E-1,2.2737312E-1,2.2630215E-1,
1572484931,2019-10-31 01:22:11.767,-4.450798E-3,8.6665154E-4,-2.635479E-3,3.6845207E-3,2.3188782E-1,2.3166275E-1,2.3431778E-1,
1572484991,2019-10-31 01:23:11.767,-5.7525635E-3,-1.4445782E-3,-4.8058033E-3,1.4402866E-3,2.2258663E-1,2.2376823E-1,2.2231293E-1,
1572485051,2019-10-31 01:24:11.767,-4.657507E-3,4.4083595E-4,-2.4971962E-3,3.1192303E-3,2.2929573E-1,2.3019695E-1,2.3291683E-1,
1572485111,2019-10-31 01:25:11.767,-4.2066574E-3,4.6491623E-4,-2.6545525E-3,2.9935837E-3,2.2968006E-1,2.3197746E-1,2.3593903E-1,
1572485171,2019-10-31 01:26:11.778,-4.4083595E-3,4.6515465E-4,-2.6450157E-3,3.0989647E-3,2.310524E-1,2.3289108E-1,2.2484016E-1,
1572485231,2019-10-31 01:27:11.767,-1.8165112E-3,3.0064583E-3,-3.0303E-4,6.1118603E-3,2.3427677E-1,2.370472E-1,2.2935486E-1,
1572485291,2019-10-31 01:28:11.767,-6.462574E-3,-1.3237E-3,-4.1849613E-3,1.1730194E-3,2.2500706E-1,2.26511E-1,2.2262096E-1,
1572485351,2019-10-31 01:29:11.767,-4.65703E-3,7.240772E-4,-3.266096E-3,3.0443668E-3,2.2956753E-1,2.2951794E-1,2.3012257E-1,
1572485411,2019-10-31 01:30:11.779,-3.970623E-3,8.5663795E-4,-2.9051304E-3,3.405571E-3,2.2997952E-1,2.3102283E-1,2.247591E-1,
1572485471,2019-10-31 01:31:11.767,-2.2528172E-3,3.3547878E-3,-2.6345253E-4,5.5201054E-3,2.3439503E-1,2.3622227E-1,2.4003506E-1,
1572485531,2019-10-31 01:32:11.767,-4.3759346E-3,6.4754486E-4,-2.5894642E-3,3.1285286E-3,2.2736835E-1,2.302618E-1,2.3401928E-1,
1572485591,2019-10-31 01:33:11.803,-6.376505E-3,-1.2364388E-3,-4.395008E-3,1.2459755E-3,2.2205639E-1,2.2535801E-1,2.1902275E-1,
1572485651,2019-10-31 01:34:11.769,-3.525257E-3,1.2807846E-3,-2.2284985E-3,4.1770935E-3,2.3083687E-1,2.3184967E-1,2.2554684E-1,
1572485711,2019-10-31 01:35:11.767,-6.4635277E-3,-1.4214516E-3,-4.836321E-3,1.2731552E-3,2.2267056E-1,2.2439384E-1,2.270689E-1,
1572485771,2019-10-31 01:36:11.767,-6.352186E-3,-1.0304451E-3,-4.7876835E-3,1.1315346E-3,2.2190857E-1,2.2274685E-1,2.2136879E-1,
1572485831,2019-10-31 01:37:11.767,-4.2569637E-3,1.2714863E-3,-1.8634796E-3,3.645897E-3,2.2919941E-1,2.3053741E-1,2.2105122E-1,
1572485891,2019-10-31 01:38:11.767,-6.3695908E-3,-1.3327599E-3,-4.531622E-3,1.1651516E-3,2.2232056E-1,2.2464848E-1,2.22332E-1,
1572485951,2019-10-31 01:39:11.767,-6.174326E-3,-1.2040138E-3,-4.9130917E-3,8.971691E-4,2.2230434E-1,2.2345448E-1,2.2214508E-1,
1572486011,2019-10-31 01:40:11.767,-1.595974E-3,3.0500889E-3,-6.6423416E-4,5.5963993E-3,2.3622036E-1,2.3694038E-1,2.3718739E-1,
1572486071,2019-10-31 01:41:11.767,-1.7151833E-3,3.0863285E-3,-5.41687E-4,5.1801205E-3,2.369852E-1,2.3900318E-1,2.3122883E-1,
1572486131,2019-10-31 01:42:11.767,-6.4048767E-3,-1.5311241E-3,-5.0685406E-3,1.6744137E-3,2.2090721E-1,2.2331715E-1,2.2044468E-1,
1572486191,2019-10-31 01:43:11.767,-2.2230148E-3,3.199339E-3,3.6001205E-5,5.567074E-3,2.3533344E-1,2.3570728E-1,2.3383808E-1,
1572486251,2019-10-31 01:44:11.767,-2.1426678E-3,3.2100677E-3,-5.7530403E-4,5.694866E-3,2.3748302E-1,2.3855114E-1,2.4060154E-1,
1572486311,2019-10-31 01:45:11.767,-1.8904209E-3,3.6656857E-3,-1.1198521E-3,6.000757E-3,2.3459244E-1,2.369461E-1,2.3516178E-1,
1572486371,2019-10-31 01:46:11.767,-1.8646717E-3,3.6857128E-3,-2.7179718E-4,5.9478283E-3,2.3374844E-1,2.3448467E-1,2.320795E-1,
1572486431,2019-10-31 01:47:11.767,-2.202034E-3,3.1063557E-3,-4.6372414E-4,6.114483E-3,2.3376083E-1,2.3632812E-1,2.3090458E-1,
1572486491,2019-10-31 01:48:11.767,-4.366398E-3,5.9199333E-4,-2.3050308E-3,3.6857128E-3,2.2963333E-1,2.3219585E-1,2.269144E-1,
1572486551,2019-10-31 01:49:11.767,-3.7431717E-3,1.306057E-3,-2.7134418E-3,3.836155E-3,2.3147106E-1,2.3310757E-1,2.3386765E-1,
1572486611,2019-10-31 01:50:11.767,-3.870964E-3,9.5915794E-4,-2.2883415E-3,3.3028126E-3,2.3117161E-1,2.3379326E-1,2.3678875E-1,
1572486671,2019-10-31 01:51:11.767,-6.380558E-3,-8.239746E-4,-5.092144E-3,1.398325E-3,2.2445393E-1,2.2648048E-1,2.2249699E-1,
1572486731,2019-10-31 01:52:11.767,-1.7745495E-3,3.2644272E-3,-2.7632713E-4,6.018162E-3,2.2968197E-1,2.3173714E-1,2.2461033E-1,
1572486791,2019-10-31 01:53:11.767,-6.4558983E-3,-1.3830662E-3,-4.499674E-3,1.4805794E-3,2.2035217E-1,2.2141743E-1,2.2421932E-1,
1572486851,2019-10-31 01:54:11.767,-6.216526E-3,-1.4641285E-3,-5.0013065E-3,8.420944E-4,2.2193623E-1,2.2435856E-1,2.2588253E-1,
1572486911,2019-10-31 01:55:11.798,-1.9302368E-3,3.0105114E-3,-4.1985512E-4,5.5184364E-3,2.3469353E-1,2.3581696E-1,2.3278046E-1,
1572486971,2019-10-31 01:56:11.767,-1.6815662E-3,3.0875206E-3,-2.5510788E-4,5.7299137E-3,2.3355675E-1,2.3575974E-1,2.428751E-1,
1572487031,2019-10-31 01:57:11.767,-6.6714287E-3,-1.3020039E-3,-4.702091E-3,1.7812252E-3,2.2326565E-1,2.240696E-1,2.2779083E-1,
1572487091,2019-10-31 01:58:11.767,-3.5290718E-3,1.3697147E-3,-2.2404194E-3,4.4722557E-3,2.2753906E-1,2.3018456E-1,2.2394562E-1,
1572487151,2019-10-31 01:59:11.794,-3.6051273E-3,1.4009476E-3,-2.0320415E-3,4.191637E-3,2.3292923E-1,2.3511124E-1,2.27849E-1,
