Time(longsecs),Time(UTC),Supply Voltage(mV),Temperature(&deg;C),NMX Bus Current(mA),Sensor Current(mA),Serial Port Current(mA),Controller Current(mA),Digitizer Current(mA),
1572480011,2019-10-31 00:00:11.797,16443,1.3581024E1,0,11,0,41,37,
1572480071,2019-10-31 00:01:11.768,16429,1.3667816E1,0,9,0,38,38,
1572480131,2019-10-31 00:02:11.768,16415,1.3789917E1,0,9,0,38,43,
1572480191,2019-10-31 00:03:11.767,16415,1.3755646E1,0,6,0,38,42,
1572480251,2019-10-31 00:04:11.767,16415,1.3727783E1,0,17,0,45,37,
1572480311,2019-10-31 00:05:11.770,16415,1.3537109E1,6,9,0,47,38,
1572480371,2019-10-31 00:06:11.772,16415,1.3705292E1,0,13,0,38,37,
1572480431,2019-10-31 00:07:11.767,16415,1.3755646E1,0,9,0,38,39,
1572480491,2019-10-31 00:08:11.767,16415,1.3731018E1,0,9,0,38,40,
1572480551,2019-10-31 00:09:11.767,16415,1.3636749E1,0,10,0,32,41,
1572480611,2019-10-31 00:10:11.767,16415,1.3737427E1,0,6,0,33,36,
1572480671,2019-10-31 00:11:11.767,16415,1.3612091E1,0,3,0,36,37,
1572480731,2019-10-31 00:12:11.767,16415,1.3571381E1,0,9,0,38,38,
1572480791,2019-10-31 00:13:11.767,16415,1.3774933E1,0,6,0,38,39,
1572480851,2019-10-31 00:14:11.767,16415,1.3499603E1,0,9,0,33,47,
1572480911,2019-10-31 00:15:11.767,16415,1.3651733E1,0,4,0,33,41,
1572480971,2019-10-31 00:16:11.767,16415,1.3659241E1,0,6,0,38,37,
1572481031,2019-10-31 00:17:11.767,16402,1.3695648E1,0,9,0,35,42,
1572481091,2019-10-31 00:18:11.767,16415,1.3776001E1,0,12,0,38,38,
1572481151,2019-10-31 00:19:11.768,16415,1.3621735E1,0,9,0,36,38,
1572481211,2019-10-31 00:20:11.767,16415,1.3815643E1,0,9,0,39,37,
1572481271,2019-10-31 00:21:11.768,16415,1.3833862E1,0,7,0,38,36,
1572481331,2019-10-31 00:22:11.767,16415,1.3702087E1,0,8,0,38,36,
1572481391,2019-10-31 00:23:11.767,16415,1.3624939E1,0,9,0,38,40,
1572481451,2019-10-31 00:24:11.796,16415,1.3800629E1,0,7,0,33,37,
1572481511,2019-10-31 00:25:11.767,16415,1.3590668E1,0,15,0,35,38,
1572481571,2019-10-31 00:26:11.767,16415,1.3408569E1,0,9,0,38,38,
1572481631,2019-10-31 00:27:11.767,16387,1.3802795E1,0,8,0,38,37,
1572481691,2019-10-31 00:28:11.767,16415,1.3797424E1,0,8,0,38,41,
1572481751,2019-10-31 00:29:11.767,16415,1.3459991E1,0,6,0,33,40,
1572481811,2019-10-31 00:30:11.767,16415,1.3796356E1,0,13,0,33,40,
1572481871,2019-10-31 00:31:11.767,16415,1.3615295E1,0,9,0,39,38,
1572481931,2019-10-31 00:32:11.768,16387,1.3701019E1,0,8,0,38,42,
1572481991,2019-10-31 00:33:11.767,16387,1.3455688E1,0,9,0,38,40,
1572482051,2019-10-31 00:34:11.767,16402,1.3621735E1,0,8,0,38,38,
1572482111,2019-10-31 00:35:11.767,16402,1.3575684E1,0,4,0,38,38,
1572482171,2019-10-31 00:36:11.767,16415,1.3421417E1,0,9,0,38,42,
1572482231,2019-10-31 00:37:11.774,16402,1.3592804E1,0,8,0,40,42,
1572482291,2019-10-31 00:38:11.767,16402,1.3614227E1,5,7,0,38,39,
1572482351,2019-10-31 00:39:11.767,16387,1.3635651E1,0,10,0,33,39,
1572482411,2019-10-31 00:40:11.767,16387,1.3561737E1,0,11,0,35,38,
1572482471,2019-10-31 00:41:11.767,16387,1.3594971E1,0,11,0,38,40,
1572482531,2019-10-31 00:42:11.767,16415,1.3363556E1,0,15,0,38,40,
1572482591,2019-10-31 00:43:11.796,16429,1.3582092E1,0,9,0,38,37,
1572482651,2019-10-31 00:44:11.767,16402,1.3674225E1,0,9,0,33,39,
1572482711,2019-10-31 00:45:11.767,16387,1.3773865E1,0,7,0,38,37,
1572482771,2019-10-31 00:46:11.769,16387,1.3597107E1,0,5,0,38,36,
1572482831,2019-10-31 00:47:11.769,16387,1.3407471E1,0,10,0,38,37,
1572482891,2019-10-31 00:48:11.767,16402,1.3551025E1,0,13,0,42,37,
1572482951,2019-10-31 00:49:11.767,16387,1.3636749E1,0,15,0,33,36,
1572483011,2019-10-31 00:50:11.796,16429,1.3708496E1,0,10,0,33,40,
1572483071,2019-10-31 00:51:11.767,16402,1.371814E1,0,11,0,38,38,
1572483131,2019-10-31 00:52:11.767,16402,1.3709595E1,0,8,0,38,40,
1572483191,2019-10-31 00:53:11.767,16374,1.3725647E1,0,13,0,41,37,
1572483251,2019-10-31 00:54:11.767,16415,1.3611023E1,0,8,0,42,38,
1572483311,2019-10-31 00:55:11.767,16415,1.3485687E1,0,8,0,42,41,
1572483371,2019-10-31 00:56:11.767,16402,1.36388855E1,0,7,0,36,36,
1572483431,2019-10-31 00:57:11.775,16387,1.3597107E1,0,4,0,38,39,
1572483491,2019-10-31 00:58:11.767,16387,1.365387E1,0,6,0,37,42,
1572483551,2019-10-31 00:59:11.767,16402,1.348996E1,0,10,0,39,38,
