Time(longsecs),Time(UTC),External SOH Voltage 1(V),External SOH Voltage 2(V),External SOH Voltage 3(V),External SOH Voltage 4(V),Sensor SOH Voltage 1(V),Sensor SOH Voltage 2(V),Sensor SOH Voltage 3(V),
1572530411,2019-10-31 14:00:11.767,-3.976345E-3,3.0183792E-4,-2.2115707E-3,3.4585E-3,2.2810745E-1,2.3209667E-1,2.3119831E-1,
1572530471,2019-10-31 14:01:11.778,-6.1249733E-3,-1.1422634E-3,-4.808426E-3,1.1656284E-3,2.2355366E-1,2.2584915E-1,2.2201061E-1,
1572530531,2019-10-31 14:02:11.767,-3.3538342E-3,7.250309E-4,-9.3102455E-4,3.5672188E-3,2.3274708E-1,2.3663521E-1,2.3619747E-1,
1572530591,2019-10-31 14:03:11.767,-3.872633E-3,8.3470345E-4,-1.9450188E-3,3.479004E-3,2.3200893E-1,2.3349762E-1,2.4152088E-1,
1572530651,2019-10-31 14:04:11.767,-5.099058E-3,3.142357E-4,-2.800703E-3,3.4804344E-3,2.3091888E-1,2.330246E-1,2.3759174E-1,
1572530711,2019-10-31 14:05:11.767,-6.1080456E-3,-1.2388229E-3,-4.366398E-3,1.2593269E-3,2.2154331E-1,2.2364712E-1,2.2698975E-1,
1572530771,2019-10-31 14:06:11.767,-6.0863495E-3,-1.3062954E-3,-4.73547E-3,1.7852783E-3,2.2057724E-1,2.2393799E-1,2.2612381E-1,
1572530831,2019-10-31 14:07:11.767,-3.6685467E-3,1.2526512E-3,-1.9686222E-3,3.9231777E-3,2.3270416E-1,2.3448467E-1,2.3683643E-1,
1572530891,2019-10-31 14:08:11.767,-1.481533E-3,3.140688E-3,-3.118515E-4,5.6147575E-3,2.3776054E-1,2.402544E-1,2.3405266E-1,
1572530951,2019-10-31 14:09:11.768,-4.631996E-3,6.4373016E-4,-2.840519E-3,3.2920837E-3,2.2809601E-1,2.3132801E-1,2.1235847E-1,
1572531011,2019-10-31 14:10:11.806,-3.745079E-3,9.0384483E-4,-2.5207996E-3,4.1086674E-3,2.2996521E-1,2.2635269E-1,2.2653294E-1,
1572531071,2019-10-31 14:11:11.767,-2.1100044E-3,3.0932426E-3,-1.244545E-4,6.0400963E-3,2.3342323E-1,2.3706722E-1,2.3465824E-1,
1572531131,2019-10-31 14:12:11.767,-1.958847E-3,2.8150082E-3,-1.01327896E-4,5.73802E-3,2.3386478E-1,2.3657894E-1,2.318325E-1,
1572531191,2019-10-31 14:13:11.785,-6.131172E-3,-1.7104149E-3,-4.896164E-3,1.2154579E-3,2.2454262E-1,2.2564888E-1,2.2223568E-1,
1572531251,2019-10-31 14:14:11.767,-1.9624233E-3,2.9540062E-3,-3.4356117E-4,5.699396E-3,2.3760796E-1,2.3898411E-1,2.3558426E-1,
1572531311,2019-10-31 14:15:11.767,-1.6560555E-3,2.9776096E-3,-3.273487E-4,5.7866573E-3,2.338543E-1,2.373085E-1,2.2896385E-1,
1572531371,2019-10-31 14:16:11.767,-3.5893917E-3,1.1267662E-3,-2.6438236E-3,4.441023E-3,2.3325634E-1,2.3450375E-1,2.3325348E-1,
1572531431,2019-10-31 14:17:11.767,-6.048441E-3,-1.0881424E-3,-4.6093464E-3,1.3701916E-3,2.2038555E-1,2.2126198E-1,2.1383858E-1,
1572531491,2019-10-31 14:18:11.767,-4.809141E-3,7.9751015E-4,-2.265215E-3,2.8584003E-3,2.2972202E-1,2.302227E-1,2.2436905E-1,
1572531551,2019-10-31 14:19:11.769,-4.381895E-3,6.3848495E-4,-2.266407E-3,3.3085346E-3,2.2854519E-1,2.3003387E-1,2.1663094E-1,
1572531611,2019-10-31 14:20:11.767,-4.2436123E-3,7.381439E-4,-2.657175E-3,2.9568672E-3,2.2705269E-1,2.2957039E-1,2.280817E-1,
1572531671,2019-10-31 14:21:11.767,-4.4162273E-3,1.01161E-3,-2.7832985E-3,2.935648E-3,2.2953129E-1,2.2974682E-1,2.2794151E-1,
1572531731,2019-10-31 14:22:11.772,-5.9218407E-3,-1.01161E-3,-4.773617E-3,9.5653534E-4,2.1926689E-1,2.2301483E-1,2.162962E-1,
1572531791,2019-10-31 14:23:11.767,-2.0947456E-3,3.2215118E-3,-4.310608E-4,5.9826374E-3,2.3553944E-1,2.3873425E-1,2.355423E-1,
1572531851,2019-10-31 14:24:11.767,-6.1397552E-3,-1.1851788E-3,-4.9192905E-3,1.4946461E-3,2.2205639E-1,2.2466373E-1,2.2192287E-1,
1572531911,2019-10-31 14:25:11.767,-1.7077923E-3,2.772808E-3,1.66893E-5,5.3653717E-3,2.3519993E-1,2.3695469E-1,2.4030209E-1,
1572531971,2019-10-31 14:26:11.767,-5.9654713E-3,-1.5838146E-3,-4.7118664E-3,1.2950897E-3,2.2416115E-1,2.2588825E-1,2.2546196E-1,
1572532031,2019-10-31 14:27:11.767,-6.3199997E-3,-8.9263916E-4,-4.534006E-3,1.2807846E-3,2.2229385E-1,2.263565E-1,2.3050976E-1,
1572532091,2019-10-31 14:28:11.767,-3.7679672E-3,8.34465E-4,-1.8658638E-3,3.1545162E-3,2.3131943E-1,2.3423767E-1,2.3687363E-1,
1572532151,2019-10-31 14:29:11.767,-6.5038204E-3,-1.0352135E-3,-5.0401688E-3,1.4722347E-3,2.2048187E-1,2.2464848E-1,2.2297955E-1,
1572532211,2019-10-31 14:30:11.769,-1.7540455E-3,3.1499863E-3,-7.4982643E-4,5.8996677E-3,2.3282242E-1,2.3548317E-1,2.3288059E-1,
1572532271,2019-10-31 14:31:11.767,-6.454468E-3,-8.609295E-4,-4.7233105E-3,6.74963E-4,2.2373772E-1,2.2631836E-1,2.2628117E-1,
1572532331,2019-10-31 14:32:11.767,-6.359577E-3,-1.6822815E-3,-4.8782825E-3,6.1655045E-4,2.2232437E-1,2.2525597E-1,2.2336483E-1,
1572532391,2019-10-31 14:33:11.790,-4.2726994E-3,9.596348E-4,-2.6855469E-3,3.3915043E-3,2.2978497E-1,2.3303604E-1,2.2899628E-1,
1572532451,2019-10-31 14:34:11.767,-4.342556E-3,3.5119057E-4,-2.5496483E-3,2.835989E-3,2.2955513E-1,2.332344E-1,2.2796059E-1,
1572532511,2019-10-31 14:35:11.767,-5.980015E-3,-1.0566711E-3,-4.6436787E-3,1.2998581E-3,2.2210121E-1,2.2406483E-1,2.169056E-1,
1572532571,2019-10-31 14:36:11.767,-4.173517E-3,8.263588E-4,-2.308607E-3,3.427267E-3,2.3023129E-1,2.3185825E-1,2.2560692E-1,
1572532631,2019-10-31 14:37:11.767,-6.2332153E-3,-1.2323856E-3,-4.647732E-3,1.2946129E-3,2.2471523E-1,2.250166E-1,2.3047924E-1,
1572532691,2019-10-31 14:38:11.767,-4.627228E-3,6.082058E-4,-2.598524E-3,3.2064915E-3,2.2626877E-1,2.2874928E-1,2.2313023E-1,
1572532751,2019-10-31 14:39:11.767,-2.0906925E-3,2.995491E-3,-6.289482E-4,5.6762695E-3,2.3460674E-1,2.3604298E-1,2.199564E-1,
1572532811,2019-10-31 14:40:11.767,-1.9869804E-3,3.2453537E-3,-3.077984E-4,4.8491955E-3,2.358017E-1,2.3818493E-1,2.3317051E-1,
1572532871,2019-10-31 14:41:11.767,-6.583452E-3,-1.2619495E-3,-4.39167E-3,1.7547607E-3,2.2040653E-1,2.2262096E-1,2.2245312E-1,
1572532931,2019-10-31 14:42:11.767,-4.1587353E-3,5.142689E-4,-2.4518967E-3,3.0212402E-3,2.3012638E-1,2.3255253E-1,2.2896862E-1,
1572532991,2019-10-31 14:43:11.767,-4.0454865E-3,6.148815E-4,-3.0331612E-3,3.936529E-3,2.288866E-1,2.3125362E-1,2.3079777E-1,
1572533051,2019-10-31 14:44:11.767,-1.6691685E-3,2.7093887E-3,-6.0105324E-4,5.4380894E-3,2.3644924E-1,2.3694229E-1,2.4059582E-1,
1572533111,2019-10-31 14:45:11.767,-1.9316673E-3,2.6435852E-3,-3.8671494E-4,5.850315E-3,2.3138618E-1,2.3306084E-1,2.155304E-1,
1572533171,2019-10-31 14:46:11.769,-4.1327477E-3,6.041527E-4,-3.3068657E-3,3.1545162E-3,2.2891712E-1,2.3105049E-1,2.3279667E-1,
1572533231,2019-10-31 14:47:11.767,-2.1634102E-3,3.0269623E-3,5.233288E-4,5.3777695E-3,2.3685837E-1,2.3903275E-1,2.4168873E-1,
1572533291,2019-10-31 14:48:11.767,-5.897045E-3,-8.3971024E-4,-4.3702126E-3,1.6789436E-3,2.2551918E-1,2.2592258E-1,2.2018337E-1,
1572533351,2019-10-31 14:49:11.767,-4.337549E-3,4.2152405E-4,-2.8767586E-3,3.0822754E-3,2.2850037E-1,2.3047161E-1,2.2704983E-1,
1572533411,2019-10-31 14:50:11.767,-3.4611225E-3,1.2989044E-3,-2.2394657E-3,3.8046837E-3,2.2793102E-1,2.3048687E-1,2.3163986E-1,
1572533471,2019-10-31 14:51:11.767,-3.7047863E-3,6.008148E-4,-2.112627E-3,4.5251846E-3,2.3061848E-1,2.3293781E-1,2.2964764E-1,
1572533531,2019-10-31 14:52:11.767,-6.4208508E-3,-1.5523434E-3,-4.409075E-3,9.4366074E-4,2.2554302E-1,2.2545433E-1,2.2942829E-1,
1572533591,2019-10-31 14:53:11.767,-4.6806335E-3,7.555485E-4,-2.739191E-3,3.3681393E-3,2.2670269E-1,2.2938156E-1,2.2105217E-1,
1572533651,2019-10-31 14:54:11.767,-6.151676E-3,-8.609295E-4,-4.390955E-3,6.8950653E-4,2.2409439E-1,2.2627544E-1,2.2452259E-1,
1572533711,2019-10-31 14:55:11.767,-4.2369366E-3,6.5016747E-4,-2.065897E-3,2.8865337E-3,2.2845745E-1,2.3030663E-1,2.2609234E-1,
1572533771,2019-10-31 14:56:11.768,-3.6816597E-3,1.004219E-3,-2.149105E-3,3.2484531E-3,2.276411E-1,2.3042774E-1,2.1760368E-1,
1572533831,2019-10-31 14:57:11.768,-2.4750233E-3,2.9184818E-3,-1.7118454E-4,5.8791637E-3,2.3415565E-1,2.3665714E-1,2.272501E-1,
1572533891,2019-10-31 14:58:11.767,-4.172802E-3,1.2419224E-3,-1.6903877E-3,4.0006638E-3,2.30443E-1,2.3250008E-1,2.2707653E-1,
1572533951,2019-10-31 14:59:11.767,-6.3226223E-3,-1.4281273E-3,-4.62389E-3,1.1160374E-3,2.249775E-1,2.2768116E-1,2.267437E-1,
