Time(longsecs),Time(UTC),Earth Location,GPS Receiver Status,GPS Satellites Used,GPS PDOP,GPS TDOP,Timing Status,Timing Phase Lock,Timing Uncertainty(ns),DAC Count,Timing Error(ns),GPS Last Update Time,
1572562811,2019-10-31 23:00:11.767,47.651118N 0.578039E 188m,Off,7,2.3627784,1.3943785,Time OK,Free running,30700,8435,0,2019-10-31 22:28:36.000000000,
1572562871,2019-10-31 23:01:11.767,47.651118N 0.578039E 188m,Off,7,2.3627784,1.3943785,Time OK,Free running,31700,8435,0,2019-10-31 22:28:36.000000000,
1572562931,2019-10-31 23:02:11.769,47.651118N 0.578039E 188m,Off,7,2.3627784,1.3943785,Time OK,Free running,32700,8435,0,2019-10-31 22:28:36.000000000,
1572562991,2019-10-31 23:03:11.767,47.651118N 0.578039E 188m,Off,7,2.3627784,1.3943785,Time OK,Free running,33500,8435,0,2019-10-31 22:28:36.000000000,
1572563051,2019-10-31 23:04:11.767,47.651118N 0.578039E 188m,Off,7,2.3627784,1.3943785,Time OK,Free running,34400,8435,0,2019-10-31 22:28:36.000000000,
1572563111,2019-10-31 23:05:11.767,47.651118N 0.578039E 188m,Off,7,2.3627784,1.3943785,Time OK,Free running,35400,8435,0,2019-10-31 22:28:36.000000000,
1572563171,2019-10-31 23:06:11.767,47.651118N 0.578039E 188m,Off,7,2.3627784,1.3943785,Time OK,Free running,36300,8435,0,2019-10-31 22:28:36.000000000,
1572563231,2019-10-31 23:07:11.767,47.651118N 0.578039E 188m,Off,7,2.3627784,1.3943785,Time OK,Free running,37300,8435,0,2019-10-31 22:28:36.000000000,
1572563291,2019-10-31 23:08:11.767,47.651118N 0.578039E 188m,Off,7,2.3627784,1.3943785,Time OK,Free running,38200,8435,0,2019-10-31 22:28:36.000000000,
1572563351,2019-10-31 23:09:11.767,47.651118N 0.578039E 188m,Off,7,2.3627784,1.3943785,Time OK,Free running,39000,8435,0,2019-10-31 22:28:36.000000000,
1572563411,2019-10-31 23:10:11.817,47.651118N 0.578039E 188m,Off,7,2.3627784,1.3943785,Time OK,Free running,39900,8435,0,2019-10-31 22:28:36.000000000,
1572563471,2019-10-31 23:11:11.767,47.651118N 0.578039E 188m,Off,7,2.3627784,1.3943785,Time OK,Free running,40800,8435,0,2019-10-31 22:28:36.000000000,
1572563531,2019-10-31 23:12:11.767,47.651118N 0.578039E 188m,Off,7,2.3627784,1.3943785,Time OK,Free running,41600,8435,0,2019-10-31 22:28:36.000000000,
1572563591,2019-10-31 23:13:11.767,47.651118N 0.578039E 188m,Off,7,2.3627784,1.3943785,Time OK,Free running,42700,8435,0,2019-10-31 22:28:36.000000000,
1572563651,2019-10-31 23:14:11.767,47.651118N 0.578039E 188m,Off,7,2.3627784,1.3943785,Time OK,Free running,43500,8435,0,2019-10-31 22:28:36.000000000,
1572563711,2019-10-31 23:15:11.767,47.651118N 0.578039E 188m,Off,7,2.3627784,1.3943785,Time OK,Free running,44300,8435,0,2019-10-31 22:28:36.000000000,
1572563771,2019-10-31 23:16:11.767,47.651118N 0.578039E 188m,Off,7,2.3627784,1.3943785,Time OK,Free running,45200,8435,0,2019-10-31 22:28:36.000000000,
1572563831,2019-10-31 23:17:11.767,47.651118N 0.578039E 188m,Off,7,2.3627784,1.3943785,Time OK,Free running,46000,8435,0,2019-10-31 22:28:36.000000000,
1572563891,2019-10-31 23:18:11.767,47.651118N 0.578039E 188m,Off,7,2.3627784,1.3943785,Time OK,Free running,46900,8435,0,2019-10-31 22:28:36.000000000,
1572563951,2019-10-31 23:19:11.767,47.651118N 0.578039E 188m,Off,7,2.3627784,1.3943785,Time OK,Free running,47900,8435,0,2019-10-31 22:28:36.000000000,
1572564011,2019-10-31 23:20:11.767,47.651118N 0.578039E 188m,Off,7,2.3627784,1.3943785,Time OK,Free running,48800,8435,0,2019-10-31 22:28:36.000000000,
1572564071,2019-10-31 23:21:11.767,47.651118N 0.578039E 188m,Off,7,2.3627784,1.3943785,Time OK,Free running,49600,8435,0,2019-10-31 22:28:36.000000000,
1572564131,2019-10-31 23:22:11.767,47.651118N 0.578039E 188m,Off,7,2.3627784,1.3943785,Time OK,Free running,50500,8435,0,2019-10-31 22:28:36.000000000,
1572564191,2019-10-31 23:23:11.792,47.651118N 0.578039E 188m,Doing fixes,6,2.951568,1.8421019,Time OK,Coarse lock,100,8271,1562,2019-10-31 23:23:11.000000000,
1572564251,2019-10-31 23:24:11.767,47.651118N 0.578039E 188m,Doing fixes,7,2.6129818,1.5891159,Time OK,Fine lock,100,8431,0,2019-10-31 23:24:11.000000000,
1572564311,2019-10-31 23:25:11.767,47.651118N 0.578039E 188m,Doing fixes,7,2.4929564,1.4480348,Time OK,Fine lock,100,8432,0,2019-10-31 23:25:11.000000000,
1572564371,2019-10-31 23:26:11.767,47.651118N 0.578039E 188m,Off,6,2.9363341,1.8280745,Time OK,Free running,100,8432,0,2019-10-31 23:26:06.000000000,
1572564431,2019-10-31 23:27:11.768,47.651118N 0.578039E 188m,Off,6,2.9363341,1.8280745,Time OK,Free running,900,8432,0,2019-10-31 23:26:06.000000000,
1572564491,2019-10-31 23:28:11.767,47.651118N 0.578039E 188m,Off,6,2.9363341,1.8280745,Time OK,Free running,1800,8432,0,2019-10-31 23:26:06.000000000,
1572564551,2019-10-31 23:29:11.767,47.651118N 0.578039E 188m,Off,6,2.9363341,1.8280745,Time OK,Free running,2900,8432,0,2019-10-31 23:26:06.000000000,
1572564611,2019-10-31 23:30:11.767,47.651118N 0.578039E 188m,Off,6,2.9363341,1.8280745,Time OK,Free running,4100,8432,0,2019-10-31 23:26:06.000000000,
1572564671,2019-10-31 23:31:11.767,47.651118N 0.578039E 188m,Off,6,2.9363341,1.8280745,Time OK,Free running,5300,8432,0,2019-10-31 23:26:06.000000000,
1572564731,2019-10-31 23:32:11.767,47.651118N 0.578039E 188m,Off,6,2.9363341,1.8280745,Time OK,Free running,6400,8432,0,2019-10-31 23:26:06.000000000,
1572564791,2019-10-31 23:33:11.767,47.651118N 0.578039E 188m,Off,6,2.9363341,1.8280745,Time OK,Free running,7400,8432,0,2019-10-31 23:26:06.000000000,
1572564851,2019-10-31 23:34:11.767,47.651118N 0.578039E 188m,Off,6,2.9363341,1.8280745,Time OK,Free running,8400,8432,0,2019-10-31 23:26:06.000000000,
1572564911,2019-10-31 23:35:11.767,47.651118N 0.578039E 188m,Off,6,2.9363341,1.8280745,Time OK,Free running,9500,8432,0,2019-10-31 23:26:06.000000000,
1572564971,2019-10-31 23:36:11.767,47.651118N 0.578039E 188m,Off,6,2.9363341,1.8280745,Time OK,Free running,10600,8432,0,2019-10-31 23:26:06.000000000,
1572565031,2019-10-31 23:37:11.767,47.651118N 0.578039E 188m,Off,6,2.9363341,1.8280745,Time OK,Free running,11500,8432,0,2019-10-31 23:26:06.000000000,
1572565091,2019-10-31 23:38:11.767,47.651118N 0.578039E 188m,Off,6,2.9363341,1.8280745,Time OK,Free running,12300,8432,0,2019-10-31 23:26:06.000000000,
1572565151,2019-10-31 23:39:11.768,47.651118N 0.578039E 188m,Off,6,2.9363341,1.8280745,Time OK,Free running,13100,8432,0,2019-10-31 23:26:06.000000000,
1572565211,2019-10-31 23:40:11.767,47.651118N 0.578039E 188m,Off,6,2.9363341,1.8280745,Time OK,Free running,14100,8432,0,2019-10-31 23:26:06.000000000,
1572565271,2019-10-31 23:41:11.767,47.651118N 0.578039E 188m,Off,6,2.9363341,1.8280745,Time OK,Free running,15200,8432,0,2019-10-31 23:26:06.000000000,
1572565331,2019-10-31 23:42:11.767,47.651118N 0.578039E 188m,Off,6,2.9363341,1.8280745,Time OK,Free running,16100,8432,0,2019-10-31 23:26:06.000000000,
1572565391,2019-10-31 23:43:11.768,47.651118N 0.578039E 188m,Off,6,2.9363341,1.8280745,Time OK,Free running,17100,8432,0,2019-10-31 23:26:06.000000000,
1572565451,2019-10-31 23:44:11.768,47.651118N 0.578039E 188m,Off,6,2.9363341,1.8280745,Time OK,Free running,17900,8432,0,2019-10-31 23:26:06.000000000,
1572565511,2019-10-31 23:45:11.767,47.651118N 0.578039E 188m,Off,6,2.9363341,1.8280745,Time OK,Free running,18700,8432,0,2019-10-31 23:26:06.000000000,
1572565571,2019-10-31 23:46:11.767,47.651118N 0.578039E 188m,Off,6,2.9363341,1.8280745,Time OK,Free running,19700,8432,0,2019-10-31 23:26:06.000000000,
1572565631,2019-10-31 23:47:11.792,47.651118N 0.578039E 188m,Off,6,2.9363341,1.8280745,Time OK,Free running,20600,8432,0,2019-10-31 23:26:06.000000000,
1572565691,2019-10-31 23:48:11.767,47.651118N 0.578039E 188m,Off,6,2.9363341,1.8280745,Time OK,Free running,21400,8432,0,2019-10-31 23:26:06.000000000,
1572565751,2019-10-31 23:49:11.767,47.651118N 0.578039E 188m,Off,6,2.9363341,1.8280745,Time OK,Free running,22300,8432,0,2019-10-31 23:26:06.000000000,
1572565811,2019-10-31 23:50:11.769,47.651118N 0.578039E 188m,Off,6,2.9363341,1.8280745,Time OK,Free running,23300,8432,0,2019-10-31 23:26:06.000000000,
1572565871,2019-10-31 23:51:11.767,47.651118N 0.578039E 188m,Off,6,2.9363341,1.8280745,Time OK,Free running,24200,8432,0,2019-10-31 23:26:06.000000000,
1572565931,2019-10-31 23:52:11.768,47.651118N 0.578039E 188m,Off,6,2.9363341,1.8280745,Time OK,Free running,25200,8432,0,2019-10-31 23:26:06.000000000,
1572565991,2019-10-31 23:53:11.767,47.651118N 0.578039E 188m,Off,6,2.9363341,1.8280745,Time OK,Free running,26000,8432,0,2019-10-31 23:26:06.000000000,
1572566051,2019-10-31 23:54:11.767,47.651118N 0.578039E 188m,Off,6,2.9363341,1.8280745,Time OK,Free running,27100,8432,0,2019-10-31 23:26:06.000000000,
1572566111,2019-10-31 23:55:11.767,47.651118N 0.578039E 188m,Off,6,2.9363341,1.8280745,Time OK,Free running,28100,8432,0,2019-10-31 23:26:06.000000000,
1572566171,2019-10-31 23:56:11.767,47.651118N 0.578039E 188m,Off,6,2.9363341,1.8280745,Time OK,Free running,28900,8432,0,2019-10-31 23:26:06.000000000,
1572566231,2019-10-31 23:57:11.767,47.651118N 0.578039E 188m,Off,6,2.9363341,1.8280745,Time OK,Free running,29700,8432,0,2019-10-31 23:26:06.000000000,
1572566291,2019-10-31 23:58:11.767,47.651118N 0.578039E 188m,Off,6,2.9363341,1.8280745,Time OK,Free running,30600,8432,0,2019-10-31 23:26:06.000000000,
1572566351,2019-10-31 23:59:11.767,47.651118N 0.578039E 188m,Off,6,2.9363341,1.8280745,Time OK,Free running,31500,8432,0,2019-10-31 23:26:06.000000000,
