Time(longsecs),Time(UTC),Earth location,GNSS receiver status,GNSS satellites used,Timing status,Phase lock loop status,Time uncertainty(ns),Timing DAC count,Time quality(&#37;),Time error(ns),
1571371200,2019-10-18 04:00:00.000,47.646767N 0.576477E 176m,Off,8,Time OK,Free running,7600,8383,90,0,
1571371500,2019-10-18 04:05:00.000,47.646767N 0.576477E 176m,Off,8,Time OK,Free running,16100,8383,90,0,
1571371800,2019-10-18 04:10:00.000,47.646767N 0.576477E 176m,Off,8,Time OK,Free running,25400,8383,90,0,
1571372100,2019-10-18 04:15:00.000,47.646767N 0.576477E 176m,Off,8,Time OK,Free running,35900,8383,90,0,
1571372400,2019-10-18 04:20:00.000,47.646767N 0.576477E 176m,Off,8,Time OK,Free running,47600,8383,90,0,
1571372700,2019-10-18 04:25:00.000,47.646767N 0.576477E 176m,Off,6,Time OK,Free running,400,8382,90,0,
1571373000,2019-10-18 04:30:00.000,47.646767N 0.576477E 176m,Off,6,Time OK,Free running,9100,8382,90,0,
1571373300,2019-10-18 04:35:00.000,47.646767N 0.576477E 176m,Off,6,Time OK,Free running,18000,8382,90,0,
1571373600,2019-10-18 04:40:00.000,47.646767N 0.576477E 176m,Off,6,Time OK,Free running,27800,8382,90,0,
1571373900,2019-10-18 04:45:00.000,47.646767N 0.576477E 176m,Off,6,Time OK,Free running,39300,8382,90,0,
1571374200,2019-10-18 04:50:00.000,47.646767N 0.576477E 176m,GNSS unlocked,0,Time OK,Free running,51600,8382,90,0,
1571374500,2019-10-18 04:55:00.000,47.646767N 0.576477E 176m,Off,6,Time OK,Free running,4300,8384,90,0,
