Time(longsecs),Time(UTC),Supply voltage(V),Total current(A),Temperature(&deg;C),
1571583600,2019-10-20 15:00:00.000,1.3315050405E1,9.3755450898288E-2,2.3968E1,
1571583900,2019-10-20 15:05:00.000,1.330158726E1,9.3028664457216E-2,2.3906E1,
1571584200,2019-10-20 15:10:00.000,1.3288124114999999E1,1.25734054305456E-1,2.3843E1,
1571584500,2019-10-20 15:15:00.000,1.330158726E1,9.3755450898288E-2,2.3812E1,
1571584800,2019-10-20 15:20:00.000,1.330158726E1,9.3028664457216E-2,2.375E1,
1571585100,2019-10-20 15:25:00.000,1.3288124114999999E1,9.5209023780432E-2,2.3656E1,
1571585400,2019-10-20 15:30:00.000,1.330158726E1,9.448223733936E-2,2.3593E1,
1571585700,2019-10-20 15:35:00.000,1.3288124114999999E1,1.26460840746528E-1,2.3531E1,
1571586000,2019-10-20 15:40:00.000,1.330158726E1,9.448223733936E-2,2.3531E1,
1571586300,2019-10-20 15:45:00.000,1.330158726E1,9.3028664457216E-2,2.3468E1,
1571586600,2019-10-20 15:50:00.000,1.3288124114999999E1,9.3755450898288E-2,2.3406E1,
1571586900,2019-10-20 15:55:00.000,1.330158726E1,9.448223733936E-2,2.3281E1,
