Time(longsecs),Time(UTC),Sensor SOH Voltage A 1(uV),Sensor SOH Voltage A 2(uV),Sensor SOH Voltage A 3(uV),External SOH Voltage 1(uV),External SOH Voltage 2(uV),External SOH Voltage 3(uV),
1570932000,2019-10-13 02:00:00.000,,,,464562,465488,466176,
1570932000,2019-10-13 02:00:00.000,-981832,,,,,,
1570932300,2019-10-13 02:05:00.000,-987990,,,,,,
1570933800,2019-10-13 02:30:00.000,,,,464561,465490,466175,
1570932600,2019-10-13 02:10:00.000,-981908,,,,,,
1570932900,2019-10-13 02:15:00.000,-988052,,,,,,
1570933200,2019-10-13 02:20:00.000,-981796,,,,,,
1570933500,2019-10-13 02:25:00.000,-987422,,,,,,
1570933800,2019-10-13 02:30:00.000,-983805,,,,,,
1570934100,2019-10-13 02:35:00.000,-983698,,,,,,
1570934400,2019-10-13 02:40:00.000,-988024,,,,,,
1570934700,2019-10-13 02:45:00.000,-987950,,,,,,
1570935000,2019-10-13 02:50:00.000,-979761,,,,,,
1570935300,2019-10-13 02:55:00.000,-981572,,,,,,
