Time(longsecs),Time(UTC),Sensor SOH Voltage A 1(uV),Sensor SOH Voltage A 2(uV),Sensor SOH Voltage A 3(uV),External SOH Voltage 1(uV),External SOH Voltage 2(uV),External SOH Voltage 3(uV),
1570550400,2019-10-08 16:00:00.000,,,,464591,465515,466196,
1570550400,2019-10-08 16:00:00.000,-796226,,,,,,
1570550700,2019-10-08 16:05:00.000,-794074,,,,,,
1570552200,2019-10-08 16:30:00.000,,,,464599,465518,466193,
1570551000,2019-10-08 16:10:00.000,-797048,,,,,,
1570551300,2019-10-08 16:15:00.000,-799250,,,,,,
1570551600,2019-10-08 16:20:00.000,-795201,,,,,,
1570551900,2019-10-08 16:25:00.000,-801300,,,,,,
1570552200,2019-10-08 16:30:00.000,-800275,,,,,,
1570552500,2019-10-08 16:35:00.000,-830951,,,,,,
1570552800,2019-10-08 16:40:00.000,-858778,,,,,,
1570553100,2019-10-08 16:45:00.000,-887307,,,,,,
1570553400,2019-10-08 16:50:00.000,-942181,,,,,,
1570553700,2019-10-08 16:55:00.000,-930393,,,,,,
