Time(longsecs),Time(UTC),Supply voltage(V),Total current(A),Temperature(&deg;C),
1572465600,2019-10-30 20:00:00.000,1.3247734679999999E1,1.271876271876E-1,1.9562E1,
1572465900,2019-10-30 20:05:00.000,1.3261197825E1,9.448223733936E-2,1.9593E1,
1572466200,2019-10-30 20:10:00.000,1.3261197825E1,9.5209023780432E-2,1.9625E1,
1572466500,2019-10-30 20:15:00.000,1.3261197825E1,9.3755450898288E-2,1.9593E1,
1572466800,2019-10-30 20:20:00.000,1.3261197825E1,9.3755450898288E-2,1.9562E1,
1572467100,2019-10-30 20:25:00.000,1.3261197825E1,9.3755450898288E-2,1.95E1,
1572467400,2019-10-30 20:30:00.000,1.3261197825E1,9.3755450898288E-2,1.95E1,
1572467700,2019-10-30 20:35:00.000,1.3261197825E1,9.448223733936E-2,1.9531E1,
1572468000,2019-10-30 20:40:00.000,1.3261197825E1,9.3755450898288E-2,1.9531E1,
1572468300,2019-10-30 20:45:00.000,1.3261197825E1,9.3755450898288E-2,1.95E1,
1572468600,2019-10-30 20:50:00.000,1.3261197825E1,9.3028664457216E-2,1.95E1,
1572468900,2019-10-30 20:55:00.000,1.3247734679999999E1,9.3755450898288E-2,1.9468E1,
