Time(longsecs),Time(UTC),Earth location,GNSS receiver status,GNSS satellites used,Timing status,Phase lock loop status,Time uncertainty(ns),Timing DAC count,Time quality(&#37;),Time error(ns),
1571392800,2019-10-18 10:00:00.000,47.646767N 0.576477E 176m,Off,9,Time OK,Free running,50100,8378,90,0,
1571393100,2019-10-18 10:05:00.000,47.646767N 0.576477E 176m,Off,8,Time OK,Free running,3800,8377,90,0,
1571393400,2019-10-18 10:10:00.000,47.646767N 0.576477E 176m,Off,8,Time OK,Free running,22700,8377,90,0,
1571393700,2019-10-18 10:15:00.000,47.646767N 0.576477E 176m,GNSS locked,5,Time OK,Coarse lock,900,8401,90,-833,
1571394000,2019-10-18 10:20:00.000,47.646767N 0.576477E 176m,Off,10,Time OK,Free running,8000,8385,90,0,
1571394300,2019-10-18 10:25:00.000,47.646767N 0.576477E 176m,Off,10,Time OK,Free running,31700,8385,90,0,
1571394600,2019-10-18 10:30:00.000,47.646767N 0.576477E 176m,GNSS locked,10,Time OK,Fine lock,500,8382,100,416,
1571394900,2019-10-18 10:35:00.000,47.646767N 0.576477E 176m,Off,9,Time OK,Free running,8400,8376,90,0,
1571395200,2019-10-18 10:40:00.000,47.646767N 0.576477E 176m,Off,9,Time OK,Free running,29400,8376,90,0,
1571395500,2019-10-18 10:45:00.000,47.646767N 0.576477E 176m,GNSS locked,5,Time OK,Coarse lock,500,8370,90,416,
1571395800,2019-10-18 10:50:00.000,47.646767N 0.576477E 176m,Off,7,Time OK,Free running,7900,8362,90,0,
1571396100,2019-10-18 10:55:00.000,47.646767N 0.576477E 176m,Off,7,Time OK,Free running,20800,8362,90,0,
