Time(longsecs),Time(UTC),Sensor SOH Voltage A 1(uV),Sensor SOH Voltage A 2(uV),Sensor SOH Voltage A 3(uV),External SOH Voltage 1(uV),External SOH Voltage 2(uV),External SOH Voltage 3(uV),
1570788000,2019-10-11 10:00:00.000,,,,464660,465565,466213,
1570788000,2019-10-11 10:00:00.000,-973232,,,,,,
1570788300,2019-10-11 10:05:00.000,-979250,,,,,,
1570789800,2019-10-11 10:30:00.000,,,,464591,465528,466195,
1570788600,2019-10-11 10:10:00.000,-973533,,,,,,
1570788900,2019-10-11 10:15:00.000,-973670,,,,,,
1570789200,2019-10-11 10:20:00.000,-977064,,,,,,
1570789500,2019-10-11 10:25:00.000,-973619,,,,,,
1570789800,2019-10-11 10:30:00.000,-973529,,,,,,
1570790100,2019-10-11 10:35:00.000,-971692,,,,,,
1570790400,2019-10-11 10:40:00.000,-973588,,,,,,
1570790700,2019-10-11 10:45:00.000,-973622,,,,,,
1570791000,2019-10-11 10:50:00.000,-973529,,,,,,
1570791300,2019-10-11 10:55:00.000,-971615,,,,,,
