Time(longsecs),Time(UTC),Supply voltage(V),Total current(A),Temperature(&deg;C),
1570827600,2019-10-11 21:00:00.000,1.526720643E1,1.03930461073296E-1,2.7937E1,
1570827900,2019-10-11 21:05:00.000,1.526720643E1,1.02476888191152E-1,2.7875E1,
1570828200,2019-10-11 21:10:00.000,1.526720643E1,1.03930461073296E-1,2.7812E1,
1570828500,2019-10-11 21:15:00.000,1.5253743284999999E1,1.31548345834032E-1,2.7781E1,
1570828800,2019-10-11 21:20:00.000,1.526720643E1,1.03203674632224E-1,2.7781E1,
1570829100,2019-10-11 21:25:00.000,1.526720643E1,1.02476888191152E-1,2.775E1,
1570829400,2019-10-11 21:30:00.000,1.526720643E1,1.03203674632224E-1,2.7718E1,
1570829700,2019-10-11 21:35:00.000,1.526720643E1,1.03930461073296E-1,2.7656E1,
1570830000,2019-10-11 21:40:00.000,1.5253743284999999E1,1.04657247514368E-1,2.7593E1,
1570830300,2019-10-11 21:45:00.000,1.524028014E1,1.3445549159832E-1,2.7593E1,
1570830600,2019-10-11 21:50:00.000,1.5253743284999999E1,1.03930461073296E-1,2.7593E1,
1570830900,2019-10-11 21:55:00.000,1.5253743284999999E1,1.02476888191152E-1,2.7593E1,
