Time(longsecs),Time(UTC),Sensor SOH Voltage A 1(uV),Sensor SOH Voltage A 2(uV),Sensor SOH Voltage A 3(uV),External SOH Voltage 1(uV),External SOH Voltage 2(uV),External SOH Voltage 3(uV),
1571216400,2019-10-16 09:00:00.000,,,,464658,465594,466229,
1571216400,2019-10-16 09:00:00.000,-971615,,,,,,
1571218200,2019-10-16 09:30:00.000,,,,464650,465605,466210,
1571216700,2019-10-16 09:05:00.000,-969339,,,,,,
1571217000,2019-10-16 09:10:00.000,-971300,,,,,,
1571217300,2019-10-16 09:15:00.000,-979166,,,,,,
1571217600,2019-10-16 09:20:00.000,-977429,,,,,,
1571217900,2019-10-16 09:25:00.000,-973438,,,,,,
1571218200,2019-10-16 09:30:00.000,-973462,,,,,,
1571218500,2019-10-16 09:35:00.000,-973486,,,,,,
1571218800,2019-10-16 09:40:00.000,-978961,,,,,,
1571219100,2019-10-16 09:45:00.000,-973330,,,,,,
1571219400,2019-10-16 09:50:00.000,-973541,,,,,,
1571219700,2019-10-16 09:55:00.000,-979319,,,,,,
