Time(longsecs),Time(UTC),Supply voltage(V),Total current(A),Temperature(&deg;C),
1570402800,2019-10-06 23:00:00.000,1.2830377185E1,1.2210012210009599E-1,2.7968E1,
1570403100,2019-10-06 23:05:00.000,1.2830377185E1,1.21373335659024E-1,2.7906E1,
1570403400,2019-10-06 23:10:00.000,1.2830377185E1,1.21373335659024E-1,2.7843E1,
1570403700,2019-10-06 23:15:00.000,1.2830377185E1,1.2210012210009599E-1,2.7843E1,
1570404000,2019-10-06 23:20:00.000,1.2803450895E1,1.77335891621568E-1,2.7812E1,
1570404300,2019-10-06 23:25:00.000,1.2816914039999999E1,1.2355369498224E-1,2.7812E1,
1570404600,2019-10-06 23:30:00.000,1.2816914039999999E1,1.22826908541168E-1,2.7781E1,
1570404900,2019-10-06 23:35:00.000,1.2816914039999999E1,1.2210012210009599E-1,2.775E1,
1570405200,2019-10-06 23:40:00.000,1.2816914039999999E1,1.2210012210009599E-1,2.7718E1,
1570405500,2019-10-06 23:45:00.000,1.2803450895E1,1.24280481423312E-1,2.7656E1,
1570405800,2019-10-06 23:50:00.000,1.278998775E1,1.5843944415369599E-1,2.7656E1,
1570406100,2019-10-06 23:55:00.000,1.2803450895E1,1.21373335659024E-1,2.7687E1,
