Time(longsecs),Time(UTC),Earth location,GNSS receiver status,GNSS satellites used,Timing status,Phase lock loop status,Time uncertainty(ns),Timing DAC count,Time quality(&#37;),Time error(ns),
1571288400,2019-10-17 05:00:00.000,47.646767N 0.576477E 176m,Off,7,Time OK,Free running,23100,8378,90,0,
1571288700,2019-10-17 05:05:00.000,47.646767N 0.576477E 176m,Off,7,Time OK,Free running,32300,8378,90,0,
1571289000,2019-10-17 05:10:00.000,47.646767N 0.576477E 176m,Off,7,Time OK,Free running,40900,8378,90,0,
1571289300,2019-10-17 05:15:00.000,47.646767N 0.576477E 176m,Off,7,Time OK,Free running,49700,8378,90,0,
1571289600,2019-10-17 05:20:00.000,47.646767N 0.576477E 176m,Off,7,Time OK,Free running,2500,8379,90,0,
1571289900,2019-10-17 05:25:00.000,47.646767N 0.576477E 176m,Off,7,Time OK,Free running,11700,8379,90,0,
1571290200,2019-10-17 05:30:00.000,47.646767N 0.576477E 176m,Off,7,Time OK,Free running,21000,8379,90,0,
1571290500,2019-10-17 05:35:00.000,47.646767N 0.576477E 176m,Off,7,Time OK,Free running,29800,8379,90,0,
1571290800,2019-10-17 05:40:00.000,47.646767N 0.576477E 176m,Off,7,Time OK,Free running,38400,8379,90,0,
1571291100,2019-10-17 05:45:00.000,47.646767N 0.576477E 176m,Off,7,Time OK,Free running,47600,8379,90,0,
1571291400,2019-10-17 05:50:00.000,47.646767N 0.576477E 176m,Off,8,Time OK,Free running,800,8386,90,0,
1571291700,2019-10-17 05:55:00.000,47.646767N 0.576477E 176m,Off,8,Time OK,Free running,9500,8386,90,0,
