Time(longsecs),Time(UTC),Supply voltage(V),Total current(A),Temperature(&deg;C),
1570856400,2019-10-12 05:00:00.000,1.513257498E1,1.03930461073296E-1,2.6218E1,
1570856700,2019-10-12 05:05:00.000,1.513257498E1,1.03930461073296E-1,2.6156E1,
1570857000,2019-10-12 05:10:00.000,1.5105648689999999E1,1.453572882144E-1,2.6093E1,
1570857300,2019-10-12 05:15:00.000,1.513257498E1,1.03203674632224E-1,2.6156E1,
1570857600,2019-10-12 05:20:00.000,1.513257498E1,1.04657247514368E-1,2.6125E1,
1570857900,2019-10-12 05:25:00.000,1.513257498E1,1.03203674632224E-1,2.6062E1,
1570858200,2019-10-12 05:30:00.000,1.513257498E1,1.03203674632224E-1,2.6062E1,
1570858500,2019-10-12 05:35:00.000,1.513257498E1,1.03203674632224E-1,2.6E1,
1570858800,2019-10-12 05:40:00.000,1.513257498E1,1.03930461073296E-1,2.5968E1,
1570859100,2019-10-12 05:45:00.000,1.5119111835E1,1.03203674632224E-1,2.5968E1,
1570859400,2019-10-12 05:50:00.000,1.5119111835E1,1.03930461073296E-1,2.5906E1,
1570859700,2019-10-12 05:55:00.000,1.5119111835E1,1.03203674632224E-1,2.5875E1,
