Time(longsecs),Time(UTC),Supply voltage(V),Total current(A),Temperature(&deg;C),
1571846400,2019-10-23 16:00:00.000,1.3341976695E1,9.5209023780432E-2,2.45E1,
1571846700,2019-10-23 16:05:00.000,1.3328513549999998E1,1.271876271876E-1,2.45E1,
1571847000,2019-10-23 16:10:00.000,1.3341976695E1,9.5209023780432E-2,2.4562E1,
1571847300,2019-10-23 16:15:00.000,1.3328513549999998E1,9.8842955985792E-2,2.4531E1,
1571847600,2019-10-23 16:20:00.000,1.3328513549999998E1,1.03930461073296E-1,2.45E1,
1571847900,2019-10-23 16:25:00.000,1.3328513549999998E1,9.448223733936E-2,2.4468E1,
1571848200,2019-10-23 16:30:00.000,1.3328513549999998E1,9.3755450898288E-2,2.4437E1,
1571848500,2019-10-23 16:35:00.000,1.330158726E1,1.25734054305456E-1,2.4406E1,
1571848800,2019-10-23 16:40:00.000,1.3315050405E1,9.3028664457216E-2,2.4437E1,
1571849100,2019-10-23 16:45:00.000,1.3315050405E1,9.3755450898288E-2,2.4406E1,
1571849400,2019-10-23 16:50:00.000,1.3315050405E1,9.3755450898288E-2,2.4343E1,
1571849700,2019-10-23 16:55:00.000,1.330158726E1,9.6662596662576E-2,2.4281E1,
