Time(longsecs),Time(UTC),Supply voltage(V),Total current(A),Temperature(&deg;C),
1572249600,2019-10-28 08:00:00.000,1.3261197825E1,9.3755450898288E-2,1.8031E1,
1572249900,2019-10-28 08:05:00.000,1.3261197825E1,9.3755450898288E-2,1.7968E1,
1572250200,2019-10-28 08:10:00.000,1.327466097E1,9.3755450898288E-2,1.7968E1,
1572250500,2019-10-28 08:15:00.000,1.3261197825E1,9.593581022150399E-2,1.7937E1,
1572250800,2019-10-28 08:20:00.000,1.327466097E1,9.448223733936E-2,1.7937E1,
1572251100,2019-10-28 08:25:00.000,1.3261197825E1,1.25734054305456E-1,1.8E1,
1572251400,2019-10-28 08:30:00.000,1.3261197825E1,9.3028664457216E-2,1.8031E1,
1572251700,2019-10-28 08:35:00.000,1.327466097E1,9.593581022150399E-2,1.8E1,
1572252000,2019-10-28 08:40:00.000,1.327466097E1,9.593581022150399E-2,1.8E1,
1572252300,2019-10-28 08:45:00.000,1.327466097E1,1.18466189894736E-1,1.8031E1,
1572252600,2019-10-28 08:50:00.000,1.3288124114999999E1,9.5209023780432E-2,1.8062E1,
1572252900,2019-10-28 08:55:00.000,1.3288124114999999E1,1.15559044130448E-1,1.8093E1,
