Time(longsecs),Time(UTC),Earth location,GNSS receiver status,GNSS satellites used,Timing status,Phase lock loop status,Time uncertainty(ns),Timing DAC count,Time quality(&#37;),Time error(ns),
1572508800,2019-10-31 08:00:00.000,47.646846N 0.576253E 205m,Off,10,Time OK,Free running,3500,8388,90,0,
1572509100,2019-10-31 08:05:00.000,47.646846N 0.576253E 205m,Off,10,Time OK,Free running,12400,8388,90,0,
1572509400,2019-10-31 08:10:00.000,47.646846N 0.576253E 205m,Off,10,Time OK,Free running,21500,8388,90,0,
1572509700,2019-10-31 08:15:00.000,47.646846N 0.576253E 205m,Off,10,Time OK,Free running,30200,8388,90,0,
1572510000,2019-10-31 08:20:00.000,47.646846N 0.576253E 205m,Off,10,Time OK,Free running,38600,8388,90,0,
1572510300,2019-10-31 08:25:00.000,47.646846N 0.576253E 205m,Off,10,Time OK,Free running,47200,8388,90,0,
1572510600,2019-10-31 08:30:00.000,47.646846N 0.576253E 205m,GNSS locked,10,Time OK,Fine lock,400,8388,100,-312,
1572510900,2019-10-31 08:35:00.000,47.646846N 0.576253E 205m,Off,10,Time OK,Free running,8800,8387,90,0,
1572511200,2019-10-31 08:40:00.000,47.646846N 0.576253E 205m,Off,10,Time OK,Free running,18400,8387,90,0,
1572511500,2019-10-31 08:45:00.000,47.646846N 0.576253E 205m,Off,10,Time OK,Free running,27600,8387,90,0,
1572511800,2019-10-31 08:50:00.000,47.646846N 0.576253E 205m,Off,10,Time OK,Free running,36600,8387,90,0,
1572512100,2019-10-31 08:55:00.000,47.646846N 0.576253E 205m,Off,10,Time OK,Free running,46000,8387,90,0,
