Time(longsecs),Time(UTC),Supply voltage(V),Total current(A),Temperature(&deg;C),
1570251600,2019-10-05 05:00:00.000,1.276306146E1,1.22826908541168E-1,2.7281E1,
1570251900,2019-10-05 05:05:00.000,1.2749598315E1,1.56985871271552E-1,2.7281E1,
1570252200,2019-10-05 05:10:00.000,1.276306146E1,1.22826908541168E-1,2.7343E1,
1570252500,2019-10-05 05:15:00.000,1.276306146E1,1.22826908541168E-1,2.7375E1,
1570252800,2019-10-05 05:20:00.000,1.276306146E1,1.2355369498224E-1,2.7343E1,
1570253100,2019-10-05 05:25:00.000,1.276306146E1,1.2355369498224E-1,2.7312E1,
1570253400,2019-10-05 05:30:00.000,1.2749598315E1,1.2210012210009599E-1,2.7312E1,
1570253700,2019-10-05 05:35:00.000,1.2722672025E1,1.55532298389408E-1,2.725E1,
1570254000,2019-10-05 05:40:00.000,1.2749598315E1,1.25734054305456E-1,2.7312E1,
1570254300,2019-10-05 05:45:00.000,1.2749598315E1,1.2355369498224E-1,2.7312E1,
1570254600,2019-10-05 05:50:00.000,1.2749598315E1,1.22826908541168E-1,2.7281E1,
1570254900,2019-10-05 05:55:00.000,1.2736135169999999E1,1.24280481423312E-1,2.7281E1,
