Time(longsecs),Time(UTC),Sensor SOH Voltage A 1(uV),Sensor SOH Voltage A 2(uV),Sensor SOH Voltage A 3(uV),External SOH Voltage 1(uV),External SOH Voltage 2(uV),External SOH Voltage 3(uV),
1572170400,2019-10-27 10:00:00.000,,,,464675,465608,466277,
1572170400,2019-10-27 10:00:00.000,-969499,,,,,,
1572172200,2019-10-27 10:30:00.000,,,,464678,465636,466246,
1572170700,2019-10-27 10:05:00.000,-971458,,,,,,
1572171000,2019-10-27 10:10:00.000,-973326,,,,,,
1572171300,2019-10-27 10:15:00.000,-969279,,,,,,
1572171600,2019-10-27 10:20:00.000,-973139,,,,,,
1572171900,2019-10-27 10:25:00.000,-973292,,,,,,
1572172200,2019-10-27 10:30:00.000,-969102,,,,,,
1572172500,2019-10-27 10:35:00.000,-973424,,,,,,
1572172800,2019-10-27 10:40:00.000,-969320,,,,,,
1572173100,2019-10-27 10:45:00.000,-971481,,,,,,
1572173400,2019-10-27 10:50:00.000,-969162,,,,,,
1572173700,2019-10-27 10:55:00.000,-973326,,,,,,
