Time(longsecs),Time(UTC),Earth location,GNSS receiver status,GNSS satellites used,Timing status,Phase lock loop status,Time uncertainty(ns),Timing DAC count,Time quality(&#37;),Time error(ns),
1572300000,2019-10-28 22:00:00.000,47.646817N 0.576467E 208m,Off,5,Time OK,Free running,3900,8381,90,0,
1572300300,2019-10-28 22:05:00.000,47.646817N 0.576467E 208m,Off,5,Time OK,Free running,13200,8381,90,0,
1572300600,2019-10-28 22:10:00.000,47.646817N 0.576467E 208m,Off,5,Time OK,Free running,21900,8381,90,0,
1572300900,2019-10-28 22:15:00.000,47.646817N 0.576467E 208m,Off,5,Time OK,Free running,31100,8381,90,0,
1572301200,2019-10-28 22:20:00.000,47.646817N 0.576467E 208m,Off,5,Time OK,Free running,41200,8381,90,0,
1572301500,2019-10-28 22:25:00.000,47.646817N 0.576467E 208m,GNSS locked,5,Time OK,Coarse lock,9200,8507,90,-9166,
1572301800,2019-10-28 22:30:00.000,47.646817N 0.576467E 208m,Off,8,Time OK,Free running,4700,8379,90,0,
1572302100,2019-10-28 22:35:00.000,47.646817N 0.576467E 208m,Off,8,Time OK,Free running,13600,8379,90,0,
1572302400,2019-10-28 22:40:00.000,47.646817N 0.576467E 208m,Off,8,Time OK,Free running,22200,8379,90,0,
1572302700,2019-10-28 22:45:00.000,47.646817N 0.576467E 208m,Off,8,Time OK,Free running,31300,8379,90,0,
1572303000,2019-10-28 22:50:00.000,47.646817N 0.576467E 208m,Off,8,Time OK,Free running,41500,8379,90,0,
1572303300,2019-10-28 22:55:00.000,47.646817N 0.576467E 208m,GNSS locked,5,Time OK,Coarse lock,12800,8731,90,-12812,
