Time(longsecs),Time(UTC),Supply voltage(V),Total current(A),Temperature(&deg;C),
1571767200,2019-10-22 18:00:00.000,1.330158726E1,1.25734054305456E-1,2.25E1,
1571767500,2019-10-22 18:05:00.000,1.3315050405E1,9.3755450898288E-2,2.2531E1,
1571767800,2019-10-22 18:10:00.000,1.330158726E1,9.8842955985792E-2,2.25E1,
1571768100,2019-10-22 18:15:00.000,1.3315050405E1,9.3755450898288E-2,2.2468E1,
1571768400,2019-10-22 18:20:00.000,1.3315050405E1,9.3755450898288E-2,2.2343E1,
1571768700,2019-10-22 18:25:00.000,1.330158726E1,9.3755450898288E-2,2.2281E1,
1571769000,2019-10-22 18:30:00.000,1.330158726E1,1.24280481423312E-1,2.225E1,
1571769300,2019-10-22 18:35:00.000,1.3315050405E1,9.3028664457216E-2,2.225E1,
1571769600,2019-10-22 18:40:00.000,1.330158726E1,9.3755450898288E-2,2.225E1,
1571769900,2019-10-22 18:45:00.000,1.330158726E1,9.3028664457216E-2,2.2156E1,
1571770200,2019-10-22 18:50:00.000,1.330158726E1,9.3028664457216E-2,2.2125E1,
1571770500,2019-10-22 18:55:00.000,1.330158726E1,9.3755450898288E-2,2.2062E1,
