Time(longsecs),Time(UTC),Sensor SOH Voltage A 1(uV),Sensor SOH Voltage A 2(uV),Sensor SOH Voltage A 3(uV),External SOH Voltage 1(uV),External SOH Voltage 2(uV),External SOH Voltage 3(uV),
1571752800,2019-10-22 14:00:00.000,,,,464637,465578,466207,
1571752800,2019-10-22 14:00:00.000,-971104,,,,,,
1571754600,2019-10-22 14:30:00.000,,,,464654,465562,466230,
1571753100,2019-10-22 14:05:00.000,-968883,,,,,,
1571753400,2019-10-22 14:10:00.000,-972776,,,,,,
1571753700,2019-10-22 14:15:00.000,-962777,,,,,,
1571754000,2019-10-22 14:20:00.000,-968914,,,,,,
1571754300,2019-10-22 14:25:00.000,-963150,,,,,,
1571754600,2019-10-22 14:30:00.000,-966833,,,,,,
1571754900,2019-10-22 14:35:00.000,-967003,,,,,,
1571755200,2019-10-22 14:40:00.000,-962884,,,,,,
1571755500,2019-10-22 14:45:00.000,-967074,,,,,,
1571755800,2019-10-22 14:50:00.000,-967053,,,,,,
1571756100,2019-10-22 14:55:00.000,-966955,,,,,,
