Time(longsecs),Time(UTC),Earth location,GNSS receiver status,GNSS satellites used,Timing status,Phase lock loop status,Time uncertainty(ns),Timing DAC count,Time quality(&#37;),Time error(ns),
1572134400,2019-10-27 00:00:00.000,47.646852N 0.576289E 253m,Off,9,Time OK,Free running,9900,8372,90,0,
1572134700,2019-10-27 00:05:00.000,47.646852N 0.576289E 253m,Off,9,Time OK,Free running,18600,8372,90,0,
1572135000,2019-10-27 00:10:00.000,47.646852N 0.576289E 253m,Off,9,Time OK,Free running,28100,8372,90,0,
1572135300,2019-10-27 00:15:00.000,47.646852N 0.576289E 253m,Off,9,Time OK,Free running,38800,8372,90,0,
1572135600,2019-10-27 00:20:00.000,47.646852N 0.576289E 253m,GNSS unlocked,0,Time OK,Free running,50800,8372,90,0,
1572135900,2019-10-27 00:25:00.000,47.646852N 0.576289E 253m,Off,7,Time OK,Free running,2800,8378,90,0,
1572136200,2019-10-27 00:30:00.000,47.646852N 0.576289E 253m,Off,7,Time OK,Free running,11900,8378,90,0,
1572136500,2019-10-27 00:35:00.000,47.646852N 0.576289E 253m,Off,7,Time OK,Free running,20700,8378,90,0,
1572136800,2019-10-27 00:40:00.000,47.646852N 0.576289E 253m,Off,7,Time OK,Free running,29800,8378,90,0,
1572137100,2019-10-27 00:45:00.000,47.646852N 0.576289E 253m,Off,7,Time OK,Free running,40200,8378,90,0,
1572137400,2019-10-27 00:50:00.000,47.646852N 0.576289E 253m,GNSS unlocked,0,Time OK,Free running,51800,8378,90,0,
1572137700,2019-10-27 00:55:00.000,47.646852N 0.576289E 253m,Off,8,Time OK,Free running,4600,8381,90,0,
