Time(longsecs),Time(UTC),Earth location,GNSS receiver status,GNSS satellites used,Timing status,Phase lock loop status,Time uncertainty(ns),Timing DAC count,Time quality(&#37;),Time error(ns),
1572544800,2019-10-31 18:00:00.000,47.646905N 0.576432E 178m,Off,5,Time OK,Free running,43800,8379,90,0,
1572545100,2019-10-31 18:05:00.000,47.646905N 0.576432E 178m,GNSS locked,4,Time OK,Fine lock,400,8387,100,208,
1572545400,2019-10-31 18:10:00.000,47.646905N 0.576432E 178m,Off,4,Time OK,Free running,7300,8377,90,0,
1572545700,2019-10-31 18:15:00.000,47.646905N 0.576432E 178m,Off,4,Time OK,Free running,15900,8377,90,0,
1572546000,2019-10-31 18:20:00.000,47.646905N 0.576432E 178m,Off,4,Time OK,Free running,24900,8377,90,0,
1572546300,2019-10-31 18:25:00.000,47.646905N 0.576432E 178m,Off,4,Time OK,Free running,35200,8377,90,0,
1572546600,2019-10-31 18:30:00.000,47.646905N 0.576432E 178m,Off,4,Time OK,Free running,46100,8377,90,0,
1572546900,2019-10-31 18:35:00.000,47.646905N 0.576432E 178m,Off,7,Time OK,Free running,300,8377,90,0,
1572547200,2019-10-31 18:40:00.000,47.646905N 0.576432E 178m,Off,7,Time OK,Free running,9000,8377,90,0,
1572547500,2019-10-31 18:45:00.000,47.646905N 0.576432E 178m,Off,7,Time OK,Free running,17600,8377,90,0,
1572547800,2019-10-31 18:50:00.000,47.646905N 0.576432E 178m,Off,7,Time OK,Free running,26800,8377,90,0,
1572548100,2019-10-31 18:55:00.000,47.646905N 0.576432E 178m,Off,7,Time OK,Free running,36900,8377,90,0,
