Time(longsecs),Time(UTC),Supply voltage(V),Total current(A),Temperature(&deg;C),
1571968800,2019-10-25 02:00:00.000,1.327466097E1,9.448223733936E-2,2.1593E1,
1571969100,2019-10-25 02:05:00.000,1.3261197825E1,1.06110820396512E-1,2.1562E1,
1571969400,2019-10-25 02:10:00.000,1.327466097E1,9.3755450898288E-2,2.15E1,
1571969700,2019-10-25 02:15:00.000,1.327466097E1,9.5209023780432E-2,2.1468E1,
1571970000,2019-10-25 02:20:00.000,1.3261197825E1,1.2355369498224E-1,2.1437E1,
1571970300,2019-10-25 02:25:00.000,1.327466097E1,9.3028664457216E-2,2.1437E1,
1571970600,2019-10-25 02:30:00.000,1.3261197825E1,1.01023315309008E-1,2.1406E1,
1571970900,2019-10-25 02:35:00.000,1.327466097E1,9.3755450898288E-2,2.1375E1,
1571971200,2019-10-25 02:40:00.000,1.327466097E1,9.3028664457216E-2,2.1375E1,
1571971500,2019-10-25 02:45:00.000,1.327466097E1,9.3755450898288E-2,2.1312E1,
1571971800,2019-10-25 02:50:00.000,1.3247734679999999E1,1.271876271876E-1,2.1312E1,
1571972100,2019-10-25 02:55:00.000,1.327466097E1,9.593581022150399E-2,2.1343E1,
