Time(longsecs),Time(UTC),Sensor SOH Voltage A 1(uV),Sensor SOH Voltage A 2(uV),Sensor SOH Voltage A 3(uV),External SOH Voltage 1(uV),External SOH Voltage 2(uV),External SOH Voltage 3(uV),
1570604400,2019-10-09 07:00:00.000,,,,464671,465639,466257,
1570604400,2019-10-09 07:00:00.000,-961446,,,,,,
1570604700,2019-10-09 07:05:00.000,-963195,,,,,,
1570606200,2019-10-09 07:30:00.000,,,,464675,465639,466239,
1570605000,2019-10-09 07:10:00.000,-962483,,,,,,
1570605300,2019-10-09 07:15:00.000,-961391,,,,,,
1570605600,2019-10-09 07:20:00.000,-967571,,,,,,
1570605900,2019-10-09 07:25:00.000,-970794,,,,,,
1570606200,2019-10-09 07:30:00.000,-976825,,,,,,
1570606500,2019-10-09 07:35:00.000,-979102,,,,,,
1570606800,2019-10-09 07:40:00.000,-960161,,,,,,
1570607100,2019-10-09 07:45:00.000,-963130,,,,,,
1570607400,2019-10-09 07:50:00.000,-960352,,,,,,
1570607700,2019-10-09 07:55:00.000,-976670,,,,,,
