Time(longsecs),Time(UTC),Supply voltage(V),Total current(A),Temperature(&deg;C),
1571083200,2019-10-14 20:00:00.000,1.3826649914999999E1,1.14105471248304E-1,3.0125E1,
1571083500,2019-10-14 20:05:00.000,1.3799723624999999E1,1.46084074655472E-1,3.0093E1,
1571083800,2019-10-14 20:10:00.000,1.3799723624999999E1,1.17012617012592E-1,3.0125E1,
1571084100,2019-10-14 20:15:00.000,1.3799723624999999E1,1.14105471248304E-1,3.0062E1,
1571084400,2019-10-14 20:20:00.000,1.378626048E1,1.14105471248304E-1,3.0E1,
1571084700,2019-10-14 20:25:00.000,1.3772797335E1,1.14105471248304E-1,2.9937E1,
1571085000,2019-10-14 20:30:00.000,1.3745871045E1,1.15559044130448E-1,2.9875E1,
1571085300,2019-10-14 20:35:00.000,1.3718944754999999E1,1.46084074655472E-1,2.9875E1,
1571085600,2019-10-14 20:40:00.000,1.3718944754999999E1,1.14105471248304E-1,2.9875E1,
1571085900,2019-10-14 20:45:00.000,1.3718944754999999E1,1.14832257689376E-1,2.9812E1,
1571086200,2019-10-14 20:50:00.000,1.3692018464999999E1,1.19192976335808E-1,2.9781000000000002E1,
1571086500,2019-10-14 20:55:00.000,1.367855532E1,1.18466189894736E-1,2.9687E1,
