Time(longsecs),Time(UTC),Supply voltage(V),Total current(A),Temperature(&deg;C),
1571382000,2019-10-18 07:00:00.000,1.327466097E1,9.3755450898288E-2,2.2E1,
1571382300,2019-10-18 07:05:00.000,1.327466097E1,9.3755450898288E-2,2.1937E1,
1571382600,2019-10-18 07:10:00.000,1.3261197825E1,1.25007267864384E-1,2.1937E1,
1571382900,2019-10-18 07:15:00.000,1.3261197825E1,9.3755450898288E-2,2.1937E1,
1571383200,2019-10-18 07:20:00.000,1.327466097E1,9.3755450898288E-2,2.1937E1,
1571383500,2019-10-18 07:25:00.000,1.3261197825E1,1.17012617012592E-1,2.1843E1,
1571383800,2019-10-18 07:30:00.000,1.327466097E1,9.593581022150399E-2,2.1781E1,
1571384100,2019-10-18 07:35:00.000,1.327466097E1,9.3755450898288E-2,2.175E1,
1571384400,2019-10-18 07:40:00.000,1.327466097E1,9.448223733936E-2,2.175E1,
1571384700,2019-10-18 07:45:00.000,1.327466097E1,9.3755450898288E-2,2.1718E1,
1571385000,2019-10-18 07:50:00.000,1.327466097E1,9.3028664457216E-2,2.1687E1,
1571385300,2019-10-18 07:55:00.000,1.327466097E1,9.3755450898288E-2,2.1656E1,
