Time(longsecs),Time(UTC),Supply voltage(V),Total current(A),Temperature(&deg;C),
1571259600,2019-10-16 21:00:00.000,1.327466097E1,9.5209023780432E-2,2.3406E1,
1571259900,2019-10-16 21:05:00.000,1.327466097E1,9.6662596662576E-2,2.3343E1,
1571260200,2019-10-16 21:10:00.000,1.327466097E1,9.448223733936E-2,2.3312E1,
1571260500,2019-10-16 21:15:00.000,1.327466097E1,9.6662596662576E-2,2.3343E1,
1571260800,2019-10-16 21:20:00.000,1.3261197825E1,1.1265189836615999E-1,2.3375E1,
1571261100,2019-10-16 21:25:00.000,1.327466097E1,9.3755450898288E-2,2.3406E1,
1571261400,2019-10-16 21:30:00.000,1.327466097E1,9.5209023780432E-2,2.3375E1,
1571261700,2019-10-16 21:35:00.000,1.327466097E1,9.448223733936E-2,2.3343E1,
1571262000,2019-10-16 21:40:00.000,1.327466097E1,9.448223733936E-2,2.3343E1,
1571262300,2019-10-16 21:45:00.000,1.327466097E1,9.3755450898288E-2,2.3312E1,
1571262600,2019-10-16 21:50:00.000,1.3261197825E1,1.271876271876E-1,2.3343E1,
1571262900,2019-10-16 21:55:00.000,1.327466097E1,1.02476888191152E-1,2.3375E1,
