Time(longsecs),Time(UTC),Earth location,GNSS receiver status,GNSS satellites used,Timing status,Phase lock loop status,Time uncertainty(ns),Timing DAC count,Time quality(&#37;),Time error(ns),
1570431600,2019-10-07 07:00:00.000,47.646694N 0.576343E 206m,Off,10,Time OK,Free running,17000,8364,90,0,
1570431900,2019-10-07 07:05:00.000,47.646694N 0.576343E 206m,Off,10,Time OK,Free running,26900,8364,90,0,
1570432200,2019-10-07 07:10:00.000,47.646694N 0.576343E 206m,Off,10,Time OK,Free running,37100,8364,90,0,
1570432500,2019-10-07 07:15:00.000,47.646694N 0.576343E 206m,Off,10,Time OK,Free running,47500,8364,90,0,
1570432800,2019-10-07 07:20:00.000,47.646694N 0.576343E 206m,Off,8,Time OK,Free running,1500,8363,90,0,
1570433100,2019-10-07 07:25:00.000,47.646694N 0.576343E 206m,Off,8,Time OK,Free running,10700,8363,90,0,
1570433400,2019-10-07 07:30:00.000,47.646694N 0.576343E 206m,Off,8,Time OK,Free running,20400,8363,90,0,
1570433700,2019-10-07 07:35:00.000,47.646694N 0.576343E 206m,Off,8,Time OK,Free running,30700,8363,90,0,
1570434000,2019-10-07 07:40:00.000,47.646694N 0.576343E 206m,Off,8,Time OK,Free running,40900,8363,90,0,
1570434300,2019-10-07 07:45:00.000,47.646694N 0.576343E 206m,GNSS unlocked,0,Time OK,Free running,51500,8363,90,0,
1570434600,2019-10-07 07:50:00.000,47.646694N 0.576343E 206m,Off,8,Time OK,Free running,4200,8362,90,0,
1570434900,2019-10-07 07:55:00.000,47.646694N 0.576343E 206m,Off,8,Time OK,Free running,13600,8362,90,0,
