Time(longsecs),Time(UTC),Supply voltage(V),Total current(A),Temperature(&deg;C),
1572404400,2019-10-30 03:00:00.000,1.3261197825E1,9.3755450898288E-2,1.8687E1,
1572404700,2019-10-30 03:05:00.000,1.3247734679999999E1,9.3028664457216E-2,1.8687E1,
1572405000,2019-10-30 03:10:00.000,1.3261197825E1,9.3755450898288E-2,1.8625E1,
1572405300,2019-10-30 03:15:00.000,1.3261197825E1,9.448223733936E-2,1.8625E1,
1572405600,2019-10-30 03:20:00.000,1.3234271535E1,1.26460840746528E-1,1.8625E1,
1572405900,2019-10-30 03:25:00.000,1.3261197825E1,9.3755450898288E-2,1.8687E1,
1572406200,2019-10-30 03:30:00.000,1.3261197825E1,9.3755450898288E-2,1.8656E1,
1572406500,2019-10-30 03:35:00.000,1.3247734679999999E1,9.593581022150399E-2,1.8625E1,
1572406800,2019-10-30 03:40:00.000,1.3247734679999999E1,9.3755450898288E-2,1.8593E1,
1572407100,2019-10-30 03:45:00.000,1.3261197825E1,9.3755450898288E-2,1.8593E1,
1572407400,2019-10-30 03:50:00.000,1.3247734679999999E1,1.26460840746528E-1,1.8593E1,
1572407700,2019-10-30 03:55:00.000,1.3247734679999999E1,9.7389383103648E-2,1.8625E1,
