Time(longsecs),Time(UTC),Supply voltage(V),Total current(A),Temperature(&deg;C),
1571587200,2019-10-20 16:00:00.000,1.327466097E1,1.26460840746528E-1,2.325E1,
1571587500,2019-10-20 16:05:00.000,1.3288124114999999E1,9.3755450898288E-2,2.3218E1,
1571587800,2019-10-20 16:10:00.000,1.3288124114999999E1,9.448223733936E-2,2.3156E1,
1571588100,2019-10-20 16:15:00.000,1.3288124114999999E1,1.00296528867936E-1,2.3093E1,
1571588400,2019-10-20 16:20:00.000,1.3288124114999999E1,9.6662596662576E-2,2.3062E1,
1571588700,2019-10-20 16:25:00.000,1.3288124114999999E1,9.3028664457216E-2,2.2968E1,
1571589000,2019-10-20 16:30:00.000,1.327466097E1,1.26460840746528E-1,2.2937E1,
1571589300,2019-10-20 16:35:00.000,1.3288124114999999E1,9.5209023780432E-2,2.2968E1,
1571589600,2019-10-20 16:40:00.000,1.3288124114999999E1,9.3755450898288E-2,2.2906E1,
1571589900,2019-10-20 16:45:00.000,1.3288124114999999E1,9.3755450898288E-2,2.2812E1,
1571590200,2019-10-20 16:50:00.000,1.3288124114999999E1,9.448223733936E-2,2.275E1,
1571590500,2019-10-20 16:55:00.000,1.327466097E1,1.25007267864384E-1,2.2718E1,
