Time(longsecs),Time(UTC),Earth location,GNSS receiver status,GNSS satellites used,Timing status,Phase lock loop status,Time uncertainty(ns),Timing DAC count,Time quality(&#37;),Time error(ns),
1569942000,2019-10-01 15:00:00.000,47.64662N 0.576023E 208m,Off,7,Time OK,Free running,22900,8302,90,0,
1569942300,2019-10-01 15:05:00.000,47.64662N 0.576023E 208m,Off,7,Time OK,Free running,40600,8302,90,0,
1569942600,2019-10-01 15:10:00.000,47.64662N 0.576023E 208m,GNSS locked,6,Time OK,Fine lock,300,8308,100,312,
1569942900,2019-10-01 15:15:00.000,47.64662N 0.576023E 208m,Off,6,Time OK,Free running,9100,8306,90,0,
1569943200,2019-10-01 15:20:00.000,47.64662N 0.576023E 208m,Off,6,Time OK,Free running,21800,8306,90,0,
1569943500,2019-10-01 15:25:00.000,47.64662N 0.576023E 208m,Off,6,Time OK,Free running,38000,8306,90,0,
1569943800,2019-10-01 15:30:00.000,47.64662N 0.576023E 208m,GNSS locked,5,Time OK,Coarse lock,400,8315,90,-312,
1569944100,2019-10-01 15:35:00.000,47.64662N 0.576023E 208m,Off,5,Time OK,Free running,6500,8315,90,0,
1569944400,2019-10-01 15:40:00.000,47.64662N 0.576023E 208m,Off,5,Time OK,Free running,17200,8315,90,0,
1569944700,2019-10-01 15:45:00.000,47.64662N 0.576023E 208m,Off,5,Time OK,Free running,31000,8315,90,0,
1569945000,2019-10-01 15:50:00.000,47.64662N 0.576023E 208m,Off,5,Time OK,Free running,47400,8315,90,0,
1569945300,2019-10-01 15:55:00.000,47.64662N 0.576023E 208m,Off,6,Time OK,Free running,2200,8308,90,0,
