Time(longsecs),Time(UTC),Supply voltage(V),Total current(A),Temperature(&deg;C),
1572490800,2019-10-31 03:00:00.000,1.3247734679999999E1,9.448223733936E-2,1.8718E1,
1572491100,2019-10-31 03:05:00.000,1.3247734679999999E1,9.3755450898288E-2,1.8687E1,
1572491400,2019-10-31 03:10:00.000,1.3247734679999999E1,9.3755450898288E-2,1.8687E1,
1572491700,2019-10-31 03:15:00.000,1.3247734679999999E1,9.448223733936E-2,1.8718E1,
1572492000,2019-10-31 03:20:00.000,1.3247734679999999E1,9.593581022150399E-2,1.875E1,
1572492300,2019-10-31 03:25:00.000,1.3247734679999999E1,9.6662596662576E-2,1.8687E1,
1572492600,2019-10-31 03:30:00.000,1.3247734679999999E1,9.3755450898288E-2,1.8687E1,
1572492900,2019-10-31 03:35:00.000,1.3247734679999999E1,9.593581022150399E-2,1.8687E1,
1572493200,2019-10-31 03:40:00.000,1.3247734679999999E1,9.5209023780432E-2,1.8656E1,
1572493500,2019-10-31 03:45:00.000,1.3234271535E1,1.271876271876E-1,1.8656E1,
1572493800,2019-10-31 03:50:00.000,1.3247734679999999E1,9.593581022150399E-2,1.8687E1,
1572494100,2019-10-31 03:55:00.000,1.3247734679999999E1,9.3755450898288E-2,1.8656E1,
