Time(longsecs),Time(UTC),Earth location,GNSS receiver status,GNSS satellites used,Timing status,Phase lock loop status,Time uncertainty(ns),Timing DAC count,Time quality(&#37;),Time error(ns),
1571299200,2019-10-17 08:00:00.000,47.646767N 0.576477E 176m,Off,9,Time OK,Free running,10200,8381,90,0,
1571299500,2019-10-17 08:05:00.000,47.646767N 0.576477E 176m,Off,9,Time OK,Free running,19500,8381,90,0,
1571299800,2019-10-17 08:10:00.000,47.646767N 0.576477E 176m,Off,9,Time OK,Free running,28600,8381,90,0,
1571300100,2019-10-17 08:15:00.000,47.646767N 0.576477E 176m,Off,9,Time OK,Free running,37600,8381,90,0,
1571300400,2019-10-17 08:20:00.000,47.646767N 0.576477E 176m,Off,9,Time OK,Free running,46700,8381,90,0,
1571300700,2019-10-17 08:25:00.000,47.646767N 0.576477E 176m,GNSS locked,9,Time OK,Fine lock,300,8378,100,208,
1571301000,2019-10-17 08:30:00.000,47.646767N 0.576477E 176m,Off,9,Time OK,Free running,9400,8378,90,0,
1571301300,2019-10-17 08:35:00.000,47.646767N 0.576477E 176m,Off,9,Time OK,Free running,19400,8378,90,0,
1571301600,2019-10-17 08:40:00.000,47.646767N 0.576477E 176m,Off,9,Time OK,Free running,29900,8378,90,0,
1571301900,2019-10-17 08:45:00.000,47.646767N 0.576477E 176m,Off,9,Time OK,Free running,40300,8378,90,0,
1571302200,2019-10-17 08:50:00.000,47.646767N 0.576477E 176m,GNSS unlocked,0,Time OK,Free running,51600,8378,90,0,
1571302500,2019-10-17 08:55:00.000,47.646767N 0.576477E 176m,Off,10,Time OK,Free running,4400,8378,90,0,
