Time(longsecs),Time(UTC),Supply voltage(V),Total current(A),Temperature(&deg;C),
1571875200,2019-10-24 00:00:00.000,1.3261197825E1,9.3755450898288E-2,2.175E1,
1571875500,2019-10-24 00:05:00.000,1.3261197825E1,9.3755450898288E-2,2.1718E1,
1571875800,2019-10-24 00:10:00.000,1.3261197825E1,9.3755450898288E-2,2.1656E1,
1571876100,2019-10-24 00:15:00.000,1.3261197825E1,9.3755450898288E-2,2.1656E1,
1571876400,2019-10-24 00:20:00.000,1.3261197825E1,9.3755450898288E-2,2.1687E1,
1571876700,2019-10-24 00:25:00.000,1.3261197825E1,1.1628583057152E-1,2.1687E1,
1571877000,2019-10-24 00:30:00.000,1.3261197825E1,9.3755450898288E-2,2.1687E1,
1571877300,2019-10-24 00:35:00.000,1.3261197825E1,9.3755450898288E-2,2.1656E1,
1571877600,2019-10-24 00:40:00.000,1.3261197825E1,9.448223733936E-2,2.1625E1,
1571877900,2019-10-24 00:45:00.000,1.3261197825E1,9.3755450898288E-2,2.1593E1,
1571878200,2019-10-24 00:50:00.000,1.3247734679999999E1,1.25734054305456E-1,2.1562E1,
1571878500,2019-10-24 00:55:00.000,1.3261197825E1,9.3755450898288E-2,2.1625E1,
