Time(longsecs),Time(UTC),Supply voltage(V),Total current(A),Temperature(&deg;C),
1571061600,2019-10-14 14:00:00.000,1.421708112E1,1.10471539042944E-1,3.5562E1,
1571061900,2019-10-14 14:05:00.000,1.4203617974999998E1,1.11925111925088E-1,3.575E1,
1571062200,2019-10-14 14:10:00.000,1.4190154829999999E1,1.3445549159832E-1,3.5937E1,
1571062500,2019-10-14 14:15:00.000,1.4203617974999998E1,1.11198325484016E-1,3.6218E1,
1571062800,2019-10-14 14:20:00.000,1.4203617974999998E1,1.10471539042944E-1,3.6468E1,
1571063100,2019-10-14 14:25:00.000,1.4190154829999999E1,1.11925111925088E-1,3.6718E1,
1571063400,2019-10-14 14:30:00.000,1.4163228539999999E1,1.42450142450112E-1,3.7E1,
1571063700,2019-10-14 14:35:00.000,1.4190154829999999E1,1.11198325484016E-1,3.7281E1,
1571064000,2019-10-14 14:40:00.000,1.4190154829999999E1,1.1265189836615999E-1,3.75E1,
1571064300,2019-10-14 14:45:00.000,1.4176691685E1,1.1265189836615999E-1,3.7656E1,
1571064600,2019-10-14 14:50:00.000,1.4163228539999999E1,1.43903715332256E-1,3.7687E1,
1571064900,2019-10-14 14:55:00.000,1.4176691685E1,1.13378684807232E-1,3.775E1,
