Time(longsecs),Time(UTC),Sensor SOH Voltage A 1(uV),Sensor SOH Voltage A 2(uV),Sensor SOH Voltage A 3(uV),External SOH Voltage 1(uV),External SOH Voltage 2(uV),External SOH Voltage 3(uV),
1572166800,2019-10-27 09:00:00.000,,,,464668,465619,466229,
1572166800,2019-10-27 09:00:00.000,-971565,,,,,,
1572168600,2019-10-27 09:30:00.000,,,,464665,465621,466242,
1572167100,2019-10-27 09:05:00.000,-973455,,,,,,
1572167400,2019-10-27 09:10:00.000,-973392,,,,,,
1572167700,2019-10-27 09:15:00.000,-973077,,,,,,
1572168000,2019-10-27 09:20:00.000,-971362,,,,,,
1572168300,2019-10-27 09:25:00.000,-969367,,,,,,
1572168600,2019-10-27 09:30:00.000,-973326,,,,,,
1572168900,2019-10-27 09:35:00.000,-973373,,,,,,
1572169200,2019-10-27 09:40:00.000,-973309,,,,,,
1572169500,2019-10-27 09:45:00.000,-973158,,,,,,
1572169800,2019-10-27 09:50:00.000,-973180,,,,,,
1572170100,2019-10-27 09:55:00.000,-973378,,,,,,
