Time(longsecs),Time(UTC),Sensor SOH Voltage A 1(uV),Sensor SOH Voltage A 2(uV),Sensor SOH Voltage A 3(uV),External SOH Voltage 1(uV),External SOH Voltage 2(uV),External SOH Voltage 3(uV),
1572076800,2019-10-26 08:00:00.000,,,,464663,465609,466251,
1572076800,2019-10-26 08:00:00.000,-967210,,,,,,
1572078600,2019-10-26 08:30:00.000,,,,464681,465600,466224,
1572077100,2019-10-26 08:05:00.000,-967456,,,,,,
1572077400,2019-10-26 08:10:00.000,-969339,,,,,,
1572077700,2019-10-26 08:15:00.000,-969152,,,,,,
1572078000,2019-10-26 08:20:00.000,-971460,,,,,,
1572078300,2019-10-26 08:25:00.000,-971250,,,,,,
1572078600,2019-10-26 08:30:00.000,-971395,,,,,,
1572078900,2019-10-26 08:35:00.000,-963563,,,,,,
1572079200,2019-10-26 08:40:00.000,-971472,,,,,,
1572079500,2019-10-26 08:45:00.000,-969167,,,,,,
1572079800,2019-10-26 08:50:00.000,-971513,,,,,,
1572080100,2019-10-26 08:55:00.000,-969334,,,,,,
