Time(longsecs),Time(UTC),Sensor SOH Voltage A 1(uV),Sensor SOH Voltage A 2(uV),Sensor SOH Voltage A 3(uV),External SOH Voltage 1(uV),External SOH Voltage 2(uV),External SOH Voltage 3(uV),
1570698000,2019-10-10 09:00:00.000,,,,464655,465609,466199,
1570698000,2019-10-10 09:00:00.000,-971200,,,,,,
1570698300,2019-10-10 09:05:00.000,-968937,,,,,,
1570699800,2019-10-10 09:30:00.000,,,,464652,465578,466221,
1570698600,2019-10-10 09:10:00.000,-972303,,,,,,
1570698900,2019-10-10 09:15:00.000,-971412,,,,,,
1570699200,2019-10-10 09:20:00.000,-966076,,,,,,
1570699500,2019-10-10 09:25:00.000,-972370,,,,,,
1570699800,2019-10-10 09:30:00.000,-971384,,,,,,
1570700100,2019-10-10 09:35:00.000,-971321,,,,,,
1570700400,2019-10-10 09:40:00.000,-969967,,,,,,
1570700700,2019-10-10 09:45:00.000,-970285,,,,,,
1570701000,2019-10-10 09:50:00.000,-972267,,,,,,
1570701300,2019-10-10 09:55:00.000,-969420,,,,,,
