Time(longsecs),Time(UTC),Supply voltage(V),Total current(A),Temperature(&deg;C),
1570309200,2019-10-05 21:00:00.000,1.2507261705E1,1.27914413628672E-1,2.9031000000000002E1,
1570309500,2019-10-05 21:05:00.000,1.249379856E1,1.271876271876E-1,2.9031000000000002E1,
1570309800,2019-10-05 21:10:00.000,1.249379856E1,1.25734054305456E-1,2.8968E1,
1570310100,2019-10-05 21:15:00.000,1.2480335414999999E1,1.29367986510816E-1,2.8937E1,
1570310400,2019-10-05 21:20:00.000,1.2453409124999999E1,1.62800162800128E-1,2.8875E1,
1570310700,2019-10-05 21:25:00.000,1.243994598E1,1.271876271876E-1,2.8937E1,
1570311000,2019-10-05 21:30:00.000,1.243994598E1,1.26460840746528E-1,2.8906000000000002E1,
1570311300,2019-10-05 21:35:00.000,1.2426482835E1,1.26460840746528E-1,2.8906000000000002E1,
1570311600,2019-10-05 21:40:00.000,1.2413019689999999E1,1.271876271876E-1,2.8875E1,
1570311900,2019-10-05 21:45:00.000,1.2399556545E1,1.26460840746528E-1,2.8843E1,
1570312200,2019-10-05 21:50:00.000,1.2372630254999999E1,1.60619803476912E-1,2.8812E1,
1570312500,2019-10-05 21:55:00.000,1.2372630254999999E1,1.27914413628672E-1,2.8843E1,
