Time(longsecs),Time(UTC),Earth location,GNSS receiver status,GNSS satellites used,Timing status,Phase lock loop status,Time uncertainty(ns),Timing DAC count,Time quality(&#37;),Time error(ns),
1570150800,2019-10-04 01:00:00.000,47.646805N 0.576461E 185m,Off,9,Time OK,Free running,34500,8383,90,0,
1570151100,2019-10-04 01:05:00.000,47.646805N 0.576461E 185m,Off,9,Time OK,Free running,44400,8383,90,0,
1570151400,2019-10-04 01:10:00.000,47.646805N 0.576461E 185m,GNSS unlocked,6,Time OK,Free running,3000,8383,90,0,
1570151700,2019-10-04 01:15:00.000,47.646805N 0.576461E 185m,Off,8,Time OK,Free running,2900,8372,90,0,
1570152000,2019-10-04 01:20:00.000,47.646805N 0.576461E 185m,Off,8,Time OK,Free running,12700,8372,90,0,
1570152300,2019-10-04 01:25:00.000,47.646805N 0.576461E 185m,Off,8,Time OK,Free running,22300,8372,90,0,
1570152600,2019-10-04 01:30:00.000,47.646805N 0.576461E 185m,Off,8,Time OK,Free running,31300,8372,90,0,
1570152900,2019-10-04 01:35:00.000,47.646805N 0.576461E 185m,Off,8,Time OK,Free running,39800,8372,90,0,
1570153200,2019-10-04 01:40:00.000,47.646805N 0.576461E 185m,Off,8,Time OK,Free running,48400,8372,90,0,
1570153500,2019-10-04 01:45:00.000,47.646805N 0.576461E 185m,Off,5,Time OK,Free running,1200,8374,90,0,
1570153800,2019-10-04 01:50:00.000,47.646805N 0.576461E 185m,Off,5,Time OK,Free running,9800,8374,90,0,
1570154100,2019-10-04 01:55:00.000,47.646805N 0.576461E 185m,Off,5,Time OK,Free running,18200,8374,90,0,
