Time(longsecs),Time(UTC),Sensor SOH Voltage A 1(uV),Sensor SOH Voltage A 2(uV),Sensor SOH Voltage A 3(uV),External SOH Voltage 1(uV),External SOH Voltage 2(uV),External SOH Voltage 3(uV),
1571414400,2019-10-18 16:00:00.000,,,,464526,465431,466136,
1571414400,2019-10-18 16:00:00.000,-977604,,,,,,
1571416200,2019-10-18 16:30:00.000,,,,464525,465432,466134,
1571414700,2019-10-18 16:05:00.000,-971778,,,,,,
1571415000,2019-10-18 16:10:00.000,-973512,,,,,,
1571415300,2019-10-18 16:15:00.000,-973541,,,,,,
1571415600,2019-10-18 16:20:00.000,-973782,,,,,,
1571415900,2019-10-18 16:25:00.000,-973763,,,,,,
1571416200,2019-10-18 16:30:00.000,-979546,,,,,,
1571416500,2019-10-18 16:35:00.000,-977647,,,,,,
1571416800,2019-10-18 16:40:00.000,-981404,,,,,,
1571417100,2019-10-18 16:45:00.000,-977599,,,,,,
1571417400,2019-10-18 16:50:00.000,-971790,,,,,,
1571417700,2019-10-18 16:55:00.000,-973607,,,,,,
