Time(longsecs),Time(UTC),Earth location,GNSS receiver status,GNSS satellites used,Timing status,Phase lock loop status,Time uncertainty(ns),Timing DAC count,Time quality(&#37;),Time error(ns),
1570503600,2019-10-08 03:00:00.000,47.646676N 0.576467E 203m,Off,7,Time OK,Free running,21500,8362,90,0,
1570503900,2019-10-08 03:05:00.000,47.646676N 0.576467E 203m,Off,7,Time OK,Free running,30900,8362,90,0,
1570504200,2019-10-08 03:10:00.000,47.646676N 0.576467E 203m,Off,7,Time OK,Free running,40300,8362,90,0,
1570504500,2019-10-08 03:15:00.000,47.646676N 0.576467E 203m,Off,7,Time OK,Free running,49500,8362,90,0,
1570504800,2019-10-08 03:20:00.000,47.646676N 0.576467E 203m,Off,5,Time OK,Free running,2900,8364,90,0,
1570505100,2019-10-08 03:25:00.000,47.646676N 0.576467E 203m,Off,5,Time OK,Free running,11800,8364,90,0,
1570505400,2019-10-08 03:30:00.000,47.646676N 0.576467E 203m,Off,5,Time OK,Free running,20800,8364,90,0,
1570505700,2019-10-08 03:35:00.000,47.646676N 0.576467E 203m,Off,5,Time OK,Free running,30100,8364,90,0,
1570506000,2019-10-08 03:40:00.000,47.646676N 0.576467E 203m,Off,5,Time OK,Free running,39100,8364,90,0,
1570506300,2019-10-08 03:45:00.000,47.646676N 0.576467E 203m,Off,5,Time OK,Free running,48000,8364,90,0,
1570506600,2019-10-08 03:50:00.000,47.646676N 0.576467E 203m,GNSS locked,7,Time OK,Fine lock,100,8364,100,-104,
1570506900,2019-10-08 03:55:00.000,47.646676N 0.576467E 203m,Off,6,Time OK,Free running,7700,8357,90,0,
