Time(longsecs),Time(UTC),Supply voltage(V),Total current(A),Temperature(&deg;C),
1571695200,2019-10-21 22:00:00.000,1.3288124114999999E1,1.25734054305456E-1,2.2531E1,
1571695500,2019-10-21 22:05:00.000,1.330158726E1,9.3755450898288E-2,2.2531E1,
1571695800,2019-10-21 22:10:00.000,1.330158726E1,9.3755450898288E-2,2.25E1,
1571696100,2019-10-21 22:15:00.000,1.330158726E1,9.3755450898288E-2,2.2375E1,
1571696400,2019-10-21 22:20:00.000,1.330158726E1,9.3755450898288E-2,2.2312E1,
1571696700,2019-10-21 22:25:00.000,1.327466097E1,1.26460840746528E-1,2.225E1,
1571697000,2019-10-21 22:30:00.000,1.327466097E1,1.271876271876E-1,2.225E1,
1571697300,2019-10-21 22:35:00.000,1.3288124114999999E1,9.3755450898288E-2,2.2312E1,
1571697600,2019-10-21 22:40:00.000,1.3288124114999999E1,9.3028664457216E-2,2.2218E1,
1571697900,2019-10-21 22:45:00.000,1.3288124114999999E1,9.448223733936E-2,2.2156E1,
1571698200,2019-10-21 22:50:00.000,1.3288124114999999E1,9.3755450898288E-2,2.2031E1,
1571698500,2019-10-21 22:55:00.000,1.327466097E1,1.29367986510816E-1,2.2E1,
