Time(longsecs),Time(UTC),Earth location,GNSS receiver status,GNSS satellites used,Timing status,Phase lock loop status,Time uncertainty(ns),Timing DAC count,Time quality(&#37;),Time error(ns),
1571925600,2019-10-24 14:00:00.000,47.646694N 0.576468E 167m,Off,6,Time OK,Free running,16800,8357,90,0,
1571925900,2019-10-24 14:05:00.000,47.646694N 0.576468E 167m,Off,6,Time OK,Free running,29700,8357,90,0,
1571926200,2019-10-24 14:10:00.000,47.646694N 0.576468E 167m,GNSS unlocked,0,Time OK,Free running,50900,8357,90,0,
1571926500,2019-10-24 14:15:00.000,47.646694N 0.576468E 167m,Off,5,Time OK,Free running,1900,8366,90,0,
1571926800,2019-10-24 14:20:00.000,47.646694N 0.576468E 167m,Off,5,Time OK,Free running,15200,8366,90,0,
1571927100,2019-10-24 14:25:00.000,47.646694N 0.576468E 167m,Off,5,Time OK,Free running,34700,8366,90,0,
1571927400,2019-10-24 14:30:00.000,47.646694N 0.576468E 167m,GNSS locked,6,Time OK,Coarse lock,300,8385,90,-208,
1571927700,2019-10-24 14:35:00.000,47.646694N 0.576468E 167m,Off,7,Time OK,Free running,7000,8375,90,0,
1571928000,2019-10-24 14:40:00.000,47.646694N 0.576468E 167m,Off,7,Time OK,Free running,18900,8375,90,0,
1571928300,2019-10-24 14:45:00.000,47.646694N 0.576468E 167m,Off,7,Time OK,Free running,33900,8375,90,0,
1571928600,2019-10-24 14:50:00.000,47.646694N 0.576468E 167m,GNSS unlocked,0,Time OK,Free running,52500,8375,90,0,
1571928900,2019-10-24 14:55:00.000,47.646694N 0.576468E 167m,Off,7,Time OK,Free running,4400,8363,90,0,
