Time(longsecs),Time(UTC),Earth location,GNSS receiver status,GNSS satellites used,Timing status,Phase lock loop status,Time uncertainty(ns),Timing DAC count,Time quality(&#37;),Time error(ns),
1569970800,2019-10-01 23:00:00.000,47.64662N 0.576023E 208m,Off,7,Time OK,Free running,28800,8353,90,0,
1569971100,2019-10-01 23:05:00.000,47.64662N 0.576023E 208m,Off,7,Time OK,Free running,38500,8353,90,0,
1569971400,2019-10-01 23:10:00.000,47.64662N 0.576023E 208m,Off,7,Time OK,Free running,48500,8353,90,0,
1569971700,2019-10-01 23:15:00.000,47.64662N 0.576023E 208m,Off,7,Time OK,Free running,1800,8355,90,0,
1569972000,2019-10-01 23:20:00.000,47.64662N 0.576023E 208m,Off,7,Time OK,Free running,10300,8355,90,0,
1569972300,2019-10-01 23:25:00.000,47.64662N 0.576023E 208m,Off,7,Time OK,Free running,19000,8355,90,0,
1569972600,2019-10-01 23:30:00.000,47.64662N 0.576023E 208m,Off,7,Time OK,Free running,28400,8355,90,0,
1569972900,2019-10-01 23:35:00.000,47.64662N 0.576023E 208m,Off,7,Time OK,Free running,38300,8355,90,0,
1569973200,2019-10-01 23:40:00.000,47.64662N 0.576023E 208m,Off,7,Time OK,Free running,48700,8355,90,0,
1569973500,2019-10-01 23:45:00.000,47.64662N 0.576023E 208m,GNSS locked,8,Time OK,Fine lock,300,8353,100,-208,
1569973800,2019-10-01 23:50:00.000,47.64662N 0.576023E 208m,Off,8,Time OK,Free running,8600,8353,90,0,
1569974100,2019-10-01 23:55:00.000,47.64662N 0.576023E 208m,Off,8,Time OK,Free running,17100,8353,90,0,
