Time(longsecs),Time(UTC),Earth location,GNSS receiver status,GNSS satellites used,Timing status,Phase lock loop status,Time uncertainty(ns),Timing DAC count,Time quality(&#37;),Time error(ns),
1570532400,2019-10-08 11:00:00.000,47.646676N 0.576467E 203m,Off,8,Time OK,Free running,33200,8368,90,0,
1570532700,2019-10-08 11:05:00.000,47.646676N 0.576467E 203m,Off,8,Time OK,Free running,43700,8368,90,0,
1570533000,2019-10-08 11:10:00.000,47.646676N 0.576467E 203m,GNSS locked,7,Time OK,Coarse lock,200,8384,90,-104,
1570533300,2019-10-08 11:15:00.000,47.646676N 0.576467E 203m,Off,8,Time OK,Free running,7100,8374,90,0,
1570533600,2019-10-08 11:20:00.000,47.646676N 0.576467E 203m,Off,8,Time OK,Free running,15700,8374,90,0,
1570533900,2019-10-08 11:25:00.000,47.646676N 0.576467E 203m,Off,8,Time OK,Free running,24300,8374,90,0,
1570534200,2019-10-08 11:30:00.000,47.646676N 0.576467E 203m,Off,8,Time OK,Free running,33500,8374,90,0,
1570534500,2019-10-08 11:35:00.000,47.646676N 0.576467E 203m,Off,8,Time OK,Free running,43300,8374,90,0,
1570534800,2019-10-08 11:40:00.000,47.646676N 0.576467E 203m,GNSS locked,8,Time OK,Coarse lock,400,8356,90,312,
1570535100,2019-10-08 11:45:00.000,47.646676N 0.576467E 203m,Off,8,Time OK,Free running,6000,8368,90,0,
1570535400,2019-10-08 11:50:00.000,47.646676N 0.576467E 203m,Off,8,Time OK,Free running,15100,8368,90,0,
1570535700,2019-10-08 11:55:00.000,47.646676N 0.576467E 203m,Off,8,Time OK,Free running,24100,8368,90,0,
