Time(longsecs),Time(UTC),Supply voltage(V),Total current(A),Temperature(&deg;C),
1570374000,2019-10-06 15:00:00.000,1.3140029519999999E1,9.811616954472E-2,3.5156E1,
1570374300,2019-10-06 15:05:00.000,1.3140029519999999E1,9.593581022150399E-2,3.5156E1,
1570374600,2019-10-06 15:10:00.000,1.3140029519999999E1,9.5209023780432E-2,3.5156E1,
1570374900,2019-10-06 15:15:00.000,1.3099640084999999E1,1.47537647537616E-1,3.5125E1,
1570375200,2019-10-06 15:20:00.000,1.3140029519999999E1,9.5209023780432E-2,3.5218E1,
1570375500,2019-10-06 15:25:00.000,1.3126566375E1,9.593581022150399E-2,3.525E1,
1570375800,2019-10-06 15:30:00.000,1.311310323E1,9.593581022150399E-2,3.5218E1,
1570376100,2019-10-06 15:35:00.000,1.3126566375E1,9.593581022150399E-2,3.5218E1,
1570376400,2019-10-06 15:40:00.000,1.3126566375E1,9.593581022150399E-2,3.5156E1,
1570376700,2019-10-06 15:45:00.000,1.3099640084999999E1,1.28641200069744E-1,3.5062E1,
1570377000,2019-10-06 15:50:00.000,1.3126566375E1,9.593581022150399E-2,3.4968E1,
1570377300,2019-10-06 15:55:00.000,1.311310323E1,9.5209023780432E-2,3.4875E1,
