Time(longsecs),Time(UTC),Supply Voltage(mV),Temperature(&deg;C),NMX Bus Current(mA),Sensor Current(mA),Serial Port Current(mA),Controller Current(mA),Digitizer Current(mA),
1572148838,2019-10-27 04:00:38.748,11776,1.6543762E1,0,13,0,0,54,
1572148898,2019-10-27 04:01:38.746,11776,1.652359E1,0,11,0,0,59,
1572148958,2019-10-27 04:02:38.746,11776,1.6473755E1,0,11,0,0,51,
1572149018,2019-10-27 04:03:38.748,11776,1.6648743E1,0,12,0,0,51,
1572149078,2019-10-27 04:04:38.747,11763,1.6184174E1,0,15,0,6,53,
1572149138,2019-10-27 04:05:38.746,11776,1.6371918E1,0,13,0,5,54,
1572149198,2019-10-27 04:06:38.746,11776,1.6350708E1,0,12,0,5,56,
1572149258,2019-10-27 04:07:38.746,11776,1.6245697E1,0,13,0,5,55,
1572149318,2019-10-27 04:08:38.746,11776,1.6099335E1,0,9,0,5,55,
1572149378,2019-10-27 04:09:38.746,11776,1.6217072E1,0,14,0,0,55,
1572149438,2019-10-27 04:10:38.746,11735,1.642389E1,0,9,0,57,67,
1572149498,2019-10-27 04:11:38.748,11721,1.6452545E1,0,13,0,66,65,
1572149558,2019-10-27 04:12:38.746,11721,1.632843E1,0,12,0,61,65,
1572149618,2019-10-27 04:13:38.748,11721,1.6292358E1,0,17,0,64,65,
1572149678,2019-10-27 04:14:38.746,11721,1.6309357E1,0,11,0,64,66,
1572149738,2019-10-27 04:15:38.746,11721,1.6420715E1,0,17,0,62,69,
1572149798,2019-10-27 04:16:38.746,11695,1.6426025E1,0,22,0,96,71,
1572149858,2019-10-27 04:17:38.746,11681,1.6464203E1,0,12,0,64,64,
1572149918,2019-10-27 04:18:38.746,11735,1.6516174E1,0,10,0,57,63,
1572149978,2019-10-27 04:19:38.746,11721,1.6772858E1,0,15,0,67,58,
1572150038,2019-10-27 04:20:38.746,11776,1.6625427E1,0,13,0,0,53,
1572150098,2019-10-27 04:21:38.746,11776,1.633374E1,0,11,0,0,52,
1572150158,2019-10-27 04:22:38.746,11776,1.648648E1,0,13,0,0,52,
1572150218,2019-10-27 04:23:38.746,11776,1.615448E1,0,13,0,0,50,
1572150278,2019-10-27 04:24:38.746,11763,1.6263733E1,0,14,0,0,60,
1572150338,2019-10-27 04:25:38.746,11776,1.6462067E1,0,13,0,0,55,
1572150398,2019-10-27 04:26:38.746,11776,1.6102509E1,0,13,0,0,52,
1572150458,2019-10-27 04:27:38.746,11763,1.6335846E1,0,13,0,0,51,
1572150518,2019-10-27 04:28:38.746,11776,1.634433E1,0,13,0,0,52,
1572150578,2019-10-27 04:29:38.746,11776,1.6004944E1,0,13,0,0,54,
1572150638,2019-10-27 04:30:38.746,11749,1.6086609E1,0,13,0,0,55,
1572150698,2019-10-27 04:31:38.746,11721,1.5989014E1,0,10,0,0,53,
1572150758,2019-10-27 04:32:38.746,11776,1.6277527E1,0,13,0,0,50,
1572150818,2019-10-27 04:33:38.748,11776,1.6068573E1,0,13,0,0,53,
1572150878,2019-10-27 04:34:38.746,11721,1.5917969E1,0,11,0,70,74,
1572150938,2019-10-27 04:35:38.746,11721,1.6095093E1,0,13,0,65,66,
1572150998,2019-10-27 04:36:38.746,11721,1.5966736E1,0,13,0,64,63,
1572151058,2019-10-27 04:37:38.784,11721,1.610675E1,0,13,0,65,65,
1572151118,2019-10-27 04:38:38.746,11735,1.6000702E1,0,29,0,63,67,
1572151178,2019-10-27 04:39:38.746,11763,1.6350708E1,0,19,0,64,66,
1572151238,2019-10-27 04:40:38.746,11721,1.5920074E1,0,12,0,64,67,
1572151298,2019-10-27 04:41:38.746,11721,1.6297668E1,0,13,0,67,60,
1572151358,2019-10-27 04:42:38.746,11681,1.6304047E1,0,15,0,64,64,
1572151418,2019-10-27 04:43:38.746,11776,1.614389E1,0,12,0,0,58,
1572151478,2019-10-27 04:44:38.746,11735,1.6374054E1,0,13,0,0,55,
1572151538,2019-10-27 04:45:38.746,11735,1.614389E1,0,10,0,0,54,
1572151598,2019-10-27 04:46:38.748,11763,1.6045227E1,0,11,0,0,50,
1572151658,2019-10-27 04:47:38.746,11763,1.59328E1,0,11,0,0,55,
1572151718,2019-10-27 04:48:38.746,11776,1.6011292E1,0,14,0,0,55,
1572151778,2019-10-27 04:49:38.746,11790,1.5923248E1,0,17,0,0,58,
1572151838,2019-10-27 04:50:38.746,11776,1.599115E1,0,13,0,0,57,
1572151898,2019-10-27 04:51:38.746,11763,1.5711121E1,0,16,0,0,60,
1572151958,2019-10-27 04:52:38.746,11776,1.5832031E1,0,13,0,0,53,
1572152018,2019-10-27 04:53:38.749,11763,1.5909485E1,0,15,0,5,52,
1572152078,2019-10-27 04:54:38.746,11776,1.578537E1,0,11,0,0,54,
1572152138,2019-10-27 04:55:38.746,11763,1.54374695E1,0,13,0,0,51,
1572152198,2019-10-27 04:56:38.746,11776,1.5751434E1,0,14,0,0,53,
1572152258,2019-10-27 04:57:38.746,11776,1.5788544E1,0,13,0,0,51,
1572152318,2019-10-27 04:58:38.746,11735,1.5665527E1,0,13,0,56,51,
1572152378,2019-10-27 04:59:38.746,11735,1.576947E1,0,13,0,65,52,
