Time(longsecs),Time(UTC),GPS Satellite Acquisition Flag 1,GPS Satellite Acquisition Flag 2,GPS Satellite Acquisition Flag 3,GPS Satellite Acquisition Flag 4,GPS Satellite Acquisition Flag 5,GPS Satellite Acquisition Flag 6,GPS Satellite Acquisition Flag 7,GPS Satellite Acquisition Flag 8,GPS Satellite Acquisition Flag 9,GPS Satellite Acquisition Flag 10,GPS Satellite Acquisition Flag 11,GPS Satellite Acquisition Flag 12,GPS Satellite Azimuth 1(Degrees),GPS Satellite Azimuth 2(Degrees),GPS Satellite Azimuth 3(Degrees),GPS Satellite Azimuth 4(Degrees),GPS Satellite Azimuth 5(Degrees),GPS Satellite Azimuth 6(Degrees),GPS Satellite Azimuth 7(Degrees),GPS Satellite Azimuth 8(Degrees),GPS Satellite Azimuth 9(Degrees),GPS Satellite Azimuth 10(Degrees),GPS Satellite Azimuth 11(Degrees),GPS Satellite Azimuth 12(Degrees),GPS Satellite Elevation 1(Degrees),GPS Satellite Elevation 2(Degrees),GPS Satellite Elevation 3(Degrees),GPS Satellite Elevation 4(Degrees),GPS Satellite Elevation 5(Degrees),GPS Satellite Elevation 6(Degrees),GPS Satellite Elevation 7(Degrees),GPS Satellite Elevation 8(Degrees),GPS Satellite Elevation 9(Degrees),GPS Satellite Elevation 10(Degrees),GPS Satellite Elevation 11(Degrees),GPS Satellite Elevation 12(Degrees),GPS Satellite PRN 1,GPS Satellite PRN 2,GPS Satellite PRN 3,GPS Satellite PRN 4,GPS Satellite PRN 5,GPS Satellite PRN 6,GPS Satellite PRN 7,GPS Satellite PRN 8,GPS Satellite PRN 9,GPS Satellite PRN 10,GPS Satellite PRN 11,GPS Satellite PRN 12,GPS Satellite Signal Level 1(AMU),GPS Satellite Signal Level 2(AMU),GPS Satellite Signal Level 3(AMU),GPS Satellite Signal Level 4(AMU),GPS Satellite Signal Level 5(AMU),GPS Satellite Signal Level 6(AMU),GPS Satellite Signal Level 7(AMU),GPS Satellite Signal Level 8(AMU),GPS Satellite Signal Level 9(AMU),GPS Satellite Signal Level 10(AMU),GPS Satellite Signal Level 11(AMU),GPS Satellite Signal Level 12(AMU),
1571774411,2019-10-22 20:00:11.767,Acquired,Acquired,Acquired,Acquired,Acquired,Acquired,Acquired,Not acquired,Not acquired,,,,1.9037248E2,9.4994272E1,2.93661632E2,3.180376E2,2.5644721599999997E2,7.877494399999999E1,6.8333632E1,1.1955792799999999E2,2.92298752E2,,,,2.7140962E1,8.076015199999999E1,6.1182964E1,1.7117162E1,2.2590578E1,5.3391568E1,2.6507603999999997E1,6.854524E0,5.350969999999999E0,,,,5,13,15,20,24,28,30,17,21,,,,15,12,15,2,1,7,6,2,0,,,,
1571774471,2019-10-22 20:01:11.767,Acquired,Acquired,Acquired,Acquired,Acquired,Acquired,Acquired,Not acquired,Not acquired,,,,1.9037248E2,9.4994272E1,2.93661632E2,3.180376E2,2.5644721599999997E2,7.877494399999999E1,6.8333632E1,1.1955792799999999E2,2.92298752E2,,,,2.7140962E1,8.076015199999999E1,6.1182964E1,1.7117162E1,2.2590578E1,5.3391568E1,2.6507603999999997E1,6.854524E0,5.350969999999999E0,,,,5,13,15,20,24,28,30,17,21,,,,15,12,15,2,1,7,6,2,0,,,,
1571774531,2019-10-22 20:02:11.767,Acquired,Acquired,Acquired,Acquired,Acquired,Acquired,Acquired,Not acquired,Not acquired,,,,1.9037248E2,9.4994272E1,2.93661632E2,3.180376E2,2.5644721599999997E2,7.877494399999999E1,6.8333632E1,1.1955792799999999E2,2.92298752E2,,,,2.7140962E1,8.076015199999999E1,6.1182964E1,1.7117162E1,2.2590578E1,5.3391568E1,2.6507603999999997E1,6.854524E0,5.350969999999999E0,,,,5,13,15,20,24,28,30,17,21,,,,15,12,15,2,1,7,6,2,0,,,,
1571774591,2019-10-22 20:03:11.767,Acquired,Acquired,Acquired,Acquired,Acquired,Acquired,Acquired,Not acquired,Not acquired,,,,1.9037248E2,9.4994272E1,2.93661632E2,3.180376E2,2.5644721599999997E2,7.877494399999999E1,6.8333632E1,1.1955792799999999E2,2.92298752E2,,,,2.7140962E1,8.076015199999999E1,6.1182964E1,1.7117162E1,2.2590578E1,5.3391568E1,2.6507603999999997E1,6.854524E0,5.350969999999999E0,,,,5,13,15,20,24,28,30,17,21,,,,15,12,15,2,1,7,6,2,0,,,,
1571774651,2019-10-22 20:04:11.767,Acquired,Acquired,Acquired,Acquired,Acquired,Acquired,Acquired,Not acquired,Not acquired,,,,1.9037248E2,9.4994272E1,2.93661632E2,3.180376E2,2.5644721599999997E2,7.877494399999999E1,6.8333632E1,1.1955792799999999E2,2.92298752E2,,,,2.7140962E1,8.076015199999999E1,6.1182964E1,1.7117162E1,2.2590578E1,5.3391568E1,2.6507603999999997E1,6.854524E0,5.350969999999999E0,,,,5,13,15,20,24,28,30,17,21,,,,15,12,15,2,1,7,6,2,0,,,,
1571774711,2019-10-22 20:05:11.796,Acquired,Acquired,Acquired,Acquired,Acquired,Acquired,Acquired,Not acquired,Not acquired,,,,1.9037248E2,9.4994272E1,2.93661632E2,3.180376E2,2.5644721599999997E2,7.877494399999999E1,6.8333632E1,1.1955792799999999E2,2.92298752E2,,,,2.7140962E1,8.076015199999999E1,6.1182964E1,1.7117162E1,2.2590578E1,5.3391568E1,2.6507603999999997E1,6.854524E0,5.350969999999999E0,,,,5,13,15,20,24,28,30,17,21,,,,15,12,15,2,1,7,6,2,0,,,,
1571774771,2019-10-22 20:06:11.767,Acquired,Acquired,Acquired,Acquired,Acquired,Acquired,Acquired,Not acquired,Not acquired,,,,1.9037248E2,9.4994272E1,2.93661632E2,3.180376E2,2.5644721599999997E2,7.877494399999999E1,6.8333632E1,1.1955792799999999E2,2.92298752E2,,,,2.7140962E1,8.076015199999999E1,6.1182964E1,1.7117162E1,2.2590578E1,5.3391568E1,2.6507603999999997E1,6.854524E0,5.350969999999999E0,,,,5,13,15,20,24,28,30,17,21,,,,15,12,15,2,1,7,6,2,0,,,,
1571774831,2019-10-22 20:07:11.767,Acquired,Acquired,Acquired,Acquired,Acquired,Acquired,Acquired,Not acquired,Not acquired,,,,1.9037248E2,9.4994272E1,2.93661632E2,3.180376E2,2.5644721599999997E2,7.877494399999999E1,6.8333632E1,1.1955792799999999E2,2.92298752E2,,,,2.7140962E1,8.076015199999999E1,6.1182964E1,1.7117162E1,2.2590578E1,5.3391568E1,2.6507603999999997E1,6.854524E0,5.350969999999999E0,,,,5,13,15,20,24,28,30,17,21,,,,15,12,15,2,1,7,6,2,0,,,,
1571774891,2019-10-22 20:08:11.767,Acquired,Acquired,Acquired,Acquired,Acquired,Acquired,Acquired,Not acquired,Not acquired,,,,1.9037248E2,9.4994272E1,2.93661632E2,3.180376E2,2.5644721599999997E2,7.877494399999999E1,6.8333632E1,1.1955792799999999E2,2.92298752E2,,,,2.7140962E1,8.076015199999999E1,6.1182964E1,1.7117162E1,2.2590578E1,5.3391568E1,2.6507603999999997E1,6.854524E0,5.350969999999999E0,,,,5,13,15,20,24,28,30,17,21,,,,15,12,15,2,1,7,6,2,0,,,,
1571774951,2019-10-22 20:09:11.767,Acquired,Acquired,Acquired,Acquired,Acquired,Acquired,Acquired,Not acquired,Not acquired,,,,1.9037248E2,9.4994272E1,2.93661632E2,3.180376E2,2.5644721599999997E2,7.877494399999999E1,6.8333632E1,1.1955792799999999E2,2.92298752E2,,,,2.7140962E1,8.076015199999999E1,6.1182964E1,1.7117162E1,2.2590578E1,5.3391568E1,2.6507603999999997E1,6.854524E0,5.350969999999999E0,,,,5,13,15,20,24,28,30,17,21,,,,15,12,15,2,1,7,6,2,0,,,,
1571775011,2019-10-22 20:10:11.767,Acquired,Acquired,Acquired,Acquired,Acquired,Acquired,Acquired,Not acquired,Not acquired,,,,1.9037248E2,9.4994272E1,2.93661632E2,3.180376E2,2.5644721599999997E2,7.877494399999999E1,6.8333632E1,1.1955792799999999E2,2.92298752E2,,,,2.7140962E1,8.076015199999999E1,6.1182964E1,1.7117162E1,2.2590578E1,5.3391568E1,2.6507603999999997E1,6.854524E0,5.350969999999999E0,,,,5,13,15,20,24,28,30,17,21,,,,15,12,15,2,1,7,6,2,0,,,,
1571775071,2019-10-22 20:11:11.767,Acquired,Acquired,Acquired,Acquired,Acquired,Acquired,Acquired,Not acquired,Not acquired,,,,1.9037248E2,9.4994272E1,2.93661632E2,3.180376E2,2.5644721599999997E2,7.877494399999999E1,6.8333632E1,1.1955792799999999E2,2.92298752E2,,,,2.7140962E1,8.076015199999999E1,6.1182964E1,1.7117162E1,2.2590578E1,5.3391568E1,2.6507603999999997E1,6.854524E0,5.350969999999999E0,,,,5,13,15,20,24,28,30,17,21,,,,15,12,15,2,1,7,6,2,0,,,,
1571775131,2019-10-22 20:12:11.767,Acquired,Acquired,Acquired,Acquired,Acquired,Acquired,Acquired,Not acquired,Not acquired,,,,1.9037248E2,9.4994272E1,2.93661632E2,3.180376E2,2.5644721599999997E2,7.877494399999999E1,6.8333632E1,1.1955792799999999E2,2.92298752E2,,,,2.7140962E1,8.076015199999999E1,6.1182964E1,1.7117162E1,2.2590578E1,5.3391568E1,2.6507603999999997E1,6.854524E0,5.350969999999999E0,,,,5,13,15,20,24,28,30,17,21,,,,15,12,15,2,1,7,6,2,0,,,,
1571775191,2019-10-22 20:13:11.767,Acquired,Acquired,Acquired,Acquired,Acquired,Acquired,Acquired,Not acquired,Not acquired,,,,1.9037248E2,9.4994272E1,2.93661632E2,3.180376E2,2.5644721599999997E2,7.877494399999999E1,6.8333632E1,1.1955792799999999E2,2.92298752E2,,,,2.7140962E1,8.076015199999999E1,6.1182964E1,1.7117162E1,2.2590578E1,5.3391568E1,2.6507603999999997E1,6.854524E0,5.350969999999999E0,,,,5,13,15,20,24,28,30,17,21,,,,15,12,15,2,1,7,6,2,0,,,,
1571775251,2019-10-22 20:14:11.767,Acquired,Acquired,Acquired,Acquired,Acquired,Acquired,Acquired,Not acquired,Not acquired,,,,1.9037248E2,9.4994272E1,2.93661632E2,3.180376E2,2.5644721599999997E2,7.877494399999999E1,6.8333632E1,1.1955792799999999E2,2.92298752E2,,,,2.7140962E1,8.076015199999999E1,6.1182964E1,1.7117162E1,2.2590578E1,5.3391568E1,2.6507603999999997E1,6.854524E0,5.350969999999999E0,,,,5,13,15,20,24,28,30,17,21,,,,15,12,15,2,1,7,6,2,0,,,,
1571775311,2019-10-22 20:15:11.767,Acquired,Acquired,Acquired,Acquired,Acquired,Acquired,Acquired,Not acquired,Not acquired,,,,1.9037248E2,9.4994272E1,2.93661632E2,3.180376E2,2.5644721599999997E2,7.877494399999999E1,6.8333632E1,1.1955792799999999E2,2.92298752E2,,,,2.7140962E1,8.076015199999999E1,6.1182964E1,1.7117162E1,2.2590578E1,5.3391568E1,2.6507603999999997E1,6.854524E0,5.350969999999999E0,,,,5,13,15,20,24,28,30,17,21,,,,15,12,15,2,1,7,6,2,0,,,,
1571775371,2019-10-22 20:16:11.767,Acquired,Acquired,Acquired,Acquired,Acquired,Acquired,Acquired,Not acquired,Not acquired,,,,1.9037248E2,9.4994272E1,2.93661632E2,3.180376E2,2.5644721599999997E2,7.877494399999999E1,6.8333632E1,1.1955792799999999E2,2.92298752E2,,,,2.7140962E1,8.076015199999999E1,6.1182964E1,1.7117162E1,2.2590578E1,5.3391568E1,2.6507603999999997E1,6.854524E0,5.350969999999999E0,,,,5,13,15,20,24,28,30,17,21,,,,15,12,15,2,1,7,6,2,0,,,,
1571775431,2019-10-22 20:17:11.767,Acquired,Acquired,Acquired,Acquired,Acquired,Acquired,Acquired,Not acquired,Not acquired,,,,1.9037248E2,9.4994272E1,2.93661632E2,3.180376E2,2.5644721599999997E2,7.877494399999999E1,6.8333632E1,1.1955792799999999E2,2.92298752E2,,,,2.7140962E1,8.076015199999999E1,6.1182964E1,1.7117162E1,2.2590578E1,5.3391568E1,2.6507603999999997E1,6.854524E0,5.350969999999999E0,,,,5,13,15,20,24,28,30,17,21,,,,15,12,15,2,1,7,6,2,0,,,,
1571775491,2019-10-22 20:18:11.767,Acquired,Acquired,Acquired,Acquired,Acquired,Acquired,Acquired,Not acquired,Not acquired,,,,1.9037248E2,9.4994272E1,2.93661632E2,3.180376E2,2.5644721599999997E2,7.877494399999999E1,6.8333632E1,1.1955792799999999E2,2.92298752E2,,,,2.7140962E1,8.076015199999999E1,6.1182964E1,1.7117162E1,2.2590578E1,5.3391568E1,2.6507603999999997E1,6.854524E0,5.350969999999999E0,,,,5,13,15,20,24,28,30,17,21,,,,15,12,15,2,1,7,6,2,0,,,,
1571775551,2019-10-22 20:19:11.767,Acquired,Acquired,Acquired,Acquired,Acquired,Acquired,Acquired,Not acquired,Not acquired,,,,1.9037248E2,9.4994272E1,2.93661632E2,3.180376E2,2.5644721599999997E2,7.877494399999999E1,6.8333632E1,1.1955792799999999E2,2.92298752E2,,,,2.7140962E1,8.076015199999999E1,6.1182964E1,1.7117162E1,2.2590578E1,5.3391568E1,2.6507603999999997E1,6.854524E0,5.350969999999999E0,,,,5,13,15,20,24,28,30,17,21,,,,15,12,15,2,1,7,6,2,0,,,,
1571775611,2019-10-22 20:20:11.767,Acquired,Acquired,Acquired,Acquired,Acquired,Acquired,Acquired,Not acquired,Not acquired,,,,1.9037248E2,9.4994272E1,2.93661632E2,3.180376E2,2.5644721599999997E2,7.877494399999999E1,6.8333632E1,1.1955792799999999E2,2.92298752E2,,,,2.7140962E1,8.076015199999999E1,6.1182964E1,1.7117162E1,2.2590578E1,5.3391568E1,2.6507603999999997E1,6.854524E0,5.350969999999999E0,,,,5,13,15,20,24,28,30,17,21,,,,15,12,15,2,1,7,6,2,0,,,,
1571775671,2019-10-22 20:21:11.767,Acquired,Acquired,Acquired,Acquired,Acquired,Acquired,Acquired,Not acquired,Not acquired,,,,1.9037248E2,9.4994272E1,2.93661632E2,3.180376E2,2.5644721599999997E2,7.877494399999999E1,6.8333632E1,1.1955792799999999E2,2.92298752E2,,,,2.7140962E1,8.076015199999999E1,6.1182964E1,1.7117162E1,2.2590578E1,5.3391568E1,2.6507603999999997E1,6.854524E0,5.350969999999999E0,,,,5,13,15,20,24,28,30,17,21,,,,15,12,15,2,1,7,6,2,0,,,,
1571775731,2019-10-22 20:22:11.767,Acquired,Acquired,Acquired,Acquired,Acquired,Acquired,Not acquired,Not acquired,,Not acquired,Acquired,,1.26191288E2,2.4971464E2,1.0505488E2,3.0107235199999997E2,2.69108864E2,5.5198736E1,1.8574432E2,3.25934752E2,,1.25721992E2,7.734652799999999E1,,5.9895924E1,7.74988E1,2.193659E1,2.6675656E1,4.0823603999999996E1,4.1608244E1,7.638357999999999E0,1.2210742E1,,1.2745294E1,9.293914E0,,13,15,17,20,24,28,5,10,,19,30,,13,15,7,4,13,7,0,0,,1,1,,
1571775791,2019-10-22 20:23:11.767,Not acquired,Acquired,Acquired,Acquired,Acquired,Acquired,Acquired,Acquired,Acquired,,,,3.0840432E2,2.11820608E2,1.39438304E2,1.8215713599999998E2,8.2248504E1,1.08349736E2,2.76514112E2,2.85917088E2,4.8104168E1,,,,2.3232924E1,3.371842E1,3.6351984E1,6.3045475999999994E1,3.3316232E1,3.0046053999999998E1,2.6015558E1,6.2209896E1,2.2519558E1,,,,10,12,13,15,17,19,20,24,28,,,,1,14,8,16,6,7,2,15,1,,,,
1571775851,2019-10-22 20:24:11.767,Not acquired,Acquired,Acquired,Acquired,Acquired,Acquired,Acquired,Acquired,Acquired,,,,3.0840432E2,2.11820608E2,1.39438304E2,1.8215713599999998E2,8.2248504E1,1.08349736E2,2.76514112E2,2.85917088E2,4.8104168E1,,,,2.3232924E1,3.371842E1,3.6351984E1,6.3045475999999994E1,3.3316232E1,3.0046053999999998E1,2.6015558E1,6.2209896E1,2.2519558E1,,,,10,12,13,15,17,19,20,24,28,,,,1,14,8,16,6,7,2,15,1,,,,
1571775911,2019-10-22 20:25:11.767,Not acquired,Acquired,Acquired,Acquired,Acquired,Acquired,Acquired,Acquired,Acquired,,,,3.0840432E2,2.11820608E2,1.39438304E2,1.8215713599999998E2,8.2248504E1,1.08349736E2,2.76514112E2,2.85917088E2,4.8104168E1,,,,2.3232924E1,3.371842E1,3.6351984E1,6.3045475999999994E1,3.3316232E1,3.0046053999999998E1,2.6015558E1,6.2209896E1,2.2519558E1,,,,10,12,13,15,17,19,20,24,28,,,,1,14,8,16,6,7,2,15,1,,,,
1571775971,2019-10-22 20:26:11.767,Not acquired,Acquired,Acquired,Acquired,Acquired,Acquired,Acquired,Acquired,Acquired,,,,3.0840432E2,2.11820608E2,1.39438304E2,1.8215713599999998E2,8.2248504E1,1.08349736E2,2.76514112E2,2.85917088E2,4.8104168E1,,,,2.3232924E1,3.371842E1,3.6351984E1,6.3045475999999994E1,3.3316232E1,3.0046053999999998E1,2.6015558E1,6.2209896E1,2.2519558E1,,,,10,12,13,15,17,19,20,24,28,,,,1,14,8,16,6,7,2,15,1,,,,
1571776031,2019-10-22 20:27:11.768,Not acquired,Acquired,Acquired,Acquired,Acquired,Acquired,Acquired,Acquired,Acquired,,,,3.0840432E2,2.11820608E2,1.39438304E2,1.8215713599999998E2,8.2248504E1,1.08349736E2,2.76514112E2,2.85917088E2,4.8104168E1,,,,2.3232924E1,3.371842E1,3.6351984E1,6.3045475999999994E1,3.3316232E1,3.0046053999999998E1,2.6015558E1,6.2209896E1,2.2519558E1,,,,10,12,13,15,17,19,20,24,28,,,,1,14,8,16,6,7,2,15,1,,,,
1571776091,2019-10-22 20:28:11.767,Not acquired,Acquired,Acquired,Acquired,Acquired,Acquired,Acquired,Acquired,Acquired,,,,3.0840432E2,2.11820608E2,1.39438304E2,1.8215713599999998E2,8.2248504E1,1.08349736E2,2.76514112E2,2.85917088E2,4.8104168E1,,,,2.3232924E1,3.371842E1,3.6351984E1,6.3045475999999994E1,3.3316232E1,3.0046053999999998E1,2.6015558E1,6.2209896E1,2.2519558E1,,,,10,12,13,15,17,19,20,24,28,,,,1,14,8,16,6,7,2,15,1,,,,
1571776151,2019-10-22 20:29:11.767,Not acquired,Acquired,Acquired,Acquired,Acquired,Acquired,Acquired,Acquired,Acquired,,,,3.0840432E2,2.11820608E2,1.39438304E2,1.8215713599999998E2,8.2248504E1,1.08349736E2,2.76514112E2,2.85917088E2,4.8104168E1,,,,2.3232924E1,3.371842E1,3.6351984E1,6.3045475999999994E1,3.3316232E1,3.0046053999999998E1,2.6015558E1,6.2209896E1,2.2519558E1,,,,10,12,13,15,17,19,20,24,28,,,,1,14,8,16,6,7,2,15,1,,,,
1571776211,2019-10-22 20:30:11.767,Not acquired,Acquired,Acquired,Acquired,Acquired,Acquired,Acquired,Acquired,Acquired,,,,3.0840432E2,2.11820608E2,1.39438304E2,1.8215713599999998E2,8.2248504E1,1.08349736E2,2.76514112E2,2.85917088E2,4.8104168E1,,,,2.3232924E1,3.371842E1,3.6351984E1,6.3045475999999994E1,3.3316232E1,3.0046053999999998E1,2.6015558E1,6.2209896E1,2.2519558E1,,,,10,12,13,15,17,19,20,24,28,,,,1,14,8,16,6,7,2,15,1,,,,
1571776271,2019-10-22 20:31:11.767,Not acquired,Acquired,Acquired,Acquired,Acquired,Acquired,Acquired,Acquired,Acquired,,,,3.0840432E2,2.11820608E2,1.39438304E2,1.8215713599999998E2,8.2248504E1,1.08349736E2,2.76514112E2,2.85917088E2,4.8104168E1,,,,2.3232924E1,3.371842E1,3.6351984E1,6.3045475999999994E1,3.3316232E1,3.0046053999999998E1,2.6015558E1,6.2209896E1,2.2519558E1,,,,10,12,13,15,17,19,20,24,28,,,,1,14,8,16,6,7,2,15,1,,,,
1571776331,2019-10-22 20:32:11.779,Not acquired,Acquired,Acquired,Acquired,Acquired,Acquired,Acquired,Acquired,Acquired,,,,3.0840432E2,2.11820608E2,1.39438304E2,1.8215713599999998E2,8.2248504E1,1.08349736E2,2.76514112E2,2.85917088E2,4.8104168E1,,,,2.3232924E1,3.371842E1,3.6351984E1,6.3045475999999994E1,3.3316232E1,3.0046053999999998E1,2.6015558E1,6.2209896E1,2.2519558E1,,,,10,12,13,15,17,19,20,24,28,,,,1,14,8,16,6,7,2,15,1,,,,
1571776391,2019-10-22 20:33:11.767,Not acquired,Acquired,Acquired,Acquired,Acquired,Acquired,Acquired,Acquired,Acquired,,,,3.0840432E2,2.11820608E2,1.39438304E2,1.8215713599999998E2,8.2248504E1,1.08349736E2,2.76514112E2,2.85917088E2,4.8104168E1,,,,2.3232924E1,3.371842E1,3.6351984E1,6.3045475999999994E1,3.3316232E1,3.0046053999999998E1,2.6015558E1,6.2209896E1,2.2519558E1,,,,10,12,13,15,17,19,20,24,28,,,,1,14,8,16,6,7,2,15,1,,,,
1571776451,2019-10-22 20:34:11.767,Not acquired,Acquired,Acquired,Acquired,Acquired,Acquired,Acquired,Acquired,Acquired,,,,3.0840432E2,2.11820608E2,1.39438304E2,1.8215713599999998E2,8.2248504E1,1.08349736E2,2.76514112E2,2.85917088E2,4.8104168E1,,,,2.3232924E1,3.371842E1,3.6351984E1,6.3045475999999994E1,3.3316232E1,3.0046053999999998E1,2.6015558E1,6.2209896E1,2.2519558E1,,,,10,12,13,15,17,19,20,24,28,,,,1,14,8,16,6,7,2,15,1,,,,
1571776511,2019-10-22 20:35:11.767,Not acquired,Acquired,Acquired,Acquired,Acquired,Acquired,Acquired,Acquired,Acquired,,,,3.0840432E2,2.11820608E2,1.39438304E2,1.8215713599999998E2,8.2248504E1,1.08349736E2,2.76514112E2,2.85917088E2,4.8104168E1,,,,2.3232924E1,3.371842E1,3.6351984E1,6.3045475999999994E1,3.3316232E1,3.0046053999999998E1,2.6015558E1,6.2209896E1,2.2519558E1,,,,10,12,13,15,17,19,20,24,28,,,,1,14,8,16,6,7,2,15,1,,,,
1571776571,2019-10-22 20:36:11.767,Not acquired,Acquired,Acquired,Acquired,Acquired,Acquired,Acquired,Acquired,Acquired,,,,3.0840432E2,2.11820608E2,1.39438304E2,1.8215713599999998E2,8.2248504E1,1.08349736E2,2.76514112E2,2.85917088E2,4.8104168E1,,,,2.3232924E1,3.371842E1,3.6351984E1,6.3045475999999994E1,3.3316232E1,3.0046053999999998E1,2.6015558E1,6.2209896E1,2.2519558E1,,,,10,12,13,15,17,19,20,24,28,,,,1,14,8,16,6,7,2,15,1,,,,
1571776631,2019-10-22 20:37:11.767,Not acquired,Acquired,Acquired,Acquired,Acquired,Acquired,Acquired,Acquired,Acquired,,,,3.0840432E2,2.11820608E2,1.39438304E2,1.8215713599999998E2,8.2248504E1,1.08349736E2,2.76514112E2,2.85917088E2,4.8104168E1,,,,2.3232924E1,3.371842E1,3.6351984E1,6.3045475999999994E1,3.3316232E1,3.0046053999999998E1,2.6015558E1,6.2209896E1,2.2519558E1,,,,10,12,13,15,17,19,20,24,28,,,,1,14,8,16,6,7,2,15,1,,,,
1571776691,2019-10-22 20:38:11.767,Not acquired,Acquired,Acquired,Acquired,Acquired,Acquired,Acquired,Acquired,Acquired,,,,3.0840432E2,2.11820608E2,1.39438304E2,1.8215713599999998E2,8.2248504E1,1.08349736E2,2.76514112E2,2.85917088E2,4.8104168E1,,,,2.3232924E1,3.371842E1,3.6351984E1,6.3045475999999994E1,3.3316232E1,3.0046053999999998E1,2.6015558E1,6.2209896E1,2.2519558E1,,,,10,12,13,15,17,19,20,24,28,,,,1,14,8,16,6,7,2,15,1,,,,
1571776751,2019-10-22 20:39:11.769,Not acquired,Acquired,Acquired,Acquired,Acquired,Acquired,Acquired,Acquired,Acquired,,,,3.0840432E2,2.11820608E2,1.39438304E2,1.8215713599999998E2,8.2248504E1,1.08349736E2,2.76514112E2,2.85917088E2,4.8104168E1,,,,2.3232924E1,3.371842E1,3.6351984E1,6.3045475999999994E1,3.3316232E1,3.0046053999999998E1,2.6015558E1,6.2209896E1,2.2519558E1,,,,10,12,13,15,17,19,20,24,28,,,,1,14,8,16,6,7,2,15,1,,,,
1571776811,2019-10-22 20:40:11.767,Not acquired,Acquired,Acquired,Acquired,Acquired,Acquired,Acquired,Acquired,Acquired,,,,3.0840432E2,2.11820608E2,1.39438304E2,1.8215713599999998E2,8.2248504E1,1.08349736E2,2.76514112E2,2.85917088E2,4.8104168E1,,,,2.3232924E1,3.371842E1,3.6351984E1,6.3045475999999994E1,3.3316232E1,3.0046053999999998E1,2.6015558E1,6.2209896E1,2.2519558E1,,,,10,12,13,15,17,19,20,24,28,,,,1,14,8,16,6,7,2,15,1,,,,
1571776871,2019-10-22 20:41:11.767,Not acquired,Acquired,Acquired,Acquired,Acquired,Acquired,Acquired,Acquired,Acquired,,,,3.0840432E2,2.11820608E2,1.39438304E2,1.8215713599999998E2,8.2248504E1,1.08349736E2,2.76514112E2,2.85917088E2,4.8104168E1,,,,2.3232924E1,3.371842E1,3.6351984E1,6.3045475999999994E1,3.3316232E1,3.0046053999999998E1,2.6015558E1,6.2209896E1,2.2519558E1,,,,10,12,13,15,17,19,20,24,28,,,,1,14,8,16,6,7,2,15,1,,,,
1571776931,2019-10-22 20:42:11.767,Not acquired,Acquired,Acquired,Acquired,Acquired,Acquired,Acquired,Acquired,Acquired,,,,3.0840432E2,2.11820608E2,1.39438304E2,1.8215713599999998E2,8.2248504E1,1.08349736E2,2.76514112E2,2.85917088E2,4.8104168E1,,,,2.3232924E1,3.371842E1,3.6351984E1,6.3045475999999994E1,3.3316232E1,3.0046053999999998E1,2.6015558E1,6.2209896E1,2.2519558E1,,,,10,12,13,15,17,19,20,24,28,,,,1,14,8,16,6,7,2,15,1,,,,
1571776991,2019-10-22 20:43:11.798,Not acquired,Acquired,Acquired,Acquired,Acquired,Acquired,Acquired,Acquired,Acquired,,,,3.0840432E2,2.11820608E2,1.39438304E2,1.8215713599999998E2,8.2248504E1,1.08349736E2,2.76514112E2,2.85917088E2,4.8104168E1,,,,2.3232924E1,3.371842E1,3.6351984E1,6.3045475999999994E1,3.3316232E1,3.0046053999999998E1,2.6015558E1,6.2209896E1,2.2519558E1,,,,10,12,13,15,17,19,20,24,28,,,,1,14,8,16,6,7,2,15,1,,,,
1571777051,2019-10-22 20:44:11.767,Not acquired,Acquired,Acquired,Acquired,Acquired,Acquired,Acquired,Acquired,Acquired,,,,3.0840432E2,2.11820608E2,1.39438304E2,1.8215713599999998E2,8.2248504E1,1.08349736E2,2.76514112E2,2.85917088E2,4.8104168E1,,,,2.3232924E1,3.371842E1,3.6351984E1,6.3045475999999994E1,3.3316232E1,3.0046053999999998E1,2.6015558E1,6.2209896E1,2.2519558E1,,,,10,12,13,15,17,19,20,24,28,,,,1,14,8,16,6,7,2,15,1,,,,
1571777111,2019-10-22 20:45:11.769,Not acquired,Acquired,Acquired,Acquired,Acquired,Acquired,Acquired,Acquired,Acquired,,,,3.0840432E2,2.11820608E2,1.39438304E2,1.8215713599999998E2,8.2248504E1,1.08349736E2,2.76514112E2,2.85917088E2,4.8104168E1,,,,2.3232924E1,3.371842E1,3.6351984E1,6.3045475999999994E1,3.3316232E1,3.0046053999999998E1,2.6015558E1,6.2209896E1,2.2519558E1,,,,10,12,13,15,17,19,20,24,28,,,,1,14,8,16,6,7,2,15,1,,,,
1571777171,2019-10-22 20:46:11.767,Not acquired,Acquired,Acquired,Acquired,Acquired,Acquired,Acquired,Acquired,Acquired,,,,3.0840432E2,2.11820608E2,1.39438304E2,1.8215713599999998E2,8.2248504E1,1.08349736E2,2.76514112E2,2.85917088E2,4.8104168E1,,,,2.3232924E1,3.371842E1,3.6351984E1,6.3045475999999994E1,3.3316232E1,3.0046053999999998E1,2.6015558E1,6.2209896E1,2.2519558E1,,,,10,12,13,15,17,19,20,24,28,,,,1,14,8,16,6,7,2,15,1,,,,
1571777231,2019-10-22 20:47:11.767,Not acquired,Acquired,Acquired,Acquired,Acquired,Acquired,Acquired,Acquired,Acquired,,,,3.0840432E2,2.11820608E2,1.39438304E2,1.8215713599999998E2,8.2248504E1,1.08349736E2,2.76514112E2,2.85917088E2,4.8104168E1,,,,2.3232924E1,3.371842E1,3.6351984E1,6.3045475999999994E1,3.3316232E1,3.0046053999999998E1,2.6015558E1,6.2209896E1,2.2519558E1,,,,10,12,13,15,17,19,20,24,28,,,,1,14,8,16,6,7,2,15,1,,,,
1571777291,2019-10-22 20:48:11.767,Not acquired,Acquired,Acquired,Acquired,Acquired,Acquired,Acquired,Acquired,Acquired,,,,3.0840432E2,2.11820608E2,1.39438304E2,1.8215713599999998E2,8.2248504E1,1.08349736E2,2.76514112E2,2.85917088E2,4.8104168E1,,,,2.3232924E1,3.371842E1,3.6351984E1,6.3045475999999994E1,3.3316232E1,3.0046053999999998E1,2.6015558E1,6.2209896E1,2.2519558E1,,,,10,12,13,15,17,19,20,24,28,,,,1,14,8,16,6,7,2,15,1,,,,
1571777351,2019-10-22 20:49:11.767,Not acquired,Acquired,Acquired,Acquired,Acquired,Acquired,Acquired,Acquired,Acquired,,,,3.0840432E2,2.11820608E2,1.39438304E2,1.8215713599999998E2,8.2248504E1,1.08349736E2,2.76514112E2,2.85917088E2,4.8104168E1,,,,2.3232924E1,3.371842E1,3.6351984E1,6.3045475999999994E1,3.3316232E1,3.0046053999999998E1,2.6015558E1,6.2209896E1,2.2519558E1,,,,10,12,13,15,17,19,20,24,28,,,,1,14,8,16,6,7,2,15,1,,,,
1571777411,2019-10-22 20:50:11.767,Not acquired,Acquired,Acquired,Acquired,Acquired,Acquired,Acquired,Acquired,Acquired,,,,3.0840432E2,2.11820608E2,1.39438304E2,1.8215713599999998E2,8.2248504E1,1.08349736E2,2.76514112E2,2.85917088E2,4.8104168E1,,,,2.3232924E1,3.371842E1,3.6351984E1,6.3045475999999994E1,3.3316232E1,3.0046053999999998E1,2.6015558E1,6.2209896E1,2.2519558E1,,,,10,12,13,15,17,19,20,24,28,,,,1,14,8,16,6,7,2,15,1,,,,
1571777471,2019-10-22 20:51:11.768,Not acquired,Acquired,Acquired,Acquired,Acquired,Acquired,Acquired,Acquired,Acquired,,,,3.0840432E2,2.11820608E2,1.39438304E2,1.8215713599999998E2,8.2248504E1,1.08349736E2,2.76514112E2,2.85917088E2,4.8104168E1,,,,2.3232924E1,3.371842E1,3.6351984E1,6.3045475999999994E1,3.3316232E1,3.0046053999999998E1,2.6015558E1,6.2209896E1,2.2519558E1,,,,10,12,13,15,17,19,20,24,28,,,,1,14,8,16,6,7,2,15,1,,,,
1571777531,2019-10-22 20:52:11.768,Not acquired,Acquired,Acquired,Acquired,Acquired,Acquired,Acquired,Acquired,Acquired,,,,3.0840432E2,2.11820608E2,1.39438304E2,1.8215713599999998E2,8.2248504E1,1.08349736E2,2.76514112E2,2.85917088E2,4.8104168E1,,,,2.3232924E1,3.371842E1,3.6351984E1,6.3045475999999994E1,3.3316232E1,3.0046053999999998E1,2.6015558E1,6.2209896E1,2.2519558E1,,,,10,12,13,15,17,19,20,24,28,,,,1,14,8,16,6,7,2,15,1,,,,
1571777591,2019-10-22 20:53:11.767,Not acquired,Acquired,Acquired,Acquired,Acquired,Acquired,Acquired,Acquired,Acquired,,,,3.0840432E2,2.11820608E2,1.39438304E2,1.8215713599999998E2,8.2248504E1,1.08349736E2,2.76514112E2,2.85917088E2,4.8104168E1,,,,2.3232924E1,3.371842E1,3.6351984E1,6.3045475999999994E1,3.3316232E1,3.0046053999999998E1,2.6015558E1,6.2209896E1,2.2519558E1,,,,10,12,13,15,17,19,20,24,28,,,,1,14,8,16,6,7,2,15,1,,,,
1571777651,2019-10-22 20:54:11.767,Not acquired,Acquired,Acquired,Acquired,Acquired,Acquired,Acquired,Acquired,Acquired,,,,3.0840432E2,2.11820608E2,1.39438304E2,1.8215713599999998E2,8.2248504E1,1.08349736E2,2.76514112E2,2.85917088E2,4.8104168E1,,,,2.3232924E1,3.371842E1,3.6351984E1,6.3045475999999994E1,3.3316232E1,3.0046053999999998E1,2.6015558E1,6.2209896E1,2.2519558E1,,,,10,12,13,15,17,19,20,24,28,,,,1,14,8,16,6,7,2,15,1,,,,
1571777711,2019-10-22 20:55:11.768,Not acquired,Acquired,Acquired,Acquired,Acquired,Acquired,Acquired,Acquired,Acquired,,,,3.0840432E2,2.11820608E2,1.39438304E2,1.8215713599999998E2,8.2248504E1,1.08349736E2,2.76514112E2,2.85917088E2,4.8104168E1,,,,2.3232924E1,3.371842E1,3.6351984E1,6.3045475999999994E1,3.3316232E1,3.0046053999999998E1,2.6015558E1,6.2209896E1,2.2519558E1,,,,10,12,13,15,17,19,20,24,28,,,,1,14,8,16,6,7,2,15,1,,,,
1571777771,2019-10-22 20:56:11.770,Not acquired,Acquired,Acquired,Acquired,Acquired,Acquired,Acquired,Acquired,Acquired,,,,3.0840432E2,2.11820608E2,1.39438304E2,1.8215713599999998E2,8.2248504E1,1.08349736E2,2.76514112E2,2.85917088E2,4.8104168E1,,,,2.3232924E1,3.371842E1,3.6351984E1,6.3045475999999994E1,3.3316232E1,3.0046053999999998E1,2.6015558E1,6.2209896E1,2.2519558E1,,,,10,12,13,15,17,19,20,24,28,,,,1,14,8,16,6,7,2,15,1,,,,
1571777831,2019-10-22 20:57:11.767,Not acquired,Acquired,Acquired,Acquired,Acquired,Acquired,Acquired,Acquired,Acquired,,,,3.0840432E2,2.11820608E2,1.39438304E2,1.8215713599999998E2,8.2248504E1,1.08349736E2,2.76514112E2,2.85917088E2,4.8104168E1,,,,2.3232924E1,3.371842E1,3.6351984E1,6.3045475999999994E1,3.3316232E1,3.0046053999999998E1,2.6015558E1,6.2209896E1,2.2519558E1,,,,10,12,13,15,17,19,20,24,28,,,,1,14,8,16,6,7,2,15,1,,,,
1571777891,2019-10-22 20:58:11.767,Not acquired,Acquired,Acquired,Acquired,Acquired,Acquired,Acquired,Acquired,Acquired,,,,3.0840432E2,2.11820608E2,1.39438304E2,1.8215713599999998E2,8.2248504E1,1.08349736E2,2.76514112E2,2.85917088E2,4.8104168E1,,,,2.3232924E1,3.371842E1,3.6351984E1,6.3045475999999994E1,3.3316232E1,3.0046053999999998E1,2.6015558E1,6.2209896E1,2.2519558E1,,,,10,12,13,15,17,19,20,24,28,,,,1,14,8,16,6,7,2,15,1,,,,
1571777951,2019-10-22 20:59:11.767,Not acquired,Acquired,Acquired,Acquired,Acquired,Acquired,Acquired,Acquired,Acquired,,,,3.0840432E2,2.11820608E2,1.39438304E2,1.8215713599999998E2,8.2248504E1,1.08349736E2,2.76514112E2,2.85917088E2,4.8104168E1,,,,2.3232924E1,3.371842E1,3.6351984E1,6.3045475999999994E1,3.3316232E1,3.0046053999999998E1,2.6015558E1,6.2209896E1,2.2519558E1,,,,10,12,13,15,17,19,20,24,28,,,,1,14,8,16,6,7,2,15,1,,,,
