Time(longsecs),Time(UTC),GPS Satellite Acquisition Flag 1,GPS Satellite Acquisition Flag 2,GPS Satellite Acquisition Flag 3,GPS Satellite Acquisition Flag 4,GPS Satellite Acquisition Flag 5,GPS Satellite Acquisition Flag 6,GPS Satellite Acquisition Flag 7,GPS Satellite Acquisition Flag 8,GPS Satellite Acquisition Flag 9,GPS Satellite Acquisition Flag 10,GPS Satellite Acquisition Flag 11,GPS Satellite Acquisition Flag 12,GPS Satellite Azimuth 1(Degrees),GPS Satellite Azimuth 2(Degrees),GPS Satellite Azimuth 3(Degrees),GPS Satellite Azimuth 4(Degrees),GPS Satellite Azimuth 5(Degrees),GPS Satellite Azimuth 6(Degrees),GPS Satellite Azimuth 7(Degrees),GPS Satellite Azimuth 8(Degrees),GPS Satellite Azimuth 9(Degrees),GPS Satellite Azimuth 10(Degrees),GPS Satellite Azimuth 11(Degrees),GPS Satellite Azimuth 12(Degrees),GPS Satellite Elevation 1(Degrees),GPS Satellite Elevation 2(Degrees),GPS Satellite Elevation 3(Degrees),GPS Satellite Elevation 4(Degrees),GPS Satellite Elevation 5(Degrees),GPS Satellite Elevation 6(Degrees),GPS Satellite Elevation 7(Degrees),GPS Satellite Elevation 8(Degrees),GPS Satellite Elevation 9(Degrees),GPS Satellite Elevation 10(Degrees),GPS Satellite Elevation 11(Degrees),GPS Satellite Elevation 12(Degrees),GPS Satellite PRN 1,GPS Satellite PRN 2,GPS Satellite PRN 3,GPS Satellite PRN 4,GPS Satellite PRN 5,GPS Satellite PRN 6,GPS Satellite PRN 7,GPS Satellite PRN 8,GPS Satellite PRN 9,GPS Satellite PRN 10,GPS Satellite PRN 11,GPS Satellite PRN 12,GPS Satellite Signal Level 1(AMU),GPS Satellite Signal Level 2(AMU),GPS Satellite Signal Level 3(AMU),GPS Satellite Signal Level 4(AMU),GPS Satellite Signal Level 5(AMU),GPS Satellite Signal Level 6(AMU),GPS Satellite Signal Level 7(AMU),GPS Satellite Signal Level 8(AMU),GPS Satellite Signal Level 9(AMU),GPS Satellite Signal Level 10(AMU),GPS Satellite Signal Level 11(AMU),GPS Satellite Signal Level 12(AMU),
1571734811,2019-10-22 09:00:11.767,Acquired,Acquired,Acquired,Acquired,Acquired,Acquired,Acquired,Acquired,Not acquired,Acquired,,,2.88670368E2,2.20690464E2,1.65170512E2,5.121494E1,2.91013088E2,1.1321592E2,2.19538048E2,1.46683728E2,3.05641056E2,8.1645776E1,,,5.8807511999999996E1,2.3281746E1,5.8874252E1,1.9401204E1,6.6842016E1,3.15737E1,4.6137828E1,2.3542842E1,2.7184268E1,3.547206E1,,,1,3,8,10,11,14,22,27,28,32,,,15,14,15,3,12,9,12,2,0,7,,,
1571734871,2019-10-22 09:01:11.767,Acquired,Acquired,Acquired,Acquired,Acquired,Acquired,Acquired,Acquired,Not acquired,Acquired,,,2.88670368E2,2.20690464E2,1.65170512E2,5.121494E1,2.91013088E2,1.1321592E2,2.19538048E2,1.46683728E2,3.05641056E2,8.1645776E1,,,5.8807511999999996E1,2.3281746E1,5.8874252E1,1.9401204E1,6.6842016E1,3.15737E1,4.6137828E1,2.3542842E1,2.7184268E1,3.547206E1,,,1,3,8,10,11,14,22,27,28,32,,,15,14,15,3,12,9,12,2,0,7,,,
1571734931,2019-10-22 09:02:11.768,Acquired,Acquired,Acquired,Acquired,Acquired,Acquired,Acquired,Acquired,Not acquired,Acquired,,,2.88670368E2,2.20690464E2,1.65170512E2,5.121494E1,2.91013088E2,1.1321592E2,2.19538048E2,1.46683728E2,3.05641056E2,8.1645776E1,,,5.8807511999999996E1,2.3281746E1,5.8874252E1,1.9401204E1,6.6842016E1,3.15737E1,4.6137828E1,2.3542842E1,2.7184268E1,3.547206E1,,,1,3,8,10,11,14,22,27,28,32,,,15,14,15,3,12,9,12,2,0,7,,,
1571734991,2019-10-22 09:03:11.767,Acquired,Acquired,Acquired,Acquired,Acquired,Acquired,Acquired,Acquired,Not acquired,Acquired,,,2.88670368E2,2.20690464E2,1.65170512E2,5.121494E1,2.91013088E2,1.1321592E2,2.19538048E2,1.46683728E2,3.05641056E2,8.1645776E1,,,5.8807511999999996E1,2.3281746E1,5.8874252E1,1.9401204E1,6.6842016E1,3.15737E1,4.6137828E1,2.3542842E1,2.7184268E1,3.547206E1,,,1,3,8,10,11,14,22,27,28,32,,,15,14,15,3,12,9,12,2,0,7,,,
1571735051,2019-10-22 09:04:11.767,Acquired,Acquired,Acquired,Acquired,Acquired,Acquired,Acquired,Acquired,Not acquired,Acquired,,,2.88670368E2,2.20690464E2,1.65170512E2,5.121494E1,2.91013088E2,1.1321592E2,2.19538048E2,1.46683728E2,3.05641056E2,8.1645776E1,,,5.8807511999999996E1,2.3281746E1,5.8874252E1,1.9401204E1,6.6842016E1,3.15737E1,4.6137828E1,2.3542842E1,2.7184268E1,3.547206E1,,,1,3,8,10,11,14,22,27,28,32,,,15,14,15,3,12,9,12,2,0,7,,,
1571735111,2019-10-22 09:05:11.767,Acquired,Acquired,Acquired,Acquired,Acquired,Acquired,Acquired,Acquired,Not acquired,Acquired,,,2.88670368E2,2.20690464E2,1.65170512E2,5.121494E1,2.91013088E2,1.1321592E2,2.19538048E2,1.46683728E2,3.05641056E2,8.1645776E1,,,5.8807511999999996E1,2.3281746E1,5.8874252E1,1.9401204E1,6.6842016E1,3.15737E1,4.6137828E1,2.3542842E1,2.7184268E1,3.547206E1,,,1,3,8,10,11,14,22,27,28,32,,,15,14,15,3,12,9,12,2,0,7,,,
1571735171,2019-10-22 09:06:11.768,Acquired,Acquired,Acquired,Acquired,Acquired,Acquired,Acquired,Acquired,Not acquired,Acquired,,,2.88670368E2,2.20690464E2,1.65170512E2,5.121494E1,2.91013088E2,1.1321592E2,2.19538048E2,1.46683728E2,3.05641056E2,8.1645776E1,,,5.8807511999999996E1,2.3281746E1,5.8874252E1,1.9401204E1,6.6842016E1,3.15737E1,4.6137828E1,2.3542842E1,2.7184268E1,3.547206E1,,,1,3,8,10,11,14,22,27,28,32,,,15,14,15,3,12,9,12,2,0,7,,,
1571735231,2019-10-22 09:07:11.769,Acquired,Acquired,Acquired,Acquired,Acquired,Acquired,Acquired,Acquired,Not acquired,Acquired,,,2.88670368E2,2.20690464E2,1.65170512E2,5.121494E1,2.91013088E2,1.1321592E2,2.19538048E2,1.46683728E2,3.05641056E2,8.1645776E1,,,5.8807511999999996E1,2.3281746E1,5.8874252E1,1.9401204E1,6.6842016E1,3.15737E1,4.6137828E1,2.3542842E1,2.7184268E1,3.547206E1,,,1,3,8,10,11,14,22,27,28,32,,,15,14,15,3,12,9,12,2,0,7,,,
1571735291,2019-10-22 09:08:11.810,Acquired,Acquired,Acquired,Acquired,Acquired,Acquired,Acquired,Acquired,Not acquired,Acquired,,,2.88670368E2,2.20690464E2,1.65170512E2,5.121494E1,2.91013088E2,1.1321592E2,2.19538048E2,1.46683728E2,3.05641056E2,8.1645776E1,,,5.8807511999999996E1,2.3281746E1,5.8874252E1,1.9401204E1,6.6842016E1,3.15737E1,4.6137828E1,2.3542842E1,2.7184268E1,3.547206E1,,,1,3,8,10,11,14,22,27,28,32,,,15,14,15,3,12,9,12,2,0,7,,,
1571735351,2019-10-22 09:09:11.767,Acquired,Acquired,Acquired,Acquired,Acquired,Acquired,Acquired,Acquired,Not acquired,Acquired,,,2.88670368E2,2.20690464E2,1.65170512E2,5.121494E1,2.91013088E2,1.1321592E2,2.19538048E2,1.46683728E2,3.05641056E2,8.1645776E1,,,5.8807511999999996E1,2.3281746E1,5.8874252E1,1.9401204E1,6.6842016E1,3.15737E1,4.6137828E1,2.3542842E1,2.7184268E1,3.547206E1,,,1,3,8,10,11,14,22,27,28,32,,,15,14,15,3,12,9,12,2,0,7,,,
1571735411,2019-10-22 09:10:11.783,Acquired,Acquired,Acquired,Acquired,Acquired,Acquired,Acquired,Acquired,Not acquired,Acquired,,,2.88670368E2,2.20690464E2,1.65170512E2,5.121494E1,2.91013088E2,1.1321592E2,2.19538048E2,1.46683728E2,3.05641056E2,8.1645776E1,,,5.8807511999999996E1,2.3281746E1,5.8874252E1,1.9401204E1,6.6842016E1,3.15737E1,4.6137828E1,2.3542842E1,2.7184268E1,3.547206E1,,,1,3,8,10,11,14,22,27,28,32,,,15,14,15,3,12,9,12,2,0,7,,,
1571735471,2019-10-22 09:11:11.768,Acquired,Acquired,Acquired,Acquired,Acquired,Acquired,Acquired,Acquired,Not acquired,Acquired,,,2.88670368E2,2.20690464E2,1.65170512E2,5.121494E1,2.91013088E2,1.1321592E2,2.19538048E2,1.46683728E2,3.05641056E2,8.1645776E1,,,5.8807511999999996E1,2.3281746E1,5.8874252E1,1.9401204E1,6.6842016E1,3.15737E1,4.6137828E1,2.3542842E1,2.7184268E1,3.547206E1,,,1,3,8,10,11,14,22,27,28,32,,,15,14,15,3,12,9,12,2,0,7,,,
1571735531,2019-10-22 09:12:11.767,Acquired,Acquired,Acquired,Acquired,Acquired,Acquired,Acquired,Acquired,Not acquired,Acquired,,,2.88670368E2,2.20690464E2,1.65170512E2,5.121494E1,2.91013088E2,1.1321592E2,2.19538048E2,1.46683728E2,3.05641056E2,8.1645776E1,,,5.8807511999999996E1,2.3281746E1,5.8874252E1,1.9401204E1,6.6842016E1,3.15737E1,4.6137828E1,2.3542842E1,2.7184268E1,3.547206E1,,,1,3,8,10,11,14,22,27,28,32,,,15,14,15,3,12,9,12,2,0,7,,,
1571735591,2019-10-22 09:13:11.767,Acquired,Acquired,Acquired,Acquired,Acquired,Acquired,Acquired,Acquired,Not acquired,Acquired,,,2.88670368E2,2.20690464E2,1.65170512E2,5.121494E1,2.91013088E2,1.1321592E2,2.19538048E2,1.46683728E2,3.05641056E2,8.1645776E1,,,5.8807511999999996E1,2.3281746E1,5.8874252E1,1.9401204E1,6.6842016E1,3.15737E1,4.6137828E1,2.3542842E1,2.7184268E1,3.547206E1,,,1,3,8,10,11,14,22,27,28,32,,,15,14,15,3,12,9,12,2,0,7,,,
1571735651,2019-10-22 09:14:11.767,Acquired,Acquired,Acquired,Acquired,Acquired,Acquired,Acquired,Acquired,Not acquired,Acquired,,,2.88670368E2,2.20690464E2,1.65170512E2,5.121494E1,2.91013088E2,1.1321592E2,2.19538048E2,1.46683728E2,3.05641056E2,8.1645776E1,,,5.8807511999999996E1,2.3281746E1,5.8874252E1,1.9401204E1,6.6842016E1,3.15737E1,4.6137828E1,2.3542842E1,2.7184268E1,3.547206E1,,,1,3,8,10,11,14,22,27,28,32,,,15,14,15,3,12,9,12,2,0,7,,,
1571735711,2019-10-22 09:15:11.811,Acquired,Acquired,Acquired,Acquired,Acquired,Acquired,Acquired,Acquired,Not acquired,Acquired,,,2.88670368E2,2.20690464E2,1.65170512E2,5.121494E1,2.91013088E2,1.1321592E2,2.19538048E2,1.46683728E2,3.05641056E2,8.1645776E1,,,5.8807511999999996E1,2.3281746E1,5.8874252E1,1.9401204E1,6.6842016E1,3.15737E1,4.6137828E1,2.3542842E1,2.7184268E1,3.547206E1,,,1,3,8,10,11,14,22,27,28,32,,,15,14,15,3,12,9,12,2,0,7,,,
1571735771,2019-10-22 09:16:11.767,Acquired,Acquired,Acquired,Acquired,Acquired,Acquired,Acquired,Acquired,Not acquired,Acquired,,,2.88670368E2,2.20690464E2,1.65170512E2,5.121494E1,2.91013088E2,1.1321592E2,2.19538048E2,1.46683728E2,3.05641056E2,8.1645776E1,,,5.8807511999999996E1,2.3281746E1,5.8874252E1,1.9401204E1,6.6842016E1,3.15737E1,4.6137828E1,2.3542842E1,2.7184268E1,3.547206E1,,,1,3,8,10,11,14,22,27,28,32,,,15,14,15,3,12,9,12,2,0,7,,,
1571735831,2019-10-22 09:17:11.767,Acquired,Acquired,Acquired,Acquired,Acquired,Acquired,Acquired,Acquired,Not acquired,Acquired,,,2.88670368E2,2.20690464E2,1.65170512E2,5.121494E1,2.91013088E2,1.1321592E2,2.19538048E2,1.46683728E2,3.05641056E2,8.1645776E1,,,5.8807511999999996E1,2.3281746E1,5.8874252E1,1.9401204E1,6.6842016E1,3.15737E1,4.6137828E1,2.3542842E1,2.7184268E1,3.547206E1,,,1,3,8,10,11,14,22,27,28,32,,,15,14,15,3,12,9,12,2,0,7,,,
1571735891,2019-10-22 09:18:11.767,Acquired,Acquired,Acquired,Acquired,Acquired,Acquired,Acquired,Acquired,Not acquired,Acquired,,,2.88670368E2,2.20690464E2,1.65170512E2,5.121494E1,2.91013088E2,1.1321592E2,2.19538048E2,1.46683728E2,3.05641056E2,8.1645776E1,,,5.8807511999999996E1,2.3281746E1,5.8874252E1,1.9401204E1,6.6842016E1,3.15737E1,4.6137828E1,2.3542842E1,2.7184268E1,3.547206E1,,,1,3,8,10,11,14,22,27,28,32,,,15,14,15,3,12,9,12,2,0,7,,,
1571735951,2019-10-22 09:19:11.767,Acquired,,Acquired,Not acquired,Acquired,Acquired,Acquired,Acquired,Not acquired,Not acquired,,,2.8911526399999997E2,,1.6514584E2,5.1247091999999995E1,2.90950656E2,1.12806328E2,2.1970991999999998E2,1.4683576E2,3.05207232E2,8.110379999999999E1,,,5.9221976E1,,5.8378451999999996E1,1.9004624E1,6.730655999999999E1,3.1871402E1,4.6598935999999995E1,2.3111815999999997E1,2.7291908E1,3.5535247999999996E1,,,1,,8,10,11,14,22,27,28,32,,,12,,15,1,12,10,13,8,0,1,,,
1571736011,2019-10-22 09:20:11.767,Acquired,Acquired,Acquired,Acquired,Acquired,Not acquired,Acquired,Not acquired,Acquired,,,,3.2352783999999997E2,2.3090929599999998E2,1.6637312E2,2.14143888E2,8.921396E1,3.1606201599999997E2,2.29090096E2,2.83667392E2,5.7356704E1,,,,7.8079008E1,4.407094E1,3.5796488E1,8.4503528E1,4.1440532E1,1.8034458E1,6.820268E1,2.6959456E1,3.2236751999999996E1,,,,1,3,8,11,14,17,22,28,32,,,,15,15,10,11,6,0,12,0,6,,,,
1571736071,2019-10-22 09:21:11.767,Acquired,Acquired,Acquired,Acquired,Acquired,Not acquired,Acquired,Not acquired,Acquired,,,,3.2352783999999997E2,2.3090929599999998E2,1.6637312E2,2.14143888E2,8.921396E1,3.1606201599999997E2,2.29090096E2,2.83667392E2,5.7356704E1,,,,7.8079008E1,4.407094E1,3.5796488E1,8.4503528E1,4.1440532E1,1.8034458E1,6.820268E1,2.6959456E1,3.2236751999999996E1,,,,1,3,8,11,14,17,22,28,32,,,,15,15,10,11,6,0,12,0,6,,,,
1571736131,2019-10-22 09:22:11.767,Acquired,Acquired,Acquired,Acquired,Acquired,Not acquired,Acquired,Not acquired,Acquired,,,,3.2352783999999997E2,2.3090929599999998E2,1.6637312E2,2.14143888E2,8.921396E1,3.1606201599999997E2,2.29090096E2,2.83667392E2,5.7356704E1,,,,7.8079008E1,4.407094E1,3.5796488E1,8.4503528E1,4.1440532E1,1.8034458E1,6.820268E1,2.6959456E1,3.2236751999999996E1,,,,1,3,8,11,14,17,22,28,32,,,,15,15,10,11,6,0,12,0,6,,,,
1571736191,2019-10-22 09:23:11.767,Acquired,Acquired,Acquired,Acquired,Acquired,Not acquired,Acquired,Not acquired,Acquired,,,,3.2352783999999997E2,2.3090929599999998E2,1.6637312E2,2.14143888E2,8.921396E1,3.1606201599999997E2,2.29090096E2,2.83667392E2,5.7356704E1,,,,7.8079008E1,4.407094E1,3.5796488E1,8.4503528E1,4.1440532E1,1.8034458E1,6.820268E1,2.6959456E1,3.2236751999999996E1,,,,1,3,8,11,14,17,22,28,32,,,,15,15,10,11,6,0,12,0,6,,,,
1571736251,2019-10-22 09:24:11.767,Acquired,Acquired,Acquired,Acquired,Acquired,Not acquired,Acquired,Not acquired,Acquired,,,,3.2352783999999997E2,2.3090929599999998E2,1.6637312E2,2.14143888E2,8.921396E1,3.1606201599999997E2,2.29090096E2,2.83667392E2,5.7356704E1,,,,7.8079008E1,4.407094E1,3.5796488E1,8.4503528E1,4.1440532E1,1.8034458E1,6.820268E1,2.6959456E1,3.2236751999999996E1,,,,1,3,8,11,14,17,22,28,32,,,,15,15,10,11,6,0,12,0,6,,,,
1571736311,2019-10-22 09:25:11.767,Acquired,Acquired,Acquired,Acquired,Acquired,Not acquired,Acquired,Not acquired,Acquired,,,,3.2352783999999997E2,2.3090929599999998E2,1.6637312E2,2.14143888E2,8.921396E1,3.1606201599999997E2,2.29090096E2,2.83667392E2,5.7356704E1,,,,7.8079008E1,4.407094E1,3.5796488E1,8.4503528E1,4.1440532E1,1.8034458E1,6.820268E1,2.6959456E1,3.2236751999999996E1,,,,1,3,8,11,14,17,22,28,32,,,,15,15,10,11,6,0,12,0,6,,,,
1571736371,2019-10-22 09:26:11.767,Acquired,Acquired,Acquired,Acquired,Acquired,Not acquired,Acquired,Not acquired,Acquired,,,,3.2352783999999997E2,2.3090929599999998E2,1.6637312E2,2.14143888E2,8.921396E1,3.1606201599999997E2,2.29090096E2,2.83667392E2,5.7356704E1,,,,7.8079008E1,4.407094E1,3.5796488E1,8.4503528E1,4.1440532E1,1.8034458E1,6.820268E1,2.6959456E1,3.2236751999999996E1,,,,1,3,8,11,14,17,22,28,32,,,,15,15,10,11,6,0,12,0,6,,,,
1571736431,2019-10-22 09:27:11.767,Acquired,Acquired,Acquired,Acquired,Acquired,Not acquired,Acquired,Not acquired,Acquired,,,,3.2352783999999997E2,2.3090929599999998E2,1.6637312E2,2.14143888E2,8.921396E1,3.1606201599999997E2,2.29090096E2,2.83667392E2,5.7356704E1,,,,7.8079008E1,4.407094E1,3.5796488E1,8.4503528E1,4.1440532E1,1.8034458E1,6.820268E1,2.6959456E1,3.2236751999999996E1,,,,1,3,8,11,14,17,22,28,32,,,,15,15,10,11,6,0,12,0,6,,,,
1571736491,2019-10-22 09:28:11.767,Acquired,Acquired,Acquired,Acquired,Acquired,Not acquired,Acquired,Not acquired,Acquired,,,,3.2352783999999997E2,2.3090929599999998E2,1.6637312E2,2.14143888E2,8.921396E1,3.1606201599999997E2,2.29090096E2,2.83667392E2,5.7356704E1,,,,7.8079008E1,4.407094E1,3.5796488E1,8.4503528E1,4.1440532E1,1.8034458E1,6.820268E1,2.6959456E1,3.2236751999999996E1,,,,1,3,8,11,14,17,22,28,32,,,,15,15,10,11,6,0,12,0,6,,,,
1571736551,2019-10-22 09:29:11.767,Acquired,Acquired,Acquired,Acquired,Acquired,Not acquired,Acquired,Not acquired,Acquired,,,,3.2352783999999997E2,2.3090929599999998E2,1.6637312E2,2.14143888E2,8.921396E1,3.1606201599999997E2,2.29090096E2,2.83667392E2,5.7356704E1,,,,7.8079008E1,4.407094E1,3.5796488E1,8.4503528E1,4.1440532E1,1.8034458E1,6.820268E1,2.6959456E1,3.2236751999999996E1,,,,1,3,8,11,14,17,22,28,32,,,,15,15,10,11,6,0,12,0,6,,,,
1571736611,2019-10-22 09:30:11.767,Acquired,Acquired,Acquired,Acquired,Acquired,Not acquired,Acquired,Not acquired,Acquired,,,,3.2352783999999997E2,2.3090929599999998E2,1.6637312E2,2.14143888E2,8.921396E1,3.1606201599999997E2,2.29090096E2,2.83667392E2,5.7356704E1,,,,7.8079008E1,4.407094E1,3.5796488E1,8.4503528E1,4.1440532E1,1.8034458E1,6.820268E1,2.6959456E1,3.2236751999999996E1,,,,1,3,8,11,14,17,22,28,32,,,,15,15,10,11,6,0,12,0,6,,,,
1571736671,2019-10-22 09:31:11.767,Acquired,Acquired,Acquired,Acquired,Acquired,Not acquired,Acquired,Not acquired,Acquired,,,,3.2352783999999997E2,2.3090929599999998E2,1.6637312E2,2.14143888E2,8.921396E1,3.1606201599999997E2,2.29090096E2,2.83667392E2,5.7356704E1,,,,7.8079008E1,4.407094E1,3.5796488E1,8.4503528E1,4.1440532E1,1.8034458E1,6.820268E1,2.6959456E1,3.2236751999999996E1,,,,1,3,8,11,14,17,22,28,32,,,,15,15,10,11,6,0,12,0,6,,,,
1571736731,2019-10-22 09:32:11.778,Acquired,Acquired,Acquired,Acquired,Acquired,Not acquired,Acquired,Not acquired,Acquired,,,,3.2352783999999997E2,2.3090929599999998E2,1.6637312E2,2.14143888E2,8.921396E1,3.1606201599999997E2,2.29090096E2,2.83667392E2,5.7356704E1,,,,7.8079008E1,4.407094E1,3.5796488E1,8.4503528E1,4.1440532E1,1.8034458E1,6.820268E1,2.6959456E1,3.2236751999999996E1,,,,1,3,8,11,14,17,22,28,32,,,,15,15,10,11,6,0,12,0,6,,,,
1571736791,2019-10-22 09:33:11.767,Acquired,Acquired,Acquired,Acquired,Acquired,Not acquired,Acquired,Not acquired,Acquired,,,,3.2352783999999997E2,2.3090929599999998E2,1.6637312E2,2.14143888E2,8.921396E1,3.1606201599999997E2,2.29090096E2,2.83667392E2,5.7356704E1,,,,7.8079008E1,4.407094E1,3.5796488E1,8.4503528E1,4.1440532E1,1.8034458E1,6.820268E1,2.6959456E1,3.2236751999999996E1,,,,1,3,8,11,14,17,22,28,32,,,,15,15,10,11,6,0,12,0,6,,,,
1571736851,2019-10-22 09:34:11.767,Acquired,Acquired,Acquired,Acquired,Acquired,Not acquired,Acquired,Not acquired,Acquired,,,,3.2352783999999997E2,2.3090929599999998E2,1.6637312E2,2.14143888E2,8.921396E1,3.1606201599999997E2,2.29090096E2,2.83667392E2,5.7356704E1,,,,7.8079008E1,4.407094E1,3.5796488E1,8.4503528E1,4.1440532E1,1.8034458E1,6.820268E1,2.6959456E1,3.2236751999999996E1,,,,1,3,8,11,14,17,22,28,32,,,,15,15,10,11,6,0,12,0,6,,,,
1571736911,2019-10-22 09:35:11.767,Acquired,Acquired,Acquired,Acquired,Acquired,Not acquired,Acquired,Not acquired,Acquired,,,,3.2352783999999997E2,2.3090929599999998E2,1.6637312E2,2.14143888E2,8.921396E1,3.1606201599999997E2,2.29090096E2,2.83667392E2,5.7356704E1,,,,7.8079008E1,4.407094E1,3.5796488E1,8.4503528E1,4.1440532E1,1.8034458E1,6.820268E1,2.6959456E1,3.2236751999999996E1,,,,1,3,8,11,14,17,22,28,32,,,,15,15,10,11,6,0,12,0,6,,,,
1571736971,2019-10-22 09:36:11.767,Acquired,Acquired,Acquired,Acquired,Acquired,Not acquired,Acquired,Not acquired,Acquired,,,,3.2352783999999997E2,2.3090929599999998E2,1.6637312E2,2.14143888E2,8.921396E1,3.1606201599999997E2,2.29090096E2,2.83667392E2,5.7356704E1,,,,7.8079008E1,4.407094E1,3.5796488E1,8.4503528E1,4.1440532E1,1.8034458E1,6.820268E1,2.6959456E1,3.2236751999999996E1,,,,1,3,8,11,14,17,22,28,32,,,,15,15,10,11,6,0,12,0,6,,,,
1571737031,2019-10-22 09:37:11.767,Acquired,Acquired,Acquired,Acquired,Acquired,Not acquired,Acquired,Not acquired,Acquired,,,,3.2352783999999997E2,2.3090929599999998E2,1.6637312E2,2.14143888E2,8.921396E1,3.1606201599999997E2,2.29090096E2,2.83667392E2,5.7356704E1,,,,7.8079008E1,4.407094E1,3.5796488E1,8.4503528E1,4.1440532E1,1.8034458E1,6.820268E1,2.6959456E1,3.2236751999999996E1,,,,1,3,8,11,14,17,22,28,32,,,,15,15,10,11,6,0,12,0,6,,,,
1571737091,2019-10-22 09:38:11.767,Acquired,Acquired,Acquired,Acquired,Acquired,Not acquired,Acquired,Not acquired,Acquired,,,,3.2352783999999997E2,2.3090929599999998E2,1.6637312E2,2.14143888E2,8.921396E1,3.1606201599999997E2,2.29090096E2,2.83667392E2,5.7356704E1,,,,7.8079008E1,4.407094E1,3.5796488E1,8.4503528E1,4.1440532E1,1.8034458E1,6.820268E1,2.6959456E1,3.2236751999999996E1,,,,1,3,8,11,14,17,22,28,32,,,,15,15,10,11,6,0,12,0,6,,,,
1571737151,2019-10-22 09:39:11.768,Acquired,Acquired,Acquired,Acquired,Acquired,Not acquired,Acquired,Not acquired,Acquired,,,,3.2352783999999997E2,2.3090929599999998E2,1.6637312E2,2.14143888E2,8.921396E1,3.1606201599999997E2,2.29090096E2,2.83667392E2,5.7356704E1,,,,7.8079008E1,4.407094E1,3.5796488E1,8.4503528E1,4.1440532E1,1.8034458E1,6.820268E1,2.6959456E1,3.2236751999999996E1,,,,1,3,8,11,14,17,22,28,32,,,,15,15,10,11,6,0,12,0,6,,,,
1571737211,2019-10-22 09:40:11.767,Acquired,Acquired,Acquired,Acquired,Acquired,Not acquired,Acquired,Not acquired,Acquired,,,,3.2352783999999997E2,2.3090929599999998E2,1.6637312E2,2.14143888E2,8.921396E1,3.1606201599999997E2,2.29090096E2,2.83667392E2,5.7356704E1,,,,7.8079008E1,4.407094E1,3.5796488E1,8.4503528E1,4.1440532E1,1.8034458E1,6.820268E1,2.6959456E1,3.2236751999999996E1,,,,1,3,8,11,14,17,22,28,32,,,,15,15,10,11,6,0,12,0,6,,,,
1571737271,2019-10-22 09:41:11.767,Acquired,Acquired,Acquired,Acquired,Acquired,Not acquired,Acquired,Not acquired,Acquired,,,,3.2352783999999997E2,2.3090929599999998E2,1.6637312E2,2.14143888E2,8.921396E1,3.1606201599999997E2,2.29090096E2,2.83667392E2,5.7356704E1,,,,7.8079008E1,4.407094E1,3.5796488E1,8.4503528E1,4.1440532E1,1.8034458E1,6.820268E1,2.6959456E1,3.2236751999999996E1,,,,1,3,8,11,14,17,22,28,32,,,,15,15,10,11,6,0,12,0,6,,,,
1571737331,2019-10-22 09:42:11.768,Acquired,Acquired,Acquired,Acquired,Acquired,Not acquired,Acquired,Not acquired,Acquired,,,,3.2352783999999997E2,2.3090929599999998E2,1.6637312E2,2.14143888E2,8.921396E1,3.1606201599999997E2,2.29090096E2,2.83667392E2,5.7356704E1,,,,7.8079008E1,4.407094E1,3.5796488E1,8.4503528E1,4.1440532E1,1.8034458E1,6.820268E1,2.6959456E1,3.2236751999999996E1,,,,1,3,8,11,14,17,22,28,32,,,,15,15,10,11,6,0,12,0,6,,,,
1571737391,2019-10-22 09:43:11.767,Acquired,Acquired,Acquired,Acquired,Acquired,Not acquired,Acquired,Not acquired,Acquired,,,,3.2352783999999997E2,2.3090929599999998E2,1.6637312E2,2.14143888E2,8.921396E1,3.1606201599999997E2,2.29090096E2,2.83667392E2,5.7356704E1,,,,7.8079008E1,4.407094E1,3.5796488E1,8.4503528E1,4.1440532E1,1.8034458E1,6.820268E1,2.6959456E1,3.2236751999999996E1,,,,1,3,8,11,14,17,22,28,32,,,,15,15,10,11,6,0,12,0,6,,,,
1571737451,2019-10-22 09:44:11.767,Acquired,Acquired,Acquired,Acquired,Acquired,Not acquired,Acquired,Not acquired,Acquired,,,,3.2352783999999997E2,2.3090929599999998E2,1.6637312E2,2.14143888E2,8.921396E1,3.1606201599999997E2,2.29090096E2,2.83667392E2,5.7356704E1,,,,7.8079008E1,4.407094E1,3.5796488E1,8.4503528E1,4.1440532E1,1.8034458E1,6.820268E1,2.6959456E1,3.2236751999999996E1,,,,1,3,8,11,14,17,22,28,32,,,,15,15,10,11,6,0,12,0,6,,,,
1571737511,2019-10-22 09:45:11.767,Acquired,Acquired,Acquired,Acquired,Acquired,Not acquired,Acquired,Not acquired,Acquired,,,,3.2352783999999997E2,2.3090929599999998E2,1.6637312E2,2.14143888E2,8.921396E1,3.1606201599999997E2,2.29090096E2,2.83667392E2,5.7356704E1,,,,7.8079008E1,4.407094E1,3.5796488E1,8.4503528E1,4.1440532E1,1.8034458E1,6.820268E1,2.6959456E1,3.2236751999999996E1,,,,1,3,8,11,14,17,22,28,32,,,,15,15,10,11,6,0,12,0,6,,,,
1571737571,2019-10-22 09:46:11.767,Acquired,Acquired,Acquired,Acquired,Acquired,Not acquired,Acquired,Not acquired,Acquired,,,,3.2352783999999997E2,2.3090929599999998E2,1.6637312E2,2.14143888E2,8.921396E1,3.1606201599999997E2,2.29090096E2,2.83667392E2,5.7356704E1,,,,7.8079008E1,4.407094E1,3.5796488E1,8.4503528E1,4.1440532E1,1.8034458E1,6.820268E1,2.6959456E1,3.2236751999999996E1,,,,1,3,8,11,14,17,22,28,32,,,,15,15,10,11,6,0,12,0,6,,,,
1571737631,2019-10-22 09:47:11.767,Acquired,Acquired,Acquired,Acquired,Acquired,Not acquired,Acquired,Not acquired,Acquired,,,,3.2352783999999997E2,2.3090929599999998E2,1.6637312E2,2.14143888E2,8.921396E1,3.1606201599999997E2,2.29090096E2,2.83667392E2,5.7356704E1,,,,7.8079008E1,4.407094E1,3.5796488E1,8.4503528E1,4.1440532E1,1.8034458E1,6.820268E1,2.6959456E1,3.2236751999999996E1,,,,1,3,8,11,14,17,22,28,32,,,,15,15,10,11,6,0,12,0,6,,,,
1571737691,2019-10-22 09:48:11.781,Acquired,Acquired,Acquired,Acquired,Acquired,Not acquired,Acquired,Not acquired,Acquired,,,,3.2352783999999997E2,2.3090929599999998E2,1.6637312E2,2.14143888E2,8.921396E1,3.1606201599999997E2,2.29090096E2,2.83667392E2,5.7356704E1,,,,7.8079008E1,4.407094E1,3.5796488E1,8.4503528E1,4.1440532E1,1.8034458E1,6.820268E1,2.6959456E1,3.2236751999999996E1,,,,1,3,8,11,14,17,22,28,32,,,,15,15,10,11,6,0,12,0,6,,,,
1571737751,2019-10-22 09:49:11.767,Acquired,Acquired,Acquired,Acquired,Acquired,Not acquired,Acquired,Not acquired,Acquired,,,,3.2352783999999997E2,2.3090929599999998E2,1.6637312E2,2.14143888E2,8.921396E1,3.1606201599999997E2,2.29090096E2,2.83667392E2,5.7356704E1,,,,7.8079008E1,4.407094E1,3.5796488E1,8.4503528E1,4.1440532E1,1.8034458E1,6.820268E1,2.6959456E1,3.2236751999999996E1,,,,1,3,8,11,14,17,22,28,32,,,,15,15,10,11,6,0,12,0,6,,,,
1571737811,2019-10-22 09:50:11.767,Acquired,Acquired,Acquired,Acquired,Acquired,Not acquired,Acquired,Not acquired,Acquired,,,,3.2352783999999997E2,2.3090929599999998E2,1.6637312E2,2.14143888E2,8.921396E1,3.1606201599999997E2,2.29090096E2,2.83667392E2,5.7356704E1,,,,7.8079008E1,4.407094E1,3.5796488E1,8.4503528E1,4.1440532E1,1.8034458E1,6.820268E1,2.6959456E1,3.2236751999999996E1,,,,1,3,8,11,14,17,22,28,32,,,,15,15,10,11,6,0,12,0,6,,,,
1571737871,2019-10-22 09:51:11.769,Acquired,Acquired,Acquired,Acquired,Acquired,Not acquired,Acquired,Not acquired,Acquired,,,,3.2352783999999997E2,2.3090929599999998E2,1.6637312E2,2.14143888E2,8.921396E1,3.1606201599999997E2,2.29090096E2,2.83667392E2,5.7356704E1,,,,7.8079008E1,4.407094E1,3.5796488E1,8.4503528E1,4.1440532E1,1.8034458E1,6.820268E1,2.6959456E1,3.2236751999999996E1,,,,1,3,8,11,14,17,22,28,32,,,,15,15,10,11,6,0,12,0,6,,,,
1571737931,2019-10-22 09:52:11.767,Acquired,Acquired,Acquired,Acquired,Acquired,Not acquired,Acquired,Not acquired,Acquired,,,,3.2352783999999997E2,2.3090929599999998E2,1.6637312E2,2.14143888E2,8.921396E1,3.1606201599999997E2,2.29090096E2,2.83667392E2,5.7356704E1,,,,7.8079008E1,4.407094E1,3.5796488E1,8.4503528E1,4.1440532E1,1.8034458E1,6.820268E1,2.6959456E1,3.2236751999999996E1,,,,1,3,8,11,14,17,22,28,32,,,,15,15,10,11,6,0,12,0,6,,,,
1571737991,2019-10-22 09:53:11.767,Acquired,Acquired,Acquired,Acquired,Acquired,Not acquired,Acquired,Not acquired,Acquired,,,,3.2352783999999997E2,2.3090929599999998E2,1.6637312E2,2.14143888E2,8.921396E1,3.1606201599999997E2,2.29090096E2,2.83667392E2,5.7356704E1,,,,7.8079008E1,4.407094E1,3.5796488E1,8.4503528E1,4.1440532E1,1.8034458E1,6.820268E1,2.6959456E1,3.2236751999999996E1,,,,1,3,8,11,14,17,22,28,32,,,,15,15,10,11,6,0,12,0,6,,,,
1571738051,2019-10-22 09:54:11.768,Acquired,Acquired,Acquired,Acquired,Acquired,Not acquired,Acquired,Not acquired,Acquired,,,,3.2352783999999997E2,2.3090929599999998E2,1.6637312E2,2.14143888E2,8.921396E1,3.1606201599999997E2,2.29090096E2,2.83667392E2,5.7356704E1,,,,7.8079008E1,4.407094E1,3.5796488E1,8.4503528E1,4.1440532E1,1.8034458E1,6.820268E1,2.6959456E1,3.2236751999999996E1,,,,1,3,8,11,14,17,22,28,32,,,,15,15,10,11,6,0,12,0,6,,,,
1571738111,2019-10-22 09:55:11.767,Acquired,Acquired,Acquired,Acquired,Acquired,Not acquired,Acquired,Not acquired,Acquired,,,,3.2352783999999997E2,2.3090929599999998E2,1.6637312E2,2.14143888E2,8.921396E1,3.1606201599999997E2,2.29090096E2,2.83667392E2,5.7356704E1,,,,7.8079008E1,4.407094E1,3.5796488E1,8.4503528E1,4.1440532E1,1.8034458E1,6.820268E1,2.6959456E1,3.2236751999999996E1,,,,1,3,8,11,14,17,22,28,32,,,,15,15,10,11,6,0,12,0,6,,,,
1571738171,2019-10-22 09:56:11.767,Acquired,Acquired,Acquired,Acquired,Acquired,Acquired,Acquired,Acquired,Acquired,,,,3.25027264E2,2.31168048E2,1.6641670399999998E2,2.09263072E2,8.8631816E1,3.16011872E2,2.29329616E2,2.83213376E2,5.6927139999999994E1,,,,7.8439E1,4.45132E1,3.5329324E1,8.4392336E1,4.1525327999999995E1,1.8407467999999998E1,6.8664056E1,2.6845944E1,3.2043768E1,,,,1,3,8,11,14,17,22,28,32,,,,15,14,11,11,1,3,13,1,7,,,,
1571738231,2019-10-22 09:57:11.767,Acquired,Acquired,Acquired,Acquired,Acquired,Acquired,Not acquired,Acquired,Acquired,Not acquired,Acquired,,7.470424E1,2.4278959999999998E2,1.677628E2,1.5615864E2,6.7590176E1,3.11291296E2,3.1935472E2,2.4463297599999999E2,1.85188512E2,2.67814976E2,4.4501576E1,,8.0260352E1,6.0863071999999995E1,1.8713279999999997E1,6.917004E1,4.0392728E1,3.1823652E1,1.3964514E1,8.5460888E1,1.5612658E1,1.9889926E1,2.2465139999999998E1,,1,3,8,11,14,17,19,22,23,28,32,,15,13,11,14,9,2,1,15,7,0,1,,
1571738291,2019-10-22 09:58:11.767,Acquired,Acquired,Acquired,Acquired,Acquired,Acquired,Not acquired,Acquired,Acquired,Not acquired,Acquired,,7.470424E1,2.4278959999999998E2,1.677628E2,1.5615864E2,6.7590176E1,3.11291296E2,3.1935472E2,2.4463297599999999E2,1.85188512E2,2.67814976E2,4.4501576E1,,8.0260352E1,6.0863071999999995E1,1.8713279999999997E1,6.917004E1,4.0392728E1,3.1823652E1,1.3964514E1,8.5460888E1,1.5612658E1,1.9889926E1,2.2465139999999998E1,,1,3,8,11,14,17,19,22,23,28,32,,15,13,11,14,9,2,1,15,7,0,1,,
1571738351,2019-10-22 09:59:11.767,Acquired,Acquired,Acquired,Acquired,Acquired,Acquired,Not acquired,Acquired,Acquired,Not acquired,Acquired,,7.470424E1,2.4278959999999998E2,1.677628E2,1.5615864E2,6.7590176E1,3.11291296E2,3.1935472E2,2.4463297599999999E2,1.85188512E2,2.67814976E2,4.4501576E1,,8.0260352E1,6.0863071999999995E1,1.8713279999999997E1,6.917004E1,4.0392728E1,3.1823652E1,1.3964514E1,8.5460888E1,1.5612658E1,1.9889926E1,2.2465139999999998E1,,1,3,8,11,14,17,19,22,23,28,32,,15,13,11,14,9,2,1,15,7,0,1,,
