Time(longsecs),Time(UTC),GPS Satellite Acquisition Flag 1,GPS Satellite Acquisition Flag 2,GPS Satellite Acquisition Flag 3,GPS Satellite Acquisition Flag 4,GPS Satellite Acquisition Flag 5,GPS Satellite Acquisition Flag 6,GPS Satellite Acquisition Flag 7,GPS Satellite Acquisition Flag 8,GPS Satellite Acquisition Flag 9,GPS Satellite Acquisition Flag 10,GPS Satellite Acquisition Flag 11,GPS Satellite Acquisition Flag 12,GPS Satellite Azimuth 1(Degrees),GPS Satellite Azimuth 2(Degrees),GPS Satellite Azimuth 3(Degrees),GPS Satellite Azimuth 4(Degrees),GPS Satellite Azimuth 5(Degrees),GPS Satellite Azimuth 6(Degrees),GPS Satellite Azimuth 7(Degrees),GPS Satellite Azimuth 8(Degrees),GPS Satellite Azimuth 9(Degrees),GPS Satellite Azimuth 10(Degrees),GPS Satellite Azimuth 11(Degrees),GPS Satellite Azimuth 12(Degrees),GPS Satellite Elevation 1(Degrees),GPS Satellite Elevation 2(Degrees),GPS Satellite Elevation 3(Degrees),GPS Satellite Elevation 4(Degrees),GPS Satellite Elevation 5(Degrees),GPS Satellite Elevation 6(Degrees),GPS Satellite Elevation 7(Degrees),GPS Satellite Elevation 8(Degrees),GPS Satellite Elevation 9(Degrees),GPS Satellite Elevation 10(Degrees),GPS Satellite Elevation 11(Degrees),GPS Satellite Elevation 12(Degrees),GPS Satellite PRN 1,GPS Satellite PRN 2,GPS Satellite PRN 3,GPS Satellite PRN 4,GPS Satellite PRN 5,GPS Satellite PRN 6,GPS Satellite PRN 7,GPS Satellite PRN 8,GPS Satellite PRN 9,GPS Satellite PRN 10,GPS Satellite PRN 11,GPS Satellite PRN 12,GPS Satellite Signal Level 1(AMU),GPS Satellite Signal Level 2(AMU),GPS Satellite Signal Level 3(AMU),GPS Satellite Signal Level 4(AMU),GPS Satellite Signal Level 5(AMU),GPS Satellite Signal Level 6(AMU),GPS Satellite Signal Level 7(AMU),GPS Satellite Signal Level 8(AMU),GPS Satellite Signal Level 9(AMU),GPS Satellite Signal Level 10(AMU),GPS Satellite Signal Level 11(AMU),GPS Satellite Signal Level 12(AMU),
1572066011,2019-10-26 05:00:11.767,Acquired,Acquired,Acquired,Acquired,Acquired,Acquired,Acquired,Not acquired,,,,,2.80711136E2,1.48841232E2,2.21408944E2,1.20206136E2,6.1770564E1,1.70185904E2,2.89415456E2,3.25763872E2,,,,,1.7947879999999998E1,2.6432312E1,7.7322104E1,4.3039376E1,5.5001272E1,5.3624592E1,5.3905856E1,1.1955316E1,,,,,8,10,16,20,21,26,27,7,,,,,2,9,10,3,6,15,8,2,,,,,
1572066071,2019-10-26 05:01:11.767,Acquired,Acquired,Acquired,Acquired,Acquired,Acquired,Acquired,Not acquired,,,,,2.80711136E2,1.48841232E2,2.21408944E2,1.20206136E2,6.1770564E1,1.70185904E2,2.89415456E2,3.25763872E2,,,,,1.7947879999999998E1,2.6432312E1,7.7322104E1,4.3039376E1,5.5001272E1,5.3624592E1,5.3905856E1,1.1955316E1,,,,,8,10,16,20,21,26,27,7,,,,,2,9,10,3,6,15,8,2,,,,,
1572066131,2019-10-26 05:02:11.767,Acquired,Acquired,Acquired,Acquired,Acquired,Acquired,Acquired,Not acquired,,,,,2.80711136E2,1.48841232E2,2.21408944E2,1.20206136E2,6.1770564E1,1.70185904E2,2.89415456E2,3.25763872E2,,,,,1.7947879999999998E1,2.6432312E1,7.7322104E1,4.3039376E1,5.5001272E1,5.3624592E1,5.3905856E1,1.1955316E1,,,,,8,10,16,20,21,26,27,7,,,,,2,9,10,3,6,15,8,2,,,,,
1572066191,2019-10-26 05:03:11.767,Acquired,Acquired,Acquired,Acquired,Acquired,Acquired,Acquired,Not acquired,,,,,2.80711136E2,1.48841232E2,2.21408944E2,1.20206136E2,6.1770564E1,1.70185904E2,2.89415456E2,3.25763872E2,,,,,1.7947879999999998E1,2.6432312E1,7.7322104E1,4.3039376E1,5.5001272E1,5.3624592E1,5.3905856E1,1.1955316E1,,,,,8,10,16,20,21,26,27,7,,,,,2,9,10,3,6,15,8,2,,,,,
1572066251,2019-10-26 05:04:11.767,Acquired,Acquired,Acquired,Acquired,Acquired,Acquired,Acquired,Not acquired,,,,,2.80711136E2,1.48841232E2,2.21408944E2,1.20206136E2,6.1770564E1,1.70185904E2,2.89415456E2,3.25763872E2,,,,,1.7947879999999998E1,2.6432312E1,7.7322104E1,4.3039376E1,5.5001272E1,5.3624592E1,5.3905856E1,1.1955316E1,,,,,8,10,16,20,21,26,27,7,,,,,2,9,10,3,6,15,8,2,,,,,
1572066311,2019-10-26 05:05:11.767,Acquired,Acquired,Acquired,Acquired,Acquired,Acquired,Acquired,Not acquired,,,,,2.80711136E2,1.48841232E2,2.21408944E2,1.20206136E2,6.1770564E1,1.70185904E2,2.89415456E2,3.25763872E2,,,,,1.7947879999999998E1,2.6432312E1,7.7322104E1,4.3039376E1,5.5001272E1,5.3624592E1,5.3905856E1,1.1955316E1,,,,,8,10,16,20,21,26,27,7,,,,,2,9,10,3,6,15,8,2,,,,,
1572066371,2019-10-26 05:06:11.768,Acquired,Acquired,Acquired,Acquired,Acquired,Acquired,Acquired,Not acquired,,,,,2.80711136E2,1.48841232E2,2.21408944E2,1.20206136E2,6.1770564E1,1.70185904E2,2.89415456E2,3.25763872E2,,,,,1.7947879999999998E1,2.6432312E1,7.7322104E1,4.3039376E1,5.5001272E1,5.3624592E1,5.3905856E1,1.1955316E1,,,,,8,10,16,20,21,26,27,7,,,,,2,9,10,3,6,15,8,2,,,,,
1572066431,2019-10-26 05:07:11.767,Acquired,Acquired,Acquired,Acquired,Acquired,Acquired,Acquired,Not acquired,,,,,2.80711136E2,1.48841232E2,2.21408944E2,1.20206136E2,6.1770564E1,1.70185904E2,2.89415456E2,3.25763872E2,,,,,1.7947879999999998E1,2.6432312E1,7.7322104E1,4.3039376E1,5.5001272E1,5.3624592E1,5.3905856E1,1.1955316E1,,,,,8,10,16,20,21,26,27,7,,,,,2,9,10,3,6,15,8,2,,,,,
1572066491,2019-10-26 05:08:11.769,Acquired,Acquired,Acquired,Acquired,Acquired,Acquired,Acquired,Not acquired,,,,,2.80711136E2,1.48841232E2,2.21408944E2,1.20206136E2,6.1770564E1,1.70185904E2,2.89415456E2,3.25763872E2,,,,,1.7947879999999998E1,2.6432312E1,7.7322104E1,4.3039376E1,5.5001272E1,5.3624592E1,5.3905856E1,1.1955316E1,,,,,8,10,16,20,21,26,27,7,,,,,2,9,10,3,6,15,8,2,,,,,
1572066551,2019-10-26 05:09:11.767,Acquired,Acquired,Acquired,Acquired,Acquired,Acquired,Acquired,Not acquired,,,,,2.80711136E2,1.48841232E2,2.21408944E2,1.20206136E2,6.1770564E1,1.70185904E2,2.89415456E2,3.25763872E2,,,,,1.7947879999999998E1,2.6432312E1,7.7322104E1,4.3039376E1,5.5001272E1,5.3624592E1,5.3905856E1,1.1955316E1,,,,,8,10,16,20,21,26,27,7,,,,,2,9,10,3,6,15,8,2,,,,,
1572066611,2019-10-26 05:10:11.767,Acquired,Acquired,Acquired,Acquired,Acquired,Acquired,Acquired,Not acquired,,,,,2.80711136E2,1.48841232E2,2.21408944E2,1.20206136E2,6.1770564E1,1.70185904E2,2.89415456E2,3.25763872E2,,,,,1.7947879999999998E1,2.6432312E1,7.7322104E1,4.3039376E1,5.5001272E1,5.3624592E1,5.3905856E1,1.1955316E1,,,,,8,10,16,20,21,26,27,7,,,,,2,9,10,3,6,15,8,2,,,,,
1572066671,2019-10-26 05:11:11.767,Acquired,Acquired,Acquired,Acquired,Acquired,Acquired,Acquired,Not acquired,,,,,2.80711136E2,1.48841232E2,2.21408944E2,1.20206136E2,6.1770564E1,1.70185904E2,2.89415456E2,3.25763872E2,,,,,1.7947879999999998E1,2.6432312E1,7.7322104E1,4.3039376E1,5.5001272E1,5.3624592E1,5.3905856E1,1.1955316E1,,,,,8,10,16,20,21,26,27,7,,,,,2,9,10,3,6,15,8,2,,,,,
1572066731,2019-10-26 05:12:11.767,Acquired,Acquired,Acquired,Acquired,Acquired,Acquired,Acquired,Not acquired,,,,,2.80711136E2,1.48841232E2,2.21408944E2,1.20206136E2,6.1770564E1,1.70185904E2,2.89415456E2,3.25763872E2,,,,,1.7947879999999998E1,2.6432312E1,7.7322104E1,4.3039376E1,5.5001272E1,5.3624592E1,5.3905856E1,1.1955316E1,,,,,8,10,16,20,21,26,27,7,,,,,2,9,10,3,6,15,8,2,,,,,
1572066791,2019-10-26 05:13:11.767,Acquired,Acquired,Acquired,Acquired,Acquired,Acquired,Acquired,Not acquired,,,,,2.80711136E2,1.48841232E2,2.21408944E2,1.20206136E2,6.1770564E1,1.70185904E2,2.89415456E2,3.25763872E2,,,,,1.7947879999999998E1,2.6432312E1,7.7322104E1,4.3039376E1,5.5001272E1,5.3624592E1,5.3905856E1,1.1955316E1,,,,,8,10,16,20,21,26,27,7,,,,,2,9,10,3,6,15,8,2,,,,,
1572066851,2019-10-26 05:14:11.817,Acquired,Acquired,Acquired,Acquired,Acquired,Acquired,Acquired,Not acquired,,,,,2.80711136E2,1.48841232E2,2.21408944E2,1.20206136E2,6.1770564E1,1.70185904E2,2.89415456E2,3.25763872E2,,,,,1.7947879999999998E1,2.6432312E1,7.7322104E1,4.3039376E1,5.5001272E1,5.3624592E1,5.3905856E1,1.1955316E1,,,,,8,10,16,20,21,26,27,7,,,,,2,9,10,3,6,15,8,2,,,,,
1572066911,2019-10-26 05:15:11.767,Acquired,Acquired,Acquired,Acquired,Acquired,Acquired,Acquired,Not acquired,,,,,2.80711136E2,1.48841232E2,2.21408944E2,1.20206136E2,6.1770564E1,1.70185904E2,2.89415456E2,3.25763872E2,,,,,1.7947879999999998E1,2.6432312E1,7.7322104E1,4.3039376E1,5.5001272E1,5.3624592E1,5.3905856E1,1.1955316E1,,,,,8,10,16,20,21,26,27,7,,,,,2,9,10,3,6,15,8,2,,,,,
1572066971,2019-10-26 05:16:11.767,Acquired,Acquired,Acquired,Acquired,Acquired,,Acquired,Acquired,,,,,2.80958688E2,1.4862104E2,2.1938808E2,1.1968176E2,6.1612959999999994E1,,2.89780448E2,3.25427904E2,,,,,1.8317134E1,2.6853109999999997E1,7.709195199999999E1,4.3322604E1,5.45973E1,,5.4326108E1,1.2140203999999999E1,,,,,8,10,16,20,21,,27,7,,,,,1,10,11,3,9,,12,2,,,,,
1572067031,2019-10-26 05:17:11.767,Acquired,Acquired,Acquired,,Acquired,Acquired,Acquired,Acquired,Acquired,,,,3.0887571199999996E2,2.9101721599999996E2,1.35526544E2,,9.1722832E1,6.1042044E1,1.69689472E2,3.09626528E2,4.8945392E1,,,,1.6494758E1,3.4838376E1,4.436552E1,,5.0006276E1,3.7411832E1,3.242629E1,7.270246399999999E1,6.687571999999999E0,,,,7,8,10,,20,21,26,27,15,,,,2,2,15,,6,4,15,14,2,,,,
1572067091,2019-10-26 05:18:11.767,Acquired,Acquired,Acquired,Acquired,Acquired,Acquired,Acquired,Acquired,Acquired,,,,3.0846297599999997E2,2.91230048E2,1.35103536E2,1.83635024E2,9.1014336E1,6.1123915999999994E1,1.69700432E2,3.10294496E2,4.8552679999999995E1,,,,1.6503103E1,3.5233768E1,4.473464E1,5.8598428E1,5.0005868E1,3.7028484E1,3.1967495999999997E1,7.31258E1,6.765251E0,,,,7,8,10,16,20,21,26,27,15,,,,1,4,10,15,9,8,13,10,2,,,,
1572067151,2019-10-26 05:19:11.798,Acquired,Acquired,Acquired,Acquired,Acquired,Acquired,Acquired,Acquired,Acquired,,,,3.0846297599999997E2,2.91230048E2,1.35103536E2,1.83635024E2,9.1014336E1,6.1123915999999994E1,1.69700432E2,3.10294496E2,4.8552679999999995E1,,,,1.6503103E1,3.5233768E1,4.473464E1,5.8598428E1,5.0005868E1,3.7028484E1,3.1967495999999997E1,7.31258E1,6.765251E0,,,,7,8,10,16,20,21,26,27,15,,,,1,4,10,15,9,8,13,10,2,,,,
1572067211,2019-10-26 05:20:11.767,Acquired,Acquired,Acquired,Acquired,Acquired,Acquired,Acquired,Acquired,Acquired,,,,3.0846297599999997E2,2.91230048E2,1.35103536E2,1.83635024E2,9.1014336E1,6.1123915999999994E1,1.69700432E2,3.10294496E2,4.8552679999999995E1,,,,1.6503103E1,3.5233768E1,4.473464E1,5.8598428E1,5.0005868E1,3.7028484E1,3.1967495999999997E1,7.31258E1,6.765251E0,,,,7,8,10,16,20,21,26,27,15,,,,1,4,10,15,9,8,13,10,2,,,,
1572067271,2019-10-26 05:21:11.767,Acquired,Acquired,Acquired,Acquired,Acquired,Acquired,Acquired,Acquired,Acquired,,,,3.0846297599999997E2,2.91230048E2,1.35103536E2,1.83635024E2,9.1014336E1,6.1123915999999994E1,1.69700432E2,3.10294496E2,4.8552679999999995E1,,,,1.6503103E1,3.5233768E1,4.473464E1,5.8598428E1,5.0005868E1,3.7028484E1,3.1967495999999997E1,7.31258E1,6.765251E0,,,,7,8,10,16,20,21,26,27,15,,,,1,4,10,15,9,8,13,10,2,,,,
1572067331,2019-10-26 05:22:11.768,Acquired,Acquired,Acquired,Acquired,Acquired,Acquired,Acquired,Acquired,Acquired,,,,3.0846297599999997E2,2.91230048E2,1.35103536E2,1.83635024E2,9.1014336E1,6.1123915999999994E1,1.69700432E2,3.10294496E2,4.8552679999999995E1,,,,1.6503103E1,3.5233768E1,4.473464E1,5.8598428E1,5.0005868E1,3.7028484E1,3.1967495999999997E1,7.31258E1,6.765251E0,,,,7,8,10,16,20,21,26,27,15,,,,1,4,10,15,9,8,13,10,2,,,,
1572067391,2019-10-26 05:23:11.769,Acquired,Acquired,Acquired,Acquired,Acquired,Acquired,Acquired,Acquired,Acquired,,,,3.0846297599999997E2,2.91230048E2,1.35103536E2,1.83635024E2,9.1014336E1,6.1123915999999994E1,1.69700432E2,3.10294496E2,4.8552679999999995E1,,,,1.6503103E1,3.5233768E1,4.473464E1,5.8598428E1,5.0005868E1,3.7028484E1,3.1967495999999997E1,7.31258E1,6.765251E0,,,,7,8,10,16,20,21,26,27,15,,,,1,4,10,15,9,8,13,10,2,,,,
1572067451,2019-10-26 05:24:11.767,Acquired,Acquired,Acquired,Acquired,Acquired,Acquired,Acquired,Acquired,Acquired,,,,3.0846297599999997E2,2.91230048E2,1.35103536E2,1.83635024E2,9.1014336E1,6.1123915999999994E1,1.69700432E2,3.10294496E2,4.8552679999999995E1,,,,1.6503103E1,3.5233768E1,4.473464E1,5.8598428E1,5.0005868E1,3.7028484E1,3.1967495999999997E1,7.31258E1,6.765251E0,,,,7,8,10,16,20,21,26,27,15,,,,1,4,10,15,9,8,13,10,2,,,,
1572067511,2019-10-26 05:25:11.767,Acquired,Acquired,Acquired,Acquired,Acquired,Acquired,Acquired,Acquired,Acquired,,,,3.0846297599999997E2,2.91230048E2,1.35103536E2,1.83635024E2,9.1014336E1,6.1123915999999994E1,1.69700432E2,3.10294496E2,4.8552679999999995E1,,,,1.6503103E1,3.5233768E1,4.473464E1,5.8598428E1,5.0005868E1,3.7028484E1,3.1967495999999997E1,7.31258E1,6.765251E0,,,,7,8,10,16,20,21,26,27,15,,,,1,4,10,15,9,8,13,10,2,,,,
1572067571,2019-10-26 05:26:11.767,Acquired,Acquired,Acquired,Acquired,Acquired,Acquired,Acquired,Acquired,Acquired,,,,3.0846297599999997E2,2.91230048E2,1.35103536E2,1.83635024E2,9.1014336E1,6.1123915999999994E1,1.69700432E2,3.10294496E2,4.8552679999999995E1,,,,1.6503103E1,3.5233768E1,4.473464E1,5.8598428E1,5.0005868E1,3.7028484E1,3.1967495999999997E1,7.31258E1,6.765251E0,,,,7,8,10,16,20,21,26,27,15,,,,1,4,10,15,9,8,13,10,2,,,,
1572067631,2019-10-26 05:27:11.767,Acquired,Acquired,Acquired,Acquired,Acquired,Acquired,Acquired,Acquired,Acquired,,,,3.0846297599999997E2,2.91230048E2,1.35103536E2,1.83635024E2,9.1014336E1,6.1123915999999994E1,1.69700432E2,3.10294496E2,4.8552679999999995E1,,,,1.6503103E1,3.5233768E1,4.473464E1,5.8598428E1,5.0005868E1,3.7028484E1,3.1967495999999997E1,7.31258E1,6.765251E0,,,,7,8,10,16,20,21,26,27,15,,,,1,4,10,15,9,8,13,10,2,,,,
1572067691,2019-10-26 05:28:11.767,Acquired,Acquired,Acquired,Acquired,Acquired,Acquired,Acquired,Acquired,Acquired,,,,3.0846297599999997E2,2.91230048E2,1.35103536E2,1.83635024E2,9.1014336E1,6.1123915999999994E1,1.69700432E2,3.10294496E2,4.8552679999999995E1,,,,1.6503103E1,3.5233768E1,4.473464E1,5.8598428E1,5.0005868E1,3.7028484E1,3.1967495999999997E1,7.31258E1,6.765251E0,,,,7,8,10,16,20,21,26,27,15,,,,1,4,10,15,9,8,13,10,2,,,,
1572067751,2019-10-26 05:29:11.767,Acquired,Acquired,Acquired,Acquired,Acquired,Acquired,Acquired,Acquired,Acquired,,,,3.0846297599999997E2,2.91230048E2,1.35103536E2,1.83635024E2,9.1014336E1,6.1123915999999994E1,1.69700432E2,3.10294496E2,4.8552679999999995E1,,,,1.6503103E1,3.5233768E1,4.473464E1,5.8598428E1,5.0005868E1,3.7028484E1,3.1967495999999997E1,7.31258E1,6.765251E0,,,,7,8,10,16,20,21,26,27,15,,,,1,4,10,15,9,8,13,10,2,,,,
1572067811,2019-10-26 05:30:11.767,Acquired,Acquired,Acquired,Acquired,Acquired,Acquired,Acquired,Acquired,Acquired,,,,3.0846297599999997E2,2.91230048E2,1.35103536E2,1.83635024E2,9.1014336E1,6.1123915999999994E1,1.69700432E2,3.10294496E2,4.8552679999999995E1,,,,1.6503103E1,3.5233768E1,4.473464E1,5.8598428E1,5.0005868E1,3.7028484E1,3.1967495999999997E1,7.31258E1,6.765251E0,,,,7,8,10,16,20,21,26,27,15,,,,1,4,10,15,9,8,13,10,2,,,,
1572067871,2019-10-26 05:31:11.767,Acquired,Acquired,Acquired,Acquired,Acquired,Acquired,Acquired,Acquired,Acquired,,,,3.0846297599999997E2,2.91230048E2,1.35103536E2,1.83635024E2,9.1014336E1,6.1123915999999994E1,1.69700432E2,3.10294496E2,4.8552679999999995E1,,,,1.6503103E1,3.5233768E1,4.473464E1,5.8598428E1,5.0005868E1,3.7028484E1,3.1967495999999997E1,7.31258E1,6.765251E0,,,,7,8,10,16,20,21,26,27,15,,,,1,4,10,15,9,8,13,10,2,,,,
1572067931,2019-10-26 05:32:11.767,Acquired,Acquired,Acquired,Acquired,Acquired,Acquired,Acquired,Acquired,Acquired,,,,3.0846297599999997E2,2.91230048E2,1.35103536E2,1.83635024E2,9.1014336E1,6.1123915999999994E1,1.69700432E2,3.10294496E2,4.8552679999999995E1,,,,1.6503103E1,3.5233768E1,4.473464E1,5.8598428E1,5.0005868E1,3.7028484E1,3.1967495999999997E1,7.31258E1,6.765251E0,,,,7,8,10,16,20,21,26,27,15,,,,1,4,10,15,9,8,13,10,2,,,,
1572067991,2019-10-26 05:33:11.767,Acquired,Acquired,Acquired,Acquired,Acquired,Acquired,Acquired,Acquired,Acquired,,,,3.0846297599999997E2,2.91230048E2,1.35103536E2,1.83635024E2,9.1014336E1,6.1123915999999994E1,1.69700432E2,3.10294496E2,4.8552679999999995E1,,,,1.6503103E1,3.5233768E1,4.473464E1,5.8598428E1,5.0005868E1,3.7028484E1,3.1967495999999997E1,7.31258E1,6.765251E0,,,,7,8,10,16,20,21,26,27,15,,,,1,4,10,15,9,8,13,10,2,,,,
1572068051,2019-10-26 05:34:11.767,Acquired,Acquired,Acquired,Acquired,Acquired,Acquired,Acquired,Acquired,Acquired,,,,3.0846297599999997E2,2.91230048E2,1.35103536E2,1.83635024E2,9.1014336E1,6.1123915999999994E1,1.69700432E2,3.10294496E2,4.8552679999999995E1,,,,1.6503103E1,3.5233768E1,4.473464E1,5.8598428E1,5.0005868E1,3.7028484E1,3.1967495999999997E1,7.31258E1,6.765251E0,,,,7,8,10,16,20,21,26,27,15,,,,1,4,10,15,9,8,13,10,2,,,,
1572068111,2019-10-26 05:35:11.800,Acquired,Acquired,Acquired,Acquired,Acquired,Acquired,Acquired,Acquired,Acquired,,,,3.0846297599999997E2,2.91230048E2,1.35103536E2,1.83635024E2,9.1014336E1,6.1123915999999994E1,1.69700432E2,3.10294496E2,4.8552679999999995E1,,,,1.6503103E1,3.5233768E1,4.473464E1,5.8598428E1,5.0005868E1,3.7028484E1,3.1967495999999997E1,7.31258E1,6.765251E0,,,,7,8,10,16,20,21,26,27,15,,,,1,4,10,15,9,8,13,10,2,,,,
1572068171,2019-10-26 05:36:11.767,Acquired,Acquired,Acquired,Acquired,Acquired,Acquired,Acquired,Acquired,Acquired,,,,3.0846297599999997E2,2.91230048E2,1.35103536E2,1.83635024E2,9.1014336E1,6.1123915999999994E1,1.69700432E2,3.10294496E2,4.8552679999999995E1,,,,1.6503103E1,3.5233768E1,4.473464E1,5.8598428E1,5.0005868E1,3.7028484E1,3.1967495999999997E1,7.31258E1,6.765251E0,,,,7,8,10,16,20,21,26,27,15,,,,1,4,10,15,9,8,13,10,2,,,,
1572068231,2019-10-26 05:37:11.767,Acquired,Acquired,Acquired,Acquired,Acquired,Acquired,Acquired,Acquired,Acquired,,,,3.0846297599999997E2,2.91230048E2,1.35103536E2,1.83635024E2,9.1014336E1,6.1123915999999994E1,1.69700432E2,3.10294496E2,4.8552679999999995E1,,,,1.6503103E1,3.5233768E1,4.473464E1,5.8598428E1,5.0005868E1,3.7028484E1,3.1967495999999997E1,7.31258E1,6.765251E0,,,,7,8,10,16,20,21,26,27,15,,,,1,4,10,15,9,8,13,10,2,,,,
1572068291,2019-10-26 05:38:11.767,Acquired,Acquired,Acquired,Acquired,Acquired,Acquired,Acquired,Acquired,Acquired,,,,3.0846297599999997E2,2.91230048E2,1.35103536E2,1.83635024E2,9.1014336E1,6.1123915999999994E1,1.69700432E2,3.10294496E2,4.8552679999999995E1,,,,1.6503103E1,3.5233768E1,4.473464E1,5.8598428E1,5.0005868E1,3.7028484E1,3.1967495999999997E1,7.31258E1,6.765251E0,,,,7,8,10,16,20,21,26,27,15,,,,1,4,10,15,9,8,13,10,2,,,,
1572068351,2019-10-26 05:39:11.783,Acquired,Acquired,Acquired,Acquired,Acquired,Acquired,Acquired,Acquired,Acquired,,,,3.0846297599999997E2,2.91230048E2,1.35103536E2,1.83635024E2,9.1014336E1,6.1123915999999994E1,1.69700432E2,3.10294496E2,4.8552679999999995E1,,,,1.6503103E1,3.5233768E1,4.473464E1,5.8598428E1,5.0005868E1,3.7028484E1,3.1967495999999997E1,7.31258E1,6.765251E0,,,,7,8,10,16,20,21,26,27,15,,,,1,4,10,15,9,8,13,10,2,,,,
1572068411,2019-10-26 05:40:11.767,Acquired,Acquired,Acquired,Acquired,Acquired,Acquired,Acquired,Acquired,Acquired,,,,3.0846297599999997E2,2.91230048E2,1.35103536E2,1.83635024E2,9.1014336E1,6.1123915999999994E1,1.69700432E2,3.10294496E2,4.8552679999999995E1,,,,1.6503103E1,3.5233768E1,4.473464E1,5.8598428E1,5.0005868E1,3.7028484E1,3.1967495999999997E1,7.31258E1,6.765251E0,,,,7,8,10,16,20,21,26,27,15,,,,1,4,10,15,9,8,13,10,2,,,,
1572068471,2019-10-26 05:41:11.767,Acquired,Acquired,Acquired,Acquired,Acquired,Acquired,Acquired,Acquired,Acquired,,,,3.0846297599999997E2,2.91230048E2,1.35103536E2,1.83635024E2,9.1014336E1,6.1123915999999994E1,1.69700432E2,3.10294496E2,4.8552679999999995E1,,,,1.6503103E1,3.5233768E1,4.473464E1,5.8598428E1,5.0005868E1,3.7028484E1,3.1967495999999997E1,7.31258E1,6.765251E0,,,,7,8,10,16,20,21,26,27,15,,,,1,4,10,15,9,8,13,10,2,,,,
1572068531,2019-10-26 05:42:11.769,Acquired,Acquired,Acquired,Acquired,Acquired,Acquired,Acquired,Acquired,Acquired,,,,3.0846297599999997E2,2.91230048E2,1.35103536E2,1.83635024E2,9.1014336E1,6.1123915999999994E1,1.69700432E2,3.10294496E2,4.8552679999999995E1,,,,1.6503103E1,3.5233768E1,4.473464E1,5.8598428E1,5.0005868E1,3.7028484E1,3.1967495999999997E1,7.31258E1,6.765251E0,,,,7,8,10,16,20,21,26,27,15,,,,1,4,10,15,9,8,13,10,2,,,,
1572068591,2019-10-26 05:43:11.773,Acquired,Acquired,Acquired,Acquired,Acquired,Acquired,Acquired,Acquired,Acquired,,,,3.0846297599999997E2,2.91230048E2,1.35103536E2,1.83635024E2,9.1014336E1,6.1123915999999994E1,1.69700432E2,3.10294496E2,4.8552679999999995E1,,,,1.6503103E1,3.5233768E1,4.473464E1,5.8598428E1,5.0005868E1,3.7028484E1,3.1967495999999997E1,7.31258E1,6.765251E0,,,,7,8,10,16,20,21,26,27,15,,,,1,4,10,15,9,8,13,10,2,,,,
1572068651,2019-10-26 05:44:11.796,Acquired,Acquired,Acquired,Acquired,Acquired,Acquired,Acquired,Acquired,Acquired,,,,3.0846297599999997E2,2.91230048E2,1.35103536E2,1.83635024E2,9.1014336E1,6.1123915999999994E1,1.69700432E2,3.10294496E2,4.8552679999999995E1,,,,1.6503103E1,3.5233768E1,4.473464E1,5.8598428E1,5.0005868E1,3.7028484E1,3.1967495999999997E1,7.31258E1,6.765251E0,,,,7,8,10,16,20,21,26,27,15,,,,1,4,10,15,9,8,13,10,2,,,,
1572068711,2019-10-26 05:45:11.767,Acquired,Acquired,Acquired,Acquired,Acquired,Acquired,Acquired,Acquired,Acquired,,,,3.0846297599999997E2,2.91230048E2,1.35103536E2,1.83635024E2,9.1014336E1,6.1123915999999994E1,1.69700432E2,3.10294496E2,4.8552679999999995E1,,,,1.6503103E1,3.5233768E1,4.473464E1,5.8598428E1,5.0005868E1,3.7028484E1,3.1967495999999997E1,7.31258E1,6.765251E0,,,,7,8,10,16,20,21,26,27,15,,,,1,4,10,15,9,8,13,10,2,,,,
1572068771,2019-10-26 05:46:11.767,Acquired,Acquired,Acquired,Acquired,Acquired,Acquired,Acquired,Acquired,Acquired,,,,3.0846297599999997E2,2.91230048E2,1.35103536E2,1.83635024E2,9.1014336E1,6.1123915999999994E1,1.69700432E2,3.10294496E2,4.8552679999999995E1,,,,1.6503103E1,3.5233768E1,4.473464E1,5.8598428E1,5.0005868E1,3.7028484E1,3.1967495999999997E1,7.31258E1,6.765251E0,,,,7,8,10,16,20,21,26,27,15,,,,1,4,10,15,9,8,13,10,2,,,,
1572068831,2019-10-26 05:47:11.769,Acquired,Acquired,Acquired,Acquired,Acquired,Acquired,Acquired,Acquired,Acquired,,,,3.0846297599999997E2,2.91230048E2,1.35103536E2,1.83635024E2,9.1014336E1,6.1123915999999994E1,1.69700432E2,3.10294496E2,4.8552679999999995E1,,,,1.6503103E1,3.5233768E1,4.473464E1,5.8598428E1,5.0005868E1,3.7028484E1,3.1967495999999997E1,7.31258E1,6.765251E0,,,,7,8,10,16,20,21,26,27,15,,,,1,4,10,15,9,8,13,10,2,,,,
1572068891,2019-10-26 05:48:11.767,Acquired,Acquired,Acquired,Acquired,Acquired,Acquired,Acquired,Acquired,Acquired,,,,3.0846297599999997E2,2.91230048E2,1.35103536E2,1.83635024E2,9.1014336E1,6.1123915999999994E1,1.69700432E2,3.10294496E2,4.8552679999999995E1,,,,1.6503103E1,3.5233768E1,4.473464E1,5.8598428E1,5.0005868E1,3.7028484E1,3.1967495999999997E1,7.31258E1,6.765251E0,,,,7,8,10,16,20,21,26,27,15,,,,1,4,10,15,9,8,13,10,2,,,,
1572068951,2019-10-26 05:49:11.767,Acquired,Acquired,Acquired,Acquired,Acquired,Acquired,Acquired,Acquired,Acquired,,,,3.0846297599999997E2,2.91230048E2,1.35103536E2,1.83635024E2,9.1014336E1,6.1123915999999994E1,1.69700432E2,3.10294496E2,4.8552679999999995E1,,,,1.6503103E1,3.5233768E1,4.473464E1,5.8598428E1,5.0005868E1,3.7028484E1,3.1967495999999997E1,7.31258E1,6.765251E0,,,,7,8,10,16,20,21,26,27,15,,,,1,4,10,15,9,8,13,10,2,,,,
1572069011,2019-10-26 05:50:11.767,Acquired,Acquired,Acquired,Acquired,Acquired,Acquired,Acquired,Acquired,Acquired,,,,3.0846297599999997E2,2.91230048E2,1.35103536E2,1.83635024E2,9.1014336E1,6.1123915999999994E1,1.69700432E2,3.10294496E2,4.8552679999999995E1,,,,1.6503103E1,3.5233768E1,4.473464E1,5.8598428E1,5.0005868E1,3.7028484E1,3.1967495999999997E1,7.31258E1,6.765251E0,,,,7,8,10,16,20,21,26,27,15,,,,1,4,10,15,9,8,13,10,2,,,,
1572069071,2019-10-26 05:51:11.767,Acquired,Acquired,Acquired,Acquired,Acquired,Acquired,Acquired,Acquired,Acquired,,,,3.0846297599999997E2,2.91230048E2,1.35103536E2,1.83635024E2,9.1014336E1,6.1123915999999994E1,1.69700432E2,3.10294496E2,4.8552679999999995E1,,,,1.6503103E1,3.5233768E1,4.473464E1,5.8598428E1,5.0005868E1,3.7028484E1,3.1967495999999997E1,7.31258E1,6.765251E0,,,,7,8,10,16,20,21,26,27,15,,,,1,4,10,15,9,8,13,10,2,,,,
1572069131,2019-10-26 05:52:11.767,Acquired,Acquired,Acquired,Acquired,Acquired,Acquired,Acquired,Acquired,Acquired,,,,3.0846297599999997E2,2.91230048E2,1.35103536E2,1.83635024E2,9.1014336E1,6.1123915999999994E1,1.69700432E2,3.10294496E2,4.8552679999999995E1,,,,1.6503103E1,3.5233768E1,4.473464E1,5.8598428E1,5.0005868E1,3.7028484E1,3.1967495999999997E1,7.31258E1,6.765251E0,,,,7,8,10,16,20,21,26,27,15,,,,1,4,10,15,9,8,13,10,2,,,,
1572069191,2019-10-26 05:53:11.767,Acquired,Acquired,Acquired,Acquired,Acquired,Acquired,Acquired,Acquired,Acquired,,,,3.0846297599999997E2,2.91230048E2,1.35103536E2,1.83635024E2,9.1014336E1,6.1123915999999994E1,1.69700432E2,3.10294496E2,4.8552679999999995E1,,,,1.6503103E1,3.5233768E1,4.473464E1,5.8598428E1,5.0005868E1,3.7028484E1,3.1967495999999997E1,7.31258E1,6.765251E0,,,,7,8,10,16,20,21,26,27,15,,,,1,4,10,15,9,8,13,10,2,,,,
1572069251,2019-10-26 05:54:11.768,Acquired,Acquired,Acquired,Acquired,Acquired,Acquired,Acquired,Acquired,Acquired,,,,3.0846297599999997E2,2.91230048E2,1.35103536E2,1.83635024E2,9.1014336E1,6.1123915999999994E1,1.69700432E2,3.10294496E2,4.8552679999999995E1,,,,1.6503103E1,3.5233768E1,4.473464E1,5.8598428E1,5.0005868E1,3.7028484E1,3.1967495999999997E1,7.31258E1,6.765251E0,,,,7,8,10,16,20,21,26,27,15,,,,1,4,10,15,9,8,13,10,2,,,,
1572069311,2019-10-26 05:55:11.766,Acquired,Acquired,Acquired,Acquired,Acquired,Acquired,Acquired,Acquired,Acquired,,,,3.0846297599999997E2,2.91230048E2,1.35103536E2,1.83635024E2,9.1014336E1,6.1123915999999994E1,1.69700432E2,3.10294496E2,4.8552679999999995E1,,,,1.6503103E1,3.5233768E1,4.473464E1,5.8598428E1,5.0005868E1,3.7028484E1,3.1967495999999997E1,7.31258E1,6.765251E0,,,,7,8,10,16,20,21,26,27,15,,,,1,4,10,15,9,8,13,10,2,,,,
1572069371,2019-10-26 05:56:11.767,Acquired,Acquired,Acquired,Acquired,Acquired,Acquired,Acquired,Acquired,Acquired,,,,3.0846297599999997E2,2.91230048E2,1.35103536E2,1.83635024E2,9.1014336E1,6.1123915999999994E1,1.69700432E2,3.10294496E2,4.8552679999999995E1,,,,1.6503103E1,3.5233768E1,4.473464E1,5.8598428E1,5.0005868E1,3.7028484E1,3.1967495999999997E1,7.31258E1,6.765251E0,,,,7,8,10,16,20,21,26,27,15,,,,1,4,10,15,9,8,13,10,2,,,,
1572069431,2019-10-26 05:57:11.767,Acquired,Acquired,Acquired,Acquired,Acquired,Acquired,Acquired,Acquired,Acquired,,,,3.0846297599999997E2,2.91230048E2,1.35103536E2,1.83635024E2,9.1014336E1,6.1123915999999994E1,1.69700432E2,3.10294496E2,4.8552679999999995E1,,,,1.6503103E1,3.5233768E1,4.473464E1,5.8598428E1,5.0005868E1,3.7028484E1,3.1967495999999997E1,7.31258E1,6.765251E0,,,,7,8,10,16,20,21,26,27,15,,,,1,4,10,15,9,8,13,10,2,,,,
1572069491,2019-10-26 05:58:11.767,Acquired,Acquired,Acquired,Acquired,Acquired,Acquired,Acquired,Acquired,Acquired,,,,3.0846297599999997E2,2.91230048E2,1.35103536E2,1.83635024E2,9.1014336E1,6.1123915999999994E1,1.69700432E2,3.10294496E2,4.8552679999999995E1,,,,1.6503103E1,3.5233768E1,4.473464E1,5.8598428E1,5.0005868E1,3.7028484E1,3.1967495999999997E1,7.31258E1,6.765251E0,,,,7,8,10,16,20,21,26,27,15,,,,1,4,10,15,9,8,13,10,2,,,,
1572069551,2019-10-26 05:59:11.767,Acquired,Acquired,Acquired,Acquired,Acquired,Acquired,Acquired,Acquired,Acquired,,,,3.0846297599999997E2,2.91230048E2,1.35103536E2,1.83635024E2,9.1014336E1,6.1123915999999994E1,1.69700432E2,3.10294496E2,4.8552679999999995E1,,,,1.6503103E1,3.5233768E1,4.473464E1,5.8598428E1,5.0005868E1,3.7028484E1,3.1967495999999997E1,7.31258E1,6.765251E0,,,,7,8,10,16,20,21,26,27,15,,,,1,4,10,15,9,8,13,10,2,,,,
