Time(longsecs),Time(UTC),GPS Satellite Acquisition Flag 1,GPS Satellite Acquisition Flag 2,GPS Satellite Acquisition Flag 3,GPS Satellite Acquisition Flag 4,GPS Satellite Acquisition Flag 5,GPS Satellite Acquisition Flag 6,GPS Satellite Acquisition Flag 7,GPS Satellite Acquisition Flag 8,GPS Satellite Acquisition Flag 9,GPS Satellite Acquisition Flag 10,GPS Satellite Acquisition Flag 11,GPS Satellite Acquisition Flag 12,GPS Satellite Azimuth 1(Degrees),GPS Satellite Azimuth 2(Degrees),GPS Satellite Azimuth 3(Degrees),GPS Satellite Azimuth 4(Degrees),GPS Satellite Azimuth 5(Degrees),GPS Satellite Azimuth 6(Degrees),GPS Satellite Azimuth 7(Degrees),GPS Satellite Azimuth 8(Degrees),GPS Satellite Azimuth 9(Degrees),GPS Satellite Azimuth 10(Degrees),GPS Satellite Azimuth 11(Degrees),GPS Satellite Azimuth 12(Degrees),GPS Satellite Elevation 1(Degrees),GPS Satellite Elevation 2(Degrees),GPS Satellite Elevation 3(Degrees),GPS Satellite Elevation 4(Degrees),GPS Satellite Elevation 5(Degrees),GPS Satellite Elevation 6(Degrees),GPS Satellite Elevation 7(Degrees),GPS Satellite Elevation 8(Degrees),GPS Satellite Elevation 9(Degrees),GPS Satellite Elevation 10(Degrees),GPS Satellite Elevation 11(Degrees),GPS Satellite Elevation 12(Degrees),GPS Satellite PRN 1,GPS Satellite PRN 2,GPS Satellite PRN 3,GPS Satellite PRN 4,GPS Satellite PRN 5,GPS Satellite PRN 6,GPS Satellite PRN 7,GPS Satellite PRN 8,GPS Satellite PRN 9,GPS Satellite PRN 10,GPS Satellite PRN 11,GPS Satellite PRN 12,GPS Satellite Signal Level 1(AMU),GPS Satellite Signal Level 2(AMU),GPS Satellite Signal Level 3(AMU),GPS Satellite Signal Level 4(AMU),GPS Satellite Signal Level 5(AMU),GPS Satellite Signal Level 6(AMU),GPS Satellite Signal Level 7(AMU),GPS Satellite Signal Level 8(AMU),GPS Satellite Signal Level 9(AMU),GPS Satellite Signal Level 10(AMU),GPS Satellite Signal Level 11(AMU),GPS Satellite Signal Level 12(AMU),
1572080411,2019-10-26 09:00:11.767,Acquired,Acquired,Acquired,Acquired,Acquired,Acquired,Acquired,Acquired,Acquired,Not acquired,Not acquired,,2.98582048E2,2.24430896E2,1.65139392E2,2.86310208E2,1.04666928E2,2.2309963199999999E2,1.4936936E2,2.96859488E2,7.10112E1,5.2344972E1,3.1610944E2,,6.6962744E1,3.1697782E1,4.90822E1,7.5752984E1,3.6799E1,5.5201139999999995E1,1.5239002999999999E1,2.8397062E1,3.5641059999999996E1,1.1744890999999999E1,7.624222E0,,1,3,8,11,14,22,27,28,32,10,17,,15,15,5,12,7,10,2,3,8,0,0,,
1572080471,2019-10-26 09:01:11.802,Acquired,Acquired,Acquired,Acquired,Acquired,Acquired,Acquired,Acquired,Acquired,Not acquired,Not acquired,,2.98582048E2,2.24430896E2,1.65139392E2,2.86310208E2,1.04666928E2,2.2309963199999999E2,1.4936936E2,2.96859488E2,7.10112E1,5.2344972E1,3.1610944E2,,6.6962744E1,3.1697782E1,4.90822E1,7.5752984E1,3.6799E1,5.5201139999999995E1,1.5239002999999999E1,2.8397062E1,3.5641059999999996E1,1.1744890999999999E1,7.624222E0,,1,3,8,11,14,22,27,28,32,10,17,,15,15,5,12,7,10,2,3,8,0,0,,
1572080531,2019-10-26 09:02:11.768,Acquired,Acquired,Acquired,Acquired,Acquired,Acquired,Acquired,Acquired,Acquired,Not acquired,Not acquired,,2.98582048E2,2.24430896E2,1.65139392E2,2.86310208E2,1.04666928E2,2.2309963199999999E2,1.4936936E2,2.96859488E2,7.10112E1,5.2344972E1,3.1610944E2,,6.6962744E1,3.1697782E1,4.90822E1,7.5752984E1,3.6799E1,5.5201139999999995E1,1.5239002999999999E1,2.8397062E1,3.5641059999999996E1,1.1744890999999999E1,7.624222E0,,1,3,8,11,14,22,27,28,32,10,17,,15,15,5,12,7,10,2,3,8,0,0,,
1572080591,2019-10-26 09:03:11.768,Acquired,Acquired,Acquired,Acquired,Acquired,Acquired,Acquired,Acquired,Acquired,Not acquired,Not acquired,,2.98582048E2,2.24430896E2,1.65139392E2,2.86310208E2,1.04666928E2,2.2309963199999999E2,1.4936936E2,2.96859488E2,7.10112E1,5.2344972E1,3.1610944E2,,6.6962744E1,3.1697782E1,4.90822E1,7.5752984E1,3.6799E1,5.5201139999999995E1,1.5239002999999999E1,2.8397062E1,3.5641059999999996E1,1.1744890999999999E1,7.624222E0,,1,3,8,11,14,22,27,28,32,10,17,,15,15,5,12,7,10,2,3,8,0,0,,
1572080651,2019-10-26 09:04:11.769,Acquired,Acquired,Acquired,Acquired,Acquired,Acquired,Acquired,Acquired,Acquired,Not acquired,Not acquired,,2.98582048E2,2.24430896E2,1.65139392E2,2.86310208E2,1.04666928E2,2.2309963199999999E2,1.4936936E2,2.96859488E2,7.10112E1,5.2344972E1,3.1610944E2,,6.6962744E1,3.1697782E1,4.90822E1,7.5752984E1,3.6799E1,5.5201139999999995E1,1.5239002999999999E1,2.8397062E1,3.5641059999999996E1,1.1744890999999999E1,7.624222E0,,1,3,8,11,14,22,27,28,32,10,17,,15,15,5,12,7,10,2,3,8,0,0,,
1572080711,2019-10-26 09:05:11.767,Acquired,Acquired,Acquired,Acquired,Acquired,Acquired,Acquired,Acquired,Acquired,Not acquired,Not acquired,,2.98582048E2,2.24430896E2,1.65139392E2,2.86310208E2,1.04666928E2,2.2309963199999999E2,1.4936936E2,2.96859488E2,7.10112E1,5.2344972E1,3.1610944E2,,6.6962744E1,3.1697782E1,4.90822E1,7.5752984E1,3.6799E1,5.5201139999999995E1,1.5239002999999999E1,2.8397062E1,3.5641059999999996E1,1.1744890999999999E1,7.624222E0,,1,3,8,11,14,22,27,28,32,10,17,,15,15,5,12,7,10,2,3,8,0,0,,
1572080771,2019-10-26 09:06:11.767,Acquired,Acquired,Acquired,Acquired,Acquired,Acquired,Acquired,Acquired,Acquired,Not acquired,Not acquired,,2.98582048E2,2.24430896E2,1.65139392E2,2.86310208E2,1.04666928E2,2.2309963199999999E2,1.4936936E2,2.96859488E2,7.10112E1,5.2344972E1,3.1610944E2,,6.6962744E1,3.1697782E1,4.90822E1,7.5752984E1,3.6799E1,5.5201139999999995E1,1.5239002999999999E1,2.8397062E1,3.5641059999999996E1,1.1744890999999999E1,7.624222E0,,1,3,8,11,14,22,27,28,32,10,17,,15,15,5,12,7,10,2,3,8,0,0,,
1572080831,2019-10-26 09:07:11.767,Acquired,Acquired,Acquired,Acquired,Acquired,Acquired,Acquired,Acquired,Acquired,Not acquired,Not acquired,,2.98582048E2,2.24430896E2,1.65139392E2,2.86310208E2,1.04666928E2,2.2309963199999999E2,1.4936936E2,2.96859488E2,7.10112E1,5.2344972E1,3.1610944E2,,6.6962744E1,3.1697782E1,4.90822E1,7.5752984E1,3.6799E1,5.5201139999999995E1,1.5239002999999999E1,2.8397062E1,3.5641059999999996E1,1.1744890999999999E1,7.624222E0,,1,3,8,11,14,22,27,28,32,10,17,,15,15,5,12,7,10,2,3,8,0,0,,
1572080891,2019-10-26 09:08:11.769,Acquired,Acquired,Acquired,Acquired,Acquired,Acquired,Acquired,Acquired,Acquired,Not acquired,Not acquired,,2.98582048E2,2.24430896E2,1.65139392E2,2.86310208E2,1.04666928E2,2.2309963199999999E2,1.4936936E2,2.96859488E2,7.10112E1,5.2344972E1,3.1610944E2,,6.6962744E1,3.1697782E1,4.90822E1,7.5752984E1,3.6799E1,5.5201139999999995E1,1.5239002999999999E1,2.8397062E1,3.5641059999999996E1,1.1744890999999999E1,7.624222E0,,1,3,8,11,14,22,27,28,32,10,17,,15,15,5,12,7,10,2,3,8,0,0,,
1572080951,2019-10-26 09:09:11.767,Acquired,Acquired,Acquired,Acquired,Acquired,Acquired,Acquired,Acquired,Acquired,Not acquired,Not acquired,,2.98582048E2,2.24430896E2,1.65139392E2,2.86310208E2,1.04666928E2,2.2309963199999999E2,1.4936936E2,2.96859488E2,7.10112E1,5.2344972E1,3.1610944E2,,6.6962744E1,3.1697782E1,4.90822E1,7.5752984E1,3.6799E1,5.5201139999999995E1,1.5239002999999999E1,2.8397062E1,3.5641059999999996E1,1.1744890999999999E1,7.624222E0,,1,3,8,11,14,22,27,28,32,10,17,,15,15,5,12,7,10,2,3,8,0,0,,
1572081011,2019-10-26 09:10:11.767,Acquired,Acquired,Acquired,Acquired,Acquired,Acquired,Acquired,Acquired,Acquired,Not acquired,Not acquired,,2.98582048E2,2.24430896E2,1.65139392E2,2.86310208E2,1.04666928E2,2.2309963199999999E2,1.4936936E2,2.96859488E2,7.10112E1,5.2344972E1,3.1610944E2,,6.6962744E1,3.1697782E1,4.90822E1,7.5752984E1,3.6799E1,5.5201139999999995E1,1.5239002999999999E1,2.8397062E1,3.5641059999999996E1,1.1744890999999999E1,7.624222E0,,1,3,8,11,14,22,27,28,32,10,17,,15,15,5,12,7,10,2,3,8,0,0,,
1572081071,2019-10-26 09:11:11.767,Acquired,Acquired,Acquired,Acquired,Acquired,Acquired,Acquired,Acquired,Acquired,Not acquired,Not acquired,,2.98582048E2,2.24430896E2,1.65139392E2,2.86310208E2,1.04666928E2,2.2309963199999999E2,1.4936936E2,2.96859488E2,7.10112E1,5.2344972E1,3.1610944E2,,6.6962744E1,3.1697782E1,4.90822E1,7.5752984E1,3.6799E1,5.5201139999999995E1,1.5239002999999999E1,2.8397062E1,3.5641059999999996E1,1.1744890999999999E1,7.624222E0,,1,3,8,11,14,22,27,28,32,10,17,,15,15,5,12,7,10,2,3,8,0,0,,
1572081131,2019-10-26 09:12:11.767,Acquired,Acquired,Acquired,Acquired,Acquired,Acquired,Acquired,Acquired,Acquired,Not acquired,Not acquired,,2.98582048E2,2.24430896E2,1.65139392E2,2.86310208E2,1.04666928E2,2.2309963199999999E2,1.4936936E2,2.96859488E2,7.10112E1,5.2344972E1,3.1610944E2,,6.6962744E1,3.1697782E1,4.90822E1,7.5752984E1,3.6799E1,5.5201139999999995E1,1.5239002999999999E1,2.8397062E1,3.5641059999999996E1,1.1744890999999999E1,7.624222E0,,1,3,8,11,14,22,27,28,32,10,17,,15,15,5,12,7,10,2,3,8,0,0,,
1572081191,2019-10-26 09:13:11.767,Acquired,Acquired,Acquired,Acquired,Acquired,Acquired,Acquired,Acquired,Acquired,Not acquired,Not acquired,,2.98582048E2,2.24430896E2,1.65139392E2,2.86310208E2,1.04666928E2,2.2309963199999999E2,1.4936936E2,2.96859488E2,7.10112E1,5.2344972E1,3.1610944E2,,6.6962744E1,3.1697782E1,4.90822E1,7.5752984E1,3.6799E1,5.5201139999999995E1,1.5239002999999999E1,2.8397062E1,3.5641059999999996E1,1.1744890999999999E1,7.624222E0,,1,3,8,11,14,22,27,28,32,10,17,,15,15,5,12,7,10,2,3,8,0,0,,
1572081251,2019-10-26 09:14:11.767,Acquired,Acquired,Acquired,Acquired,Acquired,Acquired,Acquired,Acquired,Acquired,Not acquired,Not acquired,,2.98582048E2,2.24430896E2,1.65139392E2,2.86310208E2,1.04666928E2,2.2309963199999999E2,1.4936936E2,2.96859488E2,7.10112E1,5.2344972E1,3.1610944E2,,6.6962744E1,3.1697782E1,4.90822E1,7.5752984E1,3.6799E1,5.5201139999999995E1,1.5239002999999999E1,2.8397062E1,3.5641059999999996E1,1.1744890999999999E1,7.624222E0,,1,3,8,11,14,22,27,28,32,10,17,,15,15,5,12,7,10,2,3,8,0,0,,
1572081311,2019-10-26 09:15:11.767,Acquired,Acquired,Acquired,Acquired,Acquired,Acquired,Acquired,Acquired,Acquired,Not acquired,Not acquired,,2.98582048E2,2.24430896E2,1.65139392E2,2.86310208E2,1.04666928E2,2.2309963199999999E2,1.4936936E2,2.96859488E2,7.10112E1,5.2344972E1,3.1610944E2,,6.6962744E1,3.1697782E1,4.90822E1,7.5752984E1,3.6799E1,5.5201139999999995E1,1.5239002999999999E1,2.8397062E1,3.5641059999999996E1,1.1744890999999999E1,7.624222E0,,1,3,8,11,14,22,27,28,32,10,17,,15,15,5,12,7,10,2,3,8,0,0,,
1572081371,2019-10-26 09:16:11.767,Acquired,Acquired,Acquired,Acquired,Acquired,Acquired,Acquired,Acquired,Acquired,Not acquired,Not acquired,,2.98582048E2,2.24430896E2,1.65139392E2,2.86310208E2,1.04666928E2,2.2309963199999999E2,1.4936936E2,2.96859488E2,7.10112E1,5.2344972E1,3.1610944E2,,6.6962744E1,3.1697782E1,4.90822E1,7.5752984E1,3.6799E1,5.5201139999999995E1,1.5239002999999999E1,2.8397062E1,3.5641059999999996E1,1.1744890999999999E1,7.624222E0,,1,3,8,11,14,22,27,28,32,10,17,,15,15,5,12,7,10,2,3,8,0,0,,
1572081431,2019-10-26 09:17:11.799,Acquired,Acquired,Acquired,Acquired,Acquired,Acquired,Acquired,Acquired,Acquired,Not acquired,Not acquired,,2.98582048E2,2.24430896E2,1.65139392E2,2.86310208E2,1.04666928E2,2.2309963199999999E2,1.4936936E2,2.96859488E2,7.10112E1,5.2344972E1,3.1610944E2,,6.6962744E1,3.1697782E1,4.90822E1,7.5752984E1,3.6799E1,5.5201139999999995E1,1.5239002999999999E1,2.8397062E1,3.5641059999999996E1,1.1744890999999999E1,7.624222E0,,1,3,8,11,14,22,27,28,32,10,17,,15,15,5,12,7,10,2,3,8,0,0,,
1572081491,2019-10-26 09:18:11.767,Acquired,Acquired,Acquired,Acquired,Acquired,Acquired,Acquired,Acquired,Acquired,Not acquired,Not acquired,,2.98582048E2,2.24430896E2,1.65139392E2,2.86310208E2,1.04666928E2,2.2309963199999999E2,1.4936936E2,2.96859488E2,7.10112E1,5.2344972E1,3.1610944E2,,6.6962744E1,3.1697782E1,4.90822E1,7.5752984E1,3.6799E1,5.5201139999999995E1,1.5239002999999999E1,2.8397062E1,3.5641059999999996E1,1.1744890999999999E1,7.624222E0,,1,3,8,11,14,22,27,28,32,10,17,,15,15,5,12,7,10,2,3,8,0,0,,
1572081551,2019-10-26 09:19:11.767,Acquired,Acquired,Acquired,Acquired,Acquired,Acquired,Acquired,Acquired,Acquired,Not acquired,Not acquired,,2.98582048E2,2.24430896E2,1.65139392E2,2.86310208E2,1.04666928E2,2.2309963199999999E2,1.4936936E2,2.96859488E2,7.10112E1,5.2344972E1,3.1610944E2,,6.6962744E1,3.1697782E1,4.90822E1,7.5752984E1,3.6799E1,5.5201139999999995E1,1.5239002999999999E1,2.8397062E1,3.5641059999999996E1,1.1744890999999999E1,7.624222E0,,1,3,8,11,14,22,27,28,32,10,17,,15,15,5,12,7,10,2,3,8,0,0,,
1572081611,2019-10-26 09:20:11.767,Acquired,Acquired,Acquired,Acquired,Acquired,Acquired,Acquired,Acquired,Acquired,Not acquired,Not acquired,,2.98582048E2,2.24430896E2,1.65139392E2,2.86310208E2,1.04666928E2,2.2309963199999999E2,1.4936936E2,2.96859488E2,7.10112E1,5.2344972E1,3.1610944E2,,6.6962744E1,3.1697782E1,4.90822E1,7.5752984E1,3.6799E1,5.5201139999999995E1,1.5239002999999999E1,2.8397062E1,3.5641059999999996E1,1.1744890999999999E1,7.624222E0,,1,3,8,11,14,22,27,28,32,10,17,,15,15,5,12,7,10,2,3,8,0,0,,
1572081671,2019-10-26 09:21:11.767,Acquired,Acquired,Acquired,Acquired,Acquired,Acquired,Acquired,Acquired,Acquired,Not acquired,Not acquired,,2.98582048E2,2.24430896E2,1.65139392E2,2.86310208E2,1.04666928E2,2.2309963199999999E2,1.4936936E2,2.96859488E2,7.10112E1,5.2344972E1,3.1610944E2,,6.6962744E1,3.1697782E1,4.90822E1,7.5752984E1,3.6799E1,5.5201139999999995E1,1.5239002999999999E1,2.8397062E1,3.5641059999999996E1,1.1744890999999999E1,7.624222E0,,1,3,8,11,14,22,27,28,32,10,17,,15,15,5,12,7,10,2,3,8,0,0,,
1572081731,2019-10-26 09:22:11.768,Acquired,Acquired,Acquired,Acquired,Acquired,Acquired,Acquired,Acquired,Acquired,Not acquired,Not acquired,,2.98582048E2,2.24430896E2,1.65139392E2,2.86310208E2,1.04666928E2,2.2309963199999999E2,1.4936936E2,2.96859488E2,7.10112E1,5.2344972E1,3.1610944E2,,6.6962744E1,3.1697782E1,4.90822E1,7.5752984E1,3.6799E1,5.5201139999999995E1,1.5239002999999999E1,2.8397062E1,3.5641059999999996E1,1.1744890999999999E1,7.624222E0,,1,3,8,11,14,22,27,28,32,10,17,,15,15,5,12,7,10,2,3,8,0,0,,
1572081791,2019-10-26 09:23:11.767,Acquired,Acquired,Acquired,Acquired,Acquired,Acquired,Acquired,Acquired,Acquired,Not acquired,Not acquired,,2.98582048E2,2.24430896E2,1.65139392E2,2.86310208E2,1.04666928E2,2.2309963199999999E2,1.4936936E2,2.96859488E2,7.10112E1,5.2344972E1,3.1610944E2,,6.6962744E1,3.1697782E1,4.90822E1,7.5752984E1,3.6799E1,5.5201139999999995E1,1.5239002999999999E1,2.8397062E1,3.5641059999999996E1,1.1744890999999999E1,7.624222E0,,1,3,8,11,14,22,27,28,32,10,17,,15,15,5,12,7,10,2,3,8,0,0,,
1572081851,2019-10-26 09:24:11.769,Acquired,Acquired,Acquired,Acquired,Acquired,Acquired,Acquired,Acquired,Acquired,Not acquired,Not acquired,,2.98582048E2,2.24430896E2,1.65139392E2,2.86310208E2,1.04666928E2,2.2309963199999999E2,1.4936936E2,2.96859488E2,7.10112E1,5.2344972E1,3.1610944E2,,6.6962744E1,3.1697782E1,4.90822E1,7.5752984E1,3.6799E1,5.5201139999999995E1,1.5239002999999999E1,2.8397062E1,3.5641059999999996E1,1.1744890999999999E1,7.624222E0,,1,3,8,11,14,22,27,28,32,10,17,,15,15,5,12,7,10,2,3,8,0,0,,
1572081911,2019-10-26 09:25:11.767,Acquired,Acquired,Acquired,Acquired,Acquired,Acquired,Acquired,Acquired,Acquired,Not acquired,Not acquired,,2.98582048E2,2.24430896E2,1.65139392E2,2.86310208E2,1.04666928E2,2.2309963199999999E2,1.4936936E2,2.96859488E2,7.10112E1,5.2344972E1,3.1610944E2,,6.6962744E1,3.1697782E1,4.90822E1,7.5752984E1,3.6799E1,5.5201139999999995E1,1.5239002999999999E1,2.8397062E1,3.5641059999999996E1,1.1744890999999999E1,7.624222E0,,1,3,8,11,14,22,27,28,32,10,17,,15,15,5,12,7,10,2,3,8,0,0,,
1572081971,2019-10-26 09:26:11.771,Acquired,Acquired,Acquired,Acquired,Acquired,Acquired,Acquired,Acquired,Acquired,Not acquired,Not acquired,,2.98582048E2,2.24430896E2,1.65139392E2,2.86310208E2,1.04666928E2,2.2309963199999999E2,1.4936936E2,2.96859488E2,7.10112E1,5.2344972E1,3.1610944E2,,6.6962744E1,3.1697782E1,4.90822E1,7.5752984E1,3.6799E1,5.5201139999999995E1,1.5239002999999999E1,2.8397062E1,3.5641059999999996E1,1.1744890999999999E1,7.624222E0,,1,3,8,11,14,22,27,28,32,10,17,,15,15,5,12,7,10,2,3,8,0,0,,
1572082031,2019-10-26 09:27:11.767,Acquired,Acquired,Acquired,Acquired,Acquired,Acquired,Acquired,Not acquired,Acquired,Acquired,Not acquired,,2.991832E2,2.24639104E2,1.6516966399999998E2,2.8573049599999996E2,1.04164576E2,2.2329601599999998E2,1.4949337599999998E2,2.9639385599999997E2,7.0471488E1,5.2429448E1,3.1614544E2,,6.7381432E1,3.2137888E1,4.8587488E1,7.6213072E1,3.7037372E1,5.5671831999999995E1,1.4816517999999999E1,2.8411856E1,3.5593835999999996E1,1.1355329E1,8.003139E0,,1,3,8,11,14,22,27,28,32,10,17,,15,15,10,12,8,11,3,1,7,2,0,,
1572082091,2019-10-26 09:28:11.768,Acquired,Acquired,Acquired,Acquired,Acquired,Not acquired,Acquired,Not acquired,Acquired,Not acquired,Not acquired,,3.593458E1,2.3811919999999998E2,1.6728688E2,1.60997088E2,7.4904536E1,3.1361472E2,2.3634310399999998E2,2.72978656E2,4.8082108E1,3.2005177599999996E2,1.85731664E2,,8.3110856E1,5.5065591999999995E1,2.4286987999999997E1,7.552915999999999E1,4.1808043999999995E1,2.7341738E1,7.9618648E1,2.2853794E1,2.6273812E1,8.97132E0,1.0142869E1,,1,3,8,11,14,17,22,28,32,19,23,,14,16,15,12,9,0,15,0,5,0,0,,
1572082151,2019-10-26 09:29:11.767,Acquired,Acquired,Acquired,Acquired,Acquired,Acquired,Acquired,Acquired,Acquired,Not acquired,Not acquired,,4.0001771999999995E1,2.384692E2,1.67323312E2,1.6041150399999998E2,7.4304024E1,3.1345235199999996E2,2.36769872E2,2.72550272E2,4.775786E1,3.20015456E2,1.85688176E2,,8.3009304E1,5.5534676E1,2.3816589999999998E1,7.5032056E1,4.1737967999999995E1,2.7723086E1,8.0098648E1,2.2631591999999998E1,2.5976944E1,9.37834E0,1.0573069E1,,1,3,8,11,14,17,22,28,32,19,23,,15,16,12,11,8,1,15,2,6,0,2,,
1572082211,2019-10-26 09:30:11.767,Acquired,Acquired,Acquired,Acquired,Acquired,Acquired,Acquired,Acquired,Acquired,Not acquired,Not acquired,,4.0001771999999995E1,2.384692E2,1.67323312E2,1.6041150399999998E2,7.4304024E1,3.1345235199999996E2,2.36769872E2,2.72550272E2,4.775786E1,3.20015456E2,1.85688176E2,,8.3009304E1,5.5534676E1,2.3816589999999998E1,7.5032056E1,4.1737967999999995E1,2.7723086E1,8.0098648E1,2.2631591999999998E1,2.5976944E1,9.37834E0,1.0573069E1,,1,3,8,11,14,17,22,28,32,19,23,,15,16,12,11,8,1,15,2,6,0,2,,
1572082271,2019-10-26 09:31:11.768,Acquired,Acquired,Acquired,Acquired,Acquired,Acquired,Acquired,Acquired,Acquired,Not acquired,Not acquired,,4.0001771999999995E1,2.384692E2,1.67323312E2,1.6041150399999998E2,7.4304024E1,3.1345235199999996E2,2.36769872E2,2.72550272E2,4.775786E1,3.20015456E2,1.85688176E2,,8.3009304E1,5.5534676E1,2.3816589999999998E1,7.5032056E1,4.1737967999999995E1,2.7723086E1,8.0098648E1,2.2631591999999998E1,2.5976944E1,9.37834E0,1.0573069E1,,1,3,8,11,14,17,22,28,32,19,23,,15,16,12,11,8,1,15,2,6,0,2,,
1572082331,2019-10-26 09:32:11.767,Acquired,Acquired,Acquired,Acquired,Acquired,Acquired,Acquired,Acquired,Acquired,Not acquired,Not acquired,,4.0001771999999995E1,2.384692E2,1.67323312E2,1.6041150399999998E2,7.4304024E1,3.1345235199999996E2,2.36769872E2,2.72550272E2,4.775786E1,3.20015456E2,1.85688176E2,,8.3009304E1,5.5534676E1,2.3816589999999998E1,7.5032056E1,4.1737967999999995E1,2.7723086E1,8.0098648E1,2.2631591999999998E1,2.5976944E1,9.37834E0,1.0573069E1,,1,3,8,11,14,17,22,28,32,19,23,,15,16,12,11,8,1,15,2,6,0,2,,
1572082391,2019-10-26 09:33:11.778,Acquired,Acquired,Acquired,Acquired,Acquired,Acquired,Acquired,Acquired,Acquired,Not acquired,Not acquired,,4.0001771999999995E1,2.384692E2,1.67323312E2,1.6041150399999998E2,7.4304024E1,3.1345235199999996E2,2.36769872E2,2.72550272E2,4.775786E1,3.20015456E2,1.85688176E2,,8.3009304E1,5.5534676E1,2.3816589999999998E1,7.5032056E1,4.1737967999999995E1,2.7723086E1,8.0098648E1,2.2631591999999998E1,2.5976944E1,9.37834E0,1.0573069E1,,1,3,8,11,14,17,22,28,32,19,23,,15,16,12,11,8,1,15,2,6,0,2,,
1572082451,2019-10-26 09:34:11.767,Acquired,Acquired,Acquired,Acquired,Acquired,Acquired,Acquired,Acquired,Acquired,Not acquired,Not acquired,,4.0001771999999995E1,2.384692E2,1.67323312E2,1.6041150399999998E2,7.4304024E1,3.1345235199999996E2,2.36769872E2,2.72550272E2,4.775786E1,3.20015456E2,1.85688176E2,,8.3009304E1,5.5534676E1,2.3816589999999998E1,7.5032056E1,4.1737967999999995E1,2.7723086E1,8.0098648E1,2.2631591999999998E1,2.5976944E1,9.37834E0,1.0573069E1,,1,3,8,11,14,17,22,28,32,19,23,,15,16,12,11,8,1,15,2,6,0,2,,
1572082511,2019-10-26 09:35:11.767,Acquired,Acquired,Acquired,Acquired,Acquired,Acquired,Acquired,Acquired,Acquired,Not acquired,Not acquired,,4.0001771999999995E1,2.384692E2,1.67323312E2,1.6041150399999998E2,7.4304024E1,3.1345235199999996E2,2.36769872E2,2.72550272E2,4.775786E1,3.20015456E2,1.85688176E2,,8.3009304E1,5.5534676E1,2.3816589999999998E1,7.5032056E1,4.1737967999999995E1,2.7723086E1,8.0098648E1,2.2631591999999998E1,2.5976944E1,9.37834E0,1.0573069E1,,1,3,8,11,14,17,22,28,32,19,23,,15,16,12,11,8,1,15,2,6,0,2,,
1572082571,2019-10-26 09:36:11.767,Acquired,Acquired,Acquired,Acquired,Acquired,Acquired,Acquired,Acquired,Acquired,Not acquired,Not acquired,,4.0001771999999995E1,2.384692E2,1.67323312E2,1.6041150399999998E2,7.4304024E1,3.1345235199999996E2,2.36769872E2,2.72550272E2,4.775786E1,3.20015456E2,1.85688176E2,,8.3009304E1,5.5534676E1,2.3816589999999998E1,7.5032056E1,4.1737967999999995E1,2.7723086E1,8.0098648E1,2.2631591999999998E1,2.5976944E1,9.37834E0,1.0573069E1,,1,3,8,11,14,17,22,28,32,19,23,,15,16,12,11,8,1,15,2,6,0,2,,
1572082631,2019-10-26 09:37:11.767,Acquired,Acquired,Acquired,Acquired,Acquired,Acquired,Acquired,Acquired,Acquired,Not acquired,Not acquired,,4.0001771999999995E1,2.384692E2,1.67323312E2,1.6041150399999998E2,7.4304024E1,3.1345235199999996E2,2.36769872E2,2.72550272E2,4.775786E1,3.20015456E2,1.85688176E2,,8.3009304E1,5.5534676E1,2.3816589999999998E1,7.5032056E1,4.1737967999999995E1,2.7723086E1,8.0098648E1,2.2631591999999998E1,2.5976944E1,9.37834E0,1.0573069E1,,1,3,8,11,14,17,22,28,32,19,23,,15,16,12,11,8,1,15,2,6,0,2,,
1572082691,2019-10-26 09:38:11.767,Acquired,Acquired,Acquired,Acquired,Acquired,Acquired,Acquired,Acquired,Acquired,Not acquired,Not acquired,,4.0001771999999995E1,2.384692E2,1.67323312E2,1.6041150399999998E2,7.4304024E1,3.1345235199999996E2,2.36769872E2,2.72550272E2,4.775786E1,3.20015456E2,1.85688176E2,,8.3009304E1,5.5534676E1,2.3816589999999998E1,7.5032056E1,4.1737967999999995E1,2.7723086E1,8.0098648E1,2.2631591999999998E1,2.5976944E1,9.37834E0,1.0573069E1,,1,3,8,11,14,17,22,28,32,19,23,,15,16,12,11,8,1,15,2,6,0,2,,
1572082751,2019-10-26 09:39:11.796,Acquired,Acquired,Acquired,Acquired,Acquired,Acquired,Acquired,Acquired,Acquired,Not acquired,Not acquired,,4.0001771999999995E1,2.384692E2,1.67323312E2,1.6041150399999998E2,7.4304024E1,3.1345235199999996E2,2.36769872E2,2.72550272E2,4.775786E1,3.20015456E2,1.85688176E2,,8.3009304E1,5.5534676E1,2.3816589999999998E1,7.5032056E1,4.1737967999999995E1,2.7723086E1,8.0098648E1,2.2631591999999998E1,2.5976944E1,9.37834E0,1.0573069E1,,1,3,8,11,14,17,22,28,32,19,23,,15,16,12,11,8,1,15,2,6,0,2,,
1572082811,2019-10-26 09:40:11.767,Acquired,Acquired,Acquired,Acquired,Acquired,Acquired,Acquired,Acquired,Acquired,Not acquired,Not acquired,,4.0001771999999995E1,2.384692E2,1.67323312E2,1.6041150399999998E2,7.4304024E1,3.1345235199999996E2,2.36769872E2,2.72550272E2,4.775786E1,3.20015456E2,1.85688176E2,,8.3009304E1,5.5534676E1,2.3816589999999998E1,7.5032056E1,4.1737967999999995E1,2.7723086E1,8.0098648E1,2.2631591999999998E1,2.5976944E1,9.37834E0,1.0573069E1,,1,3,8,11,14,17,22,28,32,19,23,,15,16,12,11,8,1,15,2,6,0,2,,
1572082871,2019-10-26 09:41:11.767,Acquired,Acquired,Acquired,Acquired,Acquired,Acquired,Acquired,Acquired,Acquired,Not acquired,Not acquired,,4.0001771999999995E1,2.384692E2,1.67323312E2,1.6041150399999998E2,7.4304024E1,3.1345235199999996E2,2.36769872E2,2.72550272E2,4.775786E1,3.20015456E2,1.85688176E2,,8.3009304E1,5.5534676E1,2.3816589999999998E1,7.5032056E1,4.1737967999999995E1,2.7723086E1,8.0098648E1,2.2631591999999998E1,2.5976944E1,9.37834E0,1.0573069E1,,1,3,8,11,14,17,22,28,32,19,23,,15,16,12,11,8,1,15,2,6,0,2,,
1572082931,2019-10-26 09:42:11.767,Acquired,Acquired,Acquired,Acquired,Acquired,Acquired,Acquired,Acquired,Acquired,Not acquired,Not acquired,,4.0001771999999995E1,2.384692E2,1.67323312E2,1.6041150399999998E2,7.4304024E1,3.1345235199999996E2,2.36769872E2,2.72550272E2,4.775786E1,3.20015456E2,1.85688176E2,,8.3009304E1,5.5534676E1,2.3816589999999998E1,7.5032056E1,4.1737967999999995E1,2.7723086E1,8.0098648E1,2.2631591999999998E1,2.5976944E1,9.37834E0,1.0573069E1,,1,3,8,11,14,17,22,28,32,19,23,,15,16,12,11,8,1,15,2,6,0,2,,
1572082991,2019-10-26 09:43:11.778,Acquired,Acquired,Acquired,Acquired,Acquired,Acquired,Acquired,Acquired,Acquired,Not acquired,Not acquired,,4.0001771999999995E1,2.384692E2,1.67323312E2,1.6041150399999998E2,7.4304024E1,3.1345235199999996E2,2.36769872E2,2.72550272E2,4.775786E1,3.20015456E2,1.85688176E2,,8.3009304E1,5.5534676E1,2.3816589999999998E1,7.5032056E1,4.1737967999999995E1,2.7723086E1,8.0098648E1,2.2631591999999998E1,2.5976944E1,9.37834E0,1.0573069E1,,1,3,8,11,14,17,22,28,32,19,23,,15,16,12,11,8,1,15,2,6,0,2,,
1572083051,2019-10-26 09:44:11.767,Acquired,Acquired,Acquired,Acquired,Acquired,Acquired,Acquired,Acquired,Acquired,Not acquired,Not acquired,,4.0001771999999995E1,2.384692E2,1.67323312E2,1.6041150399999998E2,7.4304024E1,3.1345235199999996E2,2.36769872E2,2.72550272E2,4.775786E1,3.20015456E2,1.85688176E2,,8.3009304E1,5.5534676E1,2.3816589999999998E1,7.5032056E1,4.1737967999999995E1,2.7723086E1,8.0098648E1,2.2631591999999998E1,2.5976944E1,9.37834E0,1.0573069E1,,1,3,8,11,14,17,22,28,32,19,23,,15,16,12,11,8,1,15,2,6,0,2,,
1572083111,2019-10-26 09:45:11.767,Acquired,Acquired,Acquired,Acquired,Acquired,Acquired,Acquired,Acquired,Acquired,Not acquired,Not acquired,,4.0001771999999995E1,2.384692E2,1.67323312E2,1.6041150399999998E2,7.4304024E1,3.1345235199999996E2,2.36769872E2,2.72550272E2,4.775786E1,3.20015456E2,1.85688176E2,,8.3009304E1,5.5534676E1,2.3816589999999998E1,7.5032056E1,4.1737967999999995E1,2.7723086E1,8.0098648E1,2.2631591999999998E1,2.5976944E1,9.37834E0,1.0573069E1,,1,3,8,11,14,17,22,28,32,19,23,,15,16,12,11,8,1,15,2,6,0,2,,
1572083171,2019-10-26 09:46:11.767,Acquired,Acquired,Acquired,Acquired,Acquired,Acquired,Acquired,Acquired,Acquired,Not acquired,Not acquired,,4.0001771999999995E1,2.384692E2,1.67323312E2,1.6041150399999998E2,7.4304024E1,3.1345235199999996E2,2.36769872E2,2.72550272E2,4.775786E1,3.20015456E2,1.85688176E2,,8.3009304E1,5.5534676E1,2.3816589999999998E1,7.5032056E1,4.1737967999999995E1,2.7723086E1,8.0098648E1,2.2631591999999998E1,2.5976944E1,9.37834E0,1.0573069E1,,1,3,8,11,14,17,22,28,32,19,23,,15,16,12,11,8,1,15,2,6,0,2,,
1572083231,2019-10-26 09:47:11.767,Acquired,Acquired,Acquired,Acquired,Acquired,Acquired,Acquired,Acquired,Acquired,Not acquired,Not acquired,,4.0001771999999995E1,2.384692E2,1.67323312E2,1.6041150399999998E2,7.4304024E1,3.1345235199999996E2,2.36769872E2,2.72550272E2,4.775786E1,3.20015456E2,1.85688176E2,,8.3009304E1,5.5534676E1,2.3816589999999998E1,7.5032056E1,4.1737967999999995E1,2.7723086E1,8.0098648E1,2.2631591999999998E1,2.5976944E1,9.37834E0,1.0573069E1,,1,3,8,11,14,17,22,28,32,19,23,,15,16,12,11,8,1,15,2,6,0,2,,
1572083291,2019-10-26 09:48:11.770,Acquired,Acquired,Acquired,Acquired,Acquired,Acquired,Acquired,Acquired,Acquired,Not acquired,Not acquired,,4.0001771999999995E1,2.384692E2,1.67323312E2,1.6041150399999998E2,7.4304024E1,3.1345235199999996E2,2.36769872E2,2.72550272E2,4.775786E1,3.20015456E2,1.85688176E2,,8.3009304E1,5.5534676E1,2.3816589999999998E1,7.5032056E1,4.1737967999999995E1,2.7723086E1,8.0098648E1,2.2631591999999998E1,2.5976944E1,9.37834E0,1.0573069E1,,1,3,8,11,14,17,22,28,32,19,23,,15,16,12,11,8,1,15,2,6,0,2,,
1572083351,2019-10-26 09:49:11.798,Acquired,Acquired,Acquired,Acquired,Acquired,Acquired,Acquired,Acquired,Acquired,Not acquired,Not acquired,,4.0001771999999995E1,2.384692E2,1.67323312E2,1.6041150399999998E2,7.4304024E1,3.1345235199999996E2,2.36769872E2,2.72550272E2,4.775786E1,3.20015456E2,1.85688176E2,,8.3009304E1,5.5534676E1,2.3816589999999998E1,7.5032056E1,4.1737967999999995E1,2.7723086E1,8.0098648E1,2.2631591999999998E1,2.5976944E1,9.37834E0,1.0573069E1,,1,3,8,11,14,17,22,28,32,19,23,,15,16,12,11,8,1,15,2,6,0,2,,
1572083411,2019-10-26 09:50:11.767,Acquired,Acquired,Acquired,Acquired,Acquired,Acquired,Acquired,Acquired,Acquired,Not acquired,Not acquired,,4.0001771999999995E1,2.384692E2,1.67323312E2,1.6041150399999998E2,7.4304024E1,3.1345235199999996E2,2.36769872E2,2.72550272E2,4.775786E1,3.20015456E2,1.85688176E2,,8.3009304E1,5.5534676E1,2.3816589999999998E1,7.5032056E1,4.1737967999999995E1,2.7723086E1,8.0098648E1,2.2631591999999998E1,2.5976944E1,9.37834E0,1.0573069E1,,1,3,8,11,14,17,22,28,32,19,23,,15,16,12,11,8,1,15,2,6,0,2,,
1572083471,2019-10-26 09:51:11.801,Acquired,Acquired,Acquired,Acquired,Acquired,Acquired,Acquired,Acquired,Acquired,Not acquired,Not acquired,,4.0001771999999995E1,2.384692E2,1.67323312E2,1.6041150399999998E2,7.4304024E1,3.1345235199999996E2,2.36769872E2,2.72550272E2,4.775786E1,3.20015456E2,1.85688176E2,,8.3009304E1,5.5534676E1,2.3816589999999998E1,7.5032056E1,4.1737967999999995E1,2.7723086E1,8.0098648E1,2.2631591999999998E1,2.5976944E1,9.37834E0,1.0573069E1,,1,3,8,11,14,17,22,28,32,19,23,,15,16,12,11,8,1,15,2,6,0,2,,
1572083531,2019-10-26 09:52:11.767,Acquired,Acquired,Acquired,Acquired,Acquired,Acquired,Acquired,Acquired,Acquired,Not acquired,Not acquired,,4.0001771999999995E1,2.384692E2,1.67323312E2,1.6041150399999998E2,7.4304024E1,3.1345235199999996E2,2.36769872E2,2.72550272E2,4.775786E1,3.20015456E2,1.85688176E2,,8.3009304E1,5.5534676E1,2.3816589999999998E1,7.5032056E1,4.1737967999999995E1,2.7723086E1,8.0098648E1,2.2631591999999998E1,2.5976944E1,9.37834E0,1.0573069E1,,1,3,8,11,14,17,22,28,32,19,23,,15,16,12,11,8,1,15,2,6,0,2,,
1572083591,2019-10-26 09:53:11.768,Acquired,Acquired,Acquired,Acquired,Acquired,Acquired,Acquired,Acquired,Acquired,Not acquired,Not acquired,,4.0001771999999995E1,2.384692E2,1.67323312E2,1.6041150399999998E2,7.4304024E1,3.1345235199999996E2,2.36769872E2,2.72550272E2,4.775786E1,3.20015456E2,1.85688176E2,,8.3009304E1,5.5534676E1,2.3816589999999998E1,7.5032056E1,4.1737967999999995E1,2.7723086E1,8.0098648E1,2.2631591999999998E1,2.5976944E1,9.37834E0,1.0573069E1,,1,3,8,11,14,17,22,28,32,19,23,,15,16,12,11,8,1,15,2,6,0,2,,
1572083651,2019-10-26 09:54:11.767,Acquired,Acquired,Acquired,Acquired,Acquired,Acquired,Acquired,Acquired,Acquired,Not acquired,Not acquired,,4.0001771999999995E1,2.384692E2,1.67323312E2,1.6041150399999998E2,7.4304024E1,3.1345235199999996E2,2.36769872E2,2.72550272E2,4.775786E1,3.20015456E2,1.85688176E2,,8.3009304E1,5.5534676E1,2.3816589999999998E1,7.5032056E1,4.1737967999999995E1,2.7723086E1,8.0098648E1,2.2631591999999998E1,2.5976944E1,9.37834E0,1.0573069E1,,1,3,8,11,14,17,22,28,32,19,23,,15,16,12,11,8,1,15,2,6,0,2,,
1572083711,2019-10-26 09:55:11.767,Acquired,Acquired,Acquired,Acquired,Acquired,Acquired,Acquired,Acquired,Acquired,Not acquired,Not acquired,,4.0001771999999995E1,2.384692E2,1.67323312E2,1.6041150399999998E2,7.4304024E1,3.1345235199999996E2,2.36769872E2,2.72550272E2,4.775786E1,3.20015456E2,1.85688176E2,,8.3009304E1,5.5534676E1,2.3816589999999998E1,7.5032056E1,4.1737967999999995E1,2.7723086E1,8.0098648E1,2.2631591999999998E1,2.5976944E1,9.37834E0,1.0573069E1,,1,3,8,11,14,17,22,28,32,19,23,,15,16,12,11,8,1,15,2,6,0,2,,
1572083771,2019-10-26 09:56:11.793,Acquired,Acquired,Acquired,Acquired,Acquired,Acquired,Acquired,Acquired,Acquired,Not acquired,Not acquired,,4.0001771999999995E1,2.384692E2,1.67323312E2,1.6041150399999998E2,7.4304024E1,3.1345235199999996E2,2.36769872E2,2.72550272E2,4.775786E1,3.20015456E2,1.85688176E2,,8.3009304E1,5.5534676E1,2.3816589999999998E1,7.5032056E1,4.1737967999999995E1,2.7723086E1,8.0098648E1,2.2631591999999998E1,2.5976944E1,9.37834E0,1.0573069E1,,1,3,8,11,14,17,22,28,32,19,23,,15,16,12,11,8,1,15,2,6,0,2,,
1572083831,2019-10-26 09:57:11.767,Acquired,Acquired,Acquired,Acquired,Acquired,Acquired,Acquired,Acquired,Acquired,Not acquired,Not acquired,,4.0001771999999995E1,2.384692E2,1.67323312E2,1.6041150399999998E2,7.4304024E1,3.1345235199999996E2,2.36769872E2,2.72550272E2,4.775786E1,3.20015456E2,1.85688176E2,,8.3009304E1,5.5534676E1,2.3816589999999998E1,7.5032056E1,4.1737967999999995E1,2.7723086E1,8.0098648E1,2.2631591999999998E1,2.5976944E1,9.37834E0,1.0573069E1,,1,3,8,11,14,17,22,28,32,19,23,,15,16,12,11,8,1,15,2,6,0,2,,
1572083891,2019-10-26 09:58:11.768,Acquired,Acquired,Acquired,Acquired,Acquired,Acquired,Acquired,Acquired,Acquired,Not acquired,Not acquired,,4.0001771999999995E1,2.384692E2,1.67323312E2,1.6041150399999998E2,7.4304024E1,3.1345235199999996E2,2.36769872E2,2.72550272E2,4.775786E1,3.20015456E2,1.85688176E2,,8.3009304E1,5.5534676E1,2.3816589999999998E1,7.5032056E1,4.1737967999999995E1,2.7723086E1,8.0098648E1,2.2631591999999998E1,2.5976944E1,9.37834E0,1.0573069E1,,1,3,8,11,14,17,22,28,32,19,23,,15,16,12,11,8,1,15,2,6,0,2,,
1572083951,2019-10-26 09:59:11.767,Acquired,Acquired,Acquired,Acquired,Acquired,Acquired,Acquired,Acquired,Acquired,Not acquired,Not acquired,,4.0001771999999995E1,2.384692E2,1.67323312E2,1.6041150399999998E2,7.4304024E1,3.1345235199999996E2,2.36769872E2,2.72550272E2,4.775786E1,3.20015456E2,1.85688176E2,,8.3009304E1,5.5534676E1,2.3816589999999998E1,7.5032056E1,4.1737967999999995E1,2.7723086E1,8.0098648E1,2.2631591999999998E1,2.5976944E1,9.37834E0,1.0573069E1,,1,3,8,11,14,17,22,28,32,19,23,,15,16,12,11,8,1,15,2,6,0,2,,
