Time(longsecs),Time(UTC),Earth Location,GPS Receiver Status,GPS Satellites Used,GPS PDOP,GPS TDOP,Timing Status,Timing Phase Lock,Timing Uncertainty(ns),DAC Count,Timing Error(ns),GPS Last Update Time,
1572116411,2019-10-26 19:00:11.767,47.65111N 0.578076E 187m,Off,6,2.2921615,1.2633755,Time OK,Free running,28200,8710,0,2019-10-26 18:41:36.000000000,
1572116471,2019-10-26 19:01:11.767,47.65111N 0.578076E 187m,Off,6,2.2921615,1.2633755,Time OK,Free running,30400,8710,0,2019-10-26 18:41:36.000000000,
1572116531,2019-10-26 19:02:11.767,47.65111N 0.578076E 187m,Off,6,2.2921615,1.2633755,Time OK,Free running,32400,8710,0,2019-10-26 18:41:36.000000000,
1572116591,2019-10-26 19:03:11.768,47.65111N 0.578076E 187m,Off,6,2.2921615,1.2633755,Time OK,Free running,34300,8710,0,2019-10-26 18:41:36.000000000,
1572116651,2019-10-26 19:04:11.780,47.65111N 0.578076E 187m,Off,6,2.2921615,1.2633755,Time OK,Free running,36600,8710,0,2019-10-26 18:41:36.000000000,
1572116711,2019-10-26 19:05:11.769,47.65111N 0.578076E 187m,Off,6,2.2921615,1.2633755,Time OK,Free running,39000,8710,0,2019-10-26 18:41:36.000000000,
1572116771,2019-10-26 19:06:11.768,47.65111N 0.578076E 187m,Off,6,2.2921615,1.2633755,Time OK,Free running,41300,8710,0,2019-10-26 18:41:36.000000000,
1572116831,2019-10-26 19:07:11.769,47.65111N 0.578076E 187m,Off,6,2.2921615,1.2633755,Time OK,Free running,43800,8710,0,2019-10-26 18:41:36.000000000,
1572116891,2019-10-26 19:08:11.767,47.65111N 0.578076E 187m,Off,6,2.2921615,1.2633755,Time OK,Free running,46300,8710,0,2019-10-26 18:41:36.000000000,
1572116951,2019-10-26 19:09:11.767,47.65111N 0.578076E 187m,Off,6,2.2921615,1.2633755,Time OK,Free running,48600,8710,0,2019-10-26 18:41:36.000000000,
1572117011,2019-10-26 19:10:11.767,47.65111N 0.578076E 187m,Off,6,2.2921615,1.2633755,Time OK,Free running,50800,8710,0,2019-10-26 18:41:36.000000000,
1572117071,2019-10-26 19:11:11.768,47.65111N 0.578076E 187m,Doing fixes,4,1.8731722,0.75734425,Time OK,Coarse lock,100,9228,-10729,2019-10-26 19:11:11.000000000,
1572117131,2019-10-26 19:12:11.768,47.65111N 0.578076E 187m,Doing fixes,6,2.8961983,1.5176103,Time OK,Coarse lock,100,8673,104,2019-10-26 19:12:11.000000000,
1572117191,2019-10-26 19:13:11.770,47.65111N 0.578076E 187m,Doing fixes,5,3.0916798,1.823716,Time OK,Fine lock,100,8686,0,2019-10-26 19:13:11.000000000,
1572117251,2019-10-26 19:14:11.767,47.65111N 0.578076E 187m,Doing fixes,5,3.116427,1.8546312,Time OK,Fine lock,100,8696,-104,2019-10-26 19:14:11.000000000,
1572117311,2019-10-26 19:15:11.767,47.65111N 0.578076E 187m,Doing fixes,5,3.144858,1.8877764,Time OK,Fine lock,100,8683,0,2019-10-26 19:15:11.000000000,
1572117371,2019-10-26 19:16:11.767,47.65111N 0.578076E 187m,Off,5,3.148304,1.8916636,Time OK,Free running,800,8683,0,2019-10-26 19:15:16.000000000,
1572117431,2019-10-26 19:17:11.767,47.65111N 0.578076E 187m,Off,5,3.148304,1.8916636,Time OK,Free running,1600,8683,0,2019-10-26 19:15:16.000000000,
1572117491,2019-10-26 19:18:11.767,47.65111N 0.578076E 187m,Off,5,3.148304,1.8916636,Time OK,Free running,2500,8683,0,2019-10-26 19:15:16.000000000,
1572117551,2019-10-26 19:19:11.767,47.65111N 0.578076E 187m,Off,5,3.148304,1.8916636,Time OK,Free running,3500,8683,0,2019-10-26 19:15:16.000000000,
1572117611,2019-10-26 19:20:11.767,47.65111N 0.578076E 187m,Off,5,3.148304,1.8916636,Time OK,Free running,4300,8683,0,2019-10-26 19:15:16.000000000,
1572117671,2019-10-26 19:21:11.767,47.65111N 0.578076E 187m,Off,5,3.148304,1.8916636,Time OK,Free running,5300,8683,0,2019-10-26 19:15:16.000000000,
1572117731,2019-10-26 19:22:11.767,47.65111N 0.578076E 187m,Off,5,3.148304,1.8916636,Time OK,Free running,6200,8683,0,2019-10-26 19:15:16.000000000,
1572117791,2019-10-26 19:23:11.767,47.65111N 0.578076E 187m,Off,5,3.148304,1.8916636,Time OK,Free running,7000,8683,0,2019-10-26 19:15:16.000000000,
1572117851,2019-10-26 19:24:11.767,47.65111N 0.578076E 187m,Off,5,3.148304,1.8916636,Time OK,Free running,7800,8683,0,2019-10-26 19:15:16.000000000,
1572117911,2019-10-26 19:25:11.767,47.65111N 0.578076E 187m,Off,5,3.148304,1.8916636,Time OK,Free running,8900,8683,0,2019-10-26 19:15:16.000000000,
1572117971,2019-10-26 19:26:11.769,47.65111N 0.578076E 187m,Off,5,3.148304,1.8916636,Time OK,Free running,9800,8683,0,2019-10-26 19:15:16.000000000,
1572118031,2019-10-26 19:27:11.767,47.65111N 0.578076E 187m,Off,5,3.148304,1.8916636,Time OK,Free running,10900,8683,0,2019-10-26 19:15:16.000000000,
1572118091,2019-10-26 19:28:11.767,47.65111N 0.578076E 187m,Off,5,3.148304,1.8916636,Time OK,Free running,12300,8683,0,2019-10-26 19:15:16.000000000,
1572118151,2019-10-26 19:29:11.767,47.65111N 0.578076E 187m,Off,5,3.148304,1.8916636,Time OK,Free running,13500,8683,0,2019-10-26 19:15:16.000000000,
1572118211,2019-10-26 19:30:11.778,47.65111N 0.578076E 187m,Off,5,3.148304,1.8916636,Time OK,Free running,14800,8683,0,2019-10-26 19:15:16.000000000,
1572118271,2019-10-26 19:31:11.767,47.65111N 0.578076E 187m,Off,5,3.148304,1.8916636,Time OK,Free running,16200,8683,0,2019-10-26 19:15:16.000000000,
1572118331,2019-10-26 19:32:11.767,47.65111N 0.578076E 187m,Off,5,3.148304,1.8916636,Time OK,Free running,17400,8683,0,2019-10-26 19:15:16.000000000,
1572118391,2019-10-26 19:33:11.767,47.65111N 0.578076E 187m,Off,5,3.148304,1.8916636,Time OK,Free running,18500,8683,0,2019-10-26 19:15:16.000000000,
1572118451,2019-10-26 19:34:11.767,47.65111N 0.578076E 187m,Off,5,3.148304,1.8916636,Time OK,Free running,19700,8683,0,2019-10-26 19:15:16.000000000,
1572118511,2019-10-26 19:35:11.767,47.65111N 0.578076E 187m,Off,5,3.148304,1.8916636,Time OK,Free running,21000,8683,0,2019-10-26 19:15:16.000000000,
1572118571,2019-10-26 19:36:11.767,47.65111N 0.578076E 187m,Off,5,3.148304,1.8916636,Time OK,Free running,22600,8683,0,2019-10-26 19:15:16.000000000,
1572118631,2019-10-26 19:37:11.767,47.65111N 0.578076E 187m,Off,5,3.148304,1.8916636,Time OK,Free running,24300,8683,0,2019-10-26 19:15:16.000000000,
1572118691,2019-10-26 19:38:11.767,47.65111N 0.578076E 187m,Off,5,3.148304,1.8916636,Time OK,Free running,25800,8683,0,2019-10-26 19:15:16.000000000,
1572118751,2019-10-26 19:39:11.767,47.65111N 0.578076E 187m,Off,5,3.148304,1.8916636,Time OK,Free running,27300,8683,0,2019-10-26 19:15:16.000000000,
1572118811,2019-10-26 19:40:11.767,47.65111N 0.578076E 187m,Off,5,3.148304,1.8916636,Time OK,Free running,29100,8683,0,2019-10-26 19:15:16.000000000,
1572118871,2019-10-26 19:41:11.769,47.65111N 0.578076E 187m,Off,5,3.148304,1.8916636,Time OK,Free running,30700,8683,0,2019-10-26 19:15:16.000000000,
1572118931,2019-10-26 19:42:11.767,47.65111N 0.578076E 187m,Off,5,3.148304,1.8916636,Time OK,Free running,32100,8683,0,2019-10-26 19:15:16.000000000,
1572118991,2019-10-26 19:43:11.767,47.65111N 0.578076E 187m,Off,5,3.148304,1.8916636,Time OK,Free running,33500,8683,0,2019-10-26 19:15:16.000000000,
1572119051,2019-10-26 19:44:11.767,47.65111N 0.578076E 187m,Off,5,3.148304,1.8916636,Time OK,Free running,35000,8683,0,2019-10-26 19:15:16.000000000,
1572119111,2019-10-26 19:45:11.767,47.65111N 0.578076E 187m,Off,5,3.148304,1.8916636,Time OK,Free running,36800,8683,0,2019-10-26 19:15:16.000000000,
1572119171,2019-10-26 19:46:11.767,47.65111N 0.578076E 187m,Off,5,3.148304,1.8916636,Time OK,Free running,38900,8683,0,2019-10-26 19:15:16.000000000,
1572119231,2019-10-26 19:47:11.767,47.65111N 0.578076E 187m,Off,5,3.148304,1.8916636,Time OK,Free running,40900,8683,0,2019-10-26 19:15:16.000000000,
1572119291,2019-10-26 19:48:11.767,47.65111N 0.578076E 187m,Off,5,3.148304,1.8916636,Time OK,Free running,42900,8683,0,2019-10-26 19:15:16.000000000,
1572119351,2019-10-26 19:49:11.767,47.65111N 0.578076E 187m,Off,5,3.148304,1.8916636,Time OK,Free running,45000,8683,0,2019-10-26 19:15:16.000000000,
1572119411,2019-10-26 19:50:11.767,47.65111N 0.578076E 187m,Off,5,3.148304,1.8916636,Time OK,Free running,46900,8683,0,2019-10-26 19:15:16.000000000,
1572119471,2019-10-26 19:51:11.767,47.65111N 0.578076E 187m,Off,5,3.148304,1.8916636,Time OK,Free running,49100,8683,0,2019-10-26 19:15:16.000000000,
1572119531,2019-10-26 19:52:11.767,47.65111N 0.578076E 187m,Off,5,3.148304,1.8916636,Time OK,Free running,51200,8683,0,2019-10-26 19:15:16.000000000,
1572119591,2019-10-26 19:53:11.767,47.65111N 0.578076E 187m,Doing fixes,8,2.2406,1.2357446,Time OK,Coarse lock,100,7801,8541,2019-10-26 19:53:11.000000000,
1572119651,2019-10-26 19:54:11.770,47.65111N 0.578076E 187m,Doing fixes,6,2.8930383,1.7949008,Time OK,Fine lock,100,8662,-104,2019-10-26 19:54:11.000000000,
1572119711,2019-10-26 19:55:11.767,47.65111N 0.578076E 187m,Off,6,2.446096,1.3888403,Time OK,Free running,500,8657,0,2019-10-26 19:54:36.000000000,
1572119771,2019-10-26 19:56:11.767,47.65111N 0.578076E 187m,Off,6,2.446096,1.3888403,Time OK,Free running,1300,8657,0,2019-10-26 19:54:36.000000000,
1572119831,2019-10-26 19:57:11.767,47.65111N 0.578076E 187m,Off,6,2.446096,1.3888403,Time OK,Free running,2300,8657,0,2019-10-26 19:54:36.000000000,
1572119891,2019-10-26 19:58:11.767,47.65111N 0.578076E 187m,Off,6,2.446096,1.3888403,Time OK,Free running,3300,8657,0,2019-10-26 19:54:36.000000000,
1572119951,2019-10-26 19:59:11.767,47.65111N 0.578076E 187m,Off,6,2.446096,1.3888403,Time OK,Free running,4100,8657,0,2019-10-26 19:54:36.000000000,
