Time(longsecs),Time(UTC),Earth Location,GPS Receiver Status,GPS Satellites Used,GPS PDOP,GPS TDOP,Timing Status,Timing Phase Lock,Timing Uncertainty(ns),DAC Count,Timing Error(ns),GPS Last Update Time,
1572112811,2019-10-26 18:00:11.767,47.651138N 0.578007E 188m,Off,6,2.7610774,1.7456764,Time OK,Free running,30600,8784,0,2019-10-26 17:38:56.000000000,
1572112871,2019-10-26 18:01:11.767,47.651138N 0.578007E 188m,Off,6,2.7610774,1.7456764,Time OK,Free running,33100,8784,0,2019-10-26 17:38:56.000000000,
1572112931,2019-10-26 18:02:11.767,47.651138N 0.578007E 188m,Off,6,2.7610774,1.7456764,Time OK,Free running,35400,8784,0,2019-10-26 17:38:56.000000000,
1572112991,2019-10-26 18:03:11.768,47.651138N 0.578007E 188m,Off,6,2.7610774,1.7456764,Time OK,Free running,37800,8784,0,2019-10-26 17:38:56.000000000,
1572113051,2019-10-26 18:04:11.767,47.651138N 0.578007E 188m,Off,6,2.7610774,1.7456764,Time OK,Free running,40300,8784,0,2019-10-26 17:38:56.000000000,
1572113111,2019-10-26 18:05:11.767,47.651138N 0.578007E 188m,Off,6,2.7610774,1.7456764,Time OK,Free running,42900,8784,0,2019-10-26 17:38:56.000000000,
1572113171,2019-10-26 18:06:11.778,47.651138N 0.578007E 188m,Off,6,2.7610774,1.7456764,Time OK,Free running,45500,8784,0,2019-10-26 17:38:56.000000000,
1572113231,2019-10-26 18:07:11.780,47.651138N 0.578007E 188m,Off,6,2.7610774,1.7456764,Time OK,Free running,48000,8784,0,2019-10-26 17:38:56.000000000,
1572113291,2019-10-26 18:08:11.767,47.651138N 0.578007E 188m,Off,6,2.7610774,1.7456764,Time OK,Free running,50700,8784,0,2019-10-26 17:38:56.000000000,
1572113351,2019-10-26 18:09:11.767,47.651138N 0.578007E 188m,Doing fixes,5,3.4935782,2.4291708,Time OK,Free running,53600,8784,0,2019-10-26 18:09:11.000000000,
1572113411,2019-10-26 18:10:11.767,47.651138N 0.578007E 188m,Doing fixes,5,3.467324,2.4024389,Time OK,Fine lock,100,8743,-208,2019-10-26 18:10:11.000000000,
1572113471,2019-10-26 18:11:11.767,47.651138N 0.578007E 188m,Doing fixes,5,3.4437282,2.377879,Time OK,Fine lock,100,8744,0,2019-10-26 18:11:11.000000000,
1572113531,2019-10-26 18:12:11.767,47.651138N 0.578007E 188m,Off,5,3.441258,2.3752754,Time OK,Free running,800,8744,0,2019-10-26 18:11:16.000000000,
1572113591,2019-10-26 18:13:11.767,47.651138N 0.578007E 188m,Off,5,3.441258,2.3752754,Time OK,Free running,1700,8744,0,2019-10-26 18:11:16.000000000,
1572113651,2019-10-26 18:14:11.767,47.651138N 0.578007E 188m,Off,5,3.441258,2.3752754,Time OK,Free running,2800,8744,0,2019-10-26 18:11:16.000000000,
1572113711,2019-10-26 18:15:11.767,47.651138N 0.578007E 188m,Off,5,3.441258,2.3752754,Time OK,Free running,4000,8744,0,2019-10-26 18:11:16.000000000,
1572113771,2019-10-26 18:16:11.767,47.651138N 0.578007E 188m,Off,5,3.441258,2.3752754,Time OK,Free running,4900,8744,0,2019-10-26 18:11:16.000000000,
1572113831,2019-10-26 18:17:11.766,47.651138N 0.578007E 188m,Off,5,3.441258,2.3752754,Time OK,Free running,5800,8744,0,2019-10-26 18:11:16.000000000,
1572113891,2019-10-26 18:18:11.767,47.651138N 0.578007E 188m,Off,5,3.441258,2.3752754,Time OK,Free running,7300,8744,0,2019-10-26 18:11:16.000000000,
1572113951,2019-10-26 18:19:11.770,47.651138N 0.578007E 188m,Off,5,3.441258,2.3752754,Time OK,Free running,8800,8744,0,2019-10-26 18:11:16.000000000,
1572114011,2019-10-26 18:20:11.767,47.651138N 0.578007E 188m,Off,5,3.441258,2.3752754,Time OK,Free running,10100,8744,0,2019-10-26 18:11:16.000000000,
1572114071,2019-10-26 18:21:11.768,47.651138N 0.578007E 188m,Off,5,3.441258,2.3752754,Time OK,Free running,11600,8744,0,2019-10-26 18:11:16.000000000,
1572114131,2019-10-26 18:22:11.767,47.651138N 0.578007E 188m,Off,5,3.441258,2.3752754,Time OK,Free running,13000,8744,0,2019-10-26 18:11:16.000000000,
1572114191,2019-10-26 18:23:11.767,47.651138N 0.578007E 188m,Off,5,3.441258,2.3752754,Time OK,Free running,14500,8744,0,2019-10-26 18:11:16.000000000,
1572114251,2019-10-26 18:24:11.767,47.651138N 0.578007E 188m,Off,5,3.441258,2.3752754,Time OK,Free running,16400,8744,0,2019-10-26 18:11:16.000000000,
1572114311,2019-10-26 18:25:11.767,47.651138N 0.578007E 188m,Off,5,3.441258,2.3752754,Time OK,Free running,18300,8744,0,2019-10-26 18:11:16.000000000,
1572114371,2019-10-26 18:26:11.767,47.651138N 0.578007E 188m,Off,5,3.441258,2.3752754,Time OK,Free running,19900,8744,0,2019-10-26 18:11:16.000000000,
1572114431,2019-10-26 18:27:11.773,47.651138N 0.578007E 188m,Off,5,3.441258,2.3752754,Time OK,Free running,21700,8744,0,2019-10-26 18:11:16.000000000,
1572114491,2019-10-26 18:28:11.767,47.651138N 0.578007E 188m,Off,5,3.441258,2.3752754,Time OK,Free running,23600,8744,0,2019-10-26 18:11:16.000000000,
1572114551,2019-10-26 18:29:11.767,47.651138N 0.578007E 188m,Off,5,3.441258,2.3752754,Time OK,Free running,25600,8744,0,2019-10-26 18:11:16.000000000,
1572114611,2019-10-26 18:30:11.767,47.651138N 0.578007E 188m,Off,5,3.441258,2.3752754,Time OK,Free running,27900,8744,0,2019-10-26 18:11:16.000000000,
1572114671,2019-10-26 18:31:11.767,47.651138N 0.578007E 188m,Off,5,3.441258,2.3752754,Time OK,Free running,30100,8744,0,2019-10-26 18:11:16.000000000,
1572114731,2019-10-26 18:32:11.768,47.651138N 0.578007E 188m,Off,5,3.441258,2.3752754,Time OK,Free running,32300,8744,0,2019-10-26 18:11:16.000000000,
1572114791,2019-10-26 18:33:11.768,47.651138N 0.578007E 188m,Off,5,3.441258,2.3752754,Time OK,Free running,34500,8744,0,2019-10-26 18:11:16.000000000,
1572114851,2019-10-26 18:34:11.767,47.651138N 0.578007E 188m,Off,5,3.441258,2.3752754,Time OK,Free running,36800,8744,0,2019-10-26 18:11:16.000000000,
1572114911,2019-10-26 18:35:11.767,47.651138N 0.578007E 188m,Off,5,3.441258,2.3752754,Time OK,Free running,39300,8744,0,2019-10-26 18:11:16.000000000,
1572114971,2019-10-26 18:36:11.770,47.651138N 0.578007E 188m,Off,5,3.441258,2.3752754,Time OK,Free running,41900,8744,0,2019-10-26 18:11:16.000000000,
1572115031,2019-10-26 18:37:11.767,47.651138N 0.578007E 188m,Off,5,3.441258,2.3752754,Time OK,Free running,44600,8744,0,2019-10-26 18:11:16.000000000,
1572115091,2019-10-26 18:38:11.770,47.651138N 0.578007E 188m,Off,5,3.441258,2.3752754,Time OK,Free running,47500,8744,0,2019-10-26 18:11:16.000000000,
1572115151,2019-10-26 18:39:11.767,47.651138N 0.578007E 188m,Off,5,3.441258,2.3752754,Time OK,Free running,50500,8744,0,2019-10-26 18:11:16.000000000,
1572115211,2019-10-26 18:40:11.767,47.651138N 0.578007E 188m,Doing fixes,6,2.3004642,1.2710501,Time OK,Coarse lock,100,8545,937,2019-10-26 18:40:11.000000000,
1572115271,2019-10-26 18:41:11.767,47.651138N 0.578007E 188m,Doing fixes,7,2.160928,1.1845715,Time OK,Fine lock,100,8717,0,2019-10-26 18:41:11.000000000,
1572115331,2019-10-26 18:42:11.767,47.651138N 0.578007E 188m,Off,6,2.2921615,1.2633755,Time OK,Free running,500,8710,0,2019-10-26 18:41:36.000000000,
1572115391,2019-10-26 18:43:11.767,47.651138N 0.578007E 188m,Off,6,2.2921615,1.2633755,Time OK,Free running,1600,8710,0,2019-10-26 18:41:36.000000000,
1572115451,2019-10-26 18:44:11.767,47.651138N 0.578007E 188m,Off,6,2.2921615,1.2633755,Time OK,Free running,3100,8710,0,2019-10-26 18:41:36.000000000,
1572115511,2019-10-26 18:45:11.767,47.651138N 0.578007E 188m,Off,6,2.2921615,1.2633755,Time OK,Free running,4300,8710,0,2019-10-26 18:41:36.000000000,
1572115571,2019-10-26 18:46:11.767,47.651138N 0.578007E 188m,Off,6,2.2921615,1.2633755,Time OK,Free running,5500,8710,0,2019-10-26 18:41:36.000000000,
1572115631,2019-10-26 18:47:11.781,47.651138N 0.578007E 188m,Off,6,2.2921615,1.2633755,Time OK,Free running,6800,8710,0,2019-10-26 18:41:36.000000000,
1572115691,2019-10-26 18:48:11.769,47.651138N 0.578007E 188m,Off,6,2.2921615,1.2633755,Time OK,Free running,7800,8710,0,2019-10-26 18:41:36.000000000,
1572115751,2019-10-26 18:49:11.767,47.651138N 0.578007E 188m,Off,6,2.2921615,1.2633755,Time OK,Free running,8900,8710,0,2019-10-26 18:41:36.000000000,
1572115811,2019-10-26 18:50:11.767,47.651138N 0.578007E 188m,Off,6,2.2921615,1.2633755,Time OK,Free running,10200,8710,0,2019-10-26 18:41:36.000000000,
1572115871,2019-10-26 18:51:11.767,47.651138N 0.578007E 188m,Off,6,2.2921615,1.2633755,Time OK,Free running,11600,8710,0,2019-10-26 18:41:36.000000000,
1572115931,2019-10-26 18:52:11.767,47.651138N 0.578007E 188m,Off,6,2.2921615,1.2633755,Time OK,Free running,13200,8710,0,2019-10-26 18:41:36.000000000,
1572115991,2019-10-26 18:53:11.767,47.651138N 0.578007E 188m,Off,6,2.2921615,1.2633755,Time OK,Free running,14800,8710,0,2019-10-26 18:41:36.000000000,
1572116051,2019-10-26 18:54:11.769,47.651138N 0.578007E 188m,Off,6,2.2921615,1.2633755,Time OK,Free running,16400,8710,0,2019-10-26 18:41:36.000000000,
1572116111,2019-10-26 18:55:11.767,47.651138N 0.578007E 188m,Off,6,2.2921615,1.2633755,Time OK,Free running,18400,8710,0,2019-10-26 18:41:36.000000000,
1572116171,2019-10-26 18:56:11.767,47.651138N 0.578007E 188m,Off,6,2.2921615,1.2633755,Time OK,Free running,20300,8710,0,2019-10-26 18:41:36.000000000,
1572116231,2019-10-26 18:57:11.767,47.651138N 0.578007E 188m,Off,6,2.2921615,1.2633755,Time OK,Free running,21900,8710,0,2019-10-26 18:41:36.000000000,
1572116291,2019-10-26 18:58:11.779,47.651138N 0.578007E 188m,Off,6,2.2921615,1.2633755,Time OK,Free running,23600,8710,0,2019-10-26 18:41:36.000000000,
1572116351,2019-10-26 18:59:11.767,47.651138N 0.578007E 188m,Off,6,2.2921615,1.2633755,Time OK,Free running,25800,8710,0,2019-10-26 18:41:36.000000000,
