Time(longsecs),Time(UTC),Earth Location,GPS Receiver Status,GPS Satellites Used,GPS PDOP,GPS TDOP,Timing Status,Timing Phase Lock,Timing Uncertainty(ns),DAC Count,Timing Error(ns),GPS Last Update Time,
1570723213,2019-10-10 16:00:13.464,47.636254N 0.583937E 189m,Off,6,2.9734142,1.8457792,Time OK,Free running,22500,9570,0,2019-10-10 15:42:10.000000000,
1570723273,2019-10-10 16:01:13.464,47.636254N 0.583937E 189m,Off,6,2.9734142,1.8457792,Time OK,Free running,24500,9570,0,2019-10-10 15:42:10.000000000,
1570723333,2019-10-10 16:02:13.464,47.636254N 0.583937E 189m,Off,6,2.9734142,1.8457792,Time OK,Free running,26500,9570,0,2019-10-10 15:42:10.000000000,
1570723393,2019-10-10 16:03:13.464,47.636254N 0.583937E 189m,Off,6,2.9734142,1.8457792,Time OK,Free running,28700,9570,0,2019-10-10 15:42:10.000000000,
1570723453,2019-10-10 16:04:13.464,47.636254N 0.583937E 189m,Off,6,2.9734142,1.8457792,Time OK,Free running,30900,9570,0,2019-10-10 15:42:10.000000000,
1570723513,2019-10-10 16:05:13.464,47.636254N 0.583937E 189m,Off,6,2.9734142,1.8457792,Time OK,Free running,33200,9570,0,2019-10-10 15:42:10.000000000,
1570723573,2019-10-10 16:06:13.467,47.636254N 0.583937E 189m,Off,6,2.9734142,1.8457792,Time OK,Free running,35900,9570,0,2019-10-10 15:42:10.000000000,
1570723633,2019-10-10 16:07:13.464,47.636254N 0.583937E 189m,Off,6,2.9734142,1.8457792,Time OK,Free running,38600,9570,0,2019-10-10 15:42:10.000000000,
1570723693,2019-10-10 16:08:13.464,47.636254N 0.583937E 189m,Off,6,2.9734142,1.8457792,Time OK,Free running,41200,9570,0,2019-10-10 15:42:10.000000000,
1570723753,2019-10-10 16:09:13.464,47.636254N 0.583937E 189m,Off,6,2.9734142,1.8457792,Time OK,Free running,43800,9570,0,2019-10-10 15:42:10.000000000,
1570723813,2019-10-10 16:10:13.464,47.636254N 0.583937E 189m,Off,6,2.9734142,1.8457792,Time OK,Free running,46500,9570,0,2019-10-10 15:42:10.000000000,
1570723873,2019-10-10 16:11:13.464,47.636254N 0.583937E 189m,Off,6,2.9734142,1.8457792,Time OK,Free running,49500,9570,0,2019-10-10 15:42:10.000000000,
1570723933,2019-10-10 16:12:13.464,47.636254N 0.583937E 189m,Off,6,2.9734142,1.8457792,Time OK,Free running,52700,9570,0,2019-10-10 15:42:10.000000000,
1570723993,2019-10-10 16:13:13.465,47.636254N 0.583937E 189m,No GPS time,6,2.9734142,1.8457792,Time OK,Free running,56000,9570,0,2019-10-10 15:42:10.000000000,
1570724053,2019-10-10 16:14:13.465,47.636254N 0.583937E 189m,Doing fixes,5,3.1695826,1.7062128,Time OK,Fine lock,100,9459,-312,2019-10-10 16:14:10.000000000,
1570724113,2019-10-10 16:15:13.467,47.636254N 0.583937E 189m,Doing fixes,5,3.147538,1.6901152,Time OK,Fine lock,100,9521,0,2019-10-10 16:15:10.000000000,
1570724173,2019-10-10 16:16:13.464,47.636254N 0.583937E 189m,Off,7,2.5799193,1.5965376,Time OK,Free running,600,9520,0,2019-10-10 16:15:30.000000000,
1570724233,2019-10-10 16:17:13.464,47.636254N 0.583937E 189m,Off,7,2.5799193,1.5965376,Time OK,Free running,1500,9520,0,2019-10-10 16:15:30.000000000,
1570724293,2019-10-10 16:18:13.464,47.636254N 0.583937E 189m,Off,7,2.5799193,1.5965376,Time OK,Free running,2500,9520,0,2019-10-10 16:15:30.000000000,
1570724353,2019-10-10 16:19:13.464,47.636254N 0.583937E 189m,Off,7,2.5799193,1.5965376,Time OK,Free running,3400,9520,0,2019-10-10 16:15:30.000000000,
1570724413,2019-10-10 16:20:13.464,47.636254N 0.583937E 189m,Off,7,2.5799193,1.5965376,Time OK,Free running,4200,9520,0,2019-10-10 16:15:30.000000000,
1570724473,2019-10-10 16:21:13.469,47.636254N 0.583937E 189m,Off,7,2.5799193,1.5965376,Time OK,Free running,5200,9520,0,2019-10-10 16:15:30.000000000,
1570724533,2019-10-10 16:22:13.464,47.636254N 0.583937E 189m,Off,7,2.5799193,1.5965376,Time OK,Free running,6300,9520,0,2019-10-10 16:15:30.000000000,
1570724593,2019-10-10 16:23:13.464,47.636254N 0.583937E 189m,Off,7,2.5799193,1.5965376,Time OK,Free running,7600,9520,0,2019-10-10 16:15:30.000000000,
1570724653,2019-10-10 16:24:13.464,47.636254N 0.583937E 189m,Off,7,2.5799193,1.5965376,Time OK,Free running,9200,9520,0,2019-10-10 16:15:30.000000000,
1570724713,2019-10-10 16:25:13.464,47.636254N 0.583937E 189m,Off,7,2.5799193,1.5965376,Time OK,Free running,10700,9520,0,2019-10-10 16:15:30.000000000,
1570724773,2019-10-10 16:26:13.514,47.636254N 0.583937E 189m,Off,7,2.5799193,1.5965376,Time OK,Free running,12300,9520,0,2019-10-10 16:15:30.000000000,
1570724833,2019-10-10 16:27:13.464,47.636254N 0.583937E 189m,Off,7,2.5799193,1.5965376,Time OK,Free running,14200,9520,0,2019-10-10 16:15:30.000000000,
1570724893,2019-10-10 16:28:13.464,47.636254N 0.583937E 189m,Off,7,2.5799193,1.5965376,Time OK,Free running,16100,9520,0,2019-10-10 16:15:30.000000000,
1570724953,2019-10-10 16:29:13.464,47.636254N 0.583937E 189m,Off,7,2.5799193,1.5965376,Time OK,Free running,17800,9520,0,2019-10-10 16:15:30.000000000,
1570725013,2019-10-10 16:30:13.464,47.636254N 0.583937E 189m,Off,7,2.5799193,1.5965376,Time OK,Free running,19600,9520,0,2019-10-10 16:15:30.000000000,
1570725073,2019-10-10 16:31:13.464,47.636254N 0.583937E 189m,Off,7,2.5799193,1.5965376,Time OK,Free running,21600,9520,0,2019-10-10 16:15:30.000000000,
1570725133,2019-10-10 16:32:13.464,47.636254N 0.583937E 189m,Off,7,2.5799193,1.5965376,Time OK,Free running,23700,9520,0,2019-10-10 16:15:30.000000000,
1570725193,2019-10-10 16:33:13.464,47.636254N 0.583937E 189m,Off,7,2.5799193,1.5965376,Time OK,Free running,25800,9520,0,2019-10-10 16:15:30.000000000,
1570725253,2019-10-10 16:34:13.464,47.636254N 0.583937E 189m,Off,7,2.5799193,1.5965376,Time OK,Free running,28000,9520,0,2019-10-10 16:15:30.000000000,
1570725313,2019-10-10 16:35:13.464,47.636254N 0.583937E 189m,Off,7,2.5799193,1.5965376,Time OK,Free running,30700,9520,0,2019-10-10 16:15:30.000000000,
1570725373,2019-10-10 16:36:13.464,47.636254N 0.583937E 189m,Off,7,2.5799193,1.5965376,Time OK,Free running,33700,9520,0,2019-10-10 16:15:30.000000000,
1570725433,2019-10-10 16:37:13.465,47.636254N 0.583937E 189m,Off,7,2.5799193,1.5965376,Time OK,Free running,36500,9520,0,2019-10-10 16:15:30.000000000,
1570725493,2019-10-10 16:38:13.464,47.636254N 0.583937E 189m,Off,7,2.5799193,1.5965376,Time OK,Free running,39400,9520,0,2019-10-10 16:15:30.000000000,
1570725553,2019-10-10 16:39:13.464,47.636254N 0.583937E 189m,Off,7,2.5799193,1.5965376,Time OK,Free running,42600,9520,0,2019-10-10 16:15:30.000000000,
1570725613,2019-10-10 16:40:13.464,47.636254N 0.583937E 189m,Off,7,2.5799193,1.5965376,Time OK,Free running,45400,9520,0,2019-10-10 16:15:30.000000000,
1570725673,2019-10-10 16:41:13.464,47.636254N 0.583937E 189m,Off,7,2.5799193,1.5965376,Time OK,Free running,48200,9520,0,2019-10-10 16:15:30.000000000,
1570725733,2019-10-10 16:42:13.465,47.636254N 0.583937E 189m,Off,7,2.5799193,1.5965376,Time OK,Free running,51400,9520,0,2019-10-10 16:15:30.000000000,
1570725793,2019-10-10 16:43:13.465,47.636254N 0.583937E 189m,Doing fixes,5,3.7132947,1.6383884,Time OK,Coarse lock,100,8129,16041,2019-10-10 16:43:10.000000000,
1570725853,2019-10-10 16:44:13.465,47.636254N 0.583937E 189m,Doing fixes,5,3.6338017,1.6109871,Time OK,Fine lock,100,9498,0,2019-10-10 16:44:10.000000000,
1570725913,2019-10-10 16:45:13.464,47.636254N 0.583937E 189m,Off,4,3.280017,1.9162081,Time OK,Free running,300,9466,0,2019-10-10 16:44:50.000000000,
1570725973,2019-10-10 16:46:13.464,47.636254N 0.583937E 189m,Off,4,3.280017,1.9162081,Time OK,Free running,1400,9466,0,2019-10-10 16:44:50.000000000,
1570726033,2019-10-10 16:47:13.465,47.636254N 0.583937E 189m,Off,4,3.280017,1.9162081,Time OK,Free running,2300,9466,0,2019-10-10 16:44:50.000000000,
1570726093,2019-10-10 16:48:13.464,47.636254N 0.583937E 189m,Off,4,3.280017,1.9162081,Time OK,Free running,3100,9466,0,2019-10-10 16:44:50.000000000,
1570726153,2019-10-10 16:49:13.464,47.636254N 0.583937E 189m,Off,4,3.280017,1.9162081,Time OK,Free running,4100,9466,0,2019-10-10 16:44:50.000000000,
1570726213,2019-10-10 16:50:13.464,47.636254N 0.583937E 189m,Off,4,3.280017,1.9162081,Time OK,Free running,5400,9466,0,2019-10-10 16:44:50.000000000,
1570726273,2019-10-10 16:51:13.474,47.636254N 0.583937E 189m,Off,4,3.280017,1.9162081,Time OK,Free running,6800,9466,0,2019-10-10 16:44:50.000000000,
1570726333,2019-10-10 16:52:13.466,47.636254N 0.583937E 189m,Off,4,3.280017,1.9162081,Time OK,Free running,8400,9466,0,2019-10-10 16:44:50.000000000,
1570726393,2019-10-10 16:53:13.464,47.636254N 0.583937E 189m,Off,4,3.280017,1.9162081,Time OK,Free running,9800,9466,0,2019-10-10 16:44:50.000000000,
1570726453,2019-10-10 16:54:13.464,47.636254N 0.583937E 189m,Off,4,3.280017,1.9162081,Time OK,Free running,11200,9466,0,2019-10-10 16:44:50.000000000,
1570726513,2019-10-10 16:55:13.464,47.636254N 0.583937E 189m,Off,4,3.280017,1.9162081,Time OK,Free running,12600,9466,0,2019-10-10 16:44:50.000000000,
1570726573,2019-10-10 16:56:13.465,47.636254N 0.583937E 189m,Off,4,3.280017,1.9162081,Time OK,Free running,13900,9466,0,2019-10-10 16:44:50.000000000,
1570726633,2019-10-10 16:57:13.464,47.636254N 0.583937E 189m,Off,4,3.280017,1.9162081,Time OK,Free running,15500,9466,0,2019-10-10 16:44:50.000000000,
1570726693,2019-10-10 16:58:13.467,47.636254N 0.583937E 189m,Off,4,3.280017,1.9162081,Time OK,Free running,17200,9466,0,2019-10-10 16:44:50.000000000,
1570726753,2019-10-10 16:59:13.464,47.636254N 0.583937E 189m,Off,4,3.280017,1.9162081,Time OK,Free running,18900,9466,0,2019-10-10 16:44:50.000000000,
