Time(longsecs),Time(UTC),External SOH Voltage 1(V),External SOH Voltage 2(V),External SOH Voltage 3(V),External SOH Voltage 4(V),Sensor SOH Voltage 1(V),Sensor SOH Voltage 2(V),Sensor SOH Voltage 3(V),
1570410011,2019-10-07 01:00:11.767,-6.2041283E-3,-1.8074512E-3,-4.6055317E-3,1.0685921E-3,1.8516445E-1,1.8699646E-1,1.8339443E-1,
1570410071,2019-10-07 01:01:11.767,-4.0562153E-3,7.481575E-4,-2.6257038E-3,3.196478E-3,1.9015694E-1,1.9346428E-1,1.9125652E-1,
1570410131,2019-10-07 01:02:11.767,-4.6083927E-3,8.2325935E-4,-2.3758411E-3,3.0858517E-3,1.9682312E-1,1.980114E-1,1.9552517E-1,
1570410191,2019-10-07 01:03:11.767,-1.8646717E-3,2.682209E-3,-1.8453598E-4,6.2525272E-3,1.9767475E-1,2.0128632E-1,1.9456387E-1,
1570410251,2019-10-07 01:04:11.767,-1.9271374E-3,3.3245087E-3,-7.109642E-4,5.560398E-3,1.9666195E-1,1.991911E-1,2.0124626E-1,
1570410311,2019-10-07 01:05:11.767,-4.270792E-3,6.246567E-4,-2.4569035E-3,3.0140877E-3,1.919632E-1,1.9477654E-1,1.9464302E-1,
1570410371,2019-10-07 01:06:11.767,-3.8404465E-3,1.1761189E-3,-1.983881E-3,4.057646E-3,1.9196129E-1,1.9443035E-1,1.9842815E-1,
1570410431,2019-10-07 01:07:11.767,-6.0973167E-3,-1.1563301E-3,-4.4248104E-3,1.6627312E-3,1.875124E-1,1.895361E-1,1.8366528E-1,
1570410491,2019-10-07 01:08:11.767,-4.2996407E-3,7.87735E-4,-2.326727E-3,3.7944317E-3,1.9118309E-1,1.9481087E-1,1.9501495E-1,
1570410551,2019-10-07 01:09:11.767,-3.6416054E-3,1.1618137E-3,-1.9078255E-3,3.4706593E-3,1.9689465E-1,1.9946289E-1,1.9140816E-1,
1570410611,2019-10-07 01:10:11.769,-3.8526058E-3,6.2823296E-4,-2.8669834E-3,4.087925E-3,1.9113731E-1,1.93079E-1,1.9272137E-1,
1570410671,2019-10-07 01:11:11.767,-4.782915E-3,2.5367737E-4,-3.1187534E-3,3.0879974E-3,1.9424629E-1,1.9390869E-1,1.9438744E-1,
1570410731,2019-10-07 01:12:11.769,-6.247759E-3,-1.342535E-3,-4.3497086E-3,1.3577938E-3,1.898489E-1,1.9288635E-1,1.8100357E-1,
1570410791,2019-10-07 01:13:11.767,-2.2947788E-3,3.116846E-3,-6.980896E-4,5.6369305E-3,1.9941902E-1,2.0168495E-1,1.9965553E-1,
1570410851,2019-10-07 01:14:11.767,-6.259918E-3,-8.2731247E-4,-4.204273E-3,1.0750294E-3,1.8335533E-1,1.8590069E-1,1.8022537E-1,
1570410911,2019-10-07 01:15:11.767,-1.3554096E-3,2.5384426E-3,-8.4638596E-4,5.302906E-3,2.0201492E-1,2.0532703E-1,2.0131493E-1,
1570410971,2019-10-07 01:16:11.767,-3.3845901E-3,1.3725758E-3,-1.1506081E-3,4.2698383E-3,1.9855118E-1,1.9881248E-1,2.0009136E-1,
1570411031,2019-10-07 01:17:11.767,-6.1204433E-3,-6.632805E-4,-4.2715073E-3,1.2364388E-3,1.9017315E-1,1.9304752E-1,1.9361115E-1,
1570411091,2019-10-07 01:18:11.767,-3.680706E-3,1.3325214E-3,-1.5375614E-3,3.4487247E-3,1.9272137E-1,1.9526672E-1,1.9132137E-1,
1570411151,2019-10-07 01:19:11.767,-3.2675266E-3,1.4019012E-3,-2.5186539E-3,3.9663315E-3,1.9398785E-1,1.9679356E-1,1.9599247E-1,
1570411211,2019-10-07 01:20:11.767,-4.4431686E-3,5.619526E-4,-3.0288696E-3,2.7604103E-3,1.9203472E-1,1.9550037E-1,1.9441986E-1,
1570411271,2019-10-07 01:21:11.767,-1.8899441E-3,3.2052994E-3,1.3041496E-4,5.620718E-3,1.9972897E-1,2.019844E-1,2.035141E-1,
1570411331,2019-10-07 01:22:11.767,-1.5761852E-3,2.9633045E-3,-4.0769577E-4,5.6254864E-3,1.9800568E-1,1.9960594E-1,2.0588875E-1,
1570411391,2019-10-07 01:23:11.767,-3.7653446E-3,1.2133121E-3,-2.0604134E-3,4.2295456E-3,1.9451809E-1,1.9740963E-1,1.9126892E-1,
1570411451,2019-10-07 01:24:11.767,-4.502058E-3,2.0503998E-5,-3.321886E-3,3.0167103E-3,1.9719219E-1,2.000227E-1,1.9455338E-1,
1570411511,2019-10-07 01:25:11.767,-4.437208E-3,6.930828E-4,-3.2951832E-3,2.8729439E-3,1.9097233E-1,1.9216633E-1,1.9279289E-1,
1570411571,2019-10-07 01:26:11.767,-4.433632E-3,9.0432167E-4,-2.3076534E-3,2.3422241E-3,1.9275188E-1,1.9541454E-1,1.9048882E-1,
1570411631,2019-10-07 01:27:11.767,-1.7557144E-3,3.374815E-3,-3.5500526E-4,5.646229E-3,1.9908714E-1,2.017622E-1,2.0681667E-1,
1570411691,2019-10-07 01:28:11.767,-4.129648E-3,4.911423E-4,-3.1399727E-3,3.0164719E-3,1.9294643E-1,1.9409466E-1,1.9629097E-1,
1570411751,2019-10-07 01:29:11.767,-3.7062168E-3,1.8672943E-3,-2.1710396E-3,3.938675E-3,1.9477654E-1,1.9576168E-1,1.964922E-1,
1570411811,2019-10-07 01:30:11.769,-1.8444061E-3,2.9523373E-3,-1.809597E-4,5.2022934E-3,1.9653606E-1,2.0000267E-1,2.0313835E-1,
1570411871,2019-10-07 01:31:11.767,-1.967907E-3,3.2331944E-3,-9.7990036E-5,4.9438477E-3,1.973114E-1,2.006197E-1,1.8858624E-1,
1570411931,2019-10-07 01:32:11.767,-4.267454E-3,1.6641617E-3,-1.8846989E-3,3.8330555E-3,1.9661903E-1,1.9930077E-1,2.0027542E-1,
1570411991,2019-10-07 01:33:11.796,-1.7397404E-3,3.1282902E-3,-3.209114E-4,5.540371E-3,1.98802E-1,1.9985485E-1,1.9933033E-1,
1570412051,2019-10-07 01:34:11.773,-2.0115376E-3,2.9652119E-3,-1.8048286E-4,5.347967E-3,2.0410728E-1,2.0567322E-1,2.0915699E-1,
1570412111,2019-10-07 01:35:11.767,-2.1138191E-3,2.9215813E-3,1.5044212E-4,6.059408E-3,2.0373821E-1,2.047491E-1,2.041254E-1,
1570412171,2019-10-07 01:36:11.769,-6.518364E-3,-1.2123585E-3,-3.8807392E-3,6.213188E-4,1.9025326E-1,1.9173622E-1,1.9071865E-1,
1570412231,2019-10-07 01:37:11.769,-1.7681122E-3,3.2408237E-3,-9.434223E-4,5.460024E-3,1.9923782E-1,2.0131493E-1,1.9690704E-1,
1570412291,2019-10-07 01:38:11.767,-3.9396286E-3,7.4982643E-4,-2.6397705E-3,3.223896E-3,1.915245E-1,1.9455719E-1,2.0095634E-1,
1570412351,2019-10-07 01:39:11.767,-6.1705112E-3,-9.787083E-4,-5.0759315E-3,1.1630058E-3,1.8986225E-1,1.937952E-1,1.7837143E-1,
1570412411,2019-10-07 01:40:11.767,-4.3628216E-3,8.955002E-4,-2.7143955E-3,3.1135082E-3,1.9250202E-1,1.9547272E-1,1.9128323E-1,
1570412471,2019-10-07 01:41:11.767,-4.796028E-3,1.9359589E-4,-2.9153824E-3,2.9459E-3,1.9144249E-1,1.9173908E-1,1.9220066E-1,
1570412531,2019-10-07 01:42:11.767,-6.4833164E-3,-1.424551E-3,-4.0762424E-3,1.6474724E-3,1.8837738E-1,1.8882465E-1,1.872654E-1,
1570412591,2019-10-07 01:43:11.769,-6.2401295E-3,-8.146763E-4,-4.38118E-3,1.0685921E-3,1.8658161E-1,1.8983555E-1,1.862402E-1,
1570412651,2019-10-07 01:44:11.767,-4.9893856E-3,6.392002E-4,-2.485752E-3,3.2048225E-3,1.9821358E-1,2.0074558E-1,1.9050217E-1,
1570412711,2019-10-07 01:45:11.767,-1.9888878E-3,3.064394E-3,-3.054142E-4,5.94306E-3,1.9654655E-1,1.9976234E-1,1.9754028E-1,
1570412771,2019-10-07 01:46:11.767,-2.0456314E-3,3.1967163E-3,-1.4805794E-4,5.8071613E-3,2.0390892E-1,2.0376205E-1,1.9602871E-1,
1570412831,2019-10-07 01:47:11.767,-4.1201115E-3,8.518696E-4,-2.3350716E-3,3.2515526E-3,1.9672012E-1,1.9906235E-1,1.9027805E-1,
1570412891,2019-10-07 01:48:11.767,-4.0717125E-3,3.1614304E-4,-2.7430058E-3,3.293991E-3,1.9266129E-1,1.943388E-1,1.9192791E-1,
1570412951,2019-10-07 01:49:11.768,-4.440546E-3,-2.5963783E-4,-2.8824806E-3,3.199339E-3,1.9292545E-1,1.9464588E-1,1.8897629E-1,
1570413011,2019-10-07 01:50:11.769,-6.2863827E-3,-1.2183189E-3,-4.627943E-3,1.2392998E-3,1.9104576E-1,1.934061E-1,1.9430828E-1,
1570413071,2019-10-07 01:51:11.769,-4.239559E-3,4.5251846E-4,-3.1292439E-3,3.0231476E-3,1.9762611E-1,2.0133305E-1,1.9246101E-1,
1570413131,2019-10-07 01:52:11.767,-6.290436E-3,-1.4536381E-3,-4.4829845E-3,7.686615E-4,1.9084549E-1,1.9311142E-1,1.9589996E-1,
1570413191,2019-10-07 01:53:11.769,-4.507065E-3,2.7275085E-4,-3.5824776E-3,2.876997E-3,1.934681E-1,1.944933E-1,1.9432354E-1,
1570413251,2019-10-07 01:54:11.767,-3.7021637E-3,1.201868E-3,-2.6128292E-3,3.8440228E-3,1.9045353E-1,1.9378948E-1,1.9173908E-1,
1570413311,2019-10-07 01:55:11.767,-3.5924911E-3,1.3365746E-3,-1.834631E-3,3.8411617E-3,1.9322109E-1,1.9595528E-1,1.9246674E-1,
1570413371,2019-10-07 01:56:11.767,-4.1644573E-3,4.041195E-4,-2.424717E-3,2.8862953E-3,1.9688511E-1,1.9879818E-1,1.9865799E-1,
1570413431,2019-10-07 01:57:11.767,-3.5588741E-3,1.6255379E-3,-2.0971298E-3,3.8206577E-3,1.9660759E-1,1.99934E-1,2.0274353E-1,
1570413491,2019-10-07 01:58:11.767,-4.139185E-3,1.8453598E-4,-2.3887157E-3,3.4537315E-3,1.9059372E-1,1.9333458E-1,1.896019E-1,
1570413551,2019-10-07 01:59:11.767,-3.8797855E-3,1.1560917E-3,-2.3145676E-3,3.610611E-3,1.9163418E-1,1.937685E-1,1.8901348E-1,
