Time(longsecs),Time(UTC),External SOH Voltage 1(V),External SOH Voltage 2(V),External SOH Voltage 3(V),External SOH Voltage 4(V),Sensor SOH Voltage 1(V),Sensor SOH Voltage 2(V),Sensor SOH Voltage 3(V),
1570431611,2019-10-07 07:00:11.767,-6.229639E-3,-1.5087128E-3,-4.327774E-3,1.2114048E-3,1.9723606E-1,1.9793892E-1,1.957035E-1,
1570431671,2019-10-07 07:01:11.767,-2.0256042E-3,2.995491E-3,-4.1222572E-4,5.8147907E-3,2.0917034E-1,2.1283245E-1,2.104168E-1,
1570431731,2019-10-07 07:02:11.767,-4.317045E-3,4.272461E-4,-2.3596287E-3,3.1957626E-3,2.0674133E-1,2.08642E-1,2.0433998E-1,
1570431791,2019-10-07 07:03:11.767,-2.4125576E-3,2.9392242E-3,-1.7619133E-4,5.735874E-3,2.1377182E-1,2.1444225E-1,2.148571E-1,
1570431851,2019-10-07 07:04:11.767,-6.488085E-3,-1.4982224E-3,-4.330635E-3,9.596348E-4,1.9477272E-1,1.9688511E-1,1.9671726E-1,
1570431911,2019-10-07 07:05:11.799,-4.8537254E-3,6.0391426E-4,-2.260685E-3,3.3209324E-3,2.059679E-1,2.0123577E-1,2.054224E-1,
1570431971,2019-10-07 07:06:11.767,-6.591797E-3,-1.1620522E-3,-4.7032833E-3,1.5759468E-3,1.9478512E-1,1.9625854E-1,1.9604969E-1,
1570432031,2019-10-07 07:07:11.783,-6.0076714E-3,-1.2075901E-3,-4.496336E-3,1.0955334E-3,2.0110703E-1,2.0206833E-1,1.996584E-1,
1570432091,2019-10-07 07:08:11.767,-4.279852E-3,6.6804886E-4,-2.5863647E-3,3.0937195E-3,2.0681953E-1,2.0814991E-1,2.0250225E-1,
1570432151,2019-10-07 07:09:11.769,-2.3031235E-3,2.7999878E-3,-1.8930435E-4,5.9170723E-3,2.077694E-1,2.0959282E-1,2.0889759E-1,
1570432211,2019-10-07 07:10:11.767,-4.4882298E-3,4.6157837E-4,-2.614975E-3,3.307104E-3,2.028532E-1,2.0522022E-1,2.0222187E-1,
1570432271,2019-10-07 07:11:11.767,-2.0229816E-3,3.323555E-3,-5.3191185E-4,5.6214333E-3,2.1478844E-1,2.1782875E-1,2.1407223E-1,
1570432331,2019-10-07 07:12:11.771,-4.5170784E-3,5.1379204E-4,-2.502203E-3,3.166914E-3,2.0275211E-1,2.0478725E-1,2.0104885E-1,
1570432391,2019-10-07 07:13:11.767,-6.505251E-3,-1.5003681E-3,-4.2743683E-3,1.301527E-3,2.0053387E-1,2.0305443E-1,2.0118523E-1,
1570432451,2019-10-07 07:14:11.768,-6.2105656E-3,-1.2149811E-3,-4.9078465E-3,8.108616E-4,1.9687939E-1,1.9844341E-1,1.940813E-1,
1570432511,2019-10-07 07:15:11.768,-4.3177605E-3,6.725788E-4,-2.6533604E-3,3.1762123E-3,2.065754E-1,2.0894527E-1,2.0526314E-1,
1570432571,2019-10-07 07:16:11.767,-6.294012E-3,-1.0352135E-3,-4.3239594E-3,1.5199184E-3,2.0248127E-1,2.0414543E-1,2.0283794E-1,
1570432631,2019-10-07 07:17:11.767,-4.0290356E-3,1.3287067E-3,-2.1305084E-3,3.684044E-3,2.0380402E-1,2.0497417E-1,2.0099545E-1,
1570432691,2019-10-07 07:18:11.767,-4.311323E-3,5.5933E-4,-2.6693344E-3,3.576994E-3,2.0668316E-1,2.0815182E-1,2.0605373E-1,
1570432751,2019-10-07 07:19:11.767,-1.8751621E-3,3.1080246E-3,-3.5238266E-4,5.6467056E-3,2.0833492E-1,2.1150684E-1,2.0862389E-1,
1570432811,2019-10-07 07:20:11.767,-4.5433044E-3,1.9168854E-4,-2.511263E-3,3.2970905E-3,2.0638561E-1,2.0876884E-1,1.9892788E-1,
1570432871,2019-10-07 07:21:11.767,-1.8866062E-3,2.891302E-3,-5.810261E-4,5.6009293E-3,2.0868492E-1,2.094698E-1,2.0921993E-1,
1570432931,2019-10-07 07:22:11.799,-6.192684E-3,-1.4898777E-3,-4.604101E-3,1.1150837E-3,2.0070553E-1,2.0153427E-1,2.0016289E-1,
1570432991,2019-10-07 07:23:11.769,-6.1910152E-3,-1.1861324E-3,-4.405737E-3,9.200573E-4,2.0032692E-1,2.0199394E-1,1.959486E-1,
1570433051,2019-10-07 07:24:11.767,-6.447077E-3,-1.4681816E-3,-4.4009686E-3,9.524822E-4,1.9824028E-1,1.987114E-1,1.9415283E-1,
1570433111,2019-10-07 07:25:11.767,-6.254196E-3,-1.0693073E-3,-4.4863224E-3,1.4560223E-3,1.968689E-1,1.9814777E-1,1.9787025E-1,
1570433171,2019-10-07 07:26:11.767,-3.893137E-3,1.2037754E-3,-1.9350052E-3,3.8032532E-3,2.1022987E-1,2.1159267E-1,2.0861244E-1,
1570433231,2019-10-07 07:27:11.767,-1.916647E-3,3.129959E-3,-6.375313E-4,5.3195953E-3,2.0978928E-1,2.1179008E-1,2.0479298E-1,
1570433291,2019-10-07 07:28:11.767,-1.7991066E-3,3.2799244E-3,-1.9407272E-4,5.8996677E-3,2.1377277E-1,2.1427536E-1,2.1014786E-1,
1570433351,2019-10-07 07:29:11.767,-4.519701E-3,7.760525E-4,-2.9802322E-3,3.0329227E-3,2.028923E-1,2.0428562E-1,2.028656E-1,
1570433411,2019-10-07 07:30:11.771,-4.0130615E-3,9.841919E-4,-2.0964146E-3,3.5846233E-3,2.0349121E-1,2.044468E-1,2.0164967E-1,
1570433471,2019-10-07 07:31:11.767,-2.2199154E-3,3.0007362E-3,-4.7397614E-4,5.18322E-3,2.0938492E-1,2.115736E-1,2.064848E-1,
1570433531,2019-10-07 07:32:11.767,-6.203413E-3,-1.3036728E-3,-4.7340393E-3,1.6386509E-3,2.0013332E-1,2.0638847E-1,1.9965267E-1,
1570433591,2019-10-07 07:33:11.767,-6.174326E-3,-1.2142658E-3,-4.247904E-3,7.9894066E-4,1.9611835E-1,1.988554E-1,1.9773293E-1,
1570433651,2019-10-07 07:34:11.767,-4.2641163E-3,8.406639E-4,-2.9406548E-3,2.9489994E-3,2.0005894E-1,2.0325756E-1,1.9826698E-1,
1570433711,2019-10-07 07:35:11.768,-4.2066574E-3,6.158352E-4,-2.660036E-3,3.3769608E-3,2.0367241E-1,2.0360756E-1,2.0174408E-1,
1570433771,2019-10-07 07:36:11.767,-4.781723E-3,7.646084E-4,-2.7217865E-3,3.3004284E-3,2.084074E-1,2.1106052E-1,2.0828915E-1,
1570433831,2019-10-07 07:37:11.769,-3.9029121E-3,1.7118454E-3,-1.909256E-3,3.8583279E-3,2.1121311E-1,2.1165276E-1,2.1094513E-1,
1570433891,2019-10-07 07:38:11.767,-6.3622E-3,-1.6098022E-3,-4.3275356E-3,1.3356209E-3,2.0314026E-1,2.0402813E-1,2.0090961E-1,
1570433951,2019-10-07 07:39:11.767,-2.3686886E-3,3.1785965E-3,-4.799366E-4,5.3532124E-3,2.0860195E-1,2.0944786E-1,2.0693684E-1,
1570434011,2019-10-07 07:40:11.767,-3.7324429E-3,8.3613396E-4,-2.5217533E-3,4.0807724E-3,2.032175E-1,2.0518303E-1,2.0457554E-1,
1570434071,2019-10-07 07:41:11.769,-4.58622E-3,6.2704086E-4,-2.953291E-3,3.1700134E-3,2.0313835E-1,2.0480633E-1,2.037077E-1,
1570434131,2019-10-07 07:42:11.767,-6.348133E-3,-1.3804436E-3,-4.390955E-3,9.520054E-4,1.9647789E-1,1.9882774E-1,2.0041275E-1,
1570434191,2019-10-07 07:43:11.767,-4.5990944E-3,7.414818E-4,-2.8090477E-3,3.2446384E-3,2.0168495E-1,2.043314E-1,1.9679737E-1,
1570434251,2019-10-07 07:44:11.767,-1.9271374E-3,3.0171871E-3,-2.7441978E-4,5.4256916E-3,2.1180153E-1,2.1489239E-1,2.1485615E-1,
1570434311,2019-10-07 07:45:11.767,-3.8526058E-3,1.7986298E-3,-2.0360947E-3,3.293991E-3,2.0829391E-1,2.0970345E-1,2.0364952E-1,
1570434371,2019-10-07 07:46:11.767,-4.263401E-3,5.760193E-4,-2.2799969E-3,3.528595E-3,2.0608807E-1,2.0894909E-1,2.0416927E-1,
1570434431,2019-10-07 07:47:11.767,-3.9827824E-3,6.88076E-4,-2.2895336E-3,3.6127567E-3,2.0786E-1,2.094698E-1,2.0438671E-1,
1570434491,2019-10-07 07:48:11.767,-3.9942265E-3,1.2862682E-3,-2.4790764E-3,4.4355392E-3,2.0692635E-1,2.0898056E-1,2.0581245E-1,
1570434551,2019-10-07 07:49:11.767,-1.7366409E-3,3.256321E-3,-4.0245056E-4,5.8841705E-3,2.1373463E-1,2.0797825E-1,2.1041203E-1,
1570434611,2019-10-07 07:50:11.767,-4.1184425E-3,1.6255379E-3,-2.2199154E-3,3.8084984E-3,2.0404911E-1,2.0498371E-1,2.0291328E-1,
1570434671,2019-10-07 07:51:11.767,-4.6756268E-3,9.365082E-4,-2.6109219E-3,2.8238297E-3,2.07654E-1,2.088356E-1,2.0471E-1,
1570434731,2019-10-07 07:52:11.799,-3.9212704E-3,1.3101101E-3,-2.3367405E-3,4.140854E-3,2.092247E-1,2.1179485E-1,2.08498E-1,
1570434791,2019-10-07 07:53:11.767,-6.307602E-3,-1.3225079E-3,-4.450798E-3,1.1386871E-3,2.0268726E-1,2.0442963E-1,2.0240974E-1,
1570434851,2019-10-07 07:54:11.767,-5.8948994E-3,-9.6297264E-4,-4.77767E-3,9.6058846E-4,2.0053768E-1,2.0305824E-1,1.9988823E-1,
1570434911,2019-10-07 07:55:11.767,-3.322363E-3,1.2509823E-3,-2.3868084E-3,3.4906864E-3,2.0890808E-1,2.1170998E-1,2.1025467E-1,
1570434971,2019-10-07 07:56:11.767,-1.6102791E-3,3.09968E-3,-3.786087E-4,5.6614876E-3,2.0909977E-1,2.1115017E-1,2.0699883E-1,
1570435031,2019-10-07 07:57:11.767,-6.312847E-3,-1.2280941E-3,-4.2614937E-3,9.422302E-4,1.9676113E-1,1.9941425E-1,1.9469547E-1,
1570435091,2019-10-07 07:58:11.767,-3.2689571E-3,1.4760494E-3,-1.8520355E-3,4.463434E-3,2.0355701E-1,2.0579338E-1,2.02734E-1,
1570435151,2019-10-07 07:59:11.767,-6.02746E-3,-1.3046265E-3,-4.0807724E-3,9.934902E-4,2.0197582E-1,2.0371628E-1,1.9981766E-1,
