Time(longsecs),Time(UTC),GPS Satellite Acquisition Flag 1,GPS Satellite Acquisition Flag 2,GPS Satellite Acquisition Flag 3,GPS Satellite Acquisition Flag 4,GPS Satellite Acquisition Flag 5,GPS Satellite Acquisition Flag 6,GPS Satellite Acquisition Flag 7,GPS Satellite Acquisition Flag 8,GPS Satellite Acquisition Flag 9,GPS Satellite Acquisition Flag 10,GPS Satellite Acquisition Flag 11,GPS Satellite Acquisition Flag 12,GPS Satellite Azimuth 1(Degrees),GPS Satellite Azimuth 2(Degrees),GPS Satellite Azimuth 3(Degrees),GPS Satellite Azimuth 4(Degrees),GPS Satellite Azimuth 5(Degrees),GPS Satellite Azimuth 6(Degrees),GPS Satellite Azimuth 7(Degrees),GPS Satellite Azimuth 8(Degrees),GPS Satellite Azimuth 9(Degrees),GPS Satellite Azimuth 10(Degrees),GPS Satellite Azimuth 11(Degrees),GPS Satellite Azimuth 12(Degrees),GPS Satellite Elevation 1(Degrees),GPS Satellite Elevation 2(Degrees),GPS Satellite Elevation 3(Degrees),GPS Satellite Elevation 4(Degrees),GPS Satellite Elevation 5(Degrees),GPS Satellite Elevation 6(Degrees),GPS Satellite Elevation 7(Degrees),GPS Satellite Elevation 8(Degrees),GPS Satellite Elevation 9(Degrees),GPS Satellite Elevation 10(Degrees),GPS Satellite Elevation 11(Degrees),GPS Satellite Elevation 12(Degrees),GPS Satellite PRN 1,GPS Satellite PRN 2,GPS Satellite PRN 3,GPS Satellite PRN 4,GPS Satellite PRN 5,GPS Satellite PRN 6,GPS Satellite PRN 7,GPS Satellite PRN 8,GPS Satellite PRN 9,GPS Satellite PRN 10,GPS Satellite PRN 11,GPS Satellite PRN 12,GPS Satellite Signal Level 1(AMU),GPS Satellite Signal Level 2(AMU),GPS Satellite Signal Level 3(AMU),GPS Satellite Signal Level 4(AMU),GPS Satellite Signal Level 5(AMU),GPS Satellite Signal Level 6(AMU),GPS Satellite Signal Level 7(AMU),GPS Satellite Signal Level 8(AMU),GPS Satellite Signal Level 9(AMU),GPS Satellite Signal Level 10(AMU),GPS Satellite Signal Level 11(AMU),GPS Satellite Signal Level 12(AMU),
1571119222,2019-10-15 06:00:22.359,Acquired,Acquired,Acquired,,Acquired,Acquired,Acquired,Acquired,,,,,3.22007616E2,2.8314982399999997E2,1.465556E2,,1.1504871999999999E2,6.0641672E1,1.6968929599999998E2,2.93214816E2,,,,,1.3779392E1,2.12314E1,3.0673265999999998E1,,4.5657416E1,5.109984E1,4.8595164E1,5.8115975999999996E1,,,,,7,8,10,,20,21,26,27,,,,,1,5,15,,6,10,15,9,,,,,
1571119282,2019-10-15 06:01:22.352,Acquired,Acquired,Acquired,,Acquired,Acquired,Acquired,Acquired,,,,,3.22007616E2,2.8314982399999997E2,1.465556E2,,1.1504871999999999E2,6.0641672E1,1.6968929599999998E2,2.93214816E2,,,,,1.3779392E1,2.12314E1,3.0673265999999998E1,,4.5657416E1,5.109984E1,4.8595164E1,5.8115975999999996E1,,,,,7,8,10,,20,21,26,27,,,,,1,5,15,,6,10,15,9,,,,,
1571119342,2019-10-15 06:02:22.352,Acquired,Acquired,Acquired,,Acquired,Acquired,Acquired,Acquired,,,,,3.22007616E2,2.8314982399999997E2,1.465556E2,,1.1504871999999999E2,6.0641672E1,1.6968929599999998E2,2.93214816E2,,,,,1.3779392E1,2.12314E1,3.0673265999999998E1,,4.5657416E1,5.109984E1,4.8595164E1,5.8115975999999996E1,,,,,7,8,10,,20,21,26,27,,,,,1,5,15,,6,10,15,9,,,,,
1571119402,2019-10-15 06:03:22.352,Acquired,Acquired,Acquired,,Acquired,Acquired,Acquired,Acquired,,,,,3.22007616E2,2.8314982399999997E2,1.465556E2,,1.1504871999999999E2,6.0641672E1,1.6968929599999998E2,2.93214816E2,,,,,1.3779392E1,2.12314E1,3.0673265999999998E1,,4.5657416E1,5.109984E1,4.8595164E1,5.8115975999999996E1,,,,,7,8,10,,20,21,26,27,,,,,1,5,15,,6,10,15,9,,,,,
1571119462,2019-10-15 06:04:22.354,Acquired,Acquired,Acquired,,Acquired,Acquired,Acquired,Acquired,,,,,3.22007616E2,2.8314982399999997E2,1.465556E2,,1.1504871999999999E2,6.0641672E1,1.6968929599999998E2,2.93214816E2,,,,,1.3779392E1,2.12314E1,3.0673265999999998E1,,4.5657416E1,5.109984E1,4.8595164E1,5.8115975999999996E1,,,,,7,8,10,,20,21,26,27,,,,,1,5,15,,6,10,15,9,,,,,
1571119522,2019-10-15 06:05:22.352,Acquired,Acquired,Acquired,,Acquired,Acquired,Acquired,Acquired,,,,,3.22007616E2,2.8314982399999997E2,1.465556E2,,1.1504871999999999E2,6.0641672E1,1.6968929599999998E2,2.93214816E2,,,,,1.3779392E1,2.12314E1,3.0673265999999998E1,,4.5657416E1,5.109984E1,4.8595164E1,5.8115975999999996E1,,,,,7,8,10,,20,21,26,27,,,,,1,5,15,,6,10,15,9,,,,,
1571119582,2019-10-15 06:06:22.352,Acquired,Acquired,Acquired,,Acquired,Acquired,Acquired,Acquired,,,,,3.22007616E2,2.8314982399999997E2,1.465556E2,,1.1504871999999999E2,6.0641672E1,1.6968929599999998E2,2.93214816E2,,,,,1.3779392E1,2.12314E1,3.0673265999999998E1,,4.5657416E1,5.109984E1,4.8595164E1,5.8115975999999996E1,,,,,7,8,10,,20,21,26,27,,,,,1,5,15,,6,10,15,9,,,,,
1571119642,2019-10-15 06:07:22.352,Acquired,Acquired,Acquired,,Acquired,Acquired,Acquired,Acquired,,,,,3.22007616E2,2.8314982399999997E2,1.465556E2,,1.1504871999999999E2,6.0641672E1,1.6968929599999998E2,2.93214816E2,,,,,1.3779392E1,2.12314E1,3.0673265999999998E1,,4.5657416E1,5.109984E1,4.8595164E1,5.8115975999999996E1,,,,,7,8,10,,20,21,26,27,,,,,1,5,15,,6,10,15,9,,,,,
1571119702,2019-10-15 06:08:22.352,Acquired,Acquired,Acquired,,Acquired,Acquired,Acquired,Acquired,,,,,3.22007616E2,2.8314982399999997E2,1.465556E2,,1.1504871999999999E2,6.0641672E1,1.6968929599999998E2,2.93214816E2,,,,,1.3779392E1,2.12314E1,3.0673265999999998E1,,4.5657416E1,5.109984E1,4.8595164E1,5.8115975999999996E1,,,,,7,8,10,,20,21,26,27,,,,,1,5,15,,6,10,15,9,,,,,
1571119762,2019-10-15 06:09:22.352,Acquired,Acquired,Acquired,,Acquired,Acquired,Acquired,Acquired,,,,,3.22007616E2,2.8314982399999997E2,1.465556E2,,1.1504871999999999E2,6.0641672E1,1.6968929599999998E2,2.93214816E2,,,,,1.3779392E1,2.12314E1,3.0673265999999998E1,,4.5657416E1,5.109984E1,4.8595164E1,5.8115975999999996E1,,,,,7,8,10,,20,21,26,27,,,,,1,5,15,,6,10,15,9,,,,,
1571119822,2019-10-15 06:10:22.352,Acquired,Acquired,Acquired,,Acquired,Acquired,Acquired,Acquired,,,,,3.22007616E2,2.8314982399999997E2,1.465556E2,,1.1504871999999999E2,6.0641672E1,1.6968929599999998E2,2.93214816E2,,,,,1.3779392E1,2.12314E1,3.0673265999999998E1,,4.5657416E1,5.109984E1,4.8595164E1,5.8115975999999996E1,,,,,7,8,10,,20,21,26,27,,,,,1,5,15,,6,10,15,9,,,,,
1571119882,2019-10-15 06:11:22.352,Acquired,Acquired,Acquired,,Acquired,Acquired,Acquired,Acquired,,,,,3.22007616E2,2.8314982399999997E2,1.465556E2,,1.1504871999999999E2,6.0641672E1,1.6968929599999998E2,2.93214816E2,,,,,1.3779392E1,2.12314E1,3.0673265999999998E1,,4.5657416E1,5.109984E1,4.8595164E1,5.8115975999999996E1,,,,,7,8,10,,20,21,26,27,,,,,1,5,15,,6,10,15,9,,,,,
1571119942,2019-10-15 06:12:22.353,Acquired,Acquired,Acquired,,Acquired,Acquired,Acquired,Acquired,,,,,3.22007616E2,2.8314982399999997E2,1.465556E2,,1.1504871999999999E2,6.0641672E1,1.6968929599999998E2,2.93214816E2,,,,,1.3779392E1,2.12314E1,3.0673265999999998E1,,4.5657416E1,5.109984E1,4.8595164E1,5.8115975999999996E1,,,,,7,8,10,,20,21,26,27,,,,,1,5,15,,6,10,15,9,,,,,
1571120002,2019-10-15 06:13:22.353,Acquired,Acquired,Acquired,,Acquired,Acquired,Acquired,Acquired,,,,,3.22007616E2,2.8314982399999997E2,1.465556E2,,1.1504871999999999E2,6.0641672E1,1.6968929599999998E2,2.93214816E2,,,,,1.3779392E1,2.12314E1,3.0673265999999998E1,,4.5657416E1,5.109984E1,4.8595164E1,5.8115975999999996E1,,,,,7,8,10,,20,21,26,27,,,,,1,5,15,,6,10,15,9,,,,,
1571120062,2019-10-15 06:14:22.352,Acquired,Acquired,Acquired,Acquired,Acquired,Acquired,Acquired,Acquired,,,,,3.2165363199999996E2,2.8338611199999997E2,1.4631332799999998E2,2.03632288E2,1.1447376799999999E2,6.0567899999999995E1,1.69664304E2,2.9359430399999997E2,,,,,1.3922372999999999E1,2.1596988E1,3.1082349999999998E1,7.3958952E1,4.5889123999999995E1,5.070498E1,4.811752E1,5.8529824E1,,,,,7,8,10,16,20,21,26,27,,,,,3,5,10,10,8,11,15,7,,,,,
1571120122,2019-10-15 06:15:22.352,Acquired,Acquired,Acquired,Acquired,Acquired,Acquired,Acquired,Acquired,,,,,3.2165363199999996E2,2.8338611199999997E2,1.4631332799999998E2,2.03632288E2,1.1447376799999999E2,6.0567899999999995E1,1.69664304E2,2.9359430399999997E2,,,,,1.3922372999999999E1,2.1596988E1,3.1082349999999998E1,7.3958952E1,4.5889123999999995E1,5.070498E1,4.811752E1,5.8529824E1,,,,,7,8,10,16,20,21,26,27,,,,,3,5,10,10,8,11,15,7,,,,,
1571120182,2019-10-15 06:16:22.352,Acquired,Acquired,Acquired,Acquired,Acquired,Acquired,Acquired,Acquired,,,,,3.2165363199999996E2,2.8338611199999997E2,1.4631332799999998E2,2.03632288E2,1.1447376799999999E2,6.0567899999999995E1,1.69664304E2,2.9359430399999997E2,,,,,1.3922372999999999E1,2.1596988E1,3.1082349999999998E1,7.3958952E1,4.5889123999999995E1,5.070498E1,4.811752E1,5.8529824E1,,,,,7,8,10,16,20,21,26,27,,,,,3,5,10,10,8,11,15,7,,,,,
1571120242,2019-10-15 06:17:22.352,Acquired,Acquired,Acquired,Acquired,Acquired,Acquired,Acquired,Acquired,,,,,3.2165363199999996E2,2.8338611199999997E2,1.4631332799999998E2,2.03632288E2,1.1447376799999999E2,6.0567899999999995E1,1.69664304E2,2.9359430399999997E2,,,,,1.3922372999999999E1,2.1596988E1,3.1082349999999998E1,7.3958952E1,4.5889123999999995E1,5.070498E1,4.811752E1,5.8529824E1,,,,,7,8,10,16,20,21,26,27,,,,,3,5,10,10,8,11,15,7,,,,,
1571120302,2019-10-15 06:18:22.352,Acquired,Acquired,Acquired,Acquired,Acquired,Acquired,Acquired,Acquired,,,,,3.2165363199999996E2,2.8338611199999997E2,1.4631332799999998E2,2.03632288E2,1.1447376799999999E2,6.0567899999999995E1,1.69664304E2,2.9359430399999997E2,,,,,1.3922372999999999E1,2.1596988E1,3.1082349999999998E1,7.3958952E1,4.5889123999999995E1,5.070498E1,4.811752E1,5.8529824E1,,,,,7,8,10,16,20,21,26,27,,,,,3,5,10,10,8,11,15,7,,,,,
1571120362,2019-10-15 06:19:22.352,Acquired,Acquired,Acquired,Acquired,Acquired,Acquired,Acquired,Acquired,,,,,3.2165363199999996E2,2.8338611199999997E2,1.4631332799999998E2,2.03632288E2,1.1447376799999999E2,6.0567899999999995E1,1.69664304E2,2.9359430399999997E2,,,,,1.3922372999999999E1,2.1596988E1,3.1082349999999998E1,7.3958952E1,4.5889123999999995E1,5.070498E1,4.811752E1,5.8529824E1,,,,,7,8,10,16,20,21,26,27,,,,,3,5,10,10,8,11,15,7,,,,,
1571120422,2019-10-15 06:20:22.354,Acquired,Acquired,Acquired,Acquired,Acquired,Acquired,Acquired,Acquired,,,,,3.2165363199999996E2,2.8338611199999997E2,1.4631332799999998E2,2.03632288E2,1.1447376799999999E2,6.0567899999999995E1,1.69664304E2,2.9359430399999997E2,,,,,1.3922372999999999E1,2.1596988E1,3.1082349999999998E1,7.3958952E1,4.5889123999999995E1,5.070498E1,4.811752E1,5.8529824E1,,,,,7,8,10,16,20,21,26,27,,,,,3,5,10,10,8,11,15,7,,,,,
1571120482,2019-10-15 06:21:22.352,Acquired,Acquired,Acquired,Acquired,Acquired,Acquired,Acquired,Acquired,,,,,3.2165363199999996E2,2.8338611199999997E2,1.4631332799999998E2,2.03632288E2,1.1447376799999999E2,6.0567899999999995E1,1.69664304E2,2.9359430399999997E2,,,,,1.3922372999999999E1,2.1596988E1,3.1082349999999998E1,7.3958952E1,4.5889123999999995E1,5.070498E1,4.811752E1,5.8529824E1,,,,,7,8,10,16,20,21,26,27,,,,,3,5,10,10,8,11,15,7,,,,,
1571120542,2019-10-15 06:22:22.352,Acquired,Acquired,Acquired,Acquired,Acquired,Acquired,Acquired,Acquired,,,,,3.2165363199999996E2,2.8338611199999997E2,1.4631332799999998E2,2.03632288E2,1.1447376799999999E2,6.0567899999999995E1,1.69664304E2,2.9359430399999997E2,,,,,1.3922372999999999E1,2.1596988E1,3.1082349999999998E1,7.3958952E1,4.5889123999999995E1,5.070498E1,4.811752E1,5.8529824E1,,,,,7,8,10,16,20,21,26,27,,,,,3,5,10,10,8,11,15,7,,,,,
1571120602,2019-10-15 06:23:22.390,Acquired,Acquired,Acquired,Acquired,Acquired,Acquired,Acquired,Acquired,,,,,3.2165363199999996E2,2.8338611199999997E2,1.4631332799999998E2,2.03632288E2,1.1447376799999999E2,6.0567899999999995E1,1.69664304E2,2.9359430399999997E2,,,,,1.3922372999999999E1,2.1596988E1,3.1082349999999998E1,7.3958952E1,4.5889123999999995E1,5.070498E1,4.811752E1,5.8529824E1,,,,,7,8,10,16,20,21,26,27,,,,,3,5,10,10,8,11,15,7,,,,,
1571120662,2019-10-15 06:24:22.352,Acquired,Acquired,Acquired,Acquired,Acquired,Acquired,Acquired,Acquired,,,,,3.2165363199999996E2,2.8338611199999997E2,1.4631332799999998E2,2.03632288E2,1.1447376799999999E2,6.0567899999999995E1,1.69664304E2,2.9359430399999997E2,,,,,1.3922372999999999E1,2.1596988E1,3.1082349999999998E1,7.3958952E1,4.5889123999999995E1,5.070498E1,4.811752E1,5.8529824E1,,,,,7,8,10,16,20,21,26,27,,,,,3,5,10,10,8,11,15,7,,,,,
1571120722,2019-10-15 06:25:22.352,Acquired,Acquired,Acquired,Acquired,Acquired,Acquired,Acquired,Acquired,,,,,3.2165363199999996E2,2.8338611199999997E2,1.4631332799999998E2,2.03632288E2,1.1447376799999999E2,6.0567899999999995E1,1.69664304E2,2.9359430399999997E2,,,,,1.3922372999999999E1,2.1596988E1,3.1082349999999998E1,7.3958952E1,4.5889123999999995E1,5.070498E1,4.811752E1,5.8529824E1,,,,,7,8,10,16,20,21,26,27,,,,,3,5,10,10,8,11,15,7,,,,,
1571120782,2019-10-15 06:26:22.352,Acquired,Acquired,Acquired,Acquired,Acquired,Acquired,Acquired,Acquired,,,,,3.2165363199999996E2,2.8338611199999997E2,1.4631332799999998E2,2.03632288E2,1.1447376799999999E2,6.0567899999999995E1,1.69664304E2,2.9359430399999997E2,,,,,1.3922372999999999E1,2.1596988E1,3.1082349999999998E1,7.3958952E1,4.5889123999999995E1,5.070498E1,4.811752E1,5.8529824E1,,,,,7,8,10,16,20,21,26,27,,,,,3,5,10,10,8,11,15,7,,,,,
1571120842,2019-10-15 06:27:22.352,Acquired,Acquired,Acquired,Acquired,Acquired,Acquired,Acquired,Acquired,,,,,3.2165363199999996E2,2.8338611199999997E2,1.4631332799999998E2,2.03632288E2,1.1447376799999999E2,6.0567899999999995E1,1.69664304E2,2.9359430399999997E2,,,,,1.3922372999999999E1,2.1596988E1,3.1082349999999998E1,7.3958952E1,4.5889123999999995E1,5.070498E1,4.811752E1,5.8529824E1,,,,,7,8,10,16,20,21,26,27,,,,,3,5,10,10,8,11,15,7,,,,,
1571120902,2019-10-15 06:28:22.352,Acquired,Acquired,Acquired,Acquired,Acquired,Acquired,Acquired,Acquired,,,,,3.2165363199999996E2,2.8338611199999997E2,1.4631332799999998E2,2.03632288E2,1.1447376799999999E2,6.0567899999999995E1,1.69664304E2,2.9359430399999997E2,,,,,1.3922372999999999E1,2.1596988E1,3.1082349999999998E1,7.3958952E1,4.5889123999999995E1,5.070498E1,4.811752E1,5.8529824E1,,,,,7,8,10,16,20,21,26,27,,,,,3,5,10,10,8,11,15,7,,,,,
1571120962,2019-10-15 06:29:22.353,Acquired,Acquired,Acquired,Acquired,Acquired,Acquired,Acquired,Acquired,,,,,3.2165363199999996E2,2.8338611199999997E2,1.4631332799999998E2,2.03632288E2,1.1447376799999999E2,6.0567899999999995E1,1.69664304E2,2.9359430399999997E2,,,,,1.3922372999999999E1,2.1596988E1,3.1082349999999998E1,7.3958952E1,4.5889123999999995E1,5.070498E1,4.811752E1,5.8529824E1,,,,,7,8,10,16,20,21,26,27,,,,,3,5,10,10,8,11,15,7,,,,,
1571121022,2019-10-15 06:30:22.352,Acquired,Acquired,Acquired,Acquired,Acquired,Acquired,Acquired,Acquired,,,,,3.2165363199999996E2,2.8338611199999997E2,1.4631332799999998E2,2.03632288E2,1.1447376799999999E2,6.0567899999999995E1,1.69664304E2,2.9359430399999997E2,,,,,1.3922372999999999E1,2.1596988E1,3.1082349999999998E1,7.3958952E1,4.5889123999999995E1,5.070498E1,4.811752E1,5.8529824E1,,,,,7,8,10,16,20,21,26,27,,,,,3,5,10,10,8,11,15,7,,,,,
1571121082,2019-10-15 06:31:22.381,Acquired,Acquired,Acquired,Acquired,Acquired,Acquired,Acquired,Acquired,,,,,3.2165363199999996E2,2.8338611199999997E2,1.4631332799999998E2,2.03632288E2,1.1447376799999999E2,6.0567899999999995E1,1.69664304E2,2.9359430399999997E2,,,,,1.3922372999999999E1,2.1596988E1,3.1082349999999998E1,7.3958952E1,4.5889123999999995E1,5.070498E1,4.811752E1,5.8529824E1,,,,,7,8,10,16,20,21,26,27,,,,,3,5,10,10,8,11,15,7,,,,,
1571121142,2019-10-15 06:32:22.352,Acquired,Acquired,Acquired,Acquired,Acquired,Acquired,Acquired,Acquired,,,,,3.2165363199999996E2,2.8338611199999997E2,1.4631332799999998E2,2.03632288E2,1.1447376799999999E2,6.0567899999999995E1,1.69664304E2,2.9359430399999997E2,,,,,1.3922372999999999E1,2.1596988E1,3.1082349999999998E1,7.3958952E1,4.5889123999999995E1,5.070498E1,4.811752E1,5.8529824E1,,,,,7,8,10,16,20,21,26,27,,,,,3,5,10,10,8,11,15,7,,,,,
1571121202,2019-10-15 06:33:22.352,Acquired,Acquired,Acquired,Acquired,Acquired,Acquired,Acquired,Acquired,,,,,3.2165363199999996E2,2.8338611199999997E2,1.4631332799999998E2,2.03632288E2,1.1447376799999999E2,6.0567899999999995E1,1.69664304E2,2.9359430399999997E2,,,,,1.3922372999999999E1,2.1596988E1,3.1082349999999998E1,7.3958952E1,4.5889123999999995E1,5.070498E1,4.811752E1,5.8529824E1,,,,,7,8,10,16,20,21,26,27,,,,,3,5,10,10,8,11,15,7,,,,,
1571121262,2019-10-15 06:34:22.354,Acquired,Acquired,Acquired,Acquired,Acquired,Acquired,Acquired,Acquired,,,,,3.2165363199999996E2,2.8338611199999997E2,1.4631332799999998E2,2.03632288E2,1.1447376799999999E2,6.0567899999999995E1,1.69664304E2,2.9359430399999997E2,,,,,1.3922372999999999E1,2.1596988E1,3.1082349999999998E1,7.3958952E1,4.5889123999999995E1,5.070498E1,4.811752E1,5.8529824E1,,,,,7,8,10,16,20,21,26,27,,,,,3,5,10,10,8,11,15,7,,,,,
1571121322,2019-10-15 06:35:22.352,Acquired,Acquired,Acquired,Acquired,Acquired,Acquired,Acquired,Acquired,,,,,3.2165363199999996E2,2.8338611199999997E2,1.4631332799999998E2,2.03632288E2,1.1447376799999999E2,6.0567899999999995E1,1.69664304E2,2.9359430399999997E2,,,,,1.3922372999999999E1,2.1596988E1,3.1082349999999998E1,7.3958952E1,4.5889123999999995E1,5.070498E1,4.811752E1,5.8529824E1,,,,,7,8,10,16,20,21,26,27,,,,,3,5,10,10,8,11,15,7,,,,,
1571121382,2019-10-15 06:36:22.393,Acquired,Acquired,Acquired,Acquired,Acquired,Acquired,Acquired,Acquired,,,,,3.2165363199999996E2,2.8338611199999997E2,1.4631332799999998E2,2.03632288E2,1.1447376799999999E2,6.0567899999999995E1,1.69664304E2,2.9359430399999997E2,,,,,1.3922372999999999E1,2.1596988E1,3.1082349999999998E1,7.3958952E1,4.5889123999999995E1,5.070498E1,4.811752E1,5.8529824E1,,,,,7,8,10,16,20,21,26,27,,,,,3,5,10,10,8,11,15,7,,,,,
1571121442,2019-10-15 06:37:22.353,Acquired,Acquired,Acquired,Acquired,Acquired,Acquired,Acquired,Acquired,,,,,3.2165363199999996E2,2.8338611199999997E2,1.4631332799999998E2,2.03632288E2,1.1447376799999999E2,6.0567899999999995E1,1.69664304E2,2.9359430399999997E2,,,,,1.3922372999999999E1,2.1596988E1,3.1082349999999998E1,7.3958952E1,4.5889123999999995E1,5.070498E1,4.811752E1,5.8529824E1,,,,,7,8,10,16,20,21,26,27,,,,,3,5,10,10,8,11,15,7,,,,,
1571121502,2019-10-15 06:38:22.352,Acquired,Acquired,Acquired,Acquired,Acquired,Acquired,Acquired,Acquired,,,,,3.2165363199999996E2,2.8338611199999997E2,1.4631332799999998E2,2.03632288E2,1.1447376799999999E2,6.0567899999999995E1,1.69664304E2,2.9359430399999997E2,,,,,1.3922372999999999E1,2.1596988E1,3.1082349999999998E1,7.3958952E1,4.5889123999999995E1,5.070498E1,4.811752E1,5.8529824E1,,,,,7,8,10,16,20,21,26,27,,,,,3,5,10,10,8,11,15,7,,,,,
1571121562,2019-10-15 06:39:22.352,Acquired,Acquired,Acquired,Acquired,Acquired,Acquired,Acquired,Acquired,,,,,3.2165363199999996E2,2.8338611199999997E2,1.4631332799999998E2,2.03632288E2,1.1447376799999999E2,6.0567899999999995E1,1.69664304E2,2.9359430399999997E2,,,,,1.3922372999999999E1,2.1596988E1,3.1082349999999998E1,7.3958952E1,4.5889123999999995E1,5.070498E1,4.811752E1,5.8529824E1,,,,,7,8,10,16,20,21,26,27,,,,,3,5,10,10,8,11,15,7,,,,,
1571121622,2019-10-15 06:40:22.352,Acquired,Acquired,Acquired,Acquired,Acquired,Acquired,Acquired,Acquired,,,,,3.2165363199999996E2,2.8338611199999997E2,1.4631332799999998E2,2.03632288E2,1.1447376799999999E2,6.0567899999999995E1,1.69664304E2,2.9359430399999997E2,,,,,1.3922372999999999E1,2.1596988E1,3.1082349999999998E1,7.3958952E1,4.5889123999999995E1,5.070498E1,4.811752E1,5.8529824E1,,,,,7,8,10,16,20,21,26,27,,,,,3,5,10,10,8,11,15,7,,,,,
1571121682,2019-10-15 06:41:22.352,Acquired,Acquired,Acquired,Acquired,Acquired,Acquired,Acquired,Acquired,,,,,3.2165363199999996E2,2.8338611199999997E2,1.4631332799999998E2,2.03632288E2,1.1447376799999999E2,6.0567899999999995E1,1.69664304E2,2.9359430399999997E2,,,,,1.3922372999999999E1,2.1596988E1,3.1082349999999998E1,7.3958952E1,4.5889123999999995E1,5.070498E1,4.811752E1,5.8529824E1,,,,,7,8,10,16,20,21,26,27,,,,,3,5,10,10,8,11,15,7,,,,,
1571121742,2019-10-15 06:42:22.352,Acquired,Acquired,Acquired,Acquired,Acquired,Acquired,Acquired,Acquired,,,,,3.2165363199999996E2,2.8338611199999997E2,1.4631332799999998E2,2.03632288E2,1.1447376799999999E2,6.0567899999999995E1,1.69664304E2,2.9359430399999997E2,,,,,1.3922372999999999E1,2.1596988E1,3.1082349999999998E1,7.3958952E1,4.5889123999999995E1,5.070498E1,4.811752E1,5.8529824E1,,,,,7,8,10,16,20,21,26,27,,,,,3,5,10,10,8,11,15,7,,,,,
1571121802,2019-10-15 06:43:22.352,Acquired,Acquired,Acquired,Acquired,Acquired,Acquired,Acquired,Acquired,,,,,3.2165363199999996E2,2.8338611199999997E2,1.4631332799999998E2,2.03632288E2,1.1447376799999999E2,6.0567899999999995E1,1.69664304E2,2.9359430399999997E2,,,,,1.3922372999999999E1,2.1596988E1,3.1082349999999998E1,7.3958952E1,4.5889123999999995E1,5.070498E1,4.811752E1,5.8529824E1,,,,,7,8,10,16,20,21,26,27,,,,,3,5,10,10,8,11,15,7,,,,,
1571121862,2019-10-15 06:44:22.352,Acquired,Acquired,Acquired,Acquired,Acquired,Acquired,Acquired,Acquired,,,,,3.2165363199999996E2,2.8338611199999997E2,1.4631332799999998E2,2.03632288E2,1.1447376799999999E2,6.0567899999999995E1,1.69664304E2,2.9359430399999997E2,,,,,1.3922372999999999E1,2.1596988E1,3.1082349999999998E1,7.3958952E1,4.5889123999999995E1,5.070498E1,4.811752E1,5.8529824E1,,,,,7,8,10,16,20,21,26,27,,,,,3,5,10,10,8,11,15,7,,,,,
1571121922,2019-10-15 06:45:22.352,Acquired,Acquired,Acquired,Acquired,Acquired,Acquired,Acquired,Acquired,,,,,3.2165363199999996E2,2.8338611199999997E2,1.4631332799999998E2,2.03632288E2,1.1447376799999999E2,6.0567899999999995E1,1.69664304E2,2.9359430399999997E2,,,,,1.3922372999999999E1,2.1596988E1,3.1082349999999998E1,7.3958952E1,4.5889123999999995E1,5.070498E1,4.811752E1,5.8529824E1,,,,,7,8,10,16,20,21,26,27,,,,,3,5,10,10,8,11,15,7,,,,,
1571121982,2019-10-15 06:46:22.352,Acquired,Acquired,Acquired,Acquired,Acquired,Acquired,Acquired,Acquired,,,,,3.2165363199999996E2,2.8338611199999997E2,1.4631332799999998E2,2.03632288E2,1.1447376799999999E2,6.0567899999999995E1,1.69664304E2,2.9359430399999997E2,,,,,1.3922372999999999E1,2.1596988E1,3.1082349999999998E1,7.3958952E1,4.5889123999999995E1,5.070498E1,4.811752E1,5.8529824E1,,,,,7,8,10,16,20,21,26,27,,,,,3,5,10,10,8,11,15,7,,,,,
1571122042,2019-10-15 06:47:22.352,Acquired,Acquired,Acquired,Acquired,Acquired,Acquired,Acquired,Acquired,,,,,3.2165363199999996E2,2.8338611199999997E2,1.4631332799999998E2,2.03632288E2,1.1447376799999999E2,6.0567899999999995E1,1.69664304E2,2.9359430399999997E2,,,,,1.3922372999999999E1,2.1596988E1,3.1082349999999998E1,7.3958952E1,4.5889123999999995E1,5.070498E1,4.811752E1,5.8529824E1,,,,,7,8,10,16,20,21,26,27,,,,,3,5,10,10,8,11,15,7,,,,,
1571122102,2019-10-15 06:48:22.352,Acquired,Acquired,Acquired,Acquired,Acquired,Acquired,Acquired,Acquired,,,,,3.2165363199999996E2,2.8338611199999997E2,1.4631332799999998E2,2.03632288E2,1.1447376799999999E2,6.0567899999999995E1,1.69664304E2,2.9359430399999997E2,,,,,1.3922372999999999E1,2.1596988E1,3.1082349999999998E1,7.3958952E1,4.5889123999999995E1,5.070498E1,4.811752E1,5.8529824E1,,,,,7,8,10,16,20,21,26,27,,,,,3,5,10,10,8,11,15,7,,,,,
1571122162,2019-10-15 06:49:22.352,Acquired,Acquired,Acquired,Acquired,Acquired,Acquired,Acquired,Acquired,,,,,3.2165363199999996E2,2.8338611199999997E2,1.4631332799999998E2,2.03632288E2,1.1447376799999999E2,6.0567899999999995E1,1.69664304E2,2.9359430399999997E2,,,,,1.3922372999999999E1,2.1596988E1,3.1082349999999998E1,7.3958952E1,4.5889123999999995E1,5.070498E1,4.811752E1,5.8529824E1,,,,,7,8,10,16,20,21,26,27,,,,,3,5,10,10,8,11,15,7,,,,,
1571122222,2019-10-15 06:50:22.354,Acquired,Acquired,Acquired,Acquired,Acquired,Acquired,Acquired,Acquired,,,,,3.2165363199999996E2,2.8338611199999997E2,1.4631332799999998E2,2.03632288E2,1.1447376799999999E2,6.0567899999999995E1,1.69664304E2,2.9359430399999997E2,,,,,1.3922372999999999E1,2.1596988E1,3.1082349999999998E1,7.3958952E1,4.5889123999999995E1,5.070498E1,4.811752E1,5.8529824E1,,,,,7,8,10,16,20,21,26,27,,,,,3,5,10,10,8,11,15,7,,,,,
1571122282,2019-10-15 06:51:22.352,Acquired,Acquired,Acquired,Acquired,Acquired,Acquired,Acquired,Acquired,,,,,3.2165363199999996E2,2.8338611199999997E2,1.4631332799999998E2,2.03632288E2,1.1447376799999999E2,6.0567899999999995E1,1.69664304E2,2.9359430399999997E2,,,,,1.3922372999999999E1,2.1596988E1,3.1082349999999998E1,7.3958952E1,4.5889123999999995E1,5.070498E1,4.811752E1,5.8529824E1,,,,,7,8,10,16,20,21,26,27,,,,,3,5,10,10,8,11,15,7,,,,,
1571122342,2019-10-15 06:52:22.352,Acquired,Acquired,Acquired,Acquired,Acquired,Acquired,Acquired,Acquired,,,,,3.2165363199999996E2,2.8338611199999997E2,1.4631332799999998E2,2.03632288E2,1.1447376799999999E2,6.0567899999999995E1,1.69664304E2,2.9359430399999997E2,,,,,1.3922372999999999E1,2.1596988E1,3.1082349999999998E1,7.3958952E1,4.5889123999999995E1,5.070498E1,4.811752E1,5.8529824E1,,,,,7,8,10,16,20,21,26,27,,,,,3,5,10,10,8,11,15,7,,,,,
1571122402,2019-10-15 06:53:22.352,Acquired,Acquired,Acquired,Acquired,Acquired,Acquired,Acquired,Acquired,,,,,3.2165363199999996E2,2.8338611199999997E2,1.4631332799999998E2,2.03632288E2,1.1447376799999999E2,6.0567899999999995E1,1.69664304E2,2.9359430399999997E2,,,,,1.3922372999999999E1,2.1596988E1,3.1082349999999998E1,7.3958952E1,4.5889123999999995E1,5.070498E1,4.811752E1,5.8529824E1,,,,,7,8,10,16,20,21,26,27,,,,,3,5,10,10,8,11,15,7,,,,,
1571122462,2019-10-15 06:54:22.362,Acquired,Acquired,Acquired,Acquired,Acquired,Acquired,Acquired,Acquired,,,,,3.2165363199999996E2,2.8338611199999997E2,1.4631332799999998E2,2.03632288E2,1.1447376799999999E2,6.0567899999999995E1,1.69664304E2,2.9359430399999997E2,,,,,1.3922372999999999E1,2.1596988E1,3.1082349999999998E1,7.3958952E1,4.5889123999999995E1,5.070498E1,4.811752E1,5.8529824E1,,,,,7,8,10,16,20,21,26,27,,,,,3,5,10,10,8,11,15,7,,,,,
1571122522,2019-10-15 06:55:22.352,Acquired,Acquired,Acquired,Acquired,Acquired,Acquired,Acquired,Acquired,,,,,3.2165363199999996E2,2.8338611199999997E2,1.4631332799999998E2,2.03632288E2,1.1447376799999999E2,6.0567899999999995E1,1.69664304E2,2.9359430399999997E2,,,,,1.3922372999999999E1,2.1596988E1,3.1082349999999998E1,7.3958952E1,4.5889123999999995E1,5.070498E1,4.811752E1,5.8529824E1,,,,,7,8,10,16,20,21,26,27,,,,,3,5,10,10,8,11,15,7,,,,,
1571122582,2019-10-15 06:56:22.354,Acquired,Acquired,Acquired,Acquired,Acquired,Acquired,Acquired,Acquired,,,,,3.2165363199999996E2,2.8338611199999997E2,1.4631332799999998E2,2.03632288E2,1.1447376799999999E2,6.0567899999999995E1,1.69664304E2,2.9359430399999997E2,,,,,1.3922372999999999E1,2.1596988E1,3.1082349999999998E1,7.3958952E1,4.5889123999999995E1,5.070498E1,4.811752E1,5.8529824E1,,,,,7,8,10,16,20,21,26,27,,,,,3,5,10,10,8,11,15,7,,,,,
1571122642,2019-10-15 06:57:22.352,Acquired,Acquired,Acquired,Acquired,Acquired,Acquired,Acquired,Acquired,,,,,3.2165363199999996E2,2.8338611199999997E2,1.4631332799999998E2,2.03632288E2,1.1447376799999999E2,6.0567899999999995E1,1.69664304E2,2.9359430399999997E2,,,,,1.3922372999999999E1,2.1596988E1,3.1082349999999998E1,7.3958952E1,4.5889123999999995E1,5.070498E1,4.811752E1,5.8529824E1,,,,,7,8,10,16,20,21,26,27,,,,,3,5,10,10,8,11,15,7,,,,,
1571122702,2019-10-15 06:58:22.352,Acquired,Acquired,Acquired,Acquired,Acquired,Acquired,Acquired,Acquired,,,,,3.2165363199999996E2,2.8338611199999997E2,1.4631332799999998E2,2.03632288E2,1.1447376799999999E2,6.0567899999999995E1,1.69664304E2,2.9359430399999997E2,,,,,1.3922372999999999E1,2.1596988E1,3.1082349999999998E1,7.3958952E1,4.5889123999999995E1,5.070498E1,4.811752E1,5.8529824E1,,,,,7,8,10,16,20,21,26,27,,,,,3,5,10,10,8,11,15,7,,,,,
1571122762,2019-10-15 06:59:22.352,Acquired,Acquired,Acquired,Acquired,Acquired,Acquired,Acquired,Acquired,,,,,3.2165363199999996E2,2.8338611199999997E2,1.4631332799999998E2,2.03632288E2,1.1447376799999999E2,6.0567899999999995E1,1.69664304E2,2.9359430399999997E2,,,,,1.3922372999999999E1,2.1596988E1,3.1082349999999998E1,7.3958952E1,4.5889123999999995E1,5.070498E1,4.811752E1,5.8529824E1,,,,,7,8,10,16,20,21,26,27,,,,,3,5,10,10,8,11,15,7,,,,,
