Time(longsecs),Time(UTC),GPS Satellite Acquisition Flag 1,GPS Satellite Acquisition Flag 2,GPS Satellite Acquisition Flag 3,GPS Satellite Acquisition Flag 4,GPS Satellite Acquisition Flag 5,GPS Satellite Acquisition Flag 6,GPS Satellite Acquisition Flag 7,GPS Satellite Acquisition Flag 8,GPS Satellite Acquisition Flag 9,GPS Satellite Acquisition Flag 10,GPS Satellite Acquisition Flag 11,GPS Satellite Acquisition Flag 12,GPS Satellite Azimuth 1(Degrees),GPS Satellite Azimuth 2(Degrees),GPS Satellite Azimuth 3(Degrees),GPS Satellite Azimuth 4(Degrees),GPS Satellite Azimuth 5(Degrees),GPS Satellite Azimuth 6(Degrees),GPS Satellite Azimuth 7(Degrees),GPS Satellite Azimuth 8(Degrees),GPS Satellite Azimuth 9(Degrees),GPS Satellite Azimuth 10(Degrees),GPS Satellite Azimuth 11(Degrees),GPS Satellite Azimuth 12(Degrees),GPS Satellite Elevation 1(Degrees),GPS Satellite Elevation 2(Degrees),GPS Satellite Elevation 3(Degrees),GPS Satellite Elevation 4(Degrees),GPS Satellite Elevation 5(Degrees),GPS Satellite Elevation 6(Degrees),GPS Satellite Elevation 7(Degrees),GPS Satellite Elevation 8(Degrees),GPS Satellite Elevation 9(Degrees),GPS Satellite Elevation 10(Degrees),GPS Satellite Elevation 11(Degrees),GPS Satellite Elevation 12(Degrees),GPS Satellite PRN 1,GPS Satellite PRN 2,GPS Satellite PRN 3,GPS Satellite PRN 4,GPS Satellite PRN 5,GPS Satellite PRN 6,GPS Satellite PRN 7,GPS Satellite PRN 8,GPS Satellite PRN 9,GPS Satellite PRN 10,GPS Satellite PRN 11,GPS Satellite PRN 12,GPS Satellite Signal Level 1(AMU),GPS Satellite Signal Level 2(AMU),GPS Satellite Signal Level 3(AMU),GPS Satellite Signal Level 4(AMU),GPS Satellite Signal Level 5(AMU),GPS Satellite Signal Level 6(AMU),GPS Satellite Signal Level 7(AMU),GPS Satellite Signal Level 8(AMU),GPS Satellite Signal Level 9(AMU),GPS Satellite Signal Level 10(AMU),GPS Satellite Signal Level 11(AMU),GPS Satellite Signal Level 12(AMU),
1571115622,2019-10-15 05:00:22.352,Acquired,Acquired,Acquired,Acquired,Acquired,Not acquired,Acquired,Acquired,,,,,2.93887776E2,1.37100272E2,8.331048E1,1.82022416E2,2.7551523199999997E2,7.986452799999999E1,1.56714464E2,1.9509616E2,,,,,6.942804E1,2.8627266E1,7.0263024E1,7.365156E1,3.6865224E1,1.7323764E1,9.394247E0,1.0883507999999999E1,,,,,16,20,21,26,27,29,10,31,,,,,9,5,15,14,2,2,1,2,,,,,
1571115682,2019-10-15 05:01:22.352,Acquired,Acquired,Acquired,Acquired,Acquired,Not acquired,Acquired,Acquired,,,,,2.93887776E2,1.37100272E2,8.331048E1,1.82022416E2,2.7551523199999997E2,7.986452799999999E1,1.56714464E2,1.9509616E2,,,,,6.942804E1,2.8627266E1,7.0263024E1,7.365156E1,3.6865224E1,1.7323764E1,9.394247E0,1.0883507999999999E1,,,,,16,20,21,26,27,29,10,31,,,,,9,5,15,14,2,2,1,2,,,,,
1571115742,2019-10-15 05:02:22.352,Acquired,Acquired,Acquired,Acquired,Acquired,Not acquired,Acquired,Acquired,,,,,2.93887776E2,1.37100272E2,8.331048E1,1.82022416E2,2.7551523199999997E2,7.986452799999999E1,1.56714464E2,1.9509616E2,,,,,6.942804E1,2.8627266E1,7.0263024E1,7.365156E1,3.6865224E1,1.7323764E1,9.394247E0,1.0883507999999999E1,,,,,16,20,21,26,27,29,10,31,,,,,9,5,15,14,2,2,1,2,,,,,
1571115802,2019-10-15 05:03:22.352,Acquired,Acquired,Acquired,Acquired,Acquired,Not acquired,Acquired,Acquired,,,,,2.93887776E2,1.37100272E2,8.331048E1,1.82022416E2,2.7551523199999997E2,7.986452799999999E1,1.56714464E2,1.9509616E2,,,,,6.942804E1,2.8627266E1,7.0263024E1,7.365156E1,3.6865224E1,1.7323764E1,9.394247E0,1.0883507999999999E1,,,,,16,20,21,26,27,29,10,31,,,,,9,5,15,14,2,2,1,2,,,,,
1571115862,2019-10-15 05:04:22.390,Acquired,Acquired,Acquired,Acquired,Acquired,Not acquired,Acquired,Acquired,,,,,2.93887776E2,1.37100272E2,8.331048E1,1.82022416E2,2.7551523199999997E2,7.986452799999999E1,1.56714464E2,1.9509616E2,,,,,6.942804E1,2.8627266E1,7.0263024E1,7.365156E1,3.6865224E1,1.7323764E1,9.394247E0,1.0883507999999999E1,,,,,16,20,21,26,27,29,10,31,,,,,9,5,15,14,2,2,1,2,,,,,
1571115922,2019-10-15 05:05:22.352,Acquired,Acquired,Acquired,Acquired,Acquired,Not acquired,Acquired,Acquired,,,,,2.93887776E2,1.37100272E2,8.331048E1,1.82022416E2,2.7551523199999997E2,7.986452799999999E1,1.56714464E2,1.9509616E2,,,,,6.942804E1,2.8627266E1,7.0263024E1,7.365156E1,3.6865224E1,1.7323764E1,9.394247E0,1.0883507999999999E1,,,,,16,20,21,26,27,29,10,31,,,,,9,5,15,14,2,2,1,2,,,,,
1571115982,2019-10-15 05:06:22.352,Acquired,Acquired,Acquired,Acquired,Acquired,Not acquired,Acquired,Acquired,,,,,2.93887776E2,1.37100272E2,8.331048E1,1.82022416E2,2.7551523199999997E2,7.986452799999999E1,1.56714464E2,1.9509616E2,,,,,6.942804E1,2.8627266E1,7.0263024E1,7.365156E1,3.6865224E1,1.7323764E1,9.394247E0,1.0883507999999999E1,,,,,16,20,21,26,27,29,10,31,,,,,9,5,15,14,2,2,1,2,,,,,
1571116042,2019-10-15 05:07:22.352,Acquired,Acquired,Acquired,Acquired,Acquired,Not acquired,Acquired,Acquired,,,,,2.93887776E2,1.37100272E2,8.331048E1,1.82022416E2,2.7551523199999997E2,7.986452799999999E1,1.56714464E2,1.9509616E2,,,,,6.942804E1,2.8627266E1,7.0263024E1,7.365156E1,3.6865224E1,1.7323764E1,9.394247E0,1.0883507999999999E1,,,,,16,20,21,26,27,29,10,31,,,,,9,5,15,14,2,2,1,2,,,,,
1571116102,2019-10-15 05:08:22.352,Acquired,Acquired,Acquired,Acquired,Acquired,Not acquired,Acquired,Acquired,,,,,2.93887776E2,1.37100272E2,8.331048E1,1.82022416E2,2.7551523199999997E2,7.986452799999999E1,1.56714464E2,1.9509616E2,,,,,6.942804E1,2.8627266E1,7.0263024E1,7.365156E1,3.6865224E1,1.7323764E1,9.394247E0,1.0883507999999999E1,,,,,16,20,21,26,27,29,10,31,,,,,9,5,15,14,2,2,1,2,,,,,
1571116162,2019-10-15 05:09:22.352,Acquired,Acquired,Acquired,Acquired,Acquired,Not acquired,Acquired,Acquired,,,,,2.93887776E2,1.37100272E2,8.331048E1,1.82022416E2,2.7551523199999997E2,7.986452799999999E1,1.56714464E2,1.9509616E2,,,,,6.942804E1,2.8627266E1,7.0263024E1,7.365156E1,3.6865224E1,1.7323764E1,9.394247E0,1.0883507999999999E1,,,,,16,20,21,26,27,29,10,31,,,,,9,5,15,14,2,2,1,2,,,,,
1571116222,2019-10-15 05:10:22.352,Acquired,Acquired,Acquired,Acquired,Acquired,Not acquired,Acquired,Acquired,,,,,2.93887776E2,1.37100272E2,8.331048E1,1.82022416E2,2.7551523199999997E2,7.986452799999999E1,1.56714464E2,1.9509616E2,,,,,6.942804E1,2.8627266E1,7.0263024E1,7.365156E1,3.6865224E1,1.7323764E1,9.394247E0,1.0883507999999999E1,,,,,16,20,21,26,27,29,10,31,,,,,9,5,15,14,2,2,1,2,,,,,
1571116282,2019-10-15 05:11:22.354,Acquired,Acquired,Acquired,Acquired,Acquired,Not acquired,Acquired,Acquired,,,,,2.93887776E2,1.37100272E2,8.331048E1,1.82022416E2,2.7551523199999997E2,7.986452799999999E1,1.56714464E2,1.9509616E2,,,,,6.942804E1,2.8627266E1,7.0263024E1,7.365156E1,3.6865224E1,1.7323764E1,9.394247E0,1.0883507999999999E1,,,,,16,20,21,26,27,29,10,31,,,,,9,5,15,14,2,2,1,2,,,,,
1571116342,2019-10-15 05:12:22.352,Acquired,Acquired,Acquired,Acquired,Acquired,Not acquired,Acquired,Acquired,,,,,2.93887776E2,1.37100272E2,8.331048E1,1.82022416E2,2.7551523199999997E2,7.986452799999999E1,1.56714464E2,1.9509616E2,,,,,6.942804E1,2.8627266E1,7.0263024E1,7.365156E1,3.6865224E1,1.7323764E1,9.394247E0,1.0883507999999999E1,,,,,16,20,21,26,27,29,10,31,,,,,9,5,15,14,2,2,1,2,,,,,
1571116402,2019-10-15 05:13:22.352,Acquired,Acquired,Acquired,Acquired,Acquired,Not acquired,Acquired,Acquired,,,,,2.93887776E2,1.37100272E2,8.331048E1,1.82022416E2,2.7551523199999997E2,7.986452799999999E1,1.56714464E2,1.9509616E2,,,,,6.942804E1,2.8627266E1,7.0263024E1,7.365156E1,3.6865224E1,1.7323764E1,9.394247E0,1.0883507999999999E1,,,,,16,20,21,26,27,29,10,31,,,,,9,5,15,14,2,2,1,2,,,,,
1571116462,2019-10-15 05:14:22.354,Acquired,Acquired,Acquired,Acquired,Acquired,Not acquired,Acquired,Acquired,,,,,2.93887776E2,1.37100272E2,8.331048E1,1.82022416E2,2.7551523199999997E2,7.986452799999999E1,1.56714464E2,1.9509616E2,,,,,6.942804E1,2.8627266E1,7.0263024E1,7.365156E1,3.6865224E1,1.7323764E1,9.394247E0,1.0883507999999999E1,,,,,16,20,21,26,27,29,10,31,,,,,9,5,15,14,2,2,1,2,,,,,
1571116522,2019-10-15 05:15:22.352,Acquired,Acquired,Acquired,Acquired,Acquired,Not acquired,Acquired,Acquired,,,,,2.93887776E2,1.37100272E2,8.331048E1,1.82022416E2,2.7551523199999997E2,7.986452799999999E1,1.56714464E2,1.9509616E2,,,,,6.942804E1,2.8627266E1,7.0263024E1,7.365156E1,3.6865224E1,1.7323764E1,9.394247E0,1.0883507999999999E1,,,,,16,20,21,26,27,29,10,31,,,,,9,5,15,14,2,2,1,2,,,,,
1571116582,2019-10-15 05:16:22.390,Acquired,Acquired,Acquired,Acquired,Acquired,Not acquired,Acquired,Acquired,,,,,2.93887776E2,1.37100272E2,8.331048E1,1.82022416E2,2.7551523199999997E2,7.986452799999999E1,1.56714464E2,1.9509616E2,,,,,6.942804E1,2.8627266E1,7.0263024E1,7.365156E1,3.6865224E1,1.7323764E1,9.394247E0,1.0883507999999999E1,,,,,16,20,21,26,27,29,10,31,,,,,9,5,15,14,2,2,1,2,,,,,
1571116642,2019-10-15 05:17:22.352,Acquired,Acquired,Acquired,Acquired,Acquired,Not acquired,Acquired,Acquired,,,,,2.93887776E2,1.37100272E2,8.331048E1,1.82022416E2,2.7551523199999997E2,7.986452799999999E1,1.56714464E2,1.9509616E2,,,,,6.942804E1,2.8627266E1,7.0263024E1,7.365156E1,3.6865224E1,1.7323764E1,9.394247E0,1.0883507999999999E1,,,,,16,20,21,26,27,29,10,31,,,,,9,5,15,14,2,2,1,2,,,,,
1571116702,2019-10-15 05:18:22.352,Acquired,Acquired,Acquired,Acquired,Acquired,Not acquired,Acquired,Acquired,,,,,2.93887776E2,1.37100272E2,8.331048E1,1.82022416E2,2.7551523199999997E2,7.986452799999999E1,1.56714464E2,1.9509616E2,,,,,6.942804E1,2.8627266E1,7.0263024E1,7.365156E1,3.6865224E1,1.7323764E1,9.394247E0,1.0883507999999999E1,,,,,16,20,21,26,27,29,10,31,,,,,9,5,15,14,2,2,1,2,,,,,
1571116762,2019-10-15 05:19:22.384,Acquired,Acquired,Acquired,Acquired,Acquired,Not acquired,Acquired,Acquired,,,,,2.93887776E2,1.37100272E2,8.331048E1,1.82022416E2,2.7551523199999997E2,7.986452799999999E1,1.56714464E2,1.9509616E2,,,,,6.942804E1,2.8627266E1,7.0263024E1,7.365156E1,3.6865224E1,1.7323764E1,9.394247E0,1.0883507999999999E1,,,,,16,20,21,26,27,29,10,31,,,,,9,5,15,14,2,2,1,2,,,,,
1571116822,2019-10-15 05:20:22.352,Acquired,Acquired,Acquired,Acquired,Acquired,Not acquired,Acquired,Acquired,,,,,2.93887776E2,1.37100272E2,8.331048E1,1.82022416E2,2.7551523199999997E2,7.986452799999999E1,1.56714464E2,1.9509616E2,,,,,6.942804E1,2.8627266E1,7.0263024E1,7.365156E1,3.6865224E1,1.7323764E1,9.394247E0,1.0883507999999999E1,,,,,16,20,21,26,27,29,10,31,,,,,9,5,15,14,2,2,1,2,,,,,
1571116882,2019-10-15 05:21:22.354,Acquired,Acquired,Acquired,Acquired,Acquired,Not acquired,Acquired,Acquired,,,,,2.93887776E2,1.37100272E2,8.331048E1,1.82022416E2,2.7551523199999997E2,7.986452799999999E1,1.56714464E2,1.9509616E2,,,,,6.942804E1,2.8627266E1,7.0263024E1,7.365156E1,3.6865224E1,1.7323764E1,9.394247E0,1.0883507999999999E1,,,,,16,20,21,26,27,29,10,31,,,,,9,5,15,14,2,2,1,2,,,,,
1571116942,2019-10-15 05:22:22.352,Acquired,Acquired,Acquired,Acquired,Acquired,Not acquired,Acquired,Acquired,,,,,2.93887776E2,1.37100272E2,8.331048E1,1.82022416E2,2.7551523199999997E2,7.986452799999999E1,1.56714464E2,1.9509616E2,,,,,6.942804E1,2.8627266E1,7.0263024E1,7.365156E1,3.6865224E1,1.7323764E1,9.394247E0,1.0883507999999999E1,,,,,16,20,21,26,27,29,10,31,,,,,9,5,15,14,2,2,1,2,,,,,
1571117002,2019-10-15 05:23:22.352,Acquired,Acquired,Acquired,Acquired,Acquired,Not acquired,Acquired,Acquired,,,,,2.93887776E2,1.37100272E2,8.331048E1,1.82022416E2,2.7551523199999997E2,7.986452799999999E1,1.56714464E2,1.9509616E2,,,,,6.942804E1,2.8627266E1,7.0263024E1,7.365156E1,3.6865224E1,1.7323764E1,9.394247E0,1.0883507999999999E1,,,,,16,20,21,26,27,29,10,31,,,,,9,5,15,14,2,2,1,2,,,,,
1571117062,2019-10-15 05:24:22.352,Acquired,Acquired,Acquired,Acquired,Acquired,Not acquired,Acquired,Acquired,,,,,2.93887776E2,1.37100272E2,8.331048E1,1.82022416E2,2.7551523199999997E2,7.986452799999999E1,1.56714464E2,1.9509616E2,,,,,6.942804E1,2.8627266E1,7.0263024E1,7.365156E1,3.6865224E1,1.7323764E1,9.394247E0,1.0883507999999999E1,,,,,16,20,21,26,27,29,10,31,,,,,9,5,15,14,2,2,1,2,,,,,
1571117122,2019-10-15 05:25:22.352,Acquired,Acquired,Acquired,Acquired,Acquired,Not acquired,Acquired,Acquired,,,,,2.93887776E2,1.37100272E2,8.331048E1,1.82022416E2,2.7551523199999997E2,7.986452799999999E1,1.56714464E2,1.9509616E2,,,,,6.942804E1,2.8627266E1,7.0263024E1,7.365156E1,3.6865224E1,1.7323764E1,9.394247E0,1.0883507999999999E1,,,,,16,20,21,26,27,29,10,31,,,,,9,5,15,14,2,2,1,2,,,,,
1571117182,2019-10-15 05:26:22.352,Acquired,Acquired,Acquired,Acquired,Acquired,Not acquired,Acquired,Acquired,,,,,2.93887776E2,1.37100272E2,8.331048E1,1.82022416E2,2.7551523199999997E2,7.986452799999999E1,1.56714464E2,1.9509616E2,,,,,6.942804E1,2.8627266E1,7.0263024E1,7.365156E1,3.6865224E1,1.7323764E1,9.394247E0,1.0883507999999999E1,,,,,16,20,21,26,27,29,10,31,,,,,9,5,15,14,2,2,1,2,,,,,
1571117242,2019-10-15 05:27:22.352,Acquired,Acquired,Acquired,Acquired,Acquired,Acquired,Not acquired,Acquired,,,,,2.93249824E2,1.3681086399999998E2,8.2306304E1,1.81285248E2,2.75817728E2,8.0115008E1,1.5654817599999998E2,1.94967264E2,,,,,6.9855096E1,2.8991562E1,7.000147199999999E1,7.322192799999999E1,3.7247732E1,1.6973768E1,9.770942999999999E0,1.0496958E1,,,,,16,20,21,26,27,29,10,31,,,,,6,4,11,15,3,2,1,1,,,,,
1571117302,2019-10-15 05:28:22.352,Acquired,Acquired,Acquired,,Acquired,Acquired,Acquired,Acquired,,,,,3.22007616E2,2.8314982399999997E2,1.465556E2,,1.1504871999999999E2,6.0641672E1,1.6968929599999998E2,2.93214816E2,,,,,1.3779392E1,2.12314E1,3.0673265999999998E1,,4.5657416E1,5.109984E1,4.8595164E1,5.8115975999999996E1,,,,,7,8,10,,20,21,26,27,,,,,1,5,15,,6,10,15,9,,,,,
1571117362,2019-10-15 05:29:22.352,Acquired,Acquired,Acquired,,Acquired,Acquired,Acquired,Acquired,,,,,3.22007616E2,2.8314982399999997E2,1.465556E2,,1.1504871999999999E2,6.0641672E1,1.6968929599999998E2,2.93214816E2,,,,,1.3779392E1,2.12314E1,3.0673265999999998E1,,4.5657416E1,5.109984E1,4.8595164E1,5.8115975999999996E1,,,,,7,8,10,,20,21,26,27,,,,,1,5,15,,6,10,15,9,,,,,
1571117422,2019-10-15 05:30:22.352,Acquired,Acquired,Acquired,,Acquired,Acquired,Acquired,Acquired,,,,,3.22007616E2,2.8314982399999997E2,1.465556E2,,1.1504871999999999E2,6.0641672E1,1.6968929599999998E2,2.93214816E2,,,,,1.3779392E1,2.12314E1,3.0673265999999998E1,,4.5657416E1,5.109984E1,4.8595164E1,5.8115975999999996E1,,,,,7,8,10,,20,21,26,27,,,,,1,5,15,,6,10,15,9,,,,,
1571117482,2019-10-15 05:31:22.352,Acquired,Acquired,Acquired,,Acquired,Acquired,Acquired,Acquired,,,,,3.22007616E2,2.8314982399999997E2,1.465556E2,,1.1504871999999999E2,6.0641672E1,1.6968929599999998E2,2.93214816E2,,,,,1.3779392E1,2.12314E1,3.0673265999999998E1,,4.5657416E1,5.109984E1,4.8595164E1,5.8115975999999996E1,,,,,7,8,10,,20,21,26,27,,,,,1,5,15,,6,10,15,9,,,,,
1571117542,2019-10-15 05:32:22.353,Acquired,Acquired,Acquired,,Acquired,Acquired,Acquired,Acquired,,,,,3.22007616E2,2.8314982399999997E2,1.465556E2,,1.1504871999999999E2,6.0641672E1,1.6968929599999998E2,2.93214816E2,,,,,1.3779392E1,2.12314E1,3.0673265999999998E1,,4.5657416E1,5.109984E1,4.8595164E1,5.8115975999999996E1,,,,,7,8,10,,20,21,26,27,,,,,1,5,15,,6,10,15,9,,,,,
1571117602,2019-10-15 05:33:22.352,Acquired,Acquired,Acquired,,Acquired,Acquired,Acquired,Acquired,,,,,3.22007616E2,2.8314982399999997E2,1.465556E2,,1.1504871999999999E2,6.0641672E1,1.6968929599999998E2,2.93214816E2,,,,,1.3779392E1,2.12314E1,3.0673265999999998E1,,4.5657416E1,5.109984E1,4.8595164E1,5.8115975999999996E1,,,,,7,8,10,,20,21,26,27,,,,,1,5,15,,6,10,15,9,,,,,
1571117662,2019-10-15 05:34:22.352,Acquired,Acquired,Acquired,,Acquired,Acquired,Acquired,Acquired,,,,,3.22007616E2,2.8314982399999997E2,1.465556E2,,1.1504871999999999E2,6.0641672E1,1.6968929599999998E2,2.93214816E2,,,,,1.3779392E1,2.12314E1,3.0673265999999998E1,,4.5657416E1,5.109984E1,4.8595164E1,5.8115975999999996E1,,,,,7,8,10,,20,21,26,27,,,,,1,5,15,,6,10,15,9,,,,,
1571117722,2019-10-15 05:35:22.352,Acquired,Acquired,Acquired,,Acquired,Acquired,Acquired,Acquired,,,,,3.22007616E2,2.8314982399999997E2,1.465556E2,,1.1504871999999999E2,6.0641672E1,1.6968929599999998E2,2.93214816E2,,,,,1.3779392E1,2.12314E1,3.0673265999999998E1,,4.5657416E1,5.109984E1,4.8595164E1,5.8115975999999996E1,,,,,7,8,10,,20,21,26,27,,,,,1,5,15,,6,10,15,9,,,,,
1571117782,2019-10-15 05:36:22.352,Acquired,Acquired,Acquired,,Acquired,Acquired,Acquired,Acquired,,,,,3.22007616E2,2.8314982399999997E2,1.465556E2,,1.1504871999999999E2,6.0641672E1,1.6968929599999998E2,2.93214816E2,,,,,1.3779392E1,2.12314E1,3.0673265999999998E1,,4.5657416E1,5.109984E1,4.8595164E1,5.8115975999999996E1,,,,,7,8,10,,20,21,26,27,,,,,1,5,15,,6,10,15,9,,,,,
1571117842,2019-10-15 05:37:22.352,Acquired,Acquired,Acquired,,Acquired,Acquired,Acquired,Acquired,,,,,3.22007616E2,2.8314982399999997E2,1.465556E2,,1.1504871999999999E2,6.0641672E1,1.6968929599999998E2,2.93214816E2,,,,,1.3779392E1,2.12314E1,3.0673265999999998E1,,4.5657416E1,5.109984E1,4.8595164E1,5.8115975999999996E1,,,,,7,8,10,,20,21,26,27,,,,,1,5,15,,6,10,15,9,,,,,
1571117902,2019-10-15 05:38:22.353,Acquired,Acquired,Acquired,,Acquired,Acquired,Acquired,Acquired,,,,,3.22007616E2,2.8314982399999997E2,1.465556E2,,1.1504871999999999E2,6.0641672E1,1.6968929599999998E2,2.93214816E2,,,,,1.3779392E1,2.12314E1,3.0673265999999998E1,,4.5657416E1,5.109984E1,4.8595164E1,5.8115975999999996E1,,,,,7,8,10,,20,21,26,27,,,,,1,5,15,,6,10,15,9,,,,,
1571117962,2019-10-15 05:39:22.353,Acquired,Acquired,Acquired,,Acquired,Acquired,Acquired,Acquired,,,,,3.22007616E2,2.8314982399999997E2,1.465556E2,,1.1504871999999999E2,6.0641672E1,1.6968929599999998E2,2.93214816E2,,,,,1.3779392E1,2.12314E1,3.0673265999999998E1,,4.5657416E1,5.109984E1,4.8595164E1,5.8115975999999996E1,,,,,7,8,10,,20,21,26,27,,,,,1,5,15,,6,10,15,9,,,,,
1571118022,2019-10-15 05:40:22.352,Acquired,Acquired,Acquired,,Acquired,Acquired,Acquired,Acquired,,,,,3.22007616E2,2.8314982399999997E2,1.465556E2,,1.1504871999999999E2,6.0641672E1,1.6968929599999998E2,2.93214816E2,,,,,1.3779392E1,2.12314E1,3.0673265999999998E1,,4.5657416E1,5.109984E1,4.8595164E1,5.8115975999999996E1,,,,,7,8,10,,20,21,26,27,,,,,1,5,15,,6,10,15,9,,,,,
1571118082,2019-10-15 05:41:22.356,Acquired,Acquired,Acquired,,Acquired,Acquired,Acquired,Acquired,,,,,3.22007616E2,2.8314982399999997E2,1.465556E2,,1.1504871999999999E2,6.0641672E1,1.6968929599999998E2,2.93214816E2,,,,,1.3779392E1,2.12314E1,3.0673265999999998E1,,4.5657416E1,5.109984E1,4.8595164E1,5.8115975999999996E1,,,,,7,8,10,,20,21,26,27,,,,,1,5,15,,6,10,15,9,,,,,
1571118142,2019-10-15 05:42:22.352,Acquired,Acquired,Acquired,,Acquired,Acquired,Acquired,Acquired,,,,,3.22007616E2,2.8314982399999997E2,1.465556E2,,1.1504871999999999E2,6.0641672E1,1.6968929599999998E2,2.93214816E2,,,,,1.3779392E1,2.12314E1,3.0673265999999998E1,,4.5657416E1,5.109984E1,4.8595164E1,5.8115975999999996E1,,,,,7,8,10,,20,21,26,27,,,,,1,5,15,,6,10,15,9,,,,,
1571118202,2019-10-15 05:43:22.352,Acquired,Acquired,Acquired,,Acquired,Acquired,Acquired,Acquired,,,,,3.22007616E2,2.8314982399999997E2,1.465556E2,,1.1504871999999999E2,6.0641672E1,1.6968929599999998E2,2.93214816E2,,,,,1.3779392E1,2.12314E1,3.0673265999999998E1,,4.5657416E1,5.109984E1,4.8595164E1,5.8115975999999996E1,,,,,7,8,10,,20,21,26,27,,,,,1,5,15,,6,10,15,9,,,,,
1571118262,2019-10-15 05:44:22.352,Acquired,Acquired,Acquired,,Acquired,Acquired,Acquired,Acquired,,,,,3.22007616E2,2.8314982399999997E2,1.465556E2,,1.1504871999999999E2,6.0641672E1,1.6968929599999998E2,2.93214816E2,,,,,1.3779392E1,2.12314E1,3.0673265999999998E1,,4.5657416E1,5.109984E1,4.8595164E1,5.8115975999999996E1,,,,,7,8,10,,20,21,26,27,,,,,1,5,15,,6,10,15,9,,,,,
1571118322,2019-10-15 05:45:22.352,Acquired,Acquired,Acquired,,Acquired,Acquired,Acquired,Acquired,,,,,3.22007616E2,2.8314982399999997E2,1.465556E2,,1.1504871999999999E2,6.0641672E1,1.6968929599999998E2,2.93214816E2,,,,,1.3779392E1,2.12314E1,3.0673265999999998E1,,4.5657416E1,5.109984E1,4.8595164E1,5.8115975999999996E1,,,,,7,8,10,,20,21,26,27,,,,,1,5,15,,6,10,15,9,,,,,
1571118382,2019-10-15 05:46:22.352,Acquired,Acquired,Acquired,,Acquired,Acquired,Acquired,Acquired,,,,,3.22007616E2,2.8314982399999997E2,1.465556E2,,1.1504871999999999E2,6.0641672E1,1.6968929599999998E2,2.93214816E2,,,,,1.3779392E1,2.12314E1,3.0673265999999998E1,,4.5657416E1,5.109984E1,4.8595164E1,5.8115975999999996E1,,,,,7,8,10,,20,21,26,27,,,,,1,5,15,,6,10,15,9,,,,,
1571118442,2019-10-15 05:47:22.352,Acquired,Acquired,Acquired,,Acquired,Acquired,Acquired,Acquired,,,,,3.22007616E2,2.8314982399999997E2,1.465556E2,,1.1504871999999999E2,6.0641672E1,1.6968929599999998E2,2.93214816E2,,,,,1.3779392E1,2.12314E1,3.0673265999999998E1,,4.5657416E1,5.109984E1,4.8595164E1,5.8115975999999996E1,,,,,7,8,10,,20,21,26,27,,,,,1,5,15,,6,10,15,9,,,,,
1571118502,2019-10-15 05:48:22.352,Acquired,Acquired,Acquired,,Acquired,Acquired,Acquired,Acquired,,,,,3.22007616E2,2.8314982399999997E2,1.465556E2,,1.1504871999999999E2,6.0641672E1,1.6968929599999998E2,2.93214816E2,,,,,1.3779392E1,2.12314E1,3.0673265999999998E1,,4.5657416E1,5.109984E1,4.8595164E1,5.8115975999999996E1,,,,,7,8,10,,20,21,26,27,,,,,1,5,15,,6,10,15,9,,,,,
1571118562,2019-10-15 05:49:22.352,Acquired,Acquired,Acquired,,Acquired,Acquired,Acquired,Acquired,,,,,3.22007616E2,2.8314982399999997E2,1.465556E2,,1.1504871999999999E2,6.0641672E1,1.6968929599999998E2,2.93214816E2,,,,,1.3779392E1,2.12314E1,3.0673265999999998E1,,4.5657416E1,5.109984E1,4.8595164E1,5.8115975999999996E1,,,,,7,8,10,,20,21,26,27,,,,,1,5,15,,6,10,15,9,,,,,
1571118622,2019-10-15 05:50:22.352,Acquired,Acquired,Acquired,,Acquired,Acquired,Acquired,Acquired,,,,,3.22007616E2,2.8314982399999997E2,1.465556E2,,1.1504871999999999E2,6.0641672E1,1.6968929599999998E2,2.93214816E2,,,,,1.3779392E1,2.12314E1,3.0673265999999998E1,,4.5657416E1,5.109984E1,4.8595164E1,5.8115975999999996E1,,,,,7,8,10,,20,21,26,27,,,,,1,5,15,,6,10,15,9,,,,,
1571118682,2019-10-15 05:51:22.352,Acquired,Acquired,Acquired,,Acquired,Acquired,Acquired,Acquired,,,,,3.22007616E2,2.8314982399999997E2,1.465556E2,,1.1504871999999999E2,6.0641672E1,1.6968929599999998E2,2.93214816E2,,,,,1.3779392E1,2.12314E1,3.0673265999999998E1,,4.5657416E1,5.109984E1,4.8595164E1,5.8115975999999996E1,,,,,7,8,10,,20,21,26,27,,,,,1,5,15,,6,10,15,9,,,,,
1571118742,2019-10-15 05:52:22.352,Acquired,Acquired,Acquired,,Acquired,Acquired,Acquired,Acquired,,,,,3.22007616E2,2.8314982399999997E2,1.465556E2,,1.1504871999999999E2,6.0641672E1,1.6968929599999998E2,2.93214816E2,,,,,1.3779392E1,2.12314E1,3.0673265999999998E1,,4.5657416E1,5.109984E1,4.8595164E1,5.8115975999999996E1,,,,,7,8,10,,20,21,26,27,,,,,1,5,15,,6,10,15,9,,,,,
1571118802,2019-10-15 05:53:22.353,Acquired,Acquired,Acquired,,Acquired,Acquired,Acquired,Acquired,,,,,3.22007616E2,2.8314982399999997E2,1.465556E2,,1.1504871999999999E2,6.0641672E1,1.6968929599999998E2,2.93214816E2,,,,,1.3779392E1,2.12314E1,3.0673265999999998E1,,4.5657416E1,5.109984E1,4.8595164E1,5.8115975999999996E1,,,,,7,8,10,,20,21,26,27,,,,,1,5,15,,6,10,15,9,,,,,
1571118862,2019-10-15 05:54:22.354,Acquired,Acquired,Acquired,,Acquired,Acquired,Acquired,Acquired,,,,,3.22007616E2,2.8314982399999997E2,1.465556E2,,1.1504871999999999E2,6.0641672E1,1.6968929599999998E2,2.93214816E2,,,,,1.3779392E1,2.12314E1,3.0673265999999998E1,,4.5657416E1,5.109984E1,4.8595164E1,5.8115975999999996E1,,,,,7,8,10,,20,21,26,27,,,,,1,5,15,,6,10,15,9,,,,,
1571118922,2019-10-15 05:55:22.352,Acquired,Acquired,Acquired,,Acquired,Acquired,Acquired,Acquired,,,,,3.22007616E2,2.8314982399999997E2,1.465556E2,,1.1504871999999999E2,6.0641672E1,1.6968929599999998E2,2.93214816E2,,,,,1.3779392E1,2.12314E1,3.0673265999999998E1,,4.5657416E1,5.109984E1,4.8595164E1,5.8115975999999996E1,,,,,7,8,10,,20,21,26,27,,,,,1,5,15,,6,10,15,9,,,,,
1571118982,2019-10-15 05:56:22.352,Acquired,Acquired,Acquired,,Acquired,Acquired,Acquired,Acquired,,,,,3.22007616E2,2.8314982399999997E2,1.465556E2,,1.1504871999999999E2,6.0641672E1,1.6968929599999998E2,2.93214816E2,,,,,1.3779392E1,2.12314E1,3.0673265999999998E1,,4.5657416E1,5.109984E1,4.8595164E1,5.8115975999999996E1,,,,,7,8,10,,20,21,26,27,,,,,1,5,15,,6,10,15,9,,,,,
1571119042,2019-10-15 05:57:22.352,Acquired,Acquired,Acquired,,Acquired,Acquired,Acquired,Acquired,,,,,3.22007616E2,2.8314982399999997E2,1.465556E2,,1.1504871999999999E2,6.0641672E1,1.6968929599999998E2,2.93214816E2,,,,,1.3779392E1,2.12314E1,3.0673265999999998E1,,4.5657416E1,5.109984E1,4.8595164E1,5.8115975999999996E1,,,,,7,8,10,,20,21,26,27,,,,,1,5,15,,6,10,15,9,,,,,
1571119102,2019-10-15 05:58:22.354,Acquired,Acquired,Acquired,,Acquired,Acquired,Acquired,Acquired,,,,,3.22007616E2,2.8314982399999997E2,1.465556E2,,1.1504871999999999E2,6.0641672E1,1.6968929599999998E2,2.93214816E2,,,,,1.3779392E1,2.12314E1,3.0673265999999998E1,,4.5657416E1,5.109984E1,4.8595164E1,5.8115975999999996E1,,,,,7,8,10,,20,21,26,27,,,,,1,5,15,,6,10,15,9,,,,,
1571119162,2019-10-15 05:59:22.352,Acquired,Acquired,Acquired,,Acquired,Acquired,Acquired,Acquired,,,,,3.22007616E2,2.8314982399999997E2,1.465556E2,,1.1504871999999999E2,6.0641672E1,1.6968929599999998E2,2.93214816E2,,,,,1.3779392E1,2.12314E1,3.0673265999999998E1,,4.5657416E1,5.109984E1,4.8595164E1,5.8115975999999996E1,,,,,7,8,10,,20,21,26,27,,,,,1,5,15,,6,10,15,9,,,,,
