Time(longsecs),Time(UTC),External SOH Voltage 1(V),External SOH Voltage 2(V),External SOH Voltage 3(V),External SOH Voltage 4(V),Sensor SOH Voltage 1(V),Sensor SOH Voltage 2(V),Sensor SOH Voltage 3(V),
1571126422,2019-10-15 08:00:22.352,-1.4307499E-3,-8.437157E-3,-1.7311573E-3,-2.121687E-3,3.5586452E-1,3.49926E-1,3.5560608E-1,
1571126482,2019-10-15 08:01:22.352,2.2161007E-3,-5.9256554E-3,4.491806E-4,6.6161156E-4,3.6510658E-1,3.583908E-1,3.6786556E-1,
1571126542,2019-10-15 08:02:22.352,-7.0405006E-4,-8.479357E-3,-1.9080639E-3,-2.213478E-3,3.5604477E-1,3.5080242E-1,3.5805798E-1,
1571126602,2019-10-15 08:03:22.352,-3.1542778E-4,-8.331299E-3,-1.6314983E-3,-2.017498E-3,3.5822296E-1,3.5189342E-1,3.5831356E-1,
1571126662,2019-10-15 08:04:22.352,-6.752014E-4,-8.685827E-3,-1.8231869E-3,-2.4909973E-3,3.5676384E-1,3.5045528E-1,3.5719585E-1,
1571126722,2019-10-15 08:05:22.352,-5.9247017E-4,-8.045435E-3,-1.5647411E-3,-2.3686886E-3,3.576584E-1,3.5283566E-1,3.5972595E-1,
1571126782,2019-10-15 08:06:22.352,-2.2699833E-3,-1.0219097E-2,-3.4348965E-3,-3.8003922E-3,3.5227585E-1,3.4720135E-1,3.5595322E-1,
1571126842,2019-10-15 08:07:22.352,1.5909672E-3,-5.8305264E-3,5.9366226E-4,2.989769E-4,3.6276245E-1,3.568926E-1,3.6558437E-1,
1571126902,2019-10-15 08:08:22.352,-2.646923E-3,-1.0415077E-2,-3.2777786E-3,-3.7755966E-3,3.490305E-1,3.4474754E-1,3.5115528E-1,
1571126962,2019-10-15 08:09:22.352,-2.7315617E-3,-1.040411E-2,-3.543377E-3,-4.211426E-3,3.521471E-1,3.458128E-1,3.5504723E-1,
1571127022,2019-10-15 08:10:22.354,-4.3582916E-4,-8.618116E-3,-1.7280579E-3,-2.029419E-3,3.553915E-1,3.5151577E-1,3.5892963E-1,
1571127082,2019-10-15 08:11:22.352,-2.7546883E-3,-1.0247469E-2,-3.866434E-3,-3.8895607E-3,3.5309982E-1,3.4906197E-1,3.5541058E-1,
1571127142,2019-10-15 08:12:22.352,-7.534027E-5,-8.265495E-3,-1.0344982E-3,-1.4915466E-3,3.5752487E-1,3.524027E-1,3.6084557E-1,
1571127202,2019-10-15 08:13:22.352,-2.4027824E-3,-1.022172E-2,-3.3669472E-3,-3.4520626E-3,3.4909153E-1,3.4400368E-1,3.505268E-1,
1571127262,2019-10-15 08:14:22.352,-2.5691986E-3,-9.8109245E-3,-3.4656525E-3,-3.8130283E-3,3.4978867E-1,3.4620476E-1,3.5310936E-1,
1571127322,2019-10-15 08:15:22.352,-2.9847622E-3,-1.05443E-2,-4.112482E-3,-4.1470528E-3,3.5216618E-1,3.471632E-1,3.5432434E-1,
1571127382,2019-10-15 08:16:22.352,-2.3674965E-4,-7.281542E-3,-9.791851E-4,-1.543045E-3,3.5443592E-1,3.477888E-1,3.5738373E-1,
1571127442,2019-10-15 08:17:22.354,-2.5520325E-3,-1.0156393E-2,-3.6833286E-3,-3.8275719E-3,3.483162E-1,3.4266472E-1,3.5009956E-1,
1571127502,2019-10-15 08:18:22.352,1.3844967E-3,-6.277323E-3,9.3626976E-4,1.9669533E-4,3.639307E-1,3.6078835E-1,3.6838913E-1,
1571127562,2019-10-15 08:19:22.363,1.8320084E-3,-5.801916E-3,7.209778E-4,4.5371056E-4,3.664732E-1,3.616457E-1,3.6954594E-1,
1571127622,2019-10-15 08:20:22.352,1.8248558E-3,-5.5441856E-3,3.7264824E-4,6.7067146E-4,3.6415672E-1,3.5912418E-1,3.6554527E-1,
1571127682,2019-10-15 08:21:22.352,-1.2564659E-4,-7.6408386E-3,-1.7066002E-3,-1.770258E-3,3.5825825E-1,3.523445E-1,3.602333E-1,
1571127742,2019-10-15 08:22:22.352,-2.595663E-3,-1.0215759E-2,-3.4015179E-3,-3.9880276E-3,3.5130882E-1,3.472271E-1,3.5386372E-1,
1571127802,2019-10-15 08:23:22.352,-2.1362305E-4,-7.7281E-3,-1.1160374E-3,-1.342535E-3,3.5877705E-1,3.5229874E-1,3.6066055E-1,
1571127862,2019-10-15 08:24:22.352,-2.6443005E-3,-1.0628939E-2,-3.8795471E-3,-4.1959286E-3,3.50976E-1,3.4720993E-1,3.5374737E-1,
1571127922,2019-10-15 08:25:22.352,1.41716E-3,-5.9678555E-3,6.2417984E-4,7.7962875E-5,3.6631107E-1,3.61207E-1,3.6818218E-1,
1571127982,2019-10-15 08:26:22.352,1.676321E-3,-5.8817863E-3,1.5950203E-4,5.7697296E-5,3.636732E-1,3.586588E-1,3.661604E-1,
1571128042,2019-10-15 08:27:22.352,2.0201206E-3,-5.7713985E-3,3.9815903E-4,4.913807E-4,3.6306858E-1,3.5831642E-1,3.6485672E-1,
1571128102,2019-10-15 08:28:22.352,1.8885136E-3,-5.8157444E-3,9.0408325E-4,6.1273575E-4,3.645954E-1,3.5934162E-1,3.679924E-1,
1571128162,2019-10-15 08:29:22.352,-3.71933E-5,-7.6556206E-3,-1.4233589E-3,-1.7311573E-3,3.6091137E-1,3.551464E-1,3.6081505E-1,
1571128222,2019-10-15 08:30:22.384,-2.7155876E-4,-7.833004E-3,-1.1005402E-3,-1.7008781E-3,3.5890293E-1,3.547554E-1,3.6491394E-1,
1571128282,2019-10-15 08:31:22.352,-2.6743412E-3,-1.0488272E-2,-3.618002E-3,-4.3246746E-3,3.4894276E-1,3.4379387E-1,3.5313702E-1,
1571128342,2019-10-15 08:32:22.352,1.5058517E-3,-6.234169E-3,3.9458275E-4,1.6593933E-4,3.603773E-1,3.5560036E-1,3.6093044E-1,
1571128402,2019-10-15 08:33:22.352,-2.58255E-3,-9.65929E-3,-3.550291E-3,-3.7624836E-3,3.5458755E-1,3.4959602E-1,3.5573006E-1,
1571128462,2019-10-15 08:34:22.352,-3.0350685E-3,-1.0056734E-2,-3.3957958E-3,-4.454136E-3,3.5050488E-1,3.4562874E-1,3.5479355E-1,
1571128522,2019-10-15 08:35:22.356,-6.892681E-4,-8.388519E-3,-2.1028519E-3,-2.2115707E-3,3.5766983E-1,3.5335064E-1,3.5988426E-1,
1571128582,2019-10-15 08:36:22.352,-1.1651516E-3,-8.170605E-3,-1.9583702E-3,-2.0208359E-3,3.5731316E-1,3.5284328E-1,3.607931E-1,
1571128642,2019-10-15 08:37:22.352,-8.0418587E-4,-8.670092E-3,-1.8131733E-3,-2.2814274E-3,3.578186E-1,3.5185432E-1,3.5972595E-1,
1571128702,2019-10-15 08:38:22.352,1.3477802E-3,-6.0744286E-3,1.7404556E-5,-6.4373016E-6,3.6137867E-1,3.5765362E-1,3.6496925E-1,
1571128762,2019-10-15 08:39:22.352,-9.872913E-4,-8.414984E-3,-1.7056465E-3,-2.0868778E-3,3.599758E-1,3.544569E-1,3.61948E-1,
1571128822,2019-10-15 08:40:22.352,-4.7922134E-5,-8.126259E-3,-1.4259815E-3,-1.4562607E-3,3.6048412E-1,3.5510254E-1,3.6308575E-1,
1571128882,2019-10-15 08:41:22.352,-1.7499924E-4,-7.7273846E-3,-1.1210442E-3,-1.1065006E-3,3.579073E-1,3.5247993E-1,3.5864735E-1,
1571128942,2019-10-15 08:42:22.352,-6.043911E-4,-8.056879E-3,-1.491785E-3,-2.0291805E-3,3.5652256E-1,3.4999466E-1,3.5753822E-1,
1571129002,2019-10-15 08:43:22.352,1.8641949E-3,-6.123781E-3,6.5875053E-4,5.118847E-4,3.6366177E-1,3.5789394E-1,3.6504936E-1,
1571129062,2019-10-15 08:44:22.352,-2.434969E-3,-1.049161E-2,-3.3380985E-3,-4.312277E-3,3.5273266E-1,3.4710217E-1,3.533306E-1,
1571129122,2019-10-15 08:45:22.352,2.0048618E-3,-6.349802E-3,4.377365E-4,5.631447E-4,3.6249256E-1,3.563528E-1,3.6387348E-1,
1571129182,2019-10-15 08:46:22.352,3.170967E-5,-7.653713E-3,-1.1765957E-3,-1.2278557E-3,3.594942E-1,3.535242E-1,3.6018848E-1,
1571129242,2019-10-15 08:47:22.352,-9.82523E-4,-8.964062E-3,-1.5621185E-3,-2.0632744E-3,3.5599995E-1,3.5263634E-1,3.591137E-1,
1571129302,2019-10-15 08:48:22.354,-2.2482872E-3,-1.0409832E-2,-4.2612553E-3,-3.7708282E-3,3.5173893E-1,3.464365E-1,3.5571957E-1,
1571129362,2019-10-15 08:49:22.352,-3.1478405E-3,-1.015234E-2,-3.6170483E-3,-3.7362576E-3,3.519783E-1,3.4597588E-1,3.5374928E-1,
1571129422,2019-10-15 08:50:22.352,1.7626286E-3,-5.574703E-3,6.043911E-4,5.1784515E-4,3.6471653E-1,3.5710526E-1,3.663273E-1,
1571129482,2019-10-15 08:51:22.352,-1.1277199E-4,-8.060694E-3,-1.1732578E-3,-1.3744831E-3,3.5715485E-1,3.539791E-1,3.6028957E-1,
1571129542,2019-10-15 08:52:22.352,-9.908676E-4,-8.42309E-3,-1.992941E-3,-2.4425983E-3,3.5616016E-1,3.5085487E-1,3.5878754E-1,
1571129602,2019-10-15 08:53:22.352,1.4305115E-5,-7.7590942E-3,-9.791851E-4,-1.4226437E-3,3.5947323E-1,3.5271072E-1,3.5978985E-1,
1571129662,2019-10-15 08:54:22.352,-2.4716854E-3,-1.0247469E-2,-3.9744377E-3,-4.1258335E-3,3.4914684E-1,3.442068E-1,3.5279083E-1,
1571129722,2019-10-15 08:55:22.352,-1.0523796E-3,-8.432627E-3,-1.8048286E-3,-2.33984E-3,3.5900307E-1,3.5339642E-1,3.618431E-1,
1571129782,2019-10-15 08:56:22.352,-2.928257E-3,-1.0210276E-2,-3.6101341E-3,-3.5288334E-3,3.5027695E-1,3.480587E-1,3.538742E-1,
1571129842,2019-10-15 08:57:22.352,-2.53129E-3,-1.0450363E-2,-3.3507347E-3,-4.197359E-3,3.506689E-1,3.456564E-1,3.5390854E-1,
1571129902,2019-10-15 08:58:22.352,1.8930435E-3,-5.928755E-3,6.084442E-4,1.001358E-5,3.690548E-1,3.6411285E-1,3.713503E-1,
1571129962,2019-10-15 08:59:22.352,-8.2731247E-4,-8.654356E-3,-1.8494129E-3,-1.8205643E-3,3.5726166E-1,3.52067E-1,3.5779572E-1,
