Time(longsecs),Time(UTC),Supply Voltage(mV),Temperature(&deg;C),NMX Bus Current(mA),Sensor Current(mA),Serial Port Current(mA),Controller Current(mA),Digitizer Current(mA),
1571173222,2019-10-15 21:00:22.352,16420,1.9191467E1,0,7,0,40,36,
1571173282,2019-10-15 21:01:22.352,16420,1.909024E1,0,12,0,59,35,
1571173342,2019-10-15 21:02:22.385,16420,1.9003937E1,0,11,0,36,35,
1571173402,2019-10-15 21:03:22.352,16420,1.9176544E1,0,7,0,36,37,
1571173462,2019-10-15 21:04:22.352,16420,1.9159485E1,0,5,0,38,37,
1571173522,2019-10-15 21:05:22.352,16420,1.898581E1,0,6,0,38,36,
1571173582,2019-10-15 21:06:22.352,16420,1.882492E1,0,5,0,31,35,
1571173642,2019-10-15 21:07:22.352,16393,1.8937866E1,0,12,0,36,37,
1571173702,2019-10-15 21:08:22.352,16420,1.9188263E1,0,9,0,36,36,
1571173762,2019-10-15 21:09:22.354,16420,1.9155243E1,0,7,0,36,35,
1571173822,2019-10-15 21:10:22.352,16420,1.8982605E1,0,13,0,31,35,
1571173882,2019-10-15 21:11:22.352,16420,1.8735413E1,0,9,0,31,34,
1571173942,2019-10-15 21:12:22.352,16420,1.885794E1,0,9,0,36,35,
1571174002,2019-10-15 21:13:22.352,16420,1.8873932E1,0,9,0,31,35,
1571174062,2019-10-15 21:14:22.352,16420,1.8877136E1,0,6,0,36,35,
1571174122,2019-10-15 21:15:22.352,16406,1.9006073E1,0,6,0,31,37,
1571174182,2019-10-15 21:16:22.352,16420,1.8931488E1,0,6,0,31,37,
1571174242,2019-10-15 21:17:22.354,16420,1.8957031E1,0,8,0,37,39,
1571174302,2019-10-15 21:18:22.352,16420,1.8833435E1,0,9,0,36,36,
1571174362,2019-10-15 21:19:22.352,16420,1.898581E1,0,9,0,36,37,
1571174422,2019-10-15 21:20:22.352,16420,1.90018E1,0,14,0,35,34,
1571174482,2019-10-15 21:21:22.352,16420,1.8960236E1,0,6,0,31,40,
1571174542,2019-10-15 21:22:22.352,16420,1.886966E1,0,7,0,31,37,
1571174602,2019-10-15 21:23:22.352,16420,1.8788696E1,0,8,0,36,39,
1571174662,2019-10-15 21:24:22.352,16420,1.8982605E1,0,9,0,36,37,
1571174722,2019-10-15 21:25:22.353,16420,1.8884583E1,0,8,0,31,40,
1571174782,2019-10-15 21:26:22.353,16420,1.8815338E1,0,9,0,31,38,
1571174842,2019-10-15 21:27:22.353,16420,1.9020966E1,0,9,0,37,39,
1571174902,2019-10-15 21:28:22.354,16420,1.8747131E1,0,7,0,36,37,
1571174962,2019-10-15 21:29:22.354,16420,1.87482E1,0,9,0,37,42,
1571175022,2019-10-15 21:30:22.353,16406,1.8822784E1,0,11,0,32,32,
1571175082,2019-10-15 21:31:22.353,16420,1.8934662E1,0,11,0,36,34,
1571175142,2019-10-15 21:32:22.353,16420,1.8840912E1,0,9,0,38,37,
1571175202,2019-10-15 21:33:22.353,16406,1.8843048E1,0,6,0,36,35,
1571175262,2019-10-15 21:34:22.354,16420,1.8591583E1,0,9,0,36,37,
1571175322,2019-10-15 21:35:22.352,16420,1.8707703E1,0,3,0,31,35,
1571175382,2019-10-15 21:36:22.355,16420,1.8769531E1,0,9,0,31,36,
1571175442,2019-10-15 21:37:22.352,16406,1.8727966E1,0,9,0,35,34,
1571175502,2019-10-15 21:38:22.352,16420,1.872583E1,0,9,0,45,36,
1571175562,2019-10-15 21:39:22.352,16406,1.8778046E1,0,7,0,42,40,
1571175622,2019-10-15 21:40:22.352,16420,1.8567078E1,0,11,0,33,34,
1571175682,2019-10-15 21:41:22.362,16420,1.8865417E1,0,11,0,31,35,
1571175742,2019-10-15 21:42:22.362,16420,1.8707703E1,0,10,0,36,37,
1571175802,2019-10-15 21:43:22.352,16420,1.8787628E1,0,9,0,37,34,
1571175862,2019-10-15 21:44:22.367,16406,1.8678955E1,0,7,0,36,37,
1571175922,2019-10-15 21:45:22.380,16420,1.8716248E1,0,11,0,31,34,
1571175982,2019-10-15 21:46:22.352,16420,1.8561737E1,0,11,0,31,39,
1571176042,2019-10-15 21:47:22.352,16406,1.8612885E1,0,11,0,37,37,
1571176102,2019-10-15 21:48:22.352,16420,1.8536163E1,0,6,0,36,39,
1571176162,2019-10-15 21:49:22.352,16406,1.8641663E1,0,2,0,36,36,
1571176222,2019-10-15 21:50:22.352,16420,1.8570282E1,0,7,0,32,38,
1571176282,2019-10-15 21:51:22.352,16420,1.8544708E1,0,9,0,31,33,
1571176342,2019-10-15 21:52:22.352,16420,1.8677887E1,0,6,0,36,35,
1571176402,2019-10-15 21:53:22.352,16420,1.8520203E1,0,9,0,31,37,
1571176462,2019-10-15 21:54:22.352,16420,1.854895E1,0,10,0,36,35,
1571176522,2019-10-15 21:55:22.352,16420,1.8744995E1,0,9,0,31,40,
1571176582,2019-10-15 21:56:22.352,16420,1.8303894E1,0,6,0,33,36,
1571176642,2019-10-15 21:57:22.352,16420,1.8570282E1,0,9,0,37,38,
1571176702,2019-10-15 21:58:22.390,16420,1.833371E1,0,9,0,38,37,
1571176762,2019-10-15 21:59:22.352,16406,1.8546814E1,0,6,0,36,36,
