Time(longsecs),Time(UTC),Supply Voltage(mV),Temperature(&deg;C),NMX Bus Current(mA),Sensor Current(mA),Serial Port Current(mA),Controller Current(mA),Digitizer Current(mA),
1571180422,2019-10-15 23:00:22.352,16406,1.7984253E1,0,6,0,40,37,
1571180482,2019-10-15 23:01:22.352,16420,1.7776459E1,0,13,0,34,36,
1571180542,2019-10-15 23:02:22.352,16406,1.7909668E1,0,7,0,36,39,
1571180602,2019-10-15 23:03:22.353,16406,1.8084381E1,0,9,0,35,37,
1571180662,2019-10-15 23:04:22.356,16406,1.7628357E1,0,6,0,31,35,
1571180722,2019-10-15 23:05:22.352,16393,1.7975708E1,0,4,0,38,35,
1571180782,2019-10-15 23:06:22.352,16406,1.785852E1,0,6,0,31,40,
1571180842,2019-10-15 23:07:22.352,16406,1.7835083E1,0,7,0,37,36,
1571180902,2019-10-15 23:08:22.352,16406,1.7916046E1,0,8,0,34,37,
1571180962,2019-10-15 23:09:22.354,16393,1.7923492E1,0,8,0,36,37,
1571181022,2019-10-15 23:10:22.352,16433,1.7961853E1,0,8,0,34,40,
1571181082,2019-10-15 23:11:22.352,16406,1.7821228E1,0,10,0,32,41,
1571181142,2019-10-15 23:12:22.352,16420,1.7767944E1,0,6,0,35,38,
1571181202,2019-10-15 23:13:22.352,16406,1.7839325E1,0,12,0,36,35,
1571181262,2019-10-15 23:14:22.352,16406,1.783612E1,0,10,0,35,41,
1571181322,2019-10-15 23:15:22.352,16406,1.7957611E1,0,9,0,31,34,
1571181382,2019-10-15 23:16:22.352,16406,1.7683777E1,0,9,0,31,42,
1571181442,2019-10-15 23:17:22.352,16406,1.7757294E1,0,9,0,35,39,
1571181502,2019-10-15 23:18:22.352,16406,1.7893677E1,0,12,0,36,36,
1571181562,2019-10-15 23:19:22.354,16406,1.7793518E1,0,7,0,37,39,
1571181622,2019-10-15 23:20:22.352,16406,1.800769E1,0,9,0,31,34,
1571181682,2019-10-15 23:21:22.352,16393,1.7755157E1,0,7,0,35,40,
1571181742,2019-10-15 23:22:22.352,16393,1.7662445E1,0,15,0,37,37,
1571181802,2019-10-15 23:23:22.352,16393,1.79086E1,0,14,0,36,34,
1571181862,2019-10-15 23:24:22.352,16393,1.7696564E1,0,10,0,36,36,
1571181922,2019-10-15 23:25:22.352,16420,1.7732788E1,0,9,0,31,33,
1571181982,2019-10-15 23:26:22.352,16406,1.777539E1,0,6,0,31,34,
1571182042,2019-10-15 23:27:22.352,16380,1.7916046E1,0,12,0,35,36,
1571182102,2019-10-15 23:28:22.352,16433,1.7705078E1,0,4,0,36,36,
1571182162,2019-10-15 23:29:22.352,16393,1.7889404E1,0,9,0,36,39,
1571182222,2019-10-15 23:30:22.352,16406,1.7947998E1,0,9,0,32,35,
1571182282,2019-10-15 23:31:22.354,16406,1.793097E1,0,15,0,31,37,
1571182342,2019-10-15 23:32:22.352,16393,1.7745575E1,0,7,0,37,38,
1571182402,2019-10-15 23:33:22.352,16420,1.7581482E1,0,14,0,36,35,
1571182462,2019-10-15 23:34:22.352,16406,1.7733856E1,0,8,0,36,35,
1571182522,2019-10-15 23:35:22.352,16406,1.7474915E1,0,7,0,31,37,
1571182582,2019-10-15 23:36:22.352,16406,1.7722137E1,0,8,0,30,37,
1571182642,2019-10-15 23:37:22.352,16393,1.7452545E1,0,7,0,38,35,
1571182702,2019-10-15 23:38:22.352,16420,1.7722137E1,0,8,0,35,40,
1571182762,2019-10-15 23:39:22.352,16393,1.767099E1,0,13,0,37,35,
1571182822,2019-10-15 23:40:22.352,16380,1.7852112E1,0,9,0,36,39,
1571182882,2019-10-15 23:41:22.352,16393,1.7729584E1,0,7,0,38,38,
1571182942,2019-10-15 23:42:22.352,16393,1.7683777E1,0,11,0,38,32,
1571183002,2019-10-15 23:43:22.352,16406,1.7636871E1,0,11,0,35,36,
1571183062,2019-10-15 23:44:22.356,16420,1.7631561E1,0,9,0,32,37,
1571183122,2019-10-15 23:45:22.352,16406,1.7570831E1,0,6,0,31,35,
1571183182,2019-10-15 23:46:22.352,16393,1.7564423E1,0,6,0,40,36,
1571183242,2019-10-15 23:47:22.353,16393,1.7710419E1,0,9,0,45,40,
1571183302,2019-10-15 23:48:22.352,16406,1.7706146E1,0,12,0,42,36,
1571183362,2019-10-15 23:49:22.352,16420,1.7765808E1,0,11,0,45,38,
1571183422,2019-10-15 23:50:22.357,16420,1.7640076E1,0,9,0,32,37,
1571183482,2019-10-15 23:51:22.352,16406,1.7828674E1,0,9,0,31,37,
1571183542,2019-10-15 23:52:22.352,16393,1.7613434E1,0,12,0,38,34,
1571183602,2019-10-15 23:53:22.352,16393,1.7724243E1,0,11,0,36,37,
1571183662,2019-10-15 23:54:22.352,16393,1.756018E1,0,7,0,37,38,
1571183722,2019-10-15 23:55:22.352,16406,1.7495178E1,0,9,0,31,39,
1571183782,2019-10-15 23:56:22.352,16433,1.7635803E1,0,9,0,32,35,
1571183842,2019-10-15 23:57:22.352,16393,1.7707214E1,0,11,0,37,34,
1571183902,2019-10-15 23:58:22.353,16393,1.7740234E1,0,9,0,38,38,
1571183962,2019-10-15 23:59:22.390,16433,1.748346E1,0,9,0,36,37,
