Time(longsecs),Time(UTC),Supply voltage(V),Total current(A),Temperature(&deg;C),
1570993200,2019-10-13 19:00:00.000,1.3220808389999998E1,1.21373335659024E-1,2.9687E1,
1570993500,2019-10-13 19:05:00.000,1.3220808389999998E1,1.22826908541168E-1,2.9687E1,
1570993800,2019-10-13 19:10:00.000,1.3220808389999998E1,1.21373335659024E-1,2.9687E1,
1570994100,2019-10-13 19:15:00.000,1.3220808389999998E1,1.21373335659024E-1,2.9625E1,
1570994400,2019-10-13 19:20:00.000,1.3220808389999998E1,1.2210012210009599E-1,2.9593E1,
1570994700,2019-10-13 19:25:00.000,1.3220808389999998E1,1.22826908541168E-1,2.9593E1,
1570995000,2019-10-13 19:30:00.000,1.3220808389999998E1,1.21373335659024E-1,2.9593E1,
1570995300,2019-10-13 19:35:00.000,1.3220808389999998E1,1.20646549217952E-1,2.9562E1,
1570995600,2019-10-13 19:40:00.000,1.3220808389999998E1,1.21373335659024E-1,2.9562E1,
1570995900,2019-10-13 19:45:00.000,1.3220808389999998E1,1.21373335659024E-1,2.9531000000000002E1,
1570996200,2019-10-13 19:50:00.000,1.3220808389999998E1,1.20646549217952E-1,2.9468E1,
1570996500,2019-10-13 19:55:00.000,1.3220808389999998E1,1.21373335659024E-1,2.95E1,
