Time(longsecs),Time(UTC),Supply voltage(V),Total current(A),Temperature(&deg;C),
1570507200,2019-10-08 04:00:00.000,1.31938821E1,1.21373335659024E-1,2.8375E1,
1570507500,2019-10-08 04:05:00.000,1.3180418954999999E1,1.54805511948336E-1,2.8343E1,
1570507800,2019-10-08 04:10:00.000,1.31938821E1,1.21373335659024E-1,2.8406000000000002E1,
1570508100,2019-10-08 04:15:00.000,1.31938821E1,1.22826908541168E-1,2.8375E1,
1570508400,2019-10-08 04:20:00.000,1.31938821E1,1.21373335659024E-1,2.8375E1,
1570508700,2019-10-08 04:25:00.000,1.31938821E1,1.21373335659024E-1,2.8343E1,
1570509000,2019-10-08 04:30:00.000,1.3180418954999999E1,1.25007267864384E-1,2.8343E1,
1570509300,2019-10-08 04:35:00.000,1.3180418954999999E1,1.57712657712624E-1,2.8312E1,
1570509600,2019-10-08 04:40:00.000,1.3180418954999999E1,1.21373335659024E-1,2.8375E1,
1570509900,2019-10-08 04:45:00.000,1.3180418954999999E1,1.21373335659024E-1,2.8375E1,
1570510200,2019-10-08 04:50:00.000,1.31938821E1,1.2355369498224E-1,2.8343E1,
1570510500,2019-10-08 04:55:00.000,1.3180418954999999E1,1.21373335659024E-1,2.8375E1,
