Time(longsecs),Time(UTC),Sensor SOH Voltage A 1(uV),Sensor SOH Voltage A 2(uV),Sensor SOH Voltage A 3(uV),External SOH Voltage 1(uV),External SOH Voltage 2(uV),External SOH Voltage 3(uV),
1570680000,2019-10-10 04:00:00.000,-1208254,,,,,,
1570680300,2019-10-10 04:05:00.000,-1204339,,,,,,
1570680600,2019-10-10 04:10:00.000,-1202220,,,,,,
1570680900,2019-10-10 04:15:00.000,-1202337,,,,,,
1570681200,2019-10-10 04:20:00.000,-1204296,,,,,,
1570681500,2019-10-10 04:25:00.000,-1204308,,,,,,
1570681800,2019-10-10 04:30:00.000,-1204098,,,,,,
1570682100,2019-10-10 04:35:00.000,-1204017,,,,,,
1570682400,2019-10-10 04:40:00.000,-1204437,,,,,,
1570682700,2019-10-10 04:45:00.000,-1208154,,,,,,
1570683000,2019-10-10 04:50:00.000,-1208128,,,,,,
1570683300,2019-10-10 04:55:00.000,-1204330,,,,,,
