Time(longsecs),Time(UTC),Sensor SOH Voltage A 1(uV),Sensor SOH Voltage A 2(uV),Sensor SOH Voltage A 3(uV),External SOH Voltage 1(uV),External SOH Voltage 2(uV),External SOH Voltage 3(uV),
1571943600,2019-10-24 19:00:00.000,-1194600,,,,,,
1571943900,2019-10-24 19:05:00.000,-1192302,,,,,,
1571944200,2019-10-24 19:10:00.000,-1194497,,,,,,
1571944500,2019-10-24 19:15:00.000,-1194636,,,,,,
1571944800,2019-10-24 19:20:00.000,-1198465,,,,,,
1571945100,2019-10-24 19:25:00.000,-1194476,,,,,,
1571945400,2019-10-24 19:30:00.000,-1192510,,,,,,
1571945700,2019-10-24 19:35:00.000,-1194502,,,,,,
1571946000,2019-10-24 19:40:00.000,-1194259,,,,,,
1571946300,2019-10-24 19:45:00.000,-1198582,,,,,,
1571946600,2019-10-24 19:50:00.000,-1198284,,,,,,
1571946900,2019-10-24 19:55:00.000,-1198219,,,,,,
