Time(longsecs),Time(UTC),Earth location,GNSS receiver status,GNSS satellites used,Timing status,Phase lock loop status,Time uncertainty(ns),Timing DAC count,Time quality(&#37;),Time error(ns),
1570014000,2019-10-02 11:00:00.000,47.646067N 0.547054E 166m,Off,8,Time OK,Free running,9400,8392,90,0,
1570014300,2019-10-02 11:05:00.000,47.646067N 0.547054E 166m,Off,8,Time OK,Free running,20300,8392,90,0,
1570014600,2019-10-02 11:10:00.000,47.646067N 0.547054E 166m,Off,8,Time OK,Free running,31900,8392,90,0,
1570014900,2019-10-02 11:15:00.000,47.646067N 0.547054E 166m,Off,8,Time OK,Free running,44300,8392,90,0,
1570015200,2019-10-02 11:20:00.000,47.646067N 0.547054E 166m,GNSS locked,10,Time OK,Fine lock,700,8384,100,625,
1570015500,2019-10-02 11:25:00.000,47.646067N 0.547054E 166m,Off,10,Time OK,Free running,8100,8380,90,0,
1570015800,2019-10-02 11:30:00.000,47.646067N 0.547054E 166m,Off,10,Time OK,Free running,17400,8380,90,0,
1570016100,2019-10-02 11:35:00.000,47.646067N 0.547054E 166m,Off,10,Time OK,Free running,26300,8380,90,0,
1570016400,2019-10-02 11:40:00.000,47.646067N 0.547054E 166m,Off,10,Time OK,Free running,34800,8380,90,0,
1570016700,2019-10-02 11:45:00.000,47.646067N 0.547054E 166m,Off,10,Time OK,Free running,43700,8380,90,0,
1570017000,2019-10-02 11:50:00.000,47.646067N 0.547054E 166m,GNSS locked,10,Time OK,Coarse lock,2300,8460,90,-2291,
1570017300,2019-10-02 11:55:00.000,47.646067N 0.547054E 166m,Off,10,Time OK,Free running,5500,8382,90,0,
