Time(longsecs),Time(UTC),Supply voltage(V),Total current(A),Temperature(&deg;C),
1571612400,2019-10-20 23:00:00.000,1.3247734679999999E1,9.593581022150399E-2,2.2281E1,
1571612700,2019-10-20 23:05:00.000,1.3247734679999999E1,9.593581022150399E-2,2.225E1,
1571613000,2019-10-20 23:10:00.000,1.3247734679999999E1,9.593581022150399E-2,2.2218E1,
1571613300,2019-10-20 23:15:00.000,1.3247734679999999E1,9.6662596662576E-2,2.2187E1,
1571613600,2019-10-20 23:20:00.000,1.3247734679999999E1,9.5209023780432E-2,2.2187E1,
1571613900,2019-10-20 23:25:00.000,1.3247734679999999E1,9.7389383103648E-2,2.2218E1,
1571614200,2019-10-20 23:30:00.000,1.3247734679999999E1,9.5209023780432E-2,2.2187E1,
1571614500,2019-10-20 23:35:00.000,1.3247734679999999E1,9.593581022150399E-2,2.2156E1,
1571614800,2019-10-20 23:40:00.000,1.3247734679999999E1,9.593581022150399E-2,2.2125E1,
1571615100,2019-10-20 23:45:00.000,1.3247734679999999E1,9.5209023780432E-2,2.2125E1,
1571615400,2019-10-20 23:50:00.000,1.3247734679999999E1,9.7389383103648E-2,2.2156E1,
1571615700,2019-10-20 23:55:00.000,1.3261197825E1,9.5209023780432E-2,2.2125E1,
