Time(longsecs),Time(UTC),Earth location,GNSS receiver status,GNSS satellites used,Timing status,Phase lock loop status,Time uncertainty(ns),Timing DAC count,Time quality(&#37;),Time error(ns),
1571263200,2019-10-16 22:00:00.000,47.646014N 0.547138E 211m,Off,5,Time OK,Free running,20500,8354,90,0,
1571263500,2019-10-16 22:05:00.000,47.646014N 0.547138E 211m,Off,5,Time OK,Free running,29300,8354,90,0,
1571263800,2019-10-16 22:10:00.000,47.646014N 0.547138E 211m,Off,5,Time OK,Free running,37800,8354,90,0,
1571264100,2019-10-16 22:15:00.000,47.646014N 0.547138E 211m,Off,5,Time OK,Free running,46400,8354,90,0,
1571264400,2019-10-16 22:20:00.000,47.646014N 0.547138E 211m,GNSS locked,8,Time OK,Fine lock,600,8361,100,-625,
1571264700,2019-10-16 22:25:00.000,47.646014N 0.547138E 211m,Off,9,Time OK,Free running,8000,8361,90,0,
1571265000,2019-10-16 22:30:00.000,47.646014N 0.547138E 211m,Off,9,Time OK,Free running,17100,8361,90,0,
1571265300,2019-10-16 22:35:00.000,47.646014N 0.547138E 211m,Off,9,Time OK,Free running,26100,8361,90,0,
1571265600,2019-10-16 22:40:00.000,47.646014N 0.547138E 211m,Off,9,Time OK,Free running,35000,8361,90,0,
1571265900,2019-10-16 22:45:00.000,47.646014N 0.547138E 211m,Off,9,Time OK,Free running,43600,8361,90,0,
1571266200,2019-10-16 22:50:00.000,47.646014N 0.547138E 211m,GNSS locked,8,Time OK,Coarse lock,2200,8302,90,2187,
1571266500,2019-10-16 22:55:00.000,47.646014N 0.547138E 211m,Off,9,Time OK,Free running,5200,8362,90,0,
