Time(longsecs),Time(UTC),Supply voltage(V),Total current(A),Temperature(&deg;C),
1572379200,2019-10-29 20:00:00.000,1.3261197825E1,9.7389383103648E-2,2.1375E1,
1572379500,2019-10-29 20:05:00.000,1.3261197825E1,9.593581022150399E-2,2.1375E1,
1572379800,2019-10-29 20:10:00.000,1.3261197825E1,9.593581022150399E-2,2.1343E1,
1572380100,2019-10-29 20:15:00.000,1.3247734679999999E1,9.5209023780432E-2,2.1312E1,
1572380400,2019-10-29 20:20:00.000,1.3261197825E1,9.593581022150399E-2,2.1281E1,
1572380700,2019-10-29 20:25:00.000,1.3234271535E1,1.28641200069744E-1,2.125E1,
1572381000,2019-10-29 20:30:00.000,1.3247734679999999E1,9.8842955985792E-2,2.1312E1,
1572381300,2019-10-29 20:35:00.000,1.3247734679999999E1,9.7389383103648E-2,2.1312E1,
1572381600,2019-10-29 20:40:00.000,1.3247734679999999E1,9.5209023780432E-2,2.1281E1,
1572381900,2019-10-29 20:45:00.000,1.3261197825E1,9.593581022150399E-2,2.125E1,
1572382200,2019-10-29 20:50:00.000,1.3247734679999999E1,9.956974242686399E-2,2.1218E1,
1572382500,2019-10-29 20:55:00.000,1.3234271535E1,1.27914413628672E-1,2.1218E1,
