Time(longsecs),Time(UTC),Earth location,GNSS receiver status,GNSS satellites used,Timing status,Phase lock loop status,Time uncertainty(ns),Timing DAC count,Time quality(&#37;),Time error(ns),
1569967200,2019-10-01 22:00:00.000,47.646067N 0.547054E 166m,Off,6,Time OK,Free running,7500,8384,90,0,
1569967500,2019-10-01 22:05:00.000,47.646067N 0.547054E 166m,Off,6,Time OK,Free running,16600,8384,90,0,
1569967800,2019-10-01 22:10:00.000,47.646067N 0.547054E 166m,Off,6,Time OK,Free running,25600,8384,90,0,
1569968100,2019-10-01 22:15:00.000,47.646067N 0.547054E 166m,Off,6,Time OK,Free running,34100,8384,90,0,
1569968400,2019-10-01 22:20:00.000,47.646067N 0.547054E 166m,Off,6,Time OK,Free running,43000,8384,90,0,
1569968700,2019-10-01 22:25:00.000,47.646067N 0.547054E 166m,GNSS locked,5,Time OK,Coarse lock,1200,8349,90,1145,
1569969000,2019-10-01 22:30:00.000,47.646067N 0.547054E 166m,Off,8,Time OK,Free running,5800,8387,90,0,
1569969300,2019-10-01 22:35:00.000,47.646067N 0.547054E 166m,Off,8,Time OK,Free running,15100,8387,90,0,
1569969600,2019-10-01 22:40:00.000,47.646067N 0.547054E 166m,Off,8,Time OK,Free running,23900,8387,90,0,
1569969900,2019-10-01 22:45:00.000,47.646067N 0.547054E 166m,Off,8,Time OK,Free running,32400,8387,90,0,
1569970200,2019-10-01 22:50:00.000,47.646067N 0.547054E 166m,Off,8,Time OK,Free running,41300,8387,90,0,
1569970500,2019-10-01 22:55:00.000,47.646067N 0.547054E 166m,Off,8,Time OK,Free running,50200,8387,90,0,
