Time(longsecs),Time(UTC),Sensor SOH Voltage A 1(uV),Sensor SOH Voltage A 2(uV),Sensor SOH Voltage A 3(uV),External SOH Voltage 1(uV),External SOH Voltage 2(uV),External SOH Voltage 3(uV),
1571187600,2019-10-16 01:00:00.000,-1200128,,,,,,
1571187900,2019-10-16 01:05:00.000,-1200283,,,,,,
1571188200,2019-10-16 01:10:00.000,-1200285,,,,,,
1571188500,2019-10-16 01:15:00.000,-1200314,,,,,,
1571188800,2019-10-16 01:20:00.000,-1200154,,,,,,
1571189100,2019-10-16 01:25:00.000,-1202309,,,,,,
1571189400,2019-10-16 01:30:00.000,-1202352,,,,,,
1571189700,2019-10-16 01:35:00.000,-1200307,,,,,,
1571190000,2019-10-16 01:40:00.000,-1200395,,,,,,
1571190300,2019-10-16 01:45:00.000,-1202662,,,,,,
1571190600,2019-10-16 01:50:00.000,-1202328,,,,,,
1571190900,2019-10-16 01:55:00.000,-1202356,,,,,,
