Time(longsecs),Time(UTC),Supply voltage(V),Total current(A),Temperature(&deg;C),
1570701600,2019-10-10 10:00:00.000,1.3436218709999999E1,1.19192976335808E-1,2.7875E1,
1570701900,2019-10-10 10:05:00.000,1.3436218709999999E1,1.1991976277688E-1,2.7937E1,
1570702200,2019-10-10 10:10:00.000,1.3826649914999999E1,1.15559044130448E-1,2.7968E1,
1570702500,2019-10-10 10:15:00.000,1.3772797335E1,1.17739403453664E-1,2.8E1,
1570702800,2019-10-10 10:20:00.000,1.3745871045E1,1.15559044130448E-1,2.8062E1,
1570703100,2019-10-10 10:25:00.000,1.3570850159999999E1,1.3082155939296E-1,2.8468E1,
1570703400,2019-10-10 10:30:00.000,1.3422755565E1,1.3227513227510398E-1,2.8687E1,
1570703700,2019-10-10 10:35:00.000,1.3638165885E1,1.62800162800128E-1,2.8843E1,
1570704000,2019-10-10 10:40:00.000,1.3611239594999999E1,1.3082155939296E-1,2.9062E1,
1570704300,2019-10-10 10:45:00.000,1.3840113059999998E1,1.29367986510816E-1,2.9218E1,
1570704600,2019-10-10 10:50:00.000,1.381318677E1,1.28641200069744E-1,2.9343E1,
1570704900,2019-10-10 10:55:00.000,1.3840113059999998E1,1.48264433978688E-1,2.9312E1,
