Time(longsecs),Time(UTC),Supply voltage(V),Total current(A),Temperature(&deg;C),
1570449600,2019-10-07 12:00:00.000,1.3449681855E1,1.51898366184048E-1,2.9781000000000002E1,
1570449900,2019-10-07 12:05:00.000,1.3436218709999999E1,1.19192976335808E-1,2.9843E1,
1570450200,2019-10-07 12:10:00.000,1.3422755565E1,1.19192976335808E-1,2.9843E1,
1570450500,2019-10-07 12:15:00.000,1.351699758E1,1.17739403453664E-1,2.9812E1,
1570450800,2019-10-07 12:20:00.000,1.3584313304999998E1,1.2355369498224E-1,2.9812E1,
1570451100,2019-10-07 12:25:00.000,1.3463144999999999E1,1.18466189894736E-1,2.9843E1,
1570451400,2019-10-07 12:30:00.000,1.3422755565E1,1.19192976335808E-1,2.9875E1,
1570451700,2019-10-07 12:35:00.000,1.3449681855E1,1.21373335659024E-1,2.9906000000000002E1,
1570452000,2019-10-07 12:40:00.000,1.3476608145E1,1.1991976277688E-1,2.9906000000000002E1,
1570452300,2019-10-07 12:45:00.000,1.3449681855E1,1.19192976335808E-1,2.9906000000000002E1,
1570452600,2019-10-07 12:50:00.000,1.3665092175E1,1.21373335659024E-1,2.9906000000000002E1,
1570452900,2019-10-07 12:55:00.000,1.3611239594999999E1,1.1991976277688E-1,2.9875E1,
