Time(longsecs),Time(UTC),Earth location,GNSS receiver status,GNSS satellites used,Timing status,Phase lock loop status,Time uncertainty(ns),Timing DAC count,Time quality(&#37;),Time error(ns),
1571745600,2019-10-22 12:00:00.000,47.646113N 0.546715E 151m,Off,9,Time OK,Free running,33200,8362,90,0,
1571745900,2019-10-22 12:05:00.000,47.646113N 0.546715E 151m,Off,9,Time OK,Free running,44700,8362,90,0,
1571746200,2019-10-22 12:10:00.000,47.646113N 0.546715E 151m,GNSS locked,9,Time OK,Fine lock,700,8370,100,-625,
1571746500,2019-10-22 12:15:00.000,47.646113N 0.546715E 151m,Off,9,Time OK,Free running,8000,8374,90,0,
1571746800,2019-10-22 12:20:00.000,47.646113N 0.546715E 151m,Off,9,Time OK,Free running,17600,8374,90,0,
1571747100,2019-10-22 12:25:00.000,47.646113N 0.546715E 151m,Off,9,Time OK,Free running,27700,8374,90,0,
1571747400,2019-10-22 12:30:00.000,47.646113N 0.546715E 151m,Off,9,Time OK,Free running,38100,8374,90,0,
1571747700,2019-10-22 12:35:00.000,47.646113N 0.546715E 151m,Off,9,Time OK,Free running,48700,8374,90,0,
1571748000,2019-10-22 12:40:00.000,47.646113N 0.546715E 151m,Off,8,Time OK,Free running,1900,8372,90,0,
1571748300,2019-10-22 12:45:00.000,47.646113N 0.546715E 151m,Off,8,Time OK,Free running,11400,8372,90,0,
1571748600,2019-10-22 12:50:00.000,47.646113N 0.546715E 151m,Off,8,Time OK,Free running,21700,8372,90,0,
1571748900,2019-10-22 12:55:00.000,47.646113N 0.546715E 151m,Off,8,Time OK,Free running,32100,8372,90,0,
