Time(longsecs),Time(UTC),Sensor SOH Voltage A 1(uV),Sensor SOH Voltage A 2(uV),Sensor SOH Voltage A 3(uV),External SOH Voltage 1(uV),External SOH Voltage 2(uV),External SOH Voltage 3(uV),
1571716800,2019-10-22 04:00:00.000,-1194691,,,,,,
1571717100,2019-10-22 04:05:00.000,-1192247,,,,,,
1571717400,2019-10-22 04:10:00.000,-1192565,,,,,,
1571717700,2019-10-22 04:15:00.000,-1192376,,,,,,
1571718000,2019-10-22 04:20:00.000,-1192730,,,,,,
1571718300,2019-10-22 04:25:00.000,-1192629,,,,,,
1571718600,2019-10-22 04:30:00.000,-1194514,,,,,,
1571718900,2019-10-22 04:35:00.000,-1194693,,,,,,
1571719200,2019-10-22 04:40:00.000,-1192579,,,,,,
1571719500,2019-10-22 04:45:00.000,-1192422,,,,,,
1571719800,2019-10-22 04:50:00.000,-1192508,,,,,,
1571720100,2019-10-22 04:55:00.000,-1192462,,,,,,
