Time(longsecs),Time(UTC),Supply voltage(V),Total current(A),Temperature(&deg;C),
1571425200,2019-10-18 19:00:00.000,1.3315050405E1,9.5209023780432E-2,2.4156E1,
1571425500,2019-10-18 19:05:00.000,1.3315050405E1,9.5209023780432E-2,2.4093E1,
1571425800,2019-10-18 19:10:00.000,1.330158726E1,1.27914413628672E-1,2.4031E1,
1571426100,2019-10-18 19:15:00.000,1.3315050405E1,9.5209023780432E-2,2.4093E1,
1571426400,2019-10-18 19:20:00.000,1.330158726E1,9.593581022150399E-2,2.4093E1,
1571426700,2019-10-18 19:25:00.000,1.330158726E1,9.6662596662576E-2,2.4031E1,
1571427000,2019-10-18 19:30:00.000,1.330158726E1,9.593581022150399E-2,2.4E1,
1571427300,2019-10-18 19:35:00.000,1.330158726E1,9.811616954472E-2,2.3968E1,
1571427600,2019-10-18 19:40:00.000,1.3288124114999999E1,9.593581022150399E-2,2.3937E1,
1571427900,2019-10-18 19:45:00.000,1.3288124114999999E1,9.811616954472E-2,2.3968E1,
1571428200,2019-10-18 19:50:00.000,1.3288124114999999E1,9.6662596662576E-2,2.3968E1,
1571428500,2019-10-18 19:55:00.000,1.3288124114999999E1,9.593581022150399E-2,2.3937E1,
