Time(longsecs),Time(UTC),Sensor SOH Voltage A 1(uV),Sensor SOH Voltage A 2(uV),Sensor SOH Voltage A 3(uV),External SOH Voltage 1(uV),External SOH Voltage 2(uV),External SOH Voltage 3(uV),
1570262400,2019-10-05 08:00:00.000,-1211990,,,,,,
1570262700,2019-10-05 08:05:00.000,-1212000,,,,,,
1570263000,2019-10-05 08:10:00.000,-1210246,,,,,,
1570263300,2019-10-05 08:15:00.000,-1210182,,,,,,
1570263600,2019-10-05 08:20:00.000,-1212313,,,,,,
1570263900,2019-10-05 08:25:00.000,-1214188,,,,,,
1570264200,2019-10-05 08:30:00.000,-1212200,,,,,,
1570264500,2019-10-05 08:35:00.000,-1212110,,,,,,
1570264800,2019-10-05 08:40:00.000,-1212098,,,,,,
1570265100,2019-10-05 08:45:00.000,-1210110,,,,,,
1570265400,2019-10-05 08:50:00.000,-1209738,,,,,,
1570265700,2019-10-05 08:55:00.000,-1210077,,,,,,
