Time(longsecs),Time(UTC),Sensor SOH Voltage A 1(uV),Sensor SOH Voltage A 2(uV),Sensor SOH Voltage A 3(uV),External SOH Voltage 1(uV),External SOH Voltage 2(uV),External SOH Voltage 3(uV),
1572519600,2019-10-31 11:00:00.000,-1187904,,,,,,
1572519900,2019-10-31 11:05:00.000,-1189608,,,,,,
1572520200,2019-10-31 11:10:00.000,-1183877,,,,,,
1572520500,2019-10-31 11:15:00.000,-1183648,,,,,,
1572520800,2019-10-31 11:20:00.000,-1183896,,,,,,
1572521100,2019-10-31 11:25:00.000,-1183882,,,,,,
1572521400,2019-10-31 11:30:00.000,-1187728,,,,,,
1572521700,2019-10-31 11:35:00.000,-1183934,,,,,,
1572522000,2019-10-31 11:40:00.000,-1183951,,,,,,
1572522300,2019-10-31 11:45:00.000,-1184090,,,,,,
1572522600,2019-10-31 11:50:00.000,-1189787,,,,,,
1572522900,2019-10-31 11:55:00.000,-1187661,,,,,,
