Time(longsecs),Time(UTC),Sensor SOH Voltage A 1(uV),Sensor SOH Voltage A 2(uV),Sensor SOH Voltage A 3(uV),External SOH Voltage 1(uV),External SOH Voltage 2(uV),External SOH Voltage 3(uV),
1571954400,2019-10-24 22:00:00.000,-1193327,,,,,,
1571954700,2019-10-24 22:05:00.000,-1195467,,,,,,
1571955000,2019-10-24 22:10:00.000,-1194700,,,,,,
1571955300,2019-10-24 22:15:00.000,-1193551,,,,,,
1571955600,2019-10-24 22:20:00.000,-1193587,,,,,,
1571955900,2019-10-24 22:25:00.000,-1195412,,,,,,
1571956200,2019-10-24 22:30:00.000,-1193623,,,,,,
1571956500,2019-10-24 22:35:00.000,-1196466,,,,,,
1571956800,2019-10-24 22:40:00.000,-1193824,,,,,,
1571957100,2019-10-24 22:45:00.000,-1195032,,,,,,
1571957400,2019-10-24 22:50:00.000,-1192524,,,,,,
1571957700,2019-10-24 22:55:00.000,-1194462,,,,,,
