Time(longsecs),Time(UTC),Supply voltage(V),Total current(A),Temperature(&deg;C),
1571634000,2019-10-21 05:00:00.000,1.3247734679999999E1,9.593581022150399E-2,2.2187E1,
1571634300,2019-10-21 05:05:00.000,1.3234271535E1,1.07564393278656E-1,2.2218E1,
1571634600,2019-10-21 05:10:00.000,1.3247734679999999E1,9.593581022150399E-2,2.225E1,
1571634900,2019-10-21 05:15:00.000,1.3247734679999999E1,1.03203674632224E-1,2.2281E1,
1571635200,2019-10-21 05:20:00.000,1.3247734679999999E1,9.6662596662576E-2,2.225E1,
1571635500,2019-10-21 05:25:00.000,1.3234271535E1,9.7389383103648E-2,2.2218E1,
1571635800,2019-10-21 05:30:00.000,1.3247734679999999E1,9.593581022150399E-2,2.225E1,
1571636100,2019-10-21 05:35:00.000,1.3220808389999998E1,1.31548345834032E-1,2.225E1,
1571636400,2019-10-21 05:40:00.000,1.3247734679999999E1,9.811616954472E-2,2.2281E1,
1571636700,2019-10-21 05:45:00.000,1.3247734679999999E1,9.593581022150399E-2,2.2281E1,
1571637000,2019-10-21 05:50:00.000,1.3247734679999999E1,9.8842955985792E-2,2.2281E1,
1571637300,2019-10-21 05:55:00.000,1.3247734679999999E1,9.593581022150399E-2,2.225E1,
