Time(longsecs),Time(UTC),Earth location,GNSS receiver status,GNSS satellites used,Timing status,Phase lock loop status,Time uncertainty(ns),Timing DAC count,Time quality(&#37;),Time error(ns),
1571655600,2019-10-21 11:00:00.000,47.646113N 0.546715E 151m,Off,9,Time OK,Free running,28000,8363,90,0,
1571655900,2019-10-21 11:05:00.000,47.646113N 0.546715E 151m,Off,9,Time OK,Free running,43400,8363,90,0,
1571656200,2019-10-21 11:10:00.000,47.646113N 0.546715E 151m,Off,10,Time OK,Free running,800,8363,90,0,
1571656500,2019-10-21 11:15:00.000,47.646113N 0.546715E 151m,Off,10,Time OK,Free running,10600,8363,90,0,
1571656800,2019-10-21 11:20:00.000,47.646113N 0.546715E 151m,Off,10,Time OK,Free running,22600,8363,90,0,
1571657100,2019-10-21 11:25:00.000,47.646113N 0.546715E 151m,Off,10,Time OK,Free running,36300,8363,90,0,
1571657400,2019-10-21 11:30:00.000,47.646113N 0.546715E 151m,GNSS unlocked,0,Time OK,Free running,51600,8363,90,0,
1571657700,2019-10-21 11:35:00.000,47.646113N 0.546715E 151m,Off,10,Time OK,Free running,4200,8364,90,0,
1571658000,2019-10-21 11:40:00.000,47.646113N 0.546715E 151m,Off,10,Time OK,Free running,15000,8364,90,0,
1571658300,2019-10-21 11:45:00.000,47.646113N 0.546715E 151m,Off,10,Time OK,Free running,27100,8364,90,0,
1571658600,2019-10-21 11:50:00.000,47.646113N 0.546715E 151m,Off,10,Time OK,Free running,40200,8364,90,0,
1571658900,2019-10-21 11:55:00.000,47.646113N 0.546715E 151m,GNSS locked,10,Time OK,Coarse lock,400,8372,90,-312,
