Time(longsecs),Time(UTC),Supply voltage(V),Total current(A),Temperature(&deg;C),
1570406400,2019-10-07 00:00:00.000,1.3207345244999999E1,1.21373335659024E-1,2.8187E1,
1570406700,2019-10-07 00:05:00.000,1.3207345244999999E1,1.21373335659024E-1,2.8156000000000002E1,
1570407000,2019-10-07 00:10:00.000,1.3207345244999999E1,1.22826908541168E-1,2.8125E1,
1570407300,2019-10-07 00:15:00.000,1.31938821E1,1.54805511948336E-1,2.8093E1,
1570407600,2019-10-07 00:20:00.000,1.3207345244999999E1,1.21373335659024E-1,2.8125E1,
1570407900,2019-10-07 00:25:00.000,1.3207345244999999E1,1.22826908541168E-1,2.8125E1,
1570408200,2019-10-07 00:30:00.000,1.3207345244999999E1,1.20646549217952E-1,2.8093E1,
1570408500,2019-10-07 00:35:00.000,1.3207345244999999E1,1.21373335659024E-1,2.8093E1,
1570408800,2019-10-07 00:40:00.000,1.3207345244999999E1,1.21373335659024E-1,2.8031000000000002E1,
1570409100,2019-10-07 00:45:00.000,1.3207345244999999E1,1.21373335659024E-1,2.8031000000000002E1,
1570409400,2019-10-07 00:50:00.000,1.3207345244999999E1,1.21373335659024E-1,2.8031000000000002E1,
1570409700,2019-10-07 00:55:00.000,1.3207345244999999E1,1.22826908541168E-1,2.8031000000000002E1,
