Time(longsecs),Time(UTC),Sensor SOH Voltage A 1(uV),Sensor SOH Voltage A 2(uV),Sensor SOH Voltage A 3(uV),External SOH Voltage 1(uV),External SOH Voltage 2(uV),External SOH Voltage 3(uV),
1570996800,2019-10-13 20:00:00.000,-1207886,,,,,,
1570997100,2019-10-13 20:05:00.000,-1209893,,,,,,
1570997400,2019-10-13 20:10:00.000,-1208178,,,,,,
1570997700,2019-10-13 20:15:00.000,-1210003,,,,,,
1570998000,2019-10-13 20:20:00.000,-1209862,,,,,,
1570998300,2019-10-13 20:25:00.000,-1211866,,,,,,
1570998600,2019-10-13 20:30:00.000,-1210012,,,,,,
1570998900,2019-10-13 20:35:00.000,-1209905,,,,,,
1570999200,2019-10-13 20:40:00.000,-1210017,,,,,,
1570999500,2019-10-13 20:45:00.000,-1210156,,,,,,
1570999800,2019-10-13 20:50:00.000,-1212074,,,,,,
1571000100,2019-10-13 20:55:00.000,-1211945,,,,,,
