Time(longsecs),Time(UTC),Sensor SOH Voltage A 1(uV),Sensor SOH Voltage A 2(uV),Sensor SOH Voltage A 3(uV),External SOH Voltage 1(uV),External SOH Voltage 2(uV),External SOH Voltage 3(uV),
1571072400,2019-10-14 17:00:00.000,-1210244,,,,,,
1571072700,2019-10-14 17:05:00.000,-1207999,,,,,,
1571073000,2019-10-14 17:10:00.000,-1209943,,,,,,
1571073300,2019-10-14 17:15:00.000,-1208077,,,,,,
1571073600,2019-10-14 17:20:00.000,-1209797,,,,,,
1571073900,2019-10-14 17:25:00.000,-1209941,,,,,,
1571074200,2019-10-14 17:30:00.000,-1207741,,,,,,
1571074500,2019-10-14 17:35:00.000,-1208144,,,,,,
1571074800,2019-10-14 17:40:00.000,-1208173,,,,,,
1571075100,2019-10-14 17:45:00.000,-1209766,,,,,,
1571075400,2019-10-14 17:50:00.000,-1210218,,,,,,
1571075700,2019-10-14 17:55:00.000,-1209635,,,,,,
