Time(longsecs),Time(UTC),Sensor SOH Voltage A 1(uV),Sensor SOH Voltage A 2(uV),Sensor SOH Voltage A 3(uV),External SOH Voltage 1(uV),External SOH Voltage 2(uV),External SOH Voltage 3(uV),
1572138000,2019-10-27 01:00:00.000,-1198561,,,,,,
1572138300,2019-10-27 01:05:00.000,-1194517,,,,,,
1572138600,2019-10-27 01:10:00.000,-1192383,,,,,,
1572138900,2019-10-27 01:15:00.000,-1194488,,,,,,
1572139200,2019-10-27 01:20:00.000,-1194509,,,,,,
1572139500,2019-10-27 01:25:00.000,-1192357,,,,,,
1572139800,2019-10-27 01:30:00.000,-1198092,,,,,,
1572140100,2019-10-27 01:35:00.000,-1192233,,,,,,
1572140400,2019-10-27 01:40:00.000,-1194137,,,,,,
1572140700,2019-10-27 01:45:00.000,-1194545,,,,,,
1572141000,2019-10-27 01:50:00.000,-1194540,,,,,,
1572141300,2019-10-27 01:55:00.000,-1194445,,,,,,
