Time(longsecs),Time(UTC),Sensor SOH Voltage A 1(uV),Sensor SOH Voltage A 2(uV),Sensor SOH Voltage A 3(uV),External SOH Voltage 1(uV),External SOH Voltage 2(uV),External SOH Voltage 3(uV),
1571925600,2019-10-24 14:00:00.000,-1197990,,,,,,
1571925900,2019-10-24 14:05:00.000,-1198296,,,,,,
1571926200,2019-10-24 14:10:00.000,-1200214,,,,,,
1571926500,2019-10-24 14:15:00.000,-1198348,,,,,,
1571926800,2019-10-24 14:20:00.000,-1194555,,,,,,
1571927100,2019-10-24 14:25:00.000,-1197894,,,,,,
1571927400,2019-10-24 14:30:00.000,-1200025,,,,,,
1571927700,2019-10-24 14:35:00.000,-1197670,,,,,,
1571928000,2019-10-24 14:40:00.000,-1198573,,,,,,
1571928300,2019-10-24 14:45:00.000,-1198176,,,,,,
1571928600,2019-10-24 14:50:00.000,-1199175,,,,,,
1571928900,2019-10-24 14:55:00.000,-1198109,,,,,,
