Time(longsecs),Time(UTC),Earth location,GNSS receiver status,GNSS satellites used,Timing status,Phase lock loop status,Time uncertainty(ns),Timing DAC count,Time quality(&#37;),Time error(ns),
1571680800,2019-10-21 18:00:00.000,47.646113N 0.546715E 151m,Off,7,Time OK,Free running,17100,8355,90,0,
1571681100,2019-10-21 18:05:00.000,47.646113N 0.546715E 151m,Off,7,Time OK,Free running,26900,8355,90,0,
1571681400,2019-10-21 18:10:00.000,47.646113N 0.546715E 151m,Off,7,Time OK,Free running,37200,8355,90,0,
1571681700,2019-10-21 18:15:00.000,47.646113N 0.546715E 151m,Off,7,Time OK,Free running,48700,8355,90,0,
1571682000,2019-10-21 18:20:00.000,47.646113N 0.546715E 151m,Off,6,Time OK,Free running,1900,8352,90,0,
1571682300,2019-10-21 18:25:00.000,47.646113N 0.546715E 151m,Off,6,Time OK,Free running,10500,8352,90,0,
1571682600,2019-10-21 18:30:00.000,47.646113N 0.546715E 151m,Off,6,Time OK,Free running,19300,8352,90,0,
1571682900,2019-10-21 18:35:00.000,47.646113N 0.546715E 151m,Off,6,Time OK,Free running,29400,8352,90,0,
1571683200,2019-10-21 18:40:00.000,47.646113N 0.546715E 151m,Off,6,Time OK,Free running,40000,8352,90,0,
1571683500,2019-10-21 18:45:00.000,47.646113N 0.546715E 151m,GNSS unlocked,0,Time OK,Free running,51900,8352,90,0,
1571683800,2019-10-21 18:50:00.000,47.646113N 0.546715E 151m,Off,7,Time OK,Free running,4100,8360,90,0,
1571684100,2019-10-21 18:55:00.000,47.646113N 0.546715E 151m,Off,7,Time OK,Free running,12700,8360,90,0,
