Time(longsecs),Time(UTC),Earth location,GNSS receiver status,GNSS satellites used,Timing status,Phase lock loop status,Time uncertainty(ns),Timing DAC count,Time quality(&#37;),Time error(ns),
1570766400,2019-10-11 04:00:00.000,47.646067N 0.547054E 166m,Off,8,Time OK,Free running,1900,8378,90,0,
1570766700,2019-10-11 04:05:00.000,47.646067N 0.547054E 166m,Off,8,Time OK,Free running,11200,8378,90,0,
1570767000,2019-10-11 04:10:00.000,47.646067N 0.547054E 166m,Off,8,Time OK,Free running,20600,8378,90,0,
1570767300,2019-10-11 04:15:00.000,47.646067N 0.547054E 166m,Off,8,Time OK,Free running,29700,8378,90,0,
1570767600,2019-10-11 04:20:00.000,47.646067N 0.547054E 166m,Off,8,Time OK,Free running,38300,8378,90,0,
1570767900,2019-10-11 04:25:00.000,47.646067N 0.547054E 166m,Off,8,Time OK,Free running,46800,8378,90,0,
1570768200,2019-10-11 04:30:00.000,47.646067N 0.547054E 166m,Off,8,Time OK,Free running,400,8376,90,0,
1570768500,2019-10-11 04:35:00.000,47.646067N 0.547054E 166m,Off,8,Time OK,Free running,8900,8376,90,0,
1570768800,2019-10-11 04:40:00.000,47.646067N 0.547054E 166m,Off,8,Time OK,Free running,17400,8376,90,0,
1570769100,2019-10-11 04:45:00.000,47.646067N 0.547054E 166m,Off,8,Time OK,Free running,25900,8376,90,0,
1570769400,2019-10-11 04:50:00.000,47.646067N 0.547054E 166m,Off,8,Time OK,Free running,34600,8376,90,0,
1570769700,2019-10-11 04:55:00.000,47.646067N 0.547054E 166m,Off,8,Time OK,Free running,43600,8376,90,0,
