Time(longsecs),Time(UTC),Sensor SOH Voltage A 1(uV),Sensor SOH Voltage A 2(uV),Sensor SOH Voltage A 3(uV),External SOH Voltage 1(uV),External SOH Voltage 2(uV),External SOH Voltage 3(uV),
1572105600,2019-10-26 16:00:00.000,-1198140,,,,,,
1572105900,2019-10-26 16:05:00.000,-1198460,,,,,,
1572106200,2019-10-26 16:10:00.000,-1194041,,,,,,
1572106500,2019-10-26 16:15:00.000,-1200259,,,,,,
1572106800,2019-10-26 16:20:00.000,-1194380,,,,,,
1572107100,2019-10-26 16:25:00.000,-1200261,,,,,,
1572107400,2019-10-26 16:30:00.000,-1194402,,,,,,
1572107700,2019-10-26 16:35:00.000,-1198069,,,,,,
1572108000,2019-10-26 16:40:00.000,-1198200,,,,,,
1572108300,2019-10-26 16:45:00.000,-1194798,,,,,,
1572108600,2019-10-26 16:50:00.000,-1198549,,,,,,
1572108900,2019-10-26 16:55:00.000,-1198451,,,,,,
