Time(longsecs),Time(UTC),Earth location,GNSS receiver status,GNSS satellites used,Timing status,Phase lock loop status,Time uncertainty(ns),Timing DAC count,Time quality(&#37;),Time error(ns),
1572145200,2019-10-27 03:00:00.000,47.646136N 0.547057E 173m,Off,6,Time OK,Free running,29400,8358,90,0,
1572145500,2019-10-27 03:05:00.000,47.646136N 0.547057E 173m,Off,6,Time OK,Free running,38100,8358,90,0,
1572145800,2019-10-27 03:10:00.000,47.646136N 0.547057E 173m,Off,6,Time OK,Free running,46900,8358,90,0,
1572146100,2019-10-27 03:15:00.000,47.646136N 0.547057E 173m,GNSS locked,8,Time OK,Fine lock,300,8352,100,208,
1572146400,2019-10-27 03:20:00.000,47.646136N 0.547057E 173m,Off,8,Time OK,Free running,8800,8352,90,0,
1572146700,2019-10-27 03:25:00.000,47.646136N 0.547057E 173m,Off,8,Time OK,Free running,17200,8352,90,0,
1572147000,2019-10-27 03:30:00.000,47.646136N 0.547057E 173m,Off,8,Time OK,Free running,26000,8352,90,0,
1572147300,2019-10-27 03:35:00.000,47.646136N 0.547057E 173m,Off,8,Time OK,Free running,35200,8352,90,0,
1572147600,2019-10-27 03:40:00.000,47.646136N 0.547057E 173m,Off,8,Time OK,Free running,44700,8352,90,0,
1572147900,2019-10-27 03:45:00.000,47.646136N 0.547057E 173m,GNSS locked,9,Time OK,Fine lock,200,8364,100,0,
1572148200,2019-10-27 03:50:00.000,47.646136N 0.547057E 173m,Off,9,Time OK,Free running,7400,8351,90,0,
1572148500,2019-10-27 03:55:00.000,47.646136N 0.547057E 173m,Off,9,Time OK,Free running,16500,8351,90,0,
