Time(longsecs),Time(UTC),Sensor SOH Voltage A 1(uV),Sensor SOH Voltage A 2(uV),Sensor SOH Voltage A 3(uV),External SOH Voltage 1(uV),External SOH Voltage 2(uV),External SOH Voltage 3(uV),
1572433200,2019-10-30 11:00:00.000,-1189851,,,,,,
1572433500,2019-10-30 11:05:00.000,-1187623,,,,,,
1572433800,2019-10-30 11:10:00.000,-1183624,,,,,,
1572434100,2019-10-30 11:15:00.000,-1189715,,,,,,
1572434400,2019-10-30 11:20:00.000,-1187658,,,,,,
1572434700,2019-10-30 11:25:00.000,-1187699,,,,,,
1572435000,2019-10-30 11:30:00.000,-1187649,,,,,,
1572435300,2019-10-30 11:35:00.000,-1187830,,,,,,
1572435600,2019-10-30 11:40:00.000,-1187842,,,,,,
1572435900,2019-10-30 11:45:00.000,-1187663,,,,,,
1572436200,2019-10-30 11:50:00.000,-1187723,,,,,,
1572436500,2019-10-30 11:55:00.000,-1183526,,,,,,
