Time(longsecs),Time(UTC),Earth location,GNSS receiver status,GNSS satellites used,Timing status,Phase lock loop status,Time uncertainty(ns),Timing DAC count,Time quality(&#37;),Time error(ns),
1571072400,2019-10-14 17:00:00.000,47.646067N 0.547054E 166m,Off,7,Time OK,Free running,45200,8382,90,0,
1571072700,2019-10-14 17:05:00.000,47.646067N 0.547054E 166m,GNSS locked,7,Time OK,Fine lock,300,8382,100,208,
1571073000,2019-10-14 17:10:00.000,47.646067N 0.547054E 166m,Off,7,Time OK,Free running,8400,8381,90,0,
1571073300,2019-10-14 17:15:00.000,47.646067N 0.547054E 166m,Off,7,Time OK,Free running,17700,8381,90,0,
1571073600,2019-10-14 17:20:00.000,47.646067N 0.547054E 166m,Off,7,Time OK,Free running,28900,8381,90,0,
1571073900,2019-10-14 17:25:00.000,47.646067N 0.547054E 166m,Off,7,Time OK,Free running,41600,8381,90,0,
1571074200,2019-10-14 17:30:00.000,47.646067N 0.547054E 166m,GNSS locked,7,Time OK,Fine lock,600,8375,100,-416,
1571074500,2019-10-14 17:35:00.000,47.646067N 0.547054E 166m,Off,8,Time OK,Free running,5600,8380,90,0,
1571074800,2019-10-14 17:40:00.000,47.646067N 0.547054E 166m,Off,8,Time OK,Free running,14700,8380,90,0,
1571075100,2019-10-14 17:45:00.000,47.646067N 0.547054E 166m,Off,8,Time OK,Free running,25400,8380,90,0,
1571075400,2019-10-14 17:50:00.000,47.646067N 0.547054E 166m,Off,8,Time OK,Free running,37600,8380,90,0,
1571075700,2019-10-14 17:55:00.000,47.646067N 0.547054E 166m,GNSS unlocked,0,Time OK,Free running,51200,8380,90,0,
