Time(longsecs),Time(UTC),Earth location,GNSS receiver status,GNSS satellites used,Timing status,Phase lock loop status,Time uncertainty(ns),Timing DAC count,Time quality(&#37;),Time error(ns),
1571799600,2019-10-23 03:00:00.000,47.646113N 0.546715E 151m,Off,7,Time OK,Free running,10900,8357,90,0,
1571799900,2019-10-23 03:05:00.000,47.646113N 0.546715E 151m,Off,7,Time OK,Free running,20800,8357,90,0,
1571800200,2019-10-23 03:10:00.000,47.646113N 0.546715E 151m,Off,7,Time OK,Free running,30700,8357,90,0,
1571800500,2019-10-23 03:15:00.000,47.646113N 0.546715E 151m,Off,7,Time OK,Free running,40200,8357,90,0,
1571800800,2019-10-23 03:20:00.000,47.646113N 0.546715E 151m,Off,7,Time OK,Free running,49400,8357,90,0,
1571801100,2019-10-23 03:25:00.000,47.646113N 0.546715E 151m,Off,8,Time OK,Free running,1100,8356,90,0,
1571801400,2019-10-23 03:30:00.000,47.646113N 0.546715E 151m,Off,8,Time OK,Free running,10400,8356,90,0,
1571801700,2019-10-23 03:35:00.000,47.646113N 0.546715E 151m,Off,8,Time OK,Free running,19800,8356,90,0,
1571802000,2019-10-23 03:40:00.000,47.646113N 0.546715E 151m,Off,8,Time OK,Free running,29100,8356,90,0,
1571802300,2019-10-23 03:45:00.000,47.646113N 0.546715E 151m,Off,8,Time OK,Free running,37800,8356,90,0,
1571802600,2019-10-23 03:50:00.000,47.646113N 0.546715E 151m,Off,8,Time OK,Free running,46300,8356,90,0,
1571802900,2019-10-23 03:55:00.000,47.646113N 0.546715E 151m,GNSS locked,9,Time OK,Fine lock,300,8355,100,-208,
