Time(longsecs),Time(UTC),Sensor SOH Voltage A 1(uV),Sensor SOH Voltage A 2(uV),Sensor SOH Voltage A 3(uV),External SOH Voltage 1(uV),External SOH Voltage 2(uV),External SOH Voltage 3(uV),
1571464800,2019-10-19 06:00:00.000,-1198339,,,,,,
1571465100,2019-10-19 06:05:00.000,-1198250,,,,,,
1571465400,2019-10-19 06:10:00.000,-1198002,,,,,,
1571465700,2019-10-19 06:15:00.000,-1202230,,,,,,
1571466000,2019-10-19 06:20:00.000,-1198499,,,,,,
1571466300,2019-10-19 06:25:00.000,-1198518,,,,,,
1571466600,2019-10-19 06:30:00.000,-1200128,,,,,,
1571466900,2019-10-19 06:35:00.000,-1200092,,,,,,
1571467200,2019-10-19 06:40:00.000,-1200142,,,,,,
1571467500,2019-10-19 06:45:00.000,-1194280,,,,,,
1571467800,2019-10-19 06:50:00.000,-1198324,,,,,,
1571468100,2019-10-19 06:55:00.000,-1200264,,,,,,
