Time(longsecs),Time(UTC),Sensor SOH Voltage A 1(uV),Sensor SOH Voltage A 2(uV),Sensor SOH Voltage A 3(uV),External SOH Voltage 1(uV),External SOH Voltage 2(uV),External SOH Voltage 3(uV),
1571508000,2019-10-19 18:00:00.000,-1200773,,,,,,
1571508300,2019-10-19 18:05:00.000,-1200369,,,,,,
1571508600,2019-10-19 18:10:00.000,-1202218,,,,,,
1571508900,2019-10-19 18:15:00.000,-1200546,,,,,,
1571509200,2019-10-19 18:20:00.000,-1200278,,,,,,
1571509500,2019-10-19 18:25:00.000,-1202344,,,,,,
1571509800,2019-10-19 18:30:00.000,-1200259,,,,,,
1571510100,2019-10-19 18:35:00.000,-1198515,,,,,,
1571510400,2019-10-19 18:40:00.000,-1200159,,,,,,
1571510700,2019-10-19 18:45:00.000,-1198147,,,,,,
1571511000,2019-10-19 18:50:00.000,-1202041,,,,,,
1571511300,2019-10-19 18:55:00.000,-1200493,,,,,,
