Time(longsecs),Time(UTC),Supply voltage(V),Total current(A),Temperature(&deg;C),
1569960000,2019-10-01 20:00:00.000,1.3220808389999998E1,1.21373335659024E-1,3.0E1,
1569960300,2019-10-01 20:05:00.000,1.3220808389999998E1,1.20646549217952E-1,2.9937E1,
1569960600,2019-10-01 20:10:00.000,1.3220808389999998E1,1.22826908541168E-1,2.9937E1,
1569960900,2019-10-01 20:15:00.000,1.3220808389999998E1,1.20646549217952E-1,2.9843E1,
1569961200,2019-10-01 20:20:00.000,1.3220808389999998E1,1.21373335659024E-1,2.9812E1,
1569961500,2019-10-01 20:25:00.000,1.3220808389999998E1,1.22826908541168E-1,2.9812E1,
1569961800,2019-10-01 20:30:00.000,1.3220808389999998E1,1.21373335659024E-1,2.9781000000000002E1,
1569962100,2019-10-01 20:35:00.000,1.3220808389999998E1,1.20646549217952E-1,2.975E1,
1569962400,2019-10-01 20:40:00.000,1.3220808389999998E1,1.21373335659024E-1,2.9687E1,
1569962700,2019-10-01 20:45:00.000,1.3220808389999998E1,1.21373335659024E-1,2.9687E1,
1569963000,2019-10-01 20:50:00.000,1.3207345244999999E1,1.3808942380368E-1,2.9625E1,
1569963300,2019-10-01 20:55:00.000,1.3220808389999998E1,1.21373335659024E-1,2.9625E1,
