Time(longsecs),Time(UTC),Sensor SOH Voltage A 1(uV),Sensor SOH Voltage A 2(uV),Sensor SOH Voltage A 3(uV),External SOH Voltage 1(uV),External SOH Voltage 2(uV),External SOH Voltage 3(uV),
1570788000,2019-10-11 10:00:00.000,-1204478,,,,,,
1570788300,2019-10-11 10:05:00.000,-1202280,,,,,,
1570788600,2019-10-11 10:10:00.000,-1204246,,,,,,
1570788900,2019-10-11 10:15:00.000,-1204217,,,,,,
1570789200,2019-10-11 10:20:00.000,-1204110,,,,,,
1570789500,2019-10-11 10:25:00.000,-1204131,,,,,,
1570789800,2019-10-11 10:30:00.000,-1208104,,,,,,
1570790100,2019-10-11 10:35:00.000,-1204365,,,,,,
1570790400,2019-10-11 10:40:00.000,-1207757,,,,,,
1570790700,2019-10-11 10:45:00.000,-1208025,,,,,,
1570791000,2019-10-11 10:50:00.000,-1207963,,,,,,
1570791300,2019-10-11 10:55:00.000,-1208226,,,,,,
