Time(longsecs),Time(UTC),Earth location,GNSS receiver status,GNSS satellites used,Timing status,Phase lock loop status,Time uncertainty(ns),Timing DAC count,Time quality(&#37;),Time error(ns),
1570384800,2019-10-06 18:00:00.000,47.646067N 0.547054E 166m,Off,6,Time OK,Free running,8000,8386,90,0,
1570385100,2019-10-06 18:05:00.000,47.646067N 0.547054E 166m,Off,6,Time OK,Free running,16900,8386,90,0,
1570385400,2019-10-06 18:10:00.000,47.646067N 0.547054E 166m,Off,6,Time OK,Free running,26600,8386,90,0,
1570385700,2019-10-06 18:15:00.000,47.646067N 0.547054E 166m,Off,6,Time OK,Free running,37500,8386,90,0,
1570386000,2019-10-06 18:20:00.000,47.646067N 0.547054E 166m,Off,6,Time OK,Free running,49800,8386,90,0,
1570386300,2019-10-06 18:25:00.000,47.646067N 0.547054E 166m,Off,5,Time OK,Free running,3000,8379,90,0,
1570386600,2019-10-06 18:30:00.000,47.646067N 0.547054E 166m,Off,5,Time OK,Free running,11600,8379,90,0,
1570386900,2019-10-06 18:35:00.000,47.646067N 0.547054E 166m,Off,5,Time OK,Free running,21100,8379,90,0,
1570387200,2019-10-06 18:40:00.000,47.646067N 0.547054E 166m,Off,5,Time OK,Free running,31700,8379,90,0,
1570387500,2019-10-06 18:45:00.000,47.646067N 0.547054E 166m,Off,5,Time OK,Free running,43600,8379,90,0,
1570387800,2019-10-06 18:50:00.000,47.646067N 0.547054E 166m,GNSS locked,6,Time OK,Fine lock,400,8383,100,312,
1570388100,2019-10-06 18:55:00.000,47.646067N 0.547054E 166m,Off,6,Time OK,Free running,7900,8377,90,0,
