Time(longsecs),Time(UTC),Earth location,GNSS receiver status,GNSS satellites used,Timing status,Phase lock loop status,Time uncertainty(ns),Timing DAC count,Time quality(&#37;),Time error(ns),
1570006800,2019-10-02 09:00:00.000,47.646067N 0.547054E 166m,Off,10,Time OK,Free running,18300,8385,90,0,
1570007100,2019-10-02 09:05:00.000,47.646067N 0.547054E 166m,Off,10,Time OK,Free running,29100,8385,90,0,
1570007400,2019-10-02 09:10:00.000,47.646067N 0.547054E 166m,Off,10,Time OK,Free running,40400,8385,90,0,
1570007700,2019-10-02 09:15:00.000,47.646067N 0.547054E 166m,GNSS unlocked,0,Time OK,Free running,52100,8385,90,0,
1570008000,2019-10-02 09:20:00.000,47.646067N 0.547054E 166m,Off,10,Time OK,Free running,4600,8374,90,0,
1570008300,2019-10-02 09:25:00.000,47.646067N 0.547054E 166m,Off,10,Time OK,Free running,14100,8374,90,0,
1570008600,2019-10-02 09:30:00.000,47.646067N 0.547054E 166m,Off,10,Time OK,Free running,24600,8374,90,0,
1570008900,2019-10-02 09:35:00.000,47.646067N 0.547054E 166m,Off,10,Time OK,Free running,34900,8374,90,0,
1570009200,2019-10-02 09:40:00.000,47.646067N 0.547054E 166m,Off,10,Time OK,Free running,45600,8374,90,0,
1570009500,2019-10-02 09:45:00.000,47.646067N 0.547054E 166m,GNSS locked,9,Time OK,Fine lock,400,8381,100,-312,
1570009800,2019-10-02 09:50:00.000,47.646067N 0.547054E 166m,Off,9,Time OK,Free running,7800,8388,90,0,
1570010100,2019-10-02 09:55:00.000,47.646067N 0.547054E 166m,Off,9,Time OK,Free running,17700,8388,90,0,
