Time(longsecs),Time(UTC),Sensor SOH Voltage A 1(uV),Sensor SOH Voltage A 2(uV),Sensor SOH Voltage A 3(uV),External SOH Voltage 1(uV),External SOH Voltage 2(uV),External SOH Voltage 3(uV),
1572559200,2019-10-31 22:00:00.000,-1188205,,,,,,
1572559500,2019-10-31 22:05:00.000,-1187928,,,,,,
1572559800,2019-10-31 22:10:00.000,-1184625,,,,,,
1572560100,2019-10-31 22:15:00.000,-1188143,,,,,,
1572560400,2019-10-31 22:20:00.000,-1190085,,,,,,
1572560700,2019-10-31 22:25:00.000,-1187833,,,,,,
1572561000,2019-10-31 22:30:00.000,-1187904,,,,,,
1572561300,2019-10-31 22:35:00.000,-1189538,,,,,,
1572561600,2019-10-31 22:40:00.000,-1183865,,,,,,
1572561900,2019-10-31 22:45:00.000,-1187895,,,,,,
1572562200,2019-10-31 22:50:00.000,-1190040,,,,,,
1572562500,2019-10-31 22:55:00.000,-1189801,,,,,,
