Time(longsecs),Time(UTC),Supply voltage(V),Total current(A),Temperature(&deg;C),
1572436800,2019-10-30 12:00:00.000,1.3665092175E1,1.17012617012592E-1,2.5843E1,
1572437100,2019-10-30 12:05:00.000,1.3974744509999999E1,1.14105471248304E-1,2.5906E1,
1572437400,2019-10-30 12:10:00.000,1.4526733454999999E1,1.09744752601872E-1,2.5906E1,
1572437700,2019-10-30 12:15:00.000,1.3934355075E1,1.17012617012592E-1,2.5937E1,
1572438000,2019-10-30 12:20:00.000,1.3934355075E1,1.15559044130448E-1,2.5968E1,
1572438300,2019-10-30 12:25:00.000,1.3907428784999999E1,1.6570730856441598E-1,2.6E1,
1572438600,2019-10-30 12:30:00.000,1.392089193E1,1.17739403453664E-1,2.6062E1,
1572438900,2019-10-30 12:35:00.000,1.392089193E1,1.14832257689376E-1,2.6093E1,
1572439200,2019-10-30 12:40:00.000,1.392089193E1,1.15559044130448E-1,2.6125E1,
1572439500,2019-10-30 12:45:00.000,1.3934355075E1,1.14832257689376E-1,2.6093E1,
1572439800,2019-10-30 12:50:00.000,1.3907428784999999E1,1.49718006860832E-1,2.6156E1,
1572440100,2019-10-30 12:55:00.000,1.3934355075E1,1.15559044130448E-1,2.6218E1,
