Time(longsecs),Time(UTC),Earth location,GNSS receiver status,GNSS satellites used,Timing status,Phase lock loop status,Time uncertainty(ns),Timing DAC count,Time quality(&#37;),Time error(ns),
1570410000,2019-10-07 01:00:00.000,47.646067N 0.547054E 166m,Off,9,Time OK,Free running,21300,8372,90,0,
1570410300,2019-10-07 01:05:00.000,47.646067N 0.547054E 166m,Off,9,Time OK,Free running,30100,8372,90,0,
1570410600,2019-10-07 01:10:00.000,47.646067N 0.547054E 166m,Off,9,Time OK,Free running,38600,8372,90,0,
1570410900,2019-10-07 01:15:00.000,47.646067N 0.547054E 166m,Off,9,Time OK,Free running,47400,8372,90,0,
1570411200,2019-10-07 01:20:00.000,47.646067N 0.547054E 166m,GNSS locked,8,Time OK,Fine lock,200,8371,100,208,
1570411500,2019-10-07 01:25:00.000,47.646067N 0.547054E 166m,Off,8,Time OK,Free running,8700,8376,90,0,
1570411800,2019-10-07 01:30:00.000,47.646067N 0.547054E 166m,Off,8,Time OK,Free running,17100,8376,90,0,
1570412100,2019-10-07 01:35:00.000,47.646067N 0.547054E 166m,Off,8,Time OK,Free running,26000,8376,90,0,
1570412400,2019-10-07 01:40:00.000,47.646067N 0.547054E 166m,Off,8,Time OK,Free running,35100,8376,90,0,
1570412700,2019-10-07 01:45:00.000,47.646067N 0.547054E 166m,Off,8,Time OK,Free running,44800,8376,90,0,
1570413000,2019-10-07 01:50:00.000,47.646067N 0.547054E 166m,GNSS locked,8,Time OK,Fine lock,400,8372,100,312,
1570413300,2019-10-07 01:55:00.000,47.646067N 0.547054E 166m,Off,8,Time OK,Free running,7900,8371,90,0,
