Time(longsecs),Time(UTC),Earth location,GNSS receiver status,GNSS satellites used,Timing status,Phase lock loop status,Time uncertainty(ns),Timing DAC count,Time quality(&#37;),Time error(ns),
1571882400,2019-10-24 02:00:00.000,47.645933N 0.547013E 235m,Off,8,Time OK,Free running,49300,8358,90,0,
1571882700,2019-10-24 02:05:00.000,47.645933N 0.547013E 235m,Off,8,Time OK,Free running,1700,8360,90,0,
1571883000,2019-10-24 02:10:00.000,47.645933N 0.547013E 235m,Off,8,Time OK,Free running,11600,8360,90,0,
1571883300,2019-10-24 02:15:00.000,47.645933N 0.547013E 235m,Off,8,Time OK,Free running,21300,8360,90,0,
1571883600,2019-10-24 02:20:00.000,47.645933N 0.547013E 235m,Off,8,Time OK,Free running,30800,8360,90,0,
1571883900,2019-10-24 02:25:00.000,47.645933N 0.547013E 235m,Off,8,Time OK,Free running,39900,8360,90,0,
1571884200,2019-10-24 02:30:00.000,47.645933N 0.547013E 235m,Off,8,Time OK,Free running,48400,8360,90,0,
1571884500,2019-10-24 02:35:00.000,47.645933N 0.547013E 235m,GNSS locked,7,Time OK,Fine lock,200,8358,100,0,
1571884800,2019-10-24 02:40:00.000,47.645933N 0.547013E 235m,Off,7,Time OK,Free running,8400,8355,90,0,
1571885100,2019-10-24 02:45:00.000,47.645933N 0.547013E 235m,Off,7,Time OK,Free running,17300,8355,90,0,
1571885400,2019-10-24 02:50:00.000,47.645933N 0.547013E 235m,Off,7,Time OK,Free running,25900,8355,90,0,
1571885700,2019-10-24 02:55:00.000,47.645933N 0.547013E 235m,Off,7,Time OK,Free running,34500,8355,90,0,
