Time(longsecs),Time(UTC),Sensor SOH Voltage A 1(uV),Sensor SOH Voltage A 2(uV),Sensor SOH Voltage A 3(uV),External SOH Voltage 1(uV),External SOH Voltage 2(uV),External SOH Voltage 3(uV),
1570914000,2019-10-12 21:00:00.000,-1210072,,,,,,
1570914300,2019-10-12 21:05:00.000,-1207819,,,,,,
1570914600,2019-10-12 21:10:00.000,-1207937,,,,,,
1570914900,2019-10-12 21:15:00.000,-1207944,,,,,,
1570915200,2019-10-12 21:20:00.000,-1208027,,,,,,
1570915500,2019-10-12 21:25:00.000,-1207743,,,,,,
1570915800,2019-10-12 21:30:00.000,-1207750,,,,,,
1570916100,2019-10-12 21:35:00.000,-1207805,,,,,,
1570916400,2019-10-12 21:40:00.000,-1209814,,,,,,
1570916700,2019-10-12 21:45:00.000,-1209838,,,,,,
1570917000,2019-10-12 21:50:00.000,-1209934,,,,,,
1570917300,2019-10-12 21:55:00.000,-1207664,,,,,,
