Time(longsecs),Time(UTC),Supply voltage(V),Total current(A),Temperature(&deg;C),
1571274000,2019-10-17 01:00:00.000,1.3247734679999999E1,9.811616954472E-2,2.3968E1,
1571274300,2019-10-17 01:05:00.000,1.3261197825E1,9.593581022150399E-2,2.4E1,
1571274600,2019-10-17 01:10:00.000,1.3261197825E1,9.6662596662576E-2,2.3968E1,
1571274900,2019-10-17 01:15:00.000,1.3247734679999999E1,9.7389383103648E-2,2.3937E1,
1571275200,2019-10-17 01:20:00.000,1.3261197825E1,9.6662596662576E-2,2.3937E1,
1571275500,2019-10-17 01:25:00.000,1.3261197825E1,1.00296528867936E-1,2.3906E1,
1571275800,2019-10-17 01:30:00.000,1.3247734679999999E1,9.593581022150399E-2,2.3906E1,
1571276100,2019-10-17 01:35:00.000,1.3247734679999999E1,9.811616954472E-2,2.3906E1,
1571276400,2019-10-17 01:40:00.000,1.3261197825E1,9.811616954472E-2,2.3906E1,
1571276700,2019-10-17 01:45:00.000,1.3247734679999999E1,9.5209023780432E-2,2.3875E1,
1571277000,2019-10-17 01:50:00.000,1.3247734679999999E1,9.5209023780432E-2,2.3843E1,
1571277300,2019-10-17 01:55:00.000,1.3247734679999999E1,9.7389383103648E-2,2.3843E1,
