Time(longsecs),Time(UTC),Supply voltage(V),Total current(A),Temperature(&deg;C),
1572015600,2019-10-25 15:00:00.000,1.3934355075E1,9.230187801614399E-2,2.5718E1,
1572015900,2019-10-25 15:05:00.000,1.3947818219999998E1,9.1575091575072E-2,2.5562E1,
1572016200,2019-10-25 15:10:00.000,1.3947818219999998E1,9.230187801614399E-2,2.5437E1,
1572016500,2019-10-25 15:15:00.000,1.3934355075E1,9.3028664457216E-2,2.5312E1,
1572016800,2019-10-25 15:20:00.000,1.3934355075E1,1.2210012210009599E-1,2.525E1,
1572017100,2019-10-25 15:25:00.000,1.3947818219999998E1,9.0848305134E-2,2.5187E1,
1572017400,2019-10-25 15:30:00.000,1.3934355075E1,9.230187801614399E-2,2.5093E1,
1572017700,2019-10-25 15:35:00.000,1.3934355075E1,9.3755450898288E-2,2.4968E1,
1572018000,2019-10-25 15:40:00.000,1.3907428784999999E1,9.1575091575072E-2,2.4843E1,
1572018300,2019-10-25 15:45:00.000,1.3934355075E1,9.1575091575072E-2,2.4812E1,
1572018600,2019-10-25 15:50:00.000,1.3934355075E1,9.3755450898288E-2,2.475E1,
1572018900,2019-10-25 15:55:00.000,1.3934355075E1,9.0848305134E-2,2.4718E1,
