Time(longsecs),Time(UTC),Sensor SOH Voltage A 1(uV),Sensor SOH Voltage A 2(uV),Sensor SOH Voltage A 3(uV),External SOH Voltage 1(uV),External SOH Voltage 2(uV),External SOH Voltage 3(uV),
1571493600,2019-10-19 14:00:00.000,-1201950,,,,,,
1571493900,2019-10-19 14:05:00.000,-1204141,,,,,,
1571494200,2019-10-19 14:10:00.000,-1200238,,,,,,
1571494500,2019-10-19 14:15:00.000,-1202170,,,,,,
1571494800,2019-10-19 14:20:00.000,-1198164,,,,,,
1571495100,2019-10-19 14:25:00.000,-1200023,,,,,,
1571495400,2019-10-19 14:30:00.000,-1202098,,,,,,
1571495700,2019-10-19 14:35:00.000,-1199999,,,,,,
1571496000,2019-10-19 14:40:00.000,-1202390,,,,,,
1571496300,2019-10-19 14:45:00.000,-1200097,,,,,,
1571496600,2019-10-19 14:50:00.000,-1202215,,,,,,
1571496900,2019-10-19 14:55:00.000,-1199796,,,,,,
