Time(longsecs),Time(UTC),Earth location,GNSS receiver status,GNSS satellites used,Timing status,Phase lock loop status,Time uncertainty(ns),Timing DAC count,Time quality(&#37;),Time error(ns),
1571803200,2019-10-23 04:00:00.000,47.646113N 0.546715E 151m,Off,9,Time OK,Free running,9200,8357,90,0,
1571803500,2019-10-23 04:05:00.000,47.646113N 0.546715E 151m,Off,9,Time OK,Free running,18800,8357,90,0,
1571803800,2019-10-23 04:10:00.000,47.646113N 0.546715E 151m,Off,9,Time OK,Free running,28800,8357,90,0,
1571804100,2019-10-23 04:15:00.000,47.646113N 0.546715E 151m,Off,9,Time OK,Free running,38000,8357,90,0,
1571804400,2019-10-23 04:20:00.000,47.646113N 0.546715E 151m,Off,9,Time OK,Free running,47100,8357,90,0,
1571804700,2019-10-23 04:25:00.000,47.646113N 0.546715E 151m,GNSS locked,8,Time OK,Fine lock,300,8350,100,208,
1571805000,2019-10-23 04:30:00.000,47.646113N 0.546715E 151m,Off,8,Time OK,Free running,9200,8349,90,0,
1571805300,2019-10-23 04:35:00.000,47.646113N 0.546715E 151m,Off,8,Time OK,Free running,18800,8349,90,0,
1571805600,2019-10-23 04:40:00.000,47.646113N 0.546715E 151m,Off,8,Time OK,Free running,28300,8349,90,0,
1571805900,2019-10-23 04:45:00.000,47.646113N 0.546715E 151m,Off,8,Time OK,Free running,37300,8349,90,0,
1571806200,2019-10-23 04:50:00.000,47.646113N 0.546715E 151m,Off,8,Time OK,Free running,46100,8349,90,0,
1571806500,2019-10-23 04:55:00.000,47.646113N 0.546715E 151m,GNSS locked,7,Time OK,Fine lock,700,8357,100,-625,
