Time(longsecs),Time(UTC),Supply voltage(V),Total current(A),Temperature(&deg;C),
1570518000,2019-10-08 07:00:00.000,1.316695581E1,1.2210012210009599E-1,2.8562E1,
1570518300,2019-10-08 07:05:00.000,1.3180418954999999E1,1.22826908541168E-1,2.8562E1,
1570518600,2019-10-08 07:10:00.000,1.3153492665E1,1.56985871271552E-1,2.8562E1,
1570518900,2019-10-08 07:15:00.000,1.3180418954999999E1,1.2210012210009599E-1,2.8593E1,
1570519200,2019-10-08 07:20:00.000,1.31938821E1,1.21373335659024E-1,2.8593E1,
1570519500,2019-10-08 07:25:00.000,1.31938821E1,1.24280481423312E-1,2.8625E1,
1570519800,2019-10-08 07:30:00.000,1.3180418954999999E1,1.21373335659024E-1,2.8593E1,
1570520100,2019-10-08 07:35:00.000,1.3180418954999999E1,1.2210012210009599E-1,2.8625E1,
1570520400,2019-10-08 07:40:00.000,1.316695581E1,1.5625908483048E-1,2.8593E1,
1570520700,2019-10-08 07:45:00.000,1.31938821E1,1.2210012210009599E-1,2.8656000000000002E1,
1570521000,2019-10-08 07:50:00.000,1.3180418954999999E1,1.22826908541168E-1,2.8687E1,
1570521300,2019-10-08 07:55:00.000,1.316695581E1,1.271876271876E-1,2.8718E1,
