Time(longsecs),Time(UTC),Supply voltage(V),Total current(A),Temperature(&deg;C),
1572231600,2019-10-28 03:00:00.000,1.3247734679999999E1,9.5209023780432E-2,2.1343E1,
1572231900,2019-10-28 03:05:00.000,1.3247734679999999E1,9.956974242686399E-2,2.1375E1,
1572232200,2019-10-28 03:10:00.000,1.3247734679999999E1,9.593581022150399E-2,2.1375E1,
1572232500,2019-10-28 03:15:00.000,1.3247734679999999E1,9.593581022150399E-2,2.1375E1,
1572232800,2019-10-28 03:20:00.000,1.3247734679999999E1,9.5209023780432E-2,2.1343E1,
1572233100,2019-10-28 03:25:00.000,1.3247734679999999E1,9.6662596662576E-2,2.1312E1,
1572233400,2019-10-28 03:30:00.000,1.3247734679999999E1,9.593581022150399E-2,2.1343E1,
1572233700,2019-10-28 03:35:00.000,1.3220808389999998E1,1.3082155939296E-1,2.1343E1,
1572234000,2019-10-28 03:40:00.000,1.3247734679999999E1,9.5209023780432E-2,2.1375E1,
1572234300,2019-10-28 03:45:00.000,1.3247734679999999E1,9.5209023780432E-2,2.1375E1,
1572234600,2019-10-28 03:50:00.000,1.3247734679999999E1,9.6662596662576E-2,2.1343E1,
1572234900,2019-10-28 03:55:00.000,1.3247734679999999E1,9.5209023780432E-2,2.1343E1,
