Time(longsecs),Time(UTC),Earth location,GNSS receiver status,GNSS satellites used,Timing status,Phase lock loop status,Time uncertainty(ns),Timing DAC count,Time quality(&#37;),Time error(ns),
1572501600,2019-10-31 06:00:00.000,47.646235N 0.547012E 175m,Off,8,Time OK,Free running,24400,8348,90,0,
1572501900,2019-10-31 06:05:00.000,47.646235N 0.547012E 175m,Off,8,Time OK,Free running,33000,8348,90,0,
1572502200,2019-10-31 06:10:00.000,47.646235N 0.547012E 175m,Off,8,Time OK,Free running,41600,8348,90,0,
1572502500,2019-10-31 06:15:00.000,47.646235N 0.547012E 175m,GNSS unlocked,0,Time OK,Free running,50600,8348,90,0,
1572502800,2019-10-31 06:20:00.000,47.646235N 0.547012E 175m,Off,7,Time OK,Free running,3600,8349,90,0,
1572503100,2019-10-31 06:25:00.000,47.646235N 0.547012E 175m,Off,7,Time OK,Free running,12400,8349,90,0,
1572503400,2019-10-31 06:30:00.000,47.646235N 0.547012E 175m,Off,7,Time OK,Free running,21200,8349,90,0,
1572503700,2019-10-31 06:35:00.000,47.646235N 0.547012E 175m,Off,7,Time OK,Free running,29700,8349,90,0,
1572504000,2019-10-31 06:40:00.000,47.646235N 0.547012E 175m,Off,7,Time OK,Free running,38300,8349,90,0,
1572504300,2019-10-31 06:45:00.000,47.646235N 0.547012E 175m,Off,7,Time OK,Free running,47100,8349,90,0,
1572504600,2019-10-31 06:50:00.000,47.646235N 0.547012E 175m,GNSS locked,10,Time OK,Fine lock,200,8357,100,-208,
1572504900,2019-10-31 06:55:00.000,47.646235N 0.547012E 175m,Off,10,Time OK,Free running,8600,8356,90,0,
