Time(longsecs),Time(UTC),Supply voltage(V),Total current(A),Temperature(&deg;C),
1572501600,2019-10-31 06:00:00.000,1.3234271535E1,9.5209023780432E-2,2.075E1,
1572501900,2019-10-31 06:05:00.000,1.3234271535E1,9.593581022150399E-2,2.0718E1,
1572502200,2019-10-31 06:10:00.000,1.3234271535E1,9.6662596662576E-2,2.075E1,
1572502500,2019-10-31 06:15:00.000,1.3234271535E1,9.5209023780432E-2,2.0718E1,
1572502800,2019-10-31 06:20:00.000,1.3234271535E1,9.593581022150399E-2,2.0781E1,
1572503100,2019-10-31 06:25:00.000,1.3234271535E1,9.593581022150399E-2,2.075E1,
1572503400,2019-10-31 06:30:00.000,1.3234271535E1,9.593581022150399E-2,2.0781E1,
1572503700,2019-10-31 06:35:00.000,1.3247734679999999E1,9.593581022150399E-2,2.075E1,
1572504000,2019-10-31 06:40:00.000,1.3234271535E1,9.593581022150399E-2,2.0718E1,
1572504300,2019-10-31 06:45:00.000,1.3234271535E1,9.593581022150399E-2,2.0718E1,
1572504600,2019-10-31 06:50:00.000,1.3220808389999998E1,1.3227513227510398E-1,2.075E1,
1572504900,2019-10-31 06:55:00.000,1.3247734679999999E1,9.5209023780432E-2,2.0781E1,
