Time(longsecs),Time(UTC),Earth location,GNSS receiver status,GNSS satellites used,Timing status,Phase lock loop status,Time uncertainty(ns),Timing DAC count,Time quality(&#37;),Time error(ns),
1571302800,2019-10-17 09:00:00.000,47.646014N 0.547138E 211m,Off,8,Time OK,Free running,48200,8360,90,0,
1571303100,2019-10-17 09:05:00.000,47.646014N 0.547138E 211m,Off,10,Time OK,Free running,1300,8359,90,0,
1571303400,2019-10-17 09:10:00.000,47.646014N 0.547138E 211m,Off,10,Time OK,Free running,10900,8359,90,0,
1571303700,2019-10-17 09:15:00.000,47.646014N 0.547138E 211m,Off,10,Time OK,Free running,21100,8359,90,0,
1571304000,2019-10-17 09:20:00.000,47.646014N 0.547138E 211m,Off,10,Time OK,Free running,31400,8359,90,0,
1571304300,2019-10-17 09:25:00.000,47.646014N 0.547138E 211m,Off,10,Time OK,Free running,42200,8359,90,0,
1571304600,2019-10-17 09:30:00.000,47.646014N 0.547138E 211m,GNSS locked,6,Time OK,Coarse lock,1500,8306,90,1458,
1571304900,2019-10-17 09:35:00.000,47.646014N 0.547138E 211m,Off,10,Time OK,Free running,5800,8360,90,0,
1571305200,2019-10-17 09:40:00.000,47.646014N 0.547138E 211m,Off,10,Time OK,Free running,15600,8360,90,0,
1571305500,2019-10-17 09:45:00.000,47.646014N 0.547138E 211m,Off,10,Time OK,Free running,26500,8360,90,0,
1571305800,2019-10-17 09:50:00.000,47.646014N 0.547138E 211m,Off,10,Time OK,Free running,37300,8360,90,0,
1571306100,2019-10-17 09:55:00.000,47.646014N 0.547138E 211m,Off,10,Time OK,Free running,48800,8360,90,0,
