Time(longsecs),Time(UTC),Supply voltage(V),Total current(A),Temperature(&deg;C),
1571497200,2019-10-19 15:00:00.000,1.3947818219999998E1,9.3028664457216E-2,2.675E1,
1571497500,2019-10-19 15:05:00.000,1.3947818219999998E1,9.3028664457216E-2,2.6593E1,
1571497800,2019-10-19 15:10:00.000,1.3934355075E1,9.1575091575072E-2,2.65E1,
1571498100,2019-10-19 15:15:00.000,1.3947818219999998E1,9.0848305134E-2,2.6343E1,
1571498400,2019-10-19 15:20:00.000,1.3934355075E1,1.22826908541168E-1,2.625E1,
1571498700,2019-10-19 15:25:00.000,1.3947818219999998E1,9.0848305134E-2,2.6156E1,
1571499000,2019-10-19 15:30:00.000,1.3934355075E1,1.02476888191152E-1,2.6031E1,
1571499300,2019-10-19 15:35:00.000,1.3947818219999998E1,9.230187801614399E-2,2.5937E1,
1571499600,2019-10-19 15:40:00.000,1.3934355075E1,1.2355369498224E-1,2.5812E1,
1571499900,2019-10-19 15:45:00.000,1.3947818219999998E1,9.0848305134E-2,2.5781E1,
1571500200,2019-10-19 15:50:00.000,1.3947818219999998E1,9.0848305134E-2,2.5718E1,
1571500500,2019-10-19 15:55:00.000,1.3934355075E1,9.0848305134E-2,2.5625E1,
