Time(longsecs),Time(UTC),Sensor SOH Voltage A 1(uV),Sensor SOH Voltage A 2(uV),Sensor SOH Voltage A 3(uV),External SOH Voltage 1(uV),External SOH Voltage 2(uV),External SOH Voltage 3(uV),
1570723200,2019-10-10 16:00:00.000,-1210106,,,,,,
1570723500,2019-10-10 16:05:00.000,-1209057,,,,,,
1570723800,2019-10-10 16:10:00.000,-1207991,,,,,,
1570724100,2019-10-10 16:15:00.000,-1208830,,,,,,
1570724400,2019-10-10 16:20:00.000,-1206592,,,,,,
1570724700,2019-10-10 16:25:00.000,-1208844,,,,,,
1570725000,2019-10-10 16:30:00.000,-1209370,,,,,,
1570725300,2019-10-10 16:35:00.000,-1207956,,,,,,
1570725600,2019-10-10 16:40:00.000,-1210070,,,,,,
1570725900,2019-10-10 16:45:00.000,-1210261,,,,,,
1570726200,2019-10-10 16:50:00.000,-1208056,,,,,,
1570726500,2019-10-10 16:55:00.000,-1209988,,,,,,
