Time(longsecs),Time(UTC),Supply voltage(V),Total current(A),Temperature(&deg;C),
1570053600,2019-10-02 22:00:00.000,1.3207345244999999E1,1.21373335659024E-1,2.8343E1,
1570053900,2019-10-02 22:05:00.000,1.3207345244999999E1,1.20646549217952E-1,2.8281000000000002E1,
1570054200,2019-10-02 22:10:00.000,1.3207345244999999E1,1.44630501773328E-1,2.8281000000000002E1,
1570054500,2019-10-02 22:15:00.000,1.3207345244999999E1,1.22826908541168E-1,2.8218E1,
1570054800,2019-10-02 22:20:00.000,1.31938821E1,1.55532298389408E-1,2.8187E1,
1570055100,2019-10-02 22:25:00.000,1.3220808389999998E1,1.20646549217952E-1,2.8187E1,
1570055400,2019-10-02 22:30:00.000,1.3207345244999999E1,1.25007267864384E-1,2.8156000000000002E1,
1570055700,2019-10-02 22:35:00.000,1.3207345244999999E1,1.2355369498224E-1,2.8156000000000002E1,
1570056000,2019-10-02 22:40:00.000,1.3207345244999999E1,1.21373335659024E-1,2.8062E1,
1570056300,2019-10-02 22:45:00.000,1.3207345244999999E1,1.20646549217952E-1,2.8062E1,
1570056600,2019-10-02 22:50:00.000,1.3207345244999999E1,1.25734054305456E-1,2.8062E1,
1570056900,2019-10-02 22:55:00.000,1.3207345244999999E1,1.2210012210009599E-1,2.8062E1,
