Time(longsecs),Time(UTC),Earth location,GNSS receiver status,GNSS satellites used,Timing status,Phase lock loop status,Time uncertainty(ns),Timing DAC count,Time quality(&#37;),Time error(ns),
1571130000,2019-10-15 09:00:00.000,47.646014N 0.547138E 211m,Off,9,Time OK,Free running,17100,8372,90,0,
1571130300,2019-10-15 09:05:00.000,47.646014N 0.547138E 211m,Off,9,Time OK,Free running,27600,8372,90,0,
1571130600,2019-10-15 09:10:00.000,47.646014N 0.547138E 211m,Off,9,Time OK,Free running,38500,8372,90,0,
1571130900,2019-10-15 09:15:00.000,47.646014N 0.547138E 211m,Off,9,Time OK,Free running,49200,8372,90,0,
1571131200,2019-10-15 09:20:00.000,47.646014N 0.547138E 211m,Off,8,Time OK,Free running,2800,8381,90,0,
1571131500,2019-10-15 09:25:00.000,47.646014N 0.547138E 211m,Off,8,Time OK,Free running,12000,8381,90,0,
1571131800,2019-10-15 09:30:00.000,47.646014N 0.547138E 211m,Off,8,Time OK,Free running,22100,8381,90,0,
1571132100,2019-10-15 09:35:00.000,47.646014N 0.547138E 211m,Off,8,Time OK,Free running,32500,8381,90,0,
1571132400,2019-10-15 09:40:00.000,47.646014N 0.547138E 211m,Off,8,Time OK,Free running,43300,8381,90,0,
1571132700,2019-10-15 09:45:00.000,47.646014N 0.547138E 211m,GNSS locked,9,Time OK,Coarse lock,300,8381,90,208,
1571133000,2019-10-15 09:50:00.000,47.646014N 0.547138E 211m,Off,8,Time OK,Free running,6300,8368,90,0,
1571133300,2019-10-15 09:55:00.000,47.646014N 0.547138E 211m,Off,8,Time OK,Free running,16500,8368,90,0,
