Time(longsecs),Time(UTC),GPS Satellite Acquisition Flag 1,GPS Satellite Acquisition Flag 2,GPS Satellite Acquisition Flag 3,GPS Satellite Acquisition Flag 4,GPS Satellite Acquisition Flag 5,GPS Satellite Acquisition Flag 6,GPS Satellite Acquisition Flag 7,GPS Satellite Acquisition Flag 8,GPS Satellite Acquisition Flag 9,GPS Satellite Acquisition Flag 10,GPS Satellite Acquisition Flag 11,GPS Satellite Acquisition Flag 12,GPS Satellite Azimuth 1(Degrees),GPS Satellite Azimuth 2(Degrees),GPS Satellite Azimuth 3(Degrees),GPS Satellite Azimuth 4(Degrees),GPS Satellite Azimuth 5(Degrees),GPS Satellite Azimuth 6(Degrees),GPS Satellite Azimuth 7(Degrees),GPS Satellite Azimuth 8(Degrees),GPS Satellite Azimuth 9(Degrees),GPS Satellite Azimuth 10(Degrees),GPS Satellite Azimuth 11(Degrees),GPS Satellite Azimuth 12(Degrees),GPS Satellite Elevation 1(Degrees),GPS Satellite Elevation 2(Degrees),GPS Satellite Elevation 3(Degrees),GPS Satellite Elevation 4(Degrees),GPS Satellite Elevation 5(Degrees),GPS Satellite Elevation 6(Degrees),GPS Satellite Elevation 7(Degrees),GPS Satellite Elevation 8(Degrees),GPS Satellite Elevation 9(Degrees),GPS Satellite Elevation 10(Degrees),GPS Satellite Elevation 11(Degrees),GPS Satellite Elevation 12(Degrees),GPS Satellite PRN 1,GPS Satellite PRN 2,GPS Satellite PRN 3,GPS Satellite PRN 4,GPS Satellite PRN 5,GPS Satellite PRN 6,GPS Satellite PRN 7,GPS Satellite PRN 8,GPS Satellite PRN 9,GPS Satellite PRN 10,GPS Satellite PRN 11,GPS Satellite PRN 12,GPS Satellite Signal Level 1(AMU),GPS Satellite Signal Level 2(AMU),GPS Satellite Signal Level 3(AMU),GPS Satellite Signal Level 4(AMU),GPS Satellite Signal Level 5(AMU),GPS Satellite Signal Level 6(AMU),GPS Satellite Signal Level 7(AMU),GPS Satellite Signal Level 8(AMU),GPS Satellite Signal Level 9(AMU),GPS Satellite Signal Level 10(AMU),GPS Satellite Signal Level 11(AMU),GPS Satellite Signal Level 12(AMU),
1572033620,2019-10-25 20:00:20.663,Acquired,Acquired,Acquired,Acquired,Acquired,Acquired,Acquired,Acquired,Acquired,,,,3.15502048E2,2.09202192E2,1.35594352E2,1.91833296E2,9.088285599999999E1,1.15277272E2,2.8492848E2,2.7962512E2,4.9037212E1,,,,2.0466587999999998E1,2.5744774E1,4.4386724E1,7.0690296E1,3.0518777999999998E1,2.4470133999999998E1,2.7704663999999998E1,5.4717884E1,2.93234E1,,,,10,12,13,15,17,19,20,24,28,,,,2,7,8,14,2,4,6,6,2,,,,
1572033680,2019-10-25 20:01:20.663,Acquired,Acquired,Acquired,Acquired,Acquired,Acquired,Acquired,Acquired,Acquired,,,,3.15502048E2,2.09202192E2,1.35594352E2,1.91833296E2,9.088285599999999E1,1.15277272E2,2.8492848E2,2.7962512E2,4.9037212E1,,,,2.0466587999999998E1,2.5744774E1,4.4386724E1,7.0690296E1,3.0518777999999998E1,2.4470133999999998E1,2.7704663999999998E1,5.4717884E1,2.93234E1,,,,10,12,13,15,17,19,20,24,28,,,,2,7,8,14,2,4,6,6,2,,,,
1572033740,2019-10-25 20:02:20.663,Acquired,Acquired,Acquired,Acquired,Acquired,Acquired,Acquired,Acquired,Acquired,,,,3.15502048E2,2.09202192E2,1.35594352E2,1.91833296E2,9.088285599999999E1,1.15277272E2,2.8492848E2,2.7962512E2,4.9037212E1,,,,2.0466587999999998E1,2.5744774E1,4.4386724E1,7.0690296E1,3.0518777999999998E1,2.4470133999999998E1,2.7704663999999998E1,5.4717884E1,2.93234E1,,,,10,12,13,15,17,19,20,24,28,,,,2,7,8,14,2,4,6,6,2,,,,
1572033800,2019-10-25 20:03:20.663,Acquired,Acquired,Acquired,Acquired,Acquired,Acquired,Acquired,Acquired,Acquired,,,,3.15502048E2,2.09202192E2,1.35594352E2,1.91833296E2,9.088285599999999E1,1.15277272E2,2.8492848E2,2.7962512E2,4.9037212E1,,,,2.0466587999999998E1,2.5744774E1,4.4386724E1,7.0690296E1,3.0518777999999998E1,2.4470133999999998E1,2.7704663999999998E1,5.4717884E1,2.93234E1,,,,10,12,13,15,17,19,20,24,28,,,,2,7,8,14,2,4,6,6,2,,,,
1572033860,2019-10-25 20:04:20.696,Acquired,Acquired,Acquired,Acquired,Acquired,Acquired,Acquired,Acquired,Acquired,,,,3.15502048E2,2.09202192E2,1.35594352E2,1.91833296E2,9.088285599999999E1,1.15277272E2,2.8492848E2,2.7962512E2,4.9037212E1,,,,2.0466587999999998E1,2.5744774E1,4.4386724E1,7.0690296E1,3.0518777999999998E1,2.4470133999999998E1,2.7704663999999998E1,5.4717884E1,2.93234E1,,,,10,12,13,15,17,19,20,24,28,,,,2,7,8,14,2,4,6,6,2,,,,
1572033920,2019-10-25 20:05:20.663,Acquired,Acquired,Acquired,Acquired,Acquired,Acquired,Acquired,Acquired,Acquired,,,,3.15502048E2,2.09202192E2,1.35594352E2,1.91833296E2,9.088285599999999E1,1.15277272E2,2.8492848E2,2.7962512E2,4.9037212E1,,,,2.0466587999999998E1,2.5744774E1,4.4386724E1,7.0690296E1,3.0518777999999998E1,2.4470133999999998E1,2.7704663999999998E1,5.4717884E1,2.93234E1,,,,10,12,13,15,17,19,20,24,28,,,,2,7,8,14,2,4,6,6,2,,,,
1572033980,2019-10-25 20:06:20.663,Acquired,Acquired,Acquired,Acquired,Acquired,Acquired,Acquired,Acquired,Acquired,,,,3.15502048E2,2.09202192E2,1.35594352E2,1.91833296E2,9.088285599999999E1,1.15277272E2,2.8492848E2,2.7962512E2,4.9037212E1,,,,2.0466587999999998E1,2.5744774E1,4.4386724E1,7.0690296E1,3.0518777999999998E1,2.4470133999999998E1,2.7704663999999998E1,5.4717884E1,2.93234E1,,,,10,12,13,15,17,19,20,24,28,,,,2,7,8,14,2,4,6,6,2,,,,
1572034040,2019-10-25 20:07:20.663,Acquired,Acquired,Acquired,Acquired,Acquired,Acquired,Acquired,Acquired,Acquired,,,,3.15502048E2,2.09202192E2,1.35594352E2,1.91833296E2,9.088285599999999E1,1.15277272E2,2.8492848E2,2.7962512E2,4.9037212E1,,,,2.0466587999999998E1,2.5744774E1,4.4386724E1,7.0690296E1,3.0518777999999998E1,2.4470133999999998E1,2.7704663999999998E1,5.4717884E1,2.93234E1,,,,10,12,13,15,17,19,20,24,28,,,,2,7,8,14,2,4,6,6,2,,,,
1572034100,2019-10-25 20:08:20.663,Acquired,Acquired,Acquired,Acquired,Acquired,Acquired,Acquired,Acquired,Acquired,,,,3.15502048E2,2.09202192E2,1.35594352E2,1.91833296E2,9.088285599999999E1,1.15277272E2,2.8492848E2,2.7962512E2,4.9037212E1,,,,2.0466587999999998E1,2.5744774E1,4.4386724E1,7.0690296E1,3.0518777999999998E1,2.4470133999999998E1,2.7704663999999998E1,5.4717884E1,2.93234E1,,,,10,12,13,15,17,19,20,24,28,,,,2,7,8,14,2,4,6,6,2,,,,
1572034160,2019-10-25 20:09:20.663,Acquired,Acquired,Acquired,Acquired,Acquired,Acquired,Acquired,Acquired,Acquired,,,,3.15502048E2,2.09202192E2,1.35594352E2,1.91833296E2,9.088285599999999E1,1.15277272E2,2.8492848E2,2.7962512E2,4.9037212E1,,,,2.0466587999999998E1,2.5744774E1,4.4386724E1,7.0690296E1,3.0518777999999998E1,2.4470133999999998E1,2.7704663999999998E1,5.4717884E1,2.93234E1,,,,10,12,13,15,17,19,20,24,28,,,,2,7,8,14,2,4,6,6,2,,,,
1572034220,2019-10-25 20:10:20.663,Acquired,Acquired,Acquired,Acquired,Acquired,Acquired,Acquired,Acquired,Acquired,,,,3.15502048E2,2.09202192E2,1.35594352E2,1.91833296E2,9.088285599999999E1,1.15277272E2,2.8492848E2,2.7962512E2,4.9037212E1,,,,2.0466587999999998E1,2.5744774E1,4.4386724E1,7.0690296E1,3.0518777999999998E1,2.4470133999999998E1,2.7704663999999998E1,5.4717884E1,2.93234E1,,,,10,12,13,15,17,19,20,24,28,,,,2,7,8,14,2,4,6,6,2,,,,
1572034280,2019-10-25 20:11:20.663,Acquired,Acquired,Acquired,Acquired,Acquired,Acquired,Acquired,Acquired,Acquired,,,,3.15502048E2,2.09202192E2,1.35594352E2,1.91833296E2,9.088285599999999E1,1.15277272E2,2.8492848E2,2.7962512E2,4.9037212E1,,,,2.0466587999999998E1,2.5744774E1,4.4386724E1,7.0690296E1,3.0518777999999998E1,2.4470133999999998E1,2.7704663999999998E1,5.4717884E1,2.93234E1,,,,10,12,13,15,17,19,20,24,28,,,,2,7,8,14,2,4,6,6,2,,,,
1572034340,2019-10-25 20:12:20.663,Acquired,Acquired,Acquired,Acquired,Acquired,Acquired,Acquired,Acquired,Acquired,,,,3.15502048E2,2.09202192E2,1.35594352E2,1.91833296E2,9.088285599999999E1,1.15277272E2,2.8492848E2,2.7962512E2,4.9037212E1,,,,2.0466587999999998E1,2.5744774E1,4.4386724E1,7.0690296E1,3.0518777999999998E1,2.4470133999999998E1,2.7704663999999998E1,5.4717884E1,2.93234E1,,,,10,12,13,15,17,19,20,24,28,,,,2,7,8,14,2,4,6,6,2,,,,
1572034400,2019-10-25 20:13:20.663,Acquired,Acquired,Acquired,Acquired,Acquired,Acquired,Acquired,Acquired,Acquired,,,,3.15502048E2,2.09202192E2,1.35594352E2,1.91833296E2,9.088285599999999E1,1.15277272E2,2.8492848E2,2.7962512E2,4.9037212E1,,,,2.0466587999999998E1,2.5744774E1,4.4386724E1,7.0690296E1,3.0518777999999998E1,2.4470133999999998E1,2.7704663999999998E1,5.4717884E1,2.93234E1,,,,10,12,13,15,17,19,20,24,28,,,,2,7,8,14,2,4,6,6,2,,,,
1572034460,2019-10-25 20:14:20.663,Acquired,Acquired,Acquired,Acquired,Acquired,Acquired,Acquired,Acquired,Acquired,,,,3.15502048E2,2.09202192E2,1.35594352E2,1.91833296E2,9.088285599999999E1,1.15277272E2,2.8492848E2,2.7962512E2,4.9037212E1,,,,2.0466587999999998E1,2.5744774E1,4.4386724E1,7.0690296E1,3.0518777999999998E1,2.4470133999999998E1,2.7704663999999998E1,5.4717884E1,2.93234E1,,,,10,12,13,15,17,19,20,24,28,,,,2,7,8,14,2,4,6,6,2,,,,
1572034520,2019-10-25 20:15:20.665,Acquired,Acquired,Acquired,Acquired,Acquired,Acquired,Acquired,Acquired,Acquired,,,,3.15502048E2,2.09202192E2,1.35594352E2,1.91833296E2,9.088285599999999E1,1.15277272E2,2.8492848E2,2.7962512E2,4.9037212E1,,,,2.0466587999999998E1,2.5744774E1,4.4386724E1,7.0690296E1,3.0518777999999998E1,2.4470133999999998E1,2.7704663999999998E1,5.4717884E1,2.93234E1,,,,10,12,13,15,17,19,20,24,28,,,,2,7,8,14,2,4,6,6,2,,,,
1572034580,2019-10-25 20:16:20.663,Acquired,Acquired,Acquired,Acquired,Acquired,Acquired,Acquired,Acquired,Acquired,,,,3.15502048E2,2.09202192E2,1.35594352E2,1.91833296E2,9.088285599999999E1,1.15277272E2,2.8492848E2,2.7962512E2,4.9037212E1,,,,2.0466587999999998E1,2.5744774E1,4.4386724E1,7.0690296E1,3.0518777999999998E1,2.4470133999999998E1,2.7704663999999998E1,5.4717884E1,2.93234E1,,,,10,12,13,15,17,19,20,24,28,,,,2,7,8,14,2,4,6,6,2,,,,
1572034640,2019-10-25 20:17:20.663,Acquired,Acquired,Acquired,Acquired,Acquired,Acquired,Acquired,Acquired,Acquired,,,,3.15502048E2,2.09202192E2,1.35594352E2,1.91833296E2,9.088285599999999E1,1.15277272E2,2.8492848E2,2.7962512E2,4.9037212E1,,,,2.0466587999999998E1,2.5744774E1,4.4386724E1,7.0690296E1,3.0518777999999998E1,2.4470133999999998E1,2.7704663999999998E1,5.4717884E1,2.93234E1,,,,10,12,13,15,17,19,20,24,28,,,,2,7,8,14,2,4,6,6,2,,,,
1572034700,2019-10-25 20:18:20.663,Acquired,Acquired,Acquired,Acquired,Acquired,Acquired,Acquired,Acquired,Acquired,,,,3.15502048E2,2.09202192E2,1.35594352E2,1.91833296E2,9.088285599999999E1,1.15277272E2,2.8492848E2,2.7962512E2,4.9037212E1,,,,2.0466587999999998E1,2.5744774E1,4.4386724E1,7.0690296E1,3.0518777999999998E1,2.4470133999999998E1,2.7704663999999998E1,5.4717884E1,2.93234E1,,,,10,12,13,15,17,19,20,24,28,,,,2,7,8,14,2,4,6,6,2,,,,
1572034760,2019-10-25 20:19:20.663,Acquired,Acquired,Acquired,Acquired,Acquired,Acquired,Acquired,Acquired,Acquired,,,,3.15502048E2,2.09202192E2,1.35594352E2,1.91833296E2,9.088285599999999E1,1.15277272E2,2.8492848E2,2.7962512E2,4.9037212E1,,,,2.0466587999999998E1,2.5744774E1,4.4386724E1,7.0690296E1,3.0518777999999998E1,2.4470133999999998E1,2.7704663999999998E1,5.4717884E1,2.93234E1,,,,10,12,13,15,17,19,20,24,28,,,,2,7,8,14,2,4,6,6,2,,,,
1572034820,2019-10-25 20:20:20.663,Acquired,Acquired,Acquired,Acquired,Acquired,Acquired,Acquired,Acquired,Acquired,,,,3.15502048E2,2.09202192E2,1.35594352E2,1.91833296E2,9.088285599999999E1,1.15277272E2,2.8492848E2,2.7962512E2,4.9037212E1,,,,2.0466587999999998E1,2.5744774E1,4.4386724E1,7.0690296E1,3.0518777999999998E1,2.4470133999999998E1,2.7704663999999998E1,5.4717884E1,2.93234E1,,,,10,12,13,15,17,19,20,24,28,,,,2,7,8,14,2,4,6,6,2,,,,
1572034880,2019-10-25 20:21:20.663,Acquired,Acquired,Acquired,Acquired,Acquired,Acquired,Acquired,Acquired,Acquired,,,,3.15502048E2,2.09202192E2,1.35594352E2,1.91833296E2,9.088285599999999E1,1.15277272E2,2.8492848E2,2.7962512E2,4.9037212E1,,,,2.0466587999999998E1,2.5744774E1,4.4386724E1,7.0690296E1,3.0518777999999998E1,2.4470133999999998E1,2.7704663999999998E1,5.4717884E1,2.93234E1,,,,10,12,13,15,17,19,20,24,28,,,,2,7,8,14,2,4,6,6,2,,,,
1572034940,2019-10-25 20:22:20.663,Acquired,Acquired,Acquired,Acquired,Acquired,Acquired,Acquired,Acquired,Acquired,,,,3.15502048E2,2.09202192E2,1.35594352E2,1.91833296E2,9.088285599999999E1,1.15277272E2,2.8492848E2,2.7962512E2,4.9037212E1,,,,2.0466587999999998E1,2.5744774E1,4.4386724E1,7.0690296E1,3.0518777999999998E1,2.4470133999999998E1,2.7704663999999998E1,5.4717884E1,2.93234E1,,,,10,12,13,15,17,19,20,24,28,,,,2,7,8,14,2,4,6,6,2,,,,
1572035000,2019-10-25 20:23:20.663,Acquired,Acquired,Acquired,Acquired,Acquired,Acquired,Acquired,Acquired,Acquired,,,,3.15502048E2,2.09202192E2,1.35594352E2,1.91833296E2,9.088285599999999E1,1.15277272E2,2.8492848E2,2.7962512E2,4.9037212E1,,,,2.0466587999999998E1,2.5744774E1,4.4386724E1,7.0690296E1,3.0518777999999998E1,2.4470133999999998E1,2.7704663999999998E1,5.4717884E1,2.93234E1,,,,10,12,13,15,17,19,20,24,28,,,,2,7,8,14,2,4,6,6,2,,,,
1572035060,2019-10-25 20:24:20.663,Acquired,Acquired,Acquired,Acquired,Acquired,Acquired,Acquired,Acquired,Acquired,,,,3.15502048E2,2.09202192E2,1.35594352E2,1.91833296E2,9.088285599999999E1,1.15277272E2,2.8492848E2,2.7962512E2,4.9037212E1,,,,2.0466587999999998E1,2.5744774E1,4.4386724E1,7.0690296E1,3.0518777999999998E1,2.4470133999999998E1,2.7704663999999998E1,5.4717884E1,2.93234E1,,,,10,12,13,15,17,19,20,24,28,,,,2,7,8,14,2,4,6,6,2,,,,
1572035120,2019-10-25 20:25:20.663,Acquired,Acquired,Acquired,Acquired,Acquired,Acquired,Acquired,Acquired,Acquired,,,,3.15502048E2,2.09202192E2,1.35594352E2,1.91833296E2,9.088285599999999E1,1.15277272E2,2.8492848E2,2.7962512E2,4.9037212E1,,,,2.0466587999999998E1,2.5744774E1,4.4386724E1,7.0690296E1,3.0518777999999998E1,2.4470133999999998E1,2.7704663999999998E1,5.4717884E1,2.93234E1,,,,10,12,13,15,17,19,20,24,28,,,,2,7,8,14,2,4,6,6,2,,,,
1572035180,2019-10-25 20:26:20.663,Acquired,Acquired,Acquired,Acquired,Acquired,Acquired,Acquired,Acquired,Acquired,,,,3.15502048E2,2.09202192E2,1.35594352E2,1.91833296E2,9.088285599999999E1,1.15277272E2,2.8492848E2,2.7962512E2,4.9037212E1,,,,2.0466587999999998E1,2.5744774E1,4.4386724E1,7.0690296E1,3.0518777999999998E1,2.4470133999999998E1,2.7704663999999998E1,5.4717884E1,2.93234E1,,,,10,12,13,15,17,19,20,24,28,,,,2,7,8,14,2,4,6,6,2,,,,
1572035240,2019-10-25 20:27:20.663,Acquired,Acquired,Acquired,Acquired,Acquired,Acquired,Acquired,Acquired,Acquired,,,,3.15502048E2,2.09202192E2,1.35594352E2,1.91833296E2,9.088285599999999E1,1.15277272E2,2.8492848E2,2.7962512E2,4.9037212E1,,,,2.0466587999999998E1,2.5744774E1,4.4386724E1,7.0690296E1,3.0518777999999998E1,2.4470133999999998E1,2.7704663999999998E1,5.4717884E1,2.93234E1,,,,10,12,13,15,17,19,20,24,28,,,,2,7,8,14,2,4,6,6,2,,,,
1572035300,2019-10-25 20:28:20.665,Acquired,Acquired,Acquired,Acquired,Acquired,Acquired,Acquired,Acquired,Acquired,,,,3.15502048E2,2.09202192E2,1.35594352E2,1.91833296E2,9.088285599999999E1,1.15277272E2,2.8492848E2,2.7962512E2,4.9037212E1,,,,2.0466587999999998E1,2.5744774E1,4.4386724E1,7.0690296E1,3.0518777999999998E1,2.4470133999999998E1,2.7704663999999998E1,5.4717884E1,2.93234E1,,,,10,12,13,15,17,19,20,24,28,,,,2,7,8,14,2,4,6,6,2,,,,
1572035360,2019-10-25 20:29:20.697,Acquired,Acquired,Acquired,Acquired,Acquired,Acquired,Acquired,Acquired,Acquired,,,,3.15502048E2,2.09202192E2,1.35594352E2,1.91833296E2,9.088285599999999E1,1.15277272E2,2.8492848E2,2.7962512E2,4.9037212E1,,,,2.0466587999999998E1,2.5744774E1,4.4386724E1,7.0690296E1,3.0518777999999998E1,2.4470133999999998E1,2.7704663999999998E1,5.4717884E1,2.93234E1,,,,10,12,13,15,17,19,20,24,28,,,,2,7,8,14,2,4,6,6,2,,,,
1572035420,2019-10-25 20:30:20.664,Acquired,Acquired,Acquired,Acquired,Acquired,Acquired,Acquired,Acquired,Acquired,,,,3.15502048E2,2.09202192E2,1.35594352E2,1.91833296E2,9.088285599999999E1,1.15277272E2,2.8492848E2,2.7962512E2,4.9037212E1,,,,2.0466587999999998E1,2.5744774E1,4.4386724E1,7.0690296E1,3.0518777999999998E1,2.4470133999999998E1,2.7704663999999998E1,5.4717884E1,2.93234E1,,,,10,12,13,15,17,19,20,24,28,,,,2,7,8,14,2,4,6,6,2,,,,
1572035480,2019-10-25 20:31:20.664,Acquired,Acquired,Acquired,Acquired,Acquired,Acquired,Acquired,Acquired,Acquired,,,,3.1513350399999996E2,2.09333408E2,1.35824048E2,1.91036192E2,9.041627199999999E1,1.1492102399999999E2,2.84446464E2,2.7995804799999996E2,4.8951104E1,,,,2.0656712E1,2.6189913999999998E1,4.3936344E1,7.0289672E1,3.071128E1,2.4797576E1,2.7651028E1,5.5132728E1,2.8947924E1,,,,10,12,13,15,17,19,20,24,28,,,,5,11,6,15,2,4,3,11,3,,,,
1572035540,2019-10-25 20:32:20.664,Acquired,Acquired,Acquired,Acquired,Acquired,Acquired,Not acquired,Acquired,Not acquired,,,,2.98714176E2,2.1554407999999998E2,1.43391552E2,1.76974512E2,7.0805368E1,9.8083248E1,2.6686382399999997E2,2.9561609599999997E2,4.8504419999999996E1,,,,2.4674988E1,4.4040668E1,2.6810024E1,5.2843708E1,3.4519932E1,3.5589904E1,2.2193376E1,7.147207999999999E1,1.4398816E1,,,,10,12,13,15,17,19,20,24,28,,,,7,15,6,15,3,3,0,15,0,,,,
1572035600,2019-10-25 20:33:20.663,,,Acquired,Acquired,Acquired,Acquired,Acquired,Acquired,Acquired,,,,,,1.43564096E2,1.76831776E2,7.0258496E1,9.753597599999999E1,2.66429456E2,2.9618944E2,4.8556872E1,,,,,,2.6355553999999998E1,5.2350871999999995E1,3.4512924E1,3.5808776E1,2.1969226E1,7.1919896E1,1.4008488E1,,,,,,13,15,17,19,20,24,28,,,,,,7,15,3,4,3,14,1,,,,
1572035660,2019-10-25 20:34:20.663,,,Acquired,Acquired,Acquired,Acquired,Acquired,Acquired,Acquired,,,,,,1.43564096E2,1.76831776E2,7.0258496E1,9.753597599999999E1,2.66429456E2,2.9618944E2,4.8556872E1,,,,,,2.6355553999999998E1,5.2350871999999995E1,3.4512924E1,3.5808776E1,2.1969226E1,7.1919896E1,1.4008488E1,,,,,,13,15,17,19,20,24,28,,,,,,7,15,3,4,3,14,1,,,,
1572035720,2019-10-25 20:35:20.675,,,Acquired,Acquired,Acquired,Acquired,Acquired,Acquired,Acquired,,,,,,1.43564096E2,1.76831776E2,7.0258496E1,9.753597599999999E1,2.66429456E2,2.9618944E2,4.8556872E1,,,,,,2.6355553999999998E1,5.2350871999999995E1,3.4512924E1,3.5808776E1,2.1969226E1,7.1919896E1,1.4008488E1,,,,,,13,15,17,19,20,24,28,,,,,,7,15,3,4,3,14,1,,,,
1572035780,2019-10-25 20:36:20.663,,,Acquired,Acquired,Acquired,Acquired,Acquired,Acquired,Acquired,,,,,,1.43564096E2,1.76831776E2,7.0258496E1,9.753597599999999E1,2.66429456E2,2.9618944E2,4.8556872E1,,,,,,2.6355553999999998E1,5.2350871999999995E1,3.4512924E1,3.5808776E1,2.1969226E1,7.1919896E1,1.4008488E1,,,,,,13,15,17,19,20,24,28,,,,,,7,15,3,4,3,14,1,,,,
1572035840,2019-10-25 20:37:20.663,,,Acquired,Acquired,Acquired,Acquired,Acquired,Acquired,Acquired,,,,,,1.43564096E2,1.76831776E2,7.0258496E1,9.753597599999999E1,2.66429456E2,2.9618944E2,4.8556872E1,,,,,,2.6355553999999998E1,5.2350871999999995E1,3.4512924E1,3.5808776E1,2.1969226E1,7.1919896E1,1.4008488E1,,,,,,13,15,17,19,20,24,28,,,,,,7,15,3,4,3,14,1,,,,
1572035900,2019-10-25 20:38:20.663,,,Acquired,Acquired,Acquired,Acquired,Acquired,Acquired,Acquired,,,,,,1.43564096E2,1.76831776E2,7.0258496E1,9.753597599999999E1,2.66429456E2,2.9618944E2,4.8556872E1,,,,,,2.6355553999999998E1,5.2350871999999995E1,3.4512924E1,3.5808776E1,2.1969226E1,7.1919896E1,1.4008488E1,,,,,,13,15,17,19,20,24,28,,,,,,7,15,3,4,3,14,1,,,,
1572035960,2019-10-25 20:39:20.665,,,Acquired,Acquired,Acquired,Acquired,Acquired,Acquired,Acquired,,,,,,1.43564096E2,1.76831776E2,7.0258496E1,9.753597599999999E1,2.66429456E2,2.9618944E2,4.8556872E1,,,,,,2.6355553999999998E1,5.2350871999999995E1,3.4512924E1,3.5808776E1,2.1969226E1,7.1919896E1,1.4008488E1,,,,,,13,15,17,19,20,24,28,,,,,,7,15,3,4,3,14,1,,,,
1572036020,2019-10-25 20:40:20.664,,,Acquired,Acquired,Acquired,Acquired,Acquired,Acquired,Acquired,,,,,,1.43564096E2,1.76831776E2,7.0258496E1,9.753597599999999E1,2.66429456E2,2.9618944E2,4.8556872E1,,,,,,2.6355553999999998E1,5.2350871999999995E1,3.4512924E1,3.5808776E1,2.1969226E1,7.1919896E1,1.4008488E1,,,,,,13,15,17,19,20,24,28,,,,,,7,15,3,4,3,14,1,,,,
1572036080,2019-10-25 20:41:20.663,,,Acquired,Acquired,Acquired,Acquired,Acquired,Acquired,Acquired,,,,,,1.43564096E2,1.76831776E2,7.0258496E1,9.753597599999999E1,2.66429456E2,2.9618944E2,4.8556872E1,,,,,,2.6355553999999998E1,5.2350871999999995E1,3.4512924E1,3.5808776E1,2.1969226E1,7.1919896E1,1.4008488E1,,,,,,13,15,17,19,20,24,28,,,,,,7,15,3,4,3,14,1,,,,
1572036140,2019-10-25 20:42:20.663,,,Acquired,Acquired,Acquired,Acquired,Acquired,Acquired,Acquired,,,,,,1.43564096E2,1.76831776E2,7.0258496E1,9.753597599999999E1,2.66429456E2,2.9618944E2,4.8556872E1,,,,,,2.6355553999999998E1,5.2350871999999995E1,3.4512924E1,3.5808776E1,2.1969226E1,7.1919896E1,1.4008488E1,,,,,,13,15,17,19,20,24,28,,,,,,7,15,3,4,3,14,1,,,,
1572036200,2019-10-25 20:43:20.663,,,Acquired,Acquired,Acquired,Acquired,Acquired,Acquired,Acquired,,,,,,1.43564096E2,1.76831776E2,7.0258496E1,9.753597599999999E1,2.66429456E2,2.9618944E2,4.8556872E1,,,,,,2.6355553999999998E1,5.2350871999999995E1,3.4512924E1,3.5808776E1,2.1969226E1,7.1919896E1,1.4008488E1,,,,,,13,15,17,19,20,24,28,,,,,,7,15,3,4,3,14,1,,,,
1572036260,2019-10-25 20:44:20.664,,,Acquired,Acquired,Acquired,Acquired,Acquired,Acquired,Acquired,,,,,,1.43564096E2,1.76831776E2,7.0258496E1,9.753597599999999E1,2.66429456E2,2.9618944E2,4.8556872E1,,,,,,2.6355553999999998E1,5.2350871999999995E1,3.4512924E1,3.5808776E1,2.1969226E1,7.1919896E1,1.4008488E1,,,,,,13,15,17,19,20,24,28,,,,,,7,15,3,4,3,14,1,,,,
1572036320,2019-10-25 20:45:20.663,,,Acquired,Acquired,Acquired,Acquired,Acquired,Acquired,Acquired,,,,,,1.43564096E2,1.76831776E2,7.0258496E1,9.753597599999999E1,2.66429456E2,2.9618944E2,4.8556872E1,,,,,,2.6355553999999998E1,5.2350871999999995E1,3.4512924E1,3.5808776E1,2.1969226E1,7.1919896E1,1.4008488E1,,,,,,13,15,17,19,20,24,28,,,,,,7,15,3,4,3,14,1,,,,
1572036380,2019-10-25 20:46:20.663,,,Acquired,Acquired,Acquired,Acquired,Acquired,Acquired,Acquired,,,,,,1.43564096E2,1.76831776E2,7.0258496E1,9.753597599999999E1,2.66429456E2,2.9618944E2,4.8556872E1,,,,,,2.6355553999999998E1,5.2350871999999995E1,3.4512924E1,3.5808776E1,2.1969226E1,7.1919896E1,1.4008488E1,,,,,,13,15,17,19,20,24,28,,,,,,7,15,3,4,3,14,1,,,,
1572036440,2019-10-25 20:47:20.663,,,Acquired,Acquired,Acquired,Acquired,Acquired,Acquired,Acquired,,,,,,1.43564096E2,1.76831776E2,7.0258496E1,9.753597599999999E1,2.66429456E2,2.9618944E2,4.8556872E1,,,,,,2.6355553999999998E1,5.2350871999999995E1,3.4512924E1,3.5808776E1,2.1969226E1,7.1919896E1,1.4008488E1,,,,,,13,15,17,19,20,24,28,,,,,,7,15,3,4,3,14,1,,,,
1572036500,2019-10-25 20:48:20.663,,,Acquired,Acquired,Acquired,Acquired,Acquired,Acquired,Acquired,,,,,,1.43564096E2,1.76831776E2,7.0258496E1,9.753597599999999E1,2.66429456E2,2.9618944E2,4.8556872E1,,,,,,2.6355553999999998E1,5.2350871999999995E1,3.4512924E1,3.5808776E1,2.1969226E1,7.1919896E1,1.4008488E1,,,,,,13,15,17,19,20,24,28,,,,,,7,15,3,4,3,14,1,,,,
1572036560,2019-10-25 20:49:20.664,,,Acquired,Acquired,Acquired,Acquired,Acquired,Acquired,Acquired,,,,,,1.43564096E2,1.76831776E2,7.0258496E1,9.753597599999999E1,2.66429456E2,2.9618944E2,4.8556872E1,,,,,,2.6355553999999998E1,5.2350871999999995E1,3.4512924E1,3.5808776E1,2.1969226E1,7.1919896E1,1.4008488E1,,,,,,13,15,17,19,20,24,28,,,,,,7,15,3,4,3,14,1,,,,
1572036620,2019-10-25 20:50:20.663,,,Acquired,Acquired,Acquired,Acquired,Acquired,Acquired,Acquired,,,,,,1.43564096E2,1.76831776E2,7.0258496E1,9.753597599999999E1,2.66429456E2,2.9618944E2,4.8556872E1,,,,,,2.6355553999999998E1,5.2350871999999995E1,3.4512924E1,3.5808776E1,2.1969226E1,7.1919896E1,1.4008488E1,,,,,,13,15,17,19,20,24,28,,,,,,7,15,3,4,3,14,1,,,,
1572036680,2019-10-25 20:51:20.665,,,Acquired,Acquired,Acquired,Acquired,Acquired,Acquired,Acquired,,,,,,1.43564096E2,1.76831776E2,7.0258496E1,9.753597599999999E1,2.66429456E2,2.9618944E2,4.8556872E1,,,,,,2.6355553999999998E1,5.2350871999999995E1,3.4512924E1,3.5808776E1,2.1969226E1,7.1919896E1,1.4008488E1,,,,,,13,15,17,19,20,24,28,,,,,,7,15,3,4,3,14,1,,,,
1572036740,2019-10-25 20:52:20.696,,,Acquired,Acquired,Acquired,Acquired,Acquired,Acquired,Acquired,,,,,,1.43564096E2,1.76831776E2,7.0258496E1,9.753597599999999E1,2.66429456E2,2.9618944E2,4.8556872E1,,,,,,2.6355553999999998E1,5.2350871999999995E1,3.4512924E1,3.5808776E1,2.1969226E1,7.1919896E1,1.4008488E1,,,,,,13,15,17,19,20,24,28,,,,,,7,15,3,4,3,14,1,,,,
1572036800,2019-10-25 20:53:20.663,,,Acquired,Acquired,Acquired,Acquired,Acquired,Acquired,Acquired,,,,,,1.43564096E2,1.76831776E2,7.0258496E1,9.753597599999999E1,2.66429456E2,2.9618944E2,4.8556872E1,,,,,,2.6355553999999998E1,5.2350871999999995E1,3.4512924E1,3.5808776E1,2.1969226E1,7.1919896E1,1.4008488E1,,,,,,13,15,17,19,20,24,28,,,,,,7,15,3,4,3,14,1,,,,
1572036860,2019-10-25 20:54:20.663,,,Acquired,Acquired,Acquired,Acquired,Acquired,Acquired,Acquired,,,,,,1.43564096E2,1.76831776E2,7.0258496E1,9.753597599999999E1,2.66429456E2,2.9618944E2,4.8556872E1,,,,,,2.6355553999999998E1,5.2350871999999995E1,3.4512924E1,3.5808776E1,2.1969226E1,7.1919896E1,1.4008488E1,,,,,,13,15,17,19,20,24,28,,,,,,7,15,3,4,3,14,1,,,,
1572036920,2019-10-25 20:55:20.663,,,Acquired,Acquired,Acquired,Acquired,Acquired,Acquired,Acquired,,,,,,1.43564096E2,1.76831776E2,7.0258496E1,9.753597599999999E1,2.66429456E2,2.9618944E2,4.8556872E1,,,,,,2.6355553999999998E1,5.2350871999999995E1,3.4512924E1,3.5808776E1,2.1969226E1,7.1919896E1,1.4008488E1,,,,,,13,15,17,19,20,24,28,,,,,,7,15,3,4,3,14,1,,,,
1572036980,2019-10-25 20:56:20.663,,,Acquired,Acquired,Acquired,Acquired,Acquired,Acquired,Acquired,,,,,,1.43564096E2,1.76831776E2,7.0258496E1,9.753597599999999E1,2.66429456E2,2.9618944E2,4.8556872E1,,,,,,2.6355553999999998E1,5.2350871999999995E1,3.4512924E1,3.5808776E1,2.1969226E1,7.1919896E1,1.4008488E1,,,,,,13,15,17,19,20,24,28,,,,,,7,15,3,4,3,14,1,,,,
1572037040,2019-10-25 20:57:20.665,,,Acquired,Acquired,Acquired,Acquired,Acquired,Acquired,Acquired,,,,,,1.43564096E2,1.76831776E2,7.0258496E1,9.753597599999999E1,2.66429456E2,2.9618944E2,4.8556872E1,,,,,,2.6355553999999998E1,5.2350871999999995E1,3.4512924E1,3.5808776E1,2.1969226E1,7.1919896E1,1.4008488E1,,,,,,13,15,17,19,20,24,28,,,,,,7,15,3,4,3,14,1,,,,
1572037100,2019-10-25 20:58:20.663,,,Acquired,Acquired,Acquired,Acquired,Acquired,Acquired,Acquired,,,,,,1.43564096E2,1.76831776E2,7.0258496E1,9.753597599999999E1,2.66429456E2,2.9618944E2,4.8556872E1,,,,,,2.6355553999999998E1,5.2350871999999995E1,3.4512924E1,3.5808776E1,2.1969226E1,7.1919896E1,1.4008488E1,,,,,,13,15,17,19,20,24,28,,,,,,7,15,3,4,3,14,1,,,,
1572037160,2019-10-25 20:59:20.663,,,Acquired,Acquired,Acquired,Acquired,Acquired,Acquired,Acquired,,,,,,1.43564096E2,1.76831776E2,7.0258496E1,9.753597599999999E1,2.66429456E2,2.9618944E2,4.8556872E1,,,,,,2.6355553999999998E1,5.2350871999999995E1,3.4512924E1,3.5808776E1,2.1969226E1,7.1919896E1,1.4008488E1,,,,,,13,15,17,19,20,24,28,,,,,,7,15,3,4,3,14,1,,,,
