Time(longsecs),Time(UTC),Supply Voltage(mV),Temperature(&deg;C),NMX Bus Current(mA),Sensor Current(mA),Serial Port Current(mA),Controller Current(mA),Digitizer Current(mA),
1571436030,2019-10-18 22:00:30.925,16319,2.0880188E1,0,10,0,60,41,
1571436090,2019-10-18 22:01:30.934,16319,2.1093994E1,0,12,0,59,42,
1571436150,2019-10-18 22:02:30.925,16332,2.0785034E1,0,11,0,59,41,
1571436210,2019-10-18 22:03:30.927,16319,2.0888733E1,0,11,0,59,42,
1571436270,2019-10-18 22:04:30.925,16319,2.0717682E1,0,11,0,52,41,
1571436330,2019-10-18 22:05:30.925,16305,2.0765778E1,0,9,0,59,43,
1571436390,2019-10-18 22:06:30.925,16305,2.074121E1,0,10,0,58,43,
1571436450,2019-10-18 22:07:30.925,16319,2.063858E1,0,10,0,50,43,
1571436510,2019-10-18 22:08:30.925,16319,2.0631073E1,0,10,0,52,42,
1571436570,2019-10-18 22:09:30.925,16305,2.0902618E1,0,12,0,59,42,
1571436630,2019-10-18 22:10:30.925,16319,2.0972107E1,0,6,0,57,42,
1571436690,2019-10-18 22:11:30.931,16332,2.0856659E1,0,9,0,57,42,
1571436750,2019-10-18 22:12:30.925,16278,2.0932556E1,0,10,0,59,41,
1571436810,2019-10-18 22:13:30.925,16319,2.0958221E1,0,9,0,52,40,
1571436870,2019-10-18 22:14:30.925,16305,2.0739044E1,0,7,0,60,39,
1571436930,2019-10-18 22:15:30.925,16319,2.0765778E1,0,12,0,58,38,
1571436990,2019-10-18 22:16:30.925,16319,2.082138E1,0,11,0,58,43,
1571437050,2019-10-18 22:17:30.925,16319,2.0853455E1,0,9,0,57,45,
1571437110,2019-10-18 22:18:30.925,16319,2.0809631E1,0,8,0,50,41,
1571437170,2019-10-18 22:19:30.925,16319,2.069629E1,0,8,0,49,44,
1571437230,2019-10-18 22:20:30.925,16332,2.0931488E1,0,11,0,59,44,
1571437290,2019-10-18 22:21:30.925,16305,2.0782898E1,0,11,0,61,45,
1571437350,2019-10-18 22:22:30.925,16305,2.0864136E1,0,6,0,57,41,
1571437410,2019-10-18 22:23:30.925,16319,2.0659943E1,0,10,0,48,48,
1571437470,2019-10-18 22:24:30.925,16319,2.0897278E1,0,9,0,50,40,
1571437530,2019-10-18 22:25:30.925,16332,2.0945374E1,0,11,0,58,43,
1571437590,2019-10-18 22:26:30.925,16305,2.066101E1,0,10,0,59,39,
1571437650,2019-10-18 22:27:30.925,16305,2.0670624E1,0,7,0,57,42,
1571437710,2019-10-18 22:28:30.925,16319,2.0814972E1,0,9,0,58,40,
1571437770,2019-10-18 22:29:30.925,16319,2.0859863E1,26,11,0,56,42,
1571437830,2019-10-18 22:30:30.925,16305,2.0818176E1,0,11,0,59,39,
1571437890,2019-10-18 22:31:30.925,16305,2.0750824E1,0,7,0,57,40,
1571437950,2019-10-18 22:32:30.953,16305,2.0801056E1,0,11,0,58,40,
1571438010,2019-10-18 22:33:30.957,16319,2.0692017E1,0,13,5,50,41,
1571438070,2019-10-18 22:34:30.954,16319,2.074762E1,0,6,0,50,45,
1571438130,2019-10-18 22:35:30.925,16305,2.0858795E1,0,10,0,59,41,
1571438190,2019-10-18 22:36:30.925,16305,2.0863068E1,0,10,0,59,40,
1571438250,2019-10-18 22:37:30.925,16305,2.1134613E1,0,9,0,62,39,
1571438310,2019-10-18 22:38:30.925,16305,2.0819244E1,0,11,0,50,46,
1571438370,2019-10-18 22:39:30.925,16319,2.0842743E1,0,9,0,50,39,
1571438430,2019-10-18 22:40:30.925,16305,2.065033E1,0,9,0,59,40,
1571438490,2019-10-18 22:41:30.957,16305,2.0836334E1,0,14,0,58,42,
1571438550,2019-10-18 22:42:30.926,16305,2.0709137E1,0,9,0,60,40,
1571438610,2019-10-18 22:43:30.925,16305,2.0622528E1,0,2,0,59,40,
1571438670,2019-10-18 22:44:30.928,16305,2.0809631E1,0,11,0,59,43,
1571438730,2019-10-18 22:45:30.927,16305,2.0874817E1,0,8,0,58,41,
1571438790,2019-10-18 22:46:30.925,16305,2.0715546E1,0,12,0,58,42,
1571438850,2019-10-18 22:47:30.925,16305,2.0732635E1,0,10,0,50,41,
1571438910,2019-10-18 22:48:30.927,16305,2.0651398E1,0,9,0,50,42,
1571438970,2019-10-18 22:49:30.925,16305,2.0881256E1,0,9,0,50,44,
1571439030,2019-10-18 22:50:30.925,16292,2.0745483E1,0,5,0,59,41,
1571439090,2019-10-18 22:51:30.963,16292,2.0734772E1,0,9,0,57,47,
1571439150,2019-10-18 22:52:30.925,16305,2.0835266E1,0,11,0,49,43,
1571439210,2019-10-18 22:53:30.925,16292,2.0761505E1,0,12,0,59,40,
1571439270,2019-10-18 22:54:30.925,16305,2.0481415E1,0,9,0,50,44,
1571439330,2019-10-18 22:55:30.925,16292,2.0625732E1,0,8,0,59,43,
1571439390,2019-10-18 22:56:30.925,16292,2.0520966E1,0,8,0,58,44,
1571439450,2019-10-18 22:57:30.925,16292,2.064392E1,0,17,0,58,42,
1571439510,2019-10-18 22:58:30.925,16292,2.0670624E1,0,8,0,51,43,
1571439570,2019-10-18 22:59:30.925,16305,2.0733704E1,0,7,0,50,39,
