Time(longsecs),Time(UTC),Earth location,GNSS receiver status,GNSS satellites used,Timing status,Phase lock loop status,Time uncertainty(ns),Timing DAC count,Time quality(&#37;),Time error(ns),
1571220000,2019-10-16 10:00:00.000,47.647093N 0.557564E 131m,Off,9,Time OK,Free running,14500,8274,90,0,
1571220300,2019-10-16 10:05:00.000,47.647093N 0.557564E 131m,Off,9,Time OK,Free running,25900,8274,90,0,
1571220600,2019-10-16 10:10:00.000,47.647093N 0.557564E 131m,Off,9,Time OK,Free running,38300,8274,90,0,
1571220900,2019-10-16 10:15:00.000,47.647093N 0.557564E 131m,GNSS unlocked,0,Time OK,Free running,51700,8274,90,0,
1571221200,2019-10-16 10:20:00.000,47.647093N 0.557564E 131m,Off,10,Time OK,Free running,2100,8273,90,0,
1571221500,2019-10-16 10:25:00.000,47.647093N 0.557564E 131m,Off,10,Time OK,Free running,11800,8273,90,0,
1571221800,2019-10-16 10:30:00.000,47.647093N 0.557564E 131m,Off,10,Time OK,Free running,22600,8273,90,0,
1571222100,2019-10-16 10:35:00.000,47.647093N 0.557564E 131m,Off,10,Time OK,Free running,34200,8273,90,0,
1571222400,2019-10-16 10:40:00.000,47.647093N 0.557564E 131m,Off,10,Time OK,Free running,46800,8273,90,0,
1571222700,2019-10-16 10:45:00.000,47.647093N 0.557564E 131m,Off,10,Time OK,Free running,800,8281,90,0,
1571223000,2019-10-16 10:50:00.000,47.647093N 0.557564E 131m,Off,10,Time OK,Free running,10200,8281,90,0,
1571223300,2019-10-16 10:55:00.000,47.647093N 0.557564E 131m,Off,10,Time OK,Free running,20600,8281,90,0,
