Time(longsecs),Time(UTC),Sensor SOH Voltage A 1(uV),Sensor SOH Voltage A 2(uV),Sensor SOH Voltage A 3(uV),External SOH Voltage 1(uV),External SOH Voltage 2(uV),External SOH Voltage 3(uV),
1570899600,2019-10-12 17:00:00.000,,,,465747,465906,465847,
1570899600,2019-10-12 17:00:00.000,-1901940,,,,,,
1570901400,2019-10-12 17:30:00.000,,,,465801,465935,465871,
1570899900,2019-10-12 17:05:00.000,-1901784,,,,,,
1570900200,2019-10-12 17:10:00.000,-1902064,,,,,,
1570900500,2019-10-12 17:15:00.000,-1903820,,,,,,
1570900800,2019-10-12 17:20:00.000,-1900048,,,,,,
1570901100,2019-10-12 17:25:00.000,-1901987,,,,,,
1570901400,2019-10-12 17:30:00.000,-1901911,,,,,,
1570901700,2019-10-12 17:35:00.000,-1904111,,,,,,
1570902000,2019-10-12 17:40:00.000,-1900373,,,,,,
1570902300,2019-10-12 17:45:00.000,-1902028,,,,,,
1570902600,2019-10-12 17:50:00.000,-1902233,,,,,,
1570902900,2019-10-12 17:55:00.000,-1904252,,,,,,
