Time(longsecs),Time(UTC),Supply voltage(V),Total current(A),Temperature(&deg;C),
1570021200,2019-10-02 13:00:00.000,1.3772797335E1,1.49718006860832E-1,3.8906E1,
1570021500,2019-10-02 13:05:00.000,1.378626048E1,1.21373335659024E-1,3.8968E1,
1570021800,2019-10-02 13:10:00.000,1.378626048E1,1.17012617012592E-1,3.9E1,
1570022100,2019-10-02 13:15:00.000,1.378626048E1,1.17739403453664E-1,3.9062E1,
1570022400,2019-10-02 13:20:00.000,1.378626048E1,1.18466189894736E-1,3.9125E1,
1570022700,2019-10-02 13:25:00.000,1.378626048E1,1.17739403453664E-1,3.9156E1,
1570023000,2019-10-02 13:30:00.000,1.378626048E1,1.1628583057152E-1,3.9187E1,
1570023300,2019-10-02 13:35:00.000,1.3799723624999999E1,1.17739403453664E-1,3.9218E1,
1570023600,2019-10-02 13:40:00.000,1.378626048E1,1.17012617012592E-1,3.9218E1,
1570023900,2019-10-02 13:45:00.000,1.378626048E1,1.17739403453664E-1,3.9187E1,
1570024200,2019-10-02 13:50:00.000,1.378626048E1,1.1991976277688E-1,3.9187E1,
1570024500,2019-10-02 13:55:00.000,1.378626048E1,1.17012617012592E-1,3.9156E1,
