Time(longsecs),Time(UTC),Earth location,GNSS receiver status,GNSS satellites used,Timing status,Phase lock loop status,Time uncertainty(ns),Timing DAC count,Time quality(&#37;),Time error(ns),
1570039200,2019-10-02 18:00:00.000,47.647215N 0.557392E 68m,Off,6,Time OK,Free running,16600,8306,90,0,
1570039500,2019-10-02 18:05:00.000,47.647215N 0.557392E 68m,Off,6,Time OK,Free running,33800,8306,90,0,
1570039800,2019-10-02 18:10:00.000,47.647215N 0.557392E 68m,GNSS locked,4,Time OK,Coarse lock,1200,8262,90,1145,
1570040100,2019-10-02 18:15:00.000,47.647215N 0.557392E 68m,Off,6,Time OK,Free running,6200,8296,90,0,
1570040400,2019-10-02 18:20:00.000,47.647215N 0.557392E 68m,Off,6,Time OK,Free running,19900,8296,90,0,
1570040700,2019-10-02 18:25:00.000,47.647215N 0.557392E 68m,Off,6,Time OK,Free running,38800,8296,90,0,
1570041000,2019-10-02 18:30:00.000,47.647215N 0.557392E 68m,GNSS locked,7,Time OK,Fine lock,500,8297,100,-312,
1570041300,2019-10-02 18:35:00.000,47.647215N 0.557392E 68m,Off,7,Time OK,Free running,8800,8304,90,0,
1570041600,2019-10-02 18:40:00.000,47.647215N 0.557392E 68m,Off,7,Time OK,Free running,23300,8304,90,0,
1570041900,2019-10-02 18:45:00.000,47.647215N 0.557392E 68m,Off,7,Time OK,Free running,43000,8304,90,0,
1570042200,2019-10-02 18:50:00.000,47.647215N 0.557392E 68m,Off,7,Time OK,Free running,400,8294,90,0,
1570042500,2019-10-02 18:55:00.000,47.647215N 0.557392E 68m,Off,7,Time OK,Free running,10800,8294,90,0,
