Time(longsecs),Time(UTC),Supply voltage(V),Total current(A),Temperature(&deg;C),
1570075200,2019-10-03 04:00:00.000,1.316695581E1,1.25007267864384E-1,1.9656E1,
1570075500,2019-10-03 04:05:00.000,1.316695581E1,1.21373335659024E-1,1.9625E1,
1570075800,2019-10-03 04:10:00.000,1.3140029519999999E1,1.54805511948336E-1,1.9593E1,
1570076100,2019-10-03 04:15:00.000,1.316695581E1,1.21373335659024E-1,1.9593E1,
1570076400,2019-10-03 04:20:00.000,1.316695581E1,1.22826908541168E-1,1.9562E1,
1570076700,2019-10-03 04:25:00.000,1.316695581E1,1.2210012210009599E-1,1.9531E1,
1570077000,2019-10-03 04:30:00.000,1.316695581E1,1.2210012210009599E-1,1.95E1,
1570077300,2019-10-03 04:35:00.000,1.3153492665E1,1.21373335659024E-1,1.9468E1,
1570077600,2019-10-03 04:40:00.000,1.3153492665E1,1.25007267864384E-1,1.9437E1,
1570077900,2019-10-03 04:45:00.000,1.3153492665E1,1.2355369498224E-1,1.9406E1,
1570078200,2019-10-03 04:50:00.000,1.3153492665E1,1.22826908541168E-1,1.9406E1,
1570078500,2019-10-03 04:55:00.000,1.3153492665E1,1.24280481423312E-1,1.9343E1,
