Time(longsecs),Time(UTC),Earth location,GNSS receiver status,GNSS satellites used,Timing status,Phase lock loop status,Time uncertainty(ns),Timing DAC count,Time quality(&#37;),Time error(ns),
1571079600,2019-10-14 19:00:00.000,47.647078N 0.55746E 118m,Off,7,Time OK,Free running,6400,8300,90,0,
1571079900,2019-10-14 19:05:00.000,47.647078N 0.55746E 118m,Off,7,Time OK,Free running,16600,8300,90,0,
1571080200,2019-10-14 19:10:00.000,47.647078N 0.55746E 118m,Off,7,Time OK,Free running,29600,8300,90,0,
1571080500,2019-10-14 19:15:00.000,47.647078N 0.55746E 118m,Off,7,Time OK,Free running,45000,8300,90,0,
1571080800,2019-10-14 19:20:00.000,47.647078N 0.55746E 118m,Off,8,Time OK,Free running,500,8299,90,0,
1571081100,2019-10-14 19:25:00.000,47.647078N 0.55746E 118m,Off,8,Time OK,Free running,9300,8299,90,0,
1571081400,2019-10-14 19:30:00.000,47.647078N 0.55746E 118m,Off,8,Time OK,Free running,19600,8299,90,0,
1571081700,2019-10-14 19:35:00.000,47.647078N 0.55746E 118m,Off,8,Time OK,Free running,31800,8299,90,0,
1571082000,2019-10-14 19:40:00.000,47.647078N 0.55746E 118m,Off,8,Time OK,Free running,45900,8299,90,0,
1571082300,2019-10-14 19:45:00.000,47.647078N 0.55746E 118m,Off,8,Time OK,Free running,700,8296,90,0,
1571082600,2019-10-14 19:50:00.000,47.647078N 0.55746E 118m,Off,8,Time OK,Free running,10500,8296,90,0,
1571082900,2019-10-14 19:55:00.000,47.647078N 0.55746E 118m,Off,8,Time OK,Free running,21700,8296,90,0,
