Time(longsecs),Time(UTC),Earth location,GNSS receiver status,GNSS satellites used,Timing status,Phase lock loop status,Time uncertainty(ns),Timing DAC count,Time quality(&#37;),Time error(ns),
1571540400,2019-10-20 03:00:00.000,47.647093N 0.557564E 131m,Off,7,Time OK,Free running,30500,8283,90,0,
1571540700,2019-10-20 03:05:00.000,47.647093N 0.557564E 131m,Off,7,Time OK,Free running,41300,8283,90,0,
1571541000,2019-10-20 03:10:00.000,47.647093N 0.557564E 131m,GNSS locked,7,Time OK,Coarse lock,2000,8224,90,1979,
1571541300,2019-10-20 03:15:00.000,47.647093N 0.557564E 131m,Off,7,Time OK,Free running,4500,8277,90,0,
1571541600,2019-10-20 03:20:00.000,47.647093N 0.557564E 131m,Off,7,Time OK,Free running,13500,8277,90,0,
1571541900,2019-10-20 03:25:00.000,47.647093N 0.557564E 131m,Off,7,Time OK,Free running,22900,8277,90,0,
1571542200,2019-10-20 03:30:00.000,47.647093N 0.557564E 131m,Off,7,Time OK,Free running,33200,8277,90,0,
1571542500,2019-10-20 03:35:00.000,47.647093N 0.557564E 131m,Off,7,Time OK,Free running,44000,8277,90,0,
1571542800,2019-10-20 03:40:00.000,47.647093N 0.557564E 131m,GNSS locked,8,Time OK,Fine lock,300,8274,100,-208,
1571543100,2019-10-20 03:45:00.000,47.647093N 0.557564E 131m,Off,8,Time OK,Free running,7400,8281,90,0,
1571543400,2019-10-20 03:50:00.000,47.647093N 0.557564E 131m,Off,8,Time OK,Free running,16200,8281,90,0,
1571543700,2019-10-20 03:55:00.000,47.647093N 0.557564E 131m,Off,8,Time OK,Free running,25600,8281,90,0,
