Time(longsecs),Time(UTC),Earth location,GNSS receiver status,GNSS satellites used,Timing status,Phase lock loop status,Time uncertainty(ns),Timing DAC count,Time quality(&#37;),Time error(ns),
1571972400,2019-10-25 03:00:00.000,47.647087N 0.557309E 151m,Off,7,Time OK,Free running,18600,8282,90,0,
1571972700,2019-10-25 03:05:00.000,47.647087N 0.557309E 151m,Off,7,Time OK,Free running,27700,8282,90,0,
1571973000,2019-10-25 03:10:00.000,47.647087N 0.557309E 151m,Off,7,Time OK,Free running,37100,8282,90,0,
1571973300,2019-10-25 03:15:00.000,47.647087N 0.557309E 151m,Off,7,Time OK,Free running,47200,8282,90,0,
1571973600,2019-10-25 03:20:00.000,47.647087N 0.557309E 151m,GNSS locked,8,Time OK,Fine lock,200,8273,100,-104,
1571973900,2019-10-25 03:25:00.000,47.647087N 0.557309E 151m,Off,8,Time OK,Free running,7700,8278,90,0,
1571974200,2019-10-25 03:30:00.000,47.647087N 0.557309E 151m,Off,8,Time OK,Free running,16600,8278,90,0,
1571974500,2019-10-25 03:35:00.000,47.647087N 0.557309E 151m,Off,8,Time OK,Free running,25300,8278,90,0,
1571974800,2019-10-25 03:40:00.000,47.647087N 0.557309E 151m,Off,8,Time OK,Free running,34000,8278,90,0,
1571975100,2019-10-25 03:45:00.000,47.647087N 0.557309E 151m,Off,8,Time OK,Free running,42800,8278,90,0,
1571975400,2019-10-25 03:50:00.000,47.647087N 0.557309E 151m,GNSS locked,6,Time OK,Coarse lock,1200,8240,90,1145,
1571975700,2019-10-25 03:55:00.000,47.647087N 0.557309E 151m,Off,6,Time OK,Free running,5800,8279,90,0,
