Time(longsecs),Time(UTC),Supply voltage(V),Total current(A),Temperature(&deg;C),
1572422400,2019-10-30 08:00:00.000,1.3261197825E1,1.3082155939296E-1,1.8781E1,
1572422700,2019-10-30 08:05:00.000,1.327466097E1,9.811616954472E-2,1.8812E1,
1572423000,2019-10-30 08:10:00.000,1.3288124114999999E1,9.593581022150399E-2,1.8843E1,
1572423300,2019-10-30 08:15:00.000,1.330158726E1,9.593581022150399E-2,1.8843E1,
1572423600,2019-10-30 08:20:00.000,1.330158726E1,9.593581022150399E-2,1.8843E1,
1572423900,2019-10-30 08:25:00.000,1.330158726E1,9.593581022150399E-2,1.8843E1,
1572424200,2019-10-30 08:30:00.000,1.330158726E1,9.7389383103648E-2,1.8906E1,
1572424500,2019-10-30 08:35:00.000,1.330158726E1,9.6662596662576E-2,1.8937E1,
1572424800,2019-10-30 08:40:00.000,1.3315050405E1,9.6662596662576E-2,1.8968E1,
1572425100,2019-10-30 08:45:00.000,1.330158726E1,1.03930461073296E-1,1.9E1,
1572425400,2019-10-30 08:50:00.000,1.330158726E1,9.7389383103648E-2,1.9E1,
1572425700,2019-10-30 08:55:00.000,1.3288124114999999E1,1.27914413628672E-1,1.9062E1,
