Time(longsecs),Time(UTC),Sensor SOH Voltage A 1(uV),Sensor SOH Voltage A 2(uV),Sensor SOH Voltage A 3(uV),External SOH Voltage 1(uV),External SOH Voltage 2(uV),External SOH Voltage 3(uV),
1572364800,2019-10-29 16:00:00.000,,,,466056,466068,466186,
1572364800,2019-10-29 16:00:00.000,-1881246,,,,,,
1572366600,2019-10-29 16:30:00.000,,,,466051,466072,466201,
1572365100,2019-10-29 16:05:00.000,-1879012,,,,,,
1572365400,2019-10-29 16:10:00.000,-1880919,,,,,,
1572365700,2019-10-29 16:15:00.000,-1882899,,,,,,
1572366000,2019-10-29 16:20:00.000,-1878946,,,,,,
1572366300,2019-10-29 16:25:00.000,-1880888,,,,,,
1572366600,2019-10-29 16:30:00.000,-1878967,,,,,,
1572366900,2019-10-29 16:35:00.000,-1878962,,,,,,
1572367200,2019-10-29 16:40:00.000,-1879075,,,,,,
1572367500,2019-10-29 16:45:00.000,-1881064,,,,,,
1572367800,2019-10-29 16:50:00.000,-1878991,,,,,,
1572368100,2019-10-29 16:55:00.000,-1880864,,,,,,
