Time(longsecs),Time(UTC),Supply voltage(V),Total current(A),Temperature(&deg;C),
1570730400,2019-10-10 18:00:00.000,1.3247734679999999E1,1.21373335659024E-1,3.225E1,
1570730700,2019-10-10 18:05:00.000,1.3247734679999999E1,1.21373335659024E-1,3.2031E1,
1570731000,2019-10-10 18:10:00.000,1.3247734679999999E1,1.21373335659024E-1,3.1812E1,
1570731300,2019-10-10 18:15:00.000,1.3247734679999999E1,1.2355369498224E-1,3.1593E1,
1570731600,2019-10-10 18:20:00.000,1.3247734679999999E1,1.21373335659024E-1,3.1343E1,
1570731900,2019-10-10 18:25:00.000,1.3247734679999999E1,1.29367986510816E-1,3.1125E1,
1570732200,2019-10-10 18:30:00.000,1.3247734679999999E1,1.21373335659024E-1,3.0937E1,
1570732500,2019-10-10 18:35:00.000,1.3234271535E1,1.46084074655472E-1,3.0687E1,
1570732800,2019-10-10 18:40:00.000,1.3247734679999999E1,1.20646549217952E-1,3.0531000000000002E1,
1570733100,2019-10-10 18:45:00.000,1.3247734679999999E1,1.24280481423312E-1,3.0312E1,
1570733400,2019-10-10 18:50:00.000,1.3247734679999999E1,1.2210012210009599E-1,3.0093E1,
1570733700,2019-10-10 18:55:00.000,1.3220808389999998E1,1.5625908483048E-1,2.9875E1,
