Time(longsecs),Time(UTC),Supply voltage(V),Total current(A),Temperature(&deg;C),
1570892400,2019-10-12 15:00:00.000,1.3799723624999999E1,1.17739403453664E-1,4.0812E1,
1570892700,2019-10-12 15:05:00.000,1.3799723624999999E1,1.17739403453664E-1,4.0718E1,
1570893000,2019-10-12 15:10:00.000,1.3799723624999999E1,1.19192976335808E-1,4.0625E1,
1570893300,2019-10-12 15:15:00.000,1.3799723624999999E1,1.25007267864384E-1,4.0531E1,
1570893600,2019-10-12 15:20:00.000,1.378626048E1,1.50444793301904E-1,4.0437E1,
1570893900,2019-10-12 15:25:00.000,1.3799723624999999E1,1.17739403453664E-1,4.0343E1,
1570894200,2019-10-12 15:30:00.000,1.378626048E1,1.17012617012592E-1,4.0218E1,
1570894500,2019-10-12 15:35:00.000,1.3799723624999999E1,1.19192976335808E-1,4.0125E1,
1570894800,2019-10-12 15:40:00.000,1.3772797335E1,1.43176928891184E-1,3.9968E1,
1570895100,2019-10-12 15:45:00.000,1.3759334189999999E1,1.18466189894736E-1,3.9843E1,
1570895400,2019-10-12 15:50:00.000,1.37324079E1,1.17739403453664E-1,3.975E1,
1570895700,2019-10-12 15:55:00.000,1.3745871045E1,1.17739403453664E-1,3.9593E1,
