Time(longsecs),Time(UTC),Supply voltage(V),Total current(A),Temperature(&deg;C),
1571796000,2019-10-23 02:00:00.000,1.3261197825E1,9.6662596662576E-2,2.2406E1,
1571796300,2019-10-23 02:05:00.000,1.3261197825E1,9.7389383103648E-2,2.2343E1,
1571796600,2019-10-23 02:10:00.000,1.327466097E1,9.593581022150399E-2,2.2281E1,
1571796900,2019-10-23 02:15:00.000,1.3261197825E1,9.7389383103648E-2,2.2218E1,
1571797200,2019-10-23 02:20:00.000,1.3247734679999999E1,1.27914413628672E-1,2.2218E1,
1571797500,2019-10-23 02:25:00.000,1.3261197825E1,9.6662596662576E-2,2.2218E1,
1571797800,2019-10-23 02:30:00.000,1.3247734679999999E1,1.1628583057152E-1,2.2187E1,
1571798100,2019-10-23 02:35:00.000,1.3261197825E1,9.593581022150399E-2,2.2156E1,
1571798400,2019-10-23 02:40:00.000,1.3261197825E1,9.7389383103648E-2,2.2125E1,
1571798700,2019-10-23 02:45:00.000,1.3261197825E1,9.7389383103648E-2,2.2062E1,
1571799000,2019-10-23 02:50:00.000,1.3261197825E1,9.811616954472E-2,2.2031E1,
1571799300,2019-10-23 02:55:00.000,1.3261197825E1,9.6662596662576E-2,2.2031E1,
