Time(longsecs),Time(UTC),Earth location,GNSS receiver status,GNSS satellites used,Timing status,Phase lock loop status,Time uncertainty(ns),Timing DAC count,Time quality(&#37;),Time error(ns),
1571716800,2019-10-22 04:00:00.000,47.647093N 0.557564E 131m,GNSS locked,7,Time OK,Coarse lock,200,8279,90,104,
1571717100,2019-10-22 04:05:00.000,47.647093N 0.557564E 131m,Off,8,Time OK,Free running,6500,8280,90,0,
1571717400,2019-10-22 04:10:00.000,47.647093N 0.557564E 131m,Off,8,Time OK,Free running,15000,8280,90,0,
1571717700,2019-10-22 04:15:00.000,47.647093N 0.557564E 131m,Off,8,Time OK,Free running,23800,8280,90,0,
1571718000,2019-10-22 04:20:00.000,47.647093N 0.557564E 131m,Off,8,Time OK,Free running,33100,8280,90,0,
1571718300,2019-10-22 04:25:00.000,47.647093N 0.557564E 131m,Off,8,Time OK,Free running,43300,8280,90,0,
1571718600,2019-10-22 04:30:00.000,47.647093N 0.557564E 131m,GNSS locked,7,Time OK,Coarse lock,200,8282,90,104,
1571718900,2019-10-22 04:35:00.000,47.647093N 0.557564E 131m,Off,8,Time OK,Free running,6500,8281,90,0,
1571719200,2019-10-22 04:40:00.000,47.647093N 0.557564E 131m,Off,8,Time OK,Free running,15100,8281,90,0,
1571719500,2019-10-22 04:45:00.000,47.647093N 0.557564E 131m,Off,8,Time OK,Free running,24000,8281,90,0,
1571719800,2019-10-22 04:50:00.000,47.647093N 0.557564E 131m,Off,8,Time OK,Free running,33300,8281,90,0,
1571720100,2019-10-22 04:55:00.000,47.647093N 0.557564E 131m,Off,8,Time OK,Free running,43600,8281,90,0,
