Time(longsecs),Time(UTC),Earth location,GNSS receiver status,GNSS satellites used,Timing status,Phase lock loop status,Time uncertainty(ns),Timing DAC count,Time quality(&#37;),Time error(ns),
1571623200,2019-10-21 02:00:00.000,47.647093N 0.557564E 131m,Off,9,Time OK,Free running,29800,8272,90,0,
1571623500,2019-10-21 02:05:00.000,47.647093N 0.557564E 131m,Off,9,Time OK,Free running,41700,8272,90,0,
1571623800,2019-10-21 02:10:00.000,47.647093N 0.557564E 131m,GNSS locked,5,Time OK,Coarse lock,600,8305,90,-520,
1571624100,2019-10-21 02:15:00.000,47.647093N 0.557564E 131m,Off,5,Time OK,Free running,4300,8279,90,0,
1571624400,2019-10-21 02:20:00.000,47.647093N 0.557564E 131m,Off,5,Time OK,Free running,13000,8279,90,0,
1571624700,2019-10-21 02:25:00.000,47.647093N 0.557564E 131m,Off,5,Time OK,Free running,21800,8279,90,0,
1571625000,2019-10-21 02:30:00.000,47.647093N 0.557564E 131m,Off,5,Time OK,Free running,31700,8279,90,0,
1571625300,2019-10-21 02:35:00.000,47.647093N 0.557564E 131m,Off,5,Time OK,Free running,42700,8279,90,0,
1571625600,2019-10-21 02:40:00.000,47.647093N 0.557564E 131m,GNSS locked,6,Time OK,Coarse lock,200,8279,90,104,
1571625900,2019-10-21 02:45:00.000,47.647093N 0.557564E 131m,Off,6,Time OK,Free running,6400,8281,90,0,
1571626200,2019-10-21 02:50:00.000,47.647093N 0.557564E 131m,Off,6,Time OK,Free running,14900,8281,90,0,
1571626500,2019-10-21 02:55:00.000,47.647093N 0.557564E 131m,Off,6,Time OK,Free running,24000,8281,90,0,
