Time(longsecs),Time(UTC),Supply voltage(V),Total current(A),Temperature(&deg;C),
1571112000,2019-10-15 04:00:00.000,1.3207345244999999E1,1.21373335659024E-1,2.8093E1,
1571112300,2019-10-15 04:05:00.000,1.3207345244999999E1,1.21373335659024E-1,2.8093E1,
1571112600,2019-10-15 04:10:00.000,1.31938821E1,1.44630501773328E-1,2.8062E1,
1571112900,2019-10-15 04:15:00.000,1.31938821E1,1.2210012210009599E-1,2.8062E1,
1571113200,2019-10-15 04:20:00.000,1.31938821E1,1.20646549217952E-1,2.8062E1,
1571113500,2019-10-15 04:25:00.000,1.31938821E1,1.21373335659024E-1,2.8062E1,
1571113800,2019-10-15 04:30:00.000,1.31938821E1,1.22826908541168E-1,2.8062E1,
1571114100,2019-10-15 04:35:00.000,1.31938821E1,1.21373335659024E-1,2.8031000000000002E1,
1571114400,2019-10-15 04:40:00.000,1.31938821E1,1.2355369498224E-1,2.8E1,
1571114700,2019-10-15 04:45:00.000,1.3180418954999999E1,1.55532298389408E-1,2.8031000000000002E1,
1571115000,2019-10-15 04:50:00.000,1.31938821E1,1.2355369498224E-1,2.8062E1,
1571115300,2019-10-15 04:55:00.000,1.31938821E1,1.2210012210009599E-1,2.8062E1,
