Time(longsecs),Time(UTC),Earth location,GNSS receiver status,GNSS satellites used,Timing status,Phase lock loop status,Time uncertainty(ns),Timing DAC count,Time quality(&#37;),Time error(ns),
1571536800,2019-10-20 02:00:00.000,47.647093N 0.557564E 131m,Off,9,Time OK,Free running,19300,8277,90,0,
1571537100,2019-10-20 02:05:00.000,47.647093N 0.557564E 131m,Off,9,Time OK,Free running,30700,8277,90,0,
1571537400,2019-10-20 02:10:00.000,47.647093N 0.557564E 131m,Off,9,Time OK,Free running,43600,8277,90,0,
1571537700,2019-10-20 02:15:00.000,47.647093N 0.557564E 131m,GNSS locked,7,Time OK,Fine lock,300,8276,100,312,
1571538000,2019-10-20 02:20:00.000,47.647093N 0.557564E 131m,Off,7,Time OK,Free running,8200,8275,90,0,
1571538300,2019-10-20 02:25:00.000,47.647093N 0.557564E 131m,Off,7,Time OK,Free running,17100,8275,90,0,
1571538600,2019-10-20 02:30:00.000,47.647093N 0.557564E 131m,Off,7,Time OK,Free running,26900,8275,90,0,
1571538900,2019-10-20 02:35:00.000,47.647093N 0.557564E 131m,Off,7,Time OK,Free running,38200,8275,90,0,
1571539200,2019-10-20 02:40:00.000,47.647093N 0.557564E 131m,GNSS unlocked,0,Time OK,Free running,50600,8275,90,0,
1571539500,2019-10-20 02:45:00.000,47.647093N 0.557564E 131m,Off,7,Time OK,Free running,3200,8283,90,0,
1571539800,2019-10-20 02:50:00.000,47.647093N 0.557564E 131m,Off,7,Time OK,Free running,11700,8283,90,0,
1571540100,2019-10-20 02:55:00.000,47.647093N 0.557564E 131m,Off,7,Time OK,Free running,20700,8283,90,0,
