Time(longsecs),Time(UTC),Sensor SOH Voltage A 1(uV),Sensor SOH Voltage A 2(uV),Sensor SOH Voltage A 3(uV),External SOH Voltage 1(uV),External SOH Voltage 2(uV),External SOH Voltage 3(uV),
1572462000,2019-10-30 19:00:00.000,,,,466076,466084,466215,
1572462000,2019-10-30 19:00:00.000,-1875778,,,,,,
1572463800,2019-10-30 19:30:00.000,,,,466053,466080,466224,
1572462300,2019-10-30 19:05:00.000,-1877577,,,,,,
1572462600,2019-10-30 19:10:00.000,-1878991,,,,,,
1572462900,2019-10-30 19:15:00.000,-1874966,,,,,,
1572463200,2019-10-30 19:20:00.000,-1873996,,,,,,
1572463500,2019-10-30 19:25:00.000,-1879567,,,,,,
1572463800,2019-10-30 19:30:00.000,-1879610,,,,,,
1572464100,2019-10-30 19:35:00.000,-1878931,,,,,,
1572464400,2019-10-30 19:40:00.000,-1877928,,,,,,
1572464700,2019-10-30 19:45:00.000,-1875205,,,,,,
1572465000,2019-10-30 19:50:00.000,-1876201,,,,,,
1572465300,2019-10-30 19:55:00.000,-1874737,,,,,,
