Time(longsecs),Time(UTC),Sensor SOH Voltage A 1(uV),Sensor SOH Voltage A 2(uV),Sensor SOH Voltage A 3(uV),External SOH Voltage 1(uV),External SOH Voltage 2(uV),External SOH Voltage 3(uV),
1571022000,2019-10-14 03:00:00.000,,,,465972,466027,466062,
1571022000,2019-10-14 03:00:00.000,-1910869,,,,,,
1571023800,2019-10-14 03:30:00.000,,,,465970,466021,466076,
1571022300,2019-10-14 03:05:00.000,-1910778,,,,,,
1571022600,2019-10-14 03:10:00.000,-1913506,,,,,,
1571022900,2019-10-14 03:15:00.000,-1912223,,,,,,
1571023200,2019-10-14 03:20:00.000,-1912030,,,,,,
1571023500,2019-10-14 03:25:00.000,-1910272,,,,,,
1571023800,2019-10-14 03:30:00.000,-1910076,,,,,,
1571024100,2019-10-14 03:35:00.000,-1911791,,,,,,
1571024400,2019-10-14 03:40:00.000,-1908275,,,,,,
1571024700,2019-10-14 03:45:00.000,-1910522,,,,,,
1571025000,2019-10-14 03:50:00.000,-1912340,,,,,,
1571025300,2019-10-14 03:55:00.000,-1912144,,,,,,
