Time(longsecs),Time(UTC),Supply voltage(V),Total current(A),Temperature(&deg;C),
1572105600,2019-10-26 16:00:00.000,1.378626048E1,9.5209023780432E-2,3.25E1,
1572105900,2019-10-26 16:05:00.000,1.378626048E1,1.11925111925088E-1,3.2375E1,
1572106200,2019-10-26 16:10:00.000,1.378626048E1,1.06837606837584E-1,3.2187E1,
1572106500,2019-10-26 16:15:00.000,1.3772797335E1,9.3755450898288E-2,3.2093E1,
1572106800,2019-10-26 16:20:00.000,1.3745871045E1,9.3755450898288E-2,3.1937E1,
1572107100,2019-10-26 16:25:00.000,1.3718944754999999E1,9.593581022150399E-2,3.1812E1,
1572107400,2019-10-26 16:30:00.000,1.3692018464999999E1,9.448223733936E-2,3.1656000000000002E1,
1572107700,2019-10-26 16:35:00.000,1.3638165885E1,1.25734054305456E-1,3.15E1,
1572108000,2019-10-26 16:40:00.000,1.362470274E1,9.593581022150399E-2,3.1406000000000002E1,
1572108300,2019-10-26 16:45:00.000,1.359777645E1,9.448223733936E-2,3.1218E1,
1572108600,2019-10-26 16:50:00.000,1.3584313304999998E1,9.448223733936E-2,3.1062E1,
1572108900,2019-10-26 16:55:00.000,1.3543923869999999E1,1.271876271876E-1,3.0906000000000002E1,
