Time(longsecs),Time(UTC),Earth location,GNSS receiver status,GNSS satellites used,Timing status,Phase lock loop status,Time uncertainty(ns),Timing DAC count,Time quality(&#37;),Time error(ns),
1570773600,2019-10-11 06:00:00.000,47.647095N 0.557514E 123m,Off,7,Time OK,Free running,33000,8279,90,0,
1570773900,2019-10-11 06:05:00.000,47.647095N 0.557514E 123m,Off,7,Time OK,Free running,41600,8279,90,0,
1570774200,2019-10-11 06:10:00.000,47.647095N 0.557514E 123m,GNSS unlocked,0,Time OK,Free running,50500,8279,90,0,
1570774500,2019-10-11 06:15:00.000,47.647095N 0.557514E 123m,Off,8,Time OK,Free running,3500,8279,90,0,
1570774800,2019-10-11 06:20:00.000,47.647095N 0.557514E 123m,Off,8,Time OK,Free running,12400,8279,90,0,
1570775100,2019-10-11 06:25:00.000,47.647095N 0.557514E 123m,Off,8,Time OK,Free running,21400,8279,90,0,
1570775400,2019-10-11 06:30:00.000,47.647095N 0.557514E 123m,Off,8,Time OK,Free running,30200,8279,90,0,
1570775700,2019-10-11 06:35:00.000,47.647095N 0.557514E 123m,Off,8,Time OK,Free running,39200,8279,90,0,
1570776000,2019-10-11 06:40:00.000,47.647095N 0.557514E 123m,Off,8,Time OK,Free running,47900,8279,90,0,
1570776300,2019-10-11 06:45:00.000,47.647095N 0.557514E 123m,Off,9,Time OK,Free running,500,8277,90,0,
1570776600,2019-10-11 06:50:00.000,47.647095N 0.557514E 123m,Off,9,Time OK,Free running,9800,8277,90,0,
1570776900,2019-10-11 06:55:00.000,47.647095N 0.557514E 123m,Off,9,Time OK,Free running,19900,8277,90,0,
