Time(longsecs),Time(UTC),Sensor SOH Voltage A 1(uV),Sensor SOH Voltage A 2(uV),Sensor SOH Voltage A 3(uV),External SOH Voltage 1(uV),External SOH Voltage 2(uV),External SOH Voltage 3(uV),
1571731200,2019-10-22 08:00:00.000,,,,466124,466131,466268,
1571731200,2019-10-22 08:00:00.000,-1889048,,,,,,
1571733000,2019-10-22 08:30:00.000,,,,466103,466102,466257,
1571731500,2019-10-22 08:05:00.000,-1889059,,,,,,
1571731800,2019-10-22 08:10:00.000,-1889009,,,,,,
1571732100,2019-10-22 08:15:00.000,-1885054,,,,,,
1571732400,2019-10-22 08:20:00.000,-1888902,,,,,,
1571732700,2019-10-22 08:25:00.000,-1888818,,,,,,
1571733000,2019-10-22 08:30:00.000,-1888718,,,,,,
1571733300,2019-10-22 08:35:00.000,-1888988,,,,,,
1571733600,2019-10-22 08:40:00.000,-1888976,,,,,,
1571733900,2019-10-22 08:45:00.000,-1885178,,,,,,
1571734200,2019-10-22 08:50:00.000,-1885106,,,,,,
1571734500,2019-10-22 08:55:00.000,-1888723,,,,,,
