Time(longsecs),Time(UTC),Earth location,GNSS receiver status,GNSS satellites used,Timing status,Phase lock loop status,Time uncertainty(ns),Timing DAC count,Time quality(&#37;),Time error(ns),
1570932000,2019-10-13 02:00:00.000,47.647203N 0.557496E 80m,Off,8,Time OK,Free running,8600,8295,90,0,
1570932300,2019-10-13 02:05:00.000,47.647203N 0.557496E 80m,Off,8,Time OK,Free running,18600,8295,90,0,
1570932600,2019-10-13 02:10:00.000,47.647203N 0.557496E 80m,Off,8,Time OK,Free running,28800,8295,90,0,
1570932900,2019-10-13 02:15:00.000,47.647203N 0.557496E 80m,Off,8,Time OK,Free running,39000,8295,90,0,
1570933200,2019-10-13 02:20:00.000,47.647203N 0.557496E 80m,Off,8,Time OK,Free running,49400,8295,90,0,
1570933500,2019-10-13 02:25:00.000,47.647203N 0.557496E 80m,Off,8,Time OK,Free running,2500,8294,90,0,
1570933800,2019-10-13 02:30:00.000,47.647203N 0.557496E 80m,Off,8,Time OK,Free running,11800,8294,90,0,
1570934100,2019-10-13 02:35:00.000,47.647203N 0.557496E 80m,Off,8,Time OK,Free running,21500,8294,90,0,
1570934400,2019-10-13 02:40:00.000,47.647203N 0.557496E 80m,Off,8,Time OK,Free running,31400,8294,90,0,
1570934700,2019-10-13 02:45:00.000,47.647203N 0.557496E 80m,Off,8,Time OK,Free running,41500,8294,90,0,
1570935000,2019-10-13 02:50:00.000,47.647203N 0.557496E 80m,GNSS unlocked,0,Time OK,Free running,51900,8294,90,0,
1570935300,2019-10-13 02:55:00.000,47.647203N 0.557496E 80m,Off,6,Time OK,Free running,4400,8285,90,0,
