Time(longsecs),Time(UTC),Earth location,GNSS receiver status,GNSS satellites used,Timing status,Phase lock loop status,Time uncertainty(ns),Timing DAC count,Time quality(&#37;),Time error(ns),
1570374000,2019-10-06 15:00:00.000,47.647292N 0.557584E 162m,Off,7,Time OK,Free running,44300,8305,90,0,
1570374300,2019-10-06 15:05:00.000,47.647292N 0.557584E 162m,GNSS locked,7,Time OK,Fine lock,300,8309,100,-208,
1570374600,2019-10-06 15:10:00.000,47.647292N 0.557584E 162m,Off,7,Time OK,Free running,8700,8309,90,0,
1570374900,2019-10-06 15:15:00.000,47.647292N 0.557584E 162m,Off,7,Time OK,Free running,19000,8309,90,0,
1570375200,2019-10-06 15:20:00.000,47.647292N 0.557584E 162m,Off,7,Time OK,Free running,31000,8309,90,0,
1570375500,2019-10-06 15:25:00.000,47.647292N 0.557584E 162m,Off,7,Time OK,Free running,45000,8309,90,0,
1570375800,2019-10-06 15:30:00.000,47.647292N 0.557584E 162m,GNSS locked,9,Time OK,Fine lock,200,8308,100,-208,
1570376100,2019-10-06 15:35:00.000,47.647292N 0.557584E 162m,Off,9,Time OK,Free running,10200,8308,90,0,
1570376400,2019-10-06 15:40:00.000,47.647292N 0.557584E 162m,Off,9,Time OK,Free running,23700,8308,90,0,
1570376700,2019-10-06 15:45:00.000,47.647292N 0.557584E 162m,Off,9,Time OK,Free running,42000,8308,90,0,
1570377000,2019-10-06 15:50:00.000,47.647292N 0.557584E 162m,GNSS locked,8,Time OK,Fine lock,200,8314,100,-208,
1570377300,2019-10-06 15:55:00.000,47.647292N 0.557584E 162m,Off,8,Time OK,Free running,10500,8313,90,0,
