Time(longsecs),Time(UTC),Supply voltage(V),Total current(A),Temperature(&deg;C),
1571346000,2019-10-17 21:00:00.000,1.3261197825E1,1.21373335659024E-1,2.8406000000000002E1,
1571346300,2019-10-17 21:05:00.000,1.3247734679999999E1,1.55532298389408E-1,2.8343E1,
1571346600,2019-10-17 21:10:00.000,1.3261197825E1,1.20646549217952E-1,2.8343E1,
1571346900,2019-10-17 21:15:00.000,1.3261197825E1,1.21373335659024E-1,2.8312E1,
1571347200,2019-10-17 21:20:00.000,1.3261197825E1,1.21373335659024E-1,2.825E1,
1571347500,2019-10-17 21:25:00.000,1.3261197825E1,1.21373335659024E-1,2.8187E1,
1571347800,2019-10-17 21:30:00.000,1.3261197825E1,1.21373335659024E-1,2.8125E1,
1571348100,2019-10-17 21:35:00.000,1.3261197825E1,1.21373335659024E-1,2.8093E1,
1571348400,2019-10-17 21:40:00.000,1.3261197825E1,1.22826908541168E-1,2.8093E1,
1571348700,2019-10-17 21:45:00.000,1.3261197825E1,1.4172335600903999E-1,2.8062E1,
1571349000,2019-10-17 21:50:00.000,1.3261197825E1,1.2355369498224E-1,2.8031000000000002E1,
1571349300,2019-10-17 21:55:00.000,1.3261197825E1,1.21373335659024E-1,2.7968E1,
