Time(longsecs),Time(UTC),Earth location,GNSS receiver status,GNSS satellites used,Timing status,Phase lock loop status,Time uncertainty(ns),Timing DAC count,Time quality(&#37;),Time error(ns),
1572339600,2019-10-29 09:00:00.000,47.647087N 0.557309E 151m,Off,9,Time OK,Free running,7600,8274,90,0,
1572339900,2019-10-29 09:05:00.000,47.647087N 0.557309E 151m,Off,9,Time OK,Free running,17600,8274,90,0,
1572340200,2019-10-29 09:10:00.000,47.647087N 0.557309E 151m,Off,9,Time OK,Free running,28600,8274,90,0,
1572340500,2019-10-29 09:15:00.000,47.647087N 0.557309E 151m,Off,9,Time OK,Free running,40200,8274,90,0,
1572340800,2019-10-29 09:20:00.000,47.647087N 0.557309E 151m,GNSS locked,5,Time OK,Free running,52200,8274,90,0,
1572341100,2019-10-29 09:25:00.000,47.647087N 0.557309E 151m,Off,10,Time OK,Free running,5000,8279,90,0,
1572341400,2019-10-29 09:30:00.000,47.647087N 0.557309E 151m,Off,10,Time OK,Free running,15100,8279,90,0,
1572341700,2019-10-29 09:35:00.000,47.647087N 0.557309E 151m,Off,10,Time OK,Free running,26100,8279,90,0,
1572342000,2019-10-29 09:40:00.000,47.647087N 0.557309E 151m,Off,10,Time OK,Free running,38000,8279,90,0,
1572342300,2019-10-29 09:45:00.000,47.647087N 0.557309E 151m,GNSS unlocked,0,Time OK,Free running,51000,8279,90,0,
1572342600,2019-10-29 09:50:00.000,47.647087N 0.557309E 151m,Off,10,Time OK,Free running,2700,8270,90,0,
1572342900,2019-10-29 09:55:00.000,47.647087N 0.557309E 151m,Off,10,Time OK,Free running,12500,8270,90,0,
