Time(longsecs),Time(UTC),Sensor SOH Voltage A 1(uV),Sensor SOH Voltage A 2(uV),Sensor SOH Voltage A 3(uV),External SOH Voltage 1(uV),External SOH Voltage 2(uV),External SOH Voltage 3(uV),
1571529600,2019-10-20 00:00:00.000,,,,466018,466053,466163,
1571529600,2019-10-20 00:00:00.000,-1892736,,,,,,
1571531400,2019-10-20 00:30:00.000,,,,466015,466062,466164,
1571529900,2019-10-20 00:05:00.000,-1896338,,,,,,
1571530200,2019-10-20 00:10:00.000,-1894558,,,,,,
1571530500,2019-10-20 00:15:00.000,-1896226,,,,,,
1571530800,2019-10-20 00:20:00.000,-1898569,,,,,,
1571531100,2019-10-20 00:25:00.000,-1894458,,,,,,
1571531400,2019-10-20 00:30:00.000,-1894630,,,,,,
1571531700,2019-10-20 00:35:00.000,-1894917,,,,,,
1571532000,2019-10-20 00:40:00.000,-1895034,,,,,,
1571532300,2019-10-20 00:45:00.000,-1894900,,,,,,
1571532600,2019-10-20 00:50:00.000,-1898583,,,,,,
1571532900,2019-10-20 00:55:00.000,-1895003,,,,,,
