Time(longsecs),Time(UTC),Sensor SOH Voltage A 1(uV),Sensor SOH Voltage A 2(uV),Sensor SOH Voltage A 3(uV),External SOH Voltage 1(uV),External SOH Voltage 2(uV),External SOH Voltage 3(uV),
1572422400,2019-10-30 08:00:00.000,,,,466126,466112,466287,
1572422400,2019-10-30 08:00:00.000,-1878633,,,,,,
1572424200,2019-10-30 08:30:00.000,,,,466150,466113,466294,
1572422700,2019-10-30 08:05:00.000,-1879115,,,,,,
1572423000,2019-10-30 08:10:00.000,-1875279,,,,,,
1572423300,2019-10-30 08:15:00.000,-1873296,,,,,,
1572423600,2019-10-30 08:20:00.000,-1873523,,,,,,
1572423900,2019-10-30 08:25:00.000,-1879297,,,,,,
1572424200,2019-10-30 08:30:00.000,-1879309,,,,,,
1572424500,2019-10-30 08:35:00.000,-1875109,,,,,,
1572424800,2019-10-30 08:40:00.000,-1875276,,,,,,
1572425100,2019-10-30 08:45:00.000,-1879247,,,,,,
1572425400,2019-10-30 08:50:00.000,-1875513,,,,,,
1572425700,2019-10-30 08:55:00.000,-1879163,,,,,,
