Time(longsecs),Time(UTC),Earth location,GNSS receiver status,GNSS satellites used,Timing status,Phase lock loop status,Time uncertainty(ns),Timing DAC count,Time quality(&#37;),Time error(ns),
1571882400,2019-10-24 02:00:00.000,47.647087N 0.557309E 151m,Off,7,Time OK,Free running,18300,8280,90,0,
1571882700,2019-10-24 02:05:00.000,47.647087N 0.557309E 151m,Off,7,Time OK,Free running,29400,8280,90,0,
1571883000,2019-10-24 02:10:00.000,47.647087N 0.557309E 151m,Off,7,Time OK,Free running,42000,8280,90,0,
1571883300,2019-10-24 02:15:00.000,47.647087N 0.557309E 151m,GNSS locked,6,Time OK,Coarse lock,100,8287,90,0,
1571883600,2019-10-24 02:20:00.000,47.647087N 0.557309E 151m,Off,6,Time OK,Free running,6800,8272,90,0,
1571883900,2019-10-24 02:25:00.000,47.647087N 0.557309E 151m,Off,6,Time OK,Free running,15600,8272,90,0,
1571884200,2019-10-24 02:30:00.000,47.647087N 0.557309E 151m,Off,6,Time OK,Free running,25300,8272,90,0,
1571884500,2019-10-24 02:35:00.000,47.647087N 0.557309E 151m,Off,6,Time OK,Free running,36300,8272,90,0,
1571884800,2019-10-24 02:40:00.000,47.647087N 0.557309E 151m,Off,6,Time OK,Free running,48200,8272,90,0,
1571885100,2019-10-24 02:45:00.000,47.647087N 0.557309E 151m,Off,7,Time OK,Free running,2200,8272,90,0,
1571885400,2019-10-24 02:50:00.000,47.647087N 0.557309E 151m,Off,7,Time OK,Free running,11000,8272,90,0,
1571885700,2019-10-24 02:55:00.000,47.647087N 0.557309E 151m,Off,7,Time OK,Free running,20400,8272,90,0,
