Time(longsecs),Time(UTC),Supply voltage(V),Total current(A),Temperature(&deg;C),
1572127200,2019-10-26 22:00:00.000,1.3261197825E1,1.35909064480464E-1,3.0375E1,
1572127500,2019-10-26 22:05:00.000,1.3261197825E1,1.20646549217952E-1,3.0093E1,
1572127800,2019-10-26 22:10:00.000,1.3261197825E1,1.21373335659024E-1,2.9937E1,
1572128100,2019-10-26 22:15:00.000,1.3261197825E1,1.25734054305456E-1,2.9875E1,
1572128400,2019-10-26 22:20:00.000,1.3261197825E1,1.24280481423312E-1,2.9843E1,
1572128700,2019-10-26 22:25:00.000,1.3261197825E1,1.2355369498224E-1,2.975E1,
1572129000,2019-10-26 22:30:00.000,1.3261197825E1,1.40269783126896E-1,2.9687E1,
1572129300,2019-10-26 22:35:00.000,1.3247734679999999E1,1.54805511948336E-1,2.9656000000000002E1,
1572129600,2019-10-26 22:40:00.000,1.3261197825E1,1.2210012210009599E-1,2.9687E1,
1572129900,2019-10-26 22:45:00.000,1.3261197825E1,1.21373335659024E-1,2.9625E1,
1572130200,2019-10-26 22:50:00.000,1.3261197825E1,1.33728705157248E-1,2.9593E1,
1572130500,2019-10-26 22:55:00.000,1.3261197825E1,1.2210012210009599E-1,2.9593E1,
