Time(longsecs),Time(UTC),Sensor SOH Voltage A 1(uV),Sensor SOH Voltage A 2(uV),Sensor SOH Voltage A 3(uV),External SOH Voltage 1(uV),External SOH Voltage 2(uV),External SOH Voltage 3(uV),
1571947200,2019-10-24 20:00:00.000,,,,465972,466031,466115,
1571947200,2019-10-24 20:00:00.000,-1894644,,,,,,
1571949000,2019-10-24 20:30:00.000,,,,466010,466063,466137,
1571947500,2019-10-24 20:05:00.000,-1898237,,,,,,
1571947800,2019-10-24 20:10:00.000,-1894532,,,,,,
1571948100,2019-10-24 20:15:00.000,-1894835,,,,,,
1571948400,2019-10-24 20:20:00.000,-1892870,,,,,,
1571948700,2019-10-24 20:25:00.000,-1892827,,,,,,
1571949000,2019-10-24 20:30:00.000,-1894766,,,,,,
1571949300,2019-10-24 20:35:00.000,-1892590,,,,,,
1571949600,2019-10-24 20:40:00.000,-1892724,,,,,,
1571949900,2019-10-24 20:45:00.000,-1892936,,,,,,
1571950200,2019-10-24 20:50:00.000,-1893070,,,,,,
1571950500,2019-10-24 20:55:00.000,-1892999,,,,,,
