Time(longsecs),Time(UTC),Supply voltage(V),Total current(A),Temperature(&deg;C),
1570068000,2019-10-03 02:00:00.000,1.31938821E1,1.21373335659024E-1,2.0625E1,
1570068300,2019-10-03 02:05:00.000,1.3180418954999999E1,1.2355369498224E-1,2.0593E1,
1570068600,2019-10-03 02:10:00.000,1.3180418954999999E1,1.21373335659024E-1,2.0531E1,
1570068900,2019-10-03 02:15:00.000,1.3180418954999999E1,1.21373335659024E-1,2.0437E1,
1570069200,2019-10-03 02:20:00.000,1.3180418954999999E1,1.2210012210009599E-1,2.0437E1,
1570069500,2019-10-03 02:25:00.000,1.3180418954999999E1,1.21373335659024E-1,2.0406E1,
1570069800,2019-10-03 02:30:00.000,1.3180418954999999E1,1.20646549217952E-1,2.0343E1,
1570070100,2019-10-03 02:35:00.000,1.3180418954999999E1,1.21373335659024E-1,2.0281E1,
1570070400,2019-10-03 02:40:00.000,1.3180418954999999E1,1.21373335659024E-1,2.025E1,
1570070700,2019-10-03 02:45:00.000,1.316695581E1,1.55532298389408E-1,2.0187E1,
1570071000,2019-10-03 02:50:00.000,1.3180418954999999E1,1.20646549217952E-1,2.0187E1,
1570071300,2019-10-03 02:55:00.000,1.3180418954999999E1,1.22826908541168E-1,2.0156E1,
