Time(longsecs),Time(UTC),Sensor SOH Voltage A 1(uV),Sensor SOH Voltage A 2(uV),Sensor SOH Voltage A 3(uV),External SOH Voltage 1(uV),External SOH Voltage 2(uV),External SOH Voltage 3(uV),
1572285600,2019-10-28 18:00:00.000,,,,466013,466057,466175,
1572285600,2019-10-28 18:00:00.000,-1882622,,,,,,
1572287400,2019-10-28 18:30:00.000,,,,466028,466059,466176,
1572285900,2019-10-28 18:05:00.000,-1882870,,,,,,
1572286200,2019-10-28 18:10:00.000,-1883654,,,,,,
1572286500,2019-10-28 18:15:00.000,-1881927,,,,,,
1572286800,2019-10-28 18:20:00.000,-1883890,,,,,,
1572287100,2019-10-28 18:25:00.000,-1881896,,,,,,
1572287400,2019-10-28 18:30:00.000,-1881974,,,,,,
1572287700,2019-10-28 18:35:00.000,-1883630,,,,,,
1572288000,2019-10-28 18:40:00.000,-1881886,,,,,,
1572288300,2019-10-28 18:45:00.000,-1884088,,,,,,
1572288600,2019-10-28 18:50:00.000,-1883611,,,,,,
1572288900,2019-10-28 18:55:00.000,-1884471,,,,,,
