Time(longsecs),Time(UTC),Sensor SOH Voltage A 1(uV),Sensor SOH Voltage A 2(uV),Sensor SOH Voltage A 3(uV),External SOH Voltage 1(uV),External SOH Voltage 2(uV),External SOH Voltage 3(uV),
1571270400,2019-10-17 00:00:00.000,,,,465985,466045,466117,
1571270400,2019-10-17 00:00:00.000,-1898512,,,,,,
1571272200,2019-10-17 00:30:00.000,,,,465982,466044,466115,
1571270700,2019-10-17 00:05:00.000,-1898571,,,,,,
1571271000,2019-10-17 00:10:00.000,-1898650,,,,,,
1571271300,2019-10-17 00:15:00.000,-1898388,,,,,,
1571271600,2019-10-17 00:20:00.000,-1902432,,,,,,
1571271900,2019-10-17 00:25:00.000,-1898612,,,,,,
1571272200,2019-10-17 00:30:00.000,-1900346,,,,,,
1571272500,2019-10-17 00:35:00.000,-1898347,,,,,,
1571272800,2019-10-17 00:40:00.000,-1892741,,,,,,
1571273100,2019-10-17 00:45:00.000,-1898120,,,,,,
1571273400,2019-10-17 00:50:00.000,-1898698,,,,,,
1571273700,2019-10-17 00:55:00.000,-1900086,,,,,,
