Time(longsecs),Time(UTC),Supply voltage(V),Total current(A),Temperature(&deg;C),
1571317200,2019-10-17 13:00:00.000,1.378626048E1,9.6662596662576E-2,3.3156E1,
1571317500,2019-10-17 13:05:00.000,1.378626048E1,9.448223733936E-2,3.325E1,
1571317800,2019-10-17 13:10:00.000,1.378626048E1,9.3755450898288E-2,3.3437E1,
1571318100,2019-10-17 13:15:00.000,1.378626048E1,9.8842955985792E-2,3.3593E1,
1571318400,2019-10-17 13:20:00.000,1.378626048E1,9.8842955985792E-2,3.3781E1,
1571318700,2019-10-17 13:25:00.000,1.378626048E1,9.3755450898288E-2,3.3875E1,
1571319000,2019-10-17 13:30:00.000,1.378626048E1,9.3028664457216E-2,3.4062E1,
1571319300,2019-10-17 13:35:00.000,1.378626048E1,9.3028664457216E-2,3.4187E1,
1571319600,2019-10-17 13:40:00.000,1.378626048E1,9.3755450898288E-2,3.4343E1,
1571319900,2019-10-17 13:45:00.000,1.3772797335E1,1.13378684807232E-1,3.4468E1,
1571320200,2019-10-17 13:50:00.000,1.3772797335E1,1.25007267864384E-1,3.4562E1,
1571320500,2019-10-17 13:55:00.000,1.3799723624999999E1,9.3755450898288E-2,3.4687E1,
