Time(longsecs),Time(UTC),Earth location,GNSS receiver status,GNSS satellites used,Timing status,Phase lock loop status,Time uncertainty(ns),Timing DAC count,Time quality(&#37;),Time error(ns),
1570402800,2019-10-06 23:00:00.000,47.647292N 0.557584E 162m,Off,9,Time OK,Free running,46900,8286,90,0,
1570403100,2019-10-06 23:05:00.000,47.647292N 0.557584E 162m,Off,9,Time OK,Free running,800,8283,90,0,
1570403400,2019-10-06 23:10:00.000,47.647292N 0.557584E 162m,Off,9,Time OK,Free running,9300,8283,90,0,
1570403700,2019-10-06 23:15:00.000,47.647292N 0.557584E 162m,Off,9,Time OK,Free running,18500,8283,90,0,
1570404000,2019-10-06 23:20:00.000,47.647292N 0.557584E 162m,Off,9,Time OK,Free running,29100,8283,90,0,
1570404300,2019-10-06 23:25:00.000,47.647292N 0.557584E 162m,Off,9,Time OK,Free running,40800,8283,90,0,
1570404600,2019-10-06 23:30:00.000,47.647292N 0.557584E 162m,GNSS locked,9,Time OK,Coarse lock,500,8293,90,-416,
1570404900,2019-10-06 23:35:00.000,47.647292N 0.557584E 162m,Off,9,Time OK,Free running,6100,8295,90,0,
1570405200,2019-10-06 23:40:00.000,47.647292N 0.557584E 162m,Off,9,Time OK,Free running,15500,8295,90,0,
1570405500,2019-10-06 23:45:00.000,47.647292N 0.557584E 162m,Off,9,Time OK,Free running,26100,8295,90,0,
1570405800,2019-10-06 23:50:00.000,47.647292N 0.557584E 162m,Off,9,Time OK,Free running,38400,8295,90,0,
1570406100,2019-10-06 23:55:00.000,47.647292N 0.557584E 162m,GNSS unlocked,0,Time OK,Free running,52300,8295,90,0,
