Time(longsecs),Time(UTC),Sensor SOH Voltage A 1(uV),Sensor SOH Voltage A 2(uV),Sensor SOH Voltage A 3(uV),External SOH Voltage 1(uV),External SOH Voltage 2(uV),External SOH Voltage 3(uV),
1571450400,2019-10-19 02:00:00.000,,,,466010,466055,466163,
1571450400,2019-10-19 02:00:00.000,-1898579,,,,,,
1571452200,2019-10-19 02:30:00.000,,,,466013,466053,466167,
1571450700,2019-10-19 02:05:00.000,-1898689,,,,,,
1571451000,2019-10-19 02:10:00.000,-1898419,,,,,,
1571451300,2019-10-19 02:15:00.000,-1898204,,,,,,
1571451600,2019-10-19 02:20:00.000,-1898442,,,,,,
1571451900,2019-10-19 02:25:00.000,-1898502,,,,,,
1571452200,2019-10-19 02:30:00.000,-1902188,,,,,,
1571452500,2019-10-19 02:35:00.000,-1898457,,,,,,
1571452800,2019-10-19 02:40:00.000,-1898674,,,,,,
1571453100,2019-10-19 02:45:00.000,-1895134,,,,,,
1571453400,2019-10-19 02:50:00.000,-1894800,,,,,,
1571453700,2019-10-19 02:55:00.000,-1895430,,,,,,
