Time(longsecs),Time(UTC),Supply voltage(V),Total current(A),Temperature(&deg;C),
1572480000,2019-10-31 00:00:00.000,1.3247734679999999E1,1.20646549217952E-1,2.3156E1,
1572480300,2019-10-31 00:05:00.000,1.3247734679999999E1,1.1991976277688E-1,2.3093E1,
1572480600,2019-10-31 00:10:00.000,1.3234271535E1,1.29367986510816E-1,2.3062E1,
1572480900,2019-10-31 00:15:00.000,1.3261197825E1,1.01023315309008E-1,2.2312E1,
1572481200,2019-10-31 00:20:00.000,1.3261197825E1,9.7389383103648E-2,2.1875E1,
1572481500,2019-10-31 00:25:00.000,1.3261197825E1,9.6662596662576E-2,2.1593E1,
1572481800,2019-10-31 00:30:00.000,1.3261197825E1,9.811616954472E-2,2.1437E1,
1572482100,2019-10-31 00:35:00.000,1.3261197825E1,9.811616954472E-2,2.1218E1,
1572482400,2019-10-31 00:40:00.000,1.3261197825E1,9.593581022150399E-2,2.1093E1,
1572482700,2019-10-31 00:45:00.000,1.3261197825E1,9.7389383103648E-2,2.1E1,
1572483000,2019-10-31 00:50:00.000,1.3261197825E1,9.7389383103648E-2,2.0937E1,
1572483300,2019-10-31 00:55:00.000,1.3261197825E1,9.593581022150399E-2,2.0843E1,
