Time(longsecs),Time(UTC),Supply voltage(V),Total current(A),Temperature(&deg;C),
1569996000,2019-10-02 06:00:00.000,1.31938821E1,1.2210012210009599E-1,2.8093E1,
1569996300,2019-10-02 06:05:00.000,1.316695581E1,1.55532298389408E-1,2.8062E1,
1569996600,2019-10-02 06:10:00.000,1.31938821E1,1.21373335659024E-1,2.8062E1,
1569996900,2019-10-02 06:15:00.000,1.31938821E1,1.21373335659024E-1,2.8093E1,
1569997200,2019-10-02 06:20:00.000,1.31938821E1,1.2210012210009599E-1,2.8062E1,
1569997500,2019-10-02 06:25:00.000,1.3180418954999999E1,1.22826908541168E-1,2.8E1,
1569997800,2019-10-02 06:30:00.000,1.31938821E1,1.2210012210009599E-1,2.7937E1,
1569998100,2019-10-02 06:35:00.000,1.316695581E1,1.55532298389408E-1,2.7906E1,
1569998400,2019-10-02 06:40:00.000,1.31938821E1,1.21373335659024E-1,2.7937E1,
1569998700,2019-10-02 06:45:00.000,1.31938821E1,1.21373335659024E-1,2.7937E1,
1569999000,2019-10-02 06:50:00.000,1.31938821E1,1.2355369498224E-1,2.7937E1,
1569999300,2019-10-02 06:55:00.000,1.31938821E1,1.21373335659024E-1,2.7875E1,
