Time(longsecs),Time(UTC),Earth location,GNSS receiver status,GNSS satellites used,Timing status,Phase lock loop status,Time uncertainty(ns),Timing DAC count,Time quality(&#37;),Time error(ns),
1570435200,2019-10-07 08:00:00.000,47.647292N 0.557584E 162m,Off,10,Time OK,Free running,4400,8286,90,0,
1570435500,2019-10-07 08:05:00.000,47.647292N 0.557584E 162m,Off,10,Time OK,Free running,15900,8286,90,0,
1570435800,2019-10-07 08:10:00.000,47.647292N 0.557584E 162m,Off,10,Time OK,Free running,30100,8286,90,0,
1570436100,2019-10-07 08:15:00.000,47.647292N 0.557584E 162m,Off,10,Time OK,Free running,46500,8286,90,0,
1570436400,2019-10-07 08:20:00.000,47.647292N 0.557584E 162m,Off,10,Time OK,Free running,1900,8276,90,0,
1570436700,2019-10-07 08:25:00.000,47.647292N 0.557584E 162m,Off,10,Time OK,Free running,12900,8276,90,0,
1570437000,2019-10-07 08:30:00.000,47.647292N 0.557584E 162m,Off,10,Time OK,Free running,26700,8276,90,0,
1570437300,2019-10-07 08:35:00.000,47.647292N 0.557584E 162m,Off,10,Time OK,Free running,43000,8276,90,0,
1570437600,2019-10-07 08:40:00.000,47.647292N 0.557584E 162m,GNSS locked,10,Time OK,Fine lock,400,8284,100,-312,
1570437900,2019-10-07 08:45:00.000,47.647292N 0.557584E 162m,Off,10,Time OK,Free running,8900,8287,90,0,
1570438200,2019-10-07 08:50:00.000,47.647292N 0.557584E 162m,Off,10,Time OK,Free running,21700,8287,90,0,
1570438500,2019-10-07 08:55:00.000,47.647292N 0.557584E 162m,Off,10,Time OK,Free running,36900,8287,90,0,
