Time(longsecs),Time(UTC),Sensor SOH Voltage A 1(uV),Sensor SOH Voltage A 2(uV),Sensor SOH Voltage A 3(uV),External SOH Voltage 1(uV),External SOH Voltage 2(uV),External SOH Voltage 3(uV),
1572202800,2019-10-27 19:00:00.000,,,,466032,466069,466177,
1572202800,2019-10-27 19:00:00.000,-1890562,,,,,,
1572204600,2019-10-27 19:30:00.000,,,,466030,466064,466188,
1572203100,2019-10-27 19:05:00.000,-1888687,,,,,,
1572203400,2019-10-27 19:10:00.000,-1888770,,,,,,
1572203700,2019-10-27 19:15:00.000,-1890705,,,,,,
1572204000,2019-10-27 19:20:00.000,-1890545,,,,,,
1572204300,2019-10-27 19:25:00.000,-1890708,,,,,,
1572204600,2019-10-27 19:30:00.000,-1890610,,,,,,
1572204900,2019-10-27 19:35:00.000,-1888696,,,,,,
1572205200,2019-10-27 19:40:00.000,-1890669,,,,,,
1572205500,2019-10-27 19:45:00.000,-1888813,,,,,,
1572205800,2019-10-27 19:50:00.000,-1890679,,,,,,
1572206100,2019-10-27 19:55:00.000,-1890512,,,,,,
