Time(longsecs),Time(UTC),Earth location,GNSS receiver status,GNSS satellites used,Timing status,Phase lock loop status,Time uncertainty(ns),Timing DAC count,Time quality(&#37;),Time error(ns),
1569924000,2019-10-01 10:00:00.000,47.647174N 0.557455E 162m,Off,10,Time OK,Free running,22900,8299,90,0,
1569924300,2019-10-01 10:05:00.000,47.647174N 0.557455E 162m,Off,10,Time OK,Free running,39300,8299,90,0,
1569924600,2019-10-01 10:10:00.000,47.647174N 0.557455E 162m,GNSS locked,10,Time OK,Coarse lock,200,8316,90,-104,
1569924900,2019-10-01 10:15:00.000,47.647174N 0.557455E 162m,Off,10,Time OK,Free running,8000,8309,90,0,
1569925200,2019-10-01 10:20:00.000,47.647174N 0.557455E 162m,Off,10,Time OK,Free running,21300,8309,90,0,
1569925500,2019-10-01 10:25:00.000,47.647174N 0.557455E 162m,Off,10,Time OK,Free running,40300,8309,90,0,
1569925800,2019-10-01 10:30:00.000,47.647174N 0.557455E 162m,Off,10,Time OK,Free running,300,8299,90,0,
1569926100,2019-10-01 10:35:00.000,47.647174N 0.557455E 162m,Off,10,Time OK,Free running,11300,8299,90,0,
1569926400,2019-10-01 10:40:00.000,47.647174N 0.557455E 162m,Off,10,Time OK,Free running,27600,8299,90,0,
1569926700,2019-10-01 10:45:00.000,47.647174N 0.557455E 162m,Off,10,Time OK,Free running,45900,8299,90,0,
1569927000,2019-10-01 10:50:00.000,47.647174N 0.557455E 162m,Off,10,Time OK,Free running,1800,8301,90,0,
1569927300,2019-10-01 10:55:00.000,47.647174N 0.557455E 162m,Off,10,Time OK,Free running,10900,8301,90,0,
