Time(longsecs),Time(UTC),Earth location,GNSS receiver status,GNSS satellites used,Timing status,Phase lock loop status,Time uncertainty(ns),Timing DAC count,Time quality(&#37;),Time error(ns),
1571428800,2019-10-18 20:00:00.000,47.647093N 0.557564E 131m,Off,9,Time OK,Free running,12800,8295,90,0,
1571429100,2019-10-18 20:05:00.000,47.647093N 0.557564E 131m,Off,9,Time OK,Free running,21900,8295,90,0,
1571429400,2019-10-18 20:10:00.000,47.647093N 0.557564E 131m,Off,9,Time OK,Free running,32200,8295,90,0,
1571429700,2019-10-18 20:15:00.000,47.647093N 0.557564E 131m,Off,9,Time OK,Free running,43600,8295,90,0,
1571430000,2019-10-18 20:20:00.000,47.647093N 0.557564E 131m,GNSS locked,7,Time OK,Coarse lock,200,8280,90,104,
1571430300,2019-10-18 20:25:00.000,47.647093N 0.557564E 131m,Off,8,Time OK,Free running,6500,8293,90,0,
1571430600,2019-10-18 20:30:00.000,47.647093N 0.557564E 131m,Off,8,Time OK,Free running,15100,8293,90,0,
1571430900,2019-10-18 20:35:00.000,47.647093N 0.557564E 131m,Off,8,Time OK,Free running,24500,8293,90,0,
1571431200,2019-10-18 20:40:00.000,47.647093N 0.557564E 131m,Off,8,Time OK,Free running,35000,8293,90,0,
1571431500,2019-10-18 20:45:00.000,47.647093N 0.557564E 131m,Off,8,Time OK,Free running,46400,8293,90,0,
1571431800,2019-10-18 20:50:00.000,47.647093N 0.557564E 131m,Off,9,Time OK,Free running,400,8285,90,0,
1571432100,2019-10-18 20:55:00.000,47.647093N 0.557564E 131m,Off,9,Time OK,Free running,8800,8285,90,0,
