Time(longsecs),Time(UTC),Supply voltage(V),Total current(A),Temperature(&deg;C),
1570881600,2019-10-12 12:00:00.000,1.3611239594999999E1,1.20646549217952E-1,3.425E1,
1570881900,2019-10-12 12:05:00.000,1.362470274E1,1.18466189894736E-1,3.4375E1,
1570882200,2019-10-12 12:10:00.000,1.3530460725E1,1.19192976335808E-1,3.4531E1,
1570882500,2019-10-12 12:15:00.000,1.359777645E1,1.50444793301904E-1,3.4687E1,
1570882800,2019-10-12 12:20:00.000,1.3611239594999999E1,1.1991976277688E-1,3.4875E1,
1570883100,2019-10-12 12:25:00.000,1.359777645E1,1.18466189894736E-1,3.5062E1,
1570883400,2019-10-12 12:30:00.000,1.3826649914999999E1,1.1628583057152E-1,3.525E1,
1570883700,2019-10-12 12:35:00.000,1.367855532E1,1.51171579742976E-1,3.5406E1,
1570884000,2019-10-12 12:40:00.000,1.3880502495E1,1.17012617012592E-1,3.5656E1,
1570884300,2019-10-12 12:45:00.000,1.3867039349999999E1,1.1628583057152E-1,3.5875E1,
1570884600,2019-10-12 12:50:00.000,1.410937596E1,1.14832257689376E-1,3.6093E1,
1570884900,2019-10-12 12:55:00.000,1.381318677E1,1.4899122041975998E-1,3.6281E1,
