Time(longsecs),Time(UTC),Sensor SOH Voltage A 1(uV),Sensor SOH Voltage A 2(uV),Sensor SOH Voltage A 3(uV),External SOH Voltage 1(uV),External SOH Voltage 2(uV),External SOH Voltage 3(uV),
1571443200,2019-10-19 00:00:00.000,,,,465990,466030,466124,
1571443200,2019-10-19 00:00:00.000,-1898586,,,,,,
1571445000,2019-10-19 00:30:00.000,,,,465974,466037,466136,
1571443500,2019-10-19 00:05:00.000,-1904290,,,,,,
1571443800,2019-10-19 00:10:00.000,-1898775,,,,,,
1571444100,2019-10-19 00:15:00.000,-1900263,,,,,,
1571444400,2019-10-19 00:20:00.000,-1898753,,,,,,
1571444700,2019-10-19 00:25:00.000,-1898562,,,,,,
1571445000,2019-10-19 00:30:00.000,-1898495,,,,,,
1571445300,2019-10-19 00:35:00.000,-1898292,,,,,,
1571445600,2019-10-19 00:40:00.000,-1900423,,,,,,
1571445900,2019-10-19 00:45:00.000,-1898646,,,,,,
1571446200,2019-10-19 00:50:00.000,-1900404,,,,,,
1571446500,2019-10-19 00:55:00.000,-1898598,,,,,,
