Time(longsecs),Time(UTC),Supply voltage(V),Total current(A),Temperature(&deg;C),
1570410000,2019-10-07 01:00:00.000,1.3207345244999999E1,1.21373335659024E-1,2.55E1,
1570410300,2019-10-07 01:05:00.000,1.3207345244999999E1,1.22826908541168E-1,2.5468E1,
1570410600,2019-10-07 01:10:00.000,1.3207345244999999E1,1.22826908541168E-1,2.5406E1,
1570410900,2019-10-07 01:15:00.000,1.3207345244999999E1,1.22826908541168E-1,2.5343E1,
1570411200,2019-10-07 01:20:00.000,1.31938821E1,1.53351939066192E-1,2.5343E1,
1570411500,2019-10-07 01:25:00.000,1.3207345244999999E1,1.22826908541168E-1,2.5375E1,
1570411800,2019-10-07 01:30:00.000,1.3207345244999999E1,1.21373335659024E-1,2.5343E1,
1570412100,2019-10-07 01:35:00.000,1.3207345244999999E1,1.20646549217952E-1,2.5281E1,
1570412400,2019-10-07 01:40:00.000,1.3207345244999999E1,1.21373335659024E-1,2.525E1,
1570412700,2019-10-07 01:45:00.000,1.3207345244999999E1,1.20646549217952E-1,2.5218E1,
1570413000,2019-10-07 01:50:00.000,1.31938821E1,1.54805511948336E-1,2.5187E1,
1570413300,2019-10-07 01:55:00.000,1.3207345244999999E1,1.20646549217952E-1,2.5187E1,
