Time(longsecs),Time(UTC),Supply voltage(V),Total current(A),Temperature(&deg;C),
1570899600,2019-10-12 17:00:00.000,1.3368902985E1,1.21373335659024E-1,3.7437E1,
1570899900,2019-10-12 17:05:00.000,1.3328513549999998E1,1.56985871271552E-1,3.725E1,
1570900200,2019-10-12 17:10:00.000,1.3328513549999998E1,1.2210012210009599E-1,3.7093E1,
1570900500,2019-10-12 17:15:00.000,1.3315050405E1,1.22826908541168E-1,3.6875E1,
1570900800,2019-10-12 17:20:00.000,1.330158726E1,1.22826908541168E-1,3.6687E1,
1570901100,2019-10-12 17:25:00.000,1.3288124114999999E1,1.55532298389408E-1,3.6437E1,
1570901400,2019-10-12 17:30:00.000,1.330158726E1,1.20646549217952E-1,3.6281E1,
1570901700,2019-10-12 17:35:00.000,1.3288124114999999E1,1.21373335659024E-1,3.6062E1,
1570902000,2019-10-12 17:40:00.000,1.3288124114999999E1,1.22826908541168E-1,3.5812E1,
1570902300,2019-10-12 17:45:00.000,1.3261197825E1,1.55532298389408E-1,3.5625E1,
1570902600,2019-10-12 17:50:00.000,1.327466097E1,1.21373335659024E-1,3.5406E1,
1570902900,2019-10-12 17:55:00.000,1.327466097E1,1.2355369498224E-1,3.5187E1,
