Time(longsecs),Time(UTC),Supply voltage(V),Total current(A),Temperature(&deg;C),
1570327200,2019-10-06 02:00:00.000,1.311310323E1,1.2210012210009599E-1,2.7937E1,
1570327500,2019-10-06 02:05:00.000,1.311310323E1,1.22826908541168E-1,2.7875E1,
1570327800,2019-10-06 02:10:00.000,1.311310323E1,1.2210012210009599E-1,2.7875E1,
1570328100,2019-10-06 02:15:00.000,1.3099640084999999E1,1.55532298389408E-1,2.7843E1,
1570328400,2019-10-06 02:20:00.000,1.311310323E1,1.22826908541168E-1,2.7875E1,
1570328700,2019-10-06 02:25:00.000,1.311310323E1,1.2210012210009599E-1,2.7875E1,
1570329000,2019-10-06 02:30:00.000,1.311310323E1,1.24280481423312E-1,2.7843E1,
1570329300,2019-10-06 02:35:00.000,1.3099640084999999E1,1.24280481423312E-1,2.7812E1,
1570329600,2019-10-06 02:40:00.000,1.3099640084999999E1,1.2210012210009599E-1,2.7812E1,
1570329900,2019-10-06 02:45:00.000,1.308617694E1,1.5843944415369599E-1,2.7812E1,
1570330200,2019-10-06 02:50:00.000,1.3099640084999999E1,1.22826908541168E-1,2.7843E1,
1570330500,2019-10-06 02:55:00.000,1.3099640084999999E1,1.2210012210009599E-1,2.7843E1,
