Time(longsecs),Time(UTC),Supply voltage(V),Total current(A),Temperature(&deg;C),
1570323600,2019-10-06 01:00:00.000,1.3153492665E1,1.21373335659024E-1,2.825E1,
1570323900,2019-10-06 01:05:00.000,1.3140029519999999E1,1.22826908541168E-1,2.8218E1,
1570324200,2019-10-06 01:10:00.000,1.3140029519999999E1,1.24280481423312E-1,2.8187E1,
1570324500,2019-10-06 01:15:00.000,1.3126566375E1,1.5625908483048E-1,2.8125E1,
1570324800,2019-10-06 01:20:00.000,1.3140029519999999E1,1.2210012210009599E-1,2.8125E1,
1570325100,2019-10-06 01:25:00.000,1.3140029519999999E1,1.2355369498224E-1,2.8093E1,
1570325400,2019-10-06 01:30:00.000,1.3126566375E1,1.22826908541168E-1,2.8062E1,
1570325700,2019-10-06 01:35:00.000,1.3126566375E1,1.24280481423312E-1,2.8E1,
1570326000,2019-10-06 01:40:00.000,1.3126566375E1,1.2210012210009599E-1,2.7968E1,
1570326300,2019-10-06 01:45:00.000,1.311310323E1,1.5843944415369599E-1,2.8E1,
1570326600,2019-10-06 01:50:00.000,1.3126566375E1,1.2210012210009599E-1,2.7968E1,
1570326900,2019-10-06 01:55:00.000,1.3126566375E1,1.22826908541168E-1,2.7937E1,
