Time(longsecs),Time(UTC),Supply voltage(V),Total current(A),Temperature(&deg;C),
1570521600,2019-10-08 08:00:00.000,1.31938821E1,1.22826908541168E-1,2.8781000000000002E1,
1570521900,2019-10-08 08:05:00.000,1.3180418954999999E1,1.21373335659024E-1,2.8843E1,
1570522200,2019-10-08 08:10:00.000,1.3180418954999999E1,1.22826908541168E-1,2.8875E1,
1570522500,2019-10-08 08:15:00.000,1.31938821E1,1.2210012210009599E-1,2.8906000000000002E1,
1570522800,2019-10-08 08:20:00.000,1.31938821E1,1.2210012210009599E-1,2.8906000000000002E1,
1570523100,2019-10-08 08:25:00.000,1.31938821E1,1.2210012210009599E-1,2.8968E1,
1570523400,2019-10-08 08:30:00.000,1.3207345244999999E1,1.21373335659024E-1,2.9E1,
1570523700,2019-10-08 08:35:00.000,1.3234271535E1,1.2355369498224E-1,2.9E1,
1570524000,2019-10-08 08:40:00.000,1.3234271535E1,1.22826908541168E-1,2.9E1,
1570524300,2019-10-08 08:45:00.000,1.3247734679999999E1,1.24280481423312E-1,2.9E1,
1570524600,2019-10-08 08:50:00.000,1.3220808389999998E1,1.54078725507264E-1,2.9E1,
1570524900,2019-10-08 08:55:00.000,1.3247734679999999E1,1.2210012210009599E-1,2.9031000000000002E1,
