Time(longsecs),Time(UTC),Earth location,GNSS receiver status,GNSS satellites used,Timing status,Phase lock loop status,Time uncertainty(ns),Timing DAC count,Time quality(&#37;),Time error(ns),
1569952800,2019-10-01 18:00:00.000,47.647174N 0.557455E 162m,GNSS unlocked,0,Time OK,Free running,51100,8301,90,0,
1569953100,2019-10-01 18:05:00.000,47.647174N 0.557455E 162m,Off,6,Time OK,Free running,5200,8310,90,0,
1569953400,2019-10-01 18:10:00.000,47.647174N 0.557455E 162m,Off,6,Time OK,Free running,16900,8310,90,0,
1569953700,2019-10-01 18:15:00.000,47.647174N 0.557455E 162m,Off,6,Time OK,Free running,32400,8310,90,0,
1569954000,2019-10-01 18:20:00.000,47.647174N 0.557455E 162m,GNSS unlocked,0,Time OK,Free running,51700,8310,90,0,
1569954300,2019-10-01 18:25:00.000,47.647174N 0.557455E 162m,Off,6,Time OK,Free running,4000,8300,90,0,
1569954600,2019-10-01 18:30:00.000,47.647174N 0.557455E 162m,Off,6,Time OK,Free running,15100,8300,90,0,
1569954900,2019-10-01 18:35:00.000,47.647174N 0.557455E 162m,Off,6,Time OK,Free running,29300,8300,90,0,
1569955200,2019-10-01 18:40:00.000,47.647174N 0.557455E 162m,Off,6,Time OK,Free running,46900,8300,90,0,
1569955500,2019-10-01 18:45:00.000,47.647174N 0.557455E 162m,Off,7,Time OK,Free running,1800,8310,90,0,
1569955800,2019-10-01 18:50:00.000,47.647174N 0.557455E 162m,Off,7,Time OK,Free running,11800,8310,90,0,
1569956100,2019-10-01 18:55:00.000,47.647174N 0.557455E 162m,Off,7,Time OK,Free running,24900,8310,90,0,
