Time(longsecs),Time(UTC),Sensor SOH Voltage A 1(uV),Sensor SOH Voltage A 2(uV),Sensor SOH Voltage A 3(uV),External SOH Voltage 1(uV),External SOH Voltage 2(uV),External SOH Voltage 3(uV),
1570971600,2019-10-13 13:00:00.000,,,,465702,465884,465801,
1570971600,2019-10-13 13:00:00.000,-1904221,,,,,,
1570973400,2019-10-13 13:30:00.000,,,,465720,465902,465803,
1570971900,2019-10-13 13:05:00.000,-1904505,,,,,,
1570972200,2019-10-13 13:10:00.000,-1908265,,,,,,
1570972500,2019-10-13 13:15:00.000,-1908122,,,,,,
1570972800,2019-10-13 13:20:00.000,-1908160,,,,,,
1570973100,2019-10-13 13:25:00.000,-1908060,,,,,,
1570973400,2019-10-13 13:30:00.000,-1907931,,,,,,
1570973700,2019-10-13 13:35:00.000,-1908105,,,,,,
1570974000,2019-10-13 13:40:00.000,-1904252,,,,,,
1570974300,2019-10-13 13:45:00.000,-1909512,,,,,,
1570974600,2019-10-13 13:50:00.000,-1908103,,,,,,
1570974900,2019-10-13 13:55:00.000,-1904013,,,,,,
