Time(longsecs),Time(UTC),Earth location,GNSS receiver status,GNSS satellites used,Timing status,Phase lock loop status,Time uncertainty(ns),Timing DAC count,Time quality(&#37;),Time error(ns),
1572210000,2019-10-27 21:00:00.000,47.647087N 0.557309E 151m,Off,9,Time OK,Free running,19100,8272,90,0,
1572210300,2019-10-27 21:05:00.000,47.647087N 0.557309E 151m,Off,9,Time OK,Free running,28000,8272,90,0,
1572210600,2019-10-27 21:10:00.000,47.647087N 0.557309E 151m,Off,9,Time OK,Free running,37300,8272,90,0,
1572210900,2019-10-27 21:15:00.000,47.647087N 0.557309E 151m,Off,9,Time OK,Free running,47500,8272,90,0,
1572211200,2019-10-27 21:20:00.000,47.647087N 0.557309E 151m,Off,9,Time OK,Free running,800,8273,90,0,
1572211500,2019-10-27 21:25:00.000,47.647087N 0.557309E 151m,Off,9,Time OK,Free running,9600,8273,90,0,
1572211800,2019-10-27 21:30:00.000,47.647087N 0.557309E 151m,Off,9,Time OK,Free running,18700,8273,90,0,
1572212100,2019-10-27 21:35:00.000,47.647087N 0.557309E 151m,Off,9,Time OK,Free running,28900,8273,90,0,
1572212400,2019-10-27 21:40:00.000,47.647087N 0.557309E 151m,Off,9,Time OK,Free running,40000,8273,90,0,
1572212700,2019-10-27 21:45:00.000,47.647087N 0.557309E 151m,GNSS unlocked,0,Time OK,Free running,51800,8273,90,0,
1572213000,2019-10-27 21:50:00.000,47.647087N 0.557309E 151m,Off,8,Time OK,Free running,4100,8271,90,0,
1572213300,2019-10-27 21:55:00.000,47.647087N 0.557309E 151m,Off,8,Time OK,Free running,12900,8271,90,0,
