Time(longsecs),Time(UTC),Supply voltage(V),Total current(A),Temperature(&deg;C),
1571252400,2019-10-16 19:00:00.000,1.3261197825E1,1.20646549217952E-1,2.7312E1,
1571252700,2019-10-16 19:05:00.000,1.3261197825E1,1.38816210244752E-1,2.725E1,
1571253000,2019-10-16 19:10:00.000,1.3261197825E1,1.22826908541168E-1,2.725E1,
1571253300,2019-10-16 19:15:00.000,1.3261197825E1,1.22826908541168E-1,2.7281E1,
1571253600,2019-10-16 19:20:00.000,1.3261197825E1,1.20646549217952E-1,2.7218E1,
1571253900,2019-10-16 19:25:00.000,1.3261197825E1,1.21373335659024E-1,2.7218E1,
1571254200,2019-10-16 19:30:00.000,1.3261197825E1,1.20646549217952E-1,2.7156E1,
1571254500,2019-10-16 19:35:00.000,1.3261197825E1,1.20646549217952E-1,2.7187E1,
1571254800,2019-10-16 19:40:00.000,1.3261197825E1,1.2355369498224E-1,2.7187E1,
1571255100,2019-10-16 19:45:00.000,1.3261197825E1,1.2210012210009599E-1,2.7218E1,
1571255400,2019-10-16 19:50:00.000,1.3261197825E1,1.20646549217952E-1,2.7218E1,
1571255700,2019-10-16 19:55:00.000,1.3261197825E1,1.21373335659024E-1,2.7218E1,
