Time(longsecs),Time(UTC),Earth location,GNSS receiver status,GNSS satellites used,Timing status,Phase lock loop status,Time uncertainty(ns),Timing DAC count,Time quality(&#37;),Time error(ns),
1570633200,2019-10-09 15:00:00.000,47.647095N 0.557514E 123m,Off,7,Time OK,Free running,4000,8306,90,0,
1570633500,2019-10-09 15:05:00.000,47.647095N 0.557514E 123m,Off,7,Time OK,Free running,14100,8306,90,0,
1570633800,2019-10-09 15:10:00.000,47.647095N 0.557514E 123m,Off,7,Time OK,Free running,26100,8306,90,0,
1570634100,2019-10-09 15:15:00.000,47.647095N 0.557514E 123m,Off,7,Time OK,Free running,39900,8306,90,0,
1570634400,2019-10-09 15:20:00.000,47.647095N 0.557514E 123m,GNSS locked,9,Time OK,Coarse lock,500,8281,90,416,
1570634700,2019-10-09 15:25:00.000,47.647095N 0.557514E 123m,Off,9,Time OK,Free running,4500,8303,90,0,
1570635000,2019-10-09 15:30:00.000,47.647095N 0.557514E 123m,Off,9,Time OK,Free running,13300,8303,90,0,
1570635300,2019-10-09 15:35:00.000,47.647095N 0.557514E 123m,Off,9,Time OK,Free running,23500,8303,90,0,
1570635600,2019-10-09 15:40:00.000,47.647095N 0.557514E 123m,Off,9,Time OK,Free running,35900,8303,90,0,
1570635900,2019-10-09 15:45:00.000,47.647095N 0.557514E 123m,GNSS unlocked,0,Time OK,Free running,50600,8303,90,0,
1570636200,2019-10-09 15:50:00.000,47.647095N 0.557514E 123m,Off,8,Time OK,Free running,3400,8295,90,0,
1570636500,2019-10-09 15:55:00.000,47.647095N 0.557514E 123m,Off,8,Time OK,Free running,13000,8295,90,0,
