Time(longsecs),Time(UTC),Supply voltage(V),Total current(A),Temperature(&deg;C),
1570816800,2019-10-11 18:00:00.000,1.3261197825E1,1.21373335659024E-1,3.2625E1,
1570817100,2019-10-11 18:05:00.000,1.3247734679999999E1,1.21373335659024E-1,3.2437E1,
1570817400,2019-10-11 18:10:00.000,1.3247734679999999E1,1.2210012210009599E-1,3.2218E1,
1570817700,2019-10-11 18:15:00.000,1.3261197825E1,1.21373335659024E-1,3.2031E1,
1570818000,2019-10-11 18:20:00.000,1.3247734679999999E1,1.2355369498224E-1,3.1875E1,
1570818300,2019-10-11 18:25:00.000,1.3247734679999999E1,1.2210012210009599E-1,3.1656000000000002E1,
1570818600,2019-10-11 18:30:00.000,1.3247734679999999E1,1.21373335659024E-1,3.1468E1,
1570818900,2019-10-11 18:35:00.000,1.3247734679999999E1,1.21373335659024E-1,3.1312E1,
1570819200,2019-10-11 18:40:00.000,1.3247734679999999E1,1.22826908541168E-1,3.1125E1,
1570819500,2019-10-11 18:45:00.000,1.3247734679999999E1,1.21373335659024E-1,3.0968E1,
1570819800,2019-10-11 18:50:00.000,1.3247734679999999E1,1.21373335659024E-1,3.075E1,
1570820100,2019-10-11 18:55:00.000,1.3234271535E1,1.55532298389408E-1,3.0593E1,
