Time(longsecs),Time(UTC),Supply voltage(V),Total current(A),Temperature(&deg;C),
1570626000,2019-10-09 13:00:00.000,1.3718944754999999E1,1.18466189894736E-1,3.4812E1,
1570626300,2019-10-09 13:05:00.000,1.349007129E1,1.1991976277688E-1,3.4843E1,
1570626600,2019-10-09 13:10:00.000,1.3449681855E1,1.1991976277688E-1,3.4781E1,
1570626900,2019-10-09 13:15:00.000,1.3826649914999999E1,1.17012617012592E-1,3.4812E1,
1570627200,2019-10-09 13:20:00.000,1.3476608145E1,1.50444793301904E-1,3.4843E1,
1570627500,2019-10-09 13:25:00.000,1.3799723624999999E1,1.17012617012592E-1,3.4843E1,
1570627800,2019-10-09 13:30:00.000,1.3826649914999999E1,1.1628583057152E-1,3.4843E1,
1570628100,2019-10-09 13:35:00.000,1.3772797335E1,1.17012617012592E-1,3.4875E1,
1570628400,2019-10-09 13:40:00.000,1.3503534434999999E1,1.20646549217952E-1,3.4937E1,
1570628700,2019-10-09 13:45:00.000,1.3449681855E1,1.20646549217952E-1,3.5E1,
1570629000,2019-10-09 13:50:00.000,1.3395829274999999E1,1.20646549217952E-1,3.5093E1,
1570629300,2019-10-09 13:55:00.000,1.3368902985E1,1.20646549217952E-1,3.5156E1,
