Time(longsecs),Time(UTC),Sensor SOH Voltage A 1(uV),Sensor SOH Voltage A 2(uV),Sensor SOH Voltage A 3(uV),External SOH Voltage 1(uV),External SOH Voltage 2(uV),External SOH Voltage 3(uV),
1572372000,2019-10-29 18:00:00.000,,,,466081,466097,466214,
1572372000,2019-10-29 18:00:00.000,-1881029,,,,,,
1572373800,2019-10-29 18:30:00.000,,,,466058,466076,466212,
1572372300,2019-10-29 18:05:00.000,-1883145,,,,,,
1572372600,2019-10-29 18:10:00.000,-1881315,,,,,,
1572372900,2019-10-29 18:15:00.000,-1883088,,,,,,
1572373200,2019-10-29 18:20:00.000,-1879206,,,,,,
1572373500,2019-10-29 18:25:00.000,-1881060,,,,,,
1572373800,2019-10-29 18:30:00.000,-1884514,,,,,,
1572374100,2019-10-29 18:35:00.000,-1879010,,,,,,
1572374400,2019-10-29 18:40:00.000,-1882517,,,,,,
1572374700,2019-10-29 18:45:00.000,-1881007,,,,,,
1572375000,2019-10-29 18:50:00.000,-1880250,,,,,,
1572375300,2019-10-29 18:55:00.000,-1880455,,,,,,
