Time(longsecs),Time(UTC),Earth location,GNSS receiver status,GNSS satellites used,Timing status,Phase lock loop status,Time uncertainty(ns),Timing DAC count,Time quality(&#37;),Time error(ns),
1570978800,2019-10-13 15:00:00.000,47.647078N 0.55746E 118m,Off,9,Time OK,Free running,3500,8312,90,0,
1570979100,2019-10-13 15:05:00.000,47.647078N 0.55746E 118m,Off,9,Time OK,Free running,13800,8312,90,0,
1570979400,2019-10-13 15:10:00.000,47.647078N 0.55746E 118m,Off,9,Time OK,Free running,26400,8312,90,0,
1570979700,2019-10-13 15:15:00.000,47.647078N 0.55746E 118m,Off,9,Time OK,Free running,41500,8312,90,0,
1570980000,2019-10-13 15:20:00.000,47.647078N 0.55746E 118m,GNSS locked,7,Time OK,Fine lock,400,8302,100,-104,
1570980300,2019-10-13 15:25:00.000,47.647078N 0.55746E 118m,Off,7,Time OK,Free running,7600,8312,90,0,
1570980600,2019-10-13 15:30:00.000,47.647078N 0.55746E 118m,Off,7,Time OK,Free running,18200,8312,90,0,
1570980900,2019-10-13 15:35:00.000,47.647078N 0.55746E 118m,Off,7,Time OK,Free running,31000,8312,90,0,
1570981200,2019-10-13 15:40:00.000,47.647078N 0.55746E 118m,Off,7,Time OK,Free running,46500,8312,90,0,
1570981500,2019-10-13 15:45:00.000,47.647078N 0.55746E 118m,Off,8,Time OK,Free running,1200,8312,90,0,
1570981800,2019-10-13 15:50:00.000,47.647078N 0.55746E 118m,Off,8,Time OK,Free running,10400,8312,90,0,
1570982100,2019-10-13 15:55:00.000,47.647078N 0.55746E 118m,Off,8,Time OK,Free running,21700,8312,90,0,
