Time(longsecs),Time(UTC),Sensor SOH Voltage A 1(uV),Sensor SOH Voltage A 2(uV),Sensor SOH Voltage A 3(uV),External SOH Voltage 1(uV),External SOH Voltage 2(uV),External SOH Voltage 3(uV),
1572156000,2019-10-27 06:00:00.000,,,,466021,466047,466173,
1572156000,2019-10-27 06:00:00.000,-1894764,,,,,,
1572157800,2019-10-27 06:30:00.000,,,,466030,466069,466181,
1572156300,2019-10-27 06:05:00.000,-1894726,,,,,,
1572156600,2019-10-27 06:10:00.000,-1894804,,,,,,
1572156900,2019-10-27 06:15:00.000,-1892602,,,,,,
1572157200,2019-10-27 06:20:00.000,-1898445,,,,,,
1572157500,2019-10-27 06:25:00.000,-1894728,,,,,,
1572157800,2019-10-27 06:30:00.000,-1898696,,,,,,
1572158100,2019-10-27 06:35:00.000,-1898471,,,,,,
1572158400,2019-10-27 06:40:00.000,-1894542,,,,,,
1572158700,2019-10-27 06:45:00.000,-1894807,,,,,,
1572159000,2019-10-27 06:50:00.000,-1894895,,,,,,
1572159300,2019-10-27 06:55:00.000,-1894704,,,,,,
