Time(longsecs),Time(UTC),Sensor SOH Voltage A 1(uV),Sensor SOH Voltage A 2(uV),Sensor SOH Voltage A 3(uV),External SOH Voltage 1(uV),External SOH Voltage 2(uV),External SOH Voltage 3(uV),
1570881600,2019-10-12 12:00:00.000,,,,465867,465981,465959,
1570881600,2019-10-12 12:00:00.000,-1900095,,,,,,
1570883400,2019-10-12 12:30:00.000,,,,465825,465939,465925,
1570881900,2019-10-12 12:05:00.000,-1900165,,,,,,
1570882200,2019-10-12 12:10:00.000,-1898208,,,,,,
1570882500,2019-10-12 12:15:00.000,-1898082,,,,,,
1570882800,2019-10-12 12:20:00.000,-1898182,,,,,,
1570883100,2019-10-12 12:25:00.000,-1898213,,,,,,
1570883400,2019-10-12 12:30:00.000,-1898323,,,,,,
1570883700,2019-10-12 12:35:00.000,-1899924,,,,,,
1570884000,2019-10-12 12:40:00.000,-1900251,,,,,,
1570884300,2019-10-12 12:45:00.000,-1899943,,,,,,
1570884600,2019-10-12 12:50:00.000,-1898137,,,,,,
1570884900,2019-10-12 12:55:00.000,-1894038,,,,,,
