Time(longsecs),Time(UTC),Earth location,GNSS receiver status,GNSS satellites used,Timing status,Phase lock loop status,Time uncertainty(ns),Timing DAC count,Time quality(&#37;),Time error(ns),
1570878000,2019-10-12 11:00:00.000,47.647203N 0.557496E 80m,Off,10,Time OK,Free running,18000,8292,90,0,
1570878300,2019-10-12 11:05:00.000,47.647203N 0.557496E 80m,Off,10,Time OK,Free running,32400,8292,90,0,
1570878600,2019-10-12 11:10:00.000,47.647203N 0.557496E 80m,Off,10,Time OK,Free running,49000,8292,90,0,
1570878900,2019-10-12 11:15:00.000,47.647203N 0.557496E 80m,Off,10,Time OK,Free running,2600,8302,90,0,
1570879200,2019-10-12 11:20:00.000,47.647203N 0.557496E 80m,Off,10,Time OK,Free running,14100,8302,90,0,
1570879500,2019-10-12 11:25:00.000,47.647203N 0.557496E 80m,Off,10,Time OK,Free running,28200,8302,90,0,
1570879800,2019-10-12 11:30:00.000,47.647203N 0.557496E 80m,Off,10,Time OK,Free running,44600,8302,90,0,
1570880100,2019-10-12 11:35:00.000,47.647203N 0.557496E 80m,Off,10,Time OK,Free running,300,8305,90,0,
1570880400,2019-10-12 11:40:00.000,47.647203N 0.557496E 80m,Off,10,Time OK,Free running,10400,8305,90,0,
1570880700,2019-10-12 11:45:00.000,47.647203N 0.557496E 80m,Off,10,Time OK,Free running,23800,8305,90,0,
1570881000,2019-10-12 11:50:00.000,47.647203N 0.557496E 80m,Off,10,Time OK,Free running,40700,8305,90,0,
1570881300,2019-10-12 11:55:00.000,47.647203N 0.557496E 80m,GNSS locked,10,Time OK,Fine lock,200,8307,100,104,
