Time(longsecs),Time(UTC),Sensor SOH Voltage A 1(uV),Sensor SOH Voltage A 2(uV),Sensor SOH Voltage A 3(uV),External SOH Voltage 1(uV),External SOH Voltage 2(uV),External SOH Voltage 3(uV),
1571684400,2019-10-21 19:00:00.000,,,,465954,466034,466100,
1571684400,2019-10-21 19:00:00.000,-1894520,,,,,,
1571686200,2019-10-21 19:30:00.000,,,,465952,466025,466106,
1571684700,2019-10-21 19:05:00.000,-1890667,,,,,,
1571685000,2019-10-21 19:10:00.000,-1893030,,,,,,
1571685300,2019-10-21 19:15:00.000,-1890581,,,,,,
1571685600,2019-10-21 19:20:00.000,-1890443,,,,,,
1571685900,2019-10-21 19:25:00.000,-1890464,,,,,,
1571686200,2019-10-21 19:30:00.000,-1890705,,,,,,
1571686500,2019-10-21 19:35:00.000,-1890631,,,,,,
1571686800,2019-10-21 19:40:00.000,-1890517,,,,,,
1571687100,2019-10-21 19:45:00.000,-1894867,,,,,,
1571687400,2019-10-21 19:50:00.000,-1892602,,,,,,
1571687700,2019-10-21 19:55:00.000,-1890629,,,,,,
