Time(longsecs),Time(UTC),Earth location,GNSS receiver status,GNSS satellites used,Timing status,Phase lock loop status,Time uncertainty(ns),Timing DAC count,Time quality(&#37;),Time error(ns),
1571184000,2019-10-16 00:00:00.000,47.647093N 0.557564E 131m,Off,9,Time OK,Free running,32700,8292,90,0,
1571184300,2019-10-16 00:05:00.000,47.647093N 0.557564E 131m,Off,9,Time OK,Free running,41700,8292,90,0,
1571184600,2019-10-16 00:10:00.000,47.647093N 0.557564E 131m,GNSS unlocked,0,Time OK,Free running,51300,8292,90,0,
1571184900,2019-10-16 00:15:00.000,47.647093N 0.557564E 131m,Off,9,Time OK,Free running,3500,8290,90,0,
1571185200,2019-10-16 00:20:00.000,47.647093N 0.557564E 131m,Off,9,Time OK,Free running,13300,8290,90,0,
1571185500,2019-10-16 00:25:00.000,47.647093N 0.557564E 131m,Off,9,Time OK,Free running,22900,8290,90,0,
1571185800,2019-10-16 00:30:00.000,47.647093N 0.557564E 131m,Off,9,Time OK,Free running,32200,8290,90,0,
1571186100,2019-10-16 00:35:00.000,47.647093N 0.557564E 131m,Off,9,Time OK,Free running,41400,8290,90,0,
1571186400,2019-10-16 00:40:00.000,47.647093N 0.557564E 131m,Off,9,Time OK,Free running,50200,8290,90,0,
1571186700,2019-10-16 00:45:00.000,47.647093N 0.557564E 131m,Off,8,Time OK,Free running,3100,8290,90,0,
1571187000,2019-10-16 00:50:00.000,47.647093N 0.557564E 131m,Off,8,Time OK,Free running,19700,8290,90,0,
1571187300,2019-10-16 00:55:00.000,47.647093N 0.557564E 131m,Off,8,Time OK,Free running,48400,8290,90,0,
