Time(longsecs),Time(UTC),Earth location,GNSS receiver status,GNSS satellites used,Timing status,Phase lock loop status,Time uncertainty(ns),Timing DAC count,Time quality(&#37;),Time error(ns),
1570996800,2019-10-13 20:00:00.000,47.647078N 0.55746E 118m,Off,10,Time OK,Free running,700,8306,90,0,
1570997100,2019-10-13 20:05:00.000,47.647078N 0.55746E 118m,Off,10,Time OK,Free running,9500,8306,90,0,
1570997400,2019-10-13 20:10:00.000,47.647078N 0.55746E 118m,Off,10,Time OK,Free running,18500,8306,90,0,
1570997700,2019-10-13 20:15:00.000,47.647078N 0.55746E 118m,Off,10,Time OK,Free running,29100,8306,90,0,
1570998000,2019-10-13 20:20:00.000,47.647078N 0.55746E 118m,Off,10,Time OK,Free running,41200,8306,90,0,
1570998300,2019-10-13 20:25:00.000,47.647078N 0.55746E 118m,GNSS locked,9,Time OK,Coarse lock,400,8300,90,312,
1570998600,2019-10-13 20:30:00.000,47.647078N 0.55746E 118m,Off,10,Time OK,Free running,5800,8308,90,0,
1570998900,2019-10-13 20:35:00.000,47.647078N 0.55746E 118m,Off,10,Time OK,Free running,14800,8308,90,0,
1570999200,2019-10-13 20:40:00.000,47.647078N 0.55746E 118m,Off,10,Time OK,Free running,25000,8308,90,0,
1570999500,2019-10-13 20:45:00.000,47.647078N 0.55746E 118m,Off,10,Time OK,Free running,36800,8308,90,0,
1570999800,2019-10-13 20:50:00.000,47.647078N 0.55746E 118m,Off,10,Time OK,Free running,50100,8308,90,0,
1571000100,2019-10-13 20:55:00.000,47.647078N 0.55746E 118m,Off,8,Time OK,Free running,3200,8303,90,0,
