Time(longsecs),Time(UTC),Earth location,GNSS receiver status,GNSS satellites used,Timing status,Phase lock loop status,Time uncertainty(ns),Timing DAC count,Time quality(&#37;),Time error(ns),
1570514400,2019-10-08 06:00:00.000,47.647292N 0.557584E 162m,GNSS unlocked,0,Time OK,Free running,51500,8297,90,0,
1570514700,2019-10-08 06:05:00.000,47.647292N 0.557584E 162m,Off,8,Time OK,Free running,3500,8295,90,0,
1570515000,2019-10-08 06:10:00.000,47.647292N 0.557584E 162m,Off,8,Time OK,Free running,12700,8295,90,0,
1570515300,2019-10-08 06:15:00.000,47.647292N 0.557584E 162m,Off,8,Time OK,Free running,22000,8295,90,0,
1570515600,2019-10-08 06:20:00.000,47.647292N 0.557584E 162m,Off,8,Time OK,Free running,31300,8295,90,0,
1570515900,2019-10-08 06:25:00.000,47.647292N 0.557584E 162m,Off,8,Time OK,Free running,40400,8295,90,0,
1570516200,2019-10-08 06:30:00.000,47.647292N 0.557584E 162m,Off,8,Time OK,Free running,49700,8295,90,0,
1570516500,2019-10-08 06:35:00.000,47.647292N 0.557584E 162m,Off,8,Time OK,Free running,2600,8284,90,0,
1570516800,2019-10-08 06:40:00.000,47.647292N 0.557584E 162m,Off,8,Time OK,Free running,11700,8284,90,0,
1570517100,2019-10-08 06:45:00.000,47.647292N 0.557584E 162m,Off,8,Time OK,Free running,21600,8284,90,0,
1570517400,2019-10-08 06:50:00.000,47.647292N 0.557584E 162m,Off,8,Time OK,Free running,31300,8284,90,0,
1570517700,2019-10-08 06:55:00.000,47.647292N 0.557584E 162m,Off,8,Time OK,Free running,40900,8284,90,0,
