Time(longsecs),Time(UTC),Earth location,GNSS receiver status,GNSS satellites used,Timing status,Phase lock loop status,Time uncertainty(ns),Timing DAC count,Time quality(&#37;),Time error(ns),
1572296400,2019-10-28 21:00:00.000,47.647087N 0.557309E 151m,Off,9,Time OK,Free running,15800,8278,90,0,
1572296700,2019-10-28 21:05:00.000,47.647087N 0.557309E 151m,Off,9,Time OK,Free running,25100,8278,90,0,
1572297000,2019-10-28 21:10:00.000,47.647087N 0.557309E 151m,Off,9,Time OK,Free running,35700,8278,90,0,
1572297300,2019-10-28 21:15:00.000,47.647087N 0.557309E 151m,Off,9,Time OK,Free running,47400,8278,90,0,
1572297600,2019-10-28 21:20:00.000,47.647087N 0.557309E 151m,Off,8,Time OK,Free running,1400,8283,90,0,
1572297900,2019-10-28 21:25:00.000,47.647087N 0.557309E 151m,Off,8,Time OK,Free running,10400,8283,90,0,
1572298200,2019-10-28 21:30:00.000,47.647087N 0.557309E 151m,Off,8,Time OK,Free running,19000,8283,90,0,
1572298500,2019-10-28 21:35:00.000,47.647087N 0.557309E 151m,Off,8,Time OK,Free running,28100,8283,90,0,
1572298800,2019-10-28 21:40:00.000,47.647087N 0.557309E 151m,Off,8,Time OK,Free running,38300,8283,90,0,
1572299100,2019-10-28 21:45:00.000,47.647087N 0.557309E 151m,Off,8,Time OK,Free running,49400,8283,90,0,
1572299400,2019-10-28 21:50:00.000,47.647087N 0.557309E 151m,Off,9,Time OK,Free running,2400,8280,90,0,
1572299700,2019-10-28 21:55:00.000,47.647087N 0.557309E 151m,Off,9,Time OK,Free running,10900,8280,90,0,
