Time(longsecs),Time(UTC),Earth location,GNSS receiver status,GNSS satellites used,Timing status,Phase lock loop status,Time uncertainty(ns),Timing DAC count,Time quality(&#37;),Time error(ns),
1572537600,2019-10-31 16:00:00.000,47.647087N 0.557309E 151m,Off,6,Time OK,Free running,16300,8275,90,0,
1572537900,2019-10-31 16:05:00.000,47.647087N 0.557309E 151m,Off,6,Time OK,Free running,25000,8275,90,0,
1572538200,2019-10-31 16:10:00.000,47.647087N 0.557309E 151m,Off,6,Time OK,Free running,33500,8275,90,0,
1572538500,2019-10-31 16:15:00.000,47.647087N 0.557309E 151m,Off,6,Time OK,Free running,42200,8275,90,0,
1572538800,2019-10-31 16:20:00.000,47.647087N 0.557309E 151m,GNSS unlocked,0,Time OK,Free running,51300,8275,90,0,
1572539100,2019-10-31 16:25:00.000,47.647087N 0.557309E 151m,Off,6,Time OK,Free running,4200,8273,90,0,
1572539400,2019-10-31 16:30:00.000,47.647087N 0.557309E 151m,Off,6,Time OK,Free running,13200,8273,90,0,
1572539700,2019-10-31 16:35:00.000,47.647087N 0.557309E 151m,Off,6,Time OK,Free running,22000,8273,90,0,
1572540000,2019-10-31 16:40:00.000,47.647087N 0.557309E 151m,Off,6,Time OK,Free running,30600,8273,90,0,
1572540300,2019-10-31 16:45:00.000,47.647087N 0.557309E 151m,Off,6,Time OK,Free running,39900,8273,90,0,
1572540600,2019-10-31 16:50:00.000,47.647087N 0.557309E 151m,Off,6,Time OK,Free running,50000,8273,90,0,
1572540900,2019-10-31 16:55:00.000,47.647087N 0.557309E 151m,Off,5,Time OK,Free running,2900,8263,90,0,
