Time(longsecs),Time(UTC),Earth location,GNSS receiver status,GNSS satellites used,Timing status,Phase lock loop status,Time uncertainty(ns),Timing DAC count,Time quality(&#37;),Time error(ns),
1569895200,2019-10-01 02:00:00.000,47.647174N 0.557455E 162m,GNSS locked,7,Time OK,Coarse lock,1500,8263,90,1458,
1569895500,2019-10-01 02:05:00.000,47.647174N 0.557455E 162m,Off,8,Time OK,Free running,5400,8304,90,0,
1569895800,2019-10-01 02:10:00.000,47.647174N 0.557455E 162m,Off,8,Time OK,Free running,15500,8304,90,0,
1569896100,2019-10-01 02:15:00.000,47.647174N 0.557455E 162m,Off,8,Time OK,Free running,25100,8304,90,0,
1569896400,2019-10-01 02:20:00.000,47.647174N 0.557455E 162m,Off,8,Time OK,Free running,34200,8304,90,0,
1569896700,2019-10-01 02:25:00.000,47.647174N 0.557455E 162m,Off,8,Time OK,Free running,42900,8304,90,0,
1569897000,2019-10-01 02:30:00.000,47.647174N 0.557455E 162m,GNSS locked,3,Time OK,Coarse lock,19200,7921,90,19166,
1569897300,2019-10-01 02:35:00.000,47.647174N 0.557455E 162m,Off,7,Time OK,Free running,4400,8302,90,0,
1569897600,2019-10-01 02:40:00.000,47.647174N 0.557455E 162m,Off,7,Time OK,Free running,13200,8302,90,0,
1569897900,2019-10-01 02:45:00.000,47.647174N 0.557455E 162m,Off,7,Time OK,Free running,22100,8302,90,0,
1569898200,2019-10-01 02:50:00.000,47.647174N 0.557455E 162m,Off,7,Time OK,Free running,30600,8302,90,0,
1569898500,2019-10-01 02:55:00.000,47.647174N 0.557455E 162m,Off,7,Time OK,Free running,39700,8302,90,0,
