Time(longsecs),Time(UTC),Sensor SOH Voltage A 1(uV),Sensor SOH Voltage A 2(uV),Sensor SOH Voltage A 3(uV),External SOH Voltage 1(uV),External SOH Voltage 2(uV),External SOH Voltage 3(uV),
1571090400,2019-10-14 22:00:00.000,,,,465910,466001,466031,
1571090400,2019-10-14 22:00:00.000,-1910255,,,,,,
1571092200,2019-10-14 22:30:00.000,,,,465913,466003,466035,
1571090700,2019-10-14 22:05:00.000,-1910386,,,,,,
1571091000,2019-10-14 22:10:00.000,-1912092,,,,,,
1571091300,2019-10-14 22:15:00.000,-1907983,,,,,,
1571091600,2019-10-14 22:20:00.000,-1910100,,,,,,
1571091900,2019-10-14 22:25:00.000,-1909865,,,,,,
1571092200,2019-10-14 22:30:00.000,-1911977,,,,,,
1571092500,2019-10-14 22:35:00.000,-1911905,,,,,,
1571092800,2019-10-14 22:40:00.000,-1909961,,,,,,
1571093100,2019-10-14 22:45:00.000,-1910018,,,,,,
1571093400,2019-10-14 22:50:00.000,-1911948,,,,,,
1571093700,2019-10-14 22:55:00.000,-1911920,,,,,,
