Time(longsecs),Time(UTC),Sensor SOH Voltage A 1(uV),Sensor SOH Voltage A 2(uV),Sensor SOH Voltage A 3(uV),External SOH Voltage 1(uV),External SOH Voltage 2(uV),External SOH Voltage 3(uV),
1571994000,2019-10-25 09:00:00.000,,,,466107,466112,466249,
1571994000,2019-10-25 09:00:00.000,-1892836,,,,,,
1571995800,2019-10-25 09:30:00.000,,,,466074,466080,466220,
1571994300,2019-10-25 09:05:00.000,-1888904,,,,,,
1571994600,2019-10-25 09:10:00.000,-1890755,,,,,,
1571994900,2019-10-25 09:15:00.000,-1889155,,,,,,
1571995200,2019-10-25 09:20:00.000,-1884891,,,,,,
1571995500,2019-10-25 09:25:00.000,-1890887,,,,,,
1571995800,2019-10-25 09:30:00.000,-1889052,,,,,,
1571996100,2019-10-25 09:35:00.000,-1890662,,,,,,
1571996400,2019-10-25 09:40:00.000,-1888673,,,,,,
1571996700,2019-10-25 09:45:00.000,-1888930,,,,,,
1571997000,2019-10-25 09:50:00.000,-1890739,,,,,,
1571997300,2019-10-25 09:55:00.000,-1888997,,,,,,
