Time(longsecs),Time(UTC),Earth location,GNSS receiver status,GNSS satellites used,Timing status,Phase lock loop status,Time uncertainty(ns),Timing DAC count,Time quality(&#37;),Time error(ns),
1571428800,2019-10-18 20:00:00.000,47.632201N 0.559658E 183m,Off,9,Time OK,Free running,15300,8557,90,0,
1571429100,2019-10-18 20:05:00.000,47.632201N 0.559658E 183m,Off,9,Time OK,Free running,25100,8557,90,0,
1571429400,2019-10-18 20:10:00.000,47.632201N 0.559658E 183m,Off,9,Time OK,Free running,36500,8557,90,0,
1571429700,2019-10-18 20:15:00.000,47.632201N 0.559658E 183m,Off,9,Time OK,Free running,49300,8557,90,0,
1571430000,2019-10-18 20:20:00.000,47.632201N 0.559658E 183m,Off,10,Time OK,Free running,3100,8555,90,0,
1571430300,2019-10-18 20:25:00.000,47.632201N 0.559658E 183m,Off,10,Time OK,Free running,11900,8555,90,0,
1571430600,2019-10-18 20:30:00.000,47.632201N 0.559658E 183m,Off,10,Time OK,Free running,21700,8555,90,0,
1571430900,2019-10-18 20:35:00.000,47.632201N 0.559658E 183m,Off,10,Time OK,Free running,32700,8555,90,0,
1571431200,2019-10-18 20:40:00.000,47.632201N 0.559658E 183m,Off,10,Time OK,Free running,45000,8555,90,0,
1571431500,2019-10-18 20:45:00.000,47.632201N 0.559658E 183m,Off,9,Time OK,Free running,300,8551,90,0,
1571431800,2019-10-18 20:50:00.000,47.632201N 0.559658E 183m,Off,9,Time OK,Free running,8800,8551,90,0,
1571432100,2019-10-18 20:55:00.000,47.632201N 0.559658E 183m,Off,9,Time OK,Free running,17800,8551,90,0,
