Time(longsecs),Time(UTC),Sensor SOH Voltage A 1(uV),Sensor SOH Voltage A 2(uV),Sensor SOH Voltage A 3(uV),External SOH Voltage 1(uV),External SOH Voltage 2(uV),External SOH Voltage 3(uV),
1571508000,2019-10-19 18:00:00.000,,,,465267,466179,464748,
1571508000,2019-10-19 18:00:00.000,36321,,,,,,
1571508300,2019-10-19 18:05:00.000,36383,,,,,,
1571509800,2019-10-19 18:30:00.000,,,,465304,466187,464748,
1571508600,2019-10-19 18:10:00.000,38318,,,,,,
1571508900,2019-10-19 18:15:00.000,38218,,,,,,
1571509200,2019-10-19 18:20:00.000,38375,,,,,,
1571509500,2019-10-19 18:25:00.000,38308,,,,,,
1571509800,2019-10-19 18:30:00.000,38523,,,,,,
1571510100,2019-10-19 18:35:00.000,36999,,,,,,
1571510400,2019-10-19 18:40:00.000,38607,,,,,,
1571510700,2019-10-19 18:45:00.000,38547,,,,,,
1571511000,2019-10-19 18:50:00.000,39589,,,,,,
1571511300,2019-10-19 18:55:00.000,38416,,,,,,
