Time(longsecs),Time(UTC),Earth location,GNSS receiver status,GNSS satellites used,Timing status,Phase lock loop status,Time uncertainty(ns),Timing DAC count,Time quality(&#37;),Time error(ns),
1571367600,2019-10-18 03:00:00.000,47.632201N 0.559658E 183m,Off,8,Time OK,Free running,44200,8553,90,0,
1571367900,2019-10-18 03:05:00.000,47.632201N 0.559658E 183m,GNSS locked,9,Time OK,Coarse lock,500,8546,90,416,
1571368200,2019-10-18 03:10:00.000,47.632201N 0.559658E 183m,Off,9,Time OK,Free running,6500,8551,90,0,
1571368500,2019-10-18 03:15:00.000,47.632201N 0.559658E 183m,Off,9,Time OK,Free running,15800,8551,90,0,
1571368800,2019-10-18 03:20:00.000,47.632201N 0.559658E 183m,Off,9,Time OK,Free running,24800,8551,90,0,
1571369100,2019-10-18 03:25:00.000,47.632201N 0.559658E 183m,Off,9,Time OK,Free running,33900,8551,90,0,
1571369400,2019-10-18 03:30:00.000,47.632201N 0.559658E 183m,Off,9,Time OK,Free running,42400,8551,90,0,
1571369700,2019-10-18 03:35:00.000,47.632201N 0.559658E 183m,GNSS unlocked,0,Time OK,Free running,51100,8551,90,0,
1571370000,2019-10-18 03:40:00.000,47.632201N 0.559658E 183m,Off,9,Time OK,Free running,4000,8545,90,0,
1571370300,2019-10-18 03:45:00.000,47.632201N 0.559658E 183m,Off,9,Time OK,Free running,12400,8545,90,0,
1571370600,2019-10-18 03:50:00.000,47.632201N 0.559658E 183m,Off,9,Time OK,Free running,21100,8545,90,0,
1571370900,2019-10-18 03:55:00.000,47.632201N 0.559658E 183m,Off,9,Time OK,Free running,30100,8545,90,0,
