Time(longsecs),Time(UTC),Supply voltage(V),Total current(A),Temperature(&deg;C),
1571104800,2019-10-15 02:00:00.000,1.31938821E1,1.24280481423312E-1,2.8781000000000002E1,
1571105100,2019-10-15 02:05:00.000,1.3207345244999999E1,1.20646549217952E-1,2.875E1,
1571105400,2019-10-15 02:10:00.000,1.31938821E1,1.1991976277688E-1,2.8687E1,
1571105700,2019-10-15 02:15:00.000,1.31938821E1,1.19192976335808E-1,2.8687E1,
1571106000,2019-10-15 02:20:00.000,1.31938821E1,1.21373335659024E-1,2.8656000000000002E1,
1571106300,2019-10-15 02:25:00.000,1.31938821E1,1.21373335659024E-1,2.8593E1,
1571106600,2019-10-15 02:30:00.000,1.31938821E1,1.2355369498224E-1,2.8531000000000002E1,
1571106900,2019-10-15 02:35:00.000,1.31938821E1,1.20646549217952E-1,2.85E1,
1571107200,2019-10-15 02:40:00.000,1.31938821E1,1.33001918716176E-1,2.8437E1,
1571107500,2019-10-15 02:45:00.000,1.31938821E1,1.19192976335808E-1,2.85E1,
1571107800,2019-10-15 02:50:00.000,1.3180418954999999E1,1.21373335659024E-1,2.8468E1,
1571108100,2019-10-15 02:55:00.000,1.31938821E1,1.1991976277688E-1,2.8437E1,
