Time(longsecs),Time(UTC),Supply voltage(V),Total current(A),Temperature(&deg;C),
1572242400,2019-10-28 06:00:00.000,1.3220808389999998E1,1.2210012210009599E-1,2.1125E1,
1572242700,2019-10-28 06:05:00.000,1.3220808389999998E1,1.17739403453664E-1,2.1093E1,
1572243000,2019-10-28 06:10:00.000,1.3207345244999999E1,1.51171579742976E-1,2.1062E1,
1572243300,2019-10-28 06:15:00.000,1.3234271535E1,1.1991976277688E-1,2.1031E1,
1572243600,2019-10-28 06:20:00.000,1.3234271535E1,1.01023315309008E-1,2.0312E1,
1572243900,2019-10-28 06:25:00.000,1.3220808389999998E1,1.38816210244752E-1,1.9906E1,
1572244200,2019-10-28 06:30:00.000,1.3234271535E1,9.448223733936E-2,1.9625E1,
1572244500,2019-10-28 06:35:00.000,1.3247734679999999E1,9.5209023780432E-2,1.9375E1,
1572244800,2019-10-28 06:40:00.000,1.3247734679999999E1,9.448223733936E-2,1.9187E1,
1572245100,2019-10-28 06:45:00.000,1.3234271535E1,1.25734054305456E-1,1.9062E1,
1572245400,2019-10-28 06:50:00.000,1.3247734679999999E1,9.448223733936E-2,1.8968E1,
1572245700,2019-10-28 06:55:00.000,1.3247734679999999E1,9.448223733936E-2,1.8843E1,
