Time(longsecs),Time(UTC),Earth location,GNSS receiver status,GNSS satellites used,Timing status,Phase lock loop status,Time uncertainty(ns),Timing DAC count,Time quality(&#37;),Time error(ns),
1572210000,2019-10-27 21:00:00.000,47.632201N 0.559658E 183m,Off,10,Time OK,Free running,9600,8520,90,0,
1572210300,2019-10-27 21:05:00.000,47.632201N 0.559658E 183m,Off,10,Time OK,Free running,18400,8520,90,0,
1572210600,2019-10-27 21:10:00.000,47.632201N 0.559658E 183m,Off,10,Time OK,Free running,27800,8520,90,0,
1572210900,2019-10-27 21:15:00.000,47.632201N 0.559658E 183m,Off,10,Time OK,Free running,38200,8520,90,0,
1572211200,2019-10-27 21:20:00.000,47.632201N 0.559658E 183m,Off,10,Time OK,Free running,49500,8520,90,0,
1572211500,2019-10-27 21:25:00.000,47.632201N 0.559658E 183m,Off,8,Time OK,Free running,2700,8517,90,0,
1572211800,2019-10-27 21:30:00.000,47.632201N 0.559658E 183m,Off,8,Time OK,Free running,11600,8517,90,0,
1572212100,2019-10-27 21:35:00.000,47.632201N 0.559658E 183m,Off,8,Time OK,Free running,20200,8517,90,0,
1572212400,2019-10-27 21:40:00.000,47.632201N 0.559658E 183m,Off,8,Time OK,Free running,29200,8517,90,0,
1572212700,2019-10-27 21:45:00.000,47.632201N 0.559658E 183m,Off,8,Time OK,Free running,38700,8517,90,0,
1572213000,2019-10-27 21:50:00.000,47.632201N 0.559658E 183m,Off,8,Time OK,Free running,49000,8517,90,0,
1572213300,2019-10-27 21:55:00.000,47.632201N 0.559658E 183m,Off,10,Time OK,Free running,1800,8519,90,0,
