Time(longsecs),Time(UTC),Earth location,GNSS receiver status,GNSS satellites used,Timing status,Phase lock loop status,Time uncertainty(ns),Timing DAC count,Time quality(&#37;),Time error(ns),
1570928400,2019-10-13 01:00:00.000,47.632201N 0.559658E 183m,Off,9,Time OK,Free running,8000,8582,90,0,
1570928700,2019-10-13 01:05:00.000,47.632201N 0.559658E 183m,Off,9,Time OK,Free running,17900,8582,90,0,
1570929000,2019-10-13 01:10:00.000,47.632201N 0.559658E 183m,Off,9,Time OK,Free running,27700,8582,90,0,
1570929300,2019-10-13 01:15:00.000,47.632201N 0.559658E 183m,Off,9,Time OK,Free running,37400,8582,90,0,
1570929600,2019-10-13 01:20:00.000,47.632201N 0.559658E 183m,Off,9,Time OK,Free running,46600,8582,90,0,
1570929900,2019-10-13 01:25:00.000,47.632201N 0.559658E 183m,Off,9,Time OK,Free running,300,8576,90,0,
1570930200,2019-10-13 01:30:00.000,47.632201N 0.559658E 183m,Off,9,Time OK,Free running,9200,8576,90,0,
1570930500,2019-10-13 01:35:00.000,47.632201N 0.559658E 183m,Off,9,Time OK,Free running,18700,8576,90,0,
1570930800,2019-10-13 01:40:00.000,47.632201N 0.559658E 183m,Off,9,Time OK,Free running,27600,8576,90,0,
1570931100,2019-10-13 01:45:00.000,47.632201N 0.559658E 183m,Off,9,Time OK,Free running,36700,8576,90,0,
1570931400,2019-10-13 01:50:00.000,47.632201N 0.559658E 183m,Off,9,Time OK,Free running,45100,8576,90,0,
1570931700,2019-10-13 01:55:00.000,47.632201N 0.559658E 183m,GNSS locked,10,Time OK,Fine lock,200,8587,100,-104,
