Time(longsecs),Time(UTC),Supply voltage(V),Total current(A),Temperature(&deg;C),
1571662800,2019-10-21 13:00:00.000,1.3759334189999999E1,9.1575091575072E-2,2.7562E1,
1571663100,2019-10-21 13:05:00.000,1.3759334189999999E1,9.3028664457216E-2,2.7593E1,
1571663400,2019-10-21 13:10:00.000,1.3759334189999999E1,9.3028664457216E-2,2.7625E1,
1571663700,2019-10-21 13:15:00.000,1.3759334189999999E1,9.1575091575072E-2,2.7625E1,
1571664000,2019-10-21 13:20:00.000,1.3745871045E1,9.1575091575072E-2,2.7656E1,
1571664300,2019-10-21 13:25:00.000,1.3759334189999999E1,9.1575091575072E-2,2.7656E1,
1571664600,2019-10-21 13:30:00.000,1.3759334189999999E1,9.1575091575072E-2,2.7593E1,
1571664900,2019-10-21 13:35:00.000,1.3759334189999999E1,9.3028664457216E-2,2.7593E1,
1571665200,2019-10-21 13:40:00.000,1.3759334189999999E1,9.230187801614399E-2,2.7531E1,
1571665500,2019-10-21 13:45:00.000,1.3759334189999999E1,9.3028664457216E-2,2.7531E1,
1571665800,2019-10-21 13:50:00.000,1.3759334189999999E1,9.1575091575072E-2,2.7531E1,
1571666100,2019-10-21 13:55:00.000,1.3759334189999999E1,9.230187801614399E-2,2.75E1,
