Time(longsecs),Time(UTC),Earth location,GNSS receiver status,GNSS satellites used,Timing status,Phase lock loop status,Time uncertainty(ns),Timing DAC count,Time quality(&#37;),Time error(ns),
1572332400,2019-10-29 07:00:00.000,47.632201N 0.559658E 183m,Off,10,Time OK,Free running,2800,8510,90,0,
1572332700,2019-10-29 07:05:00.000,47.632201N 0.559658E 183m,Off,10,Time OK,Free running,11600,8510,90,0,
1572333000,2019-10-29 07:10:00.000,47.632201N 0.559658E 183m,Off,10,Time OK,Free running,21900,8510,90,0,
1572333300,2019-10-29 07:15:00.000,47.632201N 0.559658E 183m,Off,10,Time OK,Free running,33800,8510,90,0,
1572333600,2019-10-29 07:20:00.000,47.632201N 0.559658E 183m,Off,10,Time OK,Free running,47100,8510,90,0,
1572333900,2019-10-29 07:25:00.000,47.632201N 0.559658E 183m,GNSS locked,9,Time OK,Fine lock,300,8506,100,-208,
1572334200,2019-10-29 07:30:00.000,47.632201N 0.559658E 183m,Off,9,Time OK,Free running,7700,8509,90,0,
1572334500,2019-10-29 07:35:00.000,47.632201N 0.559658E 183m,Off,9,Time OK,Free running,16300,8509,90,0,
1572334800,2019-10-29 07:40:00.000,47.632201N 0.559658E 183m,Off,9,Time OK,Free running,25700,8509,90,0,
1572335100,2019-10-29 07:45:00.000,47.632201N 0.559658E 183m,Off,9,Time OK,Free running,35900,8509,90,0,
1572335400,2019-10-29 07:50:00.000,47.632201N 0.559658E 183m,Off,9,Time OK,Free running,46800,8509,90,0,
1572335700,2019-10-29 07:55:00.000,47.632201N 0.559658E 183m,GNSS locked,10,Time OK,Fine lock,200,8503,100,-104,
