Time(longsecs),Time(UTC),Earth location,GNSS receiver status,GNSS satellites used,Timing status,Phase lock loop status,Time uncertainty(ns),Timing DAC count,Time quality(&#37;),Time error(ns),
1571349600,2019-10-17 22:00:00.000,47.632201N 0.559658E 183m,GNSS locked,8,Time OK,Fine lock,300,8553,100,312,
1571349900,2019-10-17 22:05:00.000,47.632201N 0.559658E 183m,Off,9,Time OK,Free running,8400,8553,90,0,
1571350200,2019-10-17 22:10:00.000,47.632201N 0.559658E 183m,Off,9,Time OK,Free running,16900,8553,90,0,
1571350500,2019-10-17 22:15:00.000,47.632201N 0.559658E 183m,Off,9,Time OK,Free running,25600,8553,90,0,
1571350800,2019-10-17 22:20:00.000,47.632201N 0.559658E 183m,Off,9,Time OK,Free running,35100,8553,90,0,
1571351100,2019-10-17 22:25:00.000,47.632201N 0.559658E 183m,Off,9,Time OK,Free running,45100,8553,90,0,
1571351400,2019-10-17 22:30:00.000,47.632201N 0.559658E 183m,GNSS locked,10,Time OK,Fine lock,400,8552,100,312,
1571351700,2019-10-17 22:35:00.000,47.632201N 0.559658E 183m,Off,10,Time OK,Free running,8200,8552,90,0,
1571352000,2019-10-17 22:40:00.000,47.632201N 0.559658E 183m,Off,10,Time OK,Free running,16800,8552,90,0,
1571352300,2019-10-17 22:45:00.000,47.632201N 0.559658E 183m,Off,10,Time OK,Free running,25400,8552,90,0,
1571352600,2019-10-17 22:50:00.000,47.632201N 0.559658E 183m,Off,10,Time OK,Free running,34700,8552,90,0,
1571352900,2019-10-17 22:55:00.000,47.632201N 0.559658E 183m,Off,10,Time OK,Free running,44600,8552,90,0,
