Time(longsecs),Time(UTC),Supply voltage(V),Total current(A),Temperature(&deg;C),
1571893200,2019-10-24 05:00:00.000,1.3207345244999999E1,1.64980522123344E-1,2.3875E1,
1571893500,2019-10-24 05:05:00.000,1.3234271535E1,1.18466189894736E-1,2.3906E1,
1571893800,2019-10-24 05:10:00.000,1.3234271535E1,1.18466189894736E-1,2.3937E1,
1571894100,2019-10-24 05:15:00.000,1.3234271535E1,1.18466189894736E-1,2.3906E1,
1571894400,2019-10-24 05:20:00.000,1.3234271535E1,1.18466189894736E-1,2.3906E1,
1571894700,2019-10-24 05:25:00.000,1.3234271535E1,1.18466189894736E-1,2.3906E1,
1571895000,2019-10-24 05:30:00.000,1.3234271535E1,1.20646549217952E-1,2.3875E1,
1571895300,2019-10-24 05:35:00.000,1.3234271535E1,1.19192976335808E-1,2.3875E1,
1571895600,2019-10-24 05:40:00.000,1.3234271535E1,1.19192976335808E-1,2.3906E1,
1571895900,2019-10-24 05:45:00.000,1.3234271535E1,1.20646549217952E-1,2.3906E1,
1571896200,2019-10-24 05:50:00.000,1.3234271535E1,1.18466189894736E-1,2.3906E1,
1571896500,2019-10-24 05:55:00.000,1.3234271535E1,1.1991976277688E-1,2.3843E1,
