Time(longsecs),Time(UTC),Earth location,GNSS receiver status,GNSS satellites used,Timing status,Phase lock loop status,Time uncertainty(ns),Timing DAC count,Time quality(&#37;),Time error(ns),
1571252400,2019-10-16 19:00:00.000,47.632201N 0.559658E 183m,Off,8,Time OK,Free running,24000,8557,90,0,
1571252700,2019-10-16 19:05:00.000,47.632201N 0.559658E 183m,Off,8,Time OK,Free running,39900,8557,90,0,
1571253000,2019-10-16 19:10:00.000,47.632201N 0.559658E 183m,GNSS locked,9,Time OK,Coarse lock,300,8543,90,208,
1571253300,2019-10-16 19:15:00.000,47.632201N 0.559658E 183m,Off,9,Time OK,Free running,6000,8548,90,0,
1571253600,2019-10-16 19:20:00.000,47.632201N 0.559658E 183m,Off,9,Time OK,Free running,14600,8548,90,0,
1571253900,2019-10-16 19:25:00.000,47.632201N 0.559658E 183m,Off,9,Time OK,Free running,23300,8548,90,0,
1571254200,2019-10-16 19:30:00.000,47.632201N 0.559658E 183m,Off,9,Time OK,Free running,32700,8548,90,0,
1571254500,2019-10-16 19:35:00.000,47.632201N 0.559658E 183m,Off,9,Time OK,Free running,42800,8548,90,0,
1571254800,2019-10-16 19:40:00.000,47.632201N 0.559658E 183m,GNSS locked,9,Time OK,Coarse lock,800,8578,90,-729,
1571255100,2019-10-16 19:45:00.000,47.632201N 0.559658E 183m,Off,10,Time OK,Free running,6200,8547,90,0,
1571255400,2019-10-16 19:50:00.000,47.632201N 0.559658E 183m,Off,10,Time OK,Free running,14600,8547,90,0,
1571255700,2019-10-16 19:55:00.000,47.632201N 0.559658E 183m,Off,10,Time OK,Free running,23300,8547,90,0,
