Time(longsecs),Time(UTC),Sensor SOH Voltage A 1(uV),Sensor SOH Voltage A 2(uV),Sensor SOH Voltage A 3(uV),External SOH Voltage 1(uV),External SOH Voltage 2(uV),External SOH Voltage 3(uV),
1571061600,2019-10-14 14:00:00.000,,,,465114,465935,464562,
1571061600,2019-10-14 14:00:00.000,24504,,,,,,
1571063400,2019-10-14 14:30:00.000,,,,465107,465916,464543,
1571061900,2019-10-14 14:05:00.000,24320,,,,,,
1571062200,2019-10-14 14:10:00.000,24368,,,,,,
1571062500,2019-10-14 14:15:00.000,20534,,,,,,
1571062800,2019-10-14 14:20:00.000,24360,,,,,,
1571063100,2019-10-14 14:25:00.000,20448,,,,,,
1571063400,2019-10-14 14:30:00.000,24516,,,,,,
1571063700,2019-10-14 14:35:00.000,24468,,,,,,
1571064000,2019-10-14 14:40:00.000,20527,,,,,,
1571064300,2019-10-14 14:45:00.000,24329,,,,,,
1571064600,2019-10-14 14:50:00.000,24451,,,,,,
1571064900,2019-10-14 14:55:00.000,24614,,,,,,
