Time(longsecs),Time(UTC),Earth location,GNSS receiver status,GNSS satellites used,Timing status,Phase lock loop status,Time uncertainty(ns),Timing DAC count,Time quality(&#37;),Time error(ns),
1571468400,2019-10-19 07:00:00.000,47.632201N 0.559658E 183m,Off,10,Time OK,Free running,8200,8526,90,0,
1571468700,2019-10-19 07:05:00.000,47.632201N 0.559658E 183m,Off,10,Time OK,Free running,17900,8526,90,0,
1571469000,2019-10-19 07:10:00.000,47.632201N 0.559658E 183m,Off,10,Time OK,Free running,29000,8526,90,0,
1571469300,2019-10-19 07:15:00.000,47.632201N 0.559658E 183m,Off,10,Time OK,Free running,41400,8526,90,0,
1571469600,2019-10-19 07:20:00.000,47.632201N 0.559658E 183m,GNSS locked,10,Time OK,Coarse lock,400,8505,90,312,
1571469900,2019-10-19 07:25:00.000,47.632201N 0.559658E 183m,Off,9,Time OK,Free running,5700,8516,90,0,
1571470200,2019-10-19 07:30:00.000,47.632201N 0.559658E 183m,Off,9,Time OK,Free running,14500,8516,90,0,
1571470500,2019-10-19 07:35:00.000,47.632201N 0.559658E 183m,Off,9,Time OK,Free running,23900,8516,90,0,
1571470800,2019-10-19 07:40:00.000,47.632201N 0.559658E 183m,Off,9,Time OK,Free running,33300,8516,90,0,
1571471100,2019-10-19 07:45:00.000,47.632201N 0.559658E 183m,Off,9,Time OK,Free running,43200,8516,90,0,
1571471400,2019-10-19 07:50:00.000,47.632201N 0.559658E 183m,GNSS locked,9,Time OK,Coarse lock,500,8532,90,-416,
1571471700,2019-10-19 07:55:00.000,47.632201N 0.559658E 183m,Off,9,Time OK,Free running,6800,8518,90,0,
