Time(longsecs),Time(UTC),Sensor SOH Voltage A 1(uV),Sensor SOH Voltage A 2(uV),Sensor SOH Voltage A 3(uV),External SOH Voltage 1(uV),External SOH Voltage 2(uV),External SOH Voltage 3(uV),
1571407200,2019-10-18 14:00:00.000,,,,465172,466020,464617,
1571407200,2019-10-18 14:00:00.000,34448,,,,,,
1571407500,2019-10-18 14:05:00.000,38593,,,,,,
1571409000,2019-10-18 14:30:00.000,,,,465195,466050,464631,
1571407800,2019-10-18 14:10:00.000,36648,,,,,,
1571408100,2019-10-18 14:15:00.000,36464,,,,,,
1571408400,2019-10-18 14:20:00.000,34584,,,,,,
1571408700,2019-10-18 14:25:00.000,36672,,,,,,
1571409000,2019-10-18 14:30:00.000,34654,,,,,,
1571409300,2019-10-18 14:35:00.000,36259,,,,,,
1571409600,2019-10-18 14:40:00.000,36491,,,,,,
1571409900,2019-10-18 14:45:00.000,36471,,,,,,
1571410200,2019-10-18 14:50:00.000,36469,,,,,,
1571410500,2019-10-18 14:55:00.000,38557,,,,,,
