Time(longsecs),Time(UTC),Sensor SOH Voltage A 1(uV),Sensor SOH Voltage A 2(uV),Sensor SOH Voltage A 3(uV),External SOH Voltage 1(uV),External SOH Voltage 2(uV),External SOH Voltage 3(uV),
1571580000,2019-10-20 14:00:00.000,,,,465289,466167,464748,
1571580000,2019-10-20 14:00:00.000,40157,,,,,,
1571580300,2019-10-20 14:05:00.000,44065,,,,,,
1571581800,2019-10-20 14:30:00.000,,,,465296,466195,464714,
1571580600,2019-10-20 14:10:00.000,40442,,,,,,
1571580900,2019-10-20 14:15:00.000,44082,,,,,,
1571581200,2019-10-20 14:20:00.000,40191,,,,,,
1571581500,2019-10-20 14:25:00.000,40487,,,,,,
1571581800,2019-10-20 14:30:00.000,43998,,,,,,
1571582100,2019-10-20 14:35:00.000,40496,,,,,,
1571582400,2019-10-20 14:40:00.000,43951,,,,,,
1571582700,2019-10-20 14:45:00.000,40169,,,,,,
1571583000,2019-10-20 14:50:00.000,40425,,,,,,
1571583300,2019-10-20 14:55:00.000,40384,,,,,,
