Time(longsecs),Time(UTC),Supply voltage(V),Total current(A),Temperature(&deg;C),
1570618800,2019-10-09 11:00:00.000,1.340929242E1,1.18466189894736E-1,3.3375E1,
1570619100,2019-10-09 11:05:00.000,1.3368902985E1,1.51171579742976E-1,3.3593E1,
1570619400,2019-10-09 11:10:00.000,1.3395829274999999E1,1.17739403453664E-1,3.3875E1,
1570619700,2019-10-09 11:15:00.000,1.340929242E1,1.18466189894736E-1,3.4062E1,
1570620000,2019-10-09 11:20:00.000,1.338236613E1,1.17739403453664E-1,3.425E1,
1570620300,2019-10-09 11:25:00.000,1.338236613E1,1.50444793301904E-1,3.4343E1,
1570620600,2019-10-09 11:30:00.000,1.3463144999999999E1,1.17739403453664E-1,3.4468E1,
1570620900,2019-10-09 11:35:00.000,1.3422755565E1,1.17739403453664E-1,3.45E1,
1570621200,2019-10-09 11:40:00.000,1.340929242E1,1.17739403453664E-1,3.45E1,
1570621500,2019-10-09 11:45:00.000,1.3449681855E1,1.17012617012592E-1,3.4531E1,
1570621800,2019-10-09 11:50:00.000,1.349007129E1,1.4899122041975998E-1,3.4531E1,
1570622100,2019-10-09 11:55:00.000,1.3799723624999999E1,1.15559044130448E-1,3.4593E1,
