Time(longsecs),Time(UTC),Supply voltage(V),Total current(A),Temperature(&deg;C),
1571295600,2019-10-17 07:00:00.000,1.3261197825E1,9.448223733936E-2,2.1656E1,
1571295900,2019-10-17 07:05:00.000,1.327466097E1,9.811616954472E-2,2.1625E1,
1571296200,2019-10-17 07:10:00.000,1.3261197825E1,9.448223733936E-2,2.1531E1,
1571296500,2019-10-17 07:15:00.000,1.3288124114999999E1,9.593581022150399E-2,2.15E1,
1571296800,2019-10-17 07:20:00.000,1.330158726E1,9.3755450898288E-2,2.1468E1,
1571297100,2019-10-17 07:25:00.000,1.3315050405E1,1.25007267864384E-1,2.1437E1,
1571297400,2019-10-17 07:30:00.000,1.3315050405E1,9.593581022150399E-2,2.15E1,
1571297700,2019-10-17 07:35:00.000,1.3328513549999998E1,9.448223733936E-2,2.15E1,
1571298000,2019-10-17 07:40:00.000,1.3315050405E1,9.3755450898288E-2,2.1531E1,
1571298300,2019-10-17 07:45:00.000,1.3315050405E1,9.3755450898288E-2,2.1562E1,
1571298600,2019-10-17 07:50:00.000,1.330158726E1,1.01023315309008E-1,2.1593E1,
1571298900,2019-10-17 07:55:00.000,1.330158726E1,9.448223733936E-2,2.1656E1,
