Time(longsecs),Time(UTC),Sensor SOH Voltage A 1(uV),Sensor SOH Voltage A 2(uV),Sensor SOH Voltage A 3(uV),External SOH Voltage 1(uV),External SOH Voltage 2(uV),External SOH Voltage 3(uV),
1572512400,2019-10-31 09:00:00.000,,,,465377,466329,464854,
1572512400,2019-10-31 09:00:00.000,53754,,,,,,
1572512700,2019-10-31 09:05:00.000,53654,,,,,,
1572514200,2019-10-31 09:30:00.000,,,,465360,466323,464861,
1572513000,2019-10-31 09:10:00.000,53618,,,,,,
1572513300,2019-10-31 09:15:00.000,53780,,,,,,
1572513600,2019-10-31 09:20:00.000,53725,,,,,,
1572513900,2019-10-31 09:25:00.000,55682,,,,,,
1572514200,2019-10-31 09:30:00.000,53866,,,,,,
1572514500,2019-10-31 09:35:00.000,55751,,,,,,
1572514800,2019-10-31 09:40:00.000,53728,,,,,,
1572515100,2019-10-31 09:45:00.000,59544,,,,,,
1572515400,2019-10-31 09:50:00.000,55550,,,,,,
1572515700,2019-10-31 09:55:00.000,54041,,,,,,
