Time(longsecs),Time(UTC),Supply voltage(V),Total current(A),Temperature(&deg;C),
1571554800,2019-10-20 07:00:00.000,1.3261197825E1,9.448223733936E-2,2.2312E1,
1571555100,2019-10-20 07:05:00.000,1.3234271535E1,1.26460840746528E-1,2.2218E1,
1571555400,2019-10-20 07:10:00.000,1.3261197825E1,9.6662596662576E-2,2.2218E1,
1571555700,2019-10-20 07:15:00.000,1.3261197825E1,9.5209023780432E-2,2.2187E1,
1571556000,2019-10-20 07:20:00.000,1.3247734679999999E1,9.7389383103648E-2,2.2125E1,
1571556300,2019-10-20 07:25:00.000,1.3261197825E1,9.5209023780432E-2,2.2093E1,
1571556600,2019-10-20 07:30:00.000,1.3261197825E1,9.7389383103648E-2,2.2062E1,
1571556900,2019-10-20 07:35:00.000,1.3247734679999999E1,1.27914413628672E-1,2.2031E1,
1571557200,2019-10-20 07:40:00.000,1.3261197825E1,9.593581022150399E-2,2.2031E1,
1571557500,2019-10-20 07:45:00.000,1.327466097E1,9.448223733936E-2,2.2031E1,
1571557800,2019-10-20 07:50:00.000,1.327466097E1,9.5209023780432E-2,2.2E1,
1571558100,2019-10-20 07:55:00.000,1.327466097E1,9.6662596662576E-2,2.2E1,
