Time(longsecs),Time(UTC),Sensor SOH Voltage A 1(uV),Sensor SOH Voltage A 2(uV),Sensor SOH Voltage A 3(uV),External SOH Voltage 1(uV),External SOH Voltage 2(uV),External SOH Voltage 3(uV),
1572224400,2019-10-28 01:00:00.000,,,,465358,466293,464849,
1572224400,2019-10-28 01:00:00.000,47746,,,,,,
1572224700,2019-10-28 01:05:00.000,47753,,,,,,
1572226200,2019-10-28 01:30:00.000,,,,465350,466299,464858,
1572225000,2019-10-28 01:10:00.000,47961,,,,,,
1572225300,2019-10-28 01:15:00.000,45955,,,,,,
1572225600,2019-10-28 01:20:00.000,49278,,,,,,
1572225900,2019-10-28 01:25:00.000,50109,,,,,,
1572226200,2019-10-28 01:30:00.000,48004,,,,,,
1572226500,2019-10-28 01:35:00.000,47295,,,,,,
1572226800,2019-10-28 01:40:00.000,47653,,,,,,
1572227100,2019-10-28 01:45:00.000,48757,,,,,,
1572227400,2019-10-28 01:50:00.000,47696,,,,,,
1572227700,2019-10-28 01:55:00.000,48609,,,,,,
