Time(longsecs),Time(UTC),Sensor SOH Voltage A 1(uV),Sensor SOH Voltage A 2(uV),Sensor SOH Voltage A 3(uV),External SOH Voltage 1(uV),External SOH Voltage 2(uV),External SOH Voltage 3(uV),
1571076000,2019-10-14 18:00:00.000,,,,465218,466074,464652,
1571076000,2019-10-14 18:00:00.000,20424,,,,,,
1571077800,2019-10-14 18:30:00.000,,,,465218,466090,464690,
1571076300,2019-10-14 18:05:00.000,18541,,,,,,
1571076600,2019-10-14 18:10:00.000,24277,,,,,,
1571076900,2019-10-14 18:15:00.000,24451,,,,,,
1571077200,2019-10-14 18:20:00.000,20498,,,,,,
1571077500,2019-10-14 18:25:00.000,24458,,,,,,
1571077800,2019-10-14 18:30:00.000,20546,,,,,,
1571078100,2019-10-14 18:35:00.000,20718,,,,,,
1571078400,2019-10-14 18:40:00.000,19994,,,,,,
1571078700,2019-10-14 18:45:00.000,19769,,,,,,
1571079000,2019-10-14 18:50:00.000,20536,,,,,,
1571079300,2019-10-14 18:55:00.000,19755,,,,,,
