Time(longsecs),Time(UTC),Supply voltage(V),Total current(A),Temperature(&deg;C),
1572350400,2019-10-29 12:00:00.000,1.351699758E1,9.3755450898288E-2,2.2343E1,
1572350700,2019-10-29 12:05:00.000,1.3543923869999999E1,9.5209023780432E-2,2.2406E1,
1572351000,2019-10-29 12:10:00.000,1.3557387015E1,9.3028664457216E-2,2.2437E1,
1572351300,2019-10-29 12:15:00.000,1.3570850159999999E1,9.3028664457216E-2,2.2468E1,
1572351600,2019-10-29 12:20:00.000,1.359777645E1,9.1575091575072E-2,2.2406E1,
1572351900,2019-10-29 12:25:00.000,1.3638165885E1,9.230187801614399E-2,2.2468E1,
1572352200,2019-10-29 12:30:00.000,1.3718944754999999E1,1.271876271876E-1,2.2468E1,
1572352500,2019-10-29 12:35:00.000,1.40016708E1,9.1575091575072E-2,2.25E1,
1572352800,2019-10-29 12:40:00.000,1.4095912814999998E1,9.3028664457216E-2,2.2531E1,
1572353100,2019-10-29 12:45:00.000,1.3867039349999999E1,9.230187801614399E-2,2.2531E1,
1572353400,2019-10-29 12:50:00.000,1.3772797335E1,9.3028664457216E-2,2.2531E1,
1572353700,2019-10-29 12:55:00.000,1.3745871045E1,9.0848305134E-2,2.2531E1,
