Time(longsecs),Time(UTC),Supply voltage(V),Total current(A),Temperature(&deg;C),
1572321600,2019-10-29 04:00:00.000,1.3234271535E1,1.18466189894736E-1,2.1781E1,
1572321900,2019-10-29 04:05:00.000,1.3234271535E1,1.19192976335808E-1,2.175E1,
1572322200,2019-10-29 04:10:00.000,1.3234271535E1,1.18466189894736E-1,2.1718E1,
1572322500,2019-10-29 04:15:00.000,1.3234271535E1,1.17739403453664E-1,2.1687E1,
1572322800,2019-10-29 04:20:00.000,1.3234271535E1,1.17739403453664E-1,2.1656E1,
1572323100,2019-10-29 04:25:00.000,1.3234271535E1,1.18466189894736E-1,2.1656E1,
1572323400,2019-10-29 04:30:00.000,1.3234271535E1,1.18466189894736E-1,2.1656E1,
1572323700,2019-10-29 04:35:00.000,1.3234271535E1,1.22826908541168E-1,2.1625E1,
1572324000,2019-10-29 04:40:00.000,1.3234271535E1,1.1991976277688E-1,2.1593E1,
1572324300,2019-10-29 04:45:00.000,1.3234271535E1,1.18466189894736E-1,2.1562E1,
1572324600,2019-10-29 04:50:00.000,1.3207345244999999E1,1.66434095005488E-1,2.15E1,
1572324900,2019-10-29 04:55:00.000,1.3234271535E1,1.18466189894736E-1,2.1531E1,
