Time(longsecs),Time(UTC),Earth location,GNSS receiver status,GNSS satellites used,Timing status,Phase lock loop status,Time uncertainty(ns),Timing DAC count,Time quality(&#37;),Time error(ns),
1571241600,2019-10-16 16:00:00.000,47.632201N 0.559658E 183m,Off,10,Time OK,Free running,12300,8534,90,0,
1571241900,2019-10-16 16:05:00.000,47.632201N 0.559658E 183m,Off,10,Time OK,Free running,22200,8534,90,0,
1571242200,2019-10-16 16:10:00.000,47.632201N 0.559658E 183m,Off,10,Time OK,Free running,33600,8534,90,0,
1571242500,2019-10-16 16:15:00.000,47.632201N 0.559658E 183m,Off,10,Time OK,Free running,45600,8534,90,0,
1571242800,2019-10-16 16:20:00.000,47.632201N 0.559658E 183m,GNSS locked,9,Time OK,Fine lock,200,8543,100,-104,
1571243100,2019-10-16 16:25:00.000,47.632201N 0.559658E 183m,Off,9,Time OK,Free running,7000,8533,90,0,
1571243400,2019-10-16 16:30:00.000,47.632201N 0.559658E 183m,Off,9,Time OK,Free running,16000,8533,90,0,
1571243700,2019-10-16 16:35:00.000,47.632201N 0.559658E 183m,Off,9,Time OK,Free running,25300,8533,90,0,
1571244000,2019-10-16 16:40:00.000,47.632201N 0.559658E 183m,Off,9,Time OK,Free running,35600,8533,90,0,
1571244300,2019-10-16 16:45:00.000,47.632201N 0.559658E 183m,Off,9,Time OK,Free running,46700,8533,90,0,
1571244600,2019-10-16 16:50:00.000,47.632201N 0.559658E 183m,Off,7,Time OK,Free running,600,8537,90,0,
1571244900,2019-10-16 16:55:00.000,47.632201N 0.559658E 183m,Off,7,Time OK,Free running,9400,8537,90,0,
