Time(longsecs),Time(UTC),Sensor SOH Voltage A 1(uV),Sensor SOH Voltage A 2(uV),Sensor SOH Voltage A 3(uV),External SOH Voltage 1(uV),External SOH Voltage 2(uV),External SOH Voltage 3(uV),
1571886000,2019-10-24 03:00:00.000,,,,465335,466264,464816,
1571886000,2019-10-24 03:00:00.000,45974,,,,,,
1571886300,2019-10-24 03:05:00.000,45745,,,,,,
1571887800,2019-10-24 03:30:00.000,,,,465320,466260,464808,
1571886600,2019-10-24 03:10:00.000,45928,,,,,,
1571886900,2019-10-24 03:15:00.000,43814,,,,,,
1571887200,2019-10-24 03:20:00.000,43886,,,,,,
1571887500,2019-10-24 03:25:00.000,46155,,,,,,
1571887800,2019-10-24 03:30:00.000,45840,,,,,,
1571888100,2019-10-24 03:35:00.000,45745,,,,,,
1571888400,2019-10-24 03:40:00.000,45912,,,,,,
1571888700,2019-10-24 03:45:00.000,45797,,,,,,
1571889000,2019-10-24 03:50:00.000,47658,,,,,,
1571889300,2019-10-24 03:55:00.000,46227,,,,,,
