Time(longsecs),Time(UTC),Supply voltage(V),Total current(A),Temperature(&deg;C),
1572436800,2019-10-30 12:00:00.000,1.3503534434999999E1,1.25007267864384E-1,2.1875E1,
1572437100,2019-10-30 12:05:00.000,1.3530460725E1,9.230187801614399E-2,2.1968E1,
1572437400,2019-10-30 12:10:00.000,1.3557387015E1,9.3028664457216E-2,2.2031E1,
1572437700,2019-10-30 12:15:00.000,1.3557387015E1,9.230187801614399E-2,2.2125E1,
1572438000,2019-10-30 12:20:00.000,1.3543923869999999E1,9.230187801614399E-2,2.2125E1,
1572438300,2019-10-30 12:25:00.000,1.3530460725E1,1.2210012210009599E-1,2.2187E1,
1572438600,2019-10-30 12:30:00.000,1.3570850159999999E1,9.5209023780432E-2,2.2281E1,
1572438900,2019-10-30 12:35:00.000,1.3611239594999999E1,9.230187801614399E-2,2.2343E1,
1572439200,2019-10-30 12:40:00.000,1.370548161E1,9.1575091575072E-2,2.2375E1,
1572439500,2019-10-30 12:45:00.000,1.3826649914999999E1,9.0848305134E-2,2.2375E1,
1572439800,2019-10-30 12:50:00.000,1.4082449669999999E1,1.20646549217952E-1,2.2406E1,
1572440100,2019-10-30 12:55:00.000,1.4042060235E1,8.8667945810784E-2,2.25E1,
