Time(longsecs),Time(UTC),Earth location,GNSS receiver status,GNSS satellites used,Timing status,Phase lock loop status,Time uncertainty(ns),Timing DAC count,Time quality(&#37;),Time error(ns),
1571202000,2019-10-16 05:00:00.000,47.632201N 0.559658E 183m,Off,10,Time OK,Free running,36400,8539,90,0,
1571202300,2019-10-16 05:05:00.000,47.632201N 0.559658E 183m,Off,10,Time OK,Free running,45300,8539,90,0,
1571202600,2019-10-16 05:10:00.000,47.632201N 0.559658E 183m,GNSS locked,8,Time OK,Fine lock,200,8531,100,0,
1571202900,2019-10-16 05:15:00.000,47.632201N 0.559658E 183m,Off,8,Time OK,Free running,7000,8547,90,0,
1571203200,2019-10-16 05:20:00.000,47.632201N 0.559658E 183m,Off,8,Time OK,Free running,16200,8547,90,0,
1571203500,2019-10-16 05:25:00.000,47.632201N 0.559658E 183m,Off,8,Time OK,Free running,25700,8547,90,0,
1571203800,2019-10-16 05:30:00.000,47.632201N 0.559658E 183m,Off,8,Time OK,Free running,35100,8547,90,0,
1571204100,2019-10-16 05:35:00.000,47.632201N 0.559658E 183m,Off,8,Time OK,Free running,44300,8547,90,0,
1571204400,2019-10-16 05:40:00.000,47.632201N 0.559658E 183m,GNSS locked,9,Time OK,Coarse lock,400,8530,90,312,
1571204700,2019-10-16 05:45:00.000,47.632201N 0.559658E 183m,Off,10,Time OK,Free running,6200,8536,90,0,
1571205000,2019-10-16 05:50:00.000,47.632201N 0.559658E 183m,Off,10,Time OK,Free running,15600,8536,90,0,
1571205300,2019-10-16 05:55:00.000,47.632201N 0.559658E 183m,Off,10,Time OK,Free running,25100,8536,90,0,
