Time(longsecs),Time(UTC),Earth location,GNSS receiver status,GNSS satellites used,Timing status,Phase lock loop status,Time uncertainty(ns),Timing DAC count,Time quality(&#37;),Time error(ns),
1571842800,2019-10-23 15:00:00.000,47.632201N 0.559658E 183m,Off,10,Time OK,Free running,37200,8542,90,0,
1571843100,2019-10-23 15:05:00.000,47.632201N 0.559658E 183m,Off,10,Time OK,Free running,46200,8542,90,0,
1571843400,2019-10-23 15:10:00.000,47.632201N 0.559658E 183m,GNSS locked,10,Time OK,Fine lock,400,8538,100,-416,
1571843700,2019-10-23 15:15:00.000,47.632201N 0.559658E 183m,Off,10,Time OK,Free running,8500,8541,90,0,
1571844000,2019-10-23 15:20:00.000,47.632201N 0.559658E 183m,Off,10,Time OK,Free running,19800,8541,90,0,
1571844300,2019-10-23 15:25:00.000,47.632201N 0.559658E 183m,Off,10,Time OK,Free running,33100,8541,90,0,
1571844600,2019-10-23 15:30:00.000,47.632201N 0.559658E 183m,Off,10,Time OK,Free running,48500,8541,90,0,
1571844900,2019-10-23 15:35:00.000,47.632201N 0.559658E 183m,Off,8,Time OK,Free running,1700,8544,90,0,
1571845200,2019-10-23 15:40:00.000,47.632201N 0.559658E 183m,Off,8,Time OK,Free running,12000,8544,90,0,
1571845500,2019-10-23 15:45:00.000,47.632201N 0.559658E 183m,Off,8,Time OK,Free running,24700,8544,90,0,
1571845800,2019-10-23 15:50:00.000,47.632201N 0.559658E 183m,Off,8,Time OK,Free running,39500,8544,90,0,
1571846100,2019-10-23 15:55:00.000,47.632201N 0.559658E 183m,GNSS locked,6,Time OK,Coarse lock,300,8539,90,208,
