Time(longsecs),Time(UTC),Supply voltage(V),Total current(A),Temperature(&deg;C),
1570060800,2019-10-03 00:00:00.000,1.3207345244999999E1,1.19192976335808E-1,2.3187E1,
1570061100,2019-10-03 00:05:00.000,1.31938821E1,1.20646549217952E-1,2.3156E1,
1570061400,2019-10-03 00:10:00.000,1.31938821E1,1.18466189894736E-1,2.3093E1,
1570061700,2019-10-03 00:15:00.000,1.31938821E1,1.1991976277688E-1,2.3E1,
1570062000,2019-10-03 00:20:00.000,1.31938821E1,1.19192976335808E-1,2.2937E1,
1570062300,2019-10-03 00:25:00.000,1.31938821E1,1.19192976335808E-1,2.2875E1,
1570062600,2019-10-03 00:30:00.000,1.31938821E1,1.19192976335808E-1,2.2843E1,
1570062900,2019-10-03 00:35:00.000,1.31938821E1,1.19192976335808E-1,2.2781E1,
1570063200,2019-10-03 00:40:00.000,1.31938821E1,1.19192976335808E-1,2.2718E1,
1570063500,2019-10-03 00:45:00.000,1.31938821E1,1.1991976277688E-1,2.2625E1,
1570063800,2019-10-03 00:50:00.000,1.31938821E1,1.1991976277688E-1,2.2625E1,
1570064100,2019-10-03 00:55:00.000,1.31938821E1,1.19192976335808E-1,2.2593E1,
