Time(longsecs),Time(UTC),Sensor SOH Voltage A 1(uV),Sensor SOH Voltage A 2(uV),Sensor SOH Voltage A 3(uV),External SOH Voltage 1(uV),External SOH Voltage 2(uV),External SOH Voltage 3(uV),
1571115600,2019-10-15 05:00:00.000,,,,465290,466200,464756,
1571115600,2019-10-15 05:00:00.000,26787,,,,,,
1571117400,2019-10-15 05:30:00.000,,,,465280,466199,464758,
1571115900,2019-10-15 05:05:00.000,26415,,,,,,
1571116200,2019-10-15 05:10:00.000,26537,,,,,,
1571116500,2019-10-15 05:15:00.000,26529,,,,,,
1571116800,2019-10-15 05:20:00.000,24222,,,,,,
1571117100,2019-10-15 05:25:00.000,28343,,,,,,
1571117400,2019-10-15 05:30:00.000,65547,,,,,,
1571117700,2019-10-15 05:35:00.000,28565,,,,,,
1571118000,2019-10-15 05:40:00.000,24559,,,,,,
1571118300,2019-10-15 05:45:00.000,28548,,,,,,
1571118600,2019-10-15 05:50:00.000,26654,,,,,,
1571118900,2019-10-15 05:55:00.000,26374,,,,,,
