Time(longsecs),Time(UTC),Earth location,GNSS receiver status,GNSS satellites used,Timing status,Phase lock loop status,Time uncertainty(ns),Timing DAC count,Time quality(&#37;),Time error(ns),
1571738400,2019-10-22 10:00:00.000,47.632201N 0.559658E 183m,GNSS locked,10,Time OK,Coarse lock,1600,8573,90,-1562,
1571738700,2019-10-22 10:05:00.000,47.632201N 0.559658E 183m,Off,9,Time OK,Free running,5600,8519,90,0,
1571739000,2019-10-22 10:10:00.000,47.632201N 0.559658E 183m,Off,9,Time OK,Free running,17500,8519,90,0,
1571739300,2019-10-22 10:15:00.000,47.632201N 0.559658E 183m,Off,9,Time OK,Free running,31600,8519,90,0,
1571739600,2019-10-22 10:20:00.000,47.632201N 0.559658E 183m,Off,9,Time OK,Free running,47700,8519,90,0,
1571739900,2019-10-22 10:25:00.000,47.632201N 0.559658E 183m,Off,10,Time OK,Free running,2400,8522,90,0,
1571740200,2019-10-22 10:30:00.000,47.632201N 0.559658E 183m,Off,10,Time OK,Free running,12600,8522,90,0,
1571740500,2019-10-22 10:35:00.000,47.632201N 0.559658E 183m,Off,10,Time OK,Free running,24800,8522,90,0,
1571740800,2019-10-22 10:40:00.000,47.632201N 0.559658E 183m,Off,10,Time OK,Free running,39100,8522,90,0,
1571741100,2019-10-22 10:45:00.000,47.632201N 0.559658E 183m,GNSS locked,10,Time OK,Coarse lock,200,8529,90,104,
1571741400,2019-10-22 10:50:00.000,47.632201N 0.559658E 183m,Off,10,Time OK,Free running,7400,8518,90,0,
1571741700,2019-10-22 10:55:00.000,47.632201N 0.559658E 183m,Off,10,Time OK,Free running,19600,8518,90,0,
