Time(longsecs),Time(UTC),Sensor SOH Voltage A 1(uV),Sensor SOH Voltage A 2(uV),Sensor SOH Voltage A 3(uV),External SOH Voltage 1(uV),External SOH Voltage 2(uV),External SOH Voltage 3(uV),
1572123600,2019-10-26 21:00:00.000,,,,465267,466176,464722,
1572123600,2019-10-26 21:00:00.000,40277,,,,,,
1572123900,2019-10-26 21:05:00.000,40281,,,,,,
1572125400,2019-10-26 21:30:00.000,,,,465271,466163,464725,
1572124200,2019-10-26 21:10:00.000,40353,,,,,,
1572124500,2019-10-26 21:15:00.000,38265,,,,,,
1572124800,2019-10-26 21:20:00.000,40227,,,,,,
1572125100,2019-10-26 21:25:00.000,38234,,,,,,
1572125400,2019-10-26 21:30:00.000,38425,,,,,,
1572125700,2019-10-26 21:35:00.000,38380,,,,,,
1572126000,2019-10-26 21:40:00.000,40547,,,,,,
1572126300,2019-10-26 21:45:00.000,38674,,,,,,
1572126600,2019-10-26 21:50:00.000,40743,,,,,,
1572126900,2019-10-26 21:55:00.000,40477,,,,,,
