Time(longsecs),Time(UTC),Earth location,GNSS receiver status,GNSS satellites used,Timing status,Phase lock loop status,Time uncertainty(ns),Timing DAC count,Time quality(&#37;),Time error(ns),
1572174000,2019-10-27 11:00:00.000,47.632201N 0.559658E 183m,Off,10,Time OK,Free running,12700,8510,90,0,
1572174300,2019-10-27 11:05:00.000,47.632201N 0.559658E 183m,Off,10,Time OK,Free running,24400,8510,90,0,
1572174600,2019-10-27 11:10:00.000,47.632201N 0.559658E 183m,Off,10,Time OK,Free running,37900,8510,90,0,
1572174900,2019-10-27 11:15:00.000,47.632201N 0.559658E 183m,GNSS locked,9,Time OK,Coarse lock,4000,8631,90,-3958,
1572175200,2019-10-27 11:20:00.000,47.632201N 0.559658E 183m,Off,10,Time OK,Free running,5800,8513,90,0,
1572175500,2019-10-27 11:25:00.000,47.632201N 0.559658E 183m,Off,10,Time OK,Free running,17100,8513,90,0,
1572175800,2019-10-27 11:30:00.000,47.632201N 0.559658E 183m,Off,10,Time OK,Free running,29600,8513,90,0,
1572176100,2019-10-27 11:35:00.000,47.632201N 0.559658E 183m,Off,10,Time OK,Free running,43800,8513,90,0,
1572176400,2019-10-27 11:40:00.000,47.632201N 0.559658E 183m,GNSS locked,10,Time OK,Fine lock,400,8515,100,312,
1572176700,2019-10-27 11:45:00.000,47.632201N 0.559658E 183m,Off,10,Time OK,Free running,9100,8515,90,0,
1572177000,2019-10-27 11:50:00.000,47.632201N 0.559658E 183m,Off,10,Time OK,Free running,19600,8515,90,0,
1572177300,2019-10-27 11:55:00.000,47.632201N 0.559658E 183m,Off,10,Time OK,Free running,31000,8515,90,0,
