Time(longsecs),Time(UTC),Supply voltage(V),Total current(A),Temperature(&deg;C),
1571950800,2019-10-24 21:00:00.000,1.3247734679999999E1,1.20646549217952E-1,2.575E1,
1571951100,2019-10-24 21:05:00.000,1.3247734679999999E1,1.1991976277688E-1,2.5687E1,
1571951400,2019-10-24 21:10:00.000,1.3247734679999999E1,1.19192976335808E-1,2.5718E1,
1571951700,2019-10-24 21:15:00.000,1.3247734679999999E1,1.18466189894736E-1,2.5656E1,
1571952000,2019-10-24 21:20:00.000,1.3247734679999999E1,1.19192976335808E-1,2.5656E1,
1571952300,2019-10-24 21:25:00.000,1.3247734679999999E1,1.18466189894736E-1,2.5656E1,
1571952600,2019-10-24 21:30:00.000,1.3247734679999999E1,1.18466189894736E-1,2.5656E1,
1571952900,2019-10-24 21:35:00.000,1.3247734679999999E1,1.20646549217952E-1,2.5593E1,
1571953200,2019-10-24 21:40:00.000,1.3247734679999999E1,1.18466189894736E-1,2.5562E1,
1571953500,2019-10-24 21:45:00.000,1.3234271535E1,1.43903715332256E-1,2.55E1,
1571953800,2019-10-24 21:50:00.000,1.3247734679999999E1,1.19192976335808E-1,2.55E1,
1571954100,2019-10-24 21:55:00.000,1.3247734679999999E1,1.17739403453664E-1,2.55E1,
