Time(longsecs),Time(UTC),Sensor SOH Voltage A 1(uV),Sensor SOH Voltage A 2(uV),Sensor SOH Voltage A 3(uV),External SOH Voltage 1(uV),External SOH Voltage 2(uV),External SOH Voltage 3(uV),
1571043600,2019-10-14 09:00:00.000,,,,465259,466133,464703,
1571043600,2019-10-14 09:00:00.000,26587,,,,,,
1571045400,2019-10-14 09:30:00.000,,,,465223,466101,464677,
1571043900,2019-10-14 09:05:00.000,24575,,,,,,
1571044200,2019-10-14 09:10:00.000,24408,,,,,,
1571044500,2019-10-14 09:15:00.000,26501,,,,,,
1571044800,2019-10-14 09:20:00.000,24561,,,,,,
1571045100,2019-10-14 09:25:00.000,26506,,,,,,
1571045400,2019-10-14 09:30:00.000,28715,,,,,,
1571045700,2019-10-14 09:35:00.000,26377,,,,,,
1571046000,2019-10-14 09:40:00.000,26374,,,,,,
1571046300,2019-10-14 09:45:00.000,26663,,,,,,
1571046600,2019-10-14 09:50:00.000,26642,,,,,,
1571046900,2019-10-14 09:55:00.000,26501,,,,,,
