Time(longsecs),Time(UTC),Earth location,GNSS receiver status,GNSS satellites used,Timing status,Phase lock loop status,Time uncertainty(ns),Timing DAC count,Time quality(&#37;),Time error(ns),
1572145200,2019-10-27 03:00:00.000,47.632201N 0.559658E 183m,Off,10,Time OK,Free running,27400,8563,90,0,
1572145500,2019-10-27 03:05:00.000,47.632201N 0.559658E 183m,Off,10,Time OK,Free running,36700,8563,90,0,
1572145800,2019-10-27 03:10:00.000,47.632201N 0.559658E 183m,Off,10,Time OK,Free running,46500,8563,90,0,
1572146100,2019-10-27 03:15:00.000,47.632201N 0.559658E 183m,Off,9,Time OK,Free running,300,8563,90,0,
1572146400,2019-10-27 03:20:00.000,47.632201N 0.559658E 183m,Off,9,Time OK,Free running,9000,8563,90,0,
1572146700,2019-10-27 03:25:00.000,47.632201N 0.559658E 183m,Off,9,Time OK,Free running,18000,8563,90,0,
1572147000,2019-10-27 03:30:00.000,47.632201N 0.559658E 183m,Off,9,Time OK,Free running,26700,8563,90,0,
1572147300,2019-10-27 03:35:00.000,47.632201N 0.559658E 183m,Off,9,Time OK,Free running,36300,8563,90,0,
1572147600,2019-10-27 03:40:00.000,47.632201N 0.559658E 183m,Off,9,Time OK,Free running,46700,8563,90,0,
1572147900,2019-10-27 03:45:00.000,47.632201N 0.559658E 183m,Off,9,Time OK,Free running,300,8562,90,0,
1572148200,2019-10-27 03:50:00.000,47.632201N 0.559658E 183m,Off,9,Time OK,Free running,8800,8562,90,0,
1572148500,2019-10-27 03:55:00.000,47.632201N 0.559658E 183m,Off,9,Time OK,Free running,17700,8562,90,0,
