Time(longsecs),Time(UTC),Supply voltage(V),Total current(A),Temperature(&deg;C),
1572562800,2019-10-31 23:00:00.000,1.3234271535E1,1.19192976335808E-1,2.275E1,
1572563100,2019-10-31 23:05:00.000,1.3234271535E1,1.19192976335808E-1,2.2781E1,
1572563400,2019-10-31 23:10:00.000,1.3234271535E1,1.20646549217952E-1,2.275E1,
1572563700,2019-10-31 23:15:00.000,1.3234271535E1,1.19192976335808E-1,2.275E1,
1572564000,2019-10-31 23:20:00.000,1.3234271535E1,1.18466189894736E-1,2.275E1,
1572564300,2019-10-31 23:25:00.000,1.3234271535E1,1.1991976277688E-1,2.2718E1,
1572564600,2019-10-31 23:30:00.000,1.3234271535E1,1.1991976277688E-1,2.2718E1,
1572564900,2019-10-31 23:35:00.000,1.3220808389999998E1,1.51898366184048E-1,2.2718E1,
1572565200,2019-10-31 23:40:00.000,1.3234271535E1,1.18466189894736E-1,2.2718E1,
1572565500,2019-10-31 23:45:00.000,1.3234271535E1,1.22826908541168E-1,2.275E1,
1572565800,2019-10-31 23:50:00.000,1.3234271535E1,1.3808942380368E-1,2.2687E1,
1572566100,2019-10-31 23:55:00.000,1.3234271535E1,1.20646549217952E-1,2.2656E1,
