Time(longsecs),Time(UTC),Earth location,GNSS receiver status,GNSS satellites used,Timing status,Phase lock loop status,Time uncertainty(ns),Timing DAC count,Time quality(&#37;),Time error(ns),
1571119200,2019-10-15 06:00:00.000,47.632201N 0.559658E 183m,Off,8,Time OK,Free running,32200,8573,90,0,
1571119500,2019-10-15 06:05:00.000,47.632201N 0.559658E 183m,Off,8,Time OK,Free running,42900,8573,90,0,
1571119800,2019-10-15 06:10:00.000,47.632201N 0.559658E 183m,GNSS locked,9,Time OK,Coarse lock,400,8555,90,312,
1571120100,2019-10-15 06:15:00.000,47.632201N 0.559658E 183m,Off,10,Time OK,Free running,6200,8571,90,0,
1571120400,2019-10-15 06:20:00.000,47.632201N 0.559658E 183m,Off,10,Time OK,Free running,14800,8571,90,0,
1571120700,2019-10-15 06:25:00.000,47.632201N 0.559658E 183m,Off,10,Time OK,Free running,24300,8571,90,0,
1571121000,2019-10-15 06:30:00.000,47.632201N 0.559658E 183m,Off,10,Time OK,Free running,34900,8571,90,0,
1571121300,2019-10-15 06:35:00.000,47.632201N 0.559658E 183m,Off,10,Time OK,Free running,46500,8571,90,0,
1571121600,2019-10-15 06:40:00.000,47.632201N 0.559658E 183m,GNSS locked,10,Time OK,Fine lock,200,8571,100,-208,
1571121900,2019-10-15 06:45:00.000,47.632201N 0.559658E 183m,Off,10,Time OK,Free running,8700,8570,90,0,
1571122200,2019-10-15 06:50:00.000,47.632201N 0.559658E 183m,Off,10,Time OK,Free running,17700,8570,90,0,
1571122500,2019-10-15 06:55:00.000,47.632201N 0.559658E 183m,Off,10,Time OK,Free running,27500,8570,90,0,
