Time(longsecs),Time(UTC),Supply voltage(V),Total current(A),Temperature(&deg;C),
1571731200,2019-10-22 08:00:00.000,1.3368902985E1,9.448223733936E-2,1.9812E1,
1571731500,2019-10-22 08:05:00.000,1.3355439839999999E1,1.26460840746528E-1,1.9875E1,
1571731800,2019-10-22 08:10:00.000,1.338236613E1,9.3028664457216E-2,1.9968E1,
1571732100,2019-10-22 08:15:00.000,1.3395829274999999E1,9.3755450898288E-2,2.0031E1,
1571732400,2019-10-22 08:20:00.000,1.3368902985E1,9.448223733936E-2,2.0093E1,
1571732700,2019-10-22 08:25:00.000,1.338236613E1,9.5209023780432E-2,2.0156E1,
1571733000,2019-10-22 08:30:00.000,1.338236613E1,1.25734054305456E-1,2.0281E1,
1571733300,2019-10-22 08:35:00.000,1.3395829274999999E1,9.3755450898288E-2,2.0375E1,
1571733600,2019-10-22 08:40:00.000,1.340929242E1,9.3028664457216E-2,2.0468E1,
1571733900,2019-10-22 08:45:00.000,1.3422755565E1,9.230187801614399E-2,2.0531E1,
1571734200,2019-10-22 08:50:00.000,1.340929242E1,9.3028664457216E-2,2.0593E1,
1571734500,2019-10-22 08:55:00.000,1.3422755565E1,9.593581022150399E-2,2.0718E1,
