Time(longsecs),Time(UTC),Sensor SOH Voltage A 1(uV),Sensor SOH Voltage A 2(uV),Sensor SOH Voltage A 3(uV),External SOH Voltage 1(uV),External SOH Voltage 2(uV),External SOH Voltage 3(uV),
1570687200,2019-10-10 06:00:00.000,,,,465310,466245,464812,
1570687200,2019-10-10 06:00:00.000,32938,,,,,,
1570689000,2019-10-10 06:30:00.000,,,,465331,466235,464784,
1570687500,2019-10-10 06:05:00.000,35346,,,,,,
1570687800,2019-10-10 06:10:00.000,35153,,,,,,
1570688100,2019-10-10 06:15:00.000,34276,,,,,,
1570688400,2019-10-10 06:20:00.000,36445,,,,,,
1570688700,2019-10-10 06:25:00.000,34603,,,,,,
1570689000,2019-10-10 06:30:00.000,32563,,,,,,
1570689300,2019-10-10 06:35:00.000,34501,,,,,,
1570689600,2019-10-10 06:40:00.000,35423,,,,,,
1570689900,2019-10-10 06:45:00.000,35172,,,,,,
1570690200,2019-10-10 06:50:00.000,35213,,,,,,
1570690500,2019-10-10 06:55:00.000,34952,,,,,,
