Time(longsecs),Time(UTC),Sensor SOH Voltage A 1(uV),Sensor SOH Voltage A 2(uV),Sensor SOH Voltage A 3(uV),External SOH Voltage 1(uV),External SOH Voltage 2(uV),External SOH Voltage 3(uV),
1572404400,2019-10-30 03:00:00.000,,,,465369,466331,464847,
1572404400,2019-10-30 03:00:00.000,50336,,,,,,
1572404700,2019-10-30 03:05:00.000,53742,,,,,,
1572406200,2019-10-30 03:30:00.000,,,,465364,466303,464855,
1572405000,2019-10-30 03:10:00.000,53909,,,,,,
1572405300,2019-10-30 03:15:00.000,53912,,,,,,
1572405600,2019-10-30 03:20:00.000,53725,,,,,,
1572405900,2019-10-30 03:25:00.000,52204,,,,,,
1572406200,2019-10-30 03:30:00.000,52082,,,,,,
1572406500,2019-10-30 03:35:00.000,52672,,,,,,
1572406800,2019-10-30 03:40:00.000,63273,,,,,,
1572407100,2019-10-30 03:45:00.000,51659,,,,,,
1572407400,2019-10-30 03:50:00.000,49877,,,,,,
1572407700,2019-10-30 03:55:00.000,51946,,,,,,
