Time(longsecs),Time(UTC),Sensor SOH Voltage A 1(uV),Sensor SOH Voltage A 2(uV),Sensor SOH Voltage A 3(uV),External SOH Voltage 1(uV),External SOH Voltage 2(uV),External SOH Voltage 3(uV),
1571997600,2019-10-25 10:00:00.000,,,,465355,466275,464823,
1571997600,2019-10-25 10:00:00.000,45852,,,,,,
1571997900,2019-10-25 10:05:00.000,47441,,,,,,
1571999400,2019-10-25 10:30:00.000,,,,465321,466246,464791,
1571998200,2019-10-25 10:10:00.000,45687,,,,,,
1571998500,2019-10-25 10:15:00.000,47615,,,,,,
1571998800,2019-10-25 10:20:00.000,84053,,,,,,
1571999100,2019-10-25 10:25:00.000,45680,,,,,,
1571999400,2019-10-25 10:30:00.000,45678,,,,,,
1571999700,2019-10-25 10:35:00.000,47603,,,,,,
1572000000,2019-10-25 10:40:00.000,45685,,,,,,
1572000300,2019-10-25 10:45:00.000,47646,,,,,,
1572000600,2019-10-25 10:50:00.000,45869,,,,,,
1572000900,2019-10-25 10:55:00.000,47804,,,,,,
