Time(longsecs),Time(UTC),Sensor SOH Voltage A 1(uV),Sensor SOH Voltage A 2(uV),Sensor SOH Voltage A 3(uV),External SOH Voltage 1(uV),External SOH Voltage 2(uV),External SOH Voltage 3(uV),
1571968800,2019-10-25 02:00:00.000,,,,465347,466246,464818,
1571968800,2019-10-25 02:00:00.000,45654,,,,,,
1571969100,2019-10-25 02:05:00.000,45716,,,,,,
1571970600,2019-10-25 02:30:00.000,,,,465344,466279,464823,
1571969400,2019-10-25 02:10:00.000,47792,,,,,,
1571969700,2019-10-25 02:15:00.000,44010,,,,,,
1571970000,2019-10-25 02:20:00.000,45831,,,,,,
1571970300,2019-10-25 02:25:00.000,43829,,,,,,
1571970600,2019-10-25 02:30:00.000,45740,,,,,,
1571970900,2019-10-25 02:35:00.000,45737,,,,,,
1571971200,2019-10-25 02:40:00.000,43750,,,,,,
1571971500,2019-10-25 02:45:00.000,45728,,,,,,
1571971800,2019-10-25 02:50:00.000,45467,,,,,,
1571972100,2019-10-25 02:55:00.000,45819,,,,,,
