Time(longsecs),Time(UTC),Earth location,GNSS receiver status,GNSS satellites used,Timing status,Phase lock loop status,Time uncertainty(ns),Timing DAC count,Time quality(&#37;),Time error(ns),
1570867200,2019-10-12 08:00:00.000,47.632201N 0.559658E 183m,Off,9,Time OK,Free running,50200,8554,90,0,
1570867500,2019-10-12 08:05:00.000,47.632201N 0.559658E 183m,Off,10,Time OK,Free running,3700,8556,90,0,
1570867800,2019-10-12 08:10:00.000,47.632201N 0.559658E 183m,Off,10,Time OK,Free running,14800,8556,90,0,
1570868100,2019-10-12 08:15:00.000,47.632201N 0.559658E 183m,Off,10,Time OK,Free running,28100,8556,90,0,
1570868400,2019-10-12 08:20:00.000,47.632201N 0.559658E 183m,Off,10,Time OK,Free running,43300,8556,90,0,
1570868700,2019-10-12 08:25:00.000,47.632201N 0.559658E 183m,GNSS locked,10,Time OK,Fine lock,500,8565,100,-416,
1570869000,2019-10-12 08:30:00.000,47.632201N 0.559658E 183m,Off,10,Time OK,Free running,9100,8568,90,0,
1570869300,2019-10-12 08:35:00.000,47.632201N 0.559658E 183m,Off,10,Time OK,Free running,21400,8568,90,0,
1570869600,2019-10-12 08:40:00.000,47.632201N 0.559658E 183m,Off,10,Time OK,Free running,35900,8568,90,0,
1570869900,2019-10-12 08:45:00.000,47.632201N 0.559658E 183m,GNSS locked,6,Time OK,Coarse lock,6100,8408,90,6041,
1570870200,2019-10-12 08:50:00.000,47.632201N 0.559658E 183m,Off,10,Time OK,Free running,5200,8571,90,0,
1570870500,2019-10-12 08:55:00.000,47.632201N 0.559658E 183m,Off,10,Time OK,Free running,16700,8571,90,0,
