Time(longsecs),Time(UTC),Sensor SOH Voltage A 1(uV),Sensor SOH Voltage A 2(uV),Sensor SOH Voltage A 3(uV),External SOH Voltage 1(uV),External SOH Voltage 2(uV),External SOH Voltage 3(uV),
1572080400,2019-10-26 09:00:00.000,,,,465312,466256,464803,
1572080400,2019-10-26 09:00:00.000,45814,,,,,,
1572080700,2019-10-26 09:05:00.000,43889,,,,,,
1572082200,2019-10-26 09:30:00.000,,,,465304,466223,464780,
1572081000,2019-10-26 09:10:00.000,45809,,,,,,
1572081300,2019-10-26 09:15:00.000,45573,,,,,,
1572081600,2019-10-26 09:20:00.000,43893,,,,,,
1572081900,2019-10-26 09:25:00.000,45585,,,,,,
1572082200,2019-10-26 09:30:00.000,45740,,,,,,
1572082500,2019-10-26 09:35:00.000,45730,,,,,,
1572082800,2019-10-26 09:40:00.000,45940,,,,,,
1572083100,2019-10-26 09:45:00.000,45647,,,,,,
1572083400,2019-10-26 09:50:00.000,43841,,,,,,
1572083700,2019-10-26 09:55:00.000,43970,,,,,,
