Time(longsecs),Time(UTC),Earth location,GNSS receiver status,GNSS satellites used,Timing status,Phase lock loop status,Time uncertainty(ns),Timing DAC count,Time quality(&#37;),Time error(ns),
1571673600,2019-10-21 16:00:00.000,47.632201N 0.559658E 183m,Off,9,Time OK,Free running,23900,8568,90,0,
1571673900,2019-10-21 16:05:00.000,47.632201N 0.559658E 183m,Off,9,Time OK,Free running,38500,8568,90,0,
1571674200,2019-10-21 16:10:00.000,47.632201N 0.559658E 183m,GNSS locked,8,Time OK,Coarse lock,500,8542,90,416,
1571674500,2019-10-21 16:15:00.000,47.632201N 0.559658E 183m,Off,7,Time OK,Free running,5200,8563,90,0,
1571674800,2019-10-21 16:20:00.000,47.632201N 0.559658E 183m,Off,7,Time OK,Free running,15800,8563,90,0,
1571675100,2019-10-21 16:25:00.000,47.632201N 0.559658E 183m,Off,7,Time OK,Free running,28800,8563,90,0,
1571675400,2019-10-21 16:30:00.000,47.632201N 0.559658E 183m,Off,7,Time OK,Free running,45200,8563,90,0,
1571675700,2019-10-21 16:35:00.000,47.632201N 0.559658E 183m,Off,7,Time OK,Free running,600,8552,90,0,
1571676000,2019-10-21 16:40:00.000,47.632201N 0.559658E 183m,Off,7,Time OK,Free running,9900,8552,90,0,
1571676300,2019-10-21 16:45:00.000,47.632201N 0.559658E 183m,Off,7,Time OK,Free running,21700,8552,90,0,
1571676600,2019-10-21 16:50:00.000,47.632201N 0.559658E 183m,Off,7,Time OK,Free running,36900,8552,90,0,
1571676900,2019-10-21 16:55:00.000,47.632201N 0.559658E 183m,GNSS locked,8,Time OK,Coarse lock,1500,8607,90,-1458,
