Time(longsecs),Time(UTC),Earth location,GNSS receiver status,GNSS satellites used,Timing status,Phase lock loop status,Time uncertainty(ns),Timing DAC count,Time quality(&#37;),Time error(ns),
1572390000,2019-10-29 23:00:00.000,47.632201N 0.559658E 183m,Off,8,Time OK,Free running,13700,8522,90,0,
1572390300,2019-10-29 23:05:00.000,47.632201N 0.559658E 183m,Off,8,Time OK,Free running,22700,8522,90,0,
1572390600,2019-10-29 23:10:00.000,47.632201N 0.559658E 183m,Off,8,Time OK,Free running,31100,8522,90,0,
1572390900,2019-10-29 23:15:00.000,47.632201N 0.559658E 183m,Off,8,Time OK,Free running,40100,8522,90,0,
1572391200,2019-10-29 23:20:00.000,47.632201N 0.559658E 183m,Off,8,Time OK,Free running,49500,8522,90,0,
1572391500,2019-10-29 23:25:00.000,47.632201N 0.559658E 183m,Off,9,Time OK,Free running,2500,8522,90,0,
1572391800,2019-10-29 23:30:00.000,47.632201N 0.559658E 183m,Off,9,Time OK,Free running,11200,8522,90,0,
1572392100,2019-10-29 23:35:00.000,47.632201N 0.559658E 183m,Off,9,Time OK,Free running,20000,8522,90,0,
1572392400,2019-10-29 23:40:00.000,47.632201N 0.559658E 183m,Off,9,Time OK,Free running,28600,8522,90,0,
1572392700,2019-10-29 23:45:00.000,47.632201N 0.559658E 183m,Off,9,Time OK,Free running,37700,8522,90,0,
1572393000,2019-10-29 23:50:00.000,47.632201N 0.559658E 183m,Off,9,Time OK,Free running,47100,8522,90,0,
1572393300,2019-10-29 23:55:00.000,47.632201N 0.559658E 183m,Off,8,Time OK,Free running,400,8522,90,0,
