Time(longsecs),Time(UTC),Earth location,GNSS receiver status,GNSS satellites used,Timing status,Phase lock loop status,Time uncertainty(ns),Timing DAC count,Time quality(&#37;),Time error(ns),
1570809600,2019-10-11 16:00:00.000,47.632201N 0.559658E 183m,GNSS locked,10,Time OK,Fine lock,100,8657,100,0,
1570809900,2019-10-11 16:05:00.000,47.632201N 0.559658E 183m,Off,10,Time OK,Free running,6000,8646,90,0,
1570810200,2019-10-11 16:10:00.000,47.632201N 0.559658E 183m,Off,10,Time OK,Free running,15200,8646,90,0,
1570810500,2019-10-11 16:15:00.000,47.632201N 0.559658E 183m,Off,10,Time OK,Free running,25400,8646,90,0,
1570810800,2019-10-11 16:20:00.000,47.632201N 0.559658E 183m,Off,10,Time OK,Free running,37100,8646,90,0,
1570811100,2019-10-11 16:25:00.000,47.632201N 0.559658E 183m,Off,10,Time OK,Free running,49600,8646,90,0,
1570811400,2019-10-11 16:30:00.000,47.632201N 0.559658E 183m,Off,10,Time OK,Free running,2700,8645,90,0,
1570811700,2019-10-11 16:35:00.000,47.632201N 0.559658E 183m,Off,10,Time OK,Free running,11400,8645,90,0,
1570812000,2019-10-11 16:40:00.000,47.632201N 0.559658E 183m,Off,10,Time OK,Free running,20700,8645,90,0,
1570812300,2019-10-11 16:45:00.000,47.632201N 0.559658E 183m,Off,10,Time OK,Free running,31800,8645,90,0,
1570812600,2019-10-11 16:50:00.000,47.632201N 0.559658E 183m,Off,10,Time OK,Free running,45000,8645,90,0,
1570812900,2019-10-11 16:55:00.000,47.632201N 0.559658E 183m,Off,8,Time OK,Free running,300,8642,90,0,
