Time(longsecs),Time(UTC),Sensor SOH Voltage A 1(uV),Sensor SOH Voltage A 2(uV),Sensor SOH Voltage A 3(uV),External SOH Voltage 1(uV),External SOH Voltage 2(uV),External SOH Voltage 3(uV),
1571320800,2019-10-17 14:00:00.000,,,,465174,466027,464632,
1571320800,2019-10-17 14:00:00.000,36631,,,,,,
1571321100,2019-10-17 14:05:00.000,36211,,,,,,
1571322600,2019-10-17 14:30:00.000,,,,465159,466006,464597,
1571321400,2019-10-17 14:10:00.000,35989,,,,,,
1571321700,2019-10-17 14:15:00.000,34281,,,,,,
1571322000,2019-10-17 14:20:00.000,34443,,,,,,
1571322300,2019-10-17 14:25:00.000,34572,,,,,,
1571322600,2019-10-17 14:30:00.000,34348,,,,,,
1571322900,2019-10-17 14:35:00.000,34400,,,,,,
1571323200,2019-10-17 14:40:00.000,36144,,,,,,
1571323500,2019-10-17 14:45:00.000,38215,,,,,,
1571323800,2019-10-17 14:50:00.000,36228,,,,,,
1571324100,2019-10-17 14:55:00.000,36116,,,,,,
