Time(longsecs),Time(UTC),Earth location,GNSS receiver status,GNSS satellites used,Timing status,Phase lock loop status,Time uncertainty(ns),Timing DAC count,Time quality(&#37;),Time error(ns),
1571317200,2019-10-17 13:00:00.000,47.632201N 0.559658E 183m,Off,10,Time OK,Free running,49900,8581,90,0,
1571317500,2019-10-17 13:05:00.000,47.632201N 0.559658E 183m,Off,10,Time OK,Free running,1400,8588,90,0,
1571317800,2019-10-17 13:10:00.000,47.632201N 0.559658E 183m,Off,10,Time OK,Free running,13000,8588,90,0,
1571318100,2019-10-17 13:15:00.000,47.632201N 0.559658E 183m,Off,10,Time OK,Free running,29200,8588,90,0,
1571318400,2019-10-17 13:20:00.000,47.632201N 0.559658E 183m,Off,10,Time OK,Free running,49800,8588,90,0,
1571318700,2019-10-17 13:25:00.000,47.632201N 0.559658E 183m,Off,10,Time OK,Free running,3000,8593,90,0,
1571319000,2019-10-17 13:30:00.000,47.632201N 0.559658E 183m,Off,10,Time OK,Free running,15900,8593,90,0,
1571319300,2019-10-17 13:35:00.000,47.632201N 0.559658E 183m,Off,10,Time OK,Free running,33800,8593,90,0,
1571319600,2019-10-17 13:40:00.000,47.632201N 0.559658E 183m,GNSS locked,7,Time OK,Coarse lock,2400,8667,90,-2395,
1571319900,2019-10-17 13:45:00.000,47.632201N 0.559658E 183m,Off,9,Time OK,Free running,6200,8608,90,0,
1571320200,2019-10-17 13:50:00.000,47.632201N 0.559658E 183m,Off,9,Time OK,Free running,20300,8608,90,0,
1571320500,2019-10-17 13:55:00.000,47.632201N 0.559658E 183m,Off,9,Time OK,Free running,38500,8608,90,0,
