Time(longsecs),Time(UTC),Sensor SOH Voltage A 1(uV),Sensor SOH Voltage A 2(uV),Sensor SOH Voltage A 3(uV),External SOH Voltage 1(uV),External SOH Voltage 2(uV),External SOH Voltage 3(uV),
1572454800,2019-10-30 17:00:00.000,,,,465343,466279,464828,
1572454800,2019-10-30 17:00:00.000,53186,,,,,,
1572455100,2019-10-30 17:05:00.000,55025,,,,,,
1572456600,2019-10-30 17:30:00.000,,,,465347,466275,464843,
1572455400,2019-10-30 17:10:00.000,53897,,,,,,
1572455700,2019-10-30 17:15:00.000,51411,,,,,,
1572456000,2019-10-30 17:20:00.000,54767,,,,,,
1572456300,2019-10-30 17:25:00.000,53613,,,,,,
1572456600,2019-10-30 17:30:00.000,52736,,,,,,
1572456900,2019-10-30 17:35:00.000,75931,,,,,,
1572457200,2019-10-30 17:40:00.000,51802,,,,,,
1572457500,2019-10-30 17:45:00.000,53835,,,,,,
1572457800,2019-10-30 17:50:00.000,49977,,,,,,
1572458100,2019-10-30 17:55:00.000,51996,,,,,,
