Time(longsecs),Time(UTC),Supply voltage(V),Total current(A),Temperature(&deg;C),
1572130800,2019-10-26 23:00:00.000,1.3247734679999999E1,1.18466189894736E-1,2.8187E1,
1572131100,2019-10-26 23:05:00.000,1.3261197825E1,1.18466189894736E-1,2.8125E1,
1572131400,2019-10-26 23:10:00.000,1.3247734679999999E1,1.19192976335808E-1,2.8093E1,
1572131700,2019-10-26 23:15:00.000,1.3234271535E1,1.55532298389408E-1,2.8062E1,
1572132000,2019-10-26 23:20:00.000,1.3247734679999999E1,1.18466189894736E-1,2.8093E1,
1572132300,2019-10-26 23:25:00.000,1.3261197825E1,1.19192976335808E-1,2.8062E1,
1572132600,2019-10-26 23:30:00.000,1.3247734679999999E1,1.31548345834032E-1,2.8E1,
1572132900,2019-10-26 23:35:00.000,1.3247734679999999E1,1.18466189894736E-1,2.7968E1,
1572133200,2019-10-26 23:40:00.000,1.3261197825E1,1.19192976335808E-1,2.7937E1,
1572133500,2019-10-26 23:45:00.000,1.3234271535E1,1.53351939066192E-1,2.7937E1,
1572133800,2019-10-26 23:50:00.000,1.3261197825E1,1.18466189894736E-1,2.7968E1,
1572134100,2019-10-26 23:55:00.000,1.3247734679999999E1,1.18466189894736E-1,2.7906E1,
