Time(longsecs),Time(UTC),Earth location,GNSS receiver status,GNSS satellites used,Timing status,Phase lock loop status,Time uncertainty(ns),Timing DAC count,Time quality(&#37;),Time error(ns),
1571608800,2019-10-20 22:00:00.000,47.632201N 0.559658E 183m,Off,9,Time OK,Free running,47000,8527,90,0,
1571609100,2019-10-20 22:05:00.000,47.632201N 0.559658E 183m,GNSS locked,7,Time OK,Fine lock,300,8527,100,208,
1571609400,2019-10-20 22:10:00.000,47.632201N 0.559658E 183m,Off,7,Time OK,Free running,8400,8527,90,0,
1571609700,2019-10-20 22:15:00.000,47.632201N 0.559658E 183m,Off,7,Time OK,Free running,16900,8527,90,0,
1571610000,2019-10-20 22:20:00.000,47.632201N 0.559658E 183m,Off,7,Time OK,Free running,25500,8527,90,0,
1571610300,2019-10-20 22:25:00.000,47.632201N 0.559658E 183m,Off,7,Time OK,Free running,34100,8527,90,0,
1571610600,2019-10-20 22:30:00.000,47.632201N 0.559658E 183m,Off,7,Time OK,Free running,43100,8527,90,0,
1571610900,2019-10-20 22:35:00.000,47.632201N 0.559658E 183m,GNSS locked,9,Time OK,Coarse lock,3300,8621,90,-3229,
1571611200,2019-10-20 22:40:00.000,47.632201N 0.559658E 183m,Off,10,Time OK,Free running,5100,8527,90,0,
1571611500,2019-10-20 22:45:00.000,47.632201N 0.559658E 183m,Off,10,Time OK,Free running,13900,8527,90,0,
1571611800,2019-10-20 22:50:00.000,47.632201N 0.559658E 183m,Off,10,Time OK,Free running,22900,8527,90,0,
1571612100,2019-10-20 22:55:00.000,47.632201N 0.559658E 183m,Off,10,Time OK,Free running,31500,8527,90,0,
