Time(longsecs),Time(UTC),Supply voltage(V),Total current(A),Temperature(&deg;C),
1571868000,2019-10-23 22:00:00.000,1.3247734679999999E1,1.18466189894736E-1,2.475E1,
1571868300,2019-10-23 22:05:00.000,1.3234271535E1,1.42450142450112E-1,2.4718E1,
1571868600,2019-10-23 22:10:00.000,1.3247734679999999E1,1.19192976335808E-1,2.4656E1,
1571868900,2019-10-23 22:15:00.000,1.3247734679999999E1,1.18466189894736E-1,2.4625E1,
1571869200,2019-10-23 22:20:00.000,1.3234271535E1,1.5262515262512E-1,2.4562E1,
1571869500,2019-10-23 22:25:00.000,1.3247734679999999E1,1.18466189894736E-1,2.4531E1,
1571869800,2019-10-23 22:30:00.000,1.3247734679999999E1,1.2210012210009599E-1,2.4562E1,
1571870100,2019-10-23 22:35:00.000,1.3247734679999999E1,1.20646549217952E-1,2.45E1,
1571870400,2019-10-23 22:40:00.000,1.3247734679999999E1,1.19192976335808E-1,2.4468E1,
1571870700,2019-10-23 22:45:00.000,1.3247734679999999E1,1.18466189894736E-1,2.4437E1,
1571871000,2019-10-23 22:50:00.000,1.3234271535E1,1.5262515262512E-1,2.4437E1,
1571871300,2019-10-23 22:55:00.000,1.3247734679999999E1,1.18466189894736E-1,2.4437E1,
