Time(longsecs),Time(UTC),Sensor SOH Voltage A 1(uV),Sensor SOH Voltage A 2(uV),Sensor SOH Voltage A 3(uV),External SOH Voltage 1(uV),External SOH Voltage 2(uV),External SOH Voltage 3(uV),
1570777200,2019-10-11 07:00:00.000,,,,465320,466272,464802,
1570777200,2019-10-11 07:00:00.000,30354,,,,,,
1570779000,2019-10-11 07:30:00.000,,,,465316,466342,464842,
1570777500,2019-10-11 07:05:00.000,32193,,,,,,
1570777800,2019-10-11 07:10:00.000,29019,,,,,,
1570778100,2019-10-11 07:15:00.000,32071,,,,,,
1570778400,2019-10-11 07:20:00.000,32604,,,,,,
1570778700,2019-10-11 07:25:00.000,34670,,,,,,
1570779000,2019-10-11 07:30:00.000,31231,,,,,,
1570779300,2019-10-11 07:35:00.000,33732,,,,,,
1570779600,2019-10-11 07:40:00.000,34216,,,,,,
1570779900,2019-10-11 07:45:00.000,29649,,,,,,
1570780200,2019-10-11 07:50:00.000,34477,,,,,,
1570780500,2019-10-11 07:55:00.000,34391,,,,,,
