Time(longsecs),Time(UTC),Supply voltage(V),Total current(A),Temperature(&deg;C),
1571875200,2019-10-24 00:00:00.000,1.3247734679999999E1,1.18466189894736E-1,2.425E1,
1571875500,2019-10-24 00:05:00.000,1.3234271535E1,1.2355369498224E-1,2.425E1,
1571875800,2019-10-24 00:10:00.000,1.3247734679999999E1,1.20646549217952E-1,2.4187E1,
1571876100,2019-10-24 00:15:00.000,1.3247734679999999E1,1.18466189894736E-1,2.4156E1,
1571876400,2019-10-24 00:20:00.000,1.3247734679999999E1,1.19192976335808E-1,2.4156E1,
1571876700,2019-10-24 00:25:00.000,1.3234271535E1,1.2355369498224E-1,2.4156E1,
1571877000,2019-10-24 00:30:00.000,1.3234271535E1,1.18466189894736E-1,2.4125E1,
1571877300,2019-10-24 00:35:00.000,1.3247734679999999E1,1.18466189894736E-1,2.4125E1,
1571877600,2019-10-24 00:40:00.000,1.3247734679999999E1,1.1991976277688E-1,2.4093E1,
1571877900,2019-10-24 00:45:00.000,1.3234271535E1,1.20646549217952E-1,2.4062E1,
1571878200,2019-10-24 00:50:00.000,1.3234271535E1,1.453572882144E-1,2.4031E1,
1571878500,2019-10-24 00:55:00.000,1.3220808389999998E1,1.5625908483048E-1,2.4031E1,
