Time(longsecs),Time(UTC),Earth location,GNSS receiver status,GNSS satellites used,Timing status,Phase lock loop status,Time uncertainty(ns),Timing DAC count,Time quality(&#37;),Time error(ns),
1571950800,2019-10-24 21:00:00.000,47.632201N 0.559658E 183m,Off,10,Time OK,Free running,23200,8550,90,0,
1571951100,2019-10-24 21:05:00.000,47.632201N 0.559658E 183m,Off,10,Time OK,Free running,31900,8550,90,0,
1571951400,2019-10-24 21:10:00.000,47.632201N 0.559658E 183m,Off,10,Time OK,Free running,41100,8550,90,0,
1571951700,2019-10-24 21:15:00.000,47.632201N 0.559658E 183m,GNSS unlocked,0,Time OK,Free running,51100,8550,90,0,
1571952000,2019-10-24 21:20:00.000,47.632201N 0.559658E 183m,Off,9,Time OK,Free running,3600,8549,90,0,
1571952300,2019-10-24 21:25:00.000,47.632201N 0.559658E 183m,Off,9,Time OK,Free running,12300,8549,90,0,
1571952600,2019-10-24 21:30:00.000,47.632201N 0.559658E 183m,Off,9,Time OK,Free running,21000,8549,90,0,
1571952900,2019-10-24 21:35:00.000,47.632201N 0.559658E 183m,Off,9,Time OK,Free running,30100,8549,90,0,
1571953200,2019-10-24 21:40:00.000,47.632201N 0.559658E 183m,Off,9,Time OK,Free running,40300,8549,90,0,
1571953500,2019-10-24 21:45:00.000,47.632201N 0.559658E 183m,GNSS unlocked,0,Time OK,Free running,51200,8549,90,0,
1571953800,2019-10-24 21:50:00.000,47.632201N 0.559658E 183m,Off,5,Time OK,Free running,4000,8547,90,0,
1571954100,2019-10-24 21:55:00.000,47.632201N 0.559658E 183m,Off,5,Time OK,Free running,12600,8547,90,0,
