Time(longsecs),Time(UTC),Supply voltage(V),Total current(A),Temperature(&deg;C),
1571666400,2019-10-21 14:00:00.000,1.3745871045E1,9.448223733936E-2,2.7437E1,
1571666700,2019-10-21 14:05:00.000,1.3745871045E1,1.15559044130448E-1,2.7406E1,
1571667000,2019-10-21 14:10:00.000,1.3759334189999999E1,9.230187801614399E-2,2.7437E1,
1571667300,2019-10-21 14:15:00.000,1.3759334189999999E1,9.1575091575072E-2,2.7531E1,
1571667600,2019-10-21 14:20:00.000,1.3759334189999999E1,9.230187801614399E-2,2.7625E1,
1571667900,2019-10-21 14:25:00.000,1.3759334189999999E1,9.230187801614399E-2,2.7781E1,
1571668200,2019-10-21 14:30:00.000,1.3759334189999999E1,9.1575091575072E-2,2.7968E1,
1571668500,2019-10-21 14:35:00.000,1.3759334189999999E1,9.1575091575072E-2,2.8156000000000002E1,
1571668800,2019-10-21 14:40:00.000,1.3759334189999999E1,9.3028664457216E-2,2.8375E1,
1571669100,2019-10-21 14:45:00.000,1.3759334189999999E1,9.1575091575072E-2,2.8656000000000002E1,
1571669400,2019-10-21 14:50:00.000,1.3759334189999999E1,9.230187801614399E-2,2.8812E1,
1571669700,2019-10-21 14:55:00.000,1.3745871045E1,1.2210012210009599E-1,2.9E1,
