Time(longsecs),Time(UTC),Sensor SOH Voltage A 1(uV),Sensor SOH Voltage A 2(uV),Sensor SOH Voltage A 3(uV),External SOH Voltage 1(uV),External SOH Voltage 2(uV),External SOH Voltage 3(uV),
1571011200,2019-10-14 00:00:00.000,,,,465251,466154,464722,
1571011200,2019-10-14 00:00:00.000,26570,,,,,,
1571013000,2019-10-14 00:30:00.000,,,,465240,466162,464739,
1571011500,2019-10-14 00:05:00.000,20558,,,,,,
1571011800,2019-10-14 00:10:00.000,24542,,,,,,
1571012100,2019-10-14 00:15:00.000,20529,,,,,,
1571012400,2019-10-14 00:20:00.000,24564,,,,,,
1571012700,2019-10-14 00:25:00.000,26649,,,,,,
1571013000,2019-10-14 00:30:00.000,24411,,,,,,
1571013300,2019-10-14 00:35:00.000,24633,,,,,,
1571013600,2019-10-14 00:40:00.000,24451,,,,,,
1571013900,2019-10-14 00:45:00.000,26551,,,,,,
1571014200,2019-10-14 00:50:00.000,24939,,,,,,
1571014500,2019-10-14 00:55:00.000,26759,,,,,,
