Time(longsecs),Time(UTC),Sensor SOH Voltage A 1(uV),Sensor SOH Voltage A 2(uV),Sensor SOH Voltage A 3(uV),External SOH Voltage 1(uV),External SOH Voltage 2(uV),External SOH Voltage 3(uV),
1570708800,2019-10-10 12:00:00.000,,,,465140,465984,464576,
1570708800,2019-10-10 12:00:00.000,36493,,,,,,
1570710600,2019-10-10 12:30:00.000,,,,465128,465956,464547,
1570709100,2019-10-10 12:05:00.000,34627,,,,,,
1570709400,2019-10-10 12:10:00.000,30306,,,,,,
1570709700,2019-10-10 12:15:00.000,30308,,,,,,
1570710000,2019-10-10 12:20:00.000,34639,,,,,,
1570710300,2019-10-10 12:25:00.000,30526,,,,,,
1570710600,2019-10-10 12:30:00.000,34486,,,,,,
1570710900,2019-10-10 12:35:00.000,30476,,,,,,
1570711200,2019-10-10 12:40:00.000,34826,,,,,,
1570711500,2019-10-10 12:45:00.000,30547,,,,,,
1570711800,2019-10-10 12:50:00.000,28756,,,,,,
1570712100,2019-10-10 12:55:00.000,30514,,,,,,
