Time(longsecs),Time(UTC),Supply voltage(V),Total current(A),Temperature(&deg;C),
1571652000,2019-10-21 10:00:00.000,1.3772797335E1,9.0848305134E-2,2.2562E1,
1571652300,2019-10-21 10:05:00.000,1.349007129E1,1.38816210244752E-1,2.2625E1,
1571652600,2019-10-21 10:10:00.000,1.3651629029999999E1,9.1575091575072E-2,2.2781E1,
1571652900,2019-10-21 10:15:00.000,1.3611239594999999E1,9.3028664457216E-2,2.2875E1,
1571653200,2019-10-21 10:20:00.000,1.359777645E1,9.3028664457216E-2,2.3E1,
1571653500,2019-10-21 10:25:00.000,1.3665092175E1,9.1575091575072E-2,2.3125E1,
1571653800,2019-10-21 10:30:00.000,1.3543923869999999E1,9.3755450898288E-2,2.3281E1,
1571654100,2019-10-21 10:35:00.000,1.349007129E1,9.3028664457216E-2,2.35E1,
1571654400,2019-10-21 10:40:00.000,1.3584313304999998E1,9.230187801614399E-2,2.3656E1,
1571654700,2019-10-21 10:45:00.000,1.3543923869999999E1,1.02476888191152E-1,2.3781E1,
1571655000,2019-10-21 10:50:00.000,1.3543923869999999E1,9.1575091575072E-2,2.3968E1,
1571655300,2019-10-21 10:55:00.000,1.37324079E1,9.1575091575072E-2,2.4125E1,
