Time(longsecs),Time(UTC),Supply voltage(V),Total current(A),Temperature(&deg;C),
1571270400,2019-10-17 00:00:00.000,1.3247734679999999E1,1.18466189894736E-1,2.5812E1,
1571270700,2019-10-17 00:05:00.000,1.3247734679999999E1,1.18466189894736E-1,2.575E1,
1571271000,2019-10-17 00:10:00.000,1.3247734679999999E1,1.1991976277688E-1,2.5718E1,
1571271300,2019-10-17 00:15:00.000,1.3247734679999999E1,1.18466189894736E-1,2.5656E1,
1571271600,2019-10-17 00:20:00.000,1.3247734679999999E1,1.18466189894736E-1,2.5656E1,
1571271900,2019-10-17 00:25:00.000,1.3247734679999999E1,1.18466189894736E-1,2.5656E1,
1571272200,2019-10-17 00:30:00.000,1.3247734679999999E1,1.1991976277688E-1,2.5625E1,
1571272500,2019-10-17 00:35:00.000,1.3247734679999999E1,1.20646549217952E-1,2.5593E1,
1571272800,2019-10-17 00:40:00.000,1.3247734679999999E1,1.21373335659024E-1,2.5593E1,
1571273100,2019-10-17 00:45:00.000,1.3234271535E1,1.25007267864384E-1,2.5531E1,
1571273400,2019-10-17 00:50:00.000,1.3247734679999999E1,1.18466189894736E-1,2.5531E1,
1571273700,2019-10-17 00:55:00.000,1.3247734679999999E1,1.18466189894736E-1,2.5531E1,
