Time(longsecs),Time(UTC),Supply voltage(V),Total current(A),Temperature(&deg;C),
1571904000,2019-10-24 08:00:00.000,1.3328513549999998E1,9.5209023780432E-2,2.1937E1,
1571904300,2019-10-24 08:05:00.000,1.3315050405E1,9.5209023780432E-2,2.2E1,
1571904600,2019-10-24 08:10:00.000,1.3355439839999999E1,9.3755450898288E-2,2.2093E1,
1571904900,2019-10-24 08:15:00.000,1.340929242E1,9.3755450898288E-2,2.2156E1,
1571905200,2019-10-24 08:20:00.000,1.3422755565E1,9.3028664457216E-2,2.2218E1,
1571905500,2019-10-24 08:25:00.000,1.3368902985E1,9.448223733936E-2,2.2281E1,
1571905800,2019-10-24 08:30:00.000,1.3341976695E1,1.26460840746528E-1,2.2343E1,
1571906100,2019-10-24 08:35:00.000,1.3341976695E1,9.3755450898288E-2,2.2468E1,
1571906400,2019-10-24 08:40:00.000,1.3341976695E1,9.3755450898288E-2,2.2531E1,
1571906700,2019-10-24 08:45:00.000,1.3355439839999999E1,9.3028664457216E-2,2.2593E1,
1571907000,2019-10-24 08:50:00.000,1.3368902985E1,9.3028664457216E-2,2.2656E1,
1571907300,2019-10-24 08:55:00.000,1.3355439839999999E1,1.25734054305456E-1,2.2718E1,
