Time(longsecs),Time(UTC),External SOH Voltage 1(V),External SOH Voltage 2(V),External SOH Voltage 3(V),External SOH Voltage 4(V),Sensor SOH Voltage 1(V),Sensor SOH Voltage 2(V),Sensor SOH Voltage 3(V),
1571011213,2019-10-14 00:00:13.464,-9.574652E-3,1.3766289E-3,-3.24893E-3,-2.4409294E-3,1.993618E-1,2.020235E-1,2.0024014E-1,
1571011273,2019-10-14 00:01:13.464,-9.81164E-3,1.1558533E-3,-2.6967525E-3,-2.2461414E-3,1.9930458E-1,2.0164776E-1,2.0274925E-1,
1571011333,2019-10-14 00:02:13.465,-7.09939E-3,3.489256E-3,-9.908676E-4,-8.609295E-4,2.0216465E-1,2.0526314E-1,2.0271301E-1,
1571011393,2019-10-14 00:03:13.465,-7.82609E-3,3.14641E-3,-1.2056828E-3,-5.290508E-4,2.046833E-1,2.080307E-1,2.050829E-1,
1571011453,2019-10-14 00:04:13.465,-1.0065317E-2,9.431839E-4,-3.2258034E-3,-3.0298233E-3,1.9886208E-1,2.017498E-1,2.0265579E-1,
1571011513,2019-10-14 00:05:13.465,-9.560585E-3,1.1153221E-3,-2.6299953E-3,-2.2976398E-3,1.9980145E-1,2.0293331E-1,2.016344E-1,
1571011573,2019-10-14 00:06:13.470,-7.8098774E-3,2.8476715E-3,-1.1026859E-3,-3.376007E-4,2.0803356E-1,2.1120262E-1,2.0804977E-1,
1571011633,2019-10-14 00:07:13.465,-9.360075E-3,1.4953613E-3,-2.3989677E-3,-2.1531582E-3,2.0207214E-1,2.0497036E-1,2.0145321E-1,
1571011693,2019-10-14 00:08:13.464,-1.1691332E-2,-1.1646748E-3,-5.251646E-3,-4.5979023E-3,1.9168377E-1,1.9454193E-1,1.968813E-1,
1571011753,2019-10-14 00:09:13.466,-9.400368E-3,1.5563965E-3,-3.0100346E-3,-2.0866394E-3,2.0538235E-1,2.0940304E-1,2.110815E-1,
1571011813,2019-10-14 00:10:13.464,-1.2223244E-2,-1.0948181E-3,-5.2394867E-3,-4.7471523E-3,1.9506073E-1,1.9814682E-1,1.9777489E-1,
1571011873,2019-10-14 00:11:13.464,-1.0252953E-2,5.669594E-4,-3.44944E-3,-2.9819012E-3,2.0082474E-1,2.0435524E-1,2.0072174E-1,
1571011933,2019-10-14 00:12:13.464,-1.0596275E-2,7.135868E-4,-3.6361217E-3,-2.8922558E-3,1.9904423E-1,2.0060825E-1,2.0145512E-1,
1571011993,2019-10-14 00:13:13.464,-1.2182236E-2,-8.711815E-4,-5.205393E-3,-4.743099E-3,1.948061E-1,1.972704E-1,1.9916058E-1,
1571012053,2019-10-14 00:14:13.464,-7.695675E-3,3.3893585E-3,-1.3782978E-3,-5.104542E-4,2.110157E-1,2.1430302E-1,2.1292782E-1,
1571012113,2019-10-14 00:15:13.464,-1.014328E-2,7.2693825E-4,-3.2422543E-3,-2.7229786E-3,1.9634724E-1,1.9941711E-1,1.9972515E-1,
1571012173,2019-10-14 00:16:13.464,-9.221792E-3,1.6517639E-3,-2.8016567E-3,-2.0871162E-3,2.019682E-1,2.0449066E-1,2.0180035E-1,
1571012233,2019-10-14 00:17:13.464,-1.0013819E-2,7.0858E-4,-3.6034584E-3,-2.667904E-3,2.0433998E-1,2.0688629E-1,2.0886421E-1,
1571012293,2019-10-14 00:18:13.514,-9.68647E-3,1.3206005E-3,-2.6094913E-3,-1.3694763E-3,2.0627785E-1,2.0749474E-1,2.0723248E-1,
1571012353,2019-10-14 00:19:13.464,-7.583618E-3,3.0944347E-3,-1.52421E-3,-5.939007E-4,2.0683765E-1,2.08498E-1,2.0517063E-1,
1571012413,2019-10-14 00:20:13.464,-7.870436E-3,2.7496815E-3,-1.2607574E-3,-3.6644936E-4,2.0576096E-1,2.0912075E-1,2.0692539E-1,
1571012473,2019-10-14 00:21:13.465,-1.1897564E-2,-8.93116E-4,-5.116701E-3,-5.122423E-3,1.9539356E-1,1.9915009E-1,1.969719E-1,
1571012533,2019-10-14 00:22:13.464,-9.664059E-3,1.4350414E-3,-2.8657913E-3,-2.5298595E-3,2.0003986E-1,2.0227051E-1,1.9686508E-1,
1571012593,2019-10-14 00:23:13.464,-1.0248423E-2,7.8368187E-4,-3.1533241E-3,-2.6900768E-3,1.9948387E-1,2.0094681E-1,2.0022011E-1,
1571012653,2019-10-14 00:24:13.464,-1.0201454E-2,5.891323E-4,-3.6432743E-3,-2.7163029E-3,1.9918537E-1,2.0117855E-1,2.0040417E-1,
1571012713,2019-10-14 00:25:13.464,-1.0255098E-2,4.992485E-4,-3.3886433E-3,-2.8300285E-3,2.00737E-1,2.0435715E-1,2.0295715E-1,
1571012773,2019-10-14 00:26:13.514,-1.0123253E-2,7.212162E-4,-3.5493374E-3,-3.8051605E-4,2.0471E-1,2.082262E-1,2.0671558E-1,
1571012833,2019-10-14 00:27:13.464,-9.683847E-3,1.3511181E-3,-2.6791096E-3,-2.5465488E-3,2.011013E-1,2.0467949E-1,2.0166588E-1,
1571012893,2019-10-14 00:28:13.464,-9.423494E-3,1.3856888E-3,-2.803564E-3,-1.9609928E-3,2.0673275E-1,2.082138E-1,2.0484447E-1,
1571012953,2019-10-14 00:29:13.464,-7.7855587E-3,2.9563904E-3,-1.2850761E-3,-5.7530403E-4,2.0408916E-1,2.0841885E-1,2.0700836E-1,
1571013013,2019-10-14 00:30:13.464,-1.1816978E-2,-1.0244846E-3,-5.2485466E-3,-4.930973E-3,1.9524956E-1,1.9822884E-1,1.9652176E-1,
1571013073,2019-10-14 00:31:13.464,-9.438992E-3,1.2307167E-3,-2.9745102E-3,-1.8687248E-3,1.9968128E-1,2.0274639E-1,2.0257759E-1,
1571013133,2019-10-14 00:32:13.464,-7.389307E-3,3.2494068E-3,-8.635521E-4,-2.5987625E-4,2.1169281E-1,2.1510029E-1,2.1332932E-1,
1571013193,2019-10-14 00:33:13.464,-1.0196447E-2,4.4894218E-4,-3.2598972E-3,-2.8309822E-3,1.9910812E-1,2.0167255E-1,1.999588E-1,
1571013253,2019-10-14 00:34:13.464,-9.926319E-3,7.5674057E-4,-3.5216808E-3,-3.073454E-3,2.0212269E-1,2.0439148E-1,2.024908E-1,
1571013313,2019-10-14 00:35:13.464,-1.0273457E-2,6.0510635E-4,-3.5276413E-3,-2.598524E-3,1.9859123E-1,2.0229244E-1,2.007885E-1,
1571013373,2019-10-14 00:36:13.474,-7.9751015E-3,3.175974E-3,-1.3914108E-3,-6.313324E-4,2.0474339E-1,2.0806026E-1,2.1039104E-1,
1571013433,2019-10-14 00:37:13.464,-1.1805534E-2,-8.7857246E-4,-5.164385E-3,-4.859209E-3,2.0106316E-1,2.0398998E-1,2.0448494E-1,
1571013493,2019-10-14 00:38:13.464,-9.272337E-3,1.5201569E-3,-2.8095245E-3,-2.264738E-3,2.0243168E-1,2.0490646E-1,2.0634174E-1,
1571013553,2019-10-14 00:39:13.464,-9.268045E-3,1.6477108E-3,-2.703905E-3,-2.4385452E-3,2.05904E-1,2.0899391E-1,2.0796776E-1,
1571013613,2019-10-14 00:40:13.464,-9.239435E-3,1.465559E-3,-2.4571419E-3,-1.8589497E-3,2.0145893E-1,2.0539474E-1,2.037754E-1,
1571013673,2019-10-14 00:41:13.464,-7.882118E-3,3.2129288E-3,-1.0993481E-3,-7.8368187E-4,2.1110725E-1,2.1431637E-1,2.1284008E-1,
1571013733,2019-10-14 00:42:13.464,-9.588957E-3,1.3604164E-3,-2.9160976E-3,-2.3915768E-3,2.0003986E-1,2.0265293E-1,2.0242405E-1,
1571013793,2019-10-14 00:43:13.464,-1.1782885E-2,-1.0254383E-3,-4.9881935E-3,-4.520178E-3,1.9486427E-1,1.9800663E-1,1.988039E-1,
1571013853,2019-10-14 00:44:13.464,-1.1803627E-2,-1.0244846E-3,-5.4364204E-3,-5.116701E-3,1.9564629E-1,1.9791603E-1,1.974144E-1,
1571013913,2019-10-14 00:45:13.464,-9.806871E-3,1.0890961E-3,-3.395319E-3,-2.94137E-3,1.992073E-1,2.0162106E-1,1.9875908E-1,
1571013973,2019-10-14 00:46:13.464,-9.378433E-3,1.2686253E-3,-2.78306E-3,-2.0344257E-3,2.0035267E-1,2.026825E-1,2.0393753E-1,
1571014033,2019-10-14 00:47:13.464,-1.1795282E-2,-9.970665E-4,-5.0935745E-3,-4.341364E-3,1.9609737E-1,1.9748688E-1,1.956234E-1,
1571014093,2019-10-14 00:48:13.464,-1.21769905E-2,-1.1372566E-3,-5.0771236E-3,-4.8782825E-3,1.9434738E-1,1.966362E-1,1.9476318E-1,
1571014153,2019-10-14 00:49:13.464,-7.663727E-3,3.1297207E-3,-9.624958E-4,-2.822876E-4,2.0818806E-1,2.09898E-1,2.0862198E-1,
1571014213,2019-10-14 00:50:13.464,-7.7707767E-3,3.1239986E-3,-1.0621548E-3,-5.8555603E-4,2.0753002E-1,2.1022892E-1,2.0954037E-1,
1571014273,2019-10-14 00:51:13.464,-8.164167E-3,3.19314E-3,-1.1546612E-3,-1.0197163E-3,2.0721912E-1,2.1050453E-1,2.1246052E-1,
1571014333,2019-10-14 00:52:13.465,-1.0093451E-2,6.2060356E-4,-3.3636093E-3,-2.7906895E-3,2.023449E-1,2.0288086E-1,2.009058E-1,
1571014393,2019-10-14 00:53:13.504,-7.721424E-3,2.9771328E-3,-1.1413097E-3,-2.0270348E-3,2.0535374E-1,2.0769596E-1,2.0666695E-1,
1571014453,2019-10-14 00:54:13.464,-9.584188E-3,1.329422E-3,-2.9935837E-3,-2.3059845E-3,2.0281315E-1,2.0485115E-1,2.0342064E-1,
1571014513,2019-10-14 00:55:13.464,-9.418488E-3,1.5144348E-3,-2.806902E-3,-1.982689E-3,2.0107937E-1,2.0470238E-1,2.0288086E-1,
1571014573,2019-10-14 00:56:13.465,-9.993076E-3,8.010864E-4,-3.722906E-3,-2.6760101E-3,2.0063114E-1,2.0417023E-1,2.0177937E-1,
1571014633,2019-10-14 00:57:13.465,-1.22926235E-2,-1.2156963E-3,-5.321026E-3,-4.686117E-3,1.9946194E-1,2.0225334E-1,2.0040989E-1,
1571014693,2019-10-14 00:58:13.465,-7.58934E-3,2.9547215E-3,-1.0402203E-3,1.6403198E-4,2.0848465E-1,2.1113396E-1,2.0869923E-1,
1571014753,2019-10-14 00:59:13.464,-7.7860355E-3,2.9706955E-3,-6.740093E-4,-1.0848045E-4,2.1098042E-1,2.1463871E-1,2.1337605E-1,
