Time(longsecs),Time(UTC),Earth Location,GPS Receiver Status,GPS Satellites Used,GPS PDOP,GPS TDOP,Timing Status,Timing Phase Lock,Timing Uncertainty(ns),DAC Count,Timing Error(ns),GPS Last Update Time,
1571090413,2019-10-14 22:00:13.464,47.636338N 0.58377E 180m,Off,4,2.8268428,1.4285828,Time OK,Free running,5600,9276,0,2019-10-14 21:53:40.000000000,
1571090473,2019-10-14 22:01:13.464,47.636338N 0.58377E 180m,Off,4,2.8268428,1.4285828,Time OK,Free running,6800,9276,0,2019-10-14 21:53:40.000000000,
1571090533,2019-10-14 22:02:13.464,47.636338N 0.58377E 180m,Off,4,2.8268428,1.4285828,Time OK,Free running,8000,9276,0,2019-10-14 21:53:40.000000000,
1571090593,2019-10-14 22:03:13.467,47.636338N 0.58377E 180m,Off,4,2.8268428,1.4285828,Time OK,Free running,9200,9276,0,2019-10-14 21:53:40.000000000,
1571090653,2019-10-14 22:04:13.465,47.636338N 0.58377E 180m,Off,4,2.8268428,1.4285828,Time OK,Free running,10000,9276,0,2019-10-14 21:53:40.000000000,
1571090713,2019-10-14 22:05:13.464,47.636338N 0.58377E 180m,Off,4,2.8268428,1.4285828,Time OK,Free running,10800,9276,0,2019-10-14 21:53:40.000000000,
1571090773,2019-10-14 22:06:13.464,47.636338N 0.58377E 180m,Off,4,2.8268428,1.4285828,Time OK,Free running,12000,9276,0,2019-10-14 21:53:40.000000000,
1571090833,2019-10-14 22:07:13.464,47.636338N 0.58377E 180m,Off,4,2.8268428,1.4285828,Time OK,Free running,13200,9276,0,2019-10-14 21:53:40.000000000,
1571090893,2019-10-14 22:08:13.464,47.636338N 0.58377E 180m,Off,4,2.8268428,1.4285828,Time OK,Free running,14200,9276,0,2019-10-14 21:53:40.000000000,
1571090953,2019-10-14 22:09:13.464,47.636338N 0.58377E 180m,Off,4,2.8268428,1.4285828,Time OK,Free running,15200,9276,0,2019-10-14 21:53:40.000000000,
1571091013,2019-10-14 22:10:13.464,47.636338N 0.58377E 180m,Off,4,2.8268428,1.4285828,Time OK,Free running,16200,9276,0,2019-10-14 21:53:40.000000000,
1571091073,2019-10-14 22:11:13.464,47.636338N 0.58377E 180m,Off,4,2.8268428,1.4285828,Time OK,Free running,17200,9276,0,2019-10-14 21:53:40.000000000,
1571091133,2019-10-14 22:12:13.464,47.636338N 0.58377E 180m,Off,4,2.8268428,1.4285828,Time OK,Free running,18600,9276,0,2019-10-14 21:53:40.000000000,
1571091193,2019-10-14 22:13:13.464,47.636338N 0.58377E 180m,Off,4,2.8268428,1.4285828,Time OK,Free running,20100,9276,0,2019-10-14 21:53:40.000000000,
1571091253,2019-10-14 22:14:13.467,47.636338N 0.58377E 180m,Off,4,2.8268428,1.4285828,Time OK,Free running,21200,9276,0,2019-10-14 21:53:40.000000000,
1571091313,2019-10-14 22:15:13.464,47.636338N 0.58377E 180m,Off,4,2.8268428,1.4285828,Time OK,Free running,22200,9276,0,2019-10-14 21:53:40.000000000,
1571091373,2019-10-14 22:16:13.464,47.636338N 0.58377E 180m,Off,4,2.8268428,1.4285828,Time OK,Free running,23500,9276,0,2019-10-14 21:53:40.000000000,
1571091433,2019-10-14 22:17:13.464,47.636338N 0.58377E 180m,Off,4,2.8268428,1.4285828,Time OK,Free running,24900,9276,0,2019-10-14 21:53:40.000000000,
1571091493,2019-10-14 22:18:13.465,47.636338N 0.58377E 180m,Off,4,2.8268428,1.4285828,Time OK,Free running,26400,9276,0,2019-10-14 21:53:40.000000000,
1571091553,2019-10-14 22:19:13.464,47.636338N 0.58377E 180m,Off,4,2.8268428,1.4285828,Time OK,Free running,27700,9276,0,2019-10-14 21:53:40.000000000,
1571091613,2019-10-14 22:20:13.464,47.636338N 0.58377E 180m,Off,4,2.8268428,1.4285828,Time OK,Free running,28800,9276,0,2019-10-14 21:53:40.000000000,
1571091673,2019-10-14 22:21:13.464,47.636338N 0.58377E 180m,Off,4,2.8268428,1.4285828,Time OK,Free running,30000,9276,0,2019-10-14 21:53:40.000000000,
1571091733,2019-10-14 22:22:13.464,47.636338N 0.58377E 180m,Off,4,2.8268428,1.4285828,Time OK,Free running,31100,9276,0,2019-10-14 21:53:40.000000000,
1571091793,2019-10-14 22:23:13.464,47.636338N 0.58377E 180m,Off,4,2.8268428,1.4285828,Time OK,Free running,32300,9276,0,2019-10-14 21:53:40.000000000,
1571091853,2019-10-14 22:24:13.464,47.636338N 0.58377E 180m,Off,4,2.8268428,1.4285828,Time OK,Free running,33800,9276,0,2019-10-14 21:53:40.000000000,
1571091913,2019-10-14 22:25:13.464,47.636338N 0.58377E 180m,Off,4,2.8268428,1.4285828,Time OK,Free running,35400,9276,0,2019-10-14 21:53:40.000000000,
1571091973,2019-10-14 22:26:13.464,47.636338N 0.58377E 180m,Off,4,2.8268428,1.4285828,Time OK,Free running,36900,9276,0,2019-10-14 21:53:40.000000000,
1571092033,2019-10-14 22:27:13.465,47.636338N 0.58377E 180m,Off,4,2.8268428,1.4285828,Time OK,Free running,38500,9276,0,2019-10-14 21:53:40.000000000,
1571092093,2019-10-14 22:28:13.464,47.636338N 0.58377E 180m,Off,4,2.8268428,1.4285828,Time OK,Free running,40100,9276,0,2019-10-14 21:53:40.000000000,
1571092153,2019-10-14 22:29:13.464,47.636338N 0.58377E 180m,Off,4,2.8268428,1.4285828,Time OK,Free running,41600,9276,0,2019-10-14 21:53:40.000000000,
1571092213,2019-10-14 22:30:13.464,47.636338N 0.58377E 180m,Off,4,2.8268428,1.4285828,Time OK,Free running,42900,9276,0,2019-10-14 21:53:40.000000000,
1571092273,2019-10-14 22:31:13.467,47.636338N 0.58377E 180m,Off,4,2.8268428,1.4285828,Time OK,Free running,44200,9276,0,2019-10-14 21:53:40.000000000,
1571092333,2019-10-14 22:32:13.465,47.636338N 0.58377E 180m,Off,4,2.8268428,1.4285828,Time OK,Free running,45700,9276,0,2019-10-14 21:53:40.000000000,
1571092393,2019-10-14 22:33:13.464,47.636338N 0.58377E 180m,Off,4,2.8268428,1.4285828,Time OK,Free running,47300,9276,0,2019-10-14 21:53:40.000000000,
1571092453,2019-10-14 22:34:13.464,47.636338N 0.58377E 180m,Off,4,2.8268428,1.4285828,Time OK,Free running,48900,9276,0,2019-10-14 21:53:40.000000000,
1571092513,2019-10-14 22:35:13.464,47.636338N 0.58377E 180m,Off,4,2.8268428,1.4285828,Time OK,Free running,50600,9276,0,2019-10-14 21:53:40.000000000,
1571092573,2019-10-14 22:36:13.465,47.636338N 0.58377E 180m,Doing fixes,6,2.1375988,1.1050377,Time OK,Free running,52500,9276,0,2019-10-14 22:36:10.000000000,
1571092633,2019-10-14 22:37:13.465,47.636338N 0.58377E 180m,Doing fixes,6,1.9847497,1.0670794,Time OK,Fine lock,100,9276,-416,2019-10-14 22:37:10.000000000,
1571092693,2019-10-14 22:38:13.464,47.636338N 0.58377E 180m,Off,4,2.6612837,1.2329309,Time OK,Free running,200,9254,0,2019-10-14 22:38:00.000000000,
1571092753,2019-10-14 22:39:13.464,47.636338N 0.58377E 180m,Off,4,2.6612837,1.2329309,Time OK,Free running,1200,9254,0,2019-10-14 22:38:00.000000000,
1571092813,2019-10-14 22:40:13.464,47.636338N 0.58377E 180m,Off,4,2.6612837,1.2329309,Time OK,Free running,2400,9254,0,2019-10-14 22:38:00.000000000,
1571092873,2019-10-14 22:41:13.464,47.636338N 0.58377E 180m,Off,4,2.6612837,1.2329309,Time OK,Free running,3400,9254,0,2019-10-14 22:38:00.000000000,
1571092933,2019-10-14 22:42:13.464,47.636338N 0.58377E 180m,Off,4,2.6612837,1.2329309,Time OK,Free running,4300,9254,0,2019-10-14 22:38:00.000000000,
1571092993,2019-10-14 22:43:13.464,47.636338N 0.58377E 180m,Off,4,2.6612837,1.2329309,Time OK,Free running,5300,9254,0,2019-10-14 22:38:00.000000000,
1571093053,2019-10-14 22:44:13.464,47.636338N 0.58377E 180m,Off,4,2.6612837,1.2329309,Time OK,Free running,6100,9254,0,2019-10-14 22:38:00.000000000,
1571093113,2019-10-14 22:45:13.464,47.636338N 0.58377E 180m,Off,4,2.6612837,1.2329309,Time OK,Free running,6900,9254,0,2019-10-14 22:38:00.000000000,
1571093173,2019-10-14 22:46:13.497,47.636338N 0.58377E 180m,Off,4,2.6612837,1.2329309,Time OK,Free running,7900,9254,0,2019-10-14 22:38:00.000000000,
1571093233,2019-10-14 22:47:13.474,47.636338N 0.58377E 180m,Off,4,2.6612837,1.2329309,Time OK,Free running,8700,9254,0,2019-10-14 22:38:00.000000000,
1571093293,2019-10-14 22:48:13.465,47.636338N 0.58377E 180m,Off,4,2.6612837,1.2329309,Time OK,Free running,9700,9254,0,2019-10-14 22:38:00.000000000,
1571093353,2019-10-14 22:49:13.475,47.636338N 0.58377E 180m,Off,4,2.6612837,1.2329309,Time OK,Free running,10700,9254,0,2019-10-14 22:38:00.000000000,
1571093413,2019-10-14 22:50:13.497,47.636338N 0.58377E 180m,Off,4,2.6612837,1.2329309,Time OK,Free running,11500,9254,0,2019-10-14 22:38:00.000000000,
1571093473,2019-10-14 22:51:13.473,47.636338N 0.58377E 180m,Off,4,2.6612837,1.2329309,Time OK,Free running,12500,9254,0,2019-10-14 22:38:00.000000000,
1571093533,2019-10-14 22:52:13.467,47.636338N 0.58377E 180m,Off,4,2.6612837,1.2329309,Time OK,Free running,13400,9254,0,2019-10-14 22:38:00.000000000,
1571093593,2019-10-14 22:53:13.464,47.636338N 0.58377E 180m,Off,4,2.6612837,1.2329309,Time OK,Free running,14400,9254,0,2019-10-14 22:38:00.000000000,
1571093653,2019-10-14 22:54:13.464,47.636338N 0.58377E 180m,Off,4,2.6612837,1.2329309,Time OK,Free running,15200,9254,0,2019-10-14 22:38:00.000000000,
1571093713,2019-10-14 22:55:13.464,47.636338N 0.58377E 180m,Off,4,2.6612837,1.2329309,Time OK,Free running,16100,9254,0,2019-10-14 22:38:00.000000000,
1571093773,2019-10-14 22:56:13.464,47.636338N 0.58377E 180m,Off,4,2.6612837,1.2329309,Time OK,Free running,17000,9254,0,2019-10-14 22:38:00.000000000,
1571093833,2019-10-14 22:57:13.467,47.636338N 0.58377E 180m,Off,4,2.6612837,1.2329309,Time OK,Free running,17900,9254,0,2019-10-14 22:38:00.000000000,
1571093893,2019-10-14 22:58:13.464,47.636338N 0.58377E 180m,Off,4,2.6612837,1.2329309,Time OK,Free running,19100,9254,0,2019-10-14 22:38:00.000000000,
1571093953,2019-10-14 22:59:13.464,47.636338N 0.58377E 180m,Off,4,2.6612837,1.2329309,Time OK,Free running,20000,9254,0,2019-10-14 22:38:00.000000000,
