Time(longsecs),Time(UTC),Earth Location,GPS Receiver Status,GPS Satellites Used,GPS PDOP,GPS TDOP,Timing Status,Timing Phase Lock,Timing Uncertainty(ns),DAC Count,Timing Error(ns),GPS Last Update Time,
1571036413,2019-10-14 07:00:13.464,47.636182N 0.584115E 196m,Off,5,2.654455,1.5676061,Time OK,Free running,11100,9176,0,2019-10-14 06:49:50.000000000,
1571036473,2019-10-14 07:01:13.503,47.636182N 0.584115E 196m,Off,5,2.654455,1.5676061,Time OK,Free running,12100,9176,0,2019-10-14 06:49:50.000000000,
1571036533,2019-10-14 07:02:13.465,47.636182N 0.584115E 196m,Off,5,2.654455,1.5676061,Time OK,Free running,13000,9176,0,2019-10-14 06:49:50.000000000,
1571036593,2019-10-14 07:03:13.464,47.636182N 0.584115E 196m,Off,5,2.654455,1.5676061,Time OK,Free running,14200,9176,0,2019-10-14 06:49:50.000000000,
1571036653,2019-10-14 07:04:13.464,47.636182N 0.584115E 196m,Off,5,2.654455,1.5676061,Time OK,Free running,15500,9176,0,2019-10-14 06:49:50.000000000,
1571036713,2019-10-14 07:05:13.464,47.636182N 0.584115E 196m,Off,5,2.654455,1.5676061,Time OK,Free running,16600,9176,0,2019-10-14 06:49:50.000000000,
1571036773,2019-10-14 07:06:13.466,47.636182N 0.584115E 196m,Off,5,2.654455,1.5676061,Time OK,Free running,17900,9176,0,2019-10-14 06:49:50.000000000,
1571036833,2019-10-14 07:07:13.464,47.636182N 0.584115E 196m,Off,5,2.654455,1.5676061,Time OK,Free running,19000,9176,0,2019-10-14 06:49:50.000000000,
1571036893,2019-10-14 07:08:13.467,47.636182N 0.584115E 196m,Off,5,2.654455,1.5676061,Time OK,Free running,19800,9176,0,2019-10-14 06:49:50.000000000,
1571036953,2019-10-14 07:09:13.467,47.636182N 0.584115E 196m,Off,5,2.654455,1.5676061,Time OK,Free running,20700,9176,0,2019-10-14 06:49:50.000000000,
1571037013,2019-10-14 07:10:13.464,47.636182N 0.584115E 196m,Off,5,2.654455,1.5676061,Time OK,Free running,21700,9176,0,2019-10-14 06:49:50.000000000,
1571037073,2019-10-14 07:11:13.469,47.636182N 0.584115E 196m,Off,5,2.654455,1.5676061,Time OK,Free running,22800,9176,0,2019-10-14 06:49:50.000000000,
1571037133,2019-10-14 07:12:13.498,47.636182N 0.584115E 196m,Off,5,2.654455,1.5676061,Time OK,Free running,24200,9176,0,2019-10-14 06:49:50.000000000,
1571037193,2019-10-14 07:13:13.464,47.636182N 0.584115E 196m,Off,5,2.654455,1.5676061,Time OK,Free running,25300,9176,0,2019-10-14 06:49:50.000000000,
1571037253,2019-10-14 07:14:13.464,47.636182N 0.584115E 196m,Off,5,2.654455,1.5676061,Time OK,Free running,26400,9176,0,2019-10-14 06:49:50.000000000,
1571037313,2019-10-14 07:15:13.464,47.636182N 0.584115E 196m,Off,5,2.654455,1.5676061,Time OK,Free running,27400,9176,0,2019-10-14 06:49:50.000000000,
1571037373,2019-10-14 07:16:13.481,47.636182N 0.584115E 196m,Off,5,2.654455,1.5676061,Time OK,Free running,28300,9176,0,2019-10-14 06:49:50.000000000,
1571037433,2019-10-14 07:17:13.464,47.636182N 0.584115E 196m,Off,5,2.654455,1.5676061,Time OK,Free running,29200,9176,0,2019-10-14 06:49:50.000000000,
1571037493,2019-10-14 07:18:13.464,47.636182N 0.584115E 196m,Off,5,2.654455,1.5676061,Time OK,Free running,30500,9176,0,2019-10-14 06:49:50.000000000,
1571037553,2019-10-14 07:19:13.464,47.636182N 0.584115E 196m,Off,5,2.654455,1.5676061,Time OK,Free running,31700,9176,0,2019-10-14 06:49:50.000000000,
1571037613,2019-10-14 07:20:13.464,47.636182N 0.584115E 196m,Off,5,2.654455,1.5676061,Time OK,Free running,32600,9176,0,2019-10-14 06:49:50.000000000,
1571037673,2019-10-14 07:21:13.497,47.636182N 0.584115E 196m,Off,5,2.654455,1.5676061,Time OK,Free running,33600,9176,0,2019-10-14 06:49:50.000000000,
1571037733,2019-10-14 07:22:13.464,47.636182N 0.584115E 196m,Off,5,2.654455,1.5676061,Time OK,Free running,34500,9176,0,2019-10-14 06:49:50.000000000,
1571037793,2019-10-14 07:23:13.464,47.636182N 0.584115E 196m,Off,5,2.654455,1.5676061,Time OK,Free running,35600,9176,0,2019-10-14 06:49:50.000000000,
1571037853,2019-10-14 07:24:13.464,47.636182N 0.584115E 196m,Off,5,2.654455,1.5676061,Time OK,Free running,37000,9176,0,2019-10-14 06:49:50.000000000,
1571037913,2019-10-14 07:25:13.464,47.636182N 0.584115E 196m,Off,5,2.654455,1.5676061,Time OK,Free running,38000,9176,0,2019-10-14 06:49:50.000000000,
1571037973,2019-10-14 07:26:13.464,47.636182N 0.584115E 196m,Off,5,2.654455,1.5676061,Time OK,Free running,38900,9176,0,2019-10-14 06:49:50.000000000,
1571038033,2019-10-14 07:27:13.467,47.636182N 0.584115E 196m,Off,5,2.654455,1.5676061,Time OK,Free running,40100,9176,0,2019-10-14 06:49:50.000000000,
1571038093,2019-10-14 07:28:13.464,47.636182N 0.584115E 196m,Off,5,2.654455,1.5676061,Time OK,Free running,41500,9176,0,2019-10-14 06:49:50.000000000,
1571038153,2019-10-14 07:29:13.464,47.636182N 0.584115E 196m,Off,5,2.654455,1.5676061,Time OK,Free running,42500,9176,0,2019-10-14 06:49:50.000000000,
1571038213,2019-10-14 07:30:13.464,47.636182N 0.584115E 196m,Off,5,2.654455,1.5676061,Time OK,Free running,43500,9176,0,2019-10-14 06:49:50.000000000,
1571038273,2019-10-14 07:31:13.464,47.636182N 0.584115E 196m,Off,5,2.654455,1.5676061,Time OK,Free running,44500,9176,0,2019-10-14 06:49:50.000000000,
1571038333,2019-10-14 07:32:13.464,47.636182N 0.584115E 196m,Off,5,2.654455,1.5676061,Time OK,Free running,45300,9176,0,2019-10-14 06:49:50.000000000,
1571038393,2019-10-14 07:33:13.464,47.636182N 0.584115E 196m,Off,5,2.654455,1.5676061,Time OK,Free running,46200,9176,0,2019-10-14 06:49:50.000000000,
1571038453,2019-10-14 07:34:13.464,47.636182N 0.584115E 196m,Off,5,2.654455,1.5676061,Time OK,Free running,47300,9176,0,2019-10-14 06:49:50.000000000,
1571038513,2019-10-14 07:35:13.464,47.636182N 0.584115E 196m,Off,5,2.654455,1.5676061,Time OK,Free running,48300,9176,0,2019-10-14 06:49:50.000000000,
1571038573,2019-10-14 07:36:13.464,47.636182N 0.584115E 196m,Off,5,2.654455,1.5676061,Time OK,Free running,49200,9176,0,2019-10-14 06:49:50.000000000,
1571038633,2019-10-14 07:37:13.514,47.636182N 0.584115E 196m,Off,5,2.654455,1.5676061,Time OK,Free running,50200,9176,0,2019-10-14 06:49:50.000000000,
1571038693,2019-10-14 07:38:13.465,47.636182N 0.584115E 196m,Two satellites,2,0.0,0.0,Time OK,Free running,51200,9176,0,2019-10-14 07:38:10.000000000,
1571038753,2019-10-14 07:39:13.465,47.636182N 0.584115E 196m,Doing fixes,5,4.058221,2.4638636,Time OK,Coarse lock,100,9328,-625,2019-10-14 07:39:10.000000000,
1571038813,2019-10-14 07:40:13.465,47.636182N 0.584115E 196m,Doing fixes,4,4.25947,2.5365772,Time OK,Fine lock,100,9216,-208,2019-10-14 07:40:10.000000000,
1571038873,2019-10-14 07:41:13.465,47.636182N 0.584115E 196m,Doing fixes,5,3.2091236,2.0116186,Time OK,Fine lock,100,9182,0,2019-10-14 07:41:10.000000000,
1571038933,2019-10-14 07:42:13.465,47.636182N 0.584115E 196m,Off,6,3.152181,1.973778,Time OK,Free running,800,9181,0,2019-10-14 07:41:20.000000000,
1571038993,2019-10-14 07:43:13.464,47.636182N 0.584115E 196m,Off,6,3.152181,1.973778,Time OK,Free running,1700,9181,0,2019-10-14 07:41:20.000000000,
1571039053,2019-10-14 07:44:13.464,47.636182N 0.584115E 196m,Off,6,3.152181,1.973778,Time OK,Free running,2800,9181,0,2019-10-14 07:41:20.000000000,
1571039113,2019-10-14 07:45:13.464,47.636182N 0.584115E 196m,Off,6,3.152181,1.973778,Time OK,Free running,3900,9181,0,2019-10-14 07:41:20.000000000,
1571039173,2019-10-14 07:46:13.467,47.636182N 0.584115E 196m,Off,6,3.152181,1.973778,Time OK,Free running,4900,9181,0,2019-10-14 07:41:20.000000000,
1571039233,2019-10-14 07:47:13.464,47.636182N 0.584115E 196m,Off,6,3.152181,1.973778,Time OK,Free running,5800,9181,0,2019-10-14 07:41:20.000000000,
1571039293,2019-10-14 07:48:13.497,47.636182N 0.584115E 196m,Off,6,3.152181,1.973778,Time OK,Free running,6900,9181,0,2019-10-14 07:41:20.000000000,
1571039353,2019-10-14 07:49:13.464,47.636182N 0.584115E 196m,Off,6,3.152181,1.973778,Time OK,Free running,7900,9181,0,2019-10-14 07:41:20.000000000,
1571039413,2019-10-14 07:50:13.464,47.636182N 0.584115E 196m,Off,6,3.152181,1.973778,Time OK,Free running,8800,9181,0,2019-10-14 07:41:20.000000000,
1571039473,2019-10-14 07:51:13.464,47.636182N 0.584115E 196m,Off,6,3.152181,1.973778,Time OK,Free running,9800,9181,0,2019-10-14 07:41:20.000000000,
1571039533,2019-10-14 07:52:13.464,47.636182N 0.584115E 196m,Off,6,3.152181,1.973778,Time OK,Free running,10700,9181,0,2019-10-14 07:41:20.000000000,
1571039593,2019-10-14 07:53:13.464,47.636182N 0.584115E 196m,Off,6,3.152181,1.973778,Time OK,Free running,11500,9181,0,2019-10-14 07:41:20.000000000,
1571039653,2019-10-14 07:54:13.496,47.636182N 0.584115E 196m,Off,6,3.152181,1.973778,Time OK,Free running,12500,9181,0,2019-10-14 07:41:20.000000000,
1571039713,2019-10-14 07:55:13.464,47.636182N 0.584115E 196m,Off,6,3.152181,1.973778,Time OK,Free running,13500,9181,0,2019-10-14 07:41:20.000000000,
1571039773,2019-10-14 07:56:13.468,47.636182N 0.584115E 196m,Off,6,3.152181,1.973778,Time OK,Free running,14500,9181,0,2019-10-14 07:41:20.000000000,
1571039833,2019-10-14 07:57:13.464,47.636182N 0.584115E 196m,Off,6,3.152181,1.973778,Time OK,Free running,15900,9181,0,2019-10-14 07:41:20.000000000,
1571039893,2019-10-14 07:58:13.464,47.636182N 0.584115E 196m,Off,6,3.152181,1.973778,Time OK,Free running,17300,9181,0,2019-10-14 07:41:20.000000000,
1571039953,2019-10-14 07:59:13.489,47.636182N 0.584115E 196m,Off,6,3.152181,1.973778,Time OK,Free running,18300,9181,0,2019-10-14 07:41:20.000000000,
